{
  "url": "https://api.github.com/repos/bitcoin/bitcoin/issues/28575",
  "repository_url": "https://api.github.com/repos/bitcoin/bitcoin",
  "labels_url": "https://api.github.com/repos/bitcoin/bitcoin/issues/28575/labels{/name}",
  "comments_url": "https://api.github.com/repos/bitcoin/bitcoin/issues/28575/comments",
  "events_url": "https://api.github.com/repos/bitcoin/bitcoin/issues/28575/events",
  "html_url": "https://github.com/bitcoin/bitcoin/pull/28575",
  "id": 1924300986,
  "node_id": "PR_kwDOABII585bzK5U",
  "number": 28575,
  "title": "ci: Print Linux kernel info",
  "user": {
    "login": "maflcko",
    "id": 6399679,
    "node_id": "MDQ6VXNlcjYzOTk2Nzk=",
    "avatar_url": "https://avatars.githubusercontent.com/u/6399679?v=4",
    "gravatar_id": "",
    "url": "https://api.github.com/users/maflcko",
    "html_url": "https://github.com/maflcko",
    "followers_url": "https://api.github.com/users/maflcko/followers",
    "following_url": "https://api.github.com/users/maflcko/following{/other_user}",
    "gists_url": "https://api.github.com/users/maflcko/gists{/gist_id}",
    "starred_url": "https://api.github.com/users/maflcko/starred{/owner}{/repo}",
    "subscriptions_url": "https://api.github.com/users/maflcko/subscriptions",
    "organizations_url": "https://api.github.com/users/maflcko/orgs",
    "repos_url": "https://api.github.com/users/maflcko/repos",
    "events_url": "https://api.github.com/users/maflcko/events{/privacy}",
    "received_events_url": "https://api.github.com/users/maflcko/received_events",
    "type": "User",
    "site_admin": false
  },
  "labels": [
    {
      "id": 62963516,
      "node_id": "MDU6TGFiZWw2Mjk2MzUxNg==",
      "url": "https://api.github.com/repos/bitcoin/bitcoin/labels/Tests",
      "name": "Tests",
      "color": "d4c5f9",
      "default": false,
      "description": null
    }
  ],
  "state": "closed",
  "locked": false,
  "assignee": null,
  "assignees": [

  ],
  "milestone": {
    "url": "https://api.github.com/repos/bitcoin/bitcoin/milestones/60",
    "html_url": "https://github.com/bitcoin/bitcoin/milestone/60",
    "labels_url": "https://api.github.com/repos/bitcoin/bitcoin/milestones/60/labels",
    "id": 9286970,
    "node_id": "MI_kwDOABII584AjbU6",
    "number": 60,
    "title": "26.0",
    "description": "",
    "creator": {
      "login": "fanquake",
      "id": 863730,
      "node_id": "MDQ6VXNlcjg2MzczMA==",
      "avatar_url": "https://avatars.githubusercontent.com/u/863730?v=4",
      "gravatar_id": "",
      "url": "https://api.github.com/users/fanquake",
      "html_url": "https://github.com/fanquake",
      "followers_url": "https://api.github.com/users/fanquake/followers",
      "following_url": "https://api.github.com/users/fanquake/following{/other_user}",
      "gists_url": "https://api.github.com/users/fanquake/gists{/gist_id}",
      "starred_url": "https://api.github.com/users/fanquake/starred{/owner}{/repo}",
      "subscriptions_url": "https://api.github.com/users/fanquake/subscriptions",
      "organizations_url": "https://api.github.com/users/fanquake/orgs",
      "repos_url": "https://api.github.com/users/fanquake/repos",
      "events_url": "https://api.github.com/users/fanquake/events{/privacy}",
      "received_events_url": "https://api.github.com/users/fanquake/received_events",
      "type": "User",
      "site_admin": false
    },
    "open_issues": 0,
    "closed_issues": 116,
    "state": "closed",
    "created_at": "2023-04-15T11:36:05Z",
    "updated_at": "2023-12-08T10:41:40Z",
    "due_on": null,
    "closed_at": "2023-12-04T13:27:46Z"
  },
  "comments": 5,
  "created_at": "2023-10-03T14:39:20Z",
  "updated_at": "2023-12-04T23:56:15Z",
  "closed_at": "2023-10-03T15:57:19Z",
  "author_association": "MEMBER",
  "active_lock_reason": null,
  "draft": false,
  "pull_request": {
    "url": "https://api.github.com/repos/bitcoin/bitcoin/pulls/28575",
    "html_url": "https://github.com/bitcoin/bitcoin/pull/28575",
    "diff_url": "https://github.com/bitcoin/bitcoin/pull/28575.diff",
    "patch_url": "https://github.com/bitcoin/bitcoin/pull/28575.patch",
    "merged_at": "2023-10-03T15:57:19Z"
  },
  "body_html": "<p dir=\"auto\">Required to debug issues like <a class=\"issue-link js-issue-link\" data-error-text=\"Failed to load title\" data-id=\"1898026003\" data-permission-text=\"Title is private\" data-url=\"https://github.com/bitcoin/bitcoin/issues/28487\" data-hovercard-type=\"pull_request\" data-hovercard-url=\"/bitcoin/bitcoin/pull/28487/hovercard?comment_id=1729717923&amp;comment_type=issue_comment\" href=\"https://github.com/bitcoin/bitcoin/pull/28487#issuecomment-1729717923\">#28487 (comment)</a>. For example:</p>\n<div class=\"snippet-clipboard-content notranslate position-relative overflow-auto\" data-snippet-clipboard-copy-content=\"FATAL: ThreadSanitizer: unexpected memory mapping 0x57cf8f031000-0x57cf8f173000\"><pre class=\"notranslate\"><code class=\"notranslate\">FATAL: ThreadSanitizer: unexpected memory mapping 0x57cf8f031000-0x57cf8f173000\n</code></pre></div>",
  "body_text": "Required to debug issues like #28487 (comment). For example:\nFATAL: ThreadSanitizer: unexpected memory mapping 0x57cf8f031000-0x57cf8f173000",
  "body": "Required to debug issues like https://github.com/bitcoin/bitcoin/pull/28487#issuecomment-1729717923. For example:\r\n\r\n```\r\nFATAL: ThreadSanitizer: unexpected memory mapping 0x57cf8f031000-0x57cf8f173000",
  "closed_by": {
    "login": "fanquake",
    "id": 863730,
    "node_id": "MDQ6VXNlcjg2MzczMA==",
    "avatar_url": "https://avatars.githubusercontent.com/u/863730?v=4",
    "gravatar_id": "",
    "url": "https://api.github.com/users/fanquake",
    "html_url": "https://github.com/fanquake",
    "followers_url": "https://api.github.com/users/fanquake/followers",
    "following_url": "https://api.github.com/users/fanquake/following{/other_user}",
    "gists_url": "https://api.github.com/users/fanquake/gists{/gist_id}",
    "starred_url": "https://api.github.com/users/fanquake/starred{/owner}{/repo}",
    "subscriptions_url": "https://api.github.com/users/fanquake/subscriptions",
    "organizations_url": "https://api.github.com/users/fanquake/orgs",
    "repos_url": "https://api.github.com/users/fanquake/repos",
    "events_url": "https://api.github.com/users/fanquake/events{/privacy}",
    "received_events_url": "https://api.github.com/users/fanquake/received_events",
    "type": "User",
    "site_admin": false
  },
  "reactions": {
    "url": "https://api.github.com/repos/bitcoin/bitcoin/issues/28575/reactions",
    "total_count": 0,
    "+1": 0,
    "-1": 0,
    "laugh": 0,
    "hooray": 0,
    "confused": 0,
    "heart": 0,
    "rocket": 0,
    "eyes": 0
  },
  "timeline_url": "https://api.github.com/repos/bitcoin/bitcoin/issues/28575/timeline",
  "performed_via_github_app": null,
  "state_reason": null
}
