{
  "url": "https://api.github.com/repos/bitcoin/bitcoin/issues/7",
  "repository_url": "https://api.github.com/repos/bitcoin/bitcoin",
  "labels_url": "https://api.github.com/repos/bitcoin/bitcoin/issues/7/labels{/name}",
  "comments_url": "https://api.github.com/repos/bitcoin/bitcoin/issues/7/comments",
  "events_url": "https://api.github.com/repos/bitcoin/bitcoin/issues/7/events",
  "html_url": "https://github.com/bitcoin/bitcoin/issues/7",
  "id": 484174,
  "node_id": "MDU6SXNzdWU0ODQxNzQ=",
  "number": 7,
  "title": "Block-header-only, faster startup client",
  "user": {
    "login": "gavinandresen",
    "id": 331997,
    "node_id": "MDQ6VXNlcjMzMTk5Nw==",
    "avatar_url": "https://avatars.githubusercontent.com/u/331997?v=4",
    "gravatar_id": "",
    "url": "https://api.github.com/users/gavinandresen",
    "html_url": "https://github.com/gavinandresen",
    "followers_url": "https://api.github.com/users/gavinandresen/followers",
    "following_url": "https://api.github.com/users/gavinandresen/following{/other_user}",
    "gists_url": "https://api.github.com/users/gavinandresen/gists{/gist_id}",
    "starred_url": "https://api.github.com/users/gavinandresen/starred{/owner}{/repo}",
    "subscriptions_url": "https://api.github.com/users/gavinandresen/subscriptions",
    "organizations_url": "https://api.github.com/users/gavinandresen/orgs",
    "repos_url": "https://api.github.com/users/gavinandresen/repos",
    "events_url": "https://api.github.com/users/gavinandresen/events{/privacy}",
    "received_events_url": "https://api.github.com/users/gavinandresen/received_events",
    "type": "User",
    "site_admin": false
  },
  "labels": [
    {
      "id": 64583,
      "node_id": "MDU6TGFiZWw2NDU4Mw==",
      "url": "https://api.github.com/repos/bitcoin/bitcoin/labels/Feature",
      "name": "Feature",
      "color": "7cf575",
      "default": false,
      "description": null
    },
    {
      "id": 98298007,
      "node_id": "MDU6TGFiZWw5ODI5ODAwNw==",
      "url": "https://api.github.com/repos/bitcoin/bitcoin/labels/P2P",
      "name": "P2P",
      "color": "006b75",
      "default": false,
      "description": null
    }
  ],
  "state": "closed",
  "locked": true,
  "assignee": null,
  "assignees": [

  ],
  "milestone": null,
  "comments": 10,
  "created_at": "2010-12-20T13:53:07Z",
  "updated_at": "2021-09-08T12:21:15Z",
  "closed_at": "2014-10-28T18:28:34Z",
  "author_association": "CONTRIBUTOR",
  "active_lock_reason": "resolved",
  "body_html": "<p dir=\"auto\">Bitcoin newbies have to endure an hour or two (or more) while bitcoin downloads and indexes all transactions and blocks.</p>\n<p dir=\"auto\">Satoshi has mostly implemented code that downloads just the block headers; as long as you're not generating blocks, you don't need all the old transactions.</p>",
  "body_text": "Bitcoin newbies have to endure an hour or two (or more) while bitcoin downloads and indexes all transactions and blocks.\nSatoshi has mostly implemented code that downloads just the block headers; as long as you're not generating blocks, you don't need all the old transactions.",
  "body": "Bitcoin newbies have to endure an hour or two (or more) while bitcoin downloads and indexes all transactions and blocks.\n\nSatoshi has mostly implemented code that downloads just the block headers; as long as you're not generating blocks, you don't need all the old transactions.\n",
  "closed_by": {
    "login": "gavinandresen",
    "id": 331997,
    "node_id": "MDQ6VXNlcjMzMTk5Nw==",
    "avatar_url": "https://avatars.githubusercontent.com/u/331997?v=4",
    "gravatar_id": "",
    "url": "https://api.github.com/users/gavinandresen",
    "html_url": "https://github.com/gavinandresen",
    "followers_url": "https://api.github.com/users/gavinandresen/followers",
    "following_url": "https://api.github.com/users/gavinandresen/following{/other_user}",
    "gists_url": "https://api.github.com/users/gavinandresen/gists{/gist_id}",
    "starred_url": "https://api.github.com/users/gavinandresen/starred{/owner}{/repo}",
    "subscriptions_url": "https://api.github.com/users/gavinandresen/subscriptions",
    "organizations_url": "https://api.github.com/users/gavinandresen/orgs",
    "repos_url": "https://api.github.com/users/gavinandresen/repos",
    "events_url": "https://api.github.com/users/gavinandresen/events{/privacy}",
    "received_events_url": "https://api.github.com/users/gavinandresen/received_events",
    "type": "User",
    "site_admin": false
  },
  "reactions": {
    "url": "https://api.github.com/repos/bitcoin/bitcoin/issues/7/reactions",
    "total_count": 0,
    "+1": 0,
    "-1": 0,
    "laugh": 0,
    "hooray": 0,
    "confused": 0,
    "heart": 0,
    "rocket": 0,
    "eyes": 0
  },
  "timeline_url": "https://api.github.com/repos/bitcoin/bitcoin/issues/7/timeline",
  "performed_via_github_app": null,
  "state_reason": "completed"
}
