[
  {
    "url": "https://api.github.com/repos/bitcoin/bitcoin/issues/comments/810006296",
    "html_url": "https://github.com/bitcoin/bitcoin/pull/21553#issuecomment-810006296",
    "issue_url": "https://api.github.com/repos/bitcoin/bitcoin/issues/21553",
    "id": 810006296,
    "node_id": "MDEyOklzc3VlQ29tbWVudDgxMDAwNjI5Ng==",
    "user": {
      "login": "practicalswift",
      "id": 7826565,
      "node_id": "MDQ6VXNlcjc4MjY1NjU=",
      "avatar_url": "https://avatars.githubusercontent.com/u/7826565?v=4",
      "gravatar_id": "",
      "url": "https://api.github.com/users/practicalswift",
      "html_url": "https://github.com/practicalswift",
      "followers_url": "https://api.github.com/users/practicalswift/followers",
      "following_url": "https://api.github.com/users/practicalswift/following{/other_user}",
      "gists_url": "https://api.github.com/users/practicalswift/gists{/gist_id}",
      "starred_url": "https://api.github.com/users/practicalswift/starred{/owner}{/repo}",
      "subscriptions_url": "https://api.github.com/users/practicalswift/subscriptions",
      "organizations_url": "https://api.github.com/users/practicalswift/orgs",
      "repos_url": "https://api.github.com/users/practicalswift/repos",
      "events_url": "https://api.github.com/users/practicalswift/events{/privacy}",
      "received_events_url": "https://api.github.com/users/practicalswift/received_events",
      "type": "User",
      "site_admin": false
    },
    "created_at": "2021-03-30T08:01:12Z",
    "updated_at": "2021-03-30T08:01:12Z",
    "author_association": "CONTRIBUTOR",
    "body_html": "<p dir=\"auto\">cr ACK <a class=\"commit-link\" data-hovercard-type=\"commit\" data-hovercard-url=\"https://github.com/bitcoin/bitcoin/commit/faa8b2de6b9749d33b4f11155a29d7094f23a144/hovercard\" href=\"https://github.com/bitcoin/bitcoin/commit/faa8b2de6b9749d33b4f11155a29d7094f23a144\"><tt>faa8b2d</tt></a>: patch looks correct and touches only <code class=\"notranslate\">src/test/fuzz/</code> (+ one addition to <code class=\"notranslate\">src/test/util/</code>)</p>\n<p dir=\"auto\">Thanks for cleaning up!</p>",
    "body_text": "cr ACK faa8b2d: patch looks correct and touches only src/test/fuzz/ (+ one addition to src/test/util/)\nThanks for cleaning up!",
    "body": "cr ACK faa8b2de6b9749d33b4f11155a29d7094f23a144: patch looks correct and touches only `src/test/fuzz/` (+ one addition to `src/test/util/`)\r\n\r\nThanks for cleaning up!",
    "reactions": {
      "url": "https://api.github.com/repos/bitcoin/bitcoin/issues/comments/810006296/reactions",
      "total_count": 0,
      "+1": 0,
      "-1": 0,
      "laugh": 0,
      "hooray": 0,
      "confused": 0,
      "heart": 0,
      "rocket": 0,
      "eyes": 0
    },
    "performed_via_github_app": null
  },
  {
    "url": "https://api.github.com/repos/bitcoin/bitcoin/issues/comments/810035303",
    "html_url": "https://github.com/bitcoin/bitcoin/pull/21553#issuecomment-810035303",
    "issue_url": "https://api.github.com/repos/bitcoin/bitcoin/issues/21553",
    "id": 810035303,
    "node_id": "MDEyOklzc3VlQ29tbWVudDgxMDAzNTMwMw==",
    "user": {
      "login": "practicalswift",
      "id": 7826565,
      "node_id": "MDQ6VXNlcjc4MjY1NjU=",
      "avatar_url": "https://avatars.githubusercontent.com/u/7826565?v=4",
      "gravatar_id": "",
      "url": "https://api.github.com/users/practicalswift",
      "html_url": "https://github.com/practicalswift",
      "followers_url": "https://api.github.com/users/practicalswift/followers",
      "following_url": "https://api.github.com/users/practicalswift/following{/other_user}",
      "gists_url": "https://api.github.com/users/practicalswift/gists{/gist_id}",
      "starred_url": "https://api.github.com/users/practicalswift/starred{/owner}{/repo}",
      "subscriptions_url": "https://api.github.com/users/practicalswift/subscriptions",
      "organizations_url": "https://api.github.com/users/practicalswift/orgs",
      "repos_url": "https://api.github.com/users/practicalswift/repos",
      "events_url": "https://api.github.com/users/practicalswift/events{/privacy}",
      "received_events_url": "https://api.github.com/users/practicalswift/received_events",
      "type": "User",
      "site_admin": false
    },
    "created_at": "2021-03-30T08:42:10Z",
    "updated_at": "2021-03-30T08:42:10Z",
    "author_association": "CONTRIBUTOR",
    "body_html": "<p dir=\"auto\">cr re-ACK <a class=\"commit-link\" data-hovercard-type=\"commit\" data-hovercard-url=\"https://github.com/bitcoin/bitcoin/commit/faaf133e4ada4a12783e7395a17f207f7d700e09/hovercard\" href=\"https://github.com/bitcoin/bitcoin/commit/faaf133e4ada4a12783e7395a17f207f7d700e09\"><tt>faaf133</tt></a></p>",
    "body_text": "cr re-ACK faaf133",
    "body": "cr re-ACK faaf133e4ada4a12783e7395a17f207f7d700e09",
    "reactions": {
      "url": "https://api.github.com/repos/bitcoin/bitcoin/issues/comments/810035303/reactions",
      "total_count": 0,
      "+1": 0,
      "-1": 0,
      "laugh": 0,
      "hooray": 0,
      "confused": 0,
      "heart": 0,
      "rocket": 0,
      "eyes": 0
    },
    "performed_via_github_app": null
  },
  {
    "url": "https://api.github.com/repos/bitcoin/bitcoin/issues/comments/810087963",
    "html_url": "https://github.com/bitcoin/bitcoin/pull/21553#issuecomment-810087963",
    "issue_url": "https://api.github.com/repos/bitcoin/bitcoin/issues/21553",
    "id": 810087963,
    "node_id": "MDEyOklzc3VlQ29tbWVudDgxMDA4Nzk2Mw==",
    "user": {
      "login": "maflcko",
      "id": 6399679,
      "node_id": "MDQ6VXNlcjYzOTk2Nzk=",
      "avatar_url": "https://avatars.githubusercontent.com/u/6399679?v=4",
      "gravatar_id": "",
      "url": "https://api.github.com/users/maflcko",
      "html_url": "https://github.com/maflcko",
      "followers_url": "https://api.github.com/users/maflcko/followers",
      "following_url": "https://api.github.com/users/maflcko/following{/other_user}",
      "gists_url": "https://api.github.com/users/maflcko/gists{/gist_id}",
      "starred_url": "https://api.github.com/users/maflcko/starred{/owner}{/repo}",
      "subscriptions_url": "https://api.github.com/users/maflcko/subscriptions",
      "organizations_url": "https://api.github.com/users/maflcko/orgs",
      "repos_url": "https://api.github.com/users/maflcko/repos",
      "events_url": "https://api.github.com/users/maflcko/events{/privacy}",
      "received_events_url": "https://api.github.com/users/maflcko/received_events",
      "type": "User",
      "site_admin": false
    },
    "created_at": "2021-03-30T09:57:58Z",
    "updated_at": "2021-03-30T10:10:25Z",
    "author_association": "MEMBER",
    "body_html": "<p dir=\"auto\">Sorry for the force push. Should be done now. No change in coverage:</p>\n<ul dir=\"auto\">\n<li>This: <a href=\"https://drahtbot.space/host_reports/DrahtBot/reports/coverage_fuzz/monotree/fa4926cca68db243/fuzz.coverage/index.html\" rel=\"nofollow\">https://drahtbot.space/host_reports/DrahtBot/reports/coverage_fuzz/monotree/fa4926cca68db243/fuzz.coverage/index.html</a></li>\n<li>master: <a href=\"https://marcofalke.github.io/btc_cov/fuzz.coverage/index.html\" rel=\"nofollow\">https://marcofalke.github.io/btc_cov/fuzz.coverage/index.html</a></li>\n</ul>",
    "body_text": "Sorry for the force push. Should be done now. No change in coverage:\n\nThis: https://drahtbot.space/host_reports/DrahtBot/reports/coverage_fuzz/monotree/fa4926cca68db243/fuzz.coverage/index.html\nmaster: https://marcofalke.github.io/btc_cov/fuzz.coverage/index.html",
    "body": "Sorry for the force push. Should be done now. No change in coverage:\r\n\r\n* This: https://drahtbot.space/host_reports/DrahtBot/reports/coverage_fuzz/monotree/fa4926cca68db243/fuzz.coverage/index.html\r\n* master: https://marcofalke.github.io/btc_cov/fuzz.coverage/index.html",
    "reactions": {
      "url": "https://api.github.com/repos/bitcoin/bitcoin/issues/comments/810087963/reactions",
      "total_count": 0,
      "+1": 0,
      "-1": 0,
      "laugh": 0,
      "hooray": 0,
      "confused": 0,
      "heart": 0,
      "rocket": 0,
      "eyes": 0
    },
    "performed_via_github_app": null
  },
  {
    "url": "https://api.github.com/repos/bitcoin/bitcoin/issues/comments/810461060",
    "html_url": "https://github.com/bitcoin/bitcoin/pull/21553#issuecomment-810461060",
    "issue_url": "https://api.github.com/repos/bitcoin/bitcoin/issues/21553",
    "id": 810461060,
    "node_id": "MDEyOklzc3VlQ29tbWVudDgxMDQ2MTA2MA==",
    "user": {
      "login": "practicalswift",
      "id": 7826565,
      "node_id": "MDQ6VXNlcjc4MjY1NjU=",
      "avatar_url": "https://avatars.githubusercontent.com/u/7826565?v=4",
      "gravatar_id": "",
      "url": "https://api.github.com/users/practicalswift",
      "html_url": "https://github.com/practicalswift",
      "followers_url": "https://api.github.com/users/practicalswift/followers",
      "following_url": "https://api.github.com/users/practicalswift/following{/other_user}",
      "gists_url": "https://api.github.com/users/practicalswift/gists{/gist_id}",
      "starred_url": "https://api.github.com/users/practicalswift/starred{/owner}{/repo}",
      "subscriptions_url": "https://api.github.com/users/practicalswift/subscriptions",
      "organizations_url": "https://api.github.com/users/practicalswift/orgs",
      "repos_url": "https://api.github.com/users/practicalswift/repos",
      "events_url": "https://api.github.com/users/practicalswift/events{/privacy}",
      "received_events_url": "https://api.github.com/users/practicalswift/received_events",
      "type": "User",
      "site_admin": false
    },
    "created_at": "2021-03-30T17:56:50Z",
    "updated_at": "2021-03-30T17:56:50Z",
    "author_association": "CONTRIBUTOR",
    "body_html": "<p dir=\"auto\">cr re-ACK <a class=\"commit-link\" data-hovercard-type=\"commit\" data-hovercard-url=\"https://github.com/bitcoin/bitcoin/commit/fa4926cca68db2433e579d9b4a642248a9314673/hovercard\" href=\"https://github.com/bitcoin/bitcoin/commit/fa4926cca68db2433e579d9b4a642248a9314673\"><tt>fa4926c</tt></a></p>",
    "body_text": "cr re-ACK fa4926c",
    "body": "cr re-ACK fa4926cca68db2433e579d9b4a642248a9314673",
    "reactions": {
      "url": "https://api.github.com/repos/bitcoin/bitcoin/issues/comments/810461060/reactions",
      "total_count": 0,
      "+1": 0,
      "-1": 0,
      "laugh": 0,
      "hooray": 0,
      "confused": 0,
      "heart": 0,
      "rocket": 0,
      "eyes": 0
    },
    "performed_via_github_app": null
  }
]
