{
  "url": "https://api.github.com/repos/bitcoin/bitcoin/issues/16613",
  "repository_url": "https://api.github.com/repos/bitcoin/bitcoin",
  "labels_url": "https://api.github.com/repos/bitcoin/bitcoin/issues/16613/labels{/name}",
  "comments_url": "https://api.github.com/repos/bitcoin/bitcoin/issues/16613/comments",
  "events_url": "https://api.github.com/repos/bitcoin/bitcoin/issues/16613/events",
  "html_url": "https://github.com/bitcoin/bitcoin/issues/16613",
  "id": 480723357,
  "node_id": "MDU6SXNzdWU0ODA3MjMzNTc=",
  "number": 16613,
  "title": "Functional test suite bottlenecks",
  "user": {
    "login": "Sjors",
    "id": 10217,
    "node_id": "MDQ6VXNlcjEwMjE3",
    "avatar_url": "https://avatars.githubusercontent.com/u/10217?v=4",
    "gravatar_id": "",
    "url": "https://api.github.com/users/Sjors",
    "html_url": "https://github.com/Sjors",
    "followers_url": "https://api.github.com/users/Sjors/followers",
    "following_url": "https://api.github.com/users/Sjors/following{/other_user}",
    "gists_url": "https://api.github.com/users/Sjors/gists{/gist_id}",
    "starred_url": "https://api.github.com/users/Sjors/starred{/owner}{/repo}",
    "subscriptions_url": "https://api.github.com/users/Sjors/subscriptions",
    "organizations_url": "https://api.github.com/users/Sjors/orgs",
    "repos_url": "https://api.github.com/users/Sjors/repos",
    "events_url": "https://api.github.com/users/Sjors/events{/privacy}",
    "received_events_url": "https://api.github.com/users/Sjors/received_events",
    "type": "User",
    "site_admin": false
  },
  "labels": [
    {
      "id": 62963516,
      "node_id": "MDU6TGFiZWw2Mjk2MzUxNg==",
      "url": "https://api.github.com/repos/bitcoin/bitcoin/labels/Tests",
      "name": "Tests",
      "color": "d4c5f9",
      "default": false,
      "description": null
    }
  ],
  "state": "closed",
  "locked": true,
  "assignee": null,
  "assignees": [

  ],
  "milestone": null,
  "comments": 12,
  "created_at": "2019-08-14T14:47:58Z",
  "updated_at": "2022-08-18T18:33:35Z",
  "closed_at": "2021-01-06T12:26:48Z",
  "author_association": "MEMBER",
  "active_lock_reason": "resolved",
  "body_html": "<p dir=\"auto\">After applying <a class=\"issue-link js-issue-link\" data-error-text=\"Failed to load title\" data-id=\"407729551\" data-permission-text=\"Title is private\" data-url=\"https://github.com/bitcoin/bitcoin/issues/15363\" data-hovercard-type=\"pull_request\" data-hovercard-url=\"/bitcoin/bitcoin/pull/15363/hovercard\" href=\"https://github.com/bitcoin/bitcoin/pull/15363\">#15363</a>, and configuring without debug, when I run the functional test suite on a 3 GB RAM disk with <code class=\"notranslate\">--jobs=100 --cachedir=/Volumes/RAMDisk/cache --tmpdir=/Volumes/RAMDisk/tmp</code>:</p>\n<ul dir=\"auto\">\n<li>CPU usage hovers between 50 and 80% for the first 45 seconds and then drops.</li>\n<li>RAM usage peaks at about 12 GB in the same time period and then drops.</li>\n<li>test suite takes about 120 seconds</li>\n</ul>\n<p dir=\"auto\">The above suggests that the total run time is determined by a handful of slow running tests:</p>\n<ul dir=\"auto\">\n<li>wallet_backup.py: <del>120s</del> 58s</li>\n<li>feature_block.py: <del>115s</del> 85s</li>\n<li>wallet_address_types.py: <del>102s</del> 48s</li>\n<li>feature_maxuploadtarget.py: 85s</li>\n<li>p2p_segwit.py: <del>83s</del> 60s</li>\n<li>p2p_tx_download.py: 84s</li>\n<li>mining_getblocktemplate_longpoll.py: 70s</li>\n<li>feature_fee_estimation.py: <del>68s</del> 41s</li>\n</ul>\n<p dir=\"auto\">Getting the above tests to run in under 60 seconds should therefore cut total run time in half for me. Whether this benefits slower systems depends on the reason for the bottleneck.</p>\n<p dir=\"auto\">A bit more detail about the slow running tests:</p>\n<h2 dir=\"auto\">wallet_backup.py</h2>\n<p dir=\"auto\">\"Creating transactions\" takes almost a minute. Backup is nearly instant. \"More transactions\" takes another 50 seconds. The various restores take 22 seconds in total.</p>\n<p dir=\"auto\">The test could be made faster by:</p>\n<ol dir=\"auto\">\n<li>generating fewer transactions</li>\n<li>put pre-generated the wallets, use extended test suite to verify their contents. However, it's useful to check that the backup feature actually works for a freshly generated wallet.</li>\n<li>figuring out why 30 transactions are so slow. I tried setting <code class=\"notranslate\">wait=0.1</code> for both sync_mempool and sync_blocks but that didn't help.</li>\n</ol>\n<p dir=\"auto\">Fixed by <a class=\"issue-link js-issue-link\" data-error-text=\"Failed to load title\" data-id=\"506259174\" data-permission-text=\"Title is private\" data-url=\"https://github.com/bitcoin/bitcoin/issues/17121\" data-hovercard-type=\"pull_request\" data-hovercard-url=\"/bitcoin/bitcoin/pull/17121/hovercard\" href=\"https://github.com/bitcoin/bitcoin/pull/17121\">#17121</a></p>\n<h2 dir=\"auto\">feature_block.py</h2>\n<p dir=\"auto\">When running this test individually it took only 25 seconds (in contrast to the wallet_backup where running individually didn't make much difference). The slowest checks are <code class=\"notranslate\">Reject a block with too many P2SH sigops</code> (7s)</p>\n<p dir=\"auto\">This test could be split (in two). This requires moving some helper code into the test framework, as well as studying the sequence of checks for inter-dependencies.</p>\n<p dir=\"auto\">See <a class=\"issue-link js-issue-link\" data-error-text=\"Failed to load title\" data-id=\"480723357\" data-permission-text=\"Title is private\" data-url=\"https://github.com/bitcoin/bitcoin/issues/16613\" data-hovercard-type=\"issue\" data-hovercard-url=\"/bitcoin/bitcoin/issues/16613/hovercard?comment_id=542252600&amp;comment_type=issue_comment\" href=\"https://github.com/bitcoin/bitcoin/issues/16613#issuecomment-542252600\">#16613 (comment)</a></p>\n<h2 dir=\"auto\">wallet_address_types.py</h2>\n<p dir=\"auto\">Runs in 58 seconds individually.</p>\n<p dir=\"auto\">This test seems trivial to split. But like <code class=\"notranslate\">wallet_backup.py</code> it may be worth investigating why a just a few dozen transactions take so long.</p>\n<p dir=\"auto\">Fixed by <a class=\"issue-link js-issue-link\" data-error-text=\"Failed to load title\" data-id=\"506365736\" data-permission-text=\"Title is private\" data-url=\"https://github.com/bitcoin/bitcoin/issues/17124\" data-hovercard-type=\"pull_request\" data-hovercard-url=\"/bitcoin/bitcoin/pull/17124/hovercard\" href=\"https://github.com/bitcoin/bitcoin/pull/17124\">#17124</a></p>\n<h2 dir=\"auto\">feature_maxuploadtarget.py</h2>\n<p dir=\"auto\">Runs in 1 minute individually, could perhaps be split in two.</p>\n<h2 dir=\"auto\">p2p_segwit.py</h2>\n<p dir=\"auto\">TODO</p>\n<h2 dir=\"auto\">p2p_tx_download.py</h2>\n<p dir=\"auto\">TODO</p>\n<h2 dir=\"auto\">mining_getblocktemplate_longpoll.py</h2>\n<p dir=\"auto\">TODO</p>\n<h2 dir=\"auto\">feature_fee_estimation.py</h2>\n<p dir=\"auto\">Fixed by <a class=\"issue-link js-issue-link\" data-error-text=\"Failed to load title\" data-id=\"476228159\" data-permission-text=\"Title is private\" data-url=\"https://github.com/bitcoin/bitcoin/issues/16535\" data-hovercard-type=\"pull_request\" data-hovercard-url=\"/bitcoin/bitcoin/pull/16535/hovercard\" href=\"https://github.com/bitcoin/bitcoin/pull/16535\">#16535</a></p>",
  "body_text": "After applying #15363, and configuring without debug, when I run the functional test suite on a 3 GB RAM disk with --jobs=100 --cachedir=/Volumes/RAMDisk/cache --tmpdir=/Volumes/RAMDisk/tmp:\n\nCPU usage hovers between 50 and 80% for the first 45 seconds and then drops.\nRAM usage peaks at about 12 GB in the same time period and then drops.\ntest suite takes about 120 seconds\n\nThe above suggests that the total run time is determined by a handful of slow running tests:\n\nwallet_backup.py: 120s 58s\nfeature_block.py: 115s 85s\nwallet_address_types.py: 102s 48s\nfeature_maxuploadtarget.py: 85s\np2p_segwit.py: 83s 60s\np2p_tx_download.py: 84s\nmining_getblocktemplate_longpoll.py: 70s\nfeature_fee_estimation.py: 68s 41s\n\nGetting the above tests to run in under 60 seconds should therefore cut total run time in half for me. Whether this benefits slower systems depends on the reason for the bottleneck.\nA bit more detail about the slow running tests:\nwallet_backup.py\n\"Creating transactions\" takes almost a minute. Backup is nearly instant. \"More transactions\" takes another 50 seconds. The various restores take 22 seconds in total.\nThe test could be made faster by:\n\ngenerating fewer transactions\nput pre-generated the wallets, use extended test suite to verify their contents. However, it's useful to check that the backup feature actually works for a freshly generated wallet.\nfiguring out why 30 transactions are so slow. I tried setting wait=0.1 for both sync_mempool and sync_blocks but that didn't help.\n\nFixed by #17121\nfeature_block.py\nWhen running this test individually it took only 25 seconds (in contrast to the wallet_backup where running individually didn't make much difference). The slowest checks are Reject a block with too many P2SH sigops (7s)\nThis test could be split (in two). This requires moving some helper code into the test framework, as well as studying the sequence of checks for inter-dependencies.\nSee #16613 (comment)\nwallet_address_types.py\nRuns in 58 seconds individually.\nThis test seems trivial to split. But like wallet_backup.py it may be worth investigating why a just a few dozen transactions take so long.\nFixed by #17124\nfeature_maxuploadtarget.py\nRuns in 1 minute individually, could perhaps be split in two.\np2p_segwit.py\nTODO\np2p_tx_download.py\nTODO\nmining_getblocktemplate_longpoll.py\nTODO\nfeature_fee_estimation.py\nFixed by #16535",
  "body": "After applying #15363, and configuring without debug, when I run the functional test suite on a 3 GB RAM disk with `--jobs=100 --cachedir=/Volumes/RAMDisk/cache --tmpdir=/Volumes/RAMDisk/tmp`:\r\n\r\n* CPU usage hovers between 50 and 80% for the first 45 seconds and then drops.\r\n* RAM usage peaks at about 12 GB in the same time period and then drops.\r\n* test suite takes about 120 seconds\r\n\r\nThe above suggests that the total run time is determined by a handful of slow running tests:\r\n\r\n* wallet_backup.py: ~120s~ 58s \r\n* feature_block.py: ~115s~ 85s\r\n* wallet_address_types.py: ~102s~ 48s\r\n* feature_maxuploadtarget.py: 85s\r\n* p2p_segwit.py: ~83s~ 60s\r\n* p2p_tx_download.py: 84s\r\n* mining_getblocktemplate_longpoll.py: 70s\r\n* feature_fee_estimation.py: ~68s~ 41s\r\n\r\nGetting the above tests to run in under 60 seconds should therefore cut total run time in half for me. Whether this benefits slower systems depends on the reason for the bottleneck.\r\n\r\nA bit more detail about the slow running tests:\r\n\r\n## wallet_backup.py\r\n\r\n\"Creating transactions\" takes almost a minute. Backup is nearly instant. \"More transactions\" takes another 50 seconds. The various restores take 22 seconds in total.\r\n\r\nThe test could be made faster by:\r\n1. generating fewer transactions\r\n2. put pre-generated the wallets, use extended test suite to verify their contents. However, it's useful to check that the backup feature actually works for a freshly generated wallet.\r\n3. figuring out why 30 transactions are so slow. I tried setting `wait=0.1` for both sync_mempool and sync_blocks but that didn't help.\r\n\r\nFixed by #17121\r\n\r\n##  feature_block.py\r\n\r\nWhen running this test individually it took only 25 seconds (in contrast to the wallet_backup where running individually didn't make much difference). The slowest checks are `Reject a block with too many P2SH sigops` (7s)\r\n\r\nThis test could be split (in two). This requires moving some helper code into the test framework, as well as studying the sequence of checks for inter-dependencies.\r\n\r\nSee https://github.com/bitcoin/bitcoin/issues/16613#issuecomment-542252600\r\n\r\n## wallet_address_types.py\r\n\r\nRuns in 58 seconds individually.\r\n\r\nThis test seems trivial to split. But like `wallet_backup.py` it may be worth investigating why a just a few dozen transactions take so long.\r\n\r\nFixed by #17124\r\n\r\n## feature_maxuploadtarget.py\r\n\r\nRuns in 1 minute individually, could perhaps be split in two.\r\n\r\n## p2p_segwit.py\r\n\r\nTODO\r\n\r\n## p2p_tx_download.py\r\n\r\nTODO\r\n\r\n## mining_getblocktemplate_longpoll.py\r\n\r\nTODO\r\n\r\n## feature_fee_estimation.py\r\n\r\nFixed by #16535",
  "closed_by": {
    "login": "Sjors",
    "id": 10217,
    "node_id": "MDQ6VXNlcjEwMjE3",
    "avatar_url": "https://avatars.githubusercontent.com/u/10217?v=4",
    "gravatar_id": "",
    "url": "https://api.github.com/users/Sjors",
    "html_url": "https://github.com/Sjors",
    "followers_url": "https://api.github.com/users/Sjors/followers",
    "following_url": "https://api.github.com/users/Sjors/following{/other_user}",
    "gists_url": "https://api.github.com/users/Sjors/gists{/gist_id}",
    "starred_url": "https://api.github.com/users/Sjors/starred{/owner}{/repo}",
    "subscriptions_url": "https://api.github.com/users/Sjors/subscriptions",
    "organizations_url": "https://api.github.com/users/Sjors/orgs",
    "repos_url": "https://api.github.com/users/Sjors/repos",
    "events_url": "https://api.github.com/users/Sjors/events{/privacy}",
    "received_events_url": "https://api.github.com/users/Sjors/received_events",
    "type": "User",
    "site_admin": false
  },
  "reactions": {
    "url": "https://api.github.com/repos/bitcoin/bitcoin/issues/16613/reactions",
    "total_count": 0,
    "+1": 0,
    "-1": 0,
    "laugh": 0,
    "hooray": 0,
    "confused": 0,
    "heart": 0,
    "rocket": 0,
    "eyes": 0
  },
  "timeline_url": "https://api.github.com/repos/bitcoin/bitcoin/issues/16613/timeline",
  "performed_via_github_app": null,
  "state_reason": "completed"
}
