[
  {
    "url": "https://api.github.com/repos/bitcoin/bitcoin/issues/comments/342174035",
    "html_url": "https://github.com/bitcoin/bitcoin/pull/11619#issuecomment-342174035",
    "issue_url": "https://api.github.com/repos/bitcoin/bitcoin/issues/11619",
    "id": 342174035,
    "node_id": "MDEyOklzc3VlQ29tbWVudDM0MjE3NDAzNQ==",
    "user": {
      "login": "promag",
      "id": 3534524,
      "node_id": "MDQ6VXNlcjM1MzQ1MjQ=",
      "avatar_url": "https://avatars.githubusercontent.com/u/3534524?v=4",
      "gravatar_id": "",
      "url": "https://api.github.com/users/promag",
      "html_url": "https://github.com/promag",
      "followers_url": "https://api.github.com/users/promag/followers",
      "following_url": "https://api.github.com/users/promag/following{/other_user}",
      "gists_url": "https://api.github.com/users/promag/gists{/gist_id}",
      "starred_url": "https://api.github.com/users/promag/starred{/owner}{/repo}",
      "subscriptions_url": "https://api.github.com/users/promag/subscriptions",
      "organizations_url": "https://api.github.com/users/promag/orgs",
      "repos_url": "https://api.github.com/users/promag/repos",
      "events_url": "https://api.github.com/users/promag/events{/privacy}",
      "received_events_url": "https://api.github.com/users/promag/received_events",
      "type": "User",
      "site_admin": false
    },
    "created_at": "2017-11-06T14:59:16Z",
    "updated_at": "2017-11-06T14:59:16Z",
    "author_association": "MEMBER",
    "body_html": "<p dir=\"auto\">IMO product takes me into paid software or software owned by a company. Anyway, see <a href=\"https://en.wikipedia.org/wiki/Open-source_software#Definitions\" rel=\"nofollow\">https://en.wikipedia.org/wiki/Open-source_software#Definitions</a>.</p>",
    "body_text": "IMO product takes me into paid software or software owned by a company. Anyway, see https://en.wikipedia.org/wiki/Open-source_software#Definitions.",
    "body": "IMO product takes me into paid software or software owned by a company. Anyway, see https://en.wikipedia.org/wiki/Open-source_software#Definitions.",
    "reactions": {
      "url": "https://api.github.com/repos/bitcoin/bitcoin/issues/comments/342174035/reactions",
      "total_count": 0,
      "+1": 0,
      "-1": 0,
      "laugh": 0,
      "hooray": 0,
      "confused": 0,
      "heart": 0,
      "rocket": 0,
      "eyes": 0
    },
    "performed_via_github_app": null
  },
  {
    "url": "https://api.github.com/repos/bitcoin/bitcoin/issues/comments/342312272",
    "html_url": "https://github.com/bitcoin/bitcoin/pull/11619#issuecomment-342312272",
    "issue_url": "https://api.github.com/repos/bitcoin/bitcoin/issues/11619",
    "id": 342312272,
    "node_id": "MDEyOklzc3VlQ29tbWVudDM0MjMxMjI3Mg==",
    "user": {
      "login": "meshcollider",
      "id": 3211283,
      "node_id": "MDQ6VXNlcjMyMTEyODM=",
      "avatar_url": "https://avatars.githubusercontent.com/u/3211283?v=4",
      "gravatar_id": "",
      "url": "https://api.github.com/users/meshcollider",
      "html_url": "https://github.com/meshcollider",
      "followers_url": "https://api.github.com/users/meshcollider/followers",
      "following_url": "https://api.github.com/users/meshcollider/following{/other_user}",
      "gists_url": "https://api.github.com/users/meshcollider/gists{/gist_id}",
      "starred_url": "https://api.github.com/users/meshcollider/starred{/owner}{/repo}",
      "subscriptions_url": "https://api.github.com/users/meshcollider/subscriptions",
      "organizations_url": "https://api.github.com/users/meshcollider/orgs",
      "repos_url": "https://api.github.com/users/meshcollider/repos",
      "events_url": "https://api.github.com/users/meshcollider/events{/privacy}",
      "received_events_url": "https://api.github.com/users/meshcollider/received_events",
      "type": "User",
      "site_admin": false
    },
    "created_at": "2017-11-06T22:40:16Z",
    "updated_at": "2017-11-06T22:40:16Z",
    "author_association": "CONTRIBUTOR",
    "body_html": "<p dir=\"auto\">Agree with <a class=\"user-mention notranslate\" data-hovercard-type=\"user\" data-hovercard-url=\"/users/promag/hovercard\" data-octo-click=\"hovercard-link-click\" data-octo-dimensions=\"link_type:self\" href=\"https://github.com/promag\">@promag</a>, don't like this change</p>",
    "body_text": "Agree with @promag, don't like this change",
    "body": "Agree with @promag, don't like this change",
    "reactions": {
      "url": "https://api.github.com/repos/bitcoin/bitcoin/issues/comments/342312272/reactions",
      "total_count": 0,
      "+1": 0,
      "-1": 0,
      "laugh": 0,
      "hooray": 0,
      "confused": 0,
      "heart": 0,
      "rocket": 0,
      "eyes": 0
    },
    "performed_via_github_app": null
  }
]
