[
  {
    "url": "https://api.github.com/repos/bitcoin/bitcoin/issues/comments/437302385",
    "html_url": "https://github.com/bitcoin/bitcoin/pull/14696#issuecomment-437302385",
    "issue_url": "https://api.github.com/repos/bitcoin/bitcoin/issues/14696",
    "id": 437302385,
    "node_id": "MDEyOklzc3VlQ29tbWVudDQzNzMwMjM4NQ==",
    "user": {
      "login": "ken2812221",
      "id": 11154118,
      "node_id": "MDQ6VXNlcjExMTU0MTE4",
      "avatar_url": "https://avatars.githubusercontent.com/u/11154118?v=4",
      "gravatar_id": "",
      "url": "https://api.github.com/users/ken2812221",
      "html_url": "https://github.com/ken2812221",
      "followers_url": "https://api.github.com/users/ken2812221/followers",
      "following_url": "https://api.github.com/users/ken2812221/following{/other_user}",
      "gists_url": "https://api.github.com/users/ken2812221/gists{/gist_id}",
      "starred_url": "https://api.github.com/users/ken2812221/starred{/owner}{/repo}",
      "subscriptions_url": "https://api.github.com/users/ken2812221/subscriptions",
      "organizations_url": "https://api.github.com/users/ken2812221/orgs",
      "repos_url": "https://api.github.com/users/ken2812221/repos",
      "events_url": "https://api.github.com/users/ken2812221/events{/privacy}",
      "received_events_url": "https://api.github.com/users/ken2812221/received_events",
      "type": "User",
      "site_admin": false
    },
    "created_at": "2018-11-09T09:31:03Z",
    "updated_at": "2018-11-09T09:31:03Z",
    "author_association": "CONTRIBUTOR",
    "body_html": "<p dir=\"auto\">Concept ACK.</p>",
    "body_text": "Concept ACK.",
    "body": "Concept ACK. ",
    "reactions": {
      "url": "https://api.github.com/repos/bitcoin/bitcoin/issues/comments/437302385/reactions",
      "total_count": 0,
      "+1": 0,
      "-1": 0,
      "laugh": 0,
      "hooray": 0,
      "confused": 0,
      "heart": 0,
      "rocket": 0,
      "eyes": 0
    },
    "performed_via_github_app": null
  },
  {
    "url": "https://api.github.com/repos/bitcoin/bitcoin/issues/comments/437367200",
    "html_url": "https://github.com/bitcoin/bitcoin/pull/14696#issuecomment-437367200",
    "issue_url": "https://api.github.com/repos/bitcoin/bitcoin/issues/14696",
    "id": 437367200,
    "node_id": "MDEyOklzc3VlQ29tbWVudDQzNzM2NzIwMA==",
    "user": {
      "login": "practicalswift",
      "id": 7826565,
      "node_id": "MDQ6VXNlcjc4MjY1NjU=",
      "avatar_url": "https://avatars.githubusercontent.com/u/7826565?v=4",
      "gravatar_id": "",
      "url": "https://api.github.com/users/practicalswift",
      "html_url": "https://github.com/practicalswift",
      "followers_url": "https://api.github.com/users/practicalswift/followers",
      "following_url": "https://api.github.com/users/practicalswift/following{/other_user}",
      "gists_url": "https://api.github.com/users/practicalswift/gists{/gist_id}",
      "starred_url": "https://api.github.com/users/practicalswift/starred{/owner}{/repo}",
      "subscriptions_url": "https://api.github.com/users/practicalswift/subscriptions",
      "organizations_url": "https://api.github.com/users/practicalswift/orgs",
      "repos_url": "https://api.github.com/users/practicalswift/repos",
      "events_url": "https://api.github.com/users/practicalswift/events{/privacy}",
      "received_events_url": "https://api.github.com/users/practicalswift/received_events",
      "type": "User",
      "site_admin": false
    },
    "created_at": "2018-11-09T13:58:36Z",
    "updated_at": "2018-11-09T17:39:43Z",
    "author_association": "CONTRIBUTOR",
    "body_html": "<p dir=\"auto\">Concept ACK</p>\n<p dir=\"auto\">Good idea!</p>\n<p dir=\"auto\"><a class=\"user-mention notranslate\" data-hovercard-type=\"user\" data-hovercard-url=\"/users/lucash-dev/hovercard\" data-octo-click=\"hovercard-link-click\" data-octo-dimensions=\"link_type:self\" href=\"https://github.com/lucash-dev\">@lucash-dev</a> Would you be able to match other CVE:s against tests and include them in this PR? That would be really useful to have. It would be nice to be able to do <code class=\"notranslate\">git grep CVE-N</code> on all issued Bitcoin Core CVE:s to be able to find the corresponding test case and/or fix</p>\n<p dir=\"auto\">Perhaps Bitcoin CVE guru <a class=\"user-mention notranslate\" data-hovercard-type=\"user\" data-hovercard-url=\"/users/luke-jr/hovercard\" data-octo-click=\"hovercard-link-click\" data-octo-dimensions=\"link_type:self\" href=\"https://github.com/luke-jr\">@luke-jr</a> can help in this matching? :-)</p>",
    "body_text": "Concept ACK\nGood idea!\n@lucash-dev Would you be able to match other CVE:s against tests and include them in this PR? That would be really useful to have. It would be nice to be able to do git grep CVE-N on all issued Bitcoin Core CVE:s to be able to find the corresponding test case and/or fix\nPerhaps Bitcoin CVE guru @luke-jr can help in this matching? :-)",
    "body": "Concept ACK\r\n\r\nGood idea!\r\n\r\n@lucash-dev Would you be able to match other CVE:s against tests and include them in this PR? That would be really useful to have. It would be nice to be able to do `git grep CVE-N` on all issued Bitcoin Core CVE:s to be able to find the corresponding test case and/or fix\r\n\r\nPerhaps Bitcoin CVE guru @luke-jr can help in this matching? :-)",
    "reactions": {
      "url": "https://api.github.com/repos/bitcoin/bitcoin/issues/comments/437367200/reactions",
      "total_count": 1,
      "+1": 1,
      "-1": 0,
      "laugh": 0,
      "hooray": 0,
      "confused": 0,
      "heart": 0,
      "rocket": 0,
      "eyes": 0
    },
    "performed_via_github_app": null
  },
  {
    "url": "https://api.github.com/repos/bitcoin/bitcoin/issues/comments/437401123",
    "html_url": "https://github.com/bitcoin/bitcoin/pull/14696#issuecomment-437401123",
    "issue_url": "https://api.github.com/repos/bitcoin/bitcoin/issues/14696",
    "id": 437401123,
    "node_id": "MDEyOklzc3VlQ29tbWVudDQzNzQwMTEyMw==",
    "user": {
      "login": "lucash-dev",
      "id": 31627588,
      "node_id": "MDQ6VXNlcjMxNjI3NTg4",
      "avatar_url": "https://avatars.githubusercontent.com/u/31627588?v=4",
      "gravatar_id": "",
      "url": "https://api.github.com/users/lucash-dev",
      "html_url": "https://github.com/lucash-dev",
      "followers_url": "https://api.github.com/users/lucash-dev/followers",
      "following_url": "https://api.github.com/users/lucash-dev/following{/other_user}",
      "gists_url": "https://api.github.com/users/lucash-dev/gists{/gist_id}",
      "starred_url": "https://api.github.com/users/lucash-dev/starred{/owner}{/repo}",
      "subscriptions_url": "https://api.github.com/users/lucash-dev/subscriptions",
      "organizations_url": "https://api.github.com/users/lucash-dev/orgs",
      "repos_url": "https://api.github.com/users/lucash-dev/repos",
      "events_url": "https://api.github.com/users/lucash-dev/events{/privacy}",
      "received_events_url": "https://api.github.com/users/lucash-dev/received_events",
      "type": "User",
      "site_admin": false
    },
    "created_at": "2018-11-09T15:49:24Z",
    "updated_at": "2018-11-09T15:49:24Z",
    "author_association": "CONTRIBUTOR",
    "body_html": "<p dir=\"auto\">I’ll do that. Sounds like a good  learning opportunity too.</p>",
    "body_text": "I’ll do that. Sounds like a good  learning opportunity too.",
    "body": "I’ll do that. Sounds like a good  learning opportunity too. ",
    "reactions": {
      "url": "https://api.github.com/repos/bitcoin/bitcoin/issues/comments/437401123/reactions",
      "total_count": 1,
      "+1": 0,
      "-1": 0,
      "laugh": 0,
      "hooray": 0,
      "confused": 0,
      "heart": 1,
      "rocket": 0,
      "eyes": 0
    },
    "performed_via_github_app": null
  },
  {
    "url": "https://api.github.com/repos/bitcoin/bitcoin/issues/comments/438215859",
    "html_url": "https://github.com/bitcoin/bitcoin/pull/14696#issuecomment-438215859",
    "issue_url": "https://api.github.com/repos/bitcoin/bitcoin/issues/14696",
    "id": 438215859,
    "node_id": "MDEyOklzc3VlQ29tbWVudDQzODIxNTg1OQ==",
    "user": {
      "login": "Empact",
      "id": 5470,
      "node_id": "MDQ6VXNlcjU0NzA=",
      "avatar_url": "https://avatars.githubusercontent.com/u/5470?v=4",
      "gravatar_id": "",
      "url": "https://api.github.com/users/Empact",
      "html_url": "https://github.com/Empact",
      "followers_url": "https://api.github.com/users/Empact/followers",
      "following_url": "https://api.github.com/users/Empact/following{/other_user}",
      "gists_url": "https://api.github.com/users/Empact/gists{/gist_id}",
      "starred_url": "https://api.github.com/users/Empact/starred{/owner}{/repo}",
      "subscriptions_url": "https://api.github.com/users/Empact/subscriptions",
      "organizations_url": "https://api.github.com/users/Empact/orgs",
      "repos_url": "https://api.github.com/users/Empact/repos",
      "events_url": "https://api.github.com/users/Empact/events{/privacy}",
      "received_events_url": "https://api.github.com/users/Empact/received_events",
      "type": "User",
      "site_admin": false
    },
    "created_at": "2018-11-13T10:29:37Z",
    "updated_at": "2018-11-13T10:29:37Z",
    "author_association": "MEMBER",
    "body_html": "<p dir=\"auto\">Concept ACK</p>",
    "body_text": "Concept ACK",
    "body": "Concept ACK",
    "reactions": {
      "url": "https://api.github.com/repos/bitcoin/bitcoin/issues/comments/438215859/reactions",
      "total_count": 0,
      "+1": 0,
      "-1": 0,
      "laugh": 0,
      "hooray": 0,
      "confused": 0,
      "heart": 0,
      "rocket": 0,
      "eyes": 0
    },
    "performed_via_github_app": null
  },
  {
    "url": "https://api.github.com/repos/bitcoin/bitcoin/issues/comments/438304819",
    "html_url": "https://github.com/bitcoin/bitcoin/pull/14696#issuecomment-438304819",
    "issue_url": "https://api.github.com/repos/bitcoin/bitcoin/issues/14696",
    "id": 438304819,
    "node_id": "MDEyOklzc3VlQ29tbWVudDQzODMwNDgxOQ==",
    "user": {
      "login": "DrahtBot",
      "id": 39886733,
      "node_id": "MDQ6VXNlcjM5ODg2NzMz",
      "avatar_url": "https://avatars.githubusercontent.com/u/39886733?v=4",
      "gravatar_id": "",
      "url": "https://api.github.com/users/DrahtBot",
      "html_url": "https://github.com/DrahtBot",
      "followers_url": "https://api.github.com/users/DrahtBot/followers",
      "following_url": "https://api.github.com/users/DrahtBot/following{/other_user}",
      "gists_url": "https://api.github.com/users/DrahtBot/gists{/gist_id}",
      "starred_url": "https://api.github.com/users/DrahtBot/starred{/owner}{/repo}",
      "subscriptions_url": "https://api.github.com/users/DrahtBot/subscriptions",
      "organizations_url": "https://api.github.com/users/DrahtBot/orgs",
      "repos_url": "https://api.github.com/users/DrahtBot/repos",
      "events_url": "https://api.github.com/users/DrahtBot/events{/privacy}",
      "received_events_url": "https://api.github.com/users/DrahtBot/received_events",
      "type": "User",
      "site_admin": false
    },
    "created_at": "2018-11-13T15:22:51Z",
    "updated_at": "2019-07-27T12:01:53Z",
    "author_association": "CONTRIBUTOR",
    "body_html": "\n<p dir=\"auto\">The following sections might be updated with supplementary metadata relevant to reviewers and maintainers.</p>\n\n<h3 dir=\"auto\">Conflicts</h3>\n<p dir=\"auto\">Reviewers, this pull request conflicts with the following ones:</p>\n<ul dir=\"auto\">\n<li><a href=\"https://drahtbot.github.io/bitcoin_core_issue_redirect/r/15045.html\" rel=\"nofollow\">#15045</a> ([test] Apply maximal flags to tx_valid tests and minimal flags to tx_invalid tests by jl2012)</li>\n</ul>\n<p dir=\"auto\">If you consider this pull request important, please also help to review the conflicting pull requests. Ideally, start with the one that should be merged first.</p>",
    "body_text": "The following sections might be updated with supplementary metadata relevant to reviewers and maintainers.\n\nConflicts\nReviewers, this pull request conflicts with the following ones:\n\n#15045 ([test] Apply maximal flags to tx_valid tests and minimal flags to tx_invalid tests by jl2012)\n\nIf you consider this pull request important, please also help to review the conflicting pull requests. Ideally, start with the one that should be merged first.",
    "body": "<!--e57a25ab6845829454e8d69fc972939a-->\n\nThe following sections might be updated with supplementary metadata relevant to reviewers and maintainers.\n\n<!--174a7506f384e20aa4161008e828411d-->\n### Conflicts\nReviewers, this pull request conflicts with the following ones:\n\n* [#15045](https://drahtbot.github.io/bitcoin_core_issue_redirect/r/15045.html) ([test] Apply maximal flags to tx_valid tests and minimal flags to tx_invalid tests by jl2012)\n\nIf you consider this pull request important, please also help to review the conflicting pull requests. Ideally, start with the one that should be merged first.",
    "reactions": {
      "url": "https://api.github.com/repos/bitcoin/bitcoin/issues/comments/438304819/reactions",
      "total_count": 0,
      "+1": 0,
      "-1": 0,
      "laugh": 0,
      "hooray": 0,
      "confused": 0,
      "heart": 0,
      "rocket": 0,
      "eyes": 0
    },
    "performed_via_github_app": null
  },
  {
    "url": "https://api.github.com/repos/bitcoin/bitcoin/issues/comments/441097199",
    "html_url": "https://github.com/bitcoin/bitcoin/pull/14696#issuecomment-441097199",
    "issue_url": "https://api.github.com/repos/bitcoin/bitcoin/issues/14696",
    "id": 441097199,
    "node_id": "MDEyOklzc3VlQ29tbWVudDQ0MTA5NzE5OQ==",
    "user": {
      "login": "maflcko",
      "id": 6399679,
      "node_id": "MDQ6VXNlcjYzOTk2Nzk=",
      "avatar_url": "https://avatars.githubusercontent.com/u/6399679?v=4",
      "gravatar_id": "",
      "url": "https://api.github.com/users/maflcko",
      "html_url": "https://github.com/maflcko",
      "followers_url": "https://api.github.com/users/maflcko/followers",
      "following_url": "https://api.github.com/users/maflcko/following{/other_user}",
      "gists_url": "https://api.github.com/users/maflcko/gists{/gist_id}",
      "starred_url": "https://api.github.com/users/maflcko/starred{/owner}{/repo}",
      "subscriptions_url": "https://api.github.com/users/maflcko/subscriptions",
      "organizations_url": "https://api.github.com/users/maflcko/orgs",
      "repos_url": "https://api.github.com/users/maflcko/repos",
      "events_url": "https://api.github.com/users/maflcko/events{/privacy}",
      "received_events_url": "https://api.github.com/users/maflcko/received_events",
      "type": "User",
      "site_admin": false
    },
    "created_at": "2018-11-22T18:07:16Z",
    "updated_at": "2018-11-22T18:07:16Z",
    "author_association": "MEMBER",
    "body_html": "<p dir=\"auto\">Needs rebase (silent conflict)</p>",
    "body_text": "Needs rebase (silent conflict)",
    "body": "Needs rebase (silent conflict)",
    "reactions": {
      "url": "https://api.github.com/repos/bitcoin/bitcoin/issues/comments/441097199/reactions",
      "total_count": 0,
      "+1": 0,
      "-1": 0,
      "laugh": 0,
      "hooray": 0,
      "confused": 0,
      "heart": 0,
      "rocket": 0,
      "eyes": 0
    },
    "performed_via_github_app": null
  },
  {
    "url": "https://api.github.com/repos/bitcoin/bitcoin/issues/comments/441224652",
    "html_url": "https://github.com/bitcoin/bitcoin/pull/14696#issuecomment-441224652",
    "issue_url": "https://api.github.com/repos/bitcoin/bitcoin/issues/14696",
    "id": 441224652,
    "node_id": "MDEyOklzc3VlQ29tbWVudDQ0MTIyNDY1Mg==",
    "user": {
      "login": "laanwj",
      "id": 126646,
      "node_id": "MDQ6VXNlcjEyNjY0Ng==",
      "avatar_url": "https://avatars.githubusercontent.com/u/126646?v=4",
      "gravatar_id": "",
      "url": "https://api.github.com/users/laanwj",
      "html_url": "https://github.com/laanwj",
      "followers_url": "https://api.github.com/users/laanwj/followers",
      "following_url": "https://api.github.com/users/laanwj/following{/other_user}",
      "gists_url": "https://api.github.com/users/laanwj/gists{/gist_id}",
      "starred_url": "https://api.github.com/users/laanwj/starred{/owner}{/repo}",
      "subscriptions_url": "https://api.github.com/users/laanwj/subscriptions",
      "organizations_url": "https://api.github.com/users/laanwj/orgs",
      "repos_url": "https://api.github.com/users/laanwj/repos",
      "events_url": "https://api.github.com/users/laanwj/events{/privacy}",
      "received_events_url": "https://api.github.com/users/laanwj/received_events",
      "type": "User",
      "site_admin": false
    },
    "created_at": "2018-11-23T12:04:43Z",
    "updated_at": "2018-11-23T12:08:08Z",
    "author_association": "MEMBER",
    "body_html": "<p dir=\"auto\">Thanks for adding these tests!<br>\nConcept ACK</p>",
    "body_text": "Thanks for adding these tests!\nConcept ACK",
    "body": "Thanks for adding these tests!\r\nConcept ACK",
    "reactions": {
      "url": "https://api.github.com/repos/bitcoin/bitcoin/issues/comments/441224652/reactions",
      "total_count": 0,
      "+1": 0,
      "-1": 0,
      "laugh": 0,
      "hooray": 0,
      "confused": 0,
      "heart": 0,
      "rocket": 0,
      "eyes": 0
    },
    "performed_via_github_app": null
  },
  {
    "url": "https://api.github.com/repos/bitcoin/bitcoin/issues/comments/443606849",
    "html_url": "https://github.com/bitcoin/bitcoin/pull/14696#issuecomment-443606849",
    "issue_url": "https://api.github.com/repos/bitcoin/bitcoin/issues/14696",
    "id": 443606849,
    "node_id": "MDEyOklzc3VlQ29tbWVudDQ0MzYwNjg0OQ==",
    "user": {
      "login": "lucash-dev",
      "id": 31627588,
      "node_id": "MDQ6VXNlcjMxNjI3NTg4",
      "avatar_url": "https://avatars.githubusercontent.com/u/31627588?v=4",
      "gravatar_id": "",
      "url": "https://api.github.com/users/lucash-dev",
      "html_url": "https://github.com/lucash-dev",
      "followers_url": "https://api.github.com/users/lucash-dev/followers",
      "following_url": "https://api.github.com/users/lucash-dev/following{/other_user}",
      "gists_url": "https://api.github.com/users/lucash-dev/gists{/gist_id}",
      "starred_url": "https://api.github.com/users/lucash-dev/starred{/owner}{/repo}",
      "subscriptions_url": "https://api.github.com/users/lucash-dev/subscriptions",
      "organizations_url": "https://api.github.com/users/lucash-dev/orgs",
      "repos_url": "https://api.github.com/users/lucash-dev/repos",
      "events_url": "https://api.github.com/users/lucash-dev/events{/privacy}",
      "received_events_url": "https://api.github.com/users/lucash-dev/received_events",
      "type": "User",
      "site_admin": false
    },
    "created_at": "2018-12-03T06:52:21Z",
    "updated_at": "2018-12-03T06:54:05Z",
    "author_association": "CONTRIBUTOR",
    "body_html": "<p dir=\"auto\">Coudn't find much info on <a title=\"CVE-2012-4682\" data-hovercard-type=\"advisory\" data-hovercard-url=\"/advisories/GHSA-rfqp-v6qm-4pcq/hovercard\" href=\"https://github.com/advisories/GHSA-rfqp-v6qm-4pcq\">CVE-2012-4682</a>, <a title=\"CVE-2012-4683\" data-hovercard-type=\"advisory\" data-hovercard-url=\"/advisories/GHSA-9pxf-2x29-v2rv/hovercard\" href=\"https://github.com/advisories/GHSA-9pxf-2x29-v2rv\">CVE-2012-4683</a>. <a class=\"user-mention notranslate\" data-hovercard-type=\"user\" data-hovercard-url=\"/users/luke-jr/hovercard\" data-octo-click=\"hovercard-link-click\" data-octo-dimensions=\"link_type:self\" href=\"https://github.com/luke-jr\">@luke-jr</a> could you provide any pointers?</p>",
    "body_text": "Coudn't find much info on CVE-2012-4682, CVE-2012-4683. @luke-jr could you provide any pointers?",
    "body": "Coudn't find much info on CVE-2012-4682, CVE-2012-4683. @luke-jr could you provide any pointers?",
    "reactions": {
      "url": "https://api.github.com/repos/bitcoin/bitcoin/issues/comments/443606849/reactions",
      "total_count": 0,
      "+1": 0,
      "-1": 0,
      "laugh": 0,
      "hooray": 0,
      "confused": 0,
      "heart": 0,
      "rocket": 0,
      "eyes": 0
    },
    "performed_via_github_app": null
  },
  {
    "url": "https://api.github.com/repos/bitcoin/bitcoin/issues/comments/451837632",
    "html_url": "https://github.com/bitcoin/bitcoin/pull/14696#issuecomment-451837632",
    "issue_url": "https://api.github.com/repos/bitcoin/bitcoin/issues/14696",
    "id": 451837632,
    "node_id": "MDEyOklzc3VlQ29tbWVudDQ1MTgzNzYzMg==",
    "user": {
      "login": "lucash-dev",
      "id": 31627588,
      "node_id": "MDQ6VXNlcjMxNjI3NTg4",
      "avatar_url": "https://avatars.githubusercontent.com/u/31627588?v=4",
      "gravatar_id": "",
      "url": "https://api.github.com/users/lucash-dev",
      "html_url": "https://github.com/lucash-dev",
      "followers_url": "https://api.github.com/users/lucash-dev/followers",
      "following_url": "https://api.github.com/users/lucash-dev/following{/other_user}",
      "gists_url": "https://api.github.com/users/lucash-dev/gists{/gist_id}",
      "starred_url": "https://api.github.com/users/lucash-dev/starred{/owner}{/repo}",
      "subscriptions_url": "https://api.github.com/users/lucash-dev/subscriptions",
      "organizations_url": "https://api.github.com/users/lucash-dev/orgs",
      "repos_url": "https://api.github.com/users/lucash-dev/repos",
      "events_url": "https://api.github.com/users/lucash-dev/events{/privacy}",
      "received_events_url": "https://api.github.com/users/lucash-dev/received_events",
      "type": "User",
      "site_admin": false
    },
    "created_at": "2019-01-07T06:47:10Z",
    "updated_at": "2019-01-07T06:47:10Z",
    "author_association": "CONTRIBUTOR",
    "body_html": "<p dir=\"auto\">Rebased. Also refactored to use the new invalid tx template.</p>",
    "body_text": "Rebased. Also refactored to use the new invalid tx template.",
    "body": "Rebased. Also refactored to use the new invalid tx template.",
    "reactions": {
      "url": "https://api.github.com/repos/bitcoin/bitcoin/issues/comments/451837632/reactions",
      "total_count": 0,
      "+1": 0,
      "-1": 0,
      "laugh": 0,
      "hooray": 0,
      "confused": 0,
      "heart": 0,
      "rocket": 0,
      "eyes": 0
    },
    "performed_via_github_app": null
  },
  {
    "url": "https://api.github.com/repos/bitcoin/bitcoin/issues/comments/451838774",
    "html_url": "https://github.com/bitcoin/bitcoin/pull/14696#issuecomment-451838774",
    "issue_url": "https://api.github.com/repos/bitcoin/bitcoin/issues/14696",
    "id": 451838774,
    "node_id": "MDEyOklzc3VlQ29tbWVudDQ1MTgzODc3NA==",
    "user": {
      "login": "fanquake",
      "id": 863730,
      "node_id": "MDQ6VXNlcjg2MzczMA==",
      "avatar_url": "https://avatars.githubusercontent.com/u/863730?v=4",
      "gravatar_id": "",
      "url": "https://api.github.com/users/fanquake",
      "html_url": "https://github.com/fanquake",
      "followers_url": "https://api.github.com/users/fanquake/followers",
      "following_url": "https://api.github.com/users/fanquake/following{/other_user}",
      "gists_url": "https://api.github.com/users/fanquake/gists{/gist_id}",
      "starred_url": "https://api.github.com/users/fanquake/starred{/owner}{/repo}",
      "subscriptions_url": "https://api.github.com/users/fanquake/subscriptions",
      "organizations_url": "https://api.github.com/users/fanquake/orgs",
      "repos_url": "https://api.github.com/users/fanquake/repos",
      "events_url": "https://api.github.com/users/fanquake/events{/privacy}",
      "received_events_url": "https://api.github.com/users/fanquake/received_events",
      "type": "User",
      "site_admin": false
    },
    "created_at": "2019-01-07T06:54:07Z",
    "updated_at": "2019-01-07T06:54:07Z",
    "author_association": "MEMBER",
    "body_html": "<p dir=\"auto\"><a class=\"user-mention notranslate\" data-hovercard-type=\"user\" data-hovercard-url=\"/users/lucash-dev/hovercard\" data-octo-click=\"hovercard-link-click\" data-octo-dimensions=\"link_type:self\" href=\"https://github.com/lucash-dev\">@lucash-dev</a> Could you cleanup the trailing whitespace. That's what's causing Travis to fail:</p>\n<div class=\"snippet-clipboard-content notranslate position-relative overflow-auto\" data-snippet-clipboard-copy-content=\"./test/functional/data/invalid_txs.py:204:1: W293 blank line contains whitespace\n./test/functional/data/invalid_txs.py:205:1: W293 blank line contains whitespace\n./test/functional/data/invalid_txs.py:210:10: E131 continuation line unaligned for hanging indent\"><pre class=\"notranslate\"><code class=\"notranslate\">./test/functional/data/invalid_txs.py:204:1: W293 blank line contains whitespace\n./test/functional/data/invalid_txs.py:205:1: W293 blank line contains whitespace\n./test/functional/data/invalid_txs.py:210:10: E131 continuation line unaligned for hanging indent\n</code></pre></div>",
    "body_text": "@lucash-dev Could you cleanup the trailing whitespace. That's what's causing Travis to fail:\n./test/functional/data/invalid_txs.py:204:1: W293 blank line contains whitespace\n./test/functional/data/invalid_txs.py:205:1: W293 blank line contains whitespace\n./test/functional/data/invalid_txs.py:210:10: E131 continuation line unaligned for hanging indent",
    "body": "@lucash-dev Could you cleanup the trailing whitespace. That's what's causing Travis to fail:\r\n```\r\n./test/functional/data/invalid_txs.py:204:1: W293 blank line contains whitespace\r\n./test/functional/data/invalid_txs.py:205:1: W293 blank line contains whitespace\r\n./test/functional/data/invalid_txs.py:210:10: E131 continuation line unaligned for hanging indent\r\n```",
    "reactions": {
      "url": "https://api.github.com/repos/bitcoin/bitcoin/issues/comments/451838774/reactions",
      "total_count": 1,
      "+1": 1,
      "-1": 0,
      "laugh": 0,
      "hooray": 0,
      "confused": 0,
      "heart": 0,
      "rocket": 0,
      "eyes": 0
    },
    "performed_via_github_app": null
  },
  {
    "url": "https://api.github.com/repos/bitcoin/bitcoin/issues/comments/459348097",
    "html_url": "https://github.com/bitcoin/bitcoin/pull/14696#issuecomment-459348097",
    "issue_url": "https://api.github.com/repos/bitcoin/bitcoin/issues/14696",
    "id": 459348097,
    "node_id": "MDEyOklzc3VlQ29tbWVudDQ1OTM0ODA5Nw==",
    "user": {
      "login": "laanwj",
      "id": 126646,
      "node_id": "MDQ6VXNlcjEyNjY0Ng==",
      "avatar_url": "https://avatars.githubusercontent.com/u/126646?v=4",
      "gravatar_id": "",
      "url": "https://api.github.com/users/laanwj",
      "html_url": "https://github.com/laanwj",
      "followers_url": "https://api.github.com/users/laanwj/followers",
      "following_url": "https://api.github.com/users/laanwj/following{/other_user}",
      "gists_url": "https://api.github.com/users/laanwj/gists{/gist_id}",
      "starred_url": "https://api.github.com/users/laanwj/starred{/owner}{/repo}",
      "subscriptions_url": "https://api.github.com/users/laanwj/subscriptions",
      "organizations_url": "https://api.github.com/users/laanwj/orgs",
      "repos_url": "https://api.github.com/users/laanwj/repos",
      "events_url": "https://api.github.com/users/laanwj/events{/privacy}",
      "received_events_url": "https://api.github.com/users/laanwj/received_events",
      "type": "User",
      "site_admin": false
    },
    "created_at": "2019-01-31T13:42:36Z",
    "updated_at": "2019-01-31T13:42:36Z",
    "author_association": "MEMBER",
    "body_html": "<p dir=\"auto\">utACK <a class=\"commit-link\" data-hovercard-type=\"commit\" data-hovercard-url=\"https://github.com/bitcoin/bitcoin/commit/a342ecd20afc422ece488dca43dd9086dd37798b/hovercard\" href=\"https://github.com/bitcoin/bitcoin/commit/a342ecd20afc422ece488dca43dd9086dd37798b\"><tt>a342ecd</tt></a><br>\nCould squash some commits and fix spelling in commit messages</p>",
    "body_text": "utACK a342ecd\nCould squash some commits and fix spelling in commit messages",
    "body": "utACK a342ecd20afc422ece488dca43dd9086dd37798b\r\nCould squash some commits and fix spelling in commit messages",
    "reactions": {
      "url": "https://api.github.com/repos/bitcoin/bitcoin/issues/comments/459348097/reactions",
      "total_count": 0,
      "+1": 0,
      "-1": 0,
      "laugh": 0,
      "hooray": 0,
      "confused": 0,
      "heart": 0,
      "rocket": 0,
      "eyes": 0
    },
    "performed_via_github_app": null
  },
  {
    "url": "https://api.github.com/repos/bitcoin/bitcoin/issues/comments/459576673",
    "html_url": "https://github.com/bitcoin/bitcoin/pull/14696#issuecomment-459576673",
    "issue_url": "https://api.github.com/repos/bitcoin/bitcoin/issues/14696",
    "id": 459576673,
    "node_id": "MDEyOklzc3VlQ29tbWVudDQ1OTU3NjY3Mw==",
    "user": {
      "login": "lucash-dev",
      "id": 31627588,
      "node_id": "MDQ6VXNlcjMxNjI3NTg4",
      "avatar_url": "https://avatars.githubusercontent.com/u/31627588?v=4",
      "gravatar_id": "",
      "url": "https://api.github.com/users/lucash-dev",
      "html_url": "https://github.com/lucash-dev",
      "followers_url": "https://api.github.com/users/lucash-dev/followers",
      "following_url": "https://api.github.com/users/lucash-dev/following{/other_user}",
      "gists_url": "https://api.github.com/users/lucash-dev/gists{/gist_id}",
      "starred_url": "https://api.github.com/users/lucash-dev/starred{/owner}{/repo}",
      "subscriptions_url": "https://api.github.com/users/lucash-dev/subscriptions",
      "organizations_url": "https://api.github.com/users/lucash-dev/orgs",
      "repos_url": "https://api.github.com/users/lucash-dev/repos",
      "events_url": "https://api.github.com/users/lucash-dev/events{/privacy}",
      "received_events_url": "https://api.github.com/users/lucash-dev/received_events",
      "type": "User",
      "site_admin": false
    },
    "created_at": "2019-02-01T01:54:10Z",
    "updated_at": "2019-02-01T01:54:10Z",
    "author_association": "CONTRIBUTOR",
    "body_html": "<blockquote>\n<p dir=\"auto\">utACK <a href=\"https://github.com/bitcoin/bitcoin/commit/a342ecd20afc422ece488dca43dd9086dd37798b\">a342ecd</a><br>\nCould squash some commits and fix spelling in commit messages</p>\n</blockquote>\n<p dir=\"auto\">Sorry, should've prefixed the PR with \"WIP\" while I was working adding more comments for more CVEs. It's been a while since I've had time to work on this PR, though. It has also already grown far beyond the original intention (just a couple comments). So probably better if I just fix the commit history, and open a new PR later on when I manage to add comments/tests for the remaining CVEs.<br>\nThanks for reviewing!</p>",
    "body_text": "utACK a342ecd\nCould squash some commits and fix spelling in commit messages\n\nSorry, should've prefixed the PR with \"WIP\" while I was working adding more comments for more CVEs. It's been a while since I've had time to work on this PR, though. It has also already grown far beyond the original intention (just a couple comments). So probably better if I just fix the commit history, and open a new PR later on when I manage to add comments/tests for the remaining CVEs.\nThanks for reviewing!",
    "body": "> utACK [a342ecd](https://github.com/bitcoin/bitcoin/commit/a342ecd20afc422ece488dca43dd9086dd37798b)\r\n> Could squash some commits and fix spelling in commit messages\r\n\r\nSorry, should've prefixed the PR with \"WIP\" while I was working adding more comments for more CVEs. It's been a while since I've had time to work on this PR, though. It has also already grown far beyond the original intention (just a couple comments). So probably better if I just fix the commit history, and open a new PR later on when I manage to add comments/tests for the remaining CVEs.\r\nThanks for reviewing!",
    "reactions": {
      "url": "https://api.github.com/repos/bitcoin/bitcoin/issues/comments/459576673/reactions",
      "total_count": 0,
      "+1": 0,
      "-1": 0,
      "laugh": 0,
      "hooray": 0,
      "confused": 0,
      "heart": 0,
      "rocket": 0,
      "eyes": 0
    },
    "performed_via_github_app": null
  },
  {
    "url": "https://api.github.com/repos/bitcoin/bitcoin/issues/comments/459613336",
    "html_url": "https://github.com/bitcoin/bitcoin/pull/14696#issuecomment-459613336",
    "issue_url": "https://api.github.com/repos/bitcoin/bitcoin/issues/14696",
    "id": 459613336,
    "node_id": "MDEyOklzc3VlQ29tbWVudDQ1OTYxMzMzNg==",
    "user": {
      "login": "lucash-dev",
      "id": 31627588,
      "node_id": "MDQ6VXNlcjMxNjI3NTg4",
      "avatar_url": "https://avatars.githubusercontent.com/u/31627588?v=4",
      "gravatar_id": "",
      "url": "https://api.github.com/users/lucash-dev",
      "html_url": "https://github.com/lucash-dev",
      "followers_url": "https://api.github.com/users/lucash-dev/followers",
      "following_url": "https://api.github.com/users/lucash-dev/following{/other_user}",
      "gists_url": "https://api.github.com/users/lucash-dev/gists{/gist_id}",
      "starred_url": "https://api.github.com/users/lucash-dev/starred{/owner}{/repo}",
      "subscriptions_url": "https://api.github.com/users/lucash-dev/subscriptions",
      "organizations_url": "https://api.github.com/users/lucash-dev/orgs",
      "repos_url": "https://api.github.com/users/lucash-dev/repos",
      "events_url": "https://api.github.com/users/lucash-dev/events{/privacy}",
      "received_events_url": "https://api.github.com/users/lucash-dev/received_events",
      "type": "User",
      "site_admin": false
    },
    "created_at": "2019-02-01T05:43:41Z",
    "updated_at": "2019-02-01T05:43:41Z",
    "author_association": "CONTRIBUTOR",
    "body_html": "<p dir=\"auto\">Fixed the commit history.</p>",
    "body_text": "Fixed the commit history.",
    "body": "Fixed the commit history.",
    "reactions": {
      "url": "https://api.github.com/repos/bitcoin/bitcoin/issues/comments/459613336/reactions",
      "total_count": 0,
      "+1": 0,
      "-1": 0,
      "laugh": 0,
      "hooray": 0,
      "confused": 0,
      "heart": 0,
      "rocket": 0,
      "eyes": 0
    },
    "performed_via_github_app": null
  },
  {
    "url": "https://api.github.com/repos/bitcoin/bitcoin/issues/comments/459848523",
    "html_url": "https://github.com/bitcoin/bitcoin/pull/14696#issuecomment-459848523",
    "issue_url": "https://api.github.com/repos/bitcoin/bitcoin/issues/14696",
    "id": 459848523,
    "node_id": "MDEyOklzc3VlQ29tbWVudDQ1OTg0ODUyMw==",
    "user": {
      "login": "practicalswift",
      "id": 7826565,
      "node_id": "MDQ6VXNlcjc4MjY1NjU=",
      "avatar_url": "https://avatars.githubusercontent.com/u/7826565?v=4",
      "gravatar_id": "",
      "url": "https://api.github.com/users/practicalswift",
      "html_url": "https://github.com/practicalswift",
      "followers_url": "https://api.github.com/users/practicalswift/followers",
      "following_url": "https://api.github.com/users/practicalswift/following{/other_user}",
      "gists_url": "https://api.github.com/users/practicalswift/gists{/gist_id}",
      "starred_url": "https://api.github.com/users/practicalswift/starred{/owner}{/repo}",
      "subscriptions_url": "https://api.github.com/users/practicalswift/subscriptions",
      "organizations_url": "https://api.github.com/users/practicalswift/orgs",
      "repos_url": "https://api.github.com/users/practicalswift/repos",
      "events_url": "https://api.github.com/users/practicalswift/events{/privacy}",
      "received_events_url": "https://api.github.com/users/practicalswift/received_events",
      "type": "User",
      "site_admin": false
    },
    "created_at": "2019-02-01T19:57:35Z",
    "updated_at": "2019-02-01T19:57:35Z",
    "author_association": "CONTRIBUTOR",
    "body_html": "<p dir=\"auto\">utACK <a class=\"commit-link\" data-hovercard-type=\"commit\" data-hovercard-url=\"https://github.com/bitcoin/bitcoin/commit/203c3284eec263ac94339779e36f20a32c77f877/hovercard\" href=\"https://github.com/bitcoin/bitcoin/commit/203c3284eec263ac94339779e36f20a32c77f877\"><tt>203c328</tt></a> modulo nit and squash</p>",
    "body_text": "utACK 203c328 modulo nit and squash",
    "body": "utACK 203c3284eec263ac94339779e36f20a32c77f877 modulo nit and squash",
    "reactions": {
      "url": "https://api.github.com/repos/bitcoin/bitcoin/issues/comments/459848523/reactions",
      "total_count": 0,
      "+1": 0,
      "-1": 0,
      "laugh": 0,
      "hooray": 0,
      "confused": 0,
      "heart": 0,
      "rocket": 0,
      "eyes": 0
    },
    "performed_via_github_app": null
  },
  {
    "url": "https://api.github.com/repos/bitcoin/bitcoin/issues/comments/459990085",
    "html_url": "https://github.com/bitcoin/bitcoin/pull/14696#issuecomment-459990085",
    "issue_url": "https://api.github.com/repos/bitcoin/bitcoin/issues/14696",
    "id": 459990085,
    "node_id": "MDEyOklzc3VlQ29tbWVudDQ1OTk5MDA4NQ==",
    "user": {
      "login": "lucash-dev",
      "id": 31627588,
      "node_id": "MDQ6VXNlcjMxNjI3NTg4",
      "avatar_url": "https://avatars.githubusercontent.com/u/31627588?v=4",
      "gravatar_id": "",
      "url": "https://api.github.com/users/lucash-dev",
      "html_url": "https://github.com/lucash-dev",
      "followers_url": "https://api.github.com/users/lucash-dev/followers",
      "following_url": "https://api.github.com/users/lucash-dev/following{/other_user}",
      "gists_url": "https://api.github.com/users/lucash-dev/gists{/gist_id}",
      "starred_url": "https://api.github.com/users/lucash-dev/starred{/owner}{/repo}",
      "subscriptions_url": "https://api.github.com/users/lucash-dev/subscriptions",
      "organizations_url": "https://api.github.com/users/lucash-dev/orgs",
      "repos_url": "https://api.github.com/users/lucash-dev/repos",
      "events_url": "https://api.github.com/users/lucash-dev/events{/privacy}",
      "received_events_url": "https://api.github.com/users/lucash-dev/received_events",
      "type": "User",
      "site_admin": false
    },
    "created_at": "2019-02-02T18:58:53Z",
    "updated_at": "2019-02-02T18:59:13Z",
    "author_association": "CONTRIBUTOR",
    "body_html": "<blockquote>\n<p dir=\"auto\">utACK <a href=\"https://github.com/bitcoin/bitcoin/commit/203c3284eec263ac94339779e36f20a32c77f877\">203c328</a> modulo nit and squash</p>\n</blockquote>\n<p dir=\"auto\">Fixed nit. Further squashed to 2 commits. one for adding comments, other for new tests. Let me know if you'd like just one commit. just thought it would make sense to separate these two, but it's all the same to me.<br>\nAnd thanks for reviewing!</p>",
    "body_text": "utACK 203c328 modulo nit and squash\n\nFixed nit. Further squashed to 2 commits. one for adding comments, other for new tests. Let me know if you'd like just one commit. just thought it would make sense to separate these two, but it's all the same to me.\nAnd thanks for reviewing!",
    "body": "> utACK [203c328](https://github.com/bitcoin/bitcoin/commit/203c3284eec263ac94339779e36f20a32c77f877) modulo nit and squash\r\n\r\nFixed nit. Further squashed to 2 commits. one for adding comments, other for new tests. Let me know if you'd like just one commit. just thought it would make sense to separate these two, but it's all the same to me.\r\nAnd thanks for reviewing!",
    "reactions": {
      "url": "https://api.github.com/repos/bitcoin/bitcoin/issues/comments/459990085/reactions",
      "total_count": 0,
      "+1": 0,
      "-1": 0,
      "laugh": 0,
      "hooray": 0,
      "confused": 0,
      "heart": 0,
      "rocket": 0,
      "eyes": 0
    },
    "performed_via_github_app": null
  },
  {
    "url": "https://api.github.com/repos/bitcoin/bitcoin/issues/comments/498470284",
    "html_url": "https://github.com/bitcoin/bitcoin/pull/14696#issuecomment-498470284",
    "issue_url": "https://api.github.com/repos/bitcoin/bitcoin/issues/14696",
    "id": 498470284,
    "node_id": "MDEyOklzc3VlQ29tbWVudDQ5ODQ3MDI4NA==",
    "user": {
      "login": "lucash-dev",
      "id": 31627588,
      "node_id": "MDQ6VXNlcjMxNjI3NTg4",
      "avatar_url": "https://avatars.githubusercontent.com/u/31627588?v=4",
      "gravatar_id": "",
      "url": "https://api.github.com/users/lucash-dev",
      "html_url": "https://github.com/lucash-dev",
      "followers_url": "https://api.github.com/users/lucash-dev/followers",
      "following_url": "https://api.github.com/users/lucash-dev/following{/other_user}",
      "gists_url": "https://api.github.com/users/lucash-dev/gists{/gist_id}",
      "starred_url": "https://api.github.com/users/lucash-dev/starred{/owner}{/repo}",
      "subscriptions_url": "https://api.github.com/users/lucash-dev/subscriptions",
      "organizations_url": "https://api.github.com/users/lucash-dev/orgs",
      "repos_url": "https://api.github.com/users/lucash-dev/repos",
      "events_url": "https://api.github.com/users/lucash-dev/events{/privacy}",
      "received_events_url": "https://api.github.com/users/lucash-dev/received_events",
      "type": "User",
      "site_admin": false
    },
    "created_at": "2019-06-04T00:08:43Z",
    "updated_at": "2019-06-04T00:08:43Z",
    "author_association": "CONTRIBUTOR",
    "body_html": "<p dir=\"auto\">Rebased.</p>",
    "body_text": "Rebased.",
    "body": "Rebased.",
    "reactions": {
      "url": "https://api.github.com/repos/bitcoin/bitcoin/issues/comments/498470284/reactions",
      "total_count": 0,
      "+1": 0,
      "-1": 0,
      "laugh": 0,
      "hooray": 0,
      "confused": 0,
      "heart": 0,
      "rocket": 0,
      "eyes": 0
    },
    "performed_via_github_app": null
  },
  {
    "url": "https://api.github.com/repos/bitcoin/bitcoin/issues/comments/499040984",
    "html_url": "https://github.com/bitcoin/bitcoin/pull/14696#issuecomment-499040984",
    "issue_url": "https://api.github.com/repos/bitcoin/bitcoin/issues/14696",
    "id": 499040984,
    "node_id": "MDEyOklzc3VlQ29tbWVudDQ5OTA0MDk4NA==",
    "user": {
      "login": "Empact",
      "id": 5470,
      "node_id": "MDQ6VXNlcjU0NzA=",
      "avatar_url": "https://avatars.githubusercontent.com/u/5470?v=4",
      "gravatar_id": "",
      "url": "https://api.github.com/users/Empact",
      "html_url": "https://github.com/Empact",
      "followers_url": "https://api.github.com/users/Empact/followers",
      "following_url": "https://api.github.com/users/Empact/following{/other_user}",
      "gists_url": "https://api.github.com/users/Empact/gists{/gist_id}",
      "starred_url": "https://api.github.com/users/Empact/starred{/owner}{/repo}",
      "subscriptions_url": "https://api.github.com/users/Empact/subscriptions",
      "organizations_url": "https://api.github.com/users/Empact/orgs",
      "repos_url": "https://api.github.com/users/Empact/repos",
      "events_url": "https://api.github.com/users/Empact/events{/privacy}",
      "received_events_url": "https://api.github.com/users/Empact/received_events",
      "type": "User",
      "site_admin": false
    },
    "created_at": "2019-06-05T11:11:44Z",
    "updated_at": "2019-06-05T11:11:44Z",
    "author_association": "MEMBER",
    "body_html": "<p dir=\"auto\">utACK <a class=\"commit-link\" data-hovercard-type=\"commit\" data-hovercard-url=\"https://github.com/bitcoin/bitcoin/commit/38bfca6bb2ad68719415e9c54a981441052da072/hovercard\" href=\"https://github.com/bitcoin/bitcoin/commit/38bfca6bb2ad68719415e9c54a981441052da072\"><tt>38bfca6</tt></a></p>",
    "body_text": "utACK 38bfca6",
    "body": "utACK https://github.com/bitcoin/bitcoin/pull/14696/commits/38bfca6bb2ad68719415e9c54a981441052da072",
    "reactions": {
      "url": "https://api.github.com/repos/bitcoin/bitcoin/issues/comments/499040984/reactions",
      "total_count": 0,
      "+1": 0,
      "-1": 0,
      "laugh": 0,
      "hooray": 0,
      "confused": 0,
      "heart": 0,
      "rocket": 0,
      "eyes": 0
    },
    "performed_via_github_app": null
  },
  {
    "url": "https://api.github.com/repos/bitcoin/bitcoin/issues/comments/532694671",
    "html_url": "https://github.com/bitcoin/bitcoin/pull/14696#issuecomment-532694671",
    "issue_url": "https://api.github.com/repos/bitcoin/bitcoin/issues/14696",
    "id": 532694671,
    "node_id": "MDEyOklzc3VlQ29tbWVudDUzMjY5NDY3MQ==",
    "user": {
      "login": "laanwj",
      "id": 126646,
      "node_id": "MDQ6VXNlcjEyNjY0Ng==",
      "avatar_url": "https://avatars.githubusercontent.com/u/126646?v=4",
      "gravatar_id": "",
      "url": "https://api.github.com/users/laanwj",
      "html_url": "https://github.com/laanwj",
      "followers_url": "https://api.github.com/users/laanwj/followers",
      "following_url": "https://api.github.com/users/laanwj/following{/other_user}",
      "gists_url": "https://api.github.com/users/laanwj/gists{/gist_id}",
      "starred_url": "https://api.github.com/users/laanwj/starred{/owner}{/repo}",
      "subscriptions_url": "https://api.github.com/users/laanwj/subscriptions",
      "organizations_url": "https://api.github.com/users/laanwj/orgs",
      "repos_url": "https://api.github.com/users/laanwj/repos",
      "events_url": "https://api.github.com/users/laanwj/events{/privacy}",
      "received_events_url": "https://api.github.com/users/laanwj/received_events",
      "type": "User",
      "site_admin": false
    },
    "created_at": "2019-09-18T13:53:13Z",
    "updated_at": "2019-09-18T13:53:13Z",
    "author_association": "MEMBER",
    "body_html": "<p dir=\"auto\">ACK <a class=\"commit-link\" data-hovercard-type=\"commit\" data-hovercard-url=\"https://github.com/bitcoin/bitcoin/commit/0c62e3aa73839e97e65a3155e06a98d84b700a1e/hovercard\" href=\"https://github.com/bitcoin/bitcoin/commit/0c62e3aa73839e97e65a3155e06a98d84b700a1e\"><tt>0c62e3a</tt></a>, checked the CVE numbers, thanks for adding documentation</p>",
    "body_text": "ACK 0c62e3a, checked the CVE numbers, thanks for adding documentation",
    "body": "ACK 0c62e3aa73839e97e65a3155e06a98d84b700a1e, checked the CVE numbers, thanks for adding documentation",
    "reactions": {
      "url": "https://api.github.com/repos/bitcoin/bitcoin/issues/comments/532694671/reactions",
      "total_count": 0,
      "+1": 0,
      "-1": 0,
      "laugh": 0,
      "hooray": 0,
      "confused": 0,
      "heart": 0,
      "rocket": 0,
      "eyes": 0
    },
    "performed_via_github_app": null
  }
]
