[
  {
    "url": "https://api.github.com/repos/bitcoin/bitcoin/issues/comments/1299276",
    "html_url": "https://github.com/bitcoin/bitcoin/pull/294#issuecomment-1299276",
    "issue_url": "https://api.github.com/repos/bitcoin/bitcoin/issues/294",
    "id": 1299276,
    "node_id": "MDEyOklzc3VlQ29tbWVudDEyOTkyNzY=",
    "user": {
      "login": "TheBlueMatt",
      "id": 649246,
      "node_id": "MDQ6VXNlcjY0OTI0Ng==",
      "avatar_url": "https://avatars.githubusercontent.com/u/649246?v=4",
      "gravatar_id": "",
      "url": "https://api.github.com/users/TheBlueMatt",
      "html_url": "https://github.com/TheBlueMatt",
      "followers_url": "https://api.github.com/users/TheBlueMatt/followers",
      "following_url": "https://api.github.com/users/TheBlueMatt/following{/other_user}",
      "gists_url": "https://api.github.com/users/TheBlueMatt/gists{/gist_id}",
      "starred_url": "https://api.github.com/users/TheBlueMatt/starred{/owner}{/repo}",
      "subscriptions_url": "https://api.github.com/users/TheBlueMatt/subscriptions",
      "organizations_url": "https://api.github.com/users/TheBlueMatt/orgs",
      "repos_url": "https://api.github.com/users/TheBlueMatt/repos",
      "events_url": "https://api.github.com/users/TheBlueMatt/events{/privacy}",
      "received_events_url": "https://api.github.com/users/TheBlueMatt/received_events",
      "type": "User",
      "site_admin": false
    },
    "created_at": "2011-06-03T20:37:42Z",
    "updated_at": "2011-06-03T20:37:42Z",
    "author_association": "CONTRIBUTOR",
    "body_html": "<p dir=\"auto\">Not sure if I agree with this.  Im not sure if it is useful or not.  After walletcrypter, creating new keys can be a bit slow (both created, and encrypted).  This means generating 25 in direct succession and blocking until then can generate quite a lag.  Walletcrypter will try to generate new addresses every chance it gets, as you have no idea when you will get the password again.  Even if you ignore walletcrypter, Im not sure if it is a better idea to lock once per 25 uses or for 1/25th the time on each use.</p>",
    "body_text": "Not sure if I agree with this.  Im not sure if it is useful or not.  After walletcrypter, creating new keys can be a bit slow (both created, and encrypted).  This means generating 25 in direct succession and blocking until then can generate quite a lag.  Walletcrypter will try to generate new addresses every chance it gets, as you have no idea when you will get the password again.  Even if you ignore walletcrypter, Im not sure if it is a better idea to lock once per 25 uses or for 1/25th the time on each use.",
    "body": "Not sure if I agree with this.  Im not sure if it is useful or not.  After walletcrypter, creating new keys can be a bit slow (both created, and encrypted).  This means generating 25 in direct succession and blocking until then can generate quite a lag.  Walletcrypter will try to generate new addresses every chance it gets, as you have no idea when you will get the password again.  Even if you ignore walletcrypter, Im not sure if it is a better idea to lock once per 25 uses or for 1/25th the time on each use.\n",
    "reactions": {
      "url": "https://api.github.com/repos/bitcoin/bitcoin/issues/comments/1299276/reactions",
      "total_count": 0,
      "+1": 0,
      "-1": 0,
      "laugh": 0,
      "hooray": 0,
      "confused": 0,
      "heart": 0,
      "rocket": 0,
      "eyes": 0
    },
    "performed_via_github_app": null
  },
  {
    "url": "https://api.github.com/repos/bitcoin/bitcoin/issues/comments/1299404",
    "html_url": "https://github.com/bitcoin/bitcoin/pull/294#issuecomment-1299404",
    "issue_url": "https://api.github.com/repos/bitcoin/bitcoin/issues/294",
    "id": 1299404,
    "node_id": "MDEyOklzc3VlQ29tbWVudDEyOTk0MDQ=",
    "user": {
      "login": "jgarzik",
      "id": 494411,
      "node_id": "MDQ6VXNlcjQ5NDQxMQ==",
      "avatar_url": "https://avatars.githubusercontent.com/u/494411?v=4",
      "gravatar_id": "",
      "url": "https://api.github.com/users/jgarzik",
      "html_url": "https://github.com/jgarzik",
      "followers_url": "https://api.github.com/users/jgarzik/followers",
      "following_url": "https://api.github.com/users/jgarzik/following{/other_user}",
      "gists_url": "https://api.github.com/users/jgarzik/gists{/gist_id}",
      "starred_url": "https://api.github.com/users/jgarzik/starred{/owner}{/repo}",
      "subscriptions_url": "https://api.github.com/users/jgarzik/subscriptions",
      "organizations_url": "https://api.github.com/users/jgarzik/orgs",
      "repos_url": "https://api.github.com/users/jgarzik/repos",
      "events_url": "https://api.github.com/users/jgarzik/events{/privacy}",
      "received_events_url": "https://api.github.com/users/jgarzik/received_events",
      "type": "User",
      "site_admin": false
    },
    "created_at": "2011-06-03T20:59:01Z",
    "updated_at": "2011-06-03T20:59:01Z",
    "author_association": "CONTRIBUTOR",
    "body_html": "<p dir=\"auto\">If the feature is disliked, you can set keypoolmin==keypool.</p>\n<p dir=\"auto\">But there is really no reason we need to top up the key pool <em>every single time</em> we remove one key, and that creates the disadvantage that you -must- backup your wallet every single time.</p>\n<p dir=\"auto\">Normally, pools are depleted and replenished periodically; there does not seem to be a driving reason to constantly top up the keypool, one-at-a-time.</p>",
    "body_text": "If the feature is disliked, you can set keypoolmin==keypool.\nBut there is really no reason we need to top up the key pool every single time we remove one key, and that creates the disadvantage that you -must- backup your wallet every single time.\nNormally, pools are depleted and replenished periodically; there does not seem to be a driving reason to constantly top up the keypool, one-at-a-time.",
    "body": "If the feature is disliked, you can set keypoolmin==keypool.\n\nBut there is really no reason we need to top up the key pool _every single time_ we remove one key, and that creates the disadvantage that you -must- backup your wallet every single time.\n\nNormally, pools are depleted and replenished periodically; there does not seem to be a driving reason to constantly top up the keypool, one-at-a-time.\n",
    "reactions": {
      "url": "https://api.github.com/repos/bitcoin/bitcoin/issues/comments/1299404/reactions",
      "total_count": 0,
      "+1": 0,
      "-1": 0,
      "laugh": 0,
      "hooray": 0,
      "confused": 0,
      "heart": 0,
      "rocket": 0,
      "eyes": 0
    },
    "performed_via_github_app": null
  },
  {
    "url": "https://api.github.com/repos/bitcoin/bitcoin/issues/comments/1299453",
    "html_url": "https://github.com/bitcoin/bitcoin/pull/294#issuecomment-1299453",
    "issue_url": "https://api.github.com/repos/bitcoin/bitcoin/issues/294",
    "id": 1299453,
    "node_id": "MDEyOklzc3VlQ29tbWVudDEyOTk0NTM=",
    "user": {
      "login": "TheBlueMatt",
      "id": 649246,
      "node_id": "MDQ6VXNlcjY0OTI0Ng==",
      "avatar_url": "https://avatars.githubusercontent.com/u/649246?v=4",
      "gravatar_id": "",
      "url": "https://api.github.com/users/TheBlueMatt",
      "html_url": "https://github.com/TheBlueMatt",
      "followers_url": "https://api.github.com/users/TheBlueMatt/followers",
      "following_url": "https://api.github.com/users/TheBlueMatt/following{/other_user}",
      "gists_url": "https://api.github.com/users/TheBlueMatt/gists{/gist_id}",
      "starred_url": "https://api.github.com/users/TheBlueMatt/starred{/owner}{/repo}",
      "subscriptions_url": "https://api.github.com/users/TheBlueMatt/subscriptions",
      "organizations_url": "https://api.github.com/users/TheBlueMatt/orgs",
      "repos_url": "https://api.github.com/users/TheBlueMatt/repos",
      "events_url": "https://api.github.com/users/TheBlueMatt/events{/privacy}",
      "received_events_url": "https://api.github.com/users/TheBlueMatt/received_events",
      "type": "User",
      "site_admin": false
    },
    "created_at": "2011-06-03T21:05:30Z",
    "updated_at": "2011-06-03T21:05:30Z",
    "author_association": "CONTRIBUTOR",
    "body_html": "<p dir=\"auto\">re 1. True...<br>\nre 2: No, it is worse for backup, if you backup when you have 76 keys left you might lose coins sent to the 77th, whereas if you backup when you have 76 keys now...well you cant.<br>\nre 3: True, and I think you are right here, however I'd like to see manual control of keypool topup (its in wallet crypter, but I might pull it into a separate commit if I get the chance).  I would rather see the ability, though not required, to be able to top up the keypool and not slow down my transactions.  I suppose that leads me to the answer to my original question, IMHO it is better to lag one transaction per 25, instead of 1/25th the amount per transaction.</p>",
    "body_text": "re 1. True...\nre 2: No, it is worse for backup, if you backup when you have 76 keys left you might lose coins sent to the 77th, whereas if you backup when you have 76 keys now...well you cant.\nre 3: True, and I think you are right here, however I'd like to see manual control of keypool topup (its in wallet crypter, but I might pull it into a separate commit if I get the chance).  I would rather see the ability, though not required, to be able to top up the keypool and not slow down my transactions.  I suppose that leads me to the answer to my original question, IMHO it is better to lag one transaction per 25, instead of 1/25th the amount per transaction.",
    "body": "re 1. True...\nre 2: No, it is worse for backup, if you backup when you have 76 keys left you might lose coins sent to the 77th, whereas if you backup when you have 76 keys now...well you cant.\nre 3: True, and I think you are right here, however I'd like to see manual control of keypool topup (its in wallet crypter, but I might pull it into a separate commit if I get the chance).  I would rather see the ability, though not required, to be able to top up the keypool and not slow down my transactions.  I suppose that leads me to the answer to my original question, IMHO it is better to lag one transaction per 25, instead of 1/25th the amount per transaction.\n",
    "reactions": {
      "url": "https://api.github.com/repos/bitcoin/bitcoin/issues/comments/1299453/reactions",
      "total_count": 0,
      "+1": 0,
      "-1": 0,
      "laugh": 0,
      "hooray": 0,
      "confused": 0,
      "heart": 0,
      "rocket": 0,
      "eyes": 0
    },
    "performed_via_github_app": null
  },
  {
    "url": "https://api.github.com/repos/bitcoin/bitcoin/issues/comments/1299500",
    "html_url": "https://github.com/bitcoin/bitcoin/pull/294#issuecomment-1299500",
    "issue_url": "https://api.github.com/repos/bitcoin/bitcoin/issues/294",
    "id": 1299500,
    "node_id": "MDEyOklzc3VlQ29tbWVudDEyOTk1MDA=",
    "user": {
      "login": "jgarzik",
      "id": 494411,
      "node_id": "MDQ6VXNlcjQ5NDQxMQ==",
      "avatar_url": "https://avatars.githubusercontent.com/u/494411?v=4",
      "gravatar_id": "",
      "url": "https://api.github.com/users/jgarzik",
      "html_url": "https://github.com/jgarzik",
      "followers_url": "https://api.github.com/users/jgarzik/followers",
      "following_url": "https://api.github.com/users/jgarzik/following{/other_user}",
      "gists_url": "https://api.github.com/users/jgarzik/gists{/gist_id}",
      "starred_url": "https://api.github.com/users/jgarzik/starred{/owner}{/repo}",
      "subscriptions_url": "https://api.github.com/users/jgarzik/subscriptions",
      "organizations_url": "https://api.github.com/users/jgarzik/orgs",
      "repos_url": "https://api.github.com/users/jgarzik/repos",
      "events_url": "https://api.github.com/users/jgarzik/events{/privacy}",
      "received_events_url": "https://api.github.com/users/jgarzik/received_events",
      "type": "User",
      "site_admin": false
    },
    "created_at": "2011-06-03T21:14:57Z",
    "updated_at": "2011-06-03T21:14:57Z",
    "author_association": "CONTRIBUTOR",
    "body_html": "<p dir=\"auto\">The keypool always uses the oldest key first, on purpose.  So your lose-coins scenario doesn't make sense.  The keypool is by definition full of unused keys.</p>\n<p dir=\"auto\">With pool low-water refill, old backups remain valid longer.</p>",
    "body_text": "The keypool always uses the oldest key first, on purpose.  So your lose-coins scenario doesn't make sense.  The keypool is by definition full of unused keys.\nWith pool low-water refill, old backups remain valid longer.",
    "body": "The keypool always uses the oldest key first, on purpose.  So your lose-coins scenario doesn't make sense.  The keypool is by definition full of unused keys.\n\nWith pool low-water refill, old backups remain valid longer.\n",
    "reactions": {
      "url": "https://api.github.com/repos/bitcoin/bitcoin/issues/comments/1299500/reactions",
      "total_count": 0,
      "+1": 0,
      "-1": 0,
      "laugh": 0,
      "hooray": 0,
      "confused": 0,
      "heart": 0,
      "rocket": 0,
      "eyes": 0
    },
    "performed_via_github_app": null
  },
  {
    "url": "https://api.github.com/repos/bitcoin/bitcoin/issues/comments/1299587",
    "html_url": "https://github.com/bitcoin/bitcoin/pull/294#issuecomment-1299587",
    "issue_url": "https://api.github.com/repos/bitcoin/bitcoin/issues/294",
    "id": 1299587,
    "node_id": "MDEyOklzc3VlQ29tbWVudDEyOTk1ODc=",
    "user": {
      "login": "TheBlueMatt",
      "id": 649246,
      "node_id": "MDQ6VXNlcjY0OTI0Ng==",
      "avatar_url": "https://avatars.githubusercontent.com/u/649246?v=4",
      "gravatar_id": "",
      "url": "https://api.github.com/users/TheBlueMatt",
      "html_url": "https://github.com/TheBlueMatt",
      "followers_url": "https://api.github.com/users/TheBlueMatt/followers",
      "following_url": "https://api.github.com/users/TheBlueMatt/following{/other_user}",
      "gists_url": "https://api.github.com/users/TheBlueMatt/gists{/gist_id}",
      "starred_url": "https://api.github.com/users/TheBlueMatt/starred{/owner}{/repo}",
      "subscriptions_url": "https://api.github.com/users/TheBlueMatt/subscriptions",
      "organizations_url": "https://api.github.com/users/TheBlueMatt/orgs",
      "repos_url": "https://api.github.com/users/TheBlueMatt/repos",
      "events_url": "https://api.github.com/users/TheBlueMatt/events{/privacy}",
      "received_events_url": "https://api.github.com/users/TheBlueMatt/received_events",
      "type": "User",
      "site_admin": false
    },
    "created_at": "2011-06-03T21:29:35Z",
    "updated_at": "2011-06-03T21:29:35Z",
    "author_association": "CONTRIBUTOR",
    "body_html": "<p dir=\"auto\">My point was that after your patch, if you backup when you have 76 keys left, and you use 77, you might lose coins on restore.  However, if you backup when you have 77 keys left now...well you cant as the keypool will always have 100 new keys to use.  Thus after your patch, by default, you only have some keypool between 75 and 100, not 100 as it used to be, potentially resulting in lost coins if you assume you can do 100 actions between backup, like you used to be able to do.</p>",
    "body_text": "My point was that after your patch, if you backup when you have 76 keys left, and you use 77, you might lose coins on restore.  However, if you backup when you have 77 keys left now...well you cant as the keypool will always have 100 new keys to use.  Thus after your patch, by default, you only have some keypool between 75 and 100, not 100 as it used to be, potentially resulting in lost coins if you assume you can do 100 actions between backup, like you used to be able to do.",
    "body": "My point was that after your patch, if you backup when you have 76 keys left, and you use 77, you might lose coins on restore.  However, if you backup when you have 77 keys left now...well you cant as the keypool will always have 100 new keys to use.  Thus after your patch, by default, you only have some keypool between 75 and 100, not 100 as it used to be, potentially resulting in lost coins if you assume you can do 100 actions between backup, like you used to be able to do.\n",
    "reactions": {
      "url": "https://api.github.com/repos/bitcoin/bitcoin/issues/comments/1299587/reactions",
      "total_count": 0,
      "+1": 0,
      "-1": 0,
      "laugh": 0,
      "hooray": 0,
      "confused": 0,
      "heart": 0,
      "rocket": 0,
      "eyes": 0
    },
    "performed_via_github_app": null
  },
  {
    "url": "https://api.github.com/repos/bitcoin/bitcoin/issues/comments/1299648",
    "html_url": "https://github.com/bitcoin/bitcoin/pull/294#issuecomment-1299648",
    "issue_url": "https://api.github.com/repos/bitcoin/bitcoin/issues/294",
    "id": 1299648,
    "node_id": "MDEyOklzc3VlQ29tbWVudDEyOTk2NDg=",
    "user": {
      "login": "jgarzik",
      "id": 494411,
      "node_id": "MDQ6VXNlcjQ5NDQxMQ==",
      "avatar_url": "https://avatars.githubusercontent.com/u/494411?v=4",
      "gravatar_id": "",
      "url": "https://api.github.com/users/jgarzik",
      "html_url": "https://github.com/jgarzik",
      "followers_url": "https://api.github.com/users/jgarzik/followers",
      "following_url": "https://api.github.com/users/jgarzik/following{/other_user}",
      "gists_url": "https://api.github.com/users/jgarzik/gists{/gist_id}",
      "starred_url": "https://api.github.com/users/jgarzik/starred{/owner}{/repo}",
      "subscriptions_url": "https://api.github.com/users/jgarzik/subscriptions",
      "organizations_url": "https://api.github.com/users/jgarzik/orgs",
      "repos_url": "https://api.github.com/users/jgarzik/repos",
      "events_url": "https://api.github.com/users/jgarzik/events{/privacy}",
      "received_events_url": "https://api.github.com/users/jgarzik/received_events",
      "type": "User",
      "site_admin": false
    },
    "created_at": "2011-06-03T21:43:13Z",
    "updated_at": "2011-06-03T21:43:13Z",
    "author_association": "CONTRIBUTOR",
    "body_html": "<p dir=\"auto\">Absent tilting at windmills, the lone codger who does that can adjust -keypoolmin :)</p>",
    "body_text": "Absent tilting at windmills, the lone codger who does that can adjust -keypoolmin :)",
    "body": "Absent tilting at windmills, the lone codger who does that can adjust -keypoolmin :)\n",
    "reactions": {
      "url": "https://api.github.com/repos/bitcoin/bitcoin/issues/comments/1299648/reactions",
      "total_count": 0,
      "+1": 0,
      "-1": 0,
      "laugh": 0,
      "hooray": 0,
      "confused": 0,
      "heart": 0,
      "rocket": 0,
      "eyes": 0
    },
    "performed_via_github_app": null
  },
  {
    "url": "https://api.github.com/repos/bitcoin/bitcoin/issues/comments/1300367",
    "html_url": "https://github.com/bitcoin/bitcoin/pull/294#issuecomment-1300367",
    "issue_url": "https://api.github.com/repos/bitcoin/bitcoin/issues/294",
    "id": 1300367,
    "node_id": "MDEyOklzc3VlQ29tbWVudDEzMDAzNjc=",
    "user": {
      "login": "sipa",
      "id": 548488,
      "node_id": "MDQ6VXNlcjU0ODQ4OA==",
      "avatar_url": "https://avatars.githubusercontent.com/u/548488?v=4",
      "gravatar_id": "",
      "url": "https://api.github.com/users/sipa",
      "html_url": "https://github.com/sipa",
      "followers_url": "https://api.github.com/users/sipa/followers",
      "following_url": "https://api.github.com/users/sipa/following{/other_user}",
      "gists_url": "https://api.github.com/users/sipa/gists{/gist_id}",
      "starred_url": "https://api.github.com/users/sipa/starred{/owner}{/repo}",
      "subscriptions_url": "https://api.github.com/users/sipa/subscriptions",
      "organizations_url": "https://api.github.com/users/sipa/orgs",
      "repos_url": "https://api.github.com/users/sipa/repos",
      "events_url": "https://api.github.com/users/sipa/events{/privacy}",
      "received_events_url": "https://api.github.com/users/sipa/received_events",
      "type": "User",
      "site_admin": false
    },
    "created_at": "2011-06-04T01:20:14Z",
    "updated_at": "2011-06-04T01:20:14Z",
    "author_association": "MEMBER",
    "body_html": "<p dir=\"auto\">Well maybe then keypoolmin should default to 100, and fill up to 125.</p>",
    "body_text": "Well maybe then keypoolmin should default to 100, and fill up to 125.",
    "body": "Well maybe then keypoolmin should default to 100, and fill up to 125.\n",
    "reactions": {
      "url": "https://api.github.com/repos/bitcoin/bitcoin/issues/comments/1300367/reactions",
      "total_count": 0,
      "+1": 0,
      "-1": 0,
      "laugh": 0,
      "hooray": 0,
      "confused": 0,
      "heart": 0,
      "rocket": 0,
      "eyes": 0
    },
    "performed_via_github_app": null
  },
  {
    "url": "https://api.github.com/repos/bitcoin/bitcoin/issues/comments/1302955",
    "html_url": "https://github.com/bitcoin/bitcoin/pull/294#issuecomment-1302955",
    "issue_url": "https://api.github.com/repos/bitcoin/bitcoin/issues/294",
    "id": 1302955,
    "node_id": "MDEyOklzc3VlQ29tbWVudDEzMDI5NTU=",
    "user": {
      "login": "TheBlueMatt",
      "id": 649246,
      "node_id": "MDQ6VXNlcjY0OTI0Ng==",
      "avatar_url": "https://avatars.githubusercontent.com/u/649246?v=4",
      "gravatar_id": "",
      "url": "https://api.github.com/users/TheBlueMatt",
      "html_url": "https://github.com/TheBlueMatt",
      "followers_url": "https://api.github.com/users/TheBlueMatt/followers",
      "following_url": "https://api.github.com/users/TheBlueMatt/following{/other_user}",
      "gists_url": "https://api.github.com/users/TheBlueMatt/gists{/gist_id}",
      "starred_url": "https://api.github.com/users/TheBlueMatt/starred{/owner}{/repo}",
      "subscriptions_url": "https://api.github.com/users/TheBlueMatt/subscriptions",
      "organizations_url": "https://api.github.com/users/TheBlueMatt/orgs",
      "repos_url": "https://api.github.com/users/TheBlueMatt/repos",
      "events_url": "https://api.github.com/users/TheBlueMatt/events{/privacy}",
      "received_events_url": "https://api.github.com/users/TheBlueMatt/received_events",
      "type": "User",
      "site_admin": false
    },
    "created_at": "2011-06-04T22:38:01Z",
    "updated_at": "2011-06-04T22:38:01Z",
    "author_association": "CONTRIBUTOR",
    "body_html": "<p dir=\"auto\">Thats what I was thinking.  Im not sure what a \"good\" default keypool is.  For a merchant, you would need some ridiculously huge amount for keypool to just last a day.  For an end-user, 100 keys could very well last a month, maybe longer.  Generating keys does take very little time and spend very little disk space.</p>",
    "body_text": "Thats what I was thinking.  Im not sure what a \"good\" default keypool is.  For a merchant, you would need some ridiculously huge amount for keypool to just last a day.  For an end-user, 100 keys could very well last a month, maybe longer.  Generating keys does take very little time and spend very little disk space.",
    "body": "Thats what I was thinking.  Im not sure what a \"good\" default keypool is.  For a merchant, you would need some ridiculously huge amount for keypool to just last a day.  For an end-user, 100 keys could very well last a month, maybe longer.  Generating keys does take very little time and spend very little disk space.  \n",
    "reactions": {
      "url": "https://api.github.com/repos/bitcoin/bitcoin/issues/comments/1302955/reactions",
      "total_count": 0,
      "+1": 0,
      "-1": 0,
      "laugh": 0,
      "hooray": 0,
      "confused": 0,
      "heart": 0,
      "rocket": 0,
      "eyes": 0
    },
    "performed_via_github_app": null
  },
  {
    "url": "https://api.github.com/repos/bitcoin/bitcoin/issues/comments/1313490",
    "html_url": "https://github.com/bitcoin/bitcoin/pull/294#issuecomment-1313490",
    "issue_url": "https://api.github.com/repos/bitcoin/bitcoin/issues/294",
    "id": 1313490,
    "node_id": "MDEyOklzc3VlQ29tbWVudDEzMTM0OTA=",
    "user": {
      "login": "jgarzik",
      "id": 494411,
      "node_id": "MDQ6VXNlcjQ5NDQxMQ==",
      "avatar_url": "https://avatars.githubusercontent.com/u/494411?v=4",
      "gravatar_id": "",
      "url": "https://api.github.com/users/jgarzik",
      "html_url": "https://github.com/jgarzik",
      "followers_url": "https://api.github.com/users/jgarzik/followers",
      "following_url": "https://api.github.com/users/jgarzik/following{/other_user}",
      "gists_url": "https://api.github.com/users/jgarzik/gists{/gist_id}",
      "starred_url": "https://api.github.com/users/jgarzik/starred{/owner}{/repo}",
      "subscriptions_url": "https://api.github.com/users/jgarzik/subscriptions",
      "organizations_url": "https://api.github.com/users/jgarzik/orgs",
      "repos_url": "https://api.github.com/users/jgarzik/repos",
      "events_url": "https://api.github.com/users/jgarzik/events{/privacy}",
      "received_events_url": "https://api.github.com/users/jgarzik/received_events",
      "type": "User",
      "site_admin": false
    },
    "created_at": "2011-06-07T04:05:11Z",
    "updated_at": "2011-06-07T04:05:11Z",
    "author_association": "CONTRIBUTOR",
    "body_html": "<p dir=\"auto\">Updated to 100/125 (and created named constants for those magic numbers)</p>",
    "body_text": "Updated to 100/125 (and created named constants for those magic numbers)",
    "body": "Updated to 100/125 (and created named constants for those magic numbers)\n",
    "reactions": {
      "url": "https://api.github.com/repos/bitcoin/bitcoin/issues/comments/1313490/reactions",
      "total_count": 0,
      "+1": 0,
      "-1": 0,
      "laugh": 0,
      "hooray": 0,
      "confused": 0,
      "heart": 0,
      "rocket": 0,
      "eyes": 0
    },
    "performed_via_github_app": null
  },
  {
    "url": "https://api.github.com/repos/bitcoin/bitcoin/issues/comments/1433245",
    "html_url": "https://github.com/bitcoin/bitcoin/pull/294#issuecomment-1433245",
    "issue_url": "https://api.github.com/repos/bitcoin/bitcoin/issues/294",
    "id": 1433245,
    "node_id": "MDEyOklzc3VlQ29tbWVudDE0MzMyNDU=",
    "user": {
      "login": "gavinandresen",
      "id": 331997,
      "node_id": "MDQ6VXNlcjMzMTk5Nw==",
      "avatar_url": "https://avatars.githubusercontent.com/u/331997?v=4",
      "gravatar_id": "",
      "url": "https://api.github.com/users/gavinandresen",
      "html_url": "https://github.com/gavinandresen",
      "followers_url": "https://api.github.com/users/gavinandresen/followers",
      "following_url": "https://api.github.com/users/gavinandresen/following{/other_user}",
      "gists_url": "https://api.github.com/users/gavinandresen/gists{/gist_id}",
      "starred_url": "https://api.github.com/users/gavinandresen/starred{/owner}{/repo}",
      "subscriptions_url": "https://api.github.com/users/gavinandresen/subscriptions",
      "organizations_url": "https://api.github.com/users/gavinandresen/orgs",
      "repos_url": "https://api.github.com/users/gavinandresen/repos",
      "events_url": "https://api.github.com/users/gavinandresen/events{/privacy}",
      "received_events_url": "https://api.github.com/users/gavinandresen/received_events",
      "type": "User",
      "site_admin": false
    },
    "created_at": "2011-06-24T15:51:42Z",
    "updated_at": "2011-06-24T15:51:42Z",
    "author_association": "CONTRIBUTOR",
    "body_html": "<p dir=\"auto\">I agree with Matt-- I don't see the need for this.</p>",
    "body_text": "I agree with Matt-- I don't see the need for this.",
    "body": "I agree with Matt-- I don't see the need for this.\n",
    "reactions": {
      "url": "https://api.github.com/repos/bitcoin/bitcoin/issues/comments/1433245/reactions",
      "total_count": 0,
      "+1": 0,
      "-1": 0,
      "laugh": 0,
      "hooray": 0,
      "confused": 0,
      "heart": 0,
      "rocket": 0,
      "eyes": 0
    },
    "performed_via_github_app": null
  },
  {
    "url": "https://api.github.com/repos/bitcoin/bitcoin/issues/comments/1487840",
    "html_url": "https://github.com/bitcoin/bitcoin/pull/294#issuecomment-1487840",
    "issue_url": "https://api.github.com/repos/bitcoin/bitcoin/issues/294",
    "id": 1487840,
    "node_id": "MDEyOklzc3VlQ29tbWVudDE0ODc4NDA=",
    "user": {
      "login": "jgarzik",
      "id": 494411,
      "node_id": "MDQ6VXNlcjQ5NDQxMQ==",
      "avatar_url": "https://avatars.githubusercontent.com/u/494411?v=4",
      "gravatar_id": "",
      "url": "https://api.github.com/users/jgarzik",
      "html_url": "https://github.com/jgarzik",
      "followers_url": "https://api.github.com/users/jgarzik/followers",
      "following_url": "https://api.github.com/users/jgarzik/following{/other_user}",
      "gists_url": "https://api.github.com/users/jgarzik/gists{/gist_id}",
      "starred_url": "https://api.github.com/users/jgarzik/starred{/owner}{/repo}",
      "subscriptions_url": "https://api.github.com/users/jgarzik/subscriptions",
      "organizations_url": "https://api.github.com/users/jgarzik/orgs",
      "repos_url": "https://api.github.com/users/jgarzik/repos",
      "events_url": "https://api.github.com/users/jgarzik/events{/privacy}",
      "received_events_url": "https://api.github.com/users/jgarzik/received_events",
      "type": "User",
      "site_admin": false
    },
    "created_at": "2011-07-01T23:35:11Z",
    "updated_at": "2011-07-01T23:35:11Z",
    "author_association": "CONTRIBUTOR",
    "body_html": "<p dir=\"auto\">oh well :)</p>",
    "body_text": "oh well :)",
    "body": "oh well :)\n",
    "reactions": {
      "url": "https://api.github.com/repos/bitcoin/bitcoin/issues/comments/1487840/reactions",
      "total_count": 0,
      "+1": 0,
      "-1": 0,
      "laugh": 0,
      "hooray": 0,
      "confused": 0,
      "heart": 0,
      "rocket": 0,
      "eyes": 0
    },
    "performed_via_github_app": null
  }
]
