[
  {
    "url": "https://api.github.com/repos/bitcoin/bitcoin/issues/comments/114616357",
    "html_url": "https://github.com/bitcoin/bitcoin/pull/6309#issuecomment-114616357",
    "issue_url": "https://api.github.com/repos/bitcoin/bitcoin/issues/6309",
    "id": 114616357,
    "node_id": "MDEyOklzc3VlQ29tbWVudDExNDYxNjM1Nw==",
    "user": {
      "login": "Diapolo",
      "id": 1419649,
      "node_id": "MDQ6VXNlcjE0MTk2NDk=",
      "avatar_url": "https://avatars.githubusercontent.com/u/1419649?v=4",
      "gravatar_id": "",
      "url": "https://api.github.com/users/Diapolo",
      "html_url": "https://github.com/Diapolo",
      "followers_url": "https://api.github.com/users/Diapolo/followers",
      "following_url": "https://api.github.com/users/Diapolo/following{/other_user}",
      "gists_url": "https://api.github.com/users/Diapolo/gists{/gist_id}",
      "starred_url": "https://api.github.com/users/Diapolo/starred{/owner}{/repo}",
      "subscriptions_url": "https://api.github.com/users/Diapolo/subscriptions",
      "organizations_url": "https://api.github.com/users/Diapolo/orgs",
      "repos_url": "https://api.github.com/users/Diapolo/repos",
      "events_url": "https://api.github.com/users/Diapolo/events{/privacy}",
      "received_events_url": "https://api.github.com/users/Diapolo/received_events",
      "type": "User",
      "site_admin": false
    },
    "created_at": "2015-06-23T19:25:30Z",
    "updated_at": "2015-06-23T19:25:30Z",
    "author_association": "NONE",
    "body_html": "<p dir=\"auto\">I wanted to add such a thing for the peers tab, perhaps usable for a whois service or something. I'd love to get a quick ACK so I can re-use the new code :).</p>",
    "body_text": "I wanted to add such a thing for the peers tab, perhaps usable for a whois service or something. I'd love to get a quick ACK so I can re-use the new code :).",
    "body": "I wanted to add such a thing for the peers tab, perhaps usable for a whois service or something. I'd love to get a quick ACK so I can re-use the new code :).\n",
    "reactions": {
      "url": "https://api.github.com/repos/bitcoin/bitcoin/issues/comments/114616357/reactions",
      "total_count": 0,
      "+1": 0,
      "-1": 0,
      "laugh": 0,
      "hooray": 0,
      "confused": 0,
      "heart": 0,
      "rocket": 0,
      "eyes": 0
    },
    "performed_via_github_app": null
  },
  {
    "url": "https://api.github.com/repos/bitcoin/bitcoin/issues/comments/121349855",
    "html_url": "https://github.com/bitcoin/bitcoin/pull/6309#issuecomment-121349855",
    "issue_url": "https://api.github.com/repos/bitcoin/bitcoin/issues/6309",
    "id": 121349855,
    "node_id": "MDEyOklzc3VlQ29tbWVudDEyMTM0OTg1NQ==",
    "user": {
      "login": "jonasschnelli",
      "id": 178464,
      "node_id": "MDQ6VXNlcjE3ODQ2NA==",
      "avatar_url": "https://avatars.githubusercontent.com/u/178464?v=4",
      "gravatar_id": "",
      "url": "https://api.github.com/users/jonasschnelli",
      "html_url": "https://github.com/jonasschnelli",
      "followers_url": "https://api.github.com/users/jonasschnelli/followers",
      "following_url": "https://api.github.com/users/jonasschnelli/following{/other_user}",
      "gists_url": "https://api.github.com/users/jonasschnelli/gists{/gist_id}",
      "starred_url": "https://api.github.com/users/jonasschnelli/starred{/owner}{/repo}",
      "subscriptions_url": "https://api.github.com/users/jonasschnelli/subscriptions",
      "organizations_url": "https://api.github.com/users/jonasschnelli/orgs",
      "repos_url": "https://api.github.com/users/jonasschnelli/repos",
      "events_url": "https://api.github.com/users/jonasschnelli/events{/privacy}",
      "received_events_url": "https://api.github.com/users/jonasschnelli/received_events",
      "type": "User",
      "site_admin": false
    },
    "created_at": "2015-07-14T19:31:48Z",
    "updated_at": "2015-07-14T19:31:48Z",
    "author_association": "CONTRIBUTOR",
    "body_html": "<p dir=\"auto\">I don't see a simplification of the code in this PR. It's just another way of doing this IMO.<br>\nThis PR misses a benefit.</p>",
    "body_text": "I don't see a simplification of the code in this PR. It's just another way of doing this IMO.\nThis PR misses a benefit.",
    "body": "I don't see a simplification of the code in this PR. It's just another way of doing this IMO.\nThis PR misses a benefit.\n",
    "reactions": {
      "url": "https://api.github.com/repos/bitcoin/bitcoin/issues/comments/121349855/reactions",
      "total_count": 0,
      "+1": 0,
      "-1": 0,
      "laugh": 0,
      "hooray": 0,
      "confused": 0,
      "heart": 0,
      "rocket": 0,
      "eyes": 0
    },
    "performed_via_github_app": null
  },
  {
    "url": "https://api.github.com/repos/bitcoin/bitcoin/issues/comments/121898422",
    "html_url": "https://github.com/bitcoin/bitcoin/pull/6309#issuecomment-121898422",
    "issue_url": "https://api.github.com/repos/bitcoin/bitcoin/issues/6309",
    "id": 121898422,
    "node_id": "MDEyOklzc3VlQ29tbWVudDEyMTg5ODQyMg==",
    "user": {
      "login": "Diapolo",
      "id": 1419649,
      "node_id": "MDQ6VXNlcjE0MTk2NDk=",
      "avatar_url": "https://avatars.githubusercontent.com/u/1419649?v=4",
      "gravatar_id": "",
      "url": "https://api.github.com/users/Diapolo",
      "html_url": "https://github.com/Diapolo",
      "followers_url": "https://api.github.com/users/Diapolo/followers",
      "following_url": "https://api.github.com/users/Diapolo/following{/other_user}",
      "gists_url": "https://api.github.com/users/Diapolo/gists{/gist_id}",
      "starred_url": "https://api.github.com/users/Diapolo/starred{/owner}{/repo}",
      "subscriptions_url": "https://api.github.com/users/Diapolo/subscriptions",
      "organizations_url": "https://api.github.com/users/Diapolo/orgs",
      "repos_url": "https://api.github.com/users/Diapolo/repos",
      "events_url": "https://api.github.com/users/Diapolo/events{/privacy}",
      "received_events_url": "https://api.github.com/users/Diapolo/received_events",
      "type": "User",
      "site_admin": false
    },
    "created_at": "2015-07-16T09:25:30Z",
    "updated_at": "2015-07-16T09:25:30Z",
    "author_association": "NONE",
    "body_html": "<p dir=\"auto\"><a class=\"user-mention notranslate\" data-hovercard-type=\"user\" data-hovercard-url=\"/users/jonasschnelli/hovercard\" data-octo-click=\"hovercard-link-click\" data-octo-dimensions=\"link_type:self\" href=\"https://github.com/jonasschnelli\">@jonasschnelli</a> I think the foreach makes more sense, but also look at <code class=\"notranslate\">TransactionView::openThirdPartyTxUrl()</code>, which now uses a GUIUtil function.</p>",
    "body_text": "@jonasschnelli I think the foreach makes more sense, but also look at TransactionView::openThirdPartyTxUrl(), which now uses a GUIUtil function.",
    "body": "@jonasschnelli I think the foreach makes more sense, but also look at `TransactionView::openThirdPartyTxUrl()`, which now uses a GUIUtil function.\n",
    "reactions": {
      "url": "https://api.github.com/repos/bitcoin/bitcoin/issues/comments/121898422/reactions",
      "total_count": 0,
      "+1": 0,
      "-1": 0,
      "laugh": 0,
      "hooray": 0,
      "confused": 0,
      "heart": 0,
      "rocket": 0,
      "eyes": 0
    },
    "performed_via_github_app": null
  },
  {
    "url": "https://api.github.com/repos/bitcoin/bitcoin/issues/comments/140746543",
    "html_url": "https://github.com/bitcoin/bitcoin/pull/6309#issuecomment-140746543",
    "issue_url": "https://api.github.com/repos/bitcoin/bitcoin/issues/6309",
    "id": 140746543,
    "node_id": "MDEyOklzc3VlQ29tbWVudDE0MDc0NjU0Mw==",
    "user": {
      "login": "jgarzik",
      "id": 494411,
      "node_id": "MDQ6VXNlcjQ5NDQxMQ==",
      "avatar_url": "https://avatars.githubusercontent.com/u/494411?v=4",
      "gravatar_id": "",
      "url": "https://api.github.com/users/jgarzik",
      "html_url": "https://github.com/jgarzik",
      "followers_url": "https://api.github.com/users/jgarzik/followers",
      "following_url": "https://api.github.com/users/jgarzik/following{/other_user}",
      "gists_url": "https://api.github.com/users/jgarzik/gists{/gist_id}",
      "starred_url": "https://api.github.com/users/jgarzik/starred{/owner}{/repo}",
      "subscriptions_url": "https://api.github.com/users/jgarzik/subscriptions",
      "organizations_url": "https://api.github.com/users/jgarzik/orgs",
      "repos_url": "https://api.github.com/users/jgarzik/repos",
      "events_url": "https://api.github.com/users/jgarzik/events{/privacy}",
      "received_events_url": "https://api.github.com/users/jgarzik/received_events",
      "type": "User",
      "site_admin": false
    },
    "created_at": "2015-09-16T13:44:41Z",
    "updated_at": "2015-09-16T13:44:41Z",
    "author_association": "CONTRIBUTOR",
    "body_html": "<p dir=\"auto\">Weak NAK - do not see much simplification (though I do have a preference for un-indenting code)</p>",
    "body_text": "Weak NAK - do not see much simplification (though I do have a preference for un-indenting code)",
    "body": "Weak NAK - do not see much simplification (though I do have a preference for un-indenting code)\n",
    "reactions": {
      "url": "https://api.github.com/repos/bitcoin/bitcoin/issues/comments/140746543/reactions",
      "total_count": 0,
      "+1": 0,
      "-1": 0,
      "laugh": 0,
      "hooray": 0,
      "confused": 0,
      "heart": 0,
      "rocket": 0,
      "eyes": 0
    },
    "performed_via_github_app": null
  },
  {
    "url": "https://api.github.com/repos/bitcoin/bitcoin/issues/comments/140751719",
    "html_url": "https://github.com/bitcoin/bitcoin/pull/6309#issuecomment-140751719",
    "issue_url": "https://api.github.com/repos/bitcoin/bitcoin/issues/6309",
    "id": 140751719,
    "node_id": "MDEyOklzc3VlQ29tbWVudDE0MDc1MTcxOQ==",
    "user": {
      "login": "Diapolo",
      "id": 1419649,
      "node_id": "MDQ6VXNlcjE0MTk2NDk=",
      "avatar_url": "https://avatars.githubusercontent.com/u/1419649?v=4",
      "gravatar_id": "",
      "url": "https://api.github.com/users/Diapolo",
      "html_url": "https://github.com/Diapolo",
      "followers_url": "https://api.github.com/users/Diapolo/followers",
      "following_url": "https://api.github.com/users/Diapolo/following{/other_user}",
      "gists_url": "https://api.github.com/users/Diapolo/gists{/gist_id}",
      "starred_url": "https://api.github.com/users/Diapolo/starred{/owner}{/repo}",
      "subscriptions_url": "https://api.github.com/users/Diapolo/subscriptions",
      "organizations_url": "https://api.github.com/users/Diapolo/orgs",
      "repos_url": "https://api.github.com/users/Diapolo/repos",
      "events_url": "https://api.github.com/users/Diapolo/events{/privacy}",
      "received_events_url": "https://api.github.com/users/Diapolo/received_events",
      "type": "User",
      "site_admin": false
    },
    "created_at": "2015-09-16T14:05:28Z",
    "updated_at": "2015-09-16T14:05:28Z",
    "author_association": "NONE",
    "body_html": "<p dir=\"auto\"><a class=\"user-mention notranslate\" data-hovercard-type=\"user\" data-hovercard-url=\"/users/jgarzik/hovercard\" data-octo-click=\"hovercard-link-click\" data-octo-dimensions=\"link_type:self\" href=\"https://github.com/jgarzik\">@jgarzik</a> IMHO the code in <code class=\"notranslate\">TransactionView::openThirdPartyTxUrl</code> is quite easier to read, yeah the rest is likely another version of how one could do it...</p>",
    "body_text": "@jgarzik IMHO the code in TransactionView::openThirdPartyTxUrl is quite easier to read, yeah the rest is likely another version of how one could do it...",
    "body": "@jgarzik IMHO the code in `TransactionView::openThirdPartyTxUrl` is quite easier to read, yeah the rest is likely another version of how one could do it...\n",
    "reactions": {
      "url": "https://api.github.com/repos/bitcoin/bitcoin/issues/comments/140751719/reactions",
      "total_count": 0,
      "+1": 0,
      "-1": 0,
      "laugh": 0,
      "hooray": 0,
      "confused": 0,
      "heart": 0,
      "rocket": 0,
      "eyes": 0
    },
    "performed_via_github_app": null
  }
]
