{
  "url": "https://api.github.com/repos/bitcoin/bitcoin/issues/11151",
  "repository_url": "https://api.github.com/repos/bitcoin/bitcoin",
  "labels_url": "https://api.github.com/repos/bitcoin/bitcoin/issues/11151/labels{/name}",
  "comments_url": "https://api.github.com/repos/bitcoin/bitcoin/issues/11151/comments",
  "events_url": "https://api.github.com/repos/bitcoin/bitcoin/issues/11151/events",
  "html_url": "https://github.com/bitcoin/bitcoin/pull/11151",
  "id": 253044050,
  "node_id": "MDExOlB1bGxSZXF1ZXN0MTM3Nzc2MTg1",
  "number": 11151,
  "title": "Fix header guards using reserved identifiers",
  "user": {
    "login": "danra",
    "id": 84245,
    "node_id": "MDQ6VXNlcjg0MjQ1",
    "avatar_url": "https://avatars.githubusercontent.com/u/84245?v=4",
    "gravatar_id": "",
    "url": "https://api.github.com/users/danra",
    "html_url": "https://github.com/danra",
    "followers_url": "https://api.github.com/users/danra/followers",
    "following_url": "https://api.github.com/users/danra/following{/other_user}",
    "gists_url": "https://api.github.com/users/danra/gists{/gist_id}",
    "starred_url": "https://api.github.com/users/danra/starred{/owner}{/repo}",
    "subscriptions_url": "https://api.github.com/users/danra/subscriptions",
    "organizations_url": "https://api.github.com/users/danra/orgs",
    "repos_url": "https://api.github.com/users/danra/repos",
    "events_url": "https://api.github.com/users/danra/events{/privacy}",
    "received_events_url": "https://api.github.com/users/danra/received_events",
    "type": "User",
    "site_admin": false
  },
  "labels": [
    {
      "id": 135961,
      "node_id": "MDU6TGFiZWwxMzU5NjE=",
      "url": "https://api.github.com/repos/bitcoin/bitcoin/labels/Refactoring",
      "name": "Refactoring",
      "color": "E6F6D6",
      "default": false,
      "description": null
    }
  ],
  "state": "closed",
  "locked": true,
  "assignee": null,
  "assignees": [

  ],
  "milestone": null,
  "comments": 0,
  "created_at": "2017-08-26T00:00:53Z",
  "updated_at": "2021-09-08T11:28:34Z",
  "closed_at": "2017-08-26T11:00:29Z",
  "author_association": "CONTRIBUTOR",
  "active_lock_reason": "resolved",
  "draft": false,
  "pull_request": {
    "url": "https://api.github.com/repos/bitcoin/bitcoin/pulls/11151",
    "html_url": "https://github.com/bitcoin/bitcoin/pull/11151",
    "diff_url": "https://github.com/bitcoin/bitcoin/pull/11151.diff",
    "patch_url": "https://github.com/bitcoin/bitcoin/pull/11151.patch",
    "merged_at": "2017-08-26T11:00:28Z"
  },
  "body_html": "<p dir=\"auto\">Identifiers beginning with an underscore followed immediately by an uppercase letter are reserved.</p>",
  "body_text": "Identifiers beginning with an underscore followed immediately by an uppercase letter are reserved.",
  "body": "Identifiers beginning with an underscore followed immediately by an uppercase letter are reserved.",
  "closed_by": {
    "login": "laanwj",
    "id": 126646,
    "node_id": "MDQ6VXNlcjEyNjY0Ng==",
    "avatar_url": "https://avatars.githubusercontent.com/u/126646?v=4",
    "gravatar_id": "",
    "url": "https://api.github.com/users/laanwj",
    "html_url": "https://github.com/laanwj",
    "followers_url": "https://api.github.com/users/laanwj/followers",
    "following_url": "https://api.github.com/users/laanwj/following{/other_user}",
    "gists_url": "https://api.github.com/users/laanwj/gists{/gist_id}",
    "starred_url": "https://api.github.com/users/laanwj/starred{/owner}{/repo}",
    "subscriptions_url": "https://api.github.com/users/laanwj/subscriptions",
    "organizations_url": "https://api.github.com/users/laanwj/orgs",
    "repos_url": "https://api.github.com/users/laanwj/repos",
    "events_url": "https://api.github.com/users/laanwj/events{/privacy}",
    "received_events_url": "https://api.github.com/users/laanwj/received_events",
    "type": "User",
    "site_admin": false
  },
  "reactions": {
    "url": "https://api.github.com/repos/bitcoin/bitcoin/issues/11151/reactions",
    "total_count": 0,
    "+1": 0,
    "-1": 0,
    "laugh": 0,
    "hooray": 0,
    "confused": 0,
    "heart": 0,
    "rocket": 0,
    "eyes": 0
  },
  "timeline_url": "https://api.github.com/repos/bitcoin/bitcoin/issues/11151/timeline",
  "performed_via_github_app": null,
  "state_reason": null
}
