[
  {
    "url": "https://api.github.com/repos/bitcoin/bitcoin/issues/comments/923099972",
    "html_url": "https://github.com/bitcoin/bitcoin/pull/23049#issuecomment-923099972",
    "issue_url": "https://api.github.com/repos/bitcoin/bitcoin/issues/23049",
    "id": 923099972,
    "node_id": "IC_kwDOABII5843BWNE",
    "user": {
      "login": "Fi3",
      "id": 6207037,
      "node_id": "MDQ6VXNlcjYyMDcwMzc=",
      "avatar_url": "https://avatars.githubusercontent.com/u/6207037?v=4",
      "gravatar_id": "",
      "url": "https://api.github.com/users/Fi3",
      "html_url": "https://github.com/Fi3",
      "followers_url": "https://api.github.com/users/Fi3/followers",
      "following_url": "https://api.github.com/users/Fi3/following{/other_user}",
      "gists_url": "https://api.github.com/users/Fi3/gists{/gist_id}",
      "starred_url": "https://api.github.com/users/Fi3/starred{/owner}{/repo}",
      "subscriptions_url": "https://api.github.com/users/Fi3/subscriptions",
      "organizations_url": "https://api.github.com/users/Fi3/orgs",
      "repos_url": "https://api.github.com/users/Fi3/repos",
      "events_url": "https://api.github.com/users/Fi3/events{/privacy}",
      "received_events_url": "https://api.github.com/users/Fi3/received_events",
      "type": "User",
      "site_admin": false
    },
    "created_at": "2021-09-20T16:49:01Z",
    "updated_at": "2021-09-21T15:52:38Z",
    "author_association": "NONE",
    "body_html": "<p dir=\"auto\">To build it:</p>\n<div class=\"snippet-clipboard-content notranslate position-relative overflow-auto\" data-snippet-clipboard-copy-content=\"./contrib/guix/guix-clean\nenv HOSTS='x86_64-linux-gnu' ./contrib/guix/guix-build\"><pre class=\"notranslate\"><code class=\"notranslate\">./contrib/guix/guix-clean\nenv HOSTS='x86_64-linux-gnu' ./contrib/guix/guix-build\n</code></pre></div>\n<p dir=\"auto\">To test it:</p>\n<div class=\"snippet-clipboard-content notranslate position-relative overflow-auto\" data-snippet-clipboard-copy-content=\" ./guix-build-34bebad831a9/distsrc-34bebad831a9-x86_64-linux-gnu/src/bitcoind\"><pre class=\"notranslate\"><code class=\"notranslate\"> ./guix-build-34bebad831a9/distsrc-34bebad831a9-x86_64-linux-gnu/src/bitcoind\n</code></pre></div>\n<p dir=\"auto\">An example of how to import <code class=\"notranslate\">sv2-ffi</code> in a generic c++ project can be found <a href=\"https://github.com/stratum-mining/stratum/tree/main/examples/interop-cpp-no-cargo\">here</a></p>",
    "body_text": "To build it:\n./contrib/guix/guix-clean\nenv HOSTS='x86_64-linux-gnu' ./contrib/guix/guix-build\n\nTo test it:\n ./guix-build-34bebad831a9/distsrc-34bebad831a9-x86_64-linux-gnu/src/bitcoind\n\nAn example of how to import sv2-ffi in a generic c++ project can be found here",
    "body": "To build it:\r\n```\r\n./contrib/guix/guix-clean\r\nenv HOSTS='x86_64-linux-gnu' ./contrib/guix/guix-build\r\n```\r\n\r\nTo test it:\r\n```\r\n ./guix-build-34bebad831a9/distsrc-34bebad831a9-x86_64-linux-gnu/src/bitcoind\r\n```\r\n\r\nAn example of how to import `sv2-ffi` in a generic c++ project can be found [here](https://github.com/stratum-mining/stratum/tree/main/examples/interop-cpp-no-cargo)",
    "reactions": {
      "url": "https://api.github.com/repos/bitcoin/bitcoin/issues/comments/923099972/reactions",
      "total_count": 0,
      "+1": 0,
      "-1": 0,
      "laugh": 0,
      "hooray": 0,
      "confused": 0,
      "heart": 0,
      "rocket": 0,
      "eyes": 0
    },
    "performed_via_github_app": null
  },
  {
    "url": "https://api.github.com/repos/bitcoin/bitcoin/issues/comments/923132229",
    "html_url": "https://github.com/bitcoin/bitcoin/pull/23049#issuecomment-923132229",
    "issue_url": "https://api.github.com/repos/bitcoin/bitcoin/issues/23049",
    "id": 923132229,
    "node_id": "IC_kwDOABII5843BeFF",
    "user": {
      "login": "luke-jr",
      "id": 1095675,
      "node_id": "MDQ6VXNlcjEwOTU2NzU=",
      "avatar_url": "https://avatars.githubusercontent.com/u/1095675?v=4",
      "gravatar_id": "",
      "url": "https://api.github.com/users/luke-jr",
      "html_url": "https://github.com/luke-jr",
      "followers_url": "https://api.github.com/users/luke-jr/followers",
      "following_url": "https://api.github.com/users/luke-jr/following{/other_user}",
      "gists_url": "https://api.github.com/users/luke-jr/gists{/gist_id}",
      "starred_url": "https://api.github.com/users/luke-jr/starred{/owner}{/repo}",
      "subscriptions_url": "https://api.github.com/users/luke-jr/subscriptions",
      "organizations_url": "https://api.github.com/users/luke-jr/orgs",
      "repos_url": "https://api.github.com/users/luke-jr/repos",
      "events_url": "https://api.github.com/users/luke-jr/events{/privacy}",
      "received_events_url": "https://api.github.com/users/luke-jr/received_events",
      "type": "User",
      "site_admin": false
    },
    "created_at": "2021-09-20T17:30:49Z",
    "updated_at": "2021-09-20T17:30:49Z",
    "author_association": "MEMBER",
    "body_html": "<p dir=\"auto\">Concept NACK for Rust, until a secure bootstrap without trusted third party binaries is practical.</p>",
    "body_text": "Concept NACK for Rust, until a secure bootstrap without trusted third party binaries is practical.",
    "body": "Concept NACK for Rust, until a secure bootstrap without trusted third party binaries is practical.",
    "reactions": {
      "url": "https://api.github.com/repos/bitcoin/bitcoin/issues/comments/923132229/reactions",
      "total_count": 0,
      "+1": 0,
      "-1": 0,
      "laugh": 0,
      "hooray": 0,
      "confused": 0,
      "heart": 0,
      "rocket": 0,
      "eyes": 0
    },
    "performed_via_github_app": null
  },
  {
    "url": "https://api.github.com/repos/bitcoin/bitcoin/issues/comments/923797532",
    "html_url": "https://github.com/bitcoin/bitcoin/pull/23049#issuecomment-923797532",
    "issue_url": "https://api.github.com/repos/bitcoin/bitcoin/issues/23049",
    "id": 923797532,
    "node_id": "IC_kwDOABII5843EAgc",
    "user": {
      "login": "Fi3",
      "id": 6207037,
      "node_id": "MDQ6VXNlcjYyMDcwMzc=",
      "avatar_url": "https://avatars.githubusercontent.com/u/6207037?v=4",
      "gravatar_id": "",
      "url": "https://api.github.com/users/Fi3",
      "html_url": "https://github.com/Fi3",
      "followers_url": "https://api.github.com/users/Fi3/followers",
      "following_url": "https://api.github.com/users/Fi3/following{/other_user}",
      "gists_url": "https://api.github.com/users/Fi3/gists{/gist_id}",
      "starred_url": "https://api.github.com/users/Fi3/starred{/owner}{/repo}",
      "subscriptions_url": "https://api.github.com/users/Fi3/subscriptions",
      "organizations_url": "https://api.github.com/users/Fi3/orgs",
      "repos_url": "https://api.github.com/users/Fi3/repos",
      "events_url": "https://api.github.com/users/Fi3/events{/privacy}",
      "received_events_url": "https://api.github.com/users/Fi3/received_events",
      "type": "User",
      "site_admin": false
    },
    "created_at": "2021-09-21T09:23:28Z",
    "updated_at": "2021-09-21T09:23:28Z",
    "author_association": "NONE",
    "body_html": "<blockquote>\n<p dir=\"auto\">Concept NACK for Rust, until a secure bootstrap without trusted third party binaries is practical.</p>\n</blockquote>\n<p dir=\"auto\">Isn't that already achieved with guix?</p>",
    "body_text": "Concept NACK for Rust, until a secure bootstrap without trusted third party binaries is practical.\n\nIsn't that already achieved with guix?",
    "body": "> Concept NACK for Rust, until a secure bootstrap without trusted third party binaries is practical.\r\n\r\nIsn't that already achieved with guix?",
    "reactions": {
      "url": "https://api.github.com/repos/bitcoin/bitcoin/issues/comments/923797532/reactions",
      "total_count": 0,
      "+1": 0,
      "-1": 0,
      "laugh": 0,
      "hooray": 0,
      "confused": 0,
      "heart": 0,
      "rocket": 0,
      "eyes": 0
    },
    "performed_via_github_app": null
  },
  {
    "url": "https://api.github.com/repos/bitcoin/bitcoin/issues/comments/925446441",
    "html_url": "https://github.com/bitcoin/bitcoin/pull/23049#issuecomment-925446441",
    "issue_url": "https://api.github.com/repos/bitcoin/bitcoin/issues/23049",
    "id": 925446441,
    "node_id": "IC_kwDOABII5843KTEp",
    "user": {
      "login": "ariard",
      "id": 23310655,
      "node_id": "MDQ6VXNlcjIzMzEwNjU1",
      "avatar_url": "https://avatars.githubusercontent.com/u/23310655?v=4",
      "gravatar_id": "",
      "url": "https://api.github.com/users/ariard",
      "html_url": "https://github.com/ariard",
      "followers_url": "https://api.github.com/users/ariard/followers",
      "following_url": "https://api.github.com/users/ariard/following{/other_user}",
      "gists_url": "https://api.github.com/users/ariard/gists{/gist_id}",
      "starred_url": "https://api.github.com/users/ariard/starred{/owner}{/repo}",
      "subscriptions_url": "https://api.github.com/users/ariard/subscriptions",
      "organizations_url": "https://api.github.com/users/ariard/orgs",
      "repos_url": "https://api.github.com/users/ariard/repos",
      "events_url": "https://api.github.com/users/ariard/events{/privacy}",
      "received_events_url": "https://api.github.com/users/ariard/received_events",
      "type": "User",
      "site_admin": false
    },
    "created_at": "2021-09-23T01:33:28Z",
    "updated_at": "2021-09-23T01:33:28Z",
    "author_association": "MEMBER",
    "body_html": "<p dir=\"auto\">I think this work is interesting, that said it might need more thought on how to interface with Core.</p>\n<p dir=\"auto\">AFAICT, the proposed PR just link the library in the build system and create a new template encoder in <code class=\"notranslate\">bitcoind</code>. Though it doesn't introduce a new thread where the logic would co-run with other Core's current threads (<code class=\"notranslate\">ThreadSocketHandler</code>, <code class=\"notranslate\">ThreadOpenConnection</code>, ...). I initially followed this approach when I proposed AltNet with <a class=\"issue-link js-issue-link\" data-error-text=\"Failed to load title\" data-id=\"619442451\" data-permission-text=\"Title is private\" data-url=\"https://github.com/bitcoin/bitcoin/issues/18988\" data-hovercard-type=\"pull_request\" data-hovercard-url=\"/bitcoin/bitcoin/pull/18988/hovercard\" href=\"https://github.com/bitcoin/bitcoin/pull/18988\">#18988</a>. After gathering <a href=\"https://gnusha.org/bitcoin-core-dev/2020-05-21.log\" rel=\"nofollow\">feedbacks</a> from other contributors, a separated process sounds a more flexible and safer approach.</p>\n<p dir=\"auto\">Recently, I've made some progress in this direction by building on top of the <a href=\"https://github.com/bitcoin/bitcoin/pull/10102\" data-hovercard-type=\"pull_request\" data-hovercard-url=\"/bitcoin/bitcoin/pull/10102/hovercard\">multiprocess</a> project (see the hacky branch <a href=\"https://github.com/ariard/bitcoin/commits/2021-07-altnet-lightning\">https://github.com/ariard/bitcoin/commits/2021-07-altnet-lightning</a>). Process separation is promising, though going further I'm aiming to have AltNet pluggin modules written in Rust, while interfacing in Core over the  Cap'n Proto newer interfaces. The current bottleneck is re-writing <code class=\"notranslate\">libmultiprocess</code> in Rust, see <a class=\"issue-link js-issue-link\" data-error-text=\"Failed to load title\" data-id=\"951742885\" data-permission-text=\"Title is private\" data-url=\"https://github.com/chaincodelabs/libmultiprocess/issues/56\" data-hovercard-type=\"issue\" data-hovercard-url=\"/chaincodelabs/libmultiprocess/issues/56/hovercard\" href=\"https://github.com/chaincodelabs/libmultiprocess/issues/56\">chaincodelabs/libmultiprocess#56</a> for more information. It's more work than expected though I've a branch half-written doing that, hope to make it public soon(tm).</p>\n<p dir=\"auto\">I think such modules or the one proposed in the current PR could live beyond the Core repository to avoid burdening the maintenance effort and the concerns about Rust chain of trust, while consuming the stable interfaces to ease deployment across the ecosystem.</p>\n<p dir=\"auto\">Glad to see progress on the miner infrastructure, that's really needed!</p>",
    "body_text": "I think this work is interesting, that said it might need more thought on how to interface with Core.\nAFAICT, the proposed PR just link the library in the build system and create a new template encoder in bitcoind. Though it doesn't introduce a new thread where the logic would co-run with other Core's current threads (ThreadSocketHandler, ThreadOpenConnection, ...). I initially followed this approach when I proposed AltNet with #18988. After gathering feedbacks from other contributors, a separated process sounds a more flexible and safer approach.\nRecently, I've made some progress in this direction by building on top of the multiprocess project (see the hacky branch https://github.com/ariard/bitcoin/commits/2021-07-altnet-lightning). Process separation is promising, though going further I'm aiming to have AltNet pluggin modules written in Rust, while interfacing in Core over the  Cap'n Proto newer interfaces. The current bottleneck is re-writing libmultiprocess in Rust, see chaincodelabs/libmultiprocess#56 for more information. It's more work than expected though I've a branch half-written doing that, hope to make it public soon(tm).\nI think such modules or the one proposed in the current PR could live beyond the Core repository to avoid burdening the maintenance effort and the concerns about Rust chain of trust, while consuming the stable interfaces to ease deployment across the ecosystem.\nGlad to see progress on the miner infrastructure, that's really needed!",
    "body": "I think this work is interesting, that said it might need more thought on how to interface with Core.\r\n\r\nAFAICT, the proposed PR just link the library in the build system and create a new template encoder in `bitcoind`. Though it doesn't introduce a new thread where the logic would co-run with other Core's current threads (`ThreadSocketHandler`, `ThreadOpenConnection`, ...). I initially followed this approach when I proposed AltNet with #18988. After gathering [feedbacks](https://gnusha.org/bitcoin-core-dev/2020-05-21.log) from other contributors, a separated process sounds a more flexible and safer approach.\r\n\r\nRecently, I've made some progress in this direction by building on top of the [multiprocess](https://github.com/bitcoin/bitcoin/pull/10102) project (see the hacky branch https://github.com/ariard/bitcoin/commits/2021-07-altnet-lightning). Process separation is promising, though going further I'm aiming to have AltNet pluggin modules written in Rust, while interfacing in Core over the  Cap'n Proto newer interfaces. The current bottleneck is re-writing `libmultiprocess` in Rust, see https://github.com/chaincodelabs/libmultiprocess/issues/56 for more information. It's more work than expected though I've a branch half-written doing that, hope to make it public soon(tm).\r\n\r\nI think such modules or the one proposed in the current PR could live beyond the Core repository to avoid burdening the maintenance effort and the concerns about Rust chain of trust, while consuming the stable interfaces to ease deployment across the ecosystem.\r\n\r\nGlad to see progress on the miner infrastructure, that's really needed!",
    "reactions": {
      "url": "https://api.github.com/repos/bitcoin/bitcoin/issues/comments/925446441/reactions",
      "total_count": 0,
      "+1": 0,
      "-1": 0,
      "laugh": 0,
      "hooray": 0,
      "confused": 0,
      "heart": 0,
      "rocket": 0,
      "eyes": 0
    },
    "performed_via_github_app": null
  },
  {
    "url": "https://api.github.com/repos/bitcoin/bitcoin/issues/comments/926009122",
    "html_url": "https://github.com/bitcoin/bitcoin/pull/23049#issuecomment-926009122",
    "issue_url": "https://api.github.com/repos/bitcoin/bitcoin/issues/23049",
    "id": 926009122,
    "node_id": "IC_kwDOABII5843Mcci",
    "user": {
      "login": "TheBlueMatt",
      "id": 649246,
      "node_id": "MDQ6VXNlcjY0OTI0Ng==",
      "avatar_url": "https://avatars.githubusercontent.com/u/649246?v=4",
      "gravatar_id": "",
      "url": "https://api.github.com/users/TheBlueMatt",
      "html_url": "https://github.com/TheBlueMatt",
      "followers_url": "https://api.github.com/users/TheBlueMatt/followers",
      "following_url": "https://api.github.com/users/TheBlueMatt/following{/other_user}",
      "gists_url": "https://api.github.com/users/TheBlueMatt/gists{/gist_id}",
      "starred_url": "https://api.github.com/users/TheBlueMatt/starred{/owner}{/repo}",
      "subscriptions_url": "https://api.github.com/users/TheBlueMatt/subscriptions",
      "organizations_url": "https://api.github.com/users/TheBlueMatt/orgs",
      "repos_url": "https://api.github.com/users/TheBlueMatt/repos",
      "events_url": "https://api.github.com/users/TheBlueMatt/events{/privacy}",
      "received_events_url": "https://api.github.com/users/TheBlueMatt/received_events",
      "type": "User",
      "site_admin": false
    },
    "created_at": "2021-09-23T17:22:15Z",
    "updated_at": "2021-09-23T17:22:15Z",
    "author_association": "CONTRIBUTOR",
    "body_html": "<p dir=\"auto\">Strong Concept ACK. At a high level, this is incredibly important work for a few reasons:</p>\n<ul dir=\"auto\">\n<li>having a good block template producer in Bitcoin Core is critical for moving Bitcoin's mining decentralization forward over the coming years, the importance of which cannot be understated,</li>\n<li>Bitcoin Core having more visibility/control into how and when block templates get produced gives Bitcoin Core a ton more flexibility going forward to do things like pre-construct next-next-block templates in advance and push them out quicker, gives Bitcoin Core a ton more control of when transactions get included in a block by enabling \"push\" support for template updates instead of only being polled, etc,</li>\n<li>the inefficiencies of getblocktemplate have been a real source of pain for pool operators for some time, I'm excited its going away.</li>\n</ul>\n<p dir=\"auto\">As for multi-process, I don't think this is a good candidate for multi-process - block template building is incredibly latency-sensitive, plus needs full access to the mempool and block template construction. At most, I'd think we could think of doing the block template construction in Core and then handing the template off to a new process which does the StratumV2 protocol work, but (a) that adds a bunch more latency for no reason, and (b) you'd probably just use the StratumV2 protocol to communicate with that other binary, so why? In general, one reason to consider rust for the protocol side of this is precisely because you <em>don't</em> need to worry as much about it being in the same binary - the actual network logic itself isn't going to corrupt memory.</p>",
    "body_text": "Strong Concept ACK. At a high level, this is incredibly important work for a few reasons:\n\nhaving a good block template producer in Bitcoin Core is critical for moving Bitcoin's mining decentralization forward over the coming years, the importance of which cannot be understated,\nBitcoin Core having more visibility/control into how and when block templates get produced gives Bitcoin Core a ton more flexibility going forward to do things like pre-construct next-next-block templates in advance and push them out quicker, gives Bitcoin Core a ton more control of when transactions get included in a block by enabling \"push\" support for template updates instead of only being polled, etc,\nthe inefficiencies of getblocktemplate have been a real source of pain for pool operators for some time, I'm excited its going away.\n\nAs for multi-process, I don't think this is a good candidate for multi-process - block template building is incredibly latency-sensitive, plus needs full access to the mempool and block template construction. At most, I'd think we could think of doing the block template construction in Core and then handing the template off to a new process which does the StratumV2 protocol work, but (a) that adds a bunch more latency for no reason, and (b) you'd probably just use the StratumV2 protocol to communicate with that other binary, so why? In general, one reason to consider rust for the protocol side of this is precisely because you don't need to worry as much about it being in the same binary - the actual network logic itself isn't going to corrupt memory.",
    "body": "Strong Concept ACK. At a high level, this is incredibly important work for a few reasons:\r\n * having a good block template producer in Bitcoin Core is critical for moving Bitcoin's mining decentralization forward over the coming years, the importance of which cannot be understated,\r\n * Bitcoin Core having more visibility/control into how and when block templates get produced gives Bitcoin Core a ton more flexibility going forward to do things like pre-construct next-next-block templates in advance and push them out quicker, gives Bitcoin Core a ton more control of when transactions get included in a block by enabling \"push\" support for template updates instead of only being polled, etc,\r\n * the inefficiencies of getblocktemplate have been a real source of pain for pool operators for some time, I'm excited its going away.\r\n\r\nAs for multi-process, I don't think this is a good candidate for multi-process - block template building is incredibly latency-sensitive, plus needs full access to the mempool and block template construction. At most, I'd think we could think of doing the block template construction in Core and then handing the template off to a new process which does the StratumV2 protocol work, but (a) that adds a bunch more latency for no reason, and (b) you'd probably just use the StratumV2 protocol to communicate with that other binary, so why? In general, one reason to consider rust for the protocol side of this is precisely because you *don't* need to worry as much about it being in the same binary - the actual network logic itself isn't going to corrupt memory.",
    "reactions": {
      "url": "https://api.github.com/repos/bitcoin/bitcoin/issues/comments/926009122/reactions",
      "total_count": 3,
      "+1": 3,
      "-1": 0,
      "laugh": 0,
      "hooray": 0,
      "confused": 0,
      "heart": 0,
      "rocket": 0,
      "eyes": 0
    },
    "performed_via_github_app": null
  },
  {
    "url": "https://api.github.com/repos/bitcoin/bitcoin/issues/comments/926062783",
    "html_url": "https://github.com/bitcoin/bitcoin/pull/23049#issuecomment-926062783",
    "issue_url": "https://api.github.com/repos/bitcoin/bitcoin/issues/23049",
    "id": 926062783,
    "node_id": "IC_kwDOABII5843Mpi_",
    "user": {
      "login": "sipa",
      "id": 548488,
      "node_id": "MDQ6VXNlcjU0ODQ4OA==",
      "avatar_url": "https://avatars.githubusercontent.com/u/548488?v=4",
      "gravatar_id": "",
      "url": "https://api.github.com/users/sipa",
      "html_url": "https://github.com/sipa",
      "followers_url": "https://api.github.com/users/sipa/followers",
      "following_url": "https://api.github.com/users/sipa/following{/other_user}",
      "gists_url": "https://api.github.com/users/sipa/gists{/gist_id}",
      "starred_url": "https://api.github.com/users/sipa/starred{/owner}{/repo}",
      "subscriptions_url": "https://api.github.com/users/sipa/subscriptions",
      "organizations_url": "https://api.github.com/users/sipa/orgs",
      "repos_url": "https://api.github.com/users/sipa/repos",
      "events_url": "https://api.github.com/users/sipa/events{/privacy}",
      "received_events_url": "https://api.github.com/users/sipa/received_events",
      "type": "User",
      "site_admin": false
    },
    "created_at": "2021-09-23T18:41:16Z",
    "updated_at": "2021-09-23T18:41:16Z",
    "author_association": "MEMBER",
    "body_html": "<p dir=\"auto\">Some thoughts.</p>\n<ul dir=\"auto\">\n<li>I don't object in general to adding a Rust-based <em>dependency</em>, as long as we can treat it as such. I don't personally know Rust, and suspect that many contributors/reviewers aren't as comfortable with Rust, so I think my criterion for this is whether it's something that we can treat as external, existing, known-to-work, code that's maintained separately - like say libevent or LevelDB, and not something that would expect detailed review from this project. Evidence that this same code is used in other contexts/projects would certainly help. The fact that this would be code that's only accessible through a local, optional, interface makes the safety analysis a lot easier.</li>\n<li>I haven't followed the state of affairs with StratumV2. If it's expected that a significant part of the mining ecosystem will end up depending on this protocol, I agree it makes sense to include it in Bitcoin Core, and agree with <a class=\"user-mention notranslate\" data-hovercard-type=\"user\" data-hovercard-url=\"/users/TheBlueMatt/hovercard\" data-octo-click=\"hovercard-link-click\" data-octo-dimensions=\"link_type:self\" href=\"https://github.com/TheBlueMatt\">@TheBlueMatt</a> that direct integration is the lowest-latency solution.</li>\n<li>I believe Guix indeed solves the concern of having bootstrapping the Rust compiler, at least to the same extent that our C++ compilers for release builds are bootstrapped too. Right, <a class=\"user-mention notranslate\" data-hovercard-type=\"user\" data-hovercard-url=\"/users/dongcarl/hovercard\" data-octo-click=\"hovercard-link-click\" data-octo-dimensions=\"link_type:self\" href=\"https://github.com/dongcarl\">@dongcarl</a>?</li>\n</ul>\n<p dir=\"auto\">So conditionally on getting some confirmation on my assumptions above, (somewhat hesitant) Concept ACK.</p>",
    "body_text": "Some thoughts.\n\nI don't object in general to adding a Rust-based dependency, as long as we can treat it as such. I don't personally know Rust, and suspect that many contributors/reviewers aren't as comfortable with Rust, so I think my criterion for this is whether it's something that we can treat as external, existing, known-to-work, code that's maintained separately - like say libevent or LevelDB, and not something that would expect detailed review from this project. Evidence that this same code is used in other contexts/projects would certainly help. The fact that this would be code that's only accessible through a local, optional, interface makes the safety analysis a lot easier.\nI haven't followed the state of affairs with StratumV2. If it's expected that a significant part of the mining ecosystem will end up depending on this protocol, I agree it makes sense to include it in Bitcoin Core, and agree with @TheBlueMatt that direct integration is the lowest-latency solution.\nI believe Guix indeed solves the concern of having bootstrapping the Rust compiler, at least to the same extent that our C++ compilers for release builds are bootstrapped too. Right, @dongcarl?\n\nSo conditionally on getting some confirmation on my assumptions above, (somewhat hesitant) Concept ACK.",
    "body": "Some thoughts.\r\n\r\n* I don't object in general to adding a Rust-based *dependency*, as long as we can treat it as such. I don't personally know Rust, and suspect that many contributors/reviewers aren't as comfortable with Rust, so I think my criterion for this is whether it's something that we can treat as external, existing, known-to-work, code that's maintained separately - like say libevent or LevelDB, and not something that would expect detailed review from this project. Evidence that this same code is used in other contexts/projects would certainly help. The fact that this would be code that's only accessible through a local, optional, interface makes the safety analysis a lot easier.\r\n* I haven't followed the state of affairs with StratumV2. If it's expected that a significant part of the mining ecosystem will end up depending on this protocol, I agree it makes sense to include it in Bitcoin Core, and agree with @TheBlueMatt that direct integration is the lowest-latency solution.\r\n* I believe Guix indeed solves the concern of having bootstrapping the Rust compiler, at least to the same extent that our C++ compilers for release builds are bootstrapped too. Right, @dongcarl?\r\n\r\nSo conditionally on getting some confirmation on my assumptions above, (somewhat hesitant) Concept ACK.\r\n\r\n",
    "reactions": {
      "url": "https://api.github.com/repos/bitcoin/bitcoin/issues/comments/926062783/reactions",
      "total_count": 3,
      "+1": 3,
      "-1": 0,
      "laugh": 0,
      "hooray": 0,
      "confused": 0,
      "heart": 0,
      "rocket": 0,
      "eyes": 0
    },
    "performed_via_github_app": null
  },
  {
    "url": "https://api.github.com/repos/bitcoin/bitcoin/issues/comments/926066954",
    "html_url": "https://github.com/bitcoin/bitcoin/pull/23049#issuecomment-926066954",
    "issue_url": "https://api.github.com/repos/bitcoin/bitcoin/issues/23049",
    "id": 926066954,
    "node_id": "IC_kwDOABII5843MqkK",
    "user": {
      "login": "luke-jr",
      "id": 1095675,
      "node_id": "MDQ6VXNlcjEwOTU2NzU=",
      "avatar_url": "https://avatars.githubusercontent.com/u/1095675?v=4",
      "gravatar_id": "",
      "url": "https://api.github.com/users/luke-jr",
      "html_url": "https://github.com/luke-jr",
      "followers_url": "https://api.github.com/users/luke-jr/followers",
      "following_url": "https://api.github.com/users/luke-jr/following{/other_user}",
      "gists_url": "https://api.github.com/users/luke-jr/gists{/gist_id}",
      "starred_url": "https://api.github.com/users/luke-jr/starred{/owner}{/repo}",
      "subscriptions_url": "https://api.github.com/users/luke-jr/subscriptions",
      "organizations_url": "https://api.github.com/users/luke-jr/orgs",
      "repos_url": "https://api.github.com/users/luke-jr/repos",
      "events_url": "https://api.github.com/users/luke-jr/events{/privacy}",
      "received_events_url": "https://api.github.com/users/luke-jr/received_events",
      "type": "User",
      "site_admin": false
    },
    "created_at": "2021-09-23T18:48:05Z",
    "updated_at": "2021-09-23T18:48:05Z",
    "author_association": "MEMBER",
    "body_html": "<p dir=\"auto\">No, Guix does not solve the bootstrapping problem, because Guix itself has a bootstrapping problem. You can't get Guix going without running <em>their</em> trusted blobs.</p>",
    "body_text": "No, Guix does not solve the bootstrapping problem, because Guix itself has a bootstrapping problem. You can't get Guix going without running their trusted blobs.",
    "body": "No, Guix does not solve the bootstrapping problem, because Guix itself has a bootstrapping problem. You can't get Guix going without running *their* trusted blobs.",
    "reactions": {
      "url": "https://api.github.com/repos/bitcoin/bitcoin/issues/comments/926066954/reactions",
      "total_count": 0,
      "+1": 0,
      "-1": 0,
      "laugh": 0,
      "hooray": 0,
      "confused": 0,
      "heart": 0,
      "rocket": 0,
      "eyes": 0
    },
    "performed_via_github_app": null
  },
  {
    "url": "https://api.github.com/repos/bitcoin/bitcoin/issues/comments/926071190",
    "html_url": "https://github.com/bitcoin/bitcoin/pull/23049#issuecomment-926071190",
    "issue_url": "https://api.github.com/repos/bitcoin/bitcoin/issues/23049",
    "id": 926071190,
    "node_id": "IC_kwDOABII5843MrmW",
    "user": {
      "login": "sipa",
      "id": 548488,
      "node_id": "MDQ6VXNlcjU0ODQ4OA==",
      "avatar_url": "https://avatars.githubusercontent.com/u/548488?v=4",
      "gravatar_id": "",
      "url": "https://api.github.com/users/sipa",
      "html_url": "https://github.com/sipa",
      "followers_url": "https://api.github.com/users/sipa/followers",
      "following_url": "https://api.github.com/users/sipa/following{/other_user}",
      "gists_url": "https://api.github.com/users/sipa/gists{/gist_id}",
      "starred_url": "https://api.github.com/users/sipa/starred{/owner}{/repo}",
      "subscriptions_url": "https://api.github.com/users/sipa/subscriptions",
      "organizations_url": "https://api.github.com/users/sipa/orgs",
      "repos_url": "https://api.github.com/users/sipa/repos",
      "events_url": "https://api.github.com/users/sipa/events{/privacy}",
      "received_events_url": "https://api.github.com/users/sipa/received_events",
      "type": "User",
      "site_admin": false
    },
    "created_at": "2021-09-23T18:54:47Z",
    "updated_at": "2021-09-23T18:55:25Z",
    "author_association": "MEMBER",
    "body_html": "<blockquote>\n<p dir=\"auto\">No, Guix does not solve the bootstrapping problem, because Guix itself has a bootstrapping problem. You can't get Guix going without running their trusted blobs.</p>\n</blockquote>\n<p dir=\"auto\">That's correct (for now), but the situation is not Rust-specific. Our release builds are created with Guix, so the C++ compiler used for releases is subject to the same concerns.</p>",
    "body_text": "No, Guix does not solve the bootstrapping problem, because Guix itself has a bootstrapping problem. You can't get Guix going without running their trusted blobs.\n\nThat's correct (for now), but the situation is not Rust-specific. Our release builds are created with Guix, so the C++ compiler used for releases is subject to the same concerns.",
    "body": "> No, Guix does not solve the bootstrapping problem, because Guix itself has a bootstrapping problem. You can't get Guix going without running their trusted blobs.\r\n\r\nThat's correct (for now), but the situation is not Rust-specific. Our release builds are created with Guix, so the C++ compiler used for releases is subject to the same concerns.",
    "reactions": {
      "url": "https://api.github.com/repos/bitcoin/bitcoin/issues/comments/926071190/reactions",
      "total_count": 1,
      "+1": 1,
      "-1": 0,
      "laugh": 0,
      "hooray": 0,
      "confused": 0,
      "heart": 0,
      "rocket": 0,
      "eyes": 0
    },
    "performed_via_github_app": null
  },
  {
    "url": "https://api.github.com/repos/bitcoin/bitcoin/issues/comments/926073313",
    "html_url": "https://github.com/bitcoin/bitcoin/pull/23049#issuecomment-926073313",
    "issue_url": "https://api.github.com/repos/bitcoin/bitcoin/issues/23049",
    "id": 926073313,
    "node_id": "IC_kwDOABII5843MsHh",
    "user": {
      "login": "dongcarl",
      "id": 3445290,
      "node_id": "MDQ6VXNlcjM0NDUyOTA=",
      "avatar_url": "https://avatars.githubusercontent.com/u/3445290?v=4",
      "gravatar_id": "",
      "url": "https://api.github.com/users/dongcarl",
      "html_url": "https://github.com/dongcarl",
      "followers_url": "https://api.github.com/users/dongcarl/followers",
      "following_url": "https://api.github.com/users/dongcarl/following{/other_user}",
      "gists_url": "https://api.github.com/users/dongcarl/gists{/gist_id}",
      "starred_url": "https://api.github.com/users/dongcarl/starred{/owner}{/repo}",
      "subscriptions_url": "https://api.github.com/users/dongcarl/subscriptions",
      "organizations_url": "https://api.github.com/users/dongcarl/orgs",
      "repos_url": "https://api.github.com/users/dongcarl/repos",
      "events_url": "https://api.github.com/users/dongcarl/events{/privacy}",
      "received_events_url": "https://api.github.com/users/dongcarl/received_events",
      "type": "User",
      "site_admin": false
    },
    "created_at": "2021-09-23T18:58:16Z",
    "updated_at": "2021-09-23T18:58:16Z",
    "author_association": "CONTRIBUTOR",
    "body_html": "<blockquote>\n<ul dir=\"auto\">\n<li>I believe Guix indeed solves the concern of having bootstrapping the Rust compiler, at least to the same extent that our C++ compilers for release builds are bootstrapped too. Right, <a class=\"user-mention notranslate\" data-hovercard-type=\"user\" data-hovercard-url=\"/users/dongcarl/hovercard\" data-octo-click=\"hovercard-link-click\" data-octo-dimensions=\"link_type:self\" href=\"https://github.com/dongcarl\">@dongcarl</a>?</li>\n</ul>\n</blockquote>\n<p dir=\"auto\">Yes I think this is <em>exactly</em> right. Building Rust in Guix is not any less bootstrappable than building anything else (C++) in Guix.</p>\n<hr>\n<p dir=\"auto\">Some context: Guix gained the ability to compile Rust v1.19 from mrustc v0.8 in 2018 (<a href=\"https://guix.gnu.org/en/blog/2018/bootstrapping-rust/\" rel=\"nofollow\">blog post</a>), and this bootstrap method has been actively maintained, and now compiles Rust v1.29 from mrustc v0.9 (newer versions of rust (say v1.n) simply build using the previous version (v1.(n-1)) until it reaches v1.29).</p>",
    "body_text": "I believe Guix indeed solves the concern of having bootstrapping the Rust compiler, at least to the same extent that our C++ compilers for release builds are bootstrapped too. Right, @dongcarl?\n\n\nYes I think this is exactly right. Building Rust in Guix is not any less bootstrappable than building anything else (C++) in Guix.\n\nSome context: Guix gained the ability to compile Rust v1.19 from mrustc v0.8 in 2018 (blog post), and this bootstrap method has been actively maintained, and now compiles Rust v1.29 from mrustc v0.9 (newer versions of rust (say v1.n) simply build using the previous version (v1.(n-1)) until it reaches v1.29).",
    "body": "> * I believe Guix indeed solves the concern of having bootstrapping the Rust compiler, at least to the same extent that our C++ compilers for release builds are bootstrapped too. Right, @dongcarl?\r\n\r\nYes I think this is _exactly_ right. Building Rust in Guix is not any less bootstrappable than building anything else (C++) in Guix.\r\n\r\n-----\r\n\r\nSome context: Guix gained the ability to compile Rust v1.19 from mrustc v0.8 in 2018 ([blog post](https://guix.gnu.org/en/blog/2018/bootstrapping-rust/)), and this bootstrap method has been actively maintained, and now compiles Rust v1.29 from mrustc v0.9 (newer versions of rust (say v1.n) simply build using the previous version (v1.(n-1)) until it reaches v1.29).",
    "reactions": {
      "url": "https://api.github.com/repos/bitcoin/bitcoin/issues/comments/926073313/reactions",
      "total_count": 0,
      "+1": 0,
      "-1": 0,
      "laugh": 0,
      "hooray": 0,
      "confused": 0,
      "heart": 0,
      "rocket": 0,
      "eyes": 0
    },
    "performed_via_github_app": null
  },
  {
    "url": "https://api.github.com/repos/bitcoin/bitcoin/issues/comments/926100286",
    "html_url": "https://github.com/bitcoin/bitcoin/pull/23049#issuecomment-926100286",
    "issue_url": "https://api.github.com/repos/bitcoin/bitcoin/issues/23049",
    "id": 926100286,
    "node_id": "IC_kwDOABII5843Mys-",
    "user": {
      "login": "michaelfolkson",
      "id": 16323900,
      "node_id": "MDQ6VXNlcjE2MzIzOTAw",
      "avatar_url": "https://avatars.githubusercontent.com/u/16323900?v=4",
      "gravatar_id": "",
      "url": "https://api.github.com/users/michaelfolkson",
      "html_url": "https://github.com/michaelfolkson",
      "followers_url": "https://api.github.com/users/michaelfolkson/followers",
      "following_url": "https://api.github.com/users/michaelfolkson/following{/other_user}",
      "gists_url": "https://api.github.com/users/michaelfolkson/gists{/gist_id}",
      "starred_url": "https://api.github.com/users/michaelfolkson/starred{/owner}{/repo}",
      "subscriptions_url": "https://api.github.com/users/michaelfolkson/subscriptions",
      "organizations_url": "https://api.github.com/users/michaelfolkson/orgs",
      "repos_url": "https://api.github.com/users/michaelfolkson/repos",
      "events_url": "https://api.github.com/users/michaelfolkson/events{/privacy}",
      "received_events_url": "https://api.github.com/users/michaelfolkson/received_events",
      "type": "User",
      "site_admin": false
    },
    "created_at": "2021-09-23T19:39:33Z",
    "updated_at": "2021-09-23T19:39:33Z",
    "author_association": "CONTRIBUTOR",
    "body_html": "<p dir=\"auto\">Concept ACK on implementing a Stratum v2 Template Provider in Core ignoring language.</p>\n<p dir=\"auto\">On the C++/Rust question it is dependent on other contributors being comfortable with it. This was discussed in today's Core dev <a href=\"https://gnusha.org/bitcoin-core-dev/2021-09-23.log\" rel=\"nofollow\">meeting</a> and has come up repeatedly in the past e.g. <a class=\"issue-link js-issue-link\" data-error-text=\"Failed to load title\" data-id=\"504893181\" data-permission-text=\"Title is private\" data-url=\"https://github.com/bitcoin/bitcoin/issues/17090\" data-hovercard-type=\"issue\" data-hovercard-url=\"/bitcoin/bitcoin/issues/17090/hovercard\" href=\"https://github.com/bitcoin/bitcoin/issues/17090\">#17090</a>. I would guess a C++ PR would be an easier/quicker merge but there may be a Rust approach that can work.</p>",
    "body_text": "Concept ACK on implementing a Stratum v2 Template Provider in Core ignoring language.\nOn the C++/Rust question it is dependent on other contributors being comfortable with it. This was discussed in today's Core dev meeting and has come up repeatedly in the past e.g. #17090. I would guess a C++ PR would be an easier/quicker merge but there may be a Rust approach that can work.",
    "body": "Concept ACK on implementing a Stratum v2 Template Provider in Core ignoring language. \r\n\r\nOn the C++/Rust question it is dependent on other contributors being comfortable with it. This was discussed in today's Core dev [meeting](https://gnusha.org/bitcoin-core-dev/2021-09-23.log) and has come up repeatedly in the past e.g. https://github.com/bitcoin/bitcoin/issues/17090. I would guess a C++ PR would be an easier/quicker merge but there may be a Rust approach that can work.",
    "reactions": {
      "url": "https://api.github.com/repos/bitcoin/bitcoin/issues/comments/926100286/reactions",
      "total_count": 0,
      "+1": 0,
      "-1": 0,
      "laugh": 0,
      "hooray": 0,
      "confused": 0,
      "heart": 0,
      "rocket": 0,
      "eyes": 0
    },
    "performed_via_github_app": null
  },
  {
    "url": "https://api.github.com/repos/bitcoin/bitcoin/issues/comments/926146637",
    "html_url": "https://github.com/bitcoin/bitcoin/pull/23049#issuecomment-926146637",
    "issue_url": "https://api.github.com/repos/bitcoin/bitcoin/issues/23049",
    "id": 926146637,
    "node_id": "IC_kwDOABII5843M-BN",
    "user": {
      "login": "luke-jr",
      "id": 1095675,
      "node_id": "MDQ6VXNlcjEwOTU2NzU=",
      "avatar_url": "https://avatars.githubusercontent.com/u/1095675?v=4",
      "gravatar_id": "",
      "url": "https://api.github.com/users/luke-jr",
      "html_url": "https://github.com/luke-jr",
      "followers_url": "https://api.github.com/users/luke-jr/followers",
      "following_url": "https://api.github.com/users/luke-jr/following{/other_user}",
      "gists_url": "https://api.github.com/users/luke-jr/gists{/gist_id}",
      "starred_url": "https://api.github.com/users/luke-jr/starred{/owner}{/repo}",
      "subscriptions_url": "https://api.github.com/users/luke-jr/subscriptions",
      "organizations_url": "https://api.github.com/users/luke-jr/orgs",
      "repos_url": "https://api.github.com/users/luke-jr/repos",
      "events_url": "https://api.github.com/users/luke-jr/events{/privacy}",
      "received_events_url": "https://api.github.com/users/luke-jr/received_events",
      "type": "User",
      "site_admin": false
    },
    "created_at": "2021-09-23T20:53:34Z",
    "updated_at": "2021-09-23T20:53:34Z",
    "author_association": "MEMBER",
    "body_html": "<blockquote>\n<p dir=\"auto\">That's correct (for now), but the situation is not Rust-specific. Our release builds are created with Guix, so the C++ compiler used for releases is subject to the same concerns.</p>\n</blockquote>\n<p dir=\"auto\">We support users building their own, without using Guix's trust-required toolchain.</p>",
    "body_text": "That's correct (for now), but the situation is not Rust-specific. Our release builds are created with Guix, so the C++ compiler used for releases is subject to the same concerns.\n\nWe support users building their own, without using Guix's trust-required toolchain.",
    "body": ">That's correct (for now), but the situation is not Rust-specific. Our release builds are created with Guix, so the C++ compiler used for releases is subject to the same concerns.\r\n\r\nWe support users building their own, without using Guix's trust-required toolchain.",
    "reactions": {
      "url": "https://api.github.com/repos/bitcoin/bitcoin/issues/comments/926146637/reactions",
      "total_count": 0,
      "+1": 0,
      "-1": 0,
      "laugh": 0,
      "hooray": 0,
      "confused": 0,
      "heart": 0,
      "rocket": 0,
      "eyes": 0
    },
    "performed_via_github_app": null
  },
  {
    "url": "https://api.github.com/repos/bitcoin/bitcoin/issues/comments/926245100",
    "html_url": "https://github.com/bitcoin/bitcoin/pull/23049#issuecomment-926245100",
    "issue_url": "https://api.github.com/repos/bitcoin/bitcoin/issues/23049",
    "id": 926245100,
    "node_id": "IC_kwDOABII5843NWDs",
    "user": {
      "login": "ariard",
      "id": 23310655,
      "node_id": "MDQ6VXNlcjIzMzEwNjU1",
      "avatar_url": "https://avatars.githubusercontent.com/u/23310655?v=4",
      "gravatar_id": "",
      "url": "https://api.github.com/users/ariard",
      "html_url": "https://github.com/ariard",
      "followers_url": "https://api.github.com/users/ariard/followers",
      "following_url": "https://api.github.com/users/ariard/following{/other_user}",
      "gists_url": "https://api.github.com/users/ariard/gists{/gist_id}",
      "starred_url": "https://api.github.com/users/ariard/starred{/owner}{/repo}",
      "subscriptions_url": "https://api.github.com/users/ariard/subscriptions",
      "organizations_url": "https://api.github.com/users/ariard/orgs",
      "repos_url": "https://api.github.com/users/ariard/repos",
      "events_url": "https://api.github.com/users/ariard/events{/privacy}",
      "received_events_url": "https://api.github.com/users/ariard/received_events",
      "type": "User",
      "site_admin": false
    },
    "created_at": "2021-09-23T23:53:23Z",
    "updated_at": "2021-09-23T23:53:23Z",
    "author_association": "MEMBER",
    "body_html": "<blockquote>\n<p dir=\"auto\">As for multi-process, I don't think this is a good candidate for multi-process - block template building is incredibly latency-sensitive, plus needs full access to the mempool and block template construction.</p>\n</blockquote>\n<p dir=\"auto\">Ah I see the low-latency requirement, yes effectively IPC/serialization to access the mempool is likely going to be a worrying performance penalty.</p>\n<p dir=\"auto\">That said, one advantage splitting nicely the block template/mempool subsystems behind interfaces like it has been done for GUI/wallet/node is the ability offered to the end-user to have either one fully-fledged binary or a collection of process in function what make sense as a deployment.</p>\n<p dir=\"auto\">One motivation could be to have fallback mempools connected to your block template construction in case of a malicious partition targeting your main one.</p>",
    "body_text": "As for multi-process, I don't think this is a good candidate for multi-process - block template building is incredibly latency-sensitive, plus needs full access to the mempool and block template construction.\n\nAh I see the low-latency requirement, yes effectively IPC/serialization to access the mempool is likely going to be a worrying performance penalty.\nThat said, one advantage splitting nicely the block template/mempool subsystems behind interfaces like it has been done for GUI/wallet/node is the ability offered to the end-user to have either one fully-fledged binary or a collection of process in function what make sense as a deployment.\nOne motivation could be to have fallback mempools connected to your block template construction in case of a malicious partition targeting your main one.",
    "body": "> As for multi-process, I don't think this is a good candidate for multi-process - block template building is incredibly latency-sensitive, plus needs full access to the mempool and block template construction.\r\n\r\nAh I see the low-latency requirement, yes effectively IPC/serialization to access the mempool is likely going to be a worrying performance penalty.\r\n\r\nThat said, one advantage splitting nicely the block template/mempool subsystems behind interfaces like it has been done for GUI/wallet/node is the ability offered to the end-user to have either one fully-fledged binary or a collection of process in function what make sense as a deployment. \r\n\r\nOne motivation could be to have fallback mempools connected to your block template construction in case of a malicious partition targeting your main one.",
    "reactions": {
      "url": "https://api.github.com/repos/bitcoin/bitcoin/issues/comments/926245100/reactions",
      "total_count": 0,
      "+1": 0,
      "-1": 0,
      "laugh": 0,
      "hooray": 0,
      "confused": 0,
      "heart": 0,
      "rocket": 0,
      "eyes": 0
    },
    "performed_via_github_app": null
  },
  {
    "url": "https://api.github.com/repos/bitcoin/bitcoin/issues/comments/937896722",
    "html_url": "https://github.com/bitcoin/bitcoin/pull/23049#issuecomment-937896722",
    "issue_url": "https://api.github.com/repos/bitcoin/bitcoin/issues/23049",
    "id": 937896722,
    "node_id": "IC_kwDOABII58435ysS",
    "user": {
      "login": "Fi3",
      "id": 6207037,
      "node_id": "MDQ6VXNlcjYyMDcwMzc=",
      "avatar_url": "https://avatars.githubusercontent.com/u/6207037?v=4",
      "gravatar_id": "",
      "url": "https://api.github.com/users/Fi3",
      "html_url": "https://github.com/Fi3",
      "followers_url": "https://api.github.com/users/Fi3/followers",
      "following_url": "https://api.github.com/users/Fi3/following{/other_user}",
      "gists_url": "https://api.github.com/users/Fi3/gists{/gist_id}",
      "starred_url": "https://api.github.com/users/Fi3/starred{/owner}{/repo}",
      "subscriptions_url": "https://api.github.com/users/Fi3/subscriptions",
      "organizations_url": "https://api.github.com/users/Fi3/orgs",
      "repos_url": "https://api.github.com/users/Fi3/repos",
      "events_url": "https://api.github.com/users/Fi3/events{/privacy}",
      "received_events_url": "https://api.github.com/users/Fi3/received_events",
      "type": "User",
      "site_admin": false
    },
    "created_at": "2021-10-07T15:20:33Z",
    "updated_at": "2021-10-07T15:20:33Z",
    "author_association": "NONE",
    "body_html": "<p dir=\"auto\">Update build system following <a class=\"user-mention notranslate\" data-hovercard-type=\"user\" data-hovercard-url=\"/users/dongcarl/hovercard\" data-octo-click=\"hovercard-link-click\" data-octo-dimensions=\"link_type:self\" href=\"https://github.com/dongcarl\">@dongcarl</a> suggestions.</p>\n<p dir=\"auto\">TP is enabled via a config flag: --enable-template-provider<br>\nFor now when compile with guix TP is enabled.</p>",
    "body_text": "Update build system following @dongcarl suggestions.\nTP is enabled via a config flag: --enable-template-provider\nFor now when compile with guix TP is enabled.",
    "body": "Update build system following @dongcarl suggestions.\r\n\r\nTP is enabled via a config flag: --enable-template-provider\r\nFor now when compile with guix TP is enabled. ",
    "reactions": {
      "url": "https://api.github.com/repos/bitcoin/bitcoin/issues/comments/937896722/reactions",
      "total_count": 0,
      "+1": 0,
      "-1": 0,
      "laugh": 0,
      "hooray": 0,
      "confused": 0,
      "heart": 0,
      "rocket": 0,
      "eyes": 0
    },
    "performed_via_github_app": null
  },
  {
    "url": "https://api.github.com/repos/bitcoin/bitcoin/issues/comments/937905516",
    "html_url": "https://github.com/bitcoin/bitcoin/pull/23049#issuecomment-937905516",
    "issue_url": "https://api.github.com/repos/bitcoin/bitcoin/issues/23049",
    "id": 937905516,
    "node_id": "IC_kwDOABII5843501s",
    "user": {
      "login": "jamesob",
      "id": 73197,
      "node_id": "MDQ6VXNlcjczMTk3",
      "avatar_url": "https://avatars.githubusercontent.com/u/73197?v=4",
      "gravatar_id": "",
      "url": "https://api.github.com/users/jamesob",
      "html_url": "https://github.com/jamesob",
      "followers_url": "https://api.github.com/users/jamesob/followers",
      "following_url": "https://api.github.com/users/jamesob/following{/other_user}",
      "gists_url": "https://api.github.com/users/jamesob/gists{/gist_id}",
      "starred_url": "https://api.github.com/users/jamesob/starred{/owner}{/repo}",
      "subscriptions_url": "https://api.github.com/users/jamesob/subscriptions",
      "organizations_url": "https://api.github.com/users/jamesob/orgs",
      "repos_url": "https://api.github.com/users/jamesob/repos",
      "events_url": "https://api.github.com/users/jamesob/events{/privacy}",
      "received_events_url": "https://api.github.com/users/jamesob/received_events",
      "type": "User",
      "site_admin": false
    },
    "created_at": "2021-10-07T15:30:12Z",
    "updated_at": "2021-10-07T17:13:05Z",
    "author_association": "MEMBER",
    "body_html": "<p dir=\"auto\">Big concept ACK on supporting the use of StratumV2, but slight concept NACK on bundling it with the introduction of Rust, barring some additional context/rationale. It'd be nice to see a compelling reason why Rust should be used for this particular feature other than the standard potpourri of \"Rust is safer/more ergonomic in $X_GENERAL_WAY.\" <em>Edit:</em> I do see that this change pulls in a stratum Rust library, so maybe that's why?</p>\n<p dir=\"auto\">I have a number of questions about how Rust will dovetail with the existing codebase (and this PR might not be the appropriate place to discuss them), but some that come to mind in the context of this change are</p>\n<ul dir=\"auto\">\n<li>how will use of Rust work with existing locks and lock annotations?\n<ul dir=\"auto\">\n<li>E.g., are we going to lose the use of <a href=\"https://github.com/bitcoin/bitcoin/blob/master/src/sync.cpp\">our deadlock detection tooling</a> within Rust code?</li>\n</ul>\n</li>\n<li>what's the real cost of maintenance/additional complexity in the build system?</li>\n<li>how much third-party code does this actually entail dragging in? AFAIU, concurrency, e.g., is not a simple thing in Rust and often entails the use of third-party libs like <a href=\"https://github.com/tokio-rs/tokio\">tokio</a>.</li>\n</ul>\n<p dir=\"auto\">If Rust is really a critical part of doing this feature, maybe we should look at how to offer the raw data necessary (in a performant way) to construct any number of block template formats outside of Core, by supplying data in a generic format over e.g. Unix sockets.</p>",
    "body_text": "Big concept ACK on supporting the use of StratumV2, but slight concept NACK on bundling it with the introduction of Rust, barring some additional context/rationale. It'd be nice to see a compelling reason why Rust should be used for this particular feature other than the standard potpourri of \"Rust is safer/more ergonomic in $X_GENERAL_WAY.\" Edit: I do see that this change pulls in a stratum Rust library, so maybe that's why?\nI have a number of questions about how Rust will dovetail with the existing codebase (and this PR might not be the appropriate place to discuss them), but some that come to mind in the context of this change are\n\nhow will use of Rust work with existing locks and lock annotations?\n\nE.g., are we going to lose the use of our deadlock detection tooling within Rust code?\n\n\nwhat's the real cost of maintenance/additional complexity in the build system?\nhow much third-party code does this actually entail dragging in? AFAIU, concurrency, e.g., is not a simple thing in Rust and often entails the use of third-party libs like tokio.\n\nIf Rust is really a critical part of doing this feature, maybe we should look at how to offer the raw data necessary (in a performant way) to construct any number of block template formats outside of Core, by supplying data in a generic format over e.g. Unix sockets.",
    "body": "Big concept ACK on supporting the use of StratumV2, but slight concept NACK on bundling it with the introduction of Rust, barring some additional context/rationale. It'd be nice to see a compelling reason why Rust should be used for this particular feature other than the standard potpourri of \"Rust is safer/more ergonomic in $X_GENERAL_WAY.\" *Edit:* I do see that this change pulls in a stratum Rust library, so maybe that's why?\r\n\r\nI have a number of questions about how Rust will dovetail with the existing codebase (and this PR might not be the appropriate place to discuss them), but some that come to mind in the context of this change are \r\n- how will use of Rust work with existing locks and lock annotations? \r\n  - E.g., are we going to lose the use of [our deadlock detection tooling](https://github.com/bitcoin/bitcoin/blob/master/src/sync.cpp) within Rust code?\r\n- what's the real cost of maintenance/additional complexity in the build system?\r\n- how much third-party code does this actually entail dragging in? AFAIU, concurrency, e.g., is not a simple thing in Rust and often entails the use of third-party libs like [tokio](https://github.com/tokio-rs/tokio).\r\n\r\nIf Rust is really a critical part of doing this feature, maybe we should look at how to offer the raw data necessary (in a performant way) to construct any number of block template formats outside of Core, by supplying data in a generic format over e.g. Unix sockets.\r\n\r\n",
    "reactions": {
      "url": "https://api.github.com/repos/bitcoin/bitcoin/issues/comments/937905516/reactions",
      "total_count": 0,
      "+1": 0,
      "-1": 0,
      "laugh": 0,
      "hooray": 0,
      "confused": 0,
      "heart": 0,
      "rocket": 0,
      "eyes": 0
    },
    "performed_via_github_app": null
  },
  {
    "url": "https://api.github.com/repos/bitcoin/bitcoin/issues/comments/938148694",
    "html_url": "https://github.com/bitcoin/bitcoin/pull/23049#issuecomment-938148694",
    "issue_url": "https://api.github.com/repos/bitcoin/bitcoin/issues/23049",
    "id": 938148694,
    "node_id": "IC_kwDOABII58436wNW",
    "user": {
      "login": "DrahtBot",
      "id": 39886733,
      "node_id": "MDQ6VXNlcjM5ODg2NzMz",
      "avatar_url": "https://avatars.githubusercontent.com/u/39886733?v=4",
      "gravatar_id": "",
      "url": "https://api.github.com/users/DrahtBot",
      "html_url": "https://github.com/DrahtBot",
      "followers_url": "https://api.github.com/users/DrahtBot/followers",
      "following_url": "https://api.github.com/users/DrahtBot/following{/other_user}",
      "gists_url": "https://api.github.com/users/DrahtBot/gists{/gist_id}",
      "starred_url": "https://api.github.com/users/DrahtBot/starred{/owner}{/repo}",
      "subscriptions_url": "https://api.github.com/users/DrahtBot/subscriptions",
      "organizations_url": "https://api.github.com/users/DrahtBot/orgs",
      "repos_url": "https://api.github.com/users/DrahtBot/repos",
      "events_url": "https://api.github.com/users/DrahtBot/events{/privacy}",
      "received_events_url": "https://api.github.com/users/DrahtBot/received_events",
      "type": "User",
      "site_admin": false
    },
    "created_at": "2021-10-07T20:54:54Z",
    "updated_at": "2022-05-14T16:01:41Z",
    "author_association": "CONTRIBUTOR",
    "body_html": "\n<p dir=\"auto\">The following sections might be updated with supplementary metadata relevant to reviewers and maintainers.</p>\n\n<h3 dir=\"auto\">Conflicts</h3>\n<p dir=\"auto\">Reviewers, this pull request conflicts with the following ones:</p>\n<ul dir=\"auto\">\n<li><a href=\"https://github.com/bitcoin/bitcoin/pull/25076\" data-hovercard-type=\"pull_request\" data-hovercard-url=\"/bitcoin/bitcoin/pull/25076/hovercard\">#25076</a> (guix: native GCC 10 toolchain for Linux builds by fanquake)</li>\n<li><a href=\"https://github.com/bitcoin/bitcoin/pull/25037\" data-hovercard-type=\"pull_request\" data-hovercard-url=\"/bitcoin/bitcoin/pull/25037/hovercard\">#25037</a> (build: Create <code class=\"notranslate\">noinst_LTLIBRARIES</code> conditionally by hebasto)</li>\n</ul>\n<p dir=\"auto\">If you consider this pull request important, please also help to review the conflicting pull requests. Ideally, start with the one that should be merged first.</p>",
    "body_text": "The following sections might be updated with supplementary metadata relevant to reviewers and maintainers.\n\nConflicts\nReviewers, this pull request conflicts with the following ones:\n\n#25076 (guix: native GCC 10 toolchain for Linux builds by fanquake)\n#25037 (build: Create noinst_LTLIBRARIES conditionally by hebasto)\n\nIf you consider this pull request important, please also help to review the conflicting pull requests. Ideally, start with the one that should be merged first.",
    "body": "<!--e57a25ab6845829454e8d69fc972939a-->\n\nThe following sections might be updated with supplementary metadata relevant to reviewers and maintainers.\n\n<!--174a7506f384e20aa4161008e828411d-->\n### Conflicts\nReviewers, this pull request conflicts with the following ones:\n\n* [#25076](https://github.com/bitcoin/bitcoin/pull/25076) (guix: native GCC 10 toolchain for Linux builds by fanquake)\n* [#25037](https://github.com/bitcoin/bitcoin/pull/25037) (build: Create `noinst_LTLIBRARIES` conditionally by hebasto)\n\nIf you consider this pull request important, please also help to review the conflicting pull requests. Ideally, start with the one that should be merged first.",
    "reactions": {
      "url": "https://api.github.com/repos/bitcoin/bitcoin/issues/comments/938148694/reactions",
      "total_count": 0,
      "+1": 0,
      "-1": 0,
      "laugh": 0,
      "hooray": 0,
      "confused": 0,
      "heart": 0,
      "rocket": 0,
      "eyes": 0
    },
    "performed_via_github_app": null
  },
  {
    "url": "https://api.github.com/repos/bitcoin/bitcoin/issues/comments/938519802",
    "html_url": "https://github.com/bitcoin/bitcoin/pull/23049#issuecomment-938519802",
    "issue_url": "https://api.github.com/repos/bitcoin/bitcoin/issues/23049",
    "id": 938519802,
    "node_id": "IC_kwDOABII58438Kz6",
    "user": {
      "login": "Fi3",
      "id": 6207037,
      "node_id": "MDQ6VXNlcjYyMDcwMzc=",
      "avatar_url": "https://avatars.githubusercontent.com/u/6207037?v=4",
      "gravatar_id": "",
      "url": "https://api.github.com/users/Fi3",
      "html_url": "https://github.com/Fi3",
      "followers_url": "https://api.github.com/users/Fi3/followers",
      "following_url": "https://api.github.com/users/Fi3/following{/other_user}",
      "gists_url": "https://api.github.com/users/Fi3/gists{/gist_id}",
      "starred_url": "https://api.github.com/users/Fi3/starred{/owner}{/repo}",
      "subscriptions_url": "https://api.github.com/users/Fi3/subscriptions",
      "organizations_url": "https://api.github.com/users/Fi3/orgs",
      "repos_url": "https://api.github.com/users/Fi3/repos",
      "events_url": "https://api.github.com/users/Fi3/events{/privacy}",
      "received_events_url": "https://api.github.com/users/Fi3/received_events",
      "type": "User",
      "site_admin": false
    },
    "created_at": "2021-10-08T10:09:55Z",
    "updated_at": "2021-10-08T10:09:55Z",
    "author_association": "NONE",
    "body_html": "<blockquote>\n<p dir=\"auto\">If Rust is really a critical part of doing this feature, maybe we should look at how to offer the raw data necessary (in a performant way) to construct any number of block template formats outside of Core, by supplying data in a generic format over e.g. Unix sockets.</p>\n</blockquote>\n<p dir=\"auto\">Hi <a class=\"user-mention notranslate\" data-hovercard-type=\"user\" data-hovercard-url=\"/users/jamesob/hovercard\" data-octo-click=\"hovercard-link-click\" data-octo-dimensions=\"link_type:self\" href=\"https://github.com/jamesob\">@jamesob</a>:</p>\n<ul dir=\"auto\">\n<li>why rust: main reason to use rust it to not rewrite an already working set of libraries, the libraries have been written to be used  both in core (for the implementation of the TP) and in rust (for the implementation of the other Sv2 roles)</li>\n<li>how will Rust work with existing locks: do not know I will check</li>\n<li>cost of maintenance/additional complexity in the build system: IMHO is pretty insignificant.<br>\nSupport TP in the build system add:\n<ol dir=\"auto\">\n<li>few lines in the config file in order to check if there is the flag <code class=\"notranslate\">--enable-template-provider</code> and if the system that will build core has at least rustc 1.51.</li>\n<li>An m4 function pulled from the gnu repo ax_compare_version.</li>\n<li>A make file that call rustc with the correct flag and build the rust library then add the builded library to LDFLAGS so that is linked with bitocoind (this is the most complex addition to the build system and are only 159 LOC that do a very simple task)</li>\n<li>It modify 2 line in the guix build and add rustc 1.51 in the manifest</li>\n</ol>\n</li>\n<li>how much third-party: the rust code added in order to build the TP in core do not have any external dependency but std.</li>\n<li>doing it externally: this was my original idea but, as stated also in the above post by <a class=\"user-mention notranslate\" data-hovercard-type=\"user\" data-hovercard-url=\"/users/TheBlueMatt/hovercard\" data-octo-click=\"hovercard-link-click\" data-octo-dimensions=\"link_type:self\" href=\"https://github.com/TheBlueMatt\">@TheBlueMatt</a>:<br>\n<em>block template building is incredibly latency-sensitive, plus needs full access to the mempool and block template construction</em></li>\n</ul>",
    "body_text": "If Rust is really a critical part of doing this feature, maybe we should look at how to offer the raw data necessary (in a performant way) to construct any number of block template formats outside of Core, by supplying data in a generic format over e.g. Unix sockets.\n\nHi @jamesob:\n\nwhy rust: main reason to use rust it to not rewrite an already working set of libraries, the libraries have been written to be used  both in core (for the implementation of the TP) and in rust (for the implementation of the other Sv2 roles)\nhow will Rust work with existing locks: do not know I will check\ncost of maintenance/additional complexity in the build system: IMHO is pretty insignificant.\nSupport TP in the build system add:\n\nfew lines in the config file in order to check if there is the flag --enable-template-provider and if the system that will build core has at least rustc 1.51.\nAn m4 function pulled from the gnu repo ax_compare_version.\nA make file that call rustc with the correct flag and build the rust library then add the builded library to LDFLAGS so that is linked with bitocoind (this is the most complex addition to the build system and are only 159 LOC that do a very simple task)\nIt modify 2 line in the guix build and add rustc 1.51 in the manifest\n\n\nhow much third-party: the rust code added in order to build the TP in core do not have any external dependency but std.\ndoing it externally: this was my original idea but, as stated also in the above post by @TheBlueMatt:\nblock template building is incredibly latency-sensitive, plus needs full access to the mempool and block template construction",
    "body": "> If Rust is really a critical part of doing this feature, maybe we should look at how to offer the raw data necessary (in a performant way) to construct any number of block template formats outside of Core, by supplying data in a generic format over e.g. Unix sockets.\r\n\r\nHi @jamesob:\r\n* why rust: main reason to use rust it to not rewrite an already working set of libraries, the libraries have been written to be used  both in core (for the implementation of the TP) and in rust (for the implementation of the other Sv2 roles) \r\n* how will Rust work with existing locks: do not know I will check\r\n* cost of maintenance/additional complexity in the build system: IMHO is pretty insignificant.\r\n  Support TP in the build system add:\r\n    1. few lines in the config file in order to check if there is the flag `--enable-template-provider` and if the system that will build core has at least rustc 1.51.\r\n    2. An m4 function pulled from the gnu repo ax_compare_version.\r\n    3. A make file that call rustc with the correct flag and build the rust library then add the builded library to LDFLAGS so that is linked with bitocoind (this is the most complex addition to the build system and are only 159 LOC that do a very simple task)\r\n    4. It modify 2 line in the guix build and add rustc 1.51 in the manifest\r\n* how much third-party: the rust code added in order to build the TP in core do not have any external dependency but std.\r\n* doing it externally: this was my original idea but, as stated also in the above post by @TheBlueMatt:\r\n  *block template building is incredibly latency-sensitive, plus needs full access to the mempool and block template construction*",
    "reactions": {
      "url": "https://api.github.com/repos/bitcoin/bitcoin/issues/comments/938519802/reactions",
      "total_count": 0,
      "+1": 0,
      "-1": 0,
      "laugh": 0,
      "hooray": 0,
      "confused": 0,
      "heart": 0,
      "rocket": 0,
      "eyes": 0
    },
    "performed_via_github_app": null
  },
  {
    "url": "https://api.github.com/repos/bitcoin/bitcoin/issues/comments/945086394",
    "html_url": "https://github.com/bitcoin/bitcoin/pull/23049#issuecomment-945086394",
    "issue_url": "https://api.github.com/repos/bitcoin/bitcoin/issues/23049",
    "id": 945086394,
    "node_id": "IC_kwDOABII5844VN-6",
    "user": {
      "login": "maflcko",
      "id": 6399679,
      "node_id": "MDQ6VXNlcjYzOTk2Nzk=",
      "avatar_url": "https://avatars.githubusercontent.com/u/6399679?v=4",
      "gravatar_id": "",
      "url": "https://api.github.com/users/maflcko",
      "html_url": "https://github.com/maflcko",
      "followers_url": "https://api.github.com/users/maflcko/followers",
      "following_url": "https://api.github.com/users/maflcko/following{/other_user}",
      "gists_url": "https://api.github.com/users/maflcko/gists{/gist_id}",
      "starred_url": "https://api.github.com/users/maflcko/starred{/owner}{/repo}",
      "subscriptions_url": "https://api.github.com/users/maflcko/subscriptions",
      "organizations_url": "https://api.github.com/users/maflcko/orgs",
      "repos_url": "https://api.github.com/users/maflcko/repos",
      "events_url": "https://api.github.com/users/maflcko/events{/privacy}",
      "received_events_url": "https://api.github.com/users/maflcko/received_events",
      "type": "User",
      "site_admin": false
    },
    "created_at": "2021-10-17T10:15:16Z",
    "updated_at": "2021-10-17T10:15:16Z",
    "author_association": "MEMBER",
    "body_html": "<p dir=\"auto\">No objection to rust code. After all it is not different than wallet or qt code, which only a subset of all devs can understand, write and review. I guess the only thing needed here is review(ers).</p>",
    "body_text": "No objection to rust code. After all it is not different than wallet or qt code, which only a subset of all devs can understand, write and review. I guess the only thing needed here is review(ers).",
    "body": "No objection to rust code. After all it is not different than wallet or qt code, which only a subset of all devs can understand, write and review. I guess the only thing needed here is review(ers).",
    "reactions": {
      "url": "https://api.github.com/repos/bitcoin/bitcoin/issues/comments/945086394/reactions",
      "total_count": 0,
      "+1": 0,
      "-1": 0,
      "laugh": 0,
      "hooray": 0,
      "confused": 0,
      "heart": 0,
      "rocket": 0,
      "eyes": 0
    },
    "performed_via_github_app": null
  },
  {
    "url": "https://api.github.com/repos/bitcoin/bitcoin/issues/comments/1004211515",
    "html_url": "https://github.com/bitcoin/bitcoin/pull/23049#issuecomment-1004211515",
    "issue_url": "https://api.github.com/repos/bitcoin/bitcoin/issues/23049",
    "id": 1004211515,
    "node_id": "IC_kwDOABII58472w07",
    "user": {
      "login": "ccdle12",
      "id": 18324680,
      "node_id": "MDQ6VXNlcjE4MzI0Njgw",
      "avatar_url": "https://avatars.githubusercontent.com/u/18324680?v=4",
      "gravatar_id": "",
      "url": "https://api.github.com/users/ccdle12",
      "html_url": "https://github.com/ccdle12",
      "followers_url": "https://api.github.com/users/ccdle12/followers",
      "following_url": "https://api.github.com/users/ccdle12/following{/other_user}",
      "gists_url": "https://api.github.com/users/ccdle12/gists{/gist_id}",
      "starred_url": "https://api.github.com/users/ccdle12/starred{/owner}{/repo}",
      "subscriptions_url": "https://api.github.com/users/ccdle12/subscriptions",
      "organizations_url": "https://api.github.com/users/ccdle12/orgs",
      "repos_url": "https://api.github.com/users/ccdle12/repos",
      "events_url": "https://api.github.com/users/ccdle12/events{/privacy}",
      "received_events_url": "https://api.github.com/users/ccdle12/received_events",
      "type": "User",
      "site_admin": false
    },
    "created_at": "2022-01-03T16:34:13Z",
    "updated_at": "2022-01-03T16:34:13Z",
    "author_association": "CONTRIBUTOR",
    "body_html": "<p dir=\"auto\">Just leaving a note that I'm currently working on an implementation of the template provider that integrates with the the rust sv2 project</p>",
    "body_text": "Just leaving a note that I'm currently working on an implementation of the template provider that integrates with the the rust sv2 project",
    "body": "Just leaving a note that I'm currently working on an implementation of the template provider that integrates with the the rust sv2 project",
    "reactions": {
      "url": "https://api.github.com/repos/bitcoin/bitcoin/issues/comments/1004211515/reactions",
      "total_count": 0,
      "+1": 0,
      "-1": 0,
      "laugh": 0,
      "hooray": 0,
      "confused": 0,
      "heart": 0,
      "rocket": 0,
      "eyes": 0
    },
    "performed_via_github_app": null
  },
  {
    "url": "https://api.github.com/repos/bitcoin/bitcoin/issues/comments/1129764514",
    "html_url": "https://github.com/bitcoin/bitcoin/pull/23049#issuecomment-1129764514",
    "issue_url": "https://api.github.com/repos/bitcoin/bitcoin/issues/23049",
    "id": 1129764514,
    "node_id": "IC_kwDOABII585DVtai",
    "user": {
      "login": "DrahtBot",
      "id": 39886733,
      "node_id": "MDQ6VXNlcjM5ODg2NzMz",
      "avatar_url": "https://avatars.githubusercontent.com/u/39886733?v=4",
      "gravatar_id": "",
      "url": "https://api.github.com/users/DrahtBot",
      "html_url": "https://github.com/DrahtBot",
      "followers_url": "https://api.github.com/users/DrahtBot/followers",
      "following_url": "https://api.github.com/users/DrahtBot/following{/other_user}",
      "gists_url": "https://api.github.com/users/DrahtBot/gists{/gist_id}",
      "starred_url": "https://api.github.com/users/DrahtBot/starred{/owner}{/repo}",
      "subscriptions_url": "https://api.github.com/users/DrahtBot/subscriptions",
      "organizations_url": "https://api.github.com/users/DrahtBot/orgs",
      "repos_url": "https://api.github.com/users/DrahtBot/repos",
      "events_url": "https://api.github.com/users/DrahtBot/events{/privacy}",
      "received_events_url": "https://api.github.com/users/DrahtBot/received_events",
      "type": "User",
      "site_admin": false
    },
    "created_at": "2022-05-18T09:09:55Z",
    "updated_at": "2022-05-18T09:09:55Z",
    "author_association": "CONTRIBUTOR",
    "body_html": "\n<p dir=\"auto\">🐙 This pull request conflicts with the target branch and <a href=\"https://github.com/bitcoin/bitcoin/blob/master/CONTRIBUTING.md#rebasing-changes\">needs rebase</a>.</p>\n<p dir=\"auto\"><sub>Want to unsubscribe from rebase notifications on this pull request? Just convert this pull request to a \"draft\".</sub></p>",
    "body_text": "🐙 This pull request conflicts with the target branch and needs rebase.\nWant to unsubscribe from rebase notifications on this pull request? Just convert this pull request to a \"draft\".",
    "body": "<!--cf906140f33d8803c4a75a2196329ecb-->\n🐙 This pull request conflicts with the target branch and [needs rebase](https://github.com/bitcoin/bitcoin/blob/master/CONTRIBUTING.md#rebasing-changes).\n\n<sub>Want to unsubscribe from rebase notifications on this pull request? Just convert this pull request to a \"draft\".</sub>",
    "reactions": {
      "url": "https://api.github.com/repos/bitcoin/bitcoin/issues/comments/1129764514/reactions",
      "total_count": 0,
      "+1": 0,
      "-1": 0,
      "laugh": 0,
      "hooray": 0,
      "confused": 0,
      "heart": 0,
      "rocket": 0,
      "eyes": 0
    },
    "performed_via_github_app": null
  },
  {
    "url": "https://api.github.com/repos/bitcoin/bitcoin/issues/comments/1201037476",
    "html_url": "https://github.com/bitcoin/bitcoin/pull/23049#issuecomment-1201037476",
    "issue_url": "https://api.github.com/repos/bitcoin/bitcoin/issues/23049",
    "id": 1201037476,
    "node_id": "IC_kwDOABII585HlmCk",
    "user": {
      "login": "DrahtBot",
      "id": 39886733,
      "node_id": "MDQ6VXNlcjM5ODg2NzMz",
      "avatar_url": "https://avatars.githubusercontent.com/u/39886733?v=4",
      "gravatar_id": "",
      "url": "https://api.github.com/users/DrahtBot",
      "html_url": "https://github.com/DrahtBot",
      "followers_url": "https://api.github.com/users/DrahtBot/followers",
      "following_url": "https://api.github.com/users/DrahtBot/following{/other_user}",
      "gists_url": "https://api.github.com/users/DrahtBot/gists{/gist_id}",
      "starred_url": "https://api.github.com/users/DrahtBot/starred{/owner}{/repo}",
      "subscriptions_url": "https://api.github.com/users/DrahtBot/subscriptions",
      "organizations_url": "https://api.github.com/users/DrahtBot/orgs",
      "repos_url": "https://api.github.com/users/DrahtBot/repos",
      "events_url": "https://api.github.com/users/DrahtBot/events{/privacy}",
      "received_events_url": "https://api.github.com/users/DrahtBot/received_events",
      "type": "User",
      "site_admin": false
    },
    "created_at": "2022-08-01T10:51:15Z",
    "updated_at": "2022-08-01T10:51:15Z",
    "author_association": "CONTRIBUTOR",
    "body_html": "There hasn't been much activity lately and the patch still needs rebase. What is the status here?\n<ul dir=\"auto\">\n<li>Is it still relevant? ➡️ Please solve the conflicts to make it ready for review and to ensure the CI passes.</li>\n<li>Is it no longer relevant? ➡️ Please close.</li>\n<li>Did the author lose interest or time to work on this? ➡️ Please close it and mark it 'Up for grabs' with the label, so that it can be picked up in the future.</li>\n</ul>",
    "body_text": "There hasn't been much activity lately and the patch still needs rebase. What is the status here?\n\nIs it still relevant? ➡️ Please solve the conflicts to make it ready for review and to ensure the CI passes.\nIs it no longer relevant? ➡️ Please close.\nDid the author lose interest or time to work on this? ➡️ Please close it and mark it 'Up for grabs' with the label, so that it can be picked up in the future.",
    "body": "<!--13523179cfe9479db18ec6c5d236f789-->There hasn't been much activity lately and the patch still needs rebase. What is the status here?\n\n* Is it still relevant? ➡️ Please solve the conflicts to make it ready for review and to ensure the CI passes.\n* Is it no longer relevant? ➡️ Please close.\n* Did the author lose interest or time to work on this? ➡️ Please close it and mark it 'Up for grabs' with the label, so that it can be picked up in the future.\n",
    "reactions": {
      "url": "https://api.github.com/repos/bitcoin/bitcoin/issues/comments/1201037476/reactions",
      "total_count": 0,
      "+1": 0,
      "-1": 0,
      "laugh": 0,
      "hooray": 0,
      "confused": 0,
      "heart": 0,
      "rocket": 0,
      "eyes": 0
    },
    "performed_via_github_app": null
  },
  {
    "url": "https://api.github.com/repos/bitcoin/bitcoin/issues/comments/1203707058",
    "html_url": "https://github.com/bitcoin/bitcoin/pull/23049#issuecomment-1203707058",
    "issue_url": "https://api.github.com/repos/bitcoin/bitcoin/issues/23049",
    "id": 1203707058,
    "node_id": "IC_kwDOABII585Hvxyy",
    "user": {
      "login": "ccdle12",
      "id": 18324680,
      "node_id": "MDQ6VXNlcjE4MzI0Njgw",
      "avatar_url": "https://avatars.githubusercontent.com/u/18324680?v=4",
      "gravatar_id": "",
      "url": "https://api.github.com/users/ccdle12",
      "html_url": "https://github.com/ccdle12",
      "followers_url": "https://api.github.com/users/ccdle12/followers",
      "following_url": "https://api.github.com/users/ccdle12/following{/other_user}",
      "gists_url": "https://api.github.com/users/ccdle12/gists{/gist_id}",
      "starred_url": "https://api.github.com/users/ccdle12/starred{/owner}{/repo}",
      "subscriptions_url": "https://api.github.com/users/ccdle12/subscriptions",
      "organizations_url": "https://api.github.com/users/ccdle12/orgs",
      "repos_url": "https://api.github.com/users/ccdle12/repos",
      "events_url": "https://api.github.com/users/ccdle12/events{/privacy}",
      "received_events_url": "https://api.github.com/users/ccdle12/received_events",
      "type": "User",
      "site_admin": false
    },
    "created_at": "2022-08-03T09:27:20Z",
    "updated_at": "2022-08-03T09:27:20Z",
    "author_association": "CONTRIBUTOR",
    "body_html": "<p dir=\"auto\">We are currently working on changes, should be ready for review soon.</p>",
    "body_text": "We are currently working on changes, should be ready for review soon.",
    "body": "We are currently working on changes, should be ready for review soon.",
    "reactions": {
      "url": "https://api.github.com/repos/bitcoin/bitcoin/issues/comments/1203707058/reactions",
      "total_count": 2,
      "+1": 2,
      "-1": 0,
      "laugh": 0,
      "hooray": 0,
      "confused": 0,
      "heart": 0,
      "rocket": 0,
      "eyes": 0
    },
    "performed_via_github_app": null
  },
  {
    "url": "https://api.github.com/repos/bitcoin/bitcoin/issues/comments/1376607777",
    "html_url": "https://github.com/bitcoin/bitcoin/pull/23049#issuecomment-1376607777",
    "issue_url": "https://api.github.com/repos/bitcoin/bitcoin/issues/23049",
    "id": 1376607777,
    "node_id": "IC_kwDOABII585SDV4h",
    "user": {
      "login": "DrahtBot",
      "id": 39886733,
      "node_id": "MDQ6VXNlcjM5ODg2NzMz",
      "avatar_url": "https://avatars.githubusercontent.com/u/39886733?v=4",
      "gravatar_id": "",
      "url": "https://api.github.com/users/DrahtBot",
      "html_url": "https://github.com/DrahtBot",
      "followers_url": "https://api.github.com/users/DrahtBot/followers",
      "following_url": "https://api.github.com/users/DrahtBot/following{/other_user}",
      "gists_url": "https://api.github.com/users/DrahtBot/gists{/gist_id}",
      "starred_url": "https://api.github.com/users/DrahtBot/starred{/owner}{/repo}",
      "subscriptions_url": "https://api.github.com/users/DrahtBot/subscriptions",
      "organizations_url": "https://api.github.com/users/DrahtBot/orgs",
      "repos_url": "https://api.github.com/users/DrahtBot/repos",
      "events_url": "https://api.github.com/users/DrahtBot/events{/privacy}",
      "received_events_url": "https://api.github.com/users/DrahtBot/received_events",
      "type": "User",
      "site_admin": false
    },
    "created_at": "2023-01-10T01:44:27Z",
    "updated_at": "2023-01-10T01:44:27Z",
    "author_association": "CONTRIBUTOR",
    "body_html": "\n<p dir=\"auto\">There hasn't been much activity lately and the patch still needs rebase. What is the status here?</p>\n<ul dir=\"auto\">\n<li>Is it still relevant? ➡️ Please solve the conflicts to make it ready for review and to ensure the CI passes.</li>\n<li>Is it no longer relevant? ➡️ Please close.</li>\n<li>Did the author lose interest or time to work on this? ➡️ Please close it and mark it 'Up for grabs' with the label, so that it can be picked up in the future.</li>\n</ul>",
    "body_text": "There hasn't been much activity lately and the patch still needs rebase. What is the status here?\n\nIs it still relevant? ➡️ Please solve the conflicts to make it ready for review and to ensure the CI passes.\nIs it no longer relevant? ➡️ Please close.\nDid the author lose interest or time to work on this? ➡️ Please close it and mark it 'Up for grabs' with the label, so that it can be picked up in the future.",
    "body": "<!--13523179cfe9479db18ec6c5d236f789-->\nThere hasn't been much activity lately and the patch still needs rebase. What is the status here?\n\n* Is it still relevant? ➡️ Please solve the conflicts to make it ready for review and to ensure the CI passes.\n* Is it no longer relevant? ➡️ Please close.\n* Did the author lose interest or time to work on this? ➡️ Please close it and mark it 'Up for grabs' with the label, so that it can be picked up in the future.\n",
    "reactions": {
      "url": "https://api.github.com/repos/bitcoin/bitcoin/issues/comments/1376607777/reactions",
      "total_count": 0,
      "+1": 0,
      "-1": 0,
      "laugh": 0,
      "hooray": 0,
      "confused": 0,
      "heart": 0,
      "rocket": 0,
      "eyes": 0
    },
    "performed_via_github_app": null
  },
  {
    "url": "https://api.github.com/repos/bitcoin/bitcoin/issues/comments/1377541075",
    "html_url": "https://github.com/bitcoin/bitcoin/pull/23049#issuecomment-1377541075",
    "issue_url": "https://api.github.com/repos/bitcoin/bitcoin/issues/23049",
    "id": 1377541075,
    "node_id": "IC_kwDOABII585SG5vT",
    "user": {
      "login": "Fi3",
      "id": 6207037,
      "node_id": "MDQ6VXNlcjYyMDcwMzc=",
      "avatar_url": "https://avatars.githubusercontent.com/u/6207037?v=4",
      "gravatar_id": "",
      "url": "https://api.github.com/users/Fi3",
      "html_url": "https://github.com/Fi3",
      "followers_url": "https://api.github.com/users/Fi3/followers",
      "following_url": "https://api.github.com/users/Fi3/following{/other_user}",
      "gists_url": "https://api.github.com/users/Fi3/gists{/gist_id}",
      "starred_url": "https://api.github.com/users/Fi3/starred{/owner}{/repo}",
      "subscriptions_url": "https://api.github.com/users/Fi3/subscriptions",
      "organizations_url": "https://api.github.com/users/Fi3/orgs",
      "repos_url": "https://api.github.com/users/Fi3/repos",
      "events_url": "https://api.github.com/users/Fi3/events{/privacy}",
      "received_events_url": "https://api.github.com/users/Fi3/received_events",
      "type": "User",
      "site_admin": false
    },
    "created_at": "2023-01-10T16:37:53Z",
    "updated_at": "2023-01-10T16:37:53Z",
    "author_association": "NONE",
    "body_html": "<p dir=\"auto\">we are implementing it in pure c++ without the use of the rust ffi lib so the PR is outdated</p>",
    "body_text": "we are implementing it in pure c++ without the use of the rust ffi lib so the PR is outdated",
    "body": "we are implementing it in pure c++ without the use of the rust ffi lib so the PR is outdated",
    "reactions": {
      "url": "https://api.github.com/repos/bitcoin/bitcoin/issues/comments/1377541075/reactions",
      "total_count": 0,
      "+1": 0,
      "-1": 0,
      "laugh": 0,
      "hooray": 0,
      "confused": 0,
      "heart": 0,
      "rocket": 0,
      "eyes": 0
    },
    "performed_via_github_app": null
  }
]
