{
  "url": "https://api.github.com/repos/bitcoin/bitcoin/issues/28259",
  "repository_url": "https://api.github.com/repos/bitcoin/bitcoin",
  "labels_url": "https://api.github.com/repos/bitcoin/bitcoin/issues/28259/labels{/name}",
  "comments_url": "https://api.github.com/repos/bitcoin/bitcoin/issues/28259/comments",
  "events_url": "https://api.github.com/repos/bitcoin/bitcoin/issues/28259/events",
  "html_url": "https://github.com/bitcoin/bitcoin/pull/28259",
  "id": 1847146783,
  "node_id": "PR_kwDOABII585XvnBL",
  "number": 28259,
  "title": "Unified mixture of unnamed namespace and static.",
  "user": {
    "login": "Brotcrunsher",
    "id": 19430475,
    "node_id": "MDQ6VXNlcjE5NDMwNDc1",
    "avatar_url": "https://avatars.githubusercontent.com/u/19430475?v=4",
    "gravatar_id": "",
    "url": "https://api.github.com/users/Brotcrunsher",
    "html_url": "https://github.com/Brotcrunsher",
    "followers_url": "https://api.github.com/users/Brotcrunsher/followers",
    "following_url": "https://api.github.com/users/Brotcrunsher/following{/other_user}",
    "gists_url": "https://api.github.com/users/Brotcrunsher/gists{/gist_id}",
    "starred_url": "https://api.github.com/users/Brotcrunsher/starred{/owner}{/repo}",
    "subscriptions_url": "https://api.github.com/users/Brotcrunsher/subscriptions",
    "organizations_url": "https://api.github.com/users/Brotcrunsher/orgs",
    "repos_url": "https://api.github.com/users/Brotcrunsher/repos",
    "events_url": "https://api.github.com/users/Brotcrunsher/events{/privacy}",
    "received_events_url": "https://api.github.com/users/Brotcrunsher/received_events",
    "type": "User",
    "site_admin": false
  },
  "labels": [

  ],
  "state": "closed",
  "locked": false,
  "assignee": null,
  "assignees": [

  ],
  "milestone": null,
  "comments": 3,
  "created_at": "2023-08-11T16:55:06Z",
  "updated_at": "2023-08-14T11:40:41Z",
  "closed_at": "2023-08-14T11:40:01Z",
  "author_association": "CONTRIBUTOR",
  "active_lock_reason": null,
  "draft": false,
  "pull_request": {
    "url": "https://api.github.com/repos/bitcoin/bitcoin/pulls/28259",
    "html_url": "https://github.com/bitcoin/bitcoin/pull/28259",
    "diff_url": "https://github.com/bitcoin/bitcoin/pull/28259.diff",
    "patch_url": "https://github.com/bitcoin/bitcoin/pull/28259.patch",
    "merged_at": null
  },
  "body_html": "<p dir=\"auto\">Previously we had an unnamed namespace with two functions, one static the other not static. When briefly reading the code this might be slightly misleading and could make the reader think that not both functions are translation unit local, even though they are.</p>",
  "body_text": "Previously we had an unnamed namespace with two functions, one static the other not static. When briefly reading the code this might be slightly misleading and could make the reader think that not both functions are translation unit local, even though they are.",
  "body": "Previously we had an unnamed namespace with two functions, one static the other not static. When briefly reading the code this might be slightly misleading and could make the reader think that not both functions are translation unit local, even though they are.",
  "closed_by": {
    "login": "maflcko",
    "id": 6399679,
    "node_id": "MDQ6VXNlcjYzOTk2Nzk=",
    "avatar_url": "https://avatars.githubusercontent.com/u/6399679?v=4",
    "gravatar_id": "",
    "url": "https://api.github.com/users/maflcko",
    "html_url": "https://github.com/maflcko",
    "followers_url": "https://api.github.com/users/maflcko/followers",
    "following_url": "https://api.github.com/users/maflcko/following{/other_user}",
    "gists_url": "https://api.github.com/users/maflcko/gists{/gist_id}",
    "starred_url": "https://api.github.com/users/maflcko/starred{/owner}{/repo}",
    "subscriptions_url": "https://api.github.com/users/maflcko/subscriptions",
    "organizations_url": "https://api.github.com/users/maflcko/orgs",
    "repos_url": "https://api.github.com/users/maflcko/repos",
    "events_url": "https://api.github.com/users/maflcko/events{/privacy}",
    "received_events_url": "https://api.github.com/users/maflcko/received_events",
    "type": "User",
    "site_admin": false
  },
  "reactions": {
    "url": "https://api.github.com/repos/bitcoin/bitcoin/issues/28259/reactions",
    "total_count": 0,
    "+1": 0,
    "-1": 0,
    "laugh": 0,
    "hooray": 0,
    "confused": 0,
    "heart": 0,
    "rocket": 0,
    "eyes": 0
  },
  "timeline_url": "https://api.github.com/repos/bitcoin/bitcoin/issues/28259/timeline",
  "performed_via_github_app": null,
  "state_reason": null
}
