[
  {
    "url": "https://api.github.com/repos/bitcoin/bitcoin/issues/comments/264834211",
    "html_url": "https://github.com/bitcoin/bitcoin/issues/9272#issuecomment-264834211",
    "issue_url": "https://api.github.com/repos/bitcoin/bitcoin/issues/9272",
    "id": 264834211,
    "node_id": "MDEyOklzc3VlQ29tbWVudDI2NDgzNDIxMQ==",
    "user": {
      "login": "laanwj",
      "id": 126646,
      "node_id": "MDQ6VXNlcjEyNjY0Ng==",
      "avatar_url": "https://avatars.githubusercontent.com/u/126646?v=4",
      "gravatar_id": "",
      "url": "https://api.github.com/users/laanwj",
      "html_url": "https://github.com/laanwj",
      "followers_url": "https://api.github.com/users/laanwj/followers",
      "following_url": "https://api.github.com/users/laanwj/following{/other_user}",
      "gists_url": "https://api.github.com/users/laanwj/gists{/gist_id}",
      "starred_url": "https://api.github.com/users/laanwj/starred{/owner}{/repo}",
      "subscriptions_url": "https://api.github.com/users/laanwj/subscriptions",
      "organizations_url": "https://api.github.com/users/laanwj/orgs",
      "repos_url": "https://api.github.com/users/laanwj/repos",
      "events_url": "https://api.github.com/users/laanwj/events{/privacy}",
      "received_events_url": "https://api.github.com/users/laanwj/received_events",
      "type": "User",
      "site_admin": false
    },
    "created_at": "2016-12-05T11:44:25Z",
    "updated_at": "2016-12-05T11:46:24Z",
    "author_association": "MEMBER",
    "body_html": "<p dir=\"auto\">Are you sure this is really the case?</p>\n<p dir=\"auto\">That message:</p>\n<blockquote>\n<p dir=\"auto\">Binding RPC on address 0.0.0.0 port 8332 failed. reported in debug.log.</p>\n</blockquote>\n<p dir=\"auto\">Means that it can't bind on 0.0.0.0 - which <em>usually</em> means that the IPv6 any address works as 'catchall' for both incoming IPv4 and IPv6 connections. This is the case on some OSes, making it unnecessary to have two binds.</p>\n<p dir=\"auto\">Have you tried connecting to the  port?</p>",
    "body_text": "Are you sure this is really the case?\nThat message:\n\nBinding RPC on address 0.0.0.0 port 8332 failed. reported in debug.log.\n\nMeans that it can't bind on 0.0.0.0 - which usually means that the IPv6 any address works as 'catchall' for both incoming IPv4 and IPv6 connections. This is the case on some OSes, making it unnecessary to have two binds.\nHave you tried connecting to the  port?",
    "body": "Are you sure this is really the case? \r\n\r\nThat message:\r\n\r\n> Binding RPC on address 0.0.0.0 port 8332 failed. reported in debug.log.\r\n\r\nMeans that it can't bind on 0.0.0.0 - which *usually* means that the IPv6 any address works as 'catchall' for both incoming IPv4 and IPv6 connections. This is the case on some OSes, making it unnecessary to have two binds.\r\n\r\nHave you tried connecting to the  port?\r\n",
    "reactions": {
      "url": "https://api.github.com/repos/bitcoin/bitcoin/issues/comments/264834211/reactions",
      "total_count": 0,
      "+1": 0,
      "-1": 0,
      "laugh": 0,
      "hooray": 0,
      "confused": 0,
      "heart": 0,
      "rocket": 0,
      "eyes": 0
    },
    "performed_via_github_app": null
  },
  {
    "url": "https://api.github.com/repos/bitcoin/bitcoin/issues/comments/264834581",
    "html_url": "https://github.com/bitcoin/bitcoin/issues/9272#issuecomment-264834581",
    "issue_url": "https://api.github.com/repos/bitcoin/bitcoin/issues/9272",
    "id": 264834581,
    "node_id": "MDEyOklzc3VlQ29tbWVudDI2NDgzNDU4MQ==",
    "user": {
      "login": "laanwj",
      "id": 126646,
      "node_id": "MDQ6VXNlcjEyNjY0Ng==",
      "avatar_url": "https://avatars.githubusercontent.com/u/126646?v=4",
      "gravatar_id": "",
      "url": "https://api.github.com/users/laanwj",
      "html_url": "https://github.com/laanwj",
      "followers_url": "https://api.github.com/users/laanwj/followers",
      "following_url": "https://api.github.com/users/laanwj/following{/other_user}",
      "gists_url": "https://api.github.com/users/laanwj/gists{/gist_id}",
      "starred_url": "https://api.github.com/users/laanwj/starred{/owner}{/repo}",
      "subscriptions_url": "https://api.github.com/users/laanwj/subscriptions",
      "organizations_url": "https://api.github.com/users/laanwj/orgs",
      "repos_url": "https://api.github.com/users/laanwj/repos",
      "events_url": "https://api.github.com/users/laanwj/events{/privacy}",
      "received_events_url": "https://api.github.com/users/laanwj/received_events",
      "type": "User",
      "site_admin": false
    },
    "created_at": "2016-12-05T11:46:13Z",
    "updated_at": "2016-12-05T11:46:13Z",
    "author_association": "MEMBER",
    "body_html": "<p dir=\"auto\">BTW: the default behavior is, and always has been, to bind on all interfaces if <code class=\"notranslate\">-rpcallowip</code> is set. If not  bind on localhost only [both given no explicit binds]. This is a security feature.</p>",
    "body_text": "BTW: the default behavior is, and always has been, to bind on all interfaces if -rpcallowip is set. If not  bind on localhost only [both given no explicit binds]. This is a security feature.",
    "body": "BTW: the default behavior is, and always has been, to bind on all interfaces if `-rpcallowip` is set. If not  bind on localhost only [both given no explicit binds]. This is a security feature.",
    "reactions": {
      "url": "https://api.github.com/repos/bitcoin/bitcoin/issues/comments/264834581/reactions",
      "total_count": 0,
      "+1": 0,
      "-1": 0,
      "laugh": 0,
      "hooray": 0,
      "confused": 0,
      "heart": 0,
      "rocket": 0,
      "eyes": 0
    },
    "performed_via_github_app": null
  },
  {
    "url": "https://api.github.com/repos/bitcoin/bitcoin/issues/comments/304648606",
    "html_url": "https://github.com/bitcoin/bitcoin/issues/9272#issuecomment-304648606",
    "issue_url": "https://api.github.com/repos/bitcoin/bitcoin/issues/9272",
    "id": 304648606,
    "node_id": "MDEyOklzc3VlQ29tbWVudDMwNDY0ODYwNg==",
    "user": {
      "login": "tiabc",
      "id": 2167748,
      "node_id": "MDQ6VXNlcjIxNjc3NDg=",
      "avatar_url": "https://avatars.githubusercontent.com/u/2167748?v=4",
      "gravatar_id": "",
      "url": "https://api.github.com/users/tiabc",
      "html_url": "https://github.com/tiabc",
      "followers_url": "https://api.github.com/users/tiabc/followers",
      "following_url": "https://api.github.com/users/tiabc/following{/other_user}",
      "gists_url": "https://api.github.com/users/tiabc/gists{/gist_id}",
      "starred_url": "https://api.github.com/users/tiabc/starred{/owner}{/repo}",
      "subscriptions_url": "https://api.github.com/users/tiabc/subscriptions",
      "organizations_url": "https://api.github.com/users/tiabc/orgs",
      "repos_url": "https://api.github.com/users/tiabc/repos",
      "events_url": "https://api.github.com/users/tiabc/events{/privacy}",
      "received_events_url": "https://api.github.com/users/tiabc/received_events",
      "type": "User",
      "site_admin": false
    },
    "created_at": "2017-05-29T12:23:05Z",
    "updated_at": "2017-05-29T12:23:13Z",
    "author_association": "NONE",
    "body_html": "<p dir=\"auto\">I've just faced the same problem. Maybe it's worth noting this behavior in bitcoind help?</p>\n<p dir=\"auto\">Because although the behavior has always been such, the option is unambiguously described that it binds to all interfaces by default:</p>\n<div class=\"snippet-clipboard-content notranslate position-relative overflow-auto\" data-snippet-clipboard-copy-content=\"  -rpcbind=&lt;addr&gt;\n       Bind to given address to listen for JSON-RPC connections. Use\n       [host]:port notation for IPv6. This option can be specified\n       multiple times (default: bind to all interfaces)\"><pre class=\"notranslate\"><code class=\"notranslate\">  -rpcbind=&lt;addr&gt;\n       Bind to given address to listen for JSON-RPC connections. Use\n       [host]:port notation for IPv6. This option can be specified\n       multiple times (default: bind to all interfaces)\n</code></pre></div>\n<p dir=\"auto\">I had to google some more time to find out an answer.</p>",
    "body_text": "I've just faced the same problem. Maybe it's worth noting this behavior in bitcoind help?\nBecause although the behavior has always been such, the option is unambiguously described that it binds to all interfaces by default:\n  -rpcbind=<addr>\n       Bind to given address to listen for JSON-RPC connections. Use\n       [host]:port notation for IPv6. This option can be specified\n       multiple times (default: bind to all interfaces)\n\nI had to google some more time to find out an answer.",
    "body": "I've just faced the same problem. Maybe it's worth noting this behavior in bitcoind help?\r\n\r\nBecause although the behavior has always been such, the option is unambiguously described that it binds to all interfaces by default:\r\n\r\n```\r\n  -rpcbind=<addr>\r\n       Bind to given address to listen for JSON-RPC connections. Use\r\n       [host]:port notation for IPv6. This option can be specified\r\n       multiple times (default: bind to all interfaces)\r\n```\r\n\r\nI had to google some more time to find out an answer.",
    "reactions": {
      "url": "https://api.github.com/repos/bitcoin/bitcoin/issues/comments/304648606/reactions",
      "total_count": 3,
      "+1": 3,
      "-1": 0,
      "laugh": 0,
      "hooray": 0,
      "confused": 0,
      "heart": 0,
      "rocket": 0,
      "eyes": 0
    },
    "performed_via_github_app": null
  }
]
