[
  {
    "url": "https://api.github.com/repos/bitcoin/bitcoin/issues/comments/1507218113",
    "html_url": "https://github.com/bitcoin/bitcoin/issues/14308#issuecomment-1507218113",
    "issue_url": "https://api.github.com/repos/bitcoin/bitcoin/issues/14308",
    "id": 1507218113,
    "node_id": "IC_kwDOABII585Z1lLB",
    "user": {
      "login": "pinheadmz",
      "id": 2084648,
      "node_id": "MDQ6VXNlcjIwODQ2NDg=",
      "avatar_url": "https://avatars.githubusercontent.com/u/2084648?v=4",
      "gravatar_id": "",
      "url": "https://api.github.com/users/pinheadmz",
      "html_url": "https://github.com/pinheadmz",
      "followers_url": "https://api.github.com/users/pinheadmz/followers",
      "following_url": "https://api.github.com/users/pinheadmz/following{/other_user}",
      "gists_url": "https://api.github.com/users/pinheadmz/gists{/gist_id}",
      "starred_url": "https://api.github.com/users/pinheadmz/starred{/owner}{/repo}",
      "subscriptions_url": "https://api.github.com/users/pinheadmz/subscriptions",
      "organizations_url": "https://api.github.com/users/pinheadmz/orgs",
      "repos_url": "https://api.github.com/users/pinheadmz/repos",
      "events_url": "https://api.github.com/users/pinheadmz/events{/privacy}",
      "received_events_url": "https://api.github.com/users/pinheadmz/received_events",
      "type": "User",
      "site_admin": false
    },
    "created_at": "2023-04-13T16:00:12Z",
    "updated_at": "2023-04-13T16:00:12Z",
    "author_association": "MEMBER",
    "body_html": "<p dir=\"auto\">This isn't a bad idea, and we could include the witnessV0 test vectors in the JSON file, but since <code class=\"notranslate\">sighash_tests.cpp</code> only executes <code class=\"notranslate\">SignatureHash()</code> and not <code class=\"notranslate\">SignatureHashSchnorr()</code>, I don't think those test/data files should be considered complete anymore.</p>\n<p dir=\"auto\">To test <a href=\"https://github.com/bcoin-org/bcoin/pull/1063\" data-hovercard-type=\"pull_request\" data-hovercard-url=\"/bcoin-org/bcoin/pull/1063/hovercard\">taproot validation on bcoin</a> for example I created a <a href=\"https://github.com/pinheadmz/bitcoin/tree/taproottest-0.21.1\">fork of bitcoin</a> that generated a taproot test vectors json file similar to the original files you are looking at (from <a class=\"issue-link js-issue-link\" data-error-text=\"Failed to load title\" data-id=\"30416233\" data-permission-text=\"Title is private\" data-url=\"https://github.com/bitcoin/bitcoin/issues/3975\" data-hovercard-type=\"pull_request\" data-hovercard-url=\"/bitcoin/bitcoin/pull/3975/hovercard\" href=\"https://github.com/bitcoin/bitcoin/pull/3975\">#3975</a>)</p>",
    "body_text": "This isn't a bad idea, and we could include the witnessV0 test vectors in the JSON file, but since sighash_tests.cpp only executes SignatureHash() and not SignatureHashSchnorr(), I don't think those test/data files should be considered complete anymore.\nTo test taproot validation on bcoin for example I created a fork of bitcoin that generated a taproot test vectors json file similar to the original files you are looking at (from #3975)",
    "body": "This isn't a bad idea, and we could include the witnessV0 test vectors in the JSON file, but since `sighash_tests.cpp` only executes `SignatureHash()` and not `SignatureHashSchnorr()`, I don't think those test/data files should be considered complete anymore. \r\n\r\nTo test [taproot validation on bcoin](https://github.com/bcoin-org/bcoin/pull/1063) for example I created a [fork of bitcoin](https://github.com/pinheadmz/bitcoin/tree/taproottest-0.21.1) that generated a taproot test vectors json file similar to the original files you are looking at (from https://github.com/bitcoin/bitcoin/pull/3975)",
    "reactions": {
      "url": "https://api.github.com/repos/bitcoin/bitcoin/issues/comments/1507218113/reactions",
      "total_count": 0,
      "+1": 0,
      "-1": 0,
      "laugh": 0,
      "hooray": 0,
      "confused": 0,
      "heart": 0,
      "rocket": 0,
      "eyes": 0
    },
    "performed_via_github_app": null
  },
  {
    "url": "https://api.github.com/repos/bitcoin/bitcoin/issues/comments/1573869228",
    "html_url": "https://github.com/bitcoin/bitcoin/issues/14308#issuecomment-1573869228",
    "issue_url": "https://api.github.com/repos/bitcoin/bitcoin/issues/14308",
    "id": 1573869228,
    "node_id": "IC_kwDOABII585dz1as",
    "user": {
      "login": "pinheadmz",
      "id": 2084648,
      "node_id": "MDQ6VXNlcjIwODQ2NDg=",
      "avatar_url": "https://avatars.githubusercontent.com/u/2084648?v=4",
      "gravatar_id": "",
      "url": "https://api.github.com/users/pinheadmz",
      "html_url": "https://github.com/pinheadmz",
      "followers_url": "https://api.github.com/users/pinheadmz/followers",
      "following_url": "https://api.github.com/users/pinheadmz/following{/other_user}",
      "gists_url": "https://api.github.com/users/pinheadmz/gists{/gist_id}",
      "starred_url": "https://api.github.com/users/pinheadmz/starred{/owner}{/repo}",
      "subscriptions_url": "https://api.github.com/users/pinheadmz/subscriptions",
      "organizations_url": "https://api.github.com/users/pinheadmz/orgs",
      "repos_url": "https://api.github.com/users/pinheadmz/repos",
      "events_url": "https://api.github.com/users/pinheadmz/events{/privacy}",
      "received_events_url": "https://api.github.com/users/pinheadmz/received_events",
      "type": "User",
      "site_admin": false
    },
    "created_at": "2023-06-02T14:55:26Z",
    "updated_at": "2023-06-02T14:55:26Z",
    "author_association": "MEMBER",
    "body_html": "<p dir=\"auto\">I think it's safe to close this as won't-fix for the reasons stated above. Pull requests are always welcome!</p>",
    "body_text": "I think it's safe to close this as won't-fix for the reasons stated above. Pull requests are always welcome!",
    "body": "I think it's safe to close this as won't-fix for the reasons stated above. Pull requests are always welcome!",
    "reactions": {
      "url": "https://api.github.com/repos/bitcoin/bitcoin/issues/comments/1573869228/reactions",
      "total_count": 0,
      "+1": 0,
      "-1": 0,
      "laugh": 0,
      "hooray": 0,
      "confused": 0,
      "heart": 0,
      "rocket": 0,
      "eyes": 0
    },
    "performed_via_github_app": null
  }
]
