[
  {
    "url": "https://api.github.com/repos/bitcoin/bitcoin/issues/comments/303501047",
    "html_url": "https://github.com/bitcoin/bitcoin/issues/10439#issuecomment-303501047",
    "issue_url": "https://api.github.com/repos/bitcoin/bitcoin/issues/10439",
    "id": 303501047,
    "node_id": "MDEyOklzc3VlQ29tbWVudDMwMzUwMTA0Nw==",
    "user": {
      "login": "sipa",
      "id": 548488,
      "node_id": "MDQ6VXNlcjU0ODQ4OA==",
      "avatar_url": "https://avatars.githubusercontent.com/u/548488?v=4",
      "gravatar_id": "",
      "url": "https://api.github.com/users/sipa",
      "html_url": "https://github.com/sipa",
      "followers_url": "https://api.github.com/users/sipa/followers",
      "following_url": "https://api.github.com/users/sipa/following{/other_user}",
      "gists_url": "https://api.github.com/users/sipa/gists{/gist_id}",
      "starred_url": "https://api.github.com/users/sipa/starred{/owner}{/repo}",
      "subscriptions_url": "https://api.github.com/users/sipa/subscriptions",
      "organizations_url": "https://api.github.com/users/sipa/orgs",
      "repos_url": "https://api.github.com/users/sipa/repos",
      "events_url": "https://api.github.com/users/sipa/events{/privacy}",
      "received_events_url": "https://api.github.com/users/sipa/received_events",
      "type": "User",
      "site_admin": false
    },
    "created_at": "2017-05-23T19:07:45Z",
    "updated_at": "2017-05-23T19:07:45Z",
    "author_association": "MEMBER",
    "body_html": "<p dir=\"auto\">Read the RPC help text from reconsiderblock:</p>\n<div class=\"snippet-clipboard-content notranslate position-relative overflow-auto\" data-snippet-clipboard-copy-content=\"reconsiderblock &quot;blockhash&quot;\n\nRemoves invalidity status of a block and its descendants, reconsider them for activation.\nThis can be used to undo the effects of invalidateblock.\"><pre class=\"notranslate\"><code class=\"notranslate\">reconsiderblock \"blockhash\"\n\nRemoves invalidity status of a block and its descendants, reconsider them for activation.\nThis can be used to undo the effects of invalidateblock.\n</code></pre></div>\n<p dir=\"auto\"><code class=\"notranslate\">reconsiderblock</code> automatically applies to all descendants of a block, so this is working as intended. There is no such thing as priorities when invalidating/reconsidering. Just valid and invalid.</p>",
    "body_text": "Read the RPC help text from reconsiderblock:\nreconsiderblock \"blockhash\"\n\nRemoves invalidity status of a block and its descendants, reconsider them for activation.\nThis can be used to undo the effects of invalidateblock.\n\nreconsiderblock automatically applies to all descendants of a block, so this is working as intended. There is no such thing as priorities when invalidating/reconsidering. Just valid and invalid.",
    "body": "Read the RPC help text from reconsiderblock:\r\n```\r\nreconsiderblock \"blockhash\"\r\n\r\nRemoves invalidity status of a block and its descendants, reconsider them for activation.\r\nThis can be used to undo the effects of invalidateblock.\r\n```\r\n\r\n`reconsiderblock` automatically applies to all descendants of a block, so this is working as intended. There is no such thing as priorities when invalidating/reconsidering. Just valid and invalid.",
    "reactions": {
      "url": "https://api.github.com/repos/bitcoin/bitcoin/issues/comments/303501047/reactions",
      "total_count": 0,
      "+1": 0,
      "-1": 0,
      "laugh": 0,
      "hooray": 0,
      "confused": 0,
      "heart": 0,
      "rocket": 0,
      "eyes": 0
    },
    "performed_via_github_app": null
  },
  {
    "url": "https://api.github.com/repos/bitcoin/bitcoin/issues/comments/303502163",
    "html_url": "https://github.com/bitcoin/bitcoin/issues/10439#issuecomment-303502163",
    "issue_url": "https://api.github.com/repos/bitcoin/bitcoin/issues/10439",
    "id": 303502163,
    "node_id": "MDEyOklzc3VlQ29tbWVudDMwMzUwMjE2Mw==",
    "user": {
      "login": "sipa",
      "id": 548488,
      "node_id": "MDQ6VXNlcjU0ODQ4OA==",
      "avatar_url": "https://avatars.githubusercontent.com/u/548488?v=4",
      "gravatar_id": "",
      "url": "https://api.github.com/users/sipa",
      "html_url": "https://github.com/sipa",
      "followers_url": "https://api.github.com/users/sipa/followers",
      "following_url": "https://api.github.com/users/sipa/following{/other_user}",
      "gists_url": "https://api.github.com/users/sipa/gists{/gist_id}",
      "starred_url": "https://api.github.com/users/sipa/starred{/owner}{/repo}",
      "subscriptions_url": "https://api.github.com/users/sipa/subscriptions",
      "organizations_url": "https://api.github.com/users/sipa/orgs",
      "repos_url": "https://api.github.com/users/sipa/repos",
      "events_url": "https://api.github.com/users/sipa/events{/privacy}",
      "received_events_url": "https://api.github.com/users/sipa/received_events",
      "type": "User",
      "site_admin": false
    },
    "created_at": "2017-05-23T19:12:11Z",
    "updated_at": "2017-05-23T19:12:28Z",
    "author_association": "MEMBER",
    "body_html": "<p dir=\"auto\">An alternative would be to have reconsiderblock only apply to the ancestors of a block and not its descendants. That would get you the ability to selectively reconsider, but it would result in a sequence (where the tip block is <code class=\"notranslate\">10</code>)</p>\n<div class=\"snippet-clipboard-content notranslate position-relative overflow-auto\" data-snippet-clipboard-copy-content=\"invalidateblock 8\nreconsiderblock 8\"><pre class=\"notranslate\"><code class=\"notranslate\">invalidateblock 8\nreconsiderblock 8\n</code></pre></div>\n<p dir=\"auto\">to make 8 the new tip instead of 10, as 9 and 10 would remain invalid.</p>",
    "body_text": "An alternative would be to have reconsiderblock only apply to the ancestors of a block and not its descendants. That would get you the ability to selectively reconsider, but it would result in a sequence (where the tip block is 10)\ninvalidateblock 8\nreconsiderblock 8\n\nto make 8 the new tip instead of 10, as 9 and 10 would remain invalid.",
    "body": "An alternative would be to have reconsiderblock only apply to the ancestors of a block and not its descendants. That would get you the ability to selectively reconsider, but it would result in a sequence (where the tip block is `10`)\r\n```\r\ninvalidateblock 8\r\nreconsiderblock 8\r\n```\r\n\r\nto make 8 the new tip instead of 10, as 9 and 10 would remain invalid.",
    "reactions": {
      "url": "https://api.github.com/repos/bitcoin/bitcoin/issues/comments/303502163/reactions",
      "total_count": 0,
      "+1": 0,
      "-1": 0,
      "laugh": 0,
      "hooray": 0,
      "confused": 0,
      "heart": 0,
      "rocket": 0,
      "eyes": 0
    },
    "performed_via_github_app": null
  },
  {
    "url": "https://api.github.com/repos/bitcoin/bitcoin/issues/comments/536579882",
    "html_url": "https://github.com/bitcoin/bitcoin/issues/10439#issuecomment-536579882",
    "issue_url": "https://api.github.com/repos/bitcoin/bitcoin/issues/10439",
    "id": 536579882,
    "node_id": "MDEyOklzc3VlQ29tbWVudDUzNjU3OTg4Mg==",
    "user": {
      "login": "Sjors",
      "id": 10217,
      "node_id": "MDQ6VXNlcjEwMjE3",
      "avatar_url": "https://avatars.githubusercontent.com/u/10217?v=4",
      "gravatar_id": "",
      "url": "https://api.github.com/users/Sjors",
      "html_url": "https://github.com/Sjors",
      "followers_url": "https://api.github.com/users/Sjors/followers",
      "following_url": "https://api.github.com/users/Sjors/following{/other_user}",
      "gists_url": "https://api.github.com/users/Sjors/gists{/gist_id}",
      "starred_url": "https://api.github.com/users/Sjors/starred{/owner}{/repo}",
      "subscriptions_url": "https://api.github.com/users/Sjors/subscriptions",
      "organizations_url": "https://api.github.com/users/Sjors/orgs",
      "repos_url": "https://api.github.com/users/Sjors/repos",
      "events_url": "https://api.github.com/users/Sjors/events{/privacy}",
      "received_events_url": "https://api.github.com/users/Sjors/received_events",
      "type": "User",
      "site_admin": false
    },
    "created_at": "2019-09-30T14:12:06Z",
    "updated_at": "2019-09-30T14:12:26Z",
    "author_association": "MEMBER",
    "body_html": "<p dir=\"auto\">Not applying <code class=\"notranslate\">reconsiderblock</code> to descendants seems rather tedious for the \"roll back to create UTXO snapshot\" use case: <a class=\"issue-link js-issue-link\" data-error-text=\"Failed to load title\" data-id=\"421531882\" data-permission-text=\"Title is private\" data-url=\"https://github.com/bitcoin/bitcoin/issues/15606\" data-hovercard-type=\"pull_request\" data-hovercard-url=\"/bitcoin/bitcoin/pull/15606/hovercard\" href=\"https://github.com/bitcoin/bitcoin/pull/15606\">#15606</a>. Though there could be an additional argument to include descendants.</p>\n<p dir=\"auto\">If block 8 can be invalid and block 10 can be invalid, we'd have to change the \"children of BLOCK_FAILED_VALID may be BLOCK_FAILED_CHILD, but must not be BLOCK_FAILED_VALID\" rule. See <a class=\"issue-link js-issue-link\" data-error-text=\"Failed to load title\" data-id=\"492470838\" data-permission-text=\"Title is private\" data-url=\"https://github.com/bitcoin/bitcoin/issues/16856\" data-hovercard-type=\"pull_request\" data-hovercard-url=\"/bitcoin/bitcoin/pull/16856/hovercard\" href=\"https://github.com/bitcoin/bitcoin/pull/16856\">#16856</a>.</p>\n<p dir=\"auto\">I'm fine with the current behavior, though not opposed to changing it.</p>",
    "body_text": "Not applying reconsiderblock to descendants seems rather tedious for the \"roll back to create UTXO snapshot\" use case: #15606. Though there could be an additional argument to include descendants.\nIf block 8 can be invalid and block 10 can be invalid, we'd have to change the \"children of BLOCK_FAILED_VALID may be BLOCK_FAILED_CHILD, but must not be BLOCK_FAILED_VALID\" rule. See #16856.\nI'm fine with the current behavior, though not opposed to changing it.",
    "body": "Not applying `reconsiderblock` to descendants seems rather tedious for the \"roll back to create UTXO snapshot\" use case: #15606. Though there could be an additional argument to include descendants.\r\n\r\nIf block 8 can be invalid and block 10 can be invalid, we'd have to change the \"children of BLOCK_FAILED_VALID may be BLOCK_FAILED_CHILD, but must not be BLOCK_FAILED_VALID\" rule. See #16856.\r\n\r\nI'm fine with the current behavior, though not opposed to changing it.",
    "reactions": {
      "url": "https://api.github.com/repos/bitcoin/bitcoin/issues/comments/536579882/reactions",
      "total_count": 0,
      "+1": 0,
      "-1": 0,
      "laugh": 0,
      "hooray": 0,
      "confused": 0,
      "heart": 0,
      "rocket": 0,
      "eyes": 0
    },
    "performed_via_github_app": null
  },
  {
    "url": "https://api.github.com/repos/bitcoin/bitcoin/issues/comments/1545976007",
    "html_url": "https://github.com/bitcoin/bitcoin/issues/10439#issuecomment-1545976007",
    "issue_url": "https://api.github.com/repos/bitcoin/bitcoin/issues/10439",
    "id": 1545976007,
    "node_id": "IC_kwDOABII585cJbjH",
    "user": {
      "login": "pinheadmz",
      "id": 2084648,
      "node_id": "MDQ6VXNlcjIwODQ2NDg=",
      "avatar_url": "https://avatars.githubusercontent.com/u/2084648?v=4",
      "gravatar_id": "",
      "url": "https://api.github.com/users/pinheadmz",
      "html_url": "https://github.com/pinheadmz",
      "followers_url": "https://api.github.com/users/pinheadmz/followers",
      "following_url": "https://api.github.com/users/pinheadmz/following{/other_user}",
      "gists_url": "https://api.github.com/users/pinheadmz/gists{/gist_id}",
      "starred_url": "https://api.github.com/users/pinheadmz/starred{/owner}{/repo}",
      "subscriptions_url": "https://api.github.com/users/pinheadmz/subscriptions",
      "organizations_url": "https://api.github.com/users/pinheadmz/orgs",
      "repos_url": "https://api.github.com/users/pinheadmz/repos",
      "events_url": "https://api.github.com/users/pinheadmz/events{/privacy}",
      "received_events_url": "https://api.github.com/users/pinheadmz/received_events",
      "type": "User",
      "site_admin": false
    },
    "created_at": "2023-05-12T16:10:20Z",
    "updated_at": "2023-05-12T16:10:20Z",
    "author_association": "MEMBER",
    "body_html": "<p dir=\"auto\">While reviewing <a class=\"issue-link js-issue-link\" data-error-text=\"Failed to load title\" data-id=\"1397981492\" data-permission-text=\"Title is private\" data-url=\"https://github.com/bitcoin/bitcoin/issues/26260\" data-hovercard-type=\"pull_request\" data-hovercard-url=\"/bitcoin/bitcoin/pull/26260/hovercard\" href=\"https://github.com/bitcoin/bitcoin/pull/26260\">#26260</a> I came back here to see if the issue was related at all... I think I agree with Sipa and Sjors that the current behavior is expected and documented and this issue should probably closed as \"won't fix\"</p>",
    "body_text": "While reviewing #26260 I came back here to see if the issue was related at all... I think I agree with Sipa and Sjors that the current behavior is expected and documented and this issue should probably closed as \"won't fix\"",
    "body": "While reviewing https://github.com/bitcoin/bitcoin/pull/26260 I came back here to see if the issue was related at all... I think I agree with Sipa and Sjors that the current behavior is expected and documented and this issue should probably closed as \"won't fix\"",
    "reactions": {
      "url": "https://api.github.com/repos/bitcoin/bitcoin/issues/comments/1545976007/reactions",
      "total_count": 0,
      "+1": 0,
      "-1": 0,
      "laugh": 0,
      "hooray": 0,
      "confused": 0,
      "heart": 0,
      "rocket": 0,
      "eyes": 0
    },
    "performed_via_github_app": null
  },
  {
    "url": "https://api.github.com/repos/bitcoin/bitcoin/issues/comments/1546543076",
    "html_url": "https://github.com/bitcoin/bitcoin/issues/10439#issuecomment-1546543076",
    "issue_url": "https://api.github.com/repos/bitcoin/bitcoin/issues/10439",
    "id": 1546543076,
    "node_id": "IC_kwDOABII585cLl_k",
    "user": {
      "login": "maflcko",
      "id": 6399679,
      "node_id": "MDQ6VXNlcjYzOTk2Nzk=",
      "avatar_url": "https://avatars.githubusercontent.com/u/6399679?v=4",
      "gravatar_id": "",
      "url": "https://api.github.com/users/maflcko",
      "html_url": "https://github.com/maflcko",
      "followers_url": "https://api.github.com/users/maflcko/followers",
      "following_url": "https://api.github.com/users/maflcko/following{/other_user}",
      "gists_url": "https://api.github.com/users/maflcko/gists{/gist_id}",
      "starred_url": "https://api.github.com/users/maflcko/starred{/owner}{/repo}",
      "subscriptions_url": "https://api.github.com/users/maflcko/subscriptions",
      "organizations_url": "https://api.github.com/users/maflcko/orgs",
      "repos_url": "https://api.github.com/users/maflcko/repos",
      "events_url": "https://api.github.com/users/maflcko/events{/privacy}",
      "received_events_url": "https://api.github.com/users/maflcko/received_events",
      "type": "User",
      "site_admin": false
    },
    "created_at": "2023-05-13T06:30:54Z",
    "updated_at": "2023-05-13T06:30:54Z",
    "author_association": "MEMBER",
    "body_html": "<p dir=\"auto\">Ok, closing for now due to lack of interest, progress and direction.</p>\n<p dir=\"auto\">Pull requests with improvements are always welcome. Moreover, it is possible to re-open this issue or create a new issue referencing it, if there is fresh interest.</p>",
    "body_text": "Ok, closing for now due to lack of interest, progress and direction.\nPull requests with improvements are always welcome. Moreover, it is possible to re-open this issue or create a new issue referencing it, if there is fresh interest.",
    "body": "Ok, closing for now due to lack of interest, progress and direction.\r\n\r\nPull requests with improvements are always welcome. Moreover, it is possible to re-open this issue or create a new issue referencing it, if there is fresh interest.",
    "reactions": {
      "url": "https://api.github.com/repos/bitcoin/bitcoin/issues/comments/1546543076/reactions",
      "total_count": 0,
      "+1": 0,
      "-1": 0,
      "laugh": 0,
      "hooray": 0,
      "confused": 0,
      "heart": 0,
      "rocket": 0,
      "eyes": 0
    },
    "performed_via_github_app": null
  }
]
