{
  "url": "https://api.github.com/repos/bitcoin/bitcoin/issues/4405",
  "repository_url": "https://api.github.com/repos/bitcoin/bitcoin",
  "labels_url": "https://api.github.com/repos/bitcoin/bitcoin/issues/4405/labels{/name}",
  "comments_url": "https://api.github.com/repos/bitcoin/bitcoin/issues/4405/comments",
  "events_url": "https://api.github.com/repos/bitcoin/bitcoin/issues/4405/events",
  "html_url": "https://github.com/bitcoin/bitcoin/pull/4405",
  "id": 36419002,
  "node_id": "MDExOlB1bGxSZXF1ZXN0MTc1NTMyNTk=",
  "number": 4405,
  "title": "Update .gitignore",
  "user": {
    "login": "ghost",
    "id": 10137,
    "node_id": "MDQ6VXNlcjEwMTM3",
    "avatar_url": "https://avatars.githubusercontent.com/u/10137?v=4",
    "gravatar_id": "",
    "url": "https://api.github.com/users/ghost",
    "html_url": "https://github.com/ghost",
    "followers_url": "https://api.github.com/users/ghost/followers",
    "following_url": "https://api.github.com/users/ghost/following{/other_user}",
    "gists_url": "https://api.github.com/users/ghost/gists{/gist_id}",
    "starred_url": "https://api.github.com/users/ghost/starred{/owner}{/repo}",
    "subscriptions_url": "https://api.github.com/users/ghost/subscriptions",
    "organizations_url": "https://api.github.com/users/ghost/orgs",
    "repos_url": "https://api.github.com/users/ghost/repos",
    "events_url": "https://api.github.com/users/ghost/events{/privacy}",
    "received_events_url": "https://api.github.com/users/ghost/received_events",
    "type": "User",
    "site_admin": false
  },
  "labels": [

  ],
  "state": "closed",
  "locked": true,
  "assignee": null,
  "assignees": [

  ],
  "milestone": null,
  "comments": 2,
  "created_at": "2014-06-24T19:47:41Z",
  "updated_at": "2021-09-08T10:38:29Z",
  "closed_at": "2014-06-24T22:51:23Z",
  "author_association": "NONE",
  "active_lock_reason": "resolved",
  "draft": false,
  "pull_request": {
    "url": "https://api.github.com/repos/bitcoin/bitcoin/pulls/4405",
    "html_url": "https://github.com/bitcoin/bitcoin/pull/4405",
    "diff_url": "https://github.com/bitcoin/bitcoin/pull/4405.diff",
    "patch_url": "https://github.com/bitcoin/bitcoin/pull/4405.patch",
    "merged_at": null
  },
  "body_html": "<p dir=\"auto\">These files were moved from src/ dir to src/config</p>",
  "body_text": "These files were moved from src/ dir to src/config",
  "body": "These files were moved from src/ dir to src/config\n",
  "closed_by": null,
  "reactions": {
    "url": "https://api.github.com/repos/bitcoin/bitcoin/issues/4405/reactions",
    "total_count": 0,
    "+1": 0,
    "-1": 0,
    "laugh": 0,
    "hooray": 0,
    "confused": 0,
    "heart": 0,
    "rocket": 0,
    "eyes": 0
  },
  "timeline_url": "https://api.github.com/repos/bitcoin/bitcoin/issues/4405/timeline",
  "performed_via_github_app": null,
  "state_reason": null
}
