{
  "url": "https://api.github.com/repos/bitcoin/bitcoin/issues/8544",
  "repository_url": "https://api.github.com/repos/bitcoin/bitcoin",
  "labels_url": "https://api.github.com/repos/bitcoin/bitcoin/issues/8544/labels{/name}",
  "comments_url": "https://api.github.com/repos/bitcoin/bitcoin/issues/8544/comments",
  "events_url": "https://api.github.com/repos/bitcoin/bitcoin/issues/8544/events",
  "html_url": "https://github.com/bitcoin/bitcoin/issues/8544",
  "id": 172084576,
  "node_id": "MDU6SXNzdWUxNzIwODQ1NzY=",
  "number": 8544,
  "title": "wallet: RPC calls that \"leak\" private keys should be disabled by default",
  "user": {
    "login": "laanwj",
    "id": 126646,
    "node_id": "MDQ6VXNlcjEyNjY0Ng==",
    "avatar_url": "https://avatars.githubusercontent.com/u/126646?v=4",
    "gravatar_id": "",
    "url": "https://api.github.com/users/laanwj",
    "html_url": "https://github.com/laanwj",
    "followers_url": "https://api.github.com/users/laanwj/followers",
    "following_url": "https://api.github.com/users/laanwj/following{/other_user}",
    "gists_url": "https://api.github.com/users/laanwj/gists{/gist_id}",
    "starred_url": "https://api.github.com/users/laanwj/starred{/owner}{/repo}",
    "subscriptions_url": "https://api.github.com/users/laanwj/subscriptions",
    "organizations_url": "https://api.github.com/users/laanwj/orgs",
    "repos_url": "https://api.github.com/users/laanwj/repos",
    "events_url": "https://api.github.com/users/laanwj/events{/privacy}",
    "received_events_url": "https://api.github.com/users/laanwj/received_events",
    "type": "User",
    "site_admin": false
  },
  "labels": [
    {
      "id": 149424,
      "node_id": "MDU6TGFiZWwxNDk0MjQ=",
      "url": "https://api.github.com/repos/bitcoin/bitcoin/labels/Wallet",
      "name": "Wallet",
      "color": "08a781",
      "default": false,
      "description": null
    }
  ],
  "state": "closed",
  "locked": true,
  "assignee": null,
  "assignees": [

  ],
  "milestone": null,
  "comments": 15,
  "created_at": "2016-08-19T08:54:12Z",
  "updated_at": "2021-12-16T14:12:57Z",
  "closed_at": "2019-11-22T20:38:03Z",
  "author_association": "MEMBER",
  "active_lock_reason": "resolved",
  "body_html": "<p dir=\"auto\">Someone on IRC is pretending to be tech support, and tells users use the <code class=\"notranslate\">dumpprivkey</code> RPC call and give the resulting information. Then he moves the coins to their own wallet.</p>\n<p dir=\"auto\">All in all it is too easy to make the wallet leak information that can be used to steal the contents, without people realizing (its name is not obvious, like <code class=\"notranslate\">sendtoaddress</code>).</p>\n<p dir=\"auto\">A possible mitigation would be to disable all wallet RPC calls that return private keys by default, make them emit a WARNING, and only enabling them with a specific command line option. This would provide advance warning, and also puts up a barrier for non-technical users.</p>\n<p dir=\"auto\">(on the other hand, where does this rabbit hole end, someone could social engineer to get someone to use <code class=\"notranslate\">signrawtransaction</code> just as well... almost all wallet RPC calls are dangerous in one way or another)</p>\n<p dir=\"auto\">So another, more general, option would be to show very-serious looking warning when opening the debug console, that people are using it to steal blabla. But that'd be GUI only.</p>",
  "body_text": "Someone on IRC is pretending to be tech support, and tells users use the dumpprivkey RPC call and give the resulting information. Then he moves the coins to their own wallet.\nAll in all it is too easy to make the wallet leak information that can be used to steal the contents, without people realizing (its name is not obvious, like sendtoaddress).\nA possible mitigation would be to disable all wallet RPC calls that return private keys by default, make them emit a WARNING, and only enabling them with a specific command line option. This would provide advance warning, and also puts up a barrier for non-technical users.\n(on the other hand, where does this rabbit hole end, someone could social engineer to get someone to use signrawtransaction just as well... almost all wallet RPC calls are dangerous in one way or another)\nSo another, more general, option would be to show very-serious looking warning when opening the debug console, that people are using it to steal blabla. But that'd be GUI only.",
  "body": "Someone on IRC is pretending to be tech support, and tells users use the `dumpprivkey` RPC call and give the resulting information. Then he moves the coins to their own wallet.\n\nAll in all it is too easy to make the wallet leak information that can be used to steal the contents, without people realizing (its name is not obvious, like `sendtoaddress`).\n\nA possible mitigation would be to disable all wallet RPC calls that return private keys by default, make them emit a WARNING, and only enabling them with a specific command line option. This would provide advance warning, and also puts up a barrier for non-technical users.\n\n(on the other hand, where does this rabbit hole end, someone could social engineer to get someone to use `signrawtransaction` just as well... almost all wallet RPC calls are dangerous in one way or another)\n\nSo another, more general, option would be to show very-serious looking warning when opening the debug console, that people are using it to steal blabla. But that'd be GUI only.\n",
  "closed_by": {
    "login": "laanwj",
    "id": 126646,
    "node_id": "MDQ6VXNlcjEyNjY0Ng==",
    "avatar_url": "https://avatars.githubusercontent.com/u/126646?v=4",
    "gravatar_id": "",
    "url": "https://api.github.com/users/laanwj",
    "html_url": "https://github.com/laanwj",
    "followers_url": "https://api.github.com/users/laanwj/followers",
    "following_url": "https://api.github.com/users/laanwj/following{/other_user}",
    "gists_url": "https://api.github.com/users/laanwj/gists{/gist_id}",
    "starred_url": "https://api.github.com/users/laanwj/starred{/owner}{/repo}",
    "subscriptions_url": "https://api.github.com/users/laanwj/subscriptions",
    "organizations_url": "https://api.github.com/users/laanwj/orgs",
    "repos_url": "https://api.github.com/users/laanwj/repos",
    "events_url": "https://api.github.com/users/laanwj/events{/privacy}",
    "received_events_url": "https://api.github.com/users/laanwj/received_events",
    "type": "User",
    "site_admin": false
  },
  "reactions": {
    "url": "https://api.github.com/repos/bitcoin/bitcoin/issues/8544/reactions",
    "total_count": 0,
    "+1": 0,
    "-1": 0,
    "laugh": 0,
    "hooray": 0,
    "confused": 0,
    "heart": 0,
    "rocket": 0,
    "eyes": 0
  },
  "timeline_url": "https://api.github.com/repos/bitcoin/bitcoin/issues/8544/timeline",
  "performed_via_github_app": null,
  "state_reason": "completed"
}
