{
  "url": "https://api.github.com/repos/bitcoin/bitcoin/issues/18259",
  "repository_url": "https://api.github.com/repos/bitcoin/bitcoin",
  "labels_url": "https://api.github.com/repos/bitcoin/bitcoin/issues/18259/labels{/name}",
  "comments_url": "https://api.github.com/repos/bitcoin/bitcoin/issues/18259/comments",
  "events_url": "https://api.github.com/repos/bitcoin/bitcoin/issues/18259/events",
  "html_url": "https://github.com/bitcoin/bitcoin/pull/18259",
  "id": 575480104,
  "node_id": "MDExOlB1bGxSZXF1ZXN0MzgzNjIxNDc2",
  "number": 18259,
  "title": "doc: Merge release notes for 0.20.0 release",
  "user": {
    "login": "maflcko",
    "id": 6399679,
    "node_id": "MDQ6VXNlcjYzOTk2Nzk=",
    "avatar_url": "https://avatars.githubusercontent.com/u/6399679?v=4",
    "gravatar_id": "",
    "url": "https://api.github.com/users/maflcko",
    "html_url": "https://github.com/maflcko",
    "followers_url": "https://api.github.com/users/maflcko/followers",
    "following_url": "https://api.github.com/users/maflcko/following{/other_user}",
    "gists_url": "https://api.github.com/users/maflcko/gists{/gist_id}",
    "starred_url": "https://api.github.com/users/maflcko/starred{/owner}{/repo}",
    "subscriptions_url": "https://api.github.com/users/maflcko/subscriptions",
    "organizations_url": "https://api.github.com/users/maflcko/orgs",
    "repos_url": "https://api.github.com/users/maflcko/repos",
    "events_url": "https://api.github.com/users/maflcko/events{/privacy}",
    "received_events_url": "https://api.github.com/users/maflcko/received_events",
    "type": "User",
    "site_admin": false
  },
  "labels": [
    {
      "id": 148216,
      "node_id": "MDU6TGFiZWwxNDgyMTY=",
      "url": "https://api.github.com/repos/bitcoin/bitcoin/labels/Docs",
      "name": "Docs",
      "color": "02d7e1",
      "default": false,
      "description": null
    }
  ],
  "state": "closed",
  "locked": true,
  "assignee": null,
  "assignees": [

  ],
  "milestone": null,
  "comments": 3,
  "created_at": "2020-03-04T15:06:07Z",
  "updated_at": "2022-02-15T10:41:42Z",
  "closed_at": "2020-03-05T02:25:51Z",
  "author_association": "MEMBER",
  "active_lock_reason": "resolved",
  "draft": false,
  "pull_request": {
    "url": "https://api.github.com/repos/bitcoin/bitcoin/pulls/18259",
    "html_url": "https://github.com/bitcoin/bitcoin/pull/18259",
    "diff_url": "https://github.com/bitcoin/bitcoin/pull/18259.diff",
    "patch_url": "https://github.com/bitcoin/bitcoin/pull/18259.patch",
    "merged_at": "2020-03-05T02:25:51Z"
  },
  "body_html": "<p dir=\"auto\">mostly move-only. Can be reviewed with the <code class=\"notranslate\">--color-moved=dimmed-zebra</code> option.</p>",
  "body_text": "mostly move-only. Can be reviewed with the --color-moved=dimmed-zebra option.",
  "body": "mostly move-only. Can be reviewed with the `--color-moved=dimmed-zebra` option.",
  "closed_by": {
    "login": "fanquake",
    "id": 863730,
    "node_id": "MDQ6VXNlcjg2MzczMA==",
    "avatar_url": "https://avatars.githubusercontent.com/u/863730?v=4",
    "gravatar_id": "",
    "url": "https://api.github.com/users/fanquake",
    "html_url": "https://github.com/fanquake",
    "followers_url": "https://api.github.com/users/fanquake/followers",
    "following_url": "https://api.github.com/users/fanquake/following{/other_user}",
    "gists_url": "https://api.github.com/users/fanquake/gists{/gist_id}",
    "starred_url": "https://api.github.com/users/fanquake/starred{/owner}{/repo}",
    "subscriptions_url": "https://api.github.com/users/fanquake/subscriptions",
    "organizations_url": "https://api.github.com/users/fanquake/orgs",
    "repos_url": "https://api.github.com/users/fanquake/repos",
    "events_url": "https://api.github.com/users/fanquake/events{/privacy}",
    "received_events_url": "https://api.github.com/users/fanquake/received_events",
    "type": "User",
    "site_admin": false
  },
  "reactions": {
    "url": "https://api.github.com/repos/bitcoin/bitcoin/issues/18259/reactions",
    "total_count": 0,
    "+1": 0,
    "-1": 0,
    "laugh": 0,
    "hooray": 0,
    "confused": 0,
    "heart": 0,
    "rocket": 0,
    "eyes": 0
  },
  "timeline_url": "https://api.github.com/repos/bitcoin/bitcoin/issues/18259/timeline",
  "performed_via_github_app": null,
  "state_reason": null
}
