[
  {
    "url": "https://api.github.com/repos/bitcoin/bitcoin/issues/comments/553833515",
    "html_url": "https://github.com/bitcoin/bitcoin/pull/17469#issuecomment-553833515",
    "issue_url": "https://api.github.com/repos/bitcoin/bitcoin/issues/17469",
    "id": 553833515,
    "node_id": "MDEyOklzc3VlQ29tbWVudDU1MzgzMzUxNQ==",
    "user": {
      "login": "practicalswift",
      "id": 7826565,
      "node_id": "MDQ6VXNlcjc4MjY1NjU=",
      "avatar_url": "https://avatars.githubusercontent.com/u/7826565?v=4",
      "gravatar_id": "",
      "url": "https://api.github.com/users/practicalswift",
      "html_url": "https://github.com/practicalswift",
      "followers_url": "https://api.github.com/users/practicalswift/followers",
      "following_url": "https://api.github.com/users/practicalswift/following{/other_user}",
      "gists_url": "https://api.github.com/users/practicalswift/gists{/gist_id}",
      "starred_url": "https://api.github.com/users/practicalswift/starred{/owner}{/repo}",
      "subscriptions_url": "https://api.github.com/users/practicalswift/subscriptions",
      "organizations_url": "https://api.github.com/users/practicalswift/orgs",
      "repos_url": "https://api.github.com/users/practicalswift/repos",
      "events_url": "https://api.github.com/users/practicalswift/events{/privacy}",
      "received_events_url": "https://api.github.com/users/practicalswift/received_events",
      "type": "User",
      "site_admin": false
    },
    "created_at": "2019-11-14T10:49:54Z",
    "updated_at": "2019-11-14T10:49:54Z",
    "author_association": "CONTRIBUTOR",
    "body_html": "<p dir=\"auto\">ACK <a class=\"commit-link\" data-hovercard-type=\"commit\" data-hovercard-url=\"https://github.com/bitcoin/bitcoin/commit/fadeb41fcce084c95fe29a9cb85a5df3c7df3cf1/hovercard\" href=\"https://github.com/bitcoin/bitcoin/commit/fadeb41fcce084c95fe29a9cb85a5df3c7df3cf1\"><tt>fadeb41</tt></a> -- diff looks good and Travis is happy</p>\n<p dir=\"auto\">Thanks for working on this</p>",
    "body_text": "ACK fadeb41 -- diff looks good and Travis is happy\nThanks for working on this",
    "body": "ACK fadeb41fcce084c95fe29a9cb85a5df3c7df3cf1 -- diff looks good and Travis is happy\r\n\r\nThanks for working on this",
    "reactions": {
      "url": "https://api.github.com/repos/bitcoin/bitcoin/issues/comments/553833515/reactions",
      "total_count": 0,
      "+1": 0,
      "-1": 0,
      "laugh": 0,
      "hooray": 0,
      "confused": 0,
      "heart": 0,
      "rocket": 0,
      "eyes": 0
    },
    "performed_via_github_app": null
  },
  {
    "url": "https://api.github.com/repos/bitcoin/bitcoin/issues/comments/553949126",
    "html_url": "https://github.com/bitcoin/bitcoin/pull/17469#issuecomment-553949126",
    "issue_url": "https://api.github.com/repos/bitcoin/bitcoin/issues/17469",
    "id": 553949126,
    "node_id": "MDEyOklzc3VlQ29tbWVudDU1Mzk0OTEyNg==",
    "user": {
      "login": "laanwj",
      "id": 126646,
      "node_id": "MDQ6VXNlcjEyNjY0Ng==",
      "avatar_url": "https://avatars.githubusercontent.com/u/126646?v=4",
      "gravatar_id": "",
      "url": "https://api.github.com/users/laanwj",
      "html_url": "https://github.com/laanwj",
      "followers_url": "https://api.github.com/users/laanwj/followers",
      "following_url": "https://api.github.com/users/laanwj/following{/other_user}",
      "gists_url": "https://api.github.com/users/laanwj/gists{/gist_id}",
      "starred_url": "https://api.github.com/users/laanwj/starred{/owner}{/repo}",
      "subscriptions_url": "https://api.github.com/users/laanwj/subscriptions",
      "organizations_url": "https://api.github.com/users/laanwj/orgs",
      "repos_url": "https://api.github.com/users/laanwj/repos",
      "events_url": "https://api.github.com/users/laanwj/events{/privacy}",
      "received_events_url": "https://api.github.com/users/laanwj/received_events",
      "type": "User",
      "site_admin": false
    },
    "created_at": "2019-11-14T15:51:23Z",
    "updated_at": "2019-11-14T15:52:41Z",
    "author_association": "MEMBER",
    "body_html": "<p dir=\"auto\">ACK, maybe remove the definition of <code class=\"notranslate\">assert_memory_usage_stable</code> in <code class=\"notranslate\">test_node.py</code> as well (and <code class=\"notranslate\">get_mem_rss_kilobytes</code>) as this is the only use.</p>",
    "body_text": "ACK, maybe remove the definition of assert_memory_usage_stable in test_node.py as well (and get_mem_rss_kilobytes) as this is the only use.",
    "body": "ACK, maybe remove the definition of `assert_memory_usage_stable` in `test_node.py` as well (and `get_mem_rss_kilobytes`) as this is the only use.",
    "reactions": {
      "url": "https://api.github.com/repos/bitcoin/bitcoin/issues/comments/553949126/reactions",
      "total_count": 1,
      "+1": 1,
      "-1": 0,
      "laugh": 0,
      "hooray": 0,
      "confused": 0,
      "heart": 0,
      "rocket": 0,
      "eyes": 0
    },
    "performed_via_github_app": null
  },
  {
    "url": "https://api.github.com/repos/bitcoin/bitcoin/issues/comments/553950297",
    "html_url": "https://github.com/bitcoin/bitcoin/pull/17469#issuecomment-553950297",
    "issue_url": "https://api.github.com/repos/bitcoin/bitcoin/issues/17469",
    "id": 553950297,
    "node_id": "MDEyOklzc3VlQ29tbWVudDU1Mzk1MDI5Nw==",
    "user": {
      "login": "jamesob",
      "id": 73197,
      "node_id": "MDQ6VXNlcjczMTk3",
      "avatar_url": "https://avatars.githubusercontent.com/u/73197?v=4",
      "gravatar_id": "",
      "url": "https://api.github.com/users/jamesob",
      "html_url": "https://github.com/jamesob",
      "followers_url": "https://api.github.com/users/jamesob/followers",
      "following_url": "https://api.github.com/users/jamesob/following{/other_user}",
      "gists_url": "https://api.github.com/users/jamesob/gists{/gist_id}",
      "starred_url": "https://api.github.com/users/jamesob/starred{/owner}{/repo}",
      "subscriptions_url": "https://api.github.com/users/jamesob/subscriptions",
      "organizations_url": "https://api.github.com/users/jamesob/orgs",
      "repos_url": "https://api.github.com/users/jamesob/repos",
      "events_url": "https://api.github.com/users/jamesob/events{/privacy}",
      "received_events_url": "https://api.github.com/users/jamesob/received_events",
      "type": "User",
      "site_admin": false
    },
    "created_at": "2019-11-14T15:53:52Z",
    "updated_at": "2019-11-14T15:53:52Z",
    "author_association": "MEMBER",
    "body_html": "<p dir=\"auto\">Concept ACK. RIP.</p>",
    "body_text": "Concept ACK. RIP.",
    "body": "Concept ACK. RIP.",
    "reactions": {
      "url": "https://api.github.com/repos/bitcoin/bitcoin/issues/comments/553950297/reactions",
      "total_count": 0,
      "+1": 0,
      "-1": 0,
      "laugh": 0,
      "hooray": 0,
      "confused": 0,
      "heart": 0,
      "rocket": 0,
      "eyes": 0
    },
    "performed_via_github_app": null
  },
  {
    "url": "https://api.github.com/repos/bitcoin/bitcoin/issues/comments/553950801",
    "html_url": "https://github.com/bitcoin/bitcoin/pull/17469#issuecomment-553950801",
    "issue_url": "https://api.github.com/repos/bitcoin/bitcoin/issues/17469",
    "id": 553950801,
    "node_id": "MDEyOklzc3VlQ29tbWVudDU1Mzk1MDgwMQ==",
    "user": {
      "login": "maflcko",
      "id": 6399679,
      "node_id": "MDQ6VXNlcjYzOTk2Nzk=",
      "avatar_url": "https://avatars.githubusercontent.com/u/6399679?v=4",
      "gravatar_id": "",
      "url": "https://api.github.com/users/maflcko",
      "html_url": "https://github.com/maflcko",
      "followers_url": "https://api.github.com/users/maflcko/followers",
      "following_url": "https://api.github.com/users/maflcko/following{/other_user}",
      "gists_url": "https://api.github.com/users/maflcko/gists{/gist_id}",
      "starred_url": "https://api.github.com/users/maflcko/starred{/owner}{/repo}",
      "subscriptions_url": "https://api.github.com/users/maflcko/subscriptions",
      "organizations_url": "https://api.github.com/users/maflcko/orgs",
      "repos_url": "https://api.github.com/users/maflcko/repos",
      "events_url": "https://api.github.com/users/maflcko/events{/privacy}",
      "received_events_url": "https://api.github.com/users/maflcko/received_events",
      "type": "User",
      "site_admin": false
    },
    "created_at": "2019-11-14T15:54:59Z",
    "updated_at": "2019-11-14T15:54:59Z",
    "author_association": "MEMBER",
    "body_html": "<p dir=\"auto\">I wasn't sure if <a class=\"user-mention notranslate\" data-hovercard-type=\"user\" data-hovercard-url=\"/users/jamesob/hovercard\" data-octo-click=\"hovercard-link-click\" data-octo-dimensions=\"link_type:self\" href=\"https://github.com/jamesob\">@jamesob</a> was using it for some projects, but I interpret the reply as \"no\", so going to remove the <code class=\"notranslate\">assert_memory_usage_stable</code> as well.</p>",
    "body_text": "I wasn't sure if @jamesob was using it for some projects, but I interpret the reply as \"no\", so going to remove the assert_memory_usage_stable as well.",
    "body": "I wasn't sure if @jamesob was using it for some projects, but I interpret the reply as \"no\", so going to remove the `assert_memory_usage_stable` as well.",
    "reactions": {
      "url": "https://api.github.com/repos/bitcoin/bitcoin/issues/comments/553950801/reactions",
      "total_count": 0,
      "+1": 0,
      "-1": 0,
      "laugh": 0,
      "hooray": 0,
      "confused": 0,
      "heart": 0,
      "rocket": 0,
      "eyes": 0
    },
    "performed_via_github_app": null
  },
  {
    "url": "https://api.github.com/repos/bitcoin/bitcoin/issues/comments/553951095",
    "html_url": "https://github.com/bitcoin/bitcoin/pull/17469#issuecomment-553951095",
    "issue_url": "https://api.github.com/repos/bitcoin/bitcoin/issues/17469",
    "id": 553951095,
    "node_id": "MDEyOklzc3VlQ29tbWVudDU1Mzk1MTA5NQ==",
    "user": {
      "login": "jamesob",
      "id": 73197,
      "node_id": "MDQ6VXNlcjczMTk3",
      "avatar_url": "https://avatars.githubusercontent.com/u/73197?v=4",
      "gravatar_id": "",
      "url": "https://api.github.com/users/jamesob",
      "html_url": "https://github.com/jamesob",
      "followers_url": "https://api.github.com/users/jamesob/followers",
      "following_url": "https://api.github.com/users/jamesob/following{/other_user}",
      "gists_url": "https://api.github.com/users/jamesob/gists{/gist_id}",
      "starred_url": "https://api.github.com/users/jamesob/starred{/owner}{/repo}",
      "subscriptions_url": "https://api.github.com/users/jamesob/subscriptions",
      "organizations_url": "https://api.github.com/users/jamesob/orgs",
      "repos_url": "https://api.github.com/users/jamesob/repos",
      "events_url": "https://api.github.com/users/jamesob/events{/privacy}",
      "received_events_url": "https://api.github.com/users/jamesob/received_events",
      "type": "User",
      "site_admin": false
    },
    "created_at": "2019-11-14T15:55:41Z",
    "updated_at": "2019-11-14T15:55:41Z",
    "author_association": "MEMBER",
    "body_html": "<p dir=\"auto\">FWIW I think this is a totally appropriate assertion for a functional test, since it's the highest-level suite of tests we have, and ensuring sane memory use is a feature of the system, but if we can't do it reliably across platform then we should either not do it on unreliable platforms or remove it entirely. My preference would be for the former, but if other people don't want to maintain this then I won't complain.</p>",
    "body_text": "FWIW I think this is a totally appropriate assertion for a functional test, since it's the highest-level suite of tests we have, and ensuring sane memory use is a feature of the system, but if we can't do it reliably across platform then we should either not do it on unreliable platforms or remove it entirely. My preference would be for the former, but if other people don't want to maintain this then I won't complain.",
    "body": "FWIW I think this is a totally appropriate assertion for a functional test, since it's the highest-level suite of tests we have, and ensuring sane memory use is a feature of the system, but if we can't do it reliably across platform then we should either not do it on unreliable platforms or remove it entirely. My preference would be for the former, but if other people don't want to maintain this then I won't complain.",
    "reactions": {
      "url": "https://api.github.com/repos/bitcoin/bitcoin/issues/comments/553951095/reactions",
      "total_count": 0,
      "+1": 0,
      "-1": 0,
      "laugh": 0,
      "hooray": 0,
      "confused": 0,
      "heart": 0,
      "rocket": 0,
      "eyes": 0
    },
    "performed_via_github_app": null
  },
  {
    "url": "https://api.github.com/repos/bitcoin/bitcoin/issues/comments/553953593",
    "html_url": "https://github.com/bitcoin/bitcoin/pull/17469#issuecomment-553953593",
    "issue_url": "https://api.github.com/repos/bitcoin/bitcoin/issues/17469",
    "id": 553953593,
    "node_id": "MDEyOklzc3VlQ29tbWVudDU1Mzk1MzU5Mw==",
    "user": {
      "login": "laanwj",
      "id": 126646,
      "node_id": "MDQ6VXNlcjEyNjY0Ng==",
      "avatar_url": "https://avatars.githubusercontent.com/u/126646?v=4",
      "gravatar_id": "",
      "url": "https://api.github.com/users/laanwj",
      "html_url": "https://github.com/laanwj",
      "followers_url": "https://api.github.com/users/laanwj/followers",
      "following_url": "https://api.github.com/users/laanwj/following{/other_user}",
      "gists_url": "https://api.github.com/users/laanwj/gists{/gist_id}",
      "starred_url": "https://api.github.com/users/laanwj/starred{/owner}{/repo}",
      "subscriptions_url": "https://api.github.com/users/laanwj/subscriptions",
      "organizations_url": "https://api.github.com/users/laanwj/orgs",
      "repos_url": "https://api.github.com/users/laanwj/repos",
      "events_url": "https://api.github.com/users/laanwj/events{/privacy}",
      "received_events_url": "https://api.github.com/users/laanwj/received_events",
      "type": "User",
      "site_admin": false
    },
    "created_at": "2019-11-14T16:00:52Z",
    "updated_at": "2019-11-14T16:16:59Z",
    "author_association": "MEMBER",
    "body_html": "<p dir=\"auto\">In theory I agree, in practice a modern OS is so complex with so much going on in the background, that deterministically testing memory use seems to be impossible. It's the same as for timing tests. Sure, this can be done in a controlled environment, but not Travis and definitely not with parallelism of many.<br>\n(Edit: it'd probably work better with some LD_PRELOAD library that tracked malloc/free instead of parsing <code class=\"notranslate\">ps</code> RSS output. But anyhow, if anyone wants to do that kinds of test in the future they can.)</p>",
    "body_text": "In theory I agree, in practice a modern OS is so complex with so much going on in the background, that deterministically testing memory use seems to be impossible. It's the same as for timing tests. Sure, this can be done in a controlled environment, but not Travis and definitely not with parallelism of many.\n(Edit: it'd probably work better with some LD_PRELOAD library that tracked malloc/free instead of parsing ps RSS output. But anyhow, if anyone wants to do that kinds of test in the future they can.)",
    "body": "In theory I agree, in practice a modern OS is so complex with so much going on in the background, that deterministically testing memory use seems to be impossible. It's the same as for timing tests. Sure, this can be done in a controlled environment, but not Travis and definitely not with parallelism of many.\r\n(Edit: it'd probably work better with some LD_PRELOAD library that tracked malloc/free instead of parsing `ps` RSS output. But anyhow, if anyone wants to do that kinds of test in the future they can.)",
    "reactions": {
      "url": "https://api.github.com/repos/bitcoin/bitcoin/issues/comments/553953593/reactions",
      "total_count": 0,
      "+1": 0,
      "-1": 0,
      "laugh": 0,
      "hooray": 0,
      "confused": 0,
      "heart": 0,
      "rocket": 0,
      "eyes": 0
    },
    "performed_via_github_app": null
  },
  {
    "url": "https://api.github.com/repos/bitcoin/bitcoin/issues/comments/553954770",
    "html_url": "https://github.com/bitcoin/bitcoin/pull/17469#issuecomment-553954770",
    "issue_url": "https://api.github.com/repos/bitcoin/bitcoin/issues/17469",
    "id": 553954770,
    "node_id": "MDEyOklzc3VlQ29tbWVudDU1Mzk1NDc3MA==",
    "user": {
      "login": "maflcko",
      "id": 6399679,
      "node_id": "MDQ6VXNlcjYzOTk2Nzk=",
      "avatar_url": "https://avatars.githubusercontent.com/u/6399679?v=4",
      "gravatar_id": "",
      "url": "https://api.github.com/users/maflcko",
      "html_url": "https://github.com/maflcko",
      "followers_url": "https://api.github.com/users/maflcko/followers",
      "following_url": "https://api.github.com/users/maflcko/following{/other_user}",
      "gists_url": "https://api.github.com/users/maflcko/gists{/gist_id}",
      "starred_url": "https://api.github.com/users/maflcko/starred{/owner}{/repo}",
      "subscriptions_url": "https://api.github.com/users/maflcko/subscriptions",
      "organizations_url": "https://api.github.com/users/maflcko/orgs",
      "repos_url": "https://api.github.com/users/maflcko/repos",
      "events_url": "https://api.github.com/users/maflcko/events{/privacy}",
      "received_events_url": "https://api.github.com/users/maflcko/received_events",
      "type": "User",
      "site_admin": false
    },
    "created_at": "2019-11-14T16:03:22Z",
    "updated_at": "2019-11-14T16:03:22Z",
    "author_association": "MEMBER",
    "body_html": "<p dir=\"auto\">I think the check itself is useful, but the limitations of the functional test framework make it almost useless in practice. The current status of this tests is: Running for twelve months, not a single reproducible failure.</p>\n<p dir=\"auto\">I think this can be implemented as a fuzz test, making it more powerful, useful and easier to debug in case of failure.</p>",
    "body_text": "I think the check itself is useful, but the limitations of the functional test framework make it almost useless in practice. The current status of this tests is: Running for twelve months, not a single reproducible failure.\nI think this can be implemented as a fuzz test, making it more powerful, useful and easier to debug in case of failure.",
    "body": "I think the check itself is useful, but the limitations of the functional test framework make it almost useless in practice. The current status of this tests is: Running for twelve months, not a single reproducible failure.\r\n\r\nI think this can be implemented as a fuzz test, making it more powerful, useful and easier to debug in case of failure.",
    "reactions": {
      "url": "https://api.github.com/repos/bitcoin/bitcoin/issues/comments/553954770/reactions",
      "total_count": 0,
      "+1": 0,
      "-1": 0,
      "laugh": 0,
      "hooray": 0,
      "confused": 0,
      "heart": 0,
      "rocket": 0,
      "eyes": 0
    },
    "performed_via_github_app": null
  }
]
