[
  {
    "url": "https://api.github.com/repos/bitcoin/bitcoin/issues/comments/660593244",
    "html_url": "https://github.com/bitcoin/bitcoin/pull/19551#issuecomment-660593244",
    "issue_url": "https://api.github.com/repos/bitcoin/bitcoin/issues/19551",
    "id": 660593244,
    "node_id": "MDEyOklzc3VlQ29tbWVudDY2MDU5MzI0NA==",
    "user": {
      "login": "maflcko",
      "id": 6399679,
      "node_id": "MDQ6VXNlcjYzOTk2Nzk=",
      "avatar_url": "https://avatars.githubusercontent.com/u/6399679?v=4",
      "gravatar_id": "",
      "url": "https://api.github.com/users/maflcko",
      "html_url": "https://github.com/maflcko",
      "followers_url": "https://api.github.com/users/maflcko/followers",
      "following_url": "https://api.github.com/users/maflcko/following{/other_user}",
      "gists_url": "https://api.github.com/users/maflcko/gists{/gist_id}",
      "starred_url": "https://api.github.com/users/maflcko/starred{/owner}{/repo}",
      "subscriptions_url": "https://api.github.com/users/maflcko/subscriptions",
      "organizations_url": "https://api.github.com/users/maflcko/orgs",
      "repos_url": "https://api.github.com/users/maflcko/repos",
      "events_url": "https://api.github.com/users/maflcko/events{/privacy}",
      "received_events_url": "https://api.github.com/users/maflcko/received_events",
      "type": "User",
      "site_admin": false
    },
    "created_at": "2020-07-19T06:00:15Z",
    "updated_at": "2020-07-19T06:00:15Z",
    "author_association": "MEMBER",
    "body_html": "<p dir=\"auto\">ACK either way</p>\n<p dir=\"auto\">cc <a class=\"user-mention notranslate\" data-hovercard-type=\"user\" data-hovercard-url=\"/users/practicalswift/hovercard\" data-octo-click=\"hovercard-link-click\" data-octo-dimensions=\"link_type:self\" href=\"https://github.com/practicalswift\">@practicalswift</a></p>",
    "body_text": "ACK either way\ncc @practicalswift",
    "body": "ACK either way\r\n\r\ncc @practicalswift ",
    "reactions": {
      "url": "https://api.github.com/repos/bitcoin/bitcoin/issues/comments/660593244/reactions",
      "total_count": 0,
      "+1": 0,
      "-1": 0,
      "laugh": 0,
      "hooray": 0,
      "confused": 0,
      "heart": 0,
      "rocket": 0,
      "eyes": 0
    },
    "performed_via_github_app": null
  },
  {
    "url": "https://api.github.com/repos/bitcoin/bitcoin/issues/comments/660596400",
    "html_url": "https://github.com/bitcoin/bitcoin/pull/19551#issuecomment-660596400",
    "issue_url": "https://api.github.com/repos/bitcoin/bitcoin/issues/19551",
    "id": 660596400,
    "node_id": "MDEyOklzc3VlQ29tbWVudDY2MDU5NjQwMA==",
    "user": {
      "login": "jonatack",
      "id": 2415484,
      "node_id": "MDQ6VXNlcjI0MTU0ODQ=",
      "avatar_url": "https://avatars.githubusercontent.com/u/2415484?v=4",
      "gravatar_id": "",
      "url": "https://api.github.com/users/jonatack",
      "html_url": "https://github.com/jonatack",
      "followers_url": "https://api.github.com/users/jonatack/followers",
      "following_url": "https://api.github.com/users/jonatack/following{/other_user}",
      "gists_url": "https://api.github.com/users/jonatack/gists{/gist_id}",
      "starred_url": "https://api.github.com/users/jonatack/starred{/owner}{/repo}",
      "subscriptions_url": "https://api.github.com/users/jonatack/subscriptions",
      "organizations_url": "https://api.github.com/users/jonatack/orgs",
      "repos_url": "https://api.github.com/users/jonatack/repos",
      "events_url": "https://api.github.com/users/jonatack/events{/privacy}",
      "received_events_url": "https://api.github.com/users/jonatack/received_events",
      "type": "User",
      "site_admin": false
    },
    "created_at": "2020-07-19T06:33:01Z",
    "updated_at": "2020-07-19T06:33:01Z",
    "author_association": "CONTRIBUTOR",
    "body_html": "<p dir=\"auto\">Thank <a class=\"user-mention notranslate\" data-hovercard-type=\"user\" data-hovercard-url=\"/users/MarcoFalke/hovercard\" data-octo-click=\"hovercard-link-click\" data-octo-dimensions=\"link_type:self\" href=\"https://github.com/MarcoFalke\">@MarcoFalke</a>, updated with your feedback.</p>",
    "body_text": "Thank @MarcoFalke, updated with your feedback.",
    "body": "Thank @MarcoFalke, updated with your feedback.",
    "reactions": {
      "url": "https://api.github.com/repos/bitcoin/bitcoin/issues/comments/660596400/reactions",
      "total_count": 0,
      "+1": 0,
      "-1": 0,
      "laugh": 0,
      "hooray": 0,
      "confused": 0,
      "heart": 0,
      "rocket": 0,
      "eyes": 0
    },
    "performed_via_github_app": null
  },
  {
    "url": "https://api.github.com/repos/bitcoin/bitcoin/issues/comments/660596525",
    "html_url": "https://github.com/bitcoin/bitcoin/pull/19551#issuecomment-660596525",
    "issue_url": "https://api.github.com/repos/bitcoin/bitcoin/issues/19551",
    "id": 660596525,
    "node_id": "MDEyOklzc3VlQ29tbWVudDY2MDU5NjUyNQ==",
    "user": {
      "login": "maflcko",
      "id": 6399679,
      "node_id": "MDQ6VXNlcjYzOTk2Nzk=",
      "avatar_url": "https://avatars.githubusercontent.com/u/6399679?v=4",
      "gravatar_id": "",
      "url": "https://api.github.com/users/maflcko",
      "html_url": "https://github.com/maflcko",
      "followers_url": "https://api.github.com/users/maflcko/followers",
      "following_url": "https://api.github.com/users/maflcko/following{/other_user}",
      "gists_url": "https://api.github.com/users/maflcko/gists{/gist_id}",
      "starred_url": "https://api.github.com/users/maflcko/starred{/owner}{/repo}",
      "subscriptions_url": "https://api.github.com/users/maflcko/subscriptions",
      "organizations_url": "https://api.github.com/users/maflcko/orgs",
      "repos_url": "https://api.github.com/users/maflcko/repos",
      "events_url": "https://api.github.com/users/maflcko/events{/privacy}",
      "received_events_url": "https://api.github.com/users/maflcko/received_events",
      "type": "User",
      "site_admin": false
    },
    "created_at": "2020-07-19T06:34:28Z",
    "updated_at": "2020-07-19T06:34:28Z",
    "author_association": "MEMBER",
    "body_html": "<p dir=\"auto\">review re-ACK <a class=\"commit-link\" data-hovercard-type=\"commit\" data-hovercard-url=\"https://github.com/bitcoin/bitcoin/commit/1cdc2a642b8b5dab7a830b5d7262add5363400db/hovercard\" href=\"https://github.com/bitcoin/bitcoin/commit/1cdc2a642b8b5dab7a830b5d7262add5363400db\"><tt>1cdc2a6</tt></a></p>",
    "body_text": "review re-ACK 1cdc2a6",
    "body": "review re-ACK 1cdc2a642b8b5dab7a830b5d7262add5363400db",
    "reactions": {
      "url": "https://api.github.com/repos/bitcoin/bitcoin/issues/comments/660596525/reactions",
      "total_count": 0,
      "+1": 0,
      "-1": 0,
      "laugh": 0,
      "hooray": 0,
      "confused": 0,
      "heart": 0,
      "rocket": 0,
      "eyes": 0
    },
    "performed_via_github_app": null
  },
  {
    "url": "https://api.github.com/repos/bitcoin/bitcoin/issues/comments/660602329",
    "html_url": "https://github.com/bitcoin/bitcoin/pull/19551#issuecomment-660602329",
    "issue_url": "https://api.github.com/repos/bitcoin/bitcoin/issues/19551",
    "id": 660602329,
    "node_id": "MDEyOklzc3VlQ29tbWVudDY2MDYwMjMyOQ==",
    "user": {
      "login": "practicalswift",
      "id": 7826565,
      "node_id": "MDQ6VXNlcjc4MjY1NjU=",
      "avatar_url": "https://avatars.githubusercontent.com/u/7826565?v=4",
      "gravatar_id": "",
      "url": "https://api.github.com/users/practicalswift",
      "html_url": "https://github.com/practicalswift",
      "followers_url": "https://api.github.com/users/practicalswift/followers",
      "following_url": "https://api.github.com/users/practicalswift/following{/other_user}",
      "gists_url": "https://api.github.com/users/practicalswift/gists{/gist_id}",
      "starred_url": "https://api.github.com/users/practicalswift/starred{/owner}{/repo}",
      "subscriptions_url": "https://api.github.com/users/practicalswift/subscriptions",
      "organizations_url": "https://api.github.com/users/practicalswift/orgs",
      "repos_url": "https://api.github.com/users/practicalswift/repos",
      "events_url": "https://api.github.com/users/practicalswift/events{/privacy}",
      "received_events_url": "https://api.github.com/users/practicalswift/received_events",
      "type": "User",
      "site_admin": false
    },
    "created_at": "2020-07-19T07:31:07Z",
    "updated_at": "2020-07-19T07:31:07Z",
    "author_association": "CONTRIBUTOR",
    "body_html": "<p dir=\"auto\">ACK <a class=\"commit-link\" data-hovercard-type=\"commit\" data-hovercard-url=\"https://github.com/bitcoin/bitcoin/commit/1cdc2a642b8b5dab7a830b5d7262add5363400db/hovercard\" href=\"https://github.com/bitcoin/bitcoin/commit/1cdc2a642b8b5dab7a830b5d7262add5363400db\"><tt>1cdc2a6</tt></a></p>\n<p dir=\"auto\">Thanks for fixing :)</p>",
    "body_text": "ACK 1cdc2a6\nThanks for fixing :)",
    "body": "ACK 1cdc2a642b8b5dab7a830b5d7262add5363400db\r\n\r\nThanks for fixing :)",
    "reactions": {
      "url": "https://api.github.com/repos/bitcoin/bitcoin/issues/comments/660602329/reactions",
      "total_count": 0,
      "+1": 0,
      "-1": 0,
      "laugh": 0,
      "hooray": 0,
      "confused": 0,
      "heart": 0,
      "rocket": 0,
      "eyes": 0
    },
    "performed_via_github_app": null
  }
]
