[
  {
    "url": "https://api.github.com/repos/bitcoin/bitcoin/issues/comments/311810774",
    "html_url": "https://github.com/bitcoin/bitcoin/issues/10693#issuecomment-311810774",
    "issue_url": "https://api.github.com/repos/bitcoin/bitcoin/issues/10693",
    "id": 311810774,
    "node_id": "MDEyOklzc3VlQ29tbWVudDMxMTgxMDc3NA==",
    "user": {
      "login": "sipa",
      "id": 548488,
      "node_id": "MDQ6VXNlcjU0ODQ4OA==",
      "avatar_url": "https://avatars.githubusercontent.com/u/548488?v=4",
      "gravatar_id": "",
      "url": "https://api.github.com/users/sipa",
      "html_url": "https://github.com/sipa",
      "followers_url": "https://api.github.com/users/sipa/followers",
      "following_url": "https://api.github.com/users/sipa/following{/other_user}",
      "gists_url": "https://api.github.com/users/sipa/gists{/gist_id}",
      "starred_url": "https://api.github.com/users/sipa/starred{/owner}{/repo}",
      "subscriptions_url": "https://api.github.com/users/sipa/subscriptions",
      "organizations_url": "https://api.github.com/users/sipa/orgs",
      "repos_url": "https://api.github.com/users/sipa/repos",
      "events_url": "https://api.github.com/users/sipa/events{/privacy}",
      "received_events_url": "https://api.github.com/users/sipa/received_events",
      "type": "User",
      "site_admin": false
    },
    "created_at": "2017-06-28T22:31:55Z",
    "updated_at": "2017-06-28T22:31:55Z",
    "author_association": "MEMBER",
    "body_html": "<p dir=\"auto\">So in general this problem is not solvable: LevelDB will use a large amount of memory when reading in a large number of changes that were just written before shutdown. In particular a flush with large -dbcache may result in a temporary spike at startup afterwards when LevelDB converts the log into a table.</p>",
    "body_text": "So in general this problem is not solvable: LevelDB will use a large amount of memory when reading in a large number of changes that were just written before shutdown. In particular a flush with large -dbcache may result in a temporary spike at startup afterwards when LevelDB converts the log into a table.",
    "body": "So in general this problem is not solvable: LevelDB will use a large amount of memory when reading in a large number of changes that were just written before shutdown. In particular a flush with large -dbcache may result in a temporary spike at startup afterwards when LevelDB converts the log into a table.",
    "reactions": {
      "url": "https://api.github.com/repos/bitcoin/bitcoin/issues/comments/311810774/reactions",
      "total_count": 1,
      "+1": 1,
      "-1": 0,
      "laugh": 0,
      "hooray": 0,
      "confused": 0,
      "heart": 0,
      "rocket": 0,
      "eyes": 0
    },
    "performed_via_github_app": null
  }
]
