[
  {
    "url": "https://api.github.com/repos/bitcoin/bitcoin/issues/comments/242761858",
    "html_url": "https://github.com/bitcoin/bitcoin/pull/8604#issuecomment-242761858",
    "issue_url": "https://api.github.com/repos/bitcoin/bitcoin/issues/8604",
    "id": 242761858,
    "node_id": "MDEyOklzc3VlQ29tbWVudDI0Mjc2MTg1OA==",
    "user": {
      "login": "laanwj",
      "id": 126646,
      "node_id": "MDQ6VXNlcjEyNjY0Ng==",
      "avatar_url": "https://avatars.githubusercontent.com/u/126646?v=4",
      "gravatar_id": "",
      "url": "https://api.github.com/users/laanwj",
      "html_url": "https://github.com/laanwj",
      "followers_url": "https://api.github.com/users/laanwj/followers",
      "following_url": "https://api.github.com/users/laanwj/following{/other_user}",
      "gists_url": "https://api.github.com/users/laanwj/gists{/gist_id}",
      "starred_url": "https://api.github.com/users/laanwj/starred{/owner}{/repo}",
      "subscriptions_url": "https://api.github.com/users/laanwj/subscriptions",
      "organizations_url": "https://api.github.com/users/laanwj/orgs",
      "repos_url": "https://api.github.com/users/laanwj/repos",
      "events_url": "https://api.github.com/users/laanwj/events{/privacy}",
      "received_events_url": "https://api.github.com/users/laanwj/received_events",
      "type": "User",
      "site_admin": false
    },
    "created_at": "2016-08-26T15:07:41Z",
    "updated_at": "2016-08-26T15:27:25Z",
    "author_association": "MEMBER",
    "body_html": "<p dir=\"auto\"><a class=\"user-mention notranslate\" data-hovercard-type=\"user\" data-hovercard-url=\"/users/theuni/hovercard\" data-octo-click=\"hovercard-link-click\" data-octo-dimensions=\"link_type:self\" href=\"https://github.com/theuni\">@theuni</a> can you take a look at the build system changes?</p>",
    "body_text": "@theuni can you take a look at the build system changes?",
    "body": "@theuni can you take a look at the build system changes?\n",
    "reactions": {
      "url": "https://api.github.com/repos/bitcoin/bitcoin/issues/comments/242761858/reactions",
      "total_count": 0,
      "+1": 0,
      "-1": 0,
      "laugh": 0,
      "hooray": 0,
      "confused": 0,
      "heart": 0,
      "rocket": 0,
      "eyes": 0
    },
    "performed_via_github_app": null
  },
  {
    "url": "https://api.github.com/repos/bitcoin/bitcoin/issues/comments/242927453",
    "html_url": "https://github.com/bitcoin/bitcoin/pull/8604#issuecomment-242927453",
    "issue_url": "https://api.github.com/repos/bitcoin/bitcoin/issues/8604",
    "id": 242927453,
    "node_id": "MDEyOklzc3VlQ29tbWVudDI0MjkyNzQ1Mw==",
    "user": {
      "login": "paveljanik",
      "id": 6848764,
      "node_id": "MDQ6VXNlcjY4NDg3NjQ=",
      "avatar_url": "https://avatars.githubusercontent.com/u/6848764?v=4",
      "gravatar_id": "",
      "url": "https://api.github.com/users/paveljanik",
      "html_url": "https://github.com/paveljanik",
      "followers_url": "https://api.github.com/users/paveljanik/followers",
      "following_url": "https://api.github.com/users/paveljanik/following{/other_user}",
      "gists_url": "https://api.github.com/users/paveljanik/gists{/gist_id}",
      "starred_url": "https://api.github.com/users/paveljanik/starred{/owner}{/repo}",
      "subscriptions_url": "https://api.github.com/users/paveljanik/subscriptions",
      "organizations_url": "https://api.github.com/users/paveljanik/orgs",
      "repos_url": "https://api.github.com/users/paveljanik/repos",
      "events_url": "https://api.github.com/users/paveljanik/events{/privacy}",
      "received_events_url": "https://api.github.com/users/paveljanik/received_events",
      "type": "User",
      "site_admin": false
    },
    "created_at": "2016-08-27T16:41:12Z",
    "updated_at": "2016-08-27T16:41:12Z",
    "author_association": "CONTRIBUTOR",
    "body_html": "<p dir=\"auto\">utACK <a class=\"commit-link\" data-hovercard-type=\"commit\" data-hovercard-url=\"https://github.com/bitcoin/bitcoin/commit/b96fd9b5a009355cd0bd97ac921e62cd397bbc9a/hovercard\" href=\"https://github.com/bitcoin/bitcoin/commit/b96fd9b5a009355cd0bd97ac921e62cd397bbc9a\"><tt>b96fd9b</tt></a></p>",
    "body_text": "utACK b96fd9b",
    "body": "utACK https://github.com/bitcoin/bitcoin/pull/8604/commits/b96fd9b5a009355cd0bd97ac921e62cd397bbc9a\n",
    "reactions": {
      "url": "https://api.github.com/repos/bitcoin/bitcoin/issues/comments/242927453/reactions",
      "total_count": 0,
      "+1": 0,
      "-1": 0,
      "laugh": 0,
      "hooray": 0,
      "confused": 0,
      "heart": 0,
      "rocket": 0,
      "eyes": 0
    },
    "performed_via_github_app": null
  },
  {
    "url": "https://api.github.com/repos/bitcoin/bitcoin/issues/comments/243667857",
    "html_url": "https://github.com/bitcoin/bitcoin/pull/8604#issuecomment-243667857",
    "issue_url": "https://api.github.com/repos/bitcoin/bitcoin/issues/8604",
    "id": 243667857,
    "node_id": "MDEyOklzc3VlQ29tbWVudDI0MzY2Nzg1Nw==",
    "user": {
      "login": "fanquake",
      "id": 863730,
      "node_id": "MDQ6VXNlcjg2MzczMA==",
      "avatar_url": "https://avatars.githubusercontent.com/u/863730?v=4",
      "gravatar_id": "",
      "url": "https://api.github.com/users/fanquake",
      "html_url": "https://github.com/fanquake",
      "followers_url": "https://api.github.com/users/fanquake/followers",
      "following_url": "https://api.github.com/users/fanquake/following{/other_user}",
      "gists_url": "https://api.github.com/users/fanquake/gists{/gist_id}",
      "starred_url": "https://api.github.com/users/fanquake/starred{/owner}{/repo}",
      "subscriptions_url": "https://api.github.com/users/fanquake/subscriptions",
      "organizations_url": "https://api.github.com/users/fanquake/orgs",
      "repos_url": "https://api.github.com/users/fanquake/repos",
      "events_url": "https://api.github.com/users/fanquake/events{/privacy}",
      "received_events_url": "https://api.github.com/users/fanquake/received_events",
      "type": "User",
      "site_admin": false
    },
    "created_at": "2016-08-31T06:09:32Z",
    "updated_at": "2016-08-31T06:09:32Z",
    "author_association": "MEMBER",
    "body_html": "<p dir=\"auto\">Tested ACK compiled 0.13.0 + 6275123 on OpenBSD5.9</p>\n<p dir=\"auto\">Built with VirtualBox 5.1.4 on OS X 10.11 . Didn't check the Clang part.</p>\n<p dir=\"auto\">Needed the autogen.sh changes otherwise I saw the same issues as <a class=\"issue-link js-issue-link\" data-error-text=\"Failed to load title\" data-id=\"157532851\" data-permission-text=\"Title is private\" data-url=\"https://github.com/bitcoin/bitcoin/issues/8127\" data-hovercard-type=\"issue\" data-hovercard-url=\"/bitcoin/bitcoin/issues/8127/hovercard\" href=\"https://github.com/bitcoin/bitcoin/issues/8127\">#8127</a>, so that should be closed when this is merged.</p>",
    "body_text": "Tested ACK compiled 0.13.0 + 6275123 on OpenBSD5.9\nBuilt with VirtualBox 5.1.4 on OS X 10.11 . Didn't check the Clang part.\nNeeded the autogen.sh changes otherwise I saw the same issues as #8127, so that should be closed when this is merged.",
    "body": "Tested ACK compiled 0.13.0 + 6275123 on OpenBSD5.9\n\nBuilt with VirtualBox 5.1.4 on OS X 10.11 . Didn't check the Clang part.\n\nNeeded the autogen.sh changes otherwise I saw the same issues as #8127, so that should be closed when this is merged.\n",
    "reactions": {
      "url": "https://api.github.com/repos/bitcoin/bitcoin/issues/comments/243667857/reactions",
      "total_count": 0,
      "+1": 0,
      "-1": 0,
      "laugh": 0,
      "hooray": 0,
      "confused": 0,
      "heart": 0,
      "rocket": 0,
      "eyes": 0
    },
    "performed_via_github_app": null
  },
  {
    "url": "https://api.github.com/repos/bitcoin/bitcoin/issues/comments/243670104",
    "html_url": "https://github.com/bitcoin/bitcoin/pull/8604#issuecomment-243670104",
    "issue_url": "https://api.github.com/repos/bitcoin/bitcoin/issues/8604",
    "id": 243670104,
    "node_id": "MDEyOklzc3VlQ29tbWVudDI0MzY3MDEwNA==",
    "user": {
      "login": "theuni",
      "id": 417043,
      "node_id": "MDQ6VXNlcjQxNzA0Mw==",
      "avatar_url": "https://avatars.githubusercontent.com/u/417043?v=4",
      "gravatar_id": "",
      "url": "https://api.github.com/users/theuni",
      "html_url": "https://github.com/theuni",
      "followers_url": "https://api.github.com/users/theuni/followers",
      "following_url": "https://api.github.com/users/theuni/following{/other_user}",
      "gists_url": "https://api.github.com/users/theuni/gists{/gist_id}",
      "starred_url": "https://api.github.com/users/theuni/starred{/owner}{/repo}",
      "subscriptions_url": "https://api.github.com/users/theuni/subscriptions",
      "organizations_url": "https://api.github.com/users/theuni/orgs",
      "repos_url": "https://api.github.com/users/theuni/repos",
      "events_url": "https://api.github.com/users/theuni/events{/privacy}",
      "received_events_url": "https://api.github.com/users/theuni/received_events",
      "type": "User",
      "site_admin": false
    },
    "created_at": "2016-08-31T06:25:04Z",
    "updated_at": "2016-08-31T06:25:04Z",
    "author_association": "MEMBER",
    "body_html": "<p dir=\"auto\">utACK <a class=\"commit-link\" data-hovercard-type=\"commit\" data-hovercard-url=\"https://github.com/bitcoin/bitcoin/commit/6275123ce960172aeecfe087c8c0e303a216736a/hovercard\" href=\"https://github.com/bitcoin/bitcoin/commit/6275123ce960172aeecfe087c8c0e303a216736a\"><tt>6275123</tt></a>. Looks good to me.</p>",
    "body_text": "utACK 6275123. Looks good to me.",
    "body": "utACK 6275123ce960172aeecfe087c8c0e303a216736a. Looks good to me.\n",
    "reactions": {
      "url": "https://api.github.com/repos/bitcoin/bitcoin/issues/comments/243670104/reactions",
      "total_count": 0,
      "+1": 0,
      "-1": 0,
      "laugh": 0,
      "hooray": 0,
      "confused": 0,
      "heart": 0,
      "rocket": 0,
      "eyes": 0
    },
    "performed_via_github_app": null
  }
]
