[
  {
    "url": "https://api.github.com/repos/bitcoin/bitcoin/issues/comments/290667857",
    "html_url": "https://github.com/bitcoin/bitcoin/pull/10127#issuecomment-290667857",
    "issue_url": "https://api.github.com/repos/bitcoin/bitcoin/issues/10127",
    "id": 290667857,
    "node_id": "MDEyOklzc3VlQ29tbWVudDI5MDY2Nzg1Nw==",
    "user": {
      "login": "laanwj",
      "id": 126646,
      "node_id": "MDQ6VXNlcjEyNjY0Ng==",
      "avatar_url": "https://avatars.githubusercontent.com/u/126646?v=4",
      "gravatar_id": "",
      "url": "https://api.github.com/users/laanwj",
      "html_url": "https://github.com/laanwj",
      "followers_url": "https://api.github.com/users/laanwj/followers",
      "following_url": "https://api.github.com/users/laanwj/following{/other_user}",
      "gists_url": "https://api.github.com/users/laanwj/gists{/gist_id}",
      "starred_url": "https://api.github.com/users/laanwj/starred{/owner}{/repo}",
      "subscriptions_url": "https://api.github.com/users/laanwj/subscriptions",
      "organizations_url": "https://api.github.com/users/laanwj/orgs",
      "repos_url": "https://api.github.com/users/laanwj/repos",
      "events_url": "https://api.github.com/users/laanwj/events{/privacy}",
      "received_events_url": "https://api.github.com/users/laanwj/received_events",
      "type": "User",
      "site_admin": false
    },
    "created_at": "2017-03-31T09:42:07Z",
    "updated_at": "2017-03-31T09:42:07Z",
    "author_association": "MEMBER",
    "body_html": "<p dir=\"auto\">utACK <a class=\"commit-link\" data-hovercard-type=\"commit\" data-hovercard-url=\"https://github.com/bitcoin/bitcoin/commit/a296c6009ffc64e0409aad791449f9f7fc7ba794/hovercard\" href=\"https://github.com/bitcoin/bitcoin/commit/a296c6009ffc64e0409aad791449f9f7fc7ba794\"><tt>a296c60</tt></a></p>",
    "body_text": "utACK a296c60",
    "body": "utACK a296c60",
    "reactions": {
      "url": "https://api.github.com/repos/bitcoin/bitcoin/issues/comments/290667857/reactions",
      "total_count": 0,
      "+1": 0,
      "-1": 0,
      "laugh": 0,
      "hooray": 0,
      "confused": 0,
      "heart": 0,
      "rocket": 0,
      "eyes": 0
    },
    "performed_via_github_app": null
  }
]
