{
  "url": "https://api.github.com/repos/bitcoin/bitcoin/issues/27511",
  "repository_url": "https://api.github.com/repos/bitcoin/bitcoin",
  "labels_url": "https://api.github.com/repos/bitcoin/bitcoin/issues/27511/labels{/name}",
  "comments_url": "https://api.github.com/repos/bitcoin/bitcoin/issues/27511/comments",
  "events_url": "https://api.github.com/repos/bitcoin/bitcoin/issues/27511/events",
  "html_url": "https://github.com/bitcoin/bitcoin/pull/27511",
  "id": 1678790809,
  "node_id": "PR_kwDOABII585O4GIc",
  "number": 27511,
  "title": "rpc: Add test-only RPC getaddrmaninfo for new/tried table address count",
  "user": {
    "login": "stratospher",
    "id": 44024636,
    "node_id": "MDQ6VXNlcjQ0MDI0NjM2",
    "avatar_url": "https://avatars.githubusercontent.com/u/44024636?v=4",
    "gravatar_id": "",
    "url": "https://api.github.com/users/stratospher",
    "html_url": "https://github.com/stratospher",
    "followers_url": "https://api.github.com/users/stratospher/followers",
    "following_url": "https://api.github.com/users/stratospher/following{/other_user}",
    "gists_url": "https://api.github.com/users/stratospher/gists{/gist_id}",
    "starred_url": "https://api.github.com/users/stratospher/starred{/owner}{/repo}",
    "subscriptions_url": "https://api.github.com/users/stratospher/subscriptions",
    "organizations_url": "https://api.github.com/users/stratospher/orgs",
    "repos_url": "https://api.github.com/users/stratospher/repos",
    "events_url": "https://api.github.com/users/stratospher/events{/privacy}",
    "received_events_url": "https://api.github.com/users/stratospher/received_events",
    "type": "User",
    "site_admin": false
  },
  "labels": [
    {
      "id": 98279177,
      "node_id": "MDU6TGFiZWw5ODI3OTE3Nw==",
      "url": "https://api.github.com/repos/bitcoin/bitcoin/labels/RPC/REST/ZMQ",
      "name": "RPC/REST/ZMQ",
      "color": "0052cc",
      "default": false,
      "description": null
    }
  ],
  "state": "closed",
  "locked": false,
  "assignee": null,
  "assignees": [

  ],
  "milestone": null,
  "comments": 24,
  "created_at": "2023-04-21T16:28:48Z",
  "updated_at": "2023-10-03T14:14:35Z",
  "closed_at": "2023-09-20T12:25:37Z",
  "author_association": "CONTRIBUTOR",
  "active_lock_reason": null,
  "draft": false,
  "pull_request": {
    "url": "https://api.github.com/repos/bitcoin/bitcoin/pulls/27511",
    "html_url": "https://github.com/bitcoin/bitcoin/pull/27511",
    "diff_url": "https://github.com/bitcoin/bitcoin/pull/27511.diff",
    "patch_url": "https://github.com/bitcoin/bitcoin/pull/27511.patch",
    "merged_at": "2023-09-20T12:25:37Z"
  },
  "body_html": "<p dir=\"auto\">implements <a class=\"issue-link js-issue-link\" data-error-text=\"Failed to load title\" data-id=\"1536748974\" data-permission-text=\"Title is private\" data-url=\"https://github.com/bitcoin/bitcoin/issues/26907\" data-hovercard-type=\"issue\" data-hovercard-url=\"/bitcoin/bitcoin/issues/26907/hovercard\" href=\"https://github.com/bitcoin/bitcoin/issues/26907\">#26907</a>. split off from <a class=\"issue-link js-issue-link\" data-error-text=\"Failed to load title\" data-id=\"1561462605\" data-permission-text=\"Title is private\" data-url=\"https://github.com/bitcoin/bitcoin/issues/26988\" data-hovercard-type=\"pull_request\" data-hovercard-url=\"/bitcoin/bitcoin/pull/26988/hovercard\" href=\"https://github.com/bitcoin/bitcoin/pull/26988\">#26988</a> to keep RPC, CLI discussions separate.</p>\n<p dir=\"auto\">This PR introduces a new RPC <code class=\"notranslate\">getaddrmaninfo</code>which returns the count of addresses in the new/tried table of a node's addrman broken down by network type. This would be useful for users who want to see the distribution of addresses from different networks across new/tried table in the addrman.</p>\n<div class=\"highlight highlight-source-js notranslate position-relative overflow-auto\" dir=\"auto\" data-snippet-clipboard-copy-content=\"$ getaddrmaninfo\n\nResult:\n{                   (json object) json object with network type as keys\n  &quot;network&quot; : {     (json object) The network (ipv4, ipv6, onion, i2p, cjdns)\n    &quot;new&quot; : n,      (numeric) number of addresses in new table\n    &quot;tried&quot; : n,    (numeric) number of addresses in tried table\n    &quot;total&quot; : n     (numeric) total number of addresses in both new/tried tables from a network\n  },\n  ...\n}\"><pre class=\"notranslate\"><span class=\"pl-s1\">$</span> <span class=\"pl-s1\">getaddrmaninfo</span>\n\nResult:\n<span class=\"pl-kos\">{</span>                   <span class=\"pl-kos\">(</span><span class=\"pl-s1\">json</span> <span class=\"pl-s1\">object</span><span class=\"pl-kos\">)</span> <span class=\"pl-s1\">json</span> <span class=\"pl-s1\">object</span> <span class=\"pl-k\">with</span> <span class=\"pl-s1\">network</span> <span class=\"pl-s1\">type</span> <span class=\"pl-k\">as</span> <span class=\"pl-s1\">keys</span>\n  <span class=\"pl-s\">\"network\"</span> : <span class=\"pl-kos\">{</span>     <span class=\"pl-kos\">(</span><span class=\"pl-s1\">json</span> <span class=\"pl-s1\">object</span><span class=\"pl-kos\">)</span> <span class=\"pl-v\">The</span> <span class=\"pl-s1\">network</span> <span class=\"pl-kos\">(</span><span class=\"pl-s1\">ipv4</span><span class=\"pl-kos\">,</span> <span class=\"pl-s1\">ipv6</span><span class=\"pl-kos\">,</span> <span class=\"pl-s1\">onion</span><span class=\"pl-kos\">,</span> <span class=\"pl-s1\">i2p</span><span class=\"pl-kos\">,</span> <span class=\"pl-s1\">cjdns</span><span class=\"pl-kos\">)</span>\n    <span class=\"pl-s\">\"new\"</span> : <span class=\"pl-s1\">n</span><span class=\"pl-kos\">,</span>      <span class=\"pl-kos\">(</span><span class=\"pl-s1\">numeric</span><span class=\"pl-kos\">)</span> <span class=\"pl-s1\">number</span> <span class=\"pl-k\">of</span> <span class=\"pl-s1\">addresses</span> <span class=\"pl-k\">in</span> <span class=\"pl-k\">new</span> <span class=\"pl-s1\">table</span>\n    <span class=\"pl-s\">\"tried\"</span> : <span class=\"pl-s1\">n</span><span class=\"pl-kos\">,</span>    <span class=\"pl-kos\">(</span><span class=\"pl-s1\">numeric</span><span class=\"pl-kos\">)</span> <span class=\"pl-s1\">number</span> <span class=\"pl-k\">of</span> <span class=\"pl-s1\">addresses</span> <span class=\"pl-k\">in</span> <span class=\"pl-s1\">tried</span> <span class=\"pl-s1\">table</span>\n    <span class=\"pl-s\">\"total\"</span> : <span class=\"pl-s1\">n</span>     <span class=\"pl-kos\">(</span><span class=\"pl-s1\">numeric</span><span class=\"pl-kos\">)</span> <span class=\"pl-s1\">total</span> <span class=\"pl-s1\">number</span> <span class=\"pl-k\">of</span> <span class=\"pl-s1\">addresses</span> <span class=\"pl-k\">in</span> <span class=\"pl-s1\">both</span> <span class=\"pl-k\">new</span><span class=\"pl-c1\">/</span>tried tables from a network\n  <span class=\"pl-kos\">}</span><span class=\"pl-kos\">,</span>\n  ...\n<span class=\"pl-kos\">}</span></pre></div>\n<h3 dir=\"auto\">additional context from <a href=\"https://github.com/bitcoin/bitcoin/pull/26988\" data-hovercard-type=\"pull_request\" data-hovercard-url=\"/bitcoin/bitcoin/pull/26988/hovercard\">original PR</a></h3>\n<ol dir=\"auto\">\n<li>network coverage tests were skipped because there’s a small chance that addresses from different networks could hash to the same bucket and cause count of different network addresses in the tests to fail. see <a class=\"issue-link js-issue-link\" data-error-text=\"Failed to load title\" data-id=\"1561462605\" data-permission-text=\"Title is private\" data-url=\"https://github.com/bitcoin/bitcoin/issues/26988\" data-hovercard-type=\"pull_request\" data-hovercard-url=\"/bitcoin/bitcoin/pull/26988/hovercard?comment_id=1137596851&amp;comment_type=review_comment\" href=\"https://github.com/bitcoin/bitcoin/pull/26988#discussion_r1137596851\">#26988 (comment)</a>.</li>\n<li><a class=\"issue-link js-issue-link\" data-error-text=\"Failed to load title\" data-id=\"1561462605\" data-permission-text=\"Title is private\" data-url=\"https://github.com/bitcoin/bitcoin/issues/26988\" data-hovercard-type=\"pull_request\" data-hovercard-url=\"/bitcoin/bitcoin/pull/26988/hovercard\" href=\"https://github.com/bitcoin/bitcoin/pull/26988\">#26988</a> uses this RPC in -addrinfo CLI. Slight preference for keeping the RPC hidden since this info will mostly be useful to only super users. see <a class=\"issue-link js-issue-link\" data-error-text=\"Failed to load title\" data-id=\"1561462605\" data-permission-text=\"Title is private\" data-url=\"https://github.com/bitcoin/bitcoin/issues/26988\" data-hovercard-type=\"pull_request\" data-hovercard-url=\"/bitcoin/bitcoin/pull/26988/hovercard?comment_id=1173964808&amp;comment_type=review_comment\" href=\"https://github.com/bitcoin/bitcoin/pull/26988#discussion_r1173964808\">#26988 (comment)</a>.</li>\n</ol>",
  "body_text": "implements #26907. split off from #26988 to keep RPC, CLI discussions separate.\nThis PR introduces a new RPC getaddrmaninfowhich returns the count of addresses in the new/tried table of a node's addrman broken down by network type. This would be useful for users who want to see the distribution of addresses from different networks across new/tried table in the addrman.\n$ getaddrmaninfo\n\nResult:\n{                   (json object) json object with network type as keys\n  \"network\" : {     (json object) The network (ipv4, ipv6, onion, i2p, cjdns)\n    \"new\" : n,      (numeric) number of addresses in new table\n    \"tried\" : n,    (numeric) number of addresses in tried table\n    \"total\" : n     (numeric) total number of addresses in both new/tried tables from a network\n  },\n  ...\n}\nadditional context from original PR\n\nnetwork coverage tests were skipped because there’s a small chance that addresses from different networks could hash to the same bucket and cause count of different network addresses in the tests to fail. see #26988 (comment).\n#26988 uses this RPC in -addrinfo CLI. Slight preference for keeping the RPC hidden since this info will mostly be useful to only super users. see #26988 (comment).",
  "body": "implements https://github.com/bitcoin/bitcoin/issues/26907. split off from #26988 to keep RPC, CLI discussions separate.\r\n\r\nThis PR introduces a new RPC `getaddrmaninfo`which returns the count of addresses in the new/tried table of a node's addrman broken down by network type. This would be useful for users who want to see the distribution of addresses from different networks across new/tried table in the addrman.\r\n\r\n```jsx\r\n$ getaddrmaninfo\r\n\r\nResult:\r\n{                   (json object) json object with network type as keys\r\n  \"network\" : {     (json object) The network (ipv4, ipv6, onion, i2p, cjdns)\r\n    \"new\" : n,      (numeric) number of addresses in new table\r\n    \"tried\" : n,    (numeric) number of addresses in tried table\r\n    \"total\" : n     (numeric) total number of addresses in both new/tried tables from a network\r\n  },\r\n  ...\r\n}\r\n```\r\n\r\n### additional context from [original PR](https://github.com/bitcoin/bitcoin/pull/26988)\r\n\r\n1. network coverage tests were skipped because there’s a small chance that addresses from different networks could hash to the same bucket and cause count of different network addresses in the tests to fail. see https://github.com/bitcoin/bitcoin/pull/26988#discussion_r1137596851.\r\n2. #26988 uses this RPC in -addrinfo CLI. Slight preference for keeping the RPC hidden since this info will mostly be useful to only super users. see https://github.com/bitcoin/bitcoin/pull/26988#discussion_r1173964808.",
  "closed_by": {
    "login": "achow101",
    "id": 3782274,
    "node_id": "MDQ6VXNlcjM3ODIyNzQ=",
    "avatar_url": "https://avatars.githubusercontent.com/u/3782274?v=4",
    "gravatar_id": "",
    "url": "https://api.github.com/users/achow101",
    "html_url": "https://github.com/achow101",
    "followers_url": "https://api.github.com/users/achow101/followers",
    "following_url": "https://api.github.com/users/achow101/following{/other_user}",
    "gists_url": "https://api.github.com/users/achow101/gists{/gist_id}",
    "starred_url": "https://api.github.com/users/achow101/starred{/owner}{/repo}",
    "subscriptions_url": "https://api.github.com/users/achow101/subscriptions",
    "organizations_url": "https://api.github.com/users/achow101/orgs",
    "repos_url": "https://api.github.com/users/achow101/repos",
    "events_url": "https://api.github.com/users/achow101/events{/privacy}",
    "received_events_url": "https://api.github.com/users/achow101/received_events",
    "type": "User",
    "site_admin": false
  },
  "reactions": {
    "url": "https://api.github.com/repos/bitcoin/bitcoin/issues/27511/reactions",
    "total_count": 1,
    "+1": 0,
    "-1": 0,
    "laugh": 0,
    "hooray": 1,
    "confused": 0,
    "heart": 0,
    "rocket": 0,
    "eyes": 0
  },
  "timeline_url": "https://api.github.com/repos/bitcoin/bitcoin/issues/27511/timeline",
  "performed_via_github_app": null,
  "state_reason": null
}
