{
  "url": "https://api.github.com/repos/bitcoin/bitcoin/issues/11277",
  "repository_url": "https://api.github.com/repos/bitcoin/bitcoin",
  "labels_url": "https://api.github.com/repos/bitcoin/bitcoin/issues/11277/labels{/name}",
  "comments_url": "https://api.github.com/repos/bitcoin/bitcoin/issues/11277/comments",
  "events_url": "https://api.github.com/repos/bitcoin/bitcoin/issues/11277/events",
  "html_url": "https://github.com/bitcoin/bitcoin/pull/11277",
  "id": 256080028,
  "node_id": "MDExOlB1bGxSZXF1ZXN0MTM5OTEyMjM1",
  "number": 11277,
  "title": "Fix uninitialized URI in batch RPC requests",
  "user": {
    "login": "ryanofsky",
    "id": 7133040,
    "node_id": "MDQ6VXNlcjcxMzMwNDA=",
    "avatar_url": "https://avatars.githubusercontent.com/u/7133040?v=4",
    "gravatar_id": "",
    "url": "https://api.github.com/users/ryanofsky",
    "html_url": "https://github.com/ryanofsky",
    "followers_url": "https://api.github.com/users/ryanofsky/followers",
    "following_url": "https://api.github.com/users/ryanofsky/following{/other_user}",
    "gists_url": "https://api.github.com/users/ryanofsky/gists{/gist_id}",
    "starred_url": "https://api.github.com/users/ryanofsky/starred{/owner}{/repo}",
    "subscriptions_url": "https://api.github.com/users/ryanofsky/subscriptions",
    "organizations_url": "https://api.github.com/users/ryanofsky/orgs",
    "repos_url": "https://api.github.com/users/ryanofsky/repos",
    "events_url": "https://api.github.com/users/ryanofsky/events{/privacy}",
    "received_events_url": "https://api.github.com/users/ryanofsky/received_events",
    "type": "User",
    "site_admin": false
  },
  "labels": [
    {
      "id": 98279177,
      "node_id": "MDU6TGFiZWw5ODI3OTE3Nw==",
      "url": "https://api.github.com/repos/bitcoin/bitcoin/labels/RPC/REST/ZMQ",
      "name": "RPC/REST/ZMQ",
      "color": "0052cc",
      "default": false,
      "description": null
    }
  ],
  "state": "closed",
  "locked": true,
  "assignee": null,
  "assignees": [

  ],
  "milestone": null,
  "comments": 17,
  "created_at": "2017-09-07T21:45:34Z",
  "updated_at": "2021-09-08T11:30:37Z",
  "closed_at": "2017-10-12T12:55:22Z",
  "author_association": "CONTRIBUTOR",
  "active_lock_reason": "resolved",
  "draft": false,
  "pull_request": {
    "url": "https://api.github.com/repos/bitcoin/bitcoin/pulls/11277",
    "html_url": "https://github.com/bitcoin/bitcoin/pull/11277",
    "diff_url": "https://github.com/bitcoin/bitcoin/pull/11277.diff",
    "patch_url": "https://github.com/bitcoin/bitcoin/pull/11277.patch",
    "merged_at": "2017-10-12T12:55:22Z"
  },
  "body_html": "<p dir=\"auto\">This fixes \"Wallet file not specified\" errors when making batch wallet RPC calls with more than one wallet loaded. This issue was reported by <a class=\"user-mention notranslate\" data-hovercard-type=\"user\" data-hovercard-url=\"/users/NicolasDorier/hovercard\" data-octo-click=\"hovercard-link-click\" data-octo-dimensions=\"link_type:self\" href=\"https://github.com/NicolasDorier\">@NicolasDorier</a> in <a class=\"issue-link js-issue-link\" data-error-text=\"Failed to load title\" data-id=\"255617075\" data-permission-text=\"Title is private\" data-url=\"https://github.com/bitcoin/bitcoin/issues/11257\" data-hovercard-type=\"issue\" data-hovercard-url=\"/bitcoin/bitcoin/issues/11257/hovercard\" href=\"https://github.com/bitcoin/bitcoin/issues/11257\">#11257</a></p>\n<p dir=\"auto\">Request URI is not used for anything except multiwallet request dispatching, so this change has no other effect.</p>",
  "body_text": "This fixes \"Wallet file not specified\" errors when making batch wallet RPC calls with more than one wallet loaded. This issue was reported by @NicolasDorier in #11257\nRequest URI is not used for anything except multiwallet request dispatching, so this change has no other effect.",
  "body": "This fixes \"Wallet file not specified\" errors when making batch wallet RPC calls with more than one wallet loaded. This issue was reported by @NicolasDorier in https://github.com/bitcoin/bitcoin/issues/11257\r\n\r\nRequest URI is not used for anything except multiwallet request dispatching, so this change has no other effect.",
  "closed_by": {
    "login": "laanwj",
    "id": 126646,
    "node_id": "MDQ6VXNlcjEyNjY0Ng==",
    "avatar_url": "https://avatars.githubusercontent.com/u/126646?v=4",
    "gravatar_id": "",
    "url": "https://api.github.com/users/laanwj",
    "html_url": "https://github.com/laanwj",
    "followers_url": "https://api.github.com/users/laanwj/followers",
    "following_url": "https://api.github.com/users/laanwj/following{/other_user}",
    "gists_url": "https://api.github.com/users/laanwj/gists{/gist_id}",
    "starred_url": "https://api.github.com/users/laanwj/starred{/owner}{/repo}",
    "subscriptions_url": "https://api.github.com/users/laanwj/subscriptions",
    "organizations_url": "https://api.github.com/users/laanwj/orgs",
    "repos_url": "https://api.github.com/users/laanwj/repos",
    "events_url": "https://api.github.com/users/laanwj/events{/privacy}",
    "received_events_url": "https://api.github.com/users/laanwj/received_events",
    "type": "User",
    "site_admin": false
  },
  "reactions": {
    "url": "https://api.github.com/repos/bitcoin/bitcoin/issues/11277/reactions",
    "total_count": 0,
    "+1": 0,
    "-1": 0,
    "laugh": 0,
    "hooray": 0,
    "confused": 0,
    "heart": 0,
    "rocket": 0,
    "eyes": 0
  },
  "timeline_url": "https://api.github.com/repos/bitcoin/bitcoin/issues/11277/timeline",
  "performed_via_github_app": null,
  "state_reason": null
}
