{
  "url": "https://api.github.com/repos/bitcoin/bitcoin/issues/22865",
  "repository_url": "https://api.github.com/repos/bitcoin/bitcoin",
  "labels_url": "https://api.github.com/repos/bitcoin/bitcoin/issues/22865/labels{/name}",
  "comments_url": "https://api.github.com/repos/bitcoin/bitcoin/issues/22865/comments",
  "events_url": "https://api.github.com/repos/bitcoin/bitcoin/issues/22865/events",
  "html_url": "https://github.com/bitcoin/bitcoin/issues/22865",
  "id": 987138899,
  "node_id": "MDU6SXNzdWU5ODcxMzg4OTk=",
  "number": 22865,
  "title": "Improve Transaction Tests Flags",
  "user": {
    "login": "JeremyRubin",
    "id": 886523,
    "node_id": "MDQ6VXNlcjg4NjUyMw==",
    "avatar_url": "https://avatars.githubusercontent.com/u/886523?v=4",
    "gravatar_id": "",
    "url": "https://api.github.com/users/JeremyRubin",
    "html_url": "https://github.com/JeremyRubin",
    "followers_url": "https://api.github.com/users/JeremyRubin/followers",
    "following_url": "https://api.github.com/users/JeremyRubin/following{/other_user}",
    "gists_url": "https://api.github.com/users/JeremyRubin/gists{/gist_id}",
    "starred_url": "https://api.github.com/users/JeremyRubin/starred{/owner}{/repo}",
    "subscriptions_url": "https://api.github.com/users/JeremyRubin/subscriptions",
    "organizations_url": "https://api.github.com/users/JeremyRubin/orgs",
    "repos_url": "https://api.github.com/users/JeremyRubin/repos",
    "events_url": "https://api.github.com/users/JeremyRubin/events{/privacy}",
    "received_events_url": "https://api.github.com/users/JeremyRubin/received_events",
    "type": "User",
    "site_admin": false
  },
  "labels": [
    {
      "id": 62963516,
      "node_id": "MDU6TGFiZWw2Mjk2MzUxNg==",
      "url": "https://api.github.com/repos/bitcoin/bitcoin/labels/Tests",
      "name": "Tests",
      "color": "d4c5f9",
      "default": false,
      "description": null
    }
  ],
  "state": "closed",
  "locked": true,
  "assignee": null,
  "assignees": [

  ],
  "milestone": null,
  "comments": 23,
  "created_at": "2021-09-02T20:35:52Z",
  "updated_at": "2023-12-16T12:22:19Z",
  "closed_at": "2022-12-16T16:00:33Z",
  "author_association": "CONTRIBUTOR",
  "active_lock_reason": null,
  "body_html": "<p dir=\"auto\"><em>Originally posted by <a class=\"user-mention notranslate\" data-hovercard-type=\"user\" data-hovercard-url=\"/users/glozow/hovercard\" data-octo-click=\"hovercard-link-click\" data-octo-dimensions=\"link_type:self\" href=\"https://github.com/glozow\">@glozow</a> in <a class=\"issue-link js-issue-link\" data-error-text=\"Failed to load title\" data-id=\"859102448\" data-permission-text=\"Title is private\" data-url=\"https://github.com/bitcoin/bitcoin/issues/21702\" data-hovercard-type=\"pull_request\" data-hovercard-url=\"/bitcoin/bitcoin/pull/21702/hovercard\" href=\"https://github.com/bitcoin/bitcoin/pull/21702#r684235896\">#21702 (comment)</a></em></p>\n<p dir=\"auto\">While trying to write transaction tests for CTV i've come across the pathological case of trying to specify flags.</p>\n<p dir=\"auto\">Suppose I have a script that is <code class=\"notranslate\">&lt;X&gt; CTV</code>. CTV is an OP_NOP4 takeover, so when DISCOURAGE_UPGRADABLE_NOPS is set but VERIFY_CTV flag is not, then it should fail. Therefore we need to mark DISCOURAGE_UPGRADABLE_NOPS as excluded. However, when we exclude that flag, then the flag maximality check wants it to fail, but the txn is consensus valid.</p>\n<p dir=\"auto\">If we were to just update the trim/fill flag functions, then we would be overly restrictive because we would set things up to e.g. always exlcude or include a flag when in reality it depends on the specific flags being set or unset.</p>\n<p dir=\"auto\">I think this can be addressed by adding 2 new fields to the test:</p>\n<ol dir=\"auto\">\n<li>flags that should be always on</li>\n<li>transactions that should be exempt from the maximality check</li>\n</ol>\n<p dir=\"auto\">We can then duplicate some tests to test the combo of flags to check that NONE are excluded + the new NOP4 passes as well as the case where DISCOURAGE_NOPS is excluded (i.e., never set) that turning it back on (during the maximality check) is not a failure.</p>\n<p dir=\"auto\">Any thoughts on this approach?</p>",
  "body_text": "Originally posted by @glozow in #21702 (comment)\nWhile trying to write transaction tests for CTV i've come across the pathological case of trying to specify flags.\nSuppose I have a script that is <X> CTV. CTV is an OP_NOP4 takeover, so when DISCOURAGE_UPGRADABLE_NOPS is set but VERIFY_CTV flag is not, then it should fail. Therefore we need to mark DISCOURAGE_UPGRADABLE_NOPS as excluded. However, when we exclude that flag, then the flag maximality check wants it to fail, but the txn is consensus valid.\nIf we were to just update the trim/fill flag functions, then we would be overly restrictive because we would set things up to e.g. always exlcude or include a flag when in reality it depends on the specific flags being set or unset.\nI think this can be addressed by adding 2 new fields to the test:\n\nflags that should be always on\ntransactions that should be exempt from the maximality check\n\nWe can then duplicate some tests to test the combo of flags to check that NONE are excluded + the new NOP4 passes as well as the case where DISCOURAGE_NOPS is excluded (i.e., never set) that turning it back on (during the maximality check) is not a failure.\nAny thoughts on this approach?",
  "body": "_Originally posted by @glozow in https://github.com/bitcoin/bitcoin/pull/21702#r684235896_\r\n\r\nWhile trying to write transaction tests for CTV i've come across the pathological case of trying to specify flags.\r\n\r\nSuppose I have a script that is `<X> CTV`. CTV is an OP_NOP4 takeover, so when DISCOURAGE_UPGRADABLE_NOPS is set but VERIFY_CTV flag is not, then it should fail. Therefore we need to mark DISCOURAGE_UPGRADABLE_NOPS as excluded. However, when we exclude that flag, then the flag maximality check wants it to fail, but the txn is consensus valid.\r\n\r\nIf we were to just update the trim/fill flag functions, then we would be overly restrictive because we would set things up to e.g. always exlcude or include a flag when in reality it depends on the specific flags being set or unset.\r\n\r\nI think this can be addressed by adding 2 new fields to the test:\r\n\r\n1) flags that should be always on\r\n2) transactions that should be exempt from the maximality check\r\n\r\n\r\nWe can then duplicate some tests to test the combo of flags to check that NONE are excluded + the new NOP4 passes as well as the case where DISCOURAGE_NOPS is excluded (i.e., never set) that turning it back on (during the maximality check) is not a failure. \r\n\r\n\r\nAny thoughts on this approach?\r\n\r\n",
  "closed_by": {
    "login": "JeremyRubin",
    "id": 886523,
    "node_id": "MDQ6VXNlcjg4NjUyMw==",
    "avatar_url": "https://avatars.githubusercontent.com/u/886523?v=4",
    "gravatar_id": "",
    "url": "https://api.github.com/users/JeremyRubin",
    "html_url": "https://github.com/JeremyRubin",
    "followers_url": "https://api.github.com/users/JeremyRubin/followers",
    "following_url": "https://api.github.com/users/JeremyRubin/following{/other_user}",
    "gists_url": "https://api.github.com/users/JeremyRubin/gists{/gist_id}",
    "starred_url": "https://api.github.com/users/JeremyRubin/starred{/owner}{/repo}",
    "subscriptions_url": "https://api.github.com/users/JeremyRubin/subscriptions",
    "organizations_url": "https://api.github.com/users/JeremyRubin/orgs",
    "repos_url": "https://api.github.com/users/JeremyRubin/repos",
    "events_url": "https://api.github.com/users/JeremyRubin/events{/privacy}",
    "received_events_url": "https://api.github.com/users/JeremyRubin/received_events",
    "type": "User",
    "site_admin": false
  },
  "reactions": {
    "url": "https://api.github.com/repos/bitcoin/bitcoin/issues/22865/reactions",
    "total_count": 0,
    "+1": 0,
    "-1": 0,
    "laugh": 0,
    "hooray": 0,
    "confused": 0,
    "heart": 0,
    "rocket": 0,
    "eyes": 0
  },
  "timeline_url": "https://api.github.com/repos/bitcoin/bitcoin/issues/22865/timeline",
  "performed_via_github_app": null,
  "state_reason": "completed"
}
