{
  "url": "https://api.github.com/repos/bitcoin/bitcoin/issues/19266",
  "repository_url": "https://api.github.com/repos/bitcoin/bitcoin",
  "labels_url": "https://api.github.com/repos/bitcoin/bitcoin/issues/19266/labels{/name}",
  "comments_url": "https://api.github.com/repos/bitcoin/bitcoin/issues/19266/comments",
  "events_url": "https://api.github.com/repos/bitcoin/bitcoin/issues/19266/events",
  "html_url": "https://github.com/bitcoin/bitcoin/issues/19266",
  "id": 638148790,
  "node_id": "MDU6SXNzdWU2MzgxNDg3OTA=",
  "number": 19266,
  "title": "build: mingw32 issues with Qt if depends is built with DEBUG=1",
  "user": {
    "login": "hebasto",
    "id": 32963518,
    "node_id": "MDQ6VXNlcjMyOTYzNTE4",
    "avatar_url": "https://avatars.githubusercontent.com/u/32963518?v=4",
    "gravatar_id": "",
    "url": "https://api.github.com/users/hebasto",
    "html_url": "https://github.com/hebasto",
    "followers_url": "https://api.github.com/users/hebasto/followers",
    "following_url": "https://api.github.com/users/hebasto/following{/other_user}",
    "gists_url": "https://api.github.com/users/hebasto/gists{/gist_id}",
    "starred_url": "https://api.github.com/users/hebasto/starred{/owner}{/repo}",
    "subscriptions_url": "https://api.github.com/users/hebasto/subscriptions",
    "organizations_url": "https://api.github.com/users/hebasto/orgs",
    "repos_url": "https://api.github.com/users/hebasto/repos",
    "events_url": "https://api.github.com/users/hebasto/events{/privacy}",
    "received_events_url": "https://api.github.com/users/hebasto/received_events",
    "type": "User",
    "site_admin": false
  },
  "labels": [
    {
      "id": 64585,
      "node_id": "MDU6TGFiZWw2NDU4NQ==",
      "url": "https://api.github.com/repos/bitcoin/bitcoin/labels/Bug",
      "name": "Bug",
      "color": "FBBAAB",
      "default": false,
      "description": null
    }
  ],
  "state": "closed",
  "locked": true,
  "assignee": null,
  "assignees": [

  ],
  "milestone": null,
  "comments": 1,
  "created_at": "2020-06-13T11:52:23Z",
  "updated_at": "2022-08-18T18:34:35Z",
  "closed_at": "2021-03-03T07:48:44Z",
  "author_association": "MEMBER",
  "active_lock_reason": "resolved",
  "body_html": "<p dir=\"auto\">On master (<a class=\"commit-link\" data-hovercard-type=\"commit\" data-hovercard-url=\"https://github.com/bitcoin/bitcoin/commit/8c97780db8c9dd33efed134385573ba97e9cd165/hovercard\" href=\"https://github.com/bitcoin/bitcoin/commit/8c97780db8c9dd33efed134385573ba97e9cd165\"><tt>8c97780</tt></a>):</p>\n<div class=\"snippet-clipboard-content notranslate position-relative overflow-auto\" data-snippet-clipboard-copy-content=\"$ make -C depends HOST=x86_64-w64-mingw32 DEBUG=1\n$ ./autogen.sh\n$ CONFIG_SITE=$PWD/depends/x86_64-w64-mingw32/share/config.site ./configure\n...\nOptions used to compile and link:\n  multiprocess  = no\n  with wallet   = yes\n  with gui / qt = no\n...\"><pre class=\"notranslate\"><code class=\"notranslate\">$ make -C depends HOST=x86_64-w64-mingw32 DEBUG=1\n$ ./autogen.sh\n$ CONFIG_SITE=$PWD/depends/x86_64-w64-mingw32/share/config.site ./configure\n...\nOptions used to compile and link:\n  multiprocess  = no\n  with wallet   = yes\n  with gui / qt = no\n...\n</code></pre></div>\n<p dir=\"auto\">Should be fixed by <a class=\"issue-link js-issue-link\" data-error-text=\"Failed to load title\" data-id=\"577891783\" data-permission-text=\"Title is private\" data-url=\"https://github.com/bitcoin/bitcoin/issues/18298\" data-hovercard-type=\"pull_request\" data-hovercard-url=\"/bitcoin/bitcoin/pull/18298/hovercard\" href=\"https://github.com/bitcoin/bitcoin/pull/18298\">#18298</a>.</p>",
  "body_text": "On master (8c97780):\n$ make -C depends HOST=x86_64-w64-mingw32 DEBUG=1\n$ ./autogen.sh\n$ CONFIG_SITE=$PWD/depends/x86_64-w64-mingw32/share/config.site ./configure\n...\nOptions used to compile and link:\n  multiprocess  = no\n  with wallet   = yes\n  with gui / qt = no\n...\n\nShould be fixed by #18298.",
  "body": "On master (8c97780db8c9dd33efed134385573ba97e9cd165):\r\n\r\n```\r\n$ make -C depends HOST=x86_64-w64-mingw32 DEBUG=1\r\n$ ./autogen.sh\r\n$ CONFIG_SITE=$PWD/depends/x86_64-w64-mingw32/share/config.site ./configure\r\n...\r\nOptions used to compile and link:\r\n  multiprocess  = no\r\n  with wallet   = yes\r\n  with gui / qt = no\r\n...\r\n```\r\n\r\nShould be fixed by #18298.",
  "closed_by": {
    "login": "fanquake",
    "id": 863730,
    "node_id": "MDQ6VXNlcjg2MzczMA==",
    "avatar_url": "https://avatars.githubusercontent.com/u/863730?v=4",
    "gravatar_id": "",
    "url": "https://api.github.com/users/fanquake",
    "html_url": "https://github.com/fanquake",
    "followers_url": "https://api.github.com/users/fanquake/followers",
    "following_url": "https://api.github.com/users/fanquake/following{/other_user}",
    "gists_url": "https://api.github.com/users/fanquake/gists{/gist_id}",
    "starred_url": "https://api.github.com/users/fanquake/starred{/owner}{/repo}",
    "subscriptions_url": "https://api.github.com/users/fanquake/subscriptions",
    "organizations_url": "https://api.github.com/users/fanquake/orgs",
    "repos_url": "https://api.github.com/users/fanquake/repos",
    "events_url": "https://api.github.com/users/fanquake/events{/privacy}",
    "received_events_url": "https://api.github.com/users/fanquake/received_events",
    "type": "User",
    "site_admin": false
  },
  "reactions": {
    "url": "https://api.github.com/repos/bitcoin/bitcoin/issues/19266/reactions",
    "total_count": 0,
    "+1": 0,
    "-1": 0,
    "laugh": 0,
    "hooray": 0,
    "confused": 0,
    "heart": 0,
    "rocket": 0,
    "eyes": 0
  },
  "timeline_url": "https://api.github.com/repos/bitcoin/bitcoin/issues/19266/timeline",
  "performed_via_github_app": null,
  "state_reason": "completed"
}
