{
  "url": "https://api.github.com/repos/bitcoin/bitcoin/issues/10158",
  "repository_url": "https://api.github.com/repos/bitcoin/bitcoin",
  "labels_url": "https://api.github.com/repos/bitcoin/bitcoin/issues/10158/labels{/name}",
  "comments_url": "https://api.github.com/repos/bitcoin/bitcoin/issues/10158/comments",
  "events_url": "https://api.github.com/repos/bitcoin/bitcoin/issues/10158/events",
  "html_url": "https://github.com/bitcoin/bitcoin/pull/10158",
  "id": 219657769,
  "node_id": "MDExOlB1bGxSZXF1ZXN0MTE0NDMwNjkz",
  "number": 10158,
  "title": "Add some more release notes for 0.14.1.",
  "user": {
    "login": "gmaxwell",
    "id": 858454,
    "node_id": "MDQ6VXNlcjg1ODQ1NA==",
    "avatar_url": "https://avatars.githubusercontent.com/u/858454?v=4",
    "gravatar_id": "",
    "url": "https://api.github.com/users/gmaxwell",
    "html_url": "https://github.com/gmaxwell",
    "followers_url": "https://api.github.com/users/gmaxwell/followers",
    "following_url": "https://api.github.com/users/gmaxwell/following{/other_user}",
    "gists_url": "https://api.github.com/users/gmaxwell/gists{/gist_id}",
    "starred_url": "https://api.github.com/users/gmaxwell/starred{/owner}{/repo}",
    "subscriptions_url": "https://api.github.com/users/gmaxwell/subscriptions",
    "organizations_url": "https://api.github.com/users/gmaxwell/orgs",
    "repos_url": "https://api.github.com/users/gmaxwell/repos",
    "events_url": "https://api.github.com/users/gmaxwell/events{/privacy}",
    "received_events_url": "https://api.github.com/users/gmaxwell/received_events",
    "type": "User",
    "site_admin": false
  },
  "labels": [
    {
      "id": 148216,
      "node_id": "MDU6TGFiZWwxNDgyMTY=",
      "url": "https://api.github.com/repos/bitcoin/bitcoin/labels/Docs",
      "name": "Docs",
      "color": "02d7e1",
      "default": false,
      "description": null
    }
  ],
  "state": "closed",
  "locked": true,
  "assignee": null,
  "assignees": [

  ],
  "milestone": {
    "url": "https://api.github.com/repos/bitcoin/bitcoin/milestones/27",
    "html_url": "https://github.com/bitcoin/bitcoin/milestone/27",
    "labels_url": "https://api.github.com/repos/bitcoin/bitcoin/milestones/27/labels",
    "id": 2337607,
    "node_id": "MDk6TWlsZXN0b25lMjMzNzYwNw==",
    "number": 27,
    "title": "0.14.1",
    "description": "",
    "creator": {
      "login": "fanquake",
      "id": 863730,
      "node_id": "MDQ6VXNlcjg2MzczMA==",
      "avatar_url": "https://avatars.githubusercontent.com/u/863730?v=4",
      "gravatar_id": "",
      "url": "https://api.github.com/users/fanquake",
      "html_url": "https://github.com/fanquake",
      "followers_url": "https://api.github.com/users/fanquake/followers",
      "following_url": "https://api.github.com/users/fanquake/following{/other_user}",
      "gists_url": "https://api.github.com/users/fanquake/gists{/gist_id}",
      "starred_url": "https://api.github.com/users/fanquake/starred{/owner}{/repo}",
      "subscriptions_url": "https://api.github.com/users/fanquake/subscriptions",
      "organizations_url": "https://api.github.com/users/fanquake/orgs",
      "repos_url": "https://api.github.com/users/fanquake/repos",
      "events_url": "https://api.github.com/users/fanquake/events{/privacy}",
      "received_events_url": "https://api.github.com/users/fanquake/received_events",
      "type": "User",
      "site_admin": false
    },
    "open_issues": 0,
    "closed_issues": 26,
    "state": "closed",
    "created_at": "2017-02-21T12:32:10Z",
    "updated_at": "2017-04-23T13:06:49Z",
    "due_on": null,
    "closed_at": "2017-04-23T13:06:49Z"
  },
  "comments": 4,
  "created_at": "2017-04-05T17:27:09Z",
  "updated_at": "2021-09-08T11:49:33Z",
  "closed_at": "2017-04-06T07:35:30Z",
  "author_association": "CONTRIBUTOR",
  "active_lock_reason": "resolved",
  "draft": false,
  "pull_request": {
    "url": "https://api.github.com/repos/bitcoin/bitcoin/pulls/10158",
    "html_url": "https://github.com/bitcoin/bitcoin/pull/10158",
    "diff_url": "https://github.com/bitcoin/bitcoin/pull/10158.diff",
    "patch_url": "https://github.com/bitcoin/bitcoin/pull/10158.patch",
    "merged_at": "2017-04-06T07:35:30Z"
  },
  "body_html": "<p dir=\"auto\">This adds a blurb for the segwit signaling and fixes up the attribution.</p>",
  "body_text": "This adds a blurb for the segwit signaling and fixes up the attribution.",
  "body": "This adds a blurb for the segwit signaling and fixes up the attribution.",
  "closed_by": {
    "login": "laanwj",
    "id": 126646,
    "node_id": "MDQ6VXNlcjEyNjY0Ng==",
    "avatar_url": "https://avatars.githubusercontent.com/u/126646?v=4",
    "gravatar_id": "",
    "url": "https://api.github.com/users/laanwj",
    "html_url": "https://github.com/laanwj",
    "followers_url": "https://api.github.com/users/laanwj/followers",
    "following_url": "https://api.github.com/users/laanwj/following{/other_user}",
    "gists_url": "https://api.github.com/users/laanwj/gists{/gist_id}",
    "starred_url": "https://api.github.com/users/laanwj/starred{/owner}{/repo}",
    "subscriptions_url": "https://api.github.com/users/laanwj/subscriptions",
    "organizations_url": "https://api.github.com/users/laanwj/orgs",
    "repos_url": "https://api.github.com/users/laanwj/repos",
    "events_url": "https://api.github.com/users/laanwj/events{/privacy}",
    "received_events_url": "https://api.github.com/users/laanwj/received_events",
    "type": "User",
    "site_admin": false
  },
  "reactions": {
    "url": "https://api.github.com/repos/bitcoin/bitcoin/issues/10158/reactions",
    "total_count": 0,
    "+1": 0,
    "-1": 0,
    "laugh": 0,
    "hooray": 0,
    "confused": 0,
    "heart": 0,
    "rocket": 0,
    "eyes": 0
  },
  "timeline_url": "https://api.github.com/repos/bitcoin/bitcoin/issues/10158/timeline",
  "performed_via_github_app": null,
  "state_reason": null
}
