[
  {
    "url": "https://api.github.com/repos/bitcoin/bitcoin/issues/comments/198761098",
    "html_url": "https://github.com/bitcoin/bitcoin/pull/7720#issuecomment-198761098",
    "issue_url": "https://api.github.com/repos/bitcoin/bitcoin/issues/7720",
    "id": 198761098,
    "node_id": "MDEyOklzc3VlQ29tbWVudDE5ODc2MTA5OA==",
    "user": {
      "login": "jmcorgan",
      "id": 1492956,
      "node_id": "MDQ6VXNlcjE0OTI5NTY=",
      "avatar_url": "https://avatars.githubusercontent.com/u/1492956?v=4",
      "gravatar_id": "",
      "url": "https://api.github.com/users/jmcorgan",
      "html_url": "https://github.com/jmcorgan",
      "followers_url": "https://api.github.com/users/jmcorgan/followers",
      "following_url": "https://api.github.com/users/jmcorgan/following{/other_user}",
      "gists_url": "https://api.github.com/users/jmcorgan/gists{/gist_id}",
      "starred_url": "https://api.github.com/users/jmcorgan/starred{/owner}{/repo}",
      "subscriptions_url": "https://api.github.com/users/jmcorgan/subscriptions",
      "organizations_url": "https://api.github.com/users/jmcorgan/orgs",
      "repos_url": "https://api.github.com/users/jmcorgan/repos",
      "events_url": "https://api.github.com/users/jmcorgan/events{/privacy}",
      "received_events_url": "https://api.github.com/users/jmcorgan/received_events",
      "type": "User",
      "site_admin": false
    },
    "created_at": "2016-03-19T18:17:38Z",
    "updated_at": "2016-03-19T18:17:38Z",
    "author_association": "CONTRIBUTOR",
    "body_html": "<p dir=\"auto\">utACK</p>",
    "body_text": "utACK",
    "body": "utACK\n",
    "reactions": {
      "url": "https://api.github.com/repos/bitcoin/bitcoin/issues/comments/198761098/reactions",
      "total_count": 0,
      "+1": 0,
      "-1": 0,
      "laugh": 0,
      "hooray": 0,
      "confused": 0,
      "heart": 0,
      "rocket": 0,
      "eyes": 0
    },
    "performed_via_github_app": null
  },
  {
    "url": "https://api.github.com/repos/bitcoin/bitcoin/issues/comments/199070606",
    "html_url": "https://github.com/bitcoin/bitcoin/pull/7720#issuecomment-199070606",
    "issue_url": "https://api.github.com/repos/bitcoin/bitcoin/issues/7720",
    "id": 199070606,
    "node_id": "MDEyOklzc3VlQ29tbWVudDE5OTA3MDYwNg==",
    "user": {
      "login": "dcousens",
      "id": 413395,
      "node_id": "MDQ6VXNlcjQxMzM5NQ==",
      "avatar_url": "https://avatars.githubusercontent.com/u/413395?v=4",
      "gravatar_id": "",
      "url": "https://api.github.com/users/dcousens",
      "html_url": "https://github.com/dcousens",
      "followers_url": "https://api.github.com/users/dcousens/followers",
      "following_url": "https://api.github.com/users/dcousens/following{/other_user}",
      "gists_url": "https://api.github.com/users/dcousens/gists{/gist_id}",
      "starred_url": "https://api.github.com/users/dcousens/starred{/owner}{/repo}",
      "subscriptions_url": "https://api.github.com/users/dcousens/subscriptions",
      "organizations_url": "https://api.github.com/users/dcousens/orgs",
      "repos_url": "https://api.github.com/users/dcousens/repos",
      "events_url": "https://api.github.com/users/dcousens/events{/privacy}",
      "received_events_url": "https://api.github.com/users/dcousens/received_events",
      "type": "User",
      "site_admin": false
    },
    "created_at": "2016-03-21T00:38:26Z",
    "updated_at": "2016-03-21T00:38:26Z",
    "author_association": "CONTRIBUTOR",
    "body_html": "<p dir=\"auto\">utACK</p>",
    "body_text": "utACK",
    "body": "utACK\n",
    "reactions": {
      "url": "https://api.github.com/repos/bitcoin/bitcoin/issues/comments/199070606/reactions",
      "total_count": 0,
      "+1": 0,
      "-1": 0,
      "laugh": 0,
      "hooray": 0,
      "confused": 0,
      "heart": 0,
      "rocket": 0,
      "eyes": 0
    },
    "performed_via_github_app": null
  },
  {
    "url": "https://api.github.com/repos/bitcoin/bitcoin/issues/comments/199237791",
    "html_url": "https://github.com/bitcoin/bitcoin/pull/7720#issuecomment-199237791",
    "issue_url": "https://api.github.com/repos/bitcoin/bitcoin/issues/7720",
    "id": 199237791,
    "node_id": "MDEyOklzc3VlQ29tbWVudDE5OTIzNzc5MQ==",
    "user": {
      "login": "laanwj",
      "id": 126646,
      "node_id": "MDQ6VXNlcjEyNjY0Ng==",
      "avatar_url": "https://avatars.githubusercontent.com/u/126646?v=4",
      "gravatar_id": "",
      "url": "https://api.github.com/users/laanwj",
      "html_url": "https://github.com/laanwj",
      "followers_url": "https://api.github.com/users/laanwj/followers",
      "following_url": "https://api.github.com/users/laanwj/following{/other_user}",
      "gists_url": "https://api.github.com/users/laanwj/gists{/gist_id}",
      "starred_url": "https://api.github.com/users/laanwj/starred{/owner}{/repo}",
      "subscriptions_url": "https://api.github.com/users/laanwj/subscriptions",
      "organizations_url": "https://api.github.com/users/laanwj/orgs",
      "repos_url": "https://api.github.com/users/laanwj/repos",
      "events_url": "https://api.github.com/users/laanwj/events{/privacy}",
      "received_events_url": "https://api.github.com/users/laanwj/received_events",
      "type": "User",
      "site_admin": false
    },
    "created_at": "2016-03-21T11:47:36Z",
    "updated_at": "2016-03-21T11:47:36Z",
    "author_association": "MEMBER",
    "body_html": "<p dir=\"auto\">utACK <a class=\"commit-link\" data-hovercard-type=\"commit\" data-hovercard-url=\"https://github.com/bitcoin/bitcoin/commit/fab3890156c849e6b04309152d7a9bfcfcb98396/hovercard\" href=\"https://github.com/bitcoin/bitcoin/commit/fab3890156c849e6b04309152d7a9bfcfcb98396\"><tt>fab3890</tt></a></p>",
    "body_text": "utACK fab3890",
    "body": "utACK fab3890\n",
    "reactions": {
      "url": "https://api.github.com/repos/bitcoin/bitcoin/issues/comments/199237791/reactions",
      "total_count": 0,
      "+1": 0,
      "-1": 0,
      "laugh": 0,
      "hooray": 0,
      "confused": 0,
      "heart": 0,
      "rocket": 0,
      "eyes": 0
    },
    "performed_via_github_app": null
  }
]
