[
  {
    "url": "https://api.github.com/repos/bitcoin/bitcoin/issues/comments/290539794",
    "html_url": "https://github.com/bitcoin/bitcoin/pull/10130#issuecomment-290539794",
    "issue_url": "https://api.github.com/repos/bitcoin/bitcoin/issues/10130",
    "id": 290539794,
    "node_id": "MDEyOklzc3VlQ29tbWVudDI5MDUzOTc5NA==",
    "user": {
      "login": "jnewbery",
      "id": 1063656,
      "node_id": "MDQ6VXNlcjEwNjM2NTY=",
      "avatar_url": "https://avatars.githubusercontent.com/u/1063656?v=4",
      "gravatar_id": "",
      "url": "https://api.github.com/users/jnewbery",
      "html_url": "https://github.com/jnewbery",
      "followers_url": "https://api.github.com/users/jnewbery/followers",
      "following_url": "https://api.github.com/users/jnewbery/following{/other_user}",
      "gists_url": "https://api.github.com/users/jnewbery/gists{/gist_id}",
      "starred_url": "https://api.github.com/users/jnewbery/starred{/owner}{/repo}",
      "subscriptions_url": "https://api.github.com/users/jnewbery/subscriptions",
      "organizations_url": "https://api.github.com/users/jnewbery/orgs",
      "repos_url": "https://api.github.com/users/jnewbery/repos",
      "events_url": "https://api.github.com/users/jnewbery/events{/privacy}",
      "received_events_url": "https://api.github.com/users/jnewbery/received_events",
      "type": "User",
      "site_admin": false
    },
    "created_at": "2017-03-30T20:46:24Z",
    "updated_at": "2017-03-30T20:46:24Z",
    "author_association": "CONTRIBUTOR",
    "body_html": "<p dir=\"auto\">Replaces <a class=\"issue-link js-issue-link\" data-error-text=\"Failed to load title\" data-id=\"217550705\" data-permission-text=\"Title is private\" data-url=\"https://github.com/bitcoin/bitcoin/issues/10106\" data-hovercard-type=\"pull_request\" data-hovercard-url=\"/bitcoin/bitcoin/pull/10106/hovercard\" href=\"https://github.com/bitcoin/bitcoin/pull/10106\">#10106</a>. <a class=\"user-mention notranslate\" data-hovercard-type=\"user\" data-hovercard-url=\"/users/gmaxwell/hovercard\" data-octo-click=\"hovercard-link-click\" data-octo-dimensions=\"link_type:self\" href=\"https://github.com/gmaxwell\">@gmaxwell</a> <a class=\"user-mention notranslate\" data-hovercard-type=\"user\" data-hovercard-url=\"/users/instagibbs/hovercard\" data-octo-click=\"hovercard-link-click\" data-octo-dimensions=\"link_type:self\" href=\"https://github.com/instagibbs\">@instagibbs</a> <a class=\"user-mention notranslate\" data-hovercard-type=\"user\" data-hovercard-url=\"/users/laanwj/hovercard\" data-octo-click=\"hovercard-link-click\" data-octo-dimensions=\"link_type:self\" href=\"https://github.com/laanwj\">@laanwj</a> <a class=\"user-mention notranslate\" data-hovercard-type=\"user\" data-hovercard-url=\"/users/jtimon/hovercard\" data-octo-click=\"hovercard-link-click\" data-octo-dimensions=\"link_type:self\" href=\"https://github.com/jtimon\">@jtimon</a></p>",
    "body_text": "Replaces #10106. @gmaxwell @instagibbs @laanwj @jtimon",
    "body": "Replaces #10106. @gmaxwell @instagibbs @laanwj @jtimon ",
    "reactions": {
      "url": "https://api.github.com/repos/bitcoin/bitcoin/issues/comments/290539794/reactions",
      "total_count": 0,
      "+1": 0,
      "-1": 0,
      "laugh": 0,
      "hooray": 0,
      "confused": 0,
      "heart": 0,
      "rocket": 0,
      "eyes": 0
    },
    "performed_via_github_app": null
  },
  {
    "url": "https://api.github.com/repos/bitcoin/bitcoin/issues/comments/290559480",
    "html_url": "https://github.com/bitcoin/bitcoin/pull/10130#issuecomment-290559480",
    "issue_url": "https://api.github.com/repos/bitcoin/bitcoin/issues/10130",
    "id": 290559480,
    "node_id": "MDEyOklzc3VlQ29tbWVudDI5MDU1OTQ4MA==",
    "user": {
      "login": "jnewbery",
      "id": 1063656,
      "node_id": "MDQ6VXNlcjEwNjM2NTY=",
      "avatar_url": "https://avatars.githubusercontent.com/u/1063656?v=4",
      "gravatar_id": "",
      "url": "https://api.github.com/users/jnewbery",
      "html_url": "https://github.com/jnewbery",
      "followers_url": "https://api.github.com/users/jnewbery/followers",
      "following_url": "https://api.github.com/users/jnewbery/following{/other_user}",
      "gists_url": "https://api.github.com/users/jnewbery/gists{/gist_id}",
      "starred_url": "https://api.github.com/users/jnewbery/starred{/owner}{/repo}",
      "subscriptions_url": "https://api.github.com/users/jnewbery/subscriptions",
      "organizations_url": "https://api.github.com/users/jnewbery/orgs",
      "repos_url": "https://api.github.com/users/jnewbery/repos",
      "events_url": "https://api.github.com/users/jnewbery/events{/privacy}",
      "received_events_url": "https://api.github.com/users/jnewbery/received_events",
      "type": "User",
      "site_admin": false
    },
    "created_at": "2017-03-30T22:08:44Z",
    "updated_at": "2017-03-30T22:08:44Z",
    "author_association": "CONTRIBUTOR",
    "body_html": "<p dir=\"auto\"><a class=\"user-mention notranslate\" data-hovercard-type=\"user\" data-hovercard-url=\"/users/theuni/hovercard\" data-octo-click=\"hovercard-link-click\" data-octo-dimensions=\"link_type:self\" href=\"https://github.com/theuni\">@theuni</a> has suggested that checking the stderr for error text may cause problems due to unicode, eols, etc, and that we'd be better off defining our own exit codes in bitcoin-tx and testing on those. I think it's ok to test for text in stderr for now, but we a future PR should define exit codes and test them in bctest.py.</p>",
    "body_text": "@theuni has suggested that checking the stderr for error text may cause problems due to unicode, eols, etc, and that we'd be better off defining our own exit codes in bitcoin-tx and testing on those. I think it's ok to test for text in stderr for now, but we a future PR should define exit codes and test them in bctest.py.",
    "body": "@theuni has suggested that checking the stderr for error text may cause problems due to unicode, eols, etc, and that we'd be better off defining our own exit codes in bitcoin-tx and testing on those. I think it's ok to test for text in stderr for now, but we a future PR should define exit codes and test them in bctest.py.",
    "reactions": {
      "url": "https://api.github.com/repos/bitcoin/bitcoin/issues/comments/290559480/reactions",
      "total_count": 0,
      "+1": 0,
      "-1": 0,
      "laugh": 0,
      "hooray": 0,
      "confused": 0,
      "heart": 0,
      "rocket": 0,
      "eyes": 0
    },
    "performed_via_github_app": null
  },
  {
    "url": "https://api.github.com/repos/bitcoin/bitcoin/issues/comments/290626637",
    "html_url": "https://github.com/bitcoin/bitcoin/pull/10130#issuecomment-290626637",
    "issue_url": "https://api.github.com/repos/bitcoin/bitcoin/issues/10130",
    "id": 290626637,
    "node_id": "MDEyOklzc3VlQ29tbWVudDI5MDYyNjYzNw==",
    "user": {
      "login": "laanwj",
      "id": 126646,
      "node_id": "MDQ6VXNlcjEyNjY0Ng==",
      "avatar_url": "https://avatars.githubusercontent.com/u/126646?v=4",
      "gravatar_id": "",
      "url": "https://api.github.com/users/laanwj",
      "html_url": "https://github.com/laanwj",
      "followers_url": "https://api.github.com/users/laanwj/followers",
      "following_url": "https://api.github.com/users/laanwj/following{/other_user}",
      "gists_url": "https://api.github.com/users/laanwj/gists{/gist_id}",
      "starred_url": "https://api.github.com/users/laanwj/starred{/owner}{/repo}",
      "subscriptions_url": "https://api.github.com/users/laanwj/subscriptions",
      "organizations_url": "https://api.github.com/users/laanwj/orgs",
      "repos_url": "https://api.github.com/users/laanwj/repos",
      "events_url": "https://api.github.com/users/laanwj/events{/privacy}",
      "received_events_url": "https://api.github.com/users/laanwj/received_events",
      "type": "User",
      "site_admin": false
    },
    "created_at": "2017-03-31T06:15:56Z",
    "updated_at": "2017-03-31T06:15:56Z",
    "author_association": "MEMBER",
    "body_html": "<p dir=\"auto\">I don't disagree with <a class=\"user-mention notranslate\" data-hovercard-type=\"user\" data-hovercard-url=\"/users/theuni/hovercard\" data-octo-click=\"hovercard-link-click\" data-octo-dimensions=\"link_type:self\" href=\"https://github.com/theuni\">@theuni</a> on that in general, however checking for text in error messages is perfectly fine for tests that are supposed to test these errors. Especially for a user-facing tool. We do a similar thing for checking e.g. RPC errors where we check both the code and the message.</p>",
    "body_text": "I don't disagree with @theuni on that in general, however checking for text in error messages is perfectly fine for tests that are supposed to test these errors. Especially for a user-facing tool. We do a similar thing for checking e.g. RPC errors where we check both the code and the message.",
    "body": "I don't disagree with @theuni on that in general, however checking for text in error messages is perfectly fine for tests that are supposed to test these errors. Especially for a user-facing tool. We do a similar thing for checking e.g. RPC errors where we check both the code and the message.",
    "reactions": {
      "url": "https://api.github.com/repos/bitcoin/bitcoin/issues/comments/290626637/reactions",
      "total_count": 0,
      "+1": 0,
      "-1": 0,
      "laugh": 0,
      "hooray": 0,
      "confused": 0,
      "heart": 0,
      "rocket": 0,
      "eyes": 0
    },
    "performed_via_github_app": null
  },
  {
    "url": "https://api.github.com/repos/bitcoin/bitcoin/issues/comments/290628657",
    "html_url": "https://github.com/bitcoin/bitcoin/pull/10130#issuecomment-290628657",
    "issue_url": "https://api.github.com/repos/bitcoin/bitcoin/issues/10130",
    "id": 290628657,
    "node_id": "MDEyOklzc3VlQ29tbWVudDI5MDYyODY1Nw==",
    "user": {
      "login": "laanwj",
      "id": 126646,
      "node_id": "MDQ6VXNlcjEyNjY0Ng==",
      "avatar_url": "https://avatars.githubusercontent.com/u/126646?v=4",
      "gravatar_id": "",
      "url": "https://api.github.com/users/laanwj",
      "html_url": "https://github.com/laanwj",
      "followers_url": "https://api.github.com/users/laanwj/followers",
      "following_url": "https://api.github.com/users/laanwj/following{/other_user}",
      "gists_url": "https://api.github.com/users/laanwj/gists{/gist_id}",
      "starred_url": "https://api.github.com/users/laanwj/starred{/owner}{/repo}",
      "subscriptions_url": "https://api.github.com/users/laanwj/subscriptions",
      "organizations_url": "https://api.github.com/users/laanwj/orgs",
      "repos_url": "https://api.github.com/users/laanwj/repos",
      "events_url": "https://api.github.com/users/laanwj/events{/privacy}",
      "received_events_url": "https://api.github.com/users/laanwj/received_events",
      "type": "User",
      "site_admin": false
    },
    "created_at": "2017-03-31T06:30:05Z",
    "updated_at": "2017-03-31T06:30:05Z",
    "author_association": "MEMBER",
    "body_html": "<p dir=\"auto\">utACK <a class=\"commit-link\" data-hovercard-type=\"commit\" data-hovercard-url=\"https://github.com/bitcoin/bitcoin/commit/19ecd1e2e13514c8a92a2a4337c2568c3d5d13e5/hovercard\" href=\"https://github.com/bitcoin/bitcoin/commit/19ecd1e2e13514c8a92a2a4337c2568c3d5d13e5\"><tt>19ecd1e</tt></a></p>",
    "body_text": "utACK 19ecd1e",
    "body": "utACK 19ecd1e",
    "reactions": {
      "url": "https://api.github.com/repos/bitcoin/bitcoin/issues/comments/290628657/reactions",
      "total_count": 0,
      "+1": 0,
      "-1": 0,
      "laugh": 0,
      "hooray": 0,
      "confused": 0,
      "heart": 0,
      "rocket": 0,
      "eyes": 0
    },
    "performed_via_github_app": null
  },
  {
    "url": "https://api.github.com/repos/bitcoin/bitcoin/issues/comments/290630078",
    "html_url": "https://github.com/bitcoin/bitcoin/pull/10130#issuecomment-290630078",
    "issue_url": "https://api.github.com/repos/bitcoin/bitcoin/issues/10130",
    "id": 290630078,
    "node_id": "MDEyOklzc3VlQ29tbWVudDI5MDYzMDA3OA==",
    "user": {
      "login": "gmaxwell",
      "id": 858454,
      "node_id": "MDQ6VXNlcjg1ODQ1NA==",
      "avatar_url": "https://avatars.githubusercontent.com/u/858454?v=4",
      "gravatar_id": "",
      "url": "https://api.github.com/users/gmaxwell",
      "html_url": "https://github.com/gmaxwell",
      "followers_url": "https://api.github.com/users/gmaxwell/followers",
      "following_url": "https://api.github.com/users/gmaxwell/following{/other_user}",
      "gists_url": "https://api.github.com/users/gmaxwell/gists{/gist_id}",
      "starred_url": "https://api.github.com/users/gmaxwell/starred{/owner}{/repo}",
      "subscriptions_url": "https://api.github.com/users/gmaxwell/subscriptions",
      "organizations_url": "https://api.github.com/users/gmaxwell/orgs",
      "repos_url": "https://api.github.com/users/gmaxwell/repos",
      "events_url": "https://api.github.com/users/gmaxwell/events{/privacy}",
      "received_events_url": "https://api.github.com/users/gmaxwell/received_events",
      "type": "User",
      "site_admin": false
    },
    "created_at": "2017-03-31T06:39:45Z",
    "updated_at": "2017-03-31T06:39:45Z",
    "author_association": "CONTRIBUTOR",
    "body_html": "<p dir=\"auto\"><a class=\"user-mention notranslate\" data-hovercard-type=\"user\" data-hovercard-url=\"/users/awemany/hovercard\" data-octo-click=\"hovercard-link-click\" data-octo-dimensions=\"link_type:self\" href=\"https://github.com/awemany\">@awemany</a> Fix moved over here, your review/testing would be very welcome!</p>",
    "body_text": "@awemany Fix moved over here, your review/testing would be very welcome!",
    "body": "@awemany Fix moved over here, your review/testing would be very welcome!",
    "reactions": {
      "url": "https://api.github.com/repos/bitcoin/bitcoin/issues/comments/290630078/reactions",
      "total_count": 0,
      "+1": 0,
      "-1": 0,
      "laugh": 0,
      "hooray": 0,
      "confused": 0,
      "heart": 0,
      "rocket": 0,
      "eyes": 0
    },
    "performed_via_github_app": null
  },
  {
    "url": "https://api.github.com/repos/bitcoin/bitcoin/issues/comments/290633289",
    "html_url": "https://github.com/bitcoin/bitcoin/pull/10130#issuecomment-290633289",
    "issue_url": "https://api.github.com/repos/bitcoin/bitcoin/issues/10130",
    "id": 290633289,
    "node_id": "MDEyOklzc3VlQ29tbWVudDI5MDYzMzI4OQ==",
    "user": {
      "login": "theuni",
      "id": 417043,
      "node_id": "MDQ6VXNlcjQxNzA0Mw==",
      "avatar_url": "https://avatars.githubusercontent.com/u/417043?v=4",
      "gravatar_id": "",
      "url": "https://api.github.com/users/theuni",
      "html_url": "https://github.com/theuni",
      "followers_url": "https://api.github.com/users/theuni/followers",
      "following_url": "https://api.github.com/users/theuni/following{/other_user}",
      "gists_url": "https://api.github.com/users/theuni/gists{/gist_id}",
      "starred_url": "https://api.github.com/users/theuni/starred{/owner}{/repo}",
      "subscriptions_url": "https://api.github.com/users/theuni/subscriptions",
      "organizations_url": "https://api.github.com/users/theuni/orgs",
      "repos_url": "https://api.github.com/users/theuni/repos",
      "events_url": "https://api.github.com/users/theuni/events{/privacy}",
      "received_events_url": "https://api.github.com/users/theuni/received_events",
      "type": "User",
      "site_admin": false
    },
    "created_at": "2017-03-31T07:00:40Z",
    "updated_at": "2017-03-31T07:00:40Z",
    "author_association": "MEMBER",
    "body_html": "<p dir=\"auto\">As mentioned in the comments: for reference, I suggested using exit codes rather than comparing text because (here specifically), Wine piles nonsense about window creation into stderr when running without DISPLAY set. For that reason, we can't test that \"stderr == expected\", rather we have to test \"expected in stderr\". That's not great, but it's not a huge deal either.</p>\n<p dir=\"auto\">utACK <a class=\"commit-link\" data-hovercard-type=\"commit\" data-hovercard-url=\"https://github.com/bitcoin/bitcoin/commit/19ecd1e2e13514c8a92a2a4337c2568c3d5d13e5/hovercard\" href=\"https://github.com/bitcoin/bitcoin/commit/19ecd1e2e13514c8a92a2a4337c2568c3d5d13e5\"><tt>19ecd1e</tt></a></p>",
    "body_text": "As mentioned in the comments: for reference, I suggested using exit codes rather than comparing text because (here specifically), Wine piles nonsense about window creation into stderr when running without DISPLAY set. For that reason, we can't test that \"stderr == expected\", rather we have to test \"expected in stderr\". That's not great, but it's not a huge deal either.\nutACK 19ecd1e",
    "body": "As mentioned in the comments: for reference, I suggested using exit codes rather than comparing text because (here specifically), Wine piles nonsense about window creation into stderr when running without DISPLAY set. For that reason, we can't test that \"stderr == expected\", rather we have to test \"expected in stderr\". That's not great, but it's not a huge deal either.\r\n\r\nutACK 19ecd1e2e13514c8a92a2a4337c2568c3d5d13e5",
    "reactions": {
      "url": "https://api.github.com/repos/bitcoin/bitcoin/issues/comments/290633289/reactions",
      "total_count": 0,
      "+1": 0,
      "-1": 0,
      "laugh": 0,
      "hooray": 0,
      "confused": 0,
      "heart": 0,
      "rocket": 0,
      "eyes": 0
    },
    "performed_via_github_app": null
  }
]
