[
  {
    "url": "https://api.github.com/repos/bitcoin/bitcoin/issues/comments/428838688",
    "html_url": "https://github.com/bitcoin/bitcoin/pull/14460#issuecomment-428838688",
    "issue_url": "https://api.github.com/repos/bitcoin/bitcoin/issues/14460",
    "id": 428838688,
    "node_id": "MDEyOklzc3VlQ29tbWVudDQyODgzODY4OA==",
    "user": {
      "login": "promag",
      "id": 3534524,
      "node_id": "MDQ6VXNlcjM1MzQ1MjQ=",
      "avatar_url": "https://avatars.githubusercontent.com/u/3534524?v=4",
      "gravatar_id": "",
      "url": "https://api.github.com/users/promag",
      "html_url": "https://github.com/promag",
      "followers_url": "https://api.github.com/users/promag/followers",
      "following_url": "https://api.github.com/users/promag/following{/other_user}",
      "gists_url": "https://api.github.com/users/promag/gists{/gist_id}",
      "starred_url": "https://api.github.com/users/promag/starred{/owner}{/repo}",
      "subscriptions_url": "https://api.github.com/users/promag/subscriptions",
      "organizations_url": "https://api.github.com/users/promag/orgs",
      "repos_url": "https://api.github.com/users/promag/repos",
      "events_url": "https://api.github.com/users/promag/events{/privacy}",
      "received_events_url": "https://api.github.com/users/promag/received_events",
      "type": "User",
      "site_admin": false
    },
    "created_at": "2018-10-11T06:39:31Z",
    "updated_at": "2018-10-11T06:39:31Z",
    "author_association": "MEMBER",
    "body_html": "<blockquote>\n<p dir=\"auto\">explicit using of the CAmount type.</p>\n</blockquote>\n<p dir=\"auto\">Why? Is there an advantage?</p>",
    "body_text": "explicit using of the CAmount type.\n\nWhy? Is there an advantage?",
    "body": "> explicit using of the CAmount type.\r\n\r\nWhy? Is there an advantage?",
    "reactions": {
      "url": "https://api.github.com/repos/bitcoin/bitcoin/issues/comments/428838688/reactions",
      "total_count": 0,
      "+1": 0,
      "-1": 0,
      "laugh": 0,
      "hooray": 0,
      "confused": 0,
      "heart": 0,
      "rocket": 0,
      "eyes": 0
    },
    "performed_via_github_app": null
  },
  {
    "url": "https://api.github.com/repos/bitcoin/bitcoin/issues/comments/428841865",
    "html_url": "https://github.com/bitcoin/bitcoin/pull/14460#issuecomment-428841865",
    "issue_url": "https://api.github.com/repos/bitcoin/bitcoin/issues/14460",
    "id": 428841865,
    "node_id": "MDEyOklzc3VlQ29tbWVudDQyODg0MTg2NQ==",
    "user": {
      "login": "hebasto",
      "id": 32963518,
      "node_id": "MDQ6VXNlcjMyOTYzNTE4",
      "avatar_url": "https://avatars.githubusercontent.com/u/32963518?v=4",
      "gravatar_id": "",
      "url": "https://api.github.com/users/hebasto",
      "html_url": "https://github.com/hebasto",
      "followers_url": "https://api.github.com/users/hebasto/followers",
      "following_url": "https://api.github.com/users/hebasto/following{/other_user}",
      "gists_url": "https://api.github.com/users/hebasto/gists{/gist_id}",
      "starred_url": "https://api.github.com/users/hebasto/starred{/owner}{/repo}",
      "subscriptions_url": "https://api.github.com/users/hebasto/subscriptions",
      "organizations_url": "https://api.github.com/users/hebasto/orgs",
      "repos_url": "https://api.github.com/users/hebasto/repos",
      "events_url": "https://api.github.com/users/hebasto/events{/privacy}",
      "received_events_url": "https://api.github.com/users/hebasto/received_events",
      "type": "User",
      "site_admin": false
    },
    "created_at": "2018-10-11T06:53:47Z",
    "updated_at": "2018-10-11T06:55:24Z",
    "author_association": "MEMBER",
    "body_html": "<p dir=\"auto\"><a class=\"user-mention notranslate\" data-hovercard-type=\"user\" data-hovercard-url=\"/users/promag/hovercard\" data-octo-click=\"hovercard-link-click\" data-octo-dimensions=\"link_type:self\" href=\"https://github.com/promag\">@promag</a></p>\n<blockquote>\n<p dir=\"auto\">Why?</p>\n</blockquote>\n<p dir=\"auto\"></p><div class=\"Box Box--condensed my-2\">\n  <div class=\"Box-header f6\">\n    <p class=\"mb-0 text-bold\">\n      <a href=\"https://github.com/bitcoin/bitcoin/blob/eb7daf4d600eeb631427c018a984a77a34aca66e/src/policy/feerate.h#L37\">bitcoin/src/policy/feerate.h</a>\n    </p>\n    <p class=\"mb-0 color-fg-muted\">\n         Line 37\n      in\n      <a data-pjax=\"true\" class=\"commit-tease-sha Link--inTextBlock\" href=\"/bitcoin/bitcoin/commit/eb7daf4d600eeb631427c018a984a77a34aca66e\">eb7daf4</a>\n    </p>\n  </div>\n  <div itemprop=\"text\" class=\"Box-body p-0 blob-wrapper blob-wrapper-embedded data\">\n    <table class=\"highlight tab-size mb-0 js-file-line-container\" data-tab-size=\"8\" data-paste-markdown-skip=\"\">\n\n        <tbody><tr class=\"border-0\">\n          <td id=\"L37\" class=\"blob-num border-0 px-3 py-0 color-bg-default\" data-line-number=\"37\"></td>\n          <td id=\"LC37\" class=\"blob-code border-0 px-3 py-0 color-bg-default blob-code-inner js-file-line\"> CAmount <span class=\"pl-en\">GetFee</span>(<span class=\"pl-c1\">size_t</span> nBytes) <span class=\"pl-k\">const</span>; </td>\n        </tr>\n    </tbody></table>\n  </div>\n</div>\n<p></p>\n<blockquote>\n<p dir=\"auto\">Is there an advantage?</p>\n</blockquote>\n<p dir=\"auto\">It clearly shows what type of return value we are expecting from the methods being testing.</p>",
    "body_text": "@promag\n\nWhy?\n\n\n  \n    \n      bitcoin/src/policy/feerate.h\n    \n    \n         Line 37\n      in\n      eb7daf4\n    \n  \n  \n    \n\n        \n          \n           CAmount GetFee(size_t nBytes) const; \n        \n    \n  \n\n\n\nIs there an advantage?\n\nIt clearly shows what type of return value we are expecting from the methods being testing.",
    "body": "@promag \r\n\r\n> Why?\r\n\r\nhttps://github.com/bitcoin/bitcoin/blob/eb7daf4d600eeb631427c018a984a77a34aca66e/src/policy/feerate.h#L37\r\n\r\n>  Is there an advantage?\r\n\r\nIt clearly shows what type of return value we are expecting from the methods being testing.\r\n",
    "reactions": {
      "url": "https://api.github.com/repos/bitcoin/bitcoin/issues/comments/428841865/reactions",
      "total_count": 0,
      "+1": 0,
      "-1": 0,
      "laugh": 0,
      "hooray": 0,
      "confused": 0,
      "heart": 0,
      "rocket": 0,
      "eyes": 0
    },
    "performed_via_github_app": null
  },
  {
    "url": "https://api.github.com/repos/bitcoin/bitcoin/issues/comments/428909362",
    "html_url": "https://github.com/bitcoin/bitcoin/pull/14460#issuecomment-428909362",
    "issue_url": "https://api.github.com/repos/bitcoin/bitcoin/issues/14460",
    "id": 428909362,
    "node_id": "MDEyOklzc3VlQ29tbWVudDQyODkwOTM2Mg==",
    "user": {
      "login": "promag",
      "id": 3534524,
      "node_id": "MDQ6VXNlcjM1MzQ1MjQ=",
      "avatar_url": "https://avatars.githubusercontent.com/u/3534524?v=4",
      "gravatar_id": "",
      "url": "https://api.github.com/users/promag",
      "html_url": "https://github.com/promag",
      "followers_url": "https://api.github.com/users/promag/followers",
      "following_url": "https://api.github.com/users/promag/following{/other_user}",
      "gists_url": "https://api.github.com/users/promag/gists{/gist_id}",
      "starred_url": "https://api.github.com/users/promag/starred{/owner}{/repo}",
      "subscriptions_url": "https://api.github.com/users/promag/subscriptions",
      "organizations_url": "https://api.github.com/users/promag/orgs",
      "repos_url": "https://api.github.com/users/promag/repos",
      "events_url": "https://api.github.com/users/promag/events{/privacy}",
      "received_events_url": "https://api.github.com/users/promag/received_events",
      "type": "User",
      "site_admin": false
    },
    "created_at": "2018-10-11T10:46:16Z",
    "updated_at": "2018-10-11T10:46:16Z",
    "author_association": "MEMBER",
    "body_html": "<p dir=\"auto\">utACK <a class=\"commit-link\" data-hovercard-type=\"commit\" data-hovercard-url=\"https://github.com/bitcoin/bitcoin/commit/29ed2d64f6d03e242068589ba35805b3fd2ad05a/hovercard\" href=\"https://github.com/bitcoin/bitcoin/commit/29ed2d64f6d03e242068589ba35805b3fd2ad05a\"><tt>29ed2d6</tt></a>.</p>",
    "body_text": "utACK 29ed2d6.",
    "body": "utACK 29ed2d6.",
    "reactions": {
      "url": "https://api.github.com/repos/bitcoin/bitcoin/issues/comments/428909362/reactions",
      "total_count": 0,
      "+1": 0,
      "-1": 0,
      "laugh": 0,
      "hooray": 0,
      "confused": 0,
      "heart": 0,
      "rocket": 0,
      "eyes": 0
    },
    "performed_via_github_app": null
  },
  {
    "url": "https://api.github.com/repos/bitcoin/bitcoin/issues/comments/429448592",
    "html_url": "https://github.com/bitcoin/bitcoin/pull/14460#issuecomment-429448592",
    "issue_url": "https://api.github.com/repos/bitcoin/bitcoin/issues/14460",
    "id": 429448592,
    "node_id": "MDEyOklzc3VlQ29tbWVudDQyOTQ0ODU5Mg==",
    "user": {
      "login": "sipa",
      "id": 548488,
      "node_id": "MDQ6VXNlcjU0ODQ4OA==",
      "avatar_url": "https://avatars.githubusercontent.com/u/548488?v=4",
      "gravatar_id": "",
      "url": "https://api.github.com/users/sipa",
      "html_url": "https://github.com/sipa",
      "followers_url": "https://api.github.com/users/sipa/followers",
      "following_url": "https://api.github.com/users/sipa/following{/other_user}",
      "gists_url": "https://api.github.com/users/sipa/gists{/gist_id}",
      "starred_url": "https://api.github.com/users/sipa/starred{/owner}{/repo}",
      "subscriptions_url": "https://api.github.com/users/sipa/subscriptions",
      "organizations_url": "https://api.github.com/users/sipa/orgs",
      "repos_url": "https://api.github.com/users/sipa/repos",
      "events_url": "https://api.github.com/users/sipa/events{/privacy}",
      "received_events_url": "https://api.github.com/users/sipa/received_events",
      "type": "User",
      "site_admin": false
    },
    "created_at": "2018-10-12T20:11:20Z",
    "updated_at": "2018-10-12T20:11:20Z",
    "author_association": "MEMBER",
    "body_html": "<p dir=\"auto\">utACK.</p>\n<p dir=\"auto\">Is the eventual goal to remove the implicit conversion from other types to CAmount?</p>\n<p dir=\"auto\"><a class=\"user-mention notranslate\" data-hovercard-type=\"user\" data-hovercard-url=\"/users/arvidn/hovercard\" data-octo-click=\"hovercard-link-click\" data-octo-dimensions=\"link_type:self\" href=\"https://github.com/arvidn\">@arvidn</a> perhaps you're interested in this?</p>",
    "body_text": "utACK.\nIs the eventual goal to remove the implicit conversion from other types to CAmount?\n@arvidn perhaps you're interested in this?",
    "body": "utACK.\r\n\r\nIs the eventual goal to remove the implicit conversion from other types to CAmount?\r\n\r\n@arvidn perhaps you're interested in this?",
    "reactions": {
      "url": "https://api.github.com/repos/bitcoin/bitcoin/issues/comments/429448592/reactions",
      "total_count": 0,
      "+1": 0,
      "-1": 0,
      "laugh": 0,
      "hooray": 0,
      "confused": 0,
      "heart": 0,
      "rocket": 0,
      "eyes": 0
    },
    "performed_via_github_app": null
  },
  {
    "url": "https://api.github.com/repos/bitcoin/bitcoin/issues/comments/429463114",
    "html_url": "https://github.com/bitcoin/bitcoin/pull/14460#issuecomment-429463114",
    "issue_url": "https://api.github.com/repos/bitcoin/bitcoin/issues/14460",
    "id": 429463114,
    "node_id": "MDEyOklzc3VlQ29tbWVudDQyOTQ2MzExNA==",
    "user": {
      "login": "jb55",
      "id": 45598,
      "node_id": "MDQ6VXNlcjQ1NTk4",
      "avatar_url": "https://avatars.githubusercontent.com/u/45598?v=4",
      "gravatar_id": "",
      "url": "https://api.github.com/users/jb55",
      "html_url": "https://github.com/jb55",
      "followers_url": "https://api.github.com/users/jb55/followers",
      "following_url": "https://api.github.com/users/jb55/following{/other_user}",
      "gists_url": "https://api.github.com/users/jb55/gists{/gist_id}",
      "starred_url": "https://api.github.com/users/jb55/starred{/owner}{/repo}",
      "subscriptions_url": "https://api.github.com/users/jb55/subscriptions",
      "organizations_url": "https://api.github.com/users/jb55/orgs",
      "repos_url": "https://api.github.com/users/jb55/repos",
      "events_url": "https://api.github.com/users/jb55/events{/privacy}",
      "received_events_url": "https://api.github.com/users/jb55/received_events",
      "type": "User",
      "site_admin": false
    },
    "created_at": "2018-10-12T21:09:48Z",
    "updated_at": "2018-10-12T21:09:48Z",
    "author_association": "CONTRIBUTOR",
    "body_html": "<blockquote>\n<p dir=\"auto\">Is the eventual goal to remove the implicit conversion from other types to CAmount</p>\n</blockquote>\n<p dir=\"auto\">I hope so, right now this would remove testing of implicit conversions... is that a good thing?</p>",
    "body_text": "Is the eventual goal to remove the implicit conversion from other types to CAmount\n\nI hope so, right now this would remove testing of implicit conversions... is that a good thing?",
    "body": "> Is the eventual goal to remove the implicit conversion from other types to CAmount\r\n\r\nI hope so, right now this would remove testing of implicit conversions... is that a good thing?",
    "reactions": {
      "url": "https://api.github.com/repos/bitcoin/bitcoin/issues/comments/429463114/reactions",
      "total_count": 0,
      "+1": 0,
      "-1": 0,
      "laugh": 0,
      "hooray": 0,
      "confused": 0,
      "heart": 0,
      "rocket": 0,
      "eyes": 0
    },
    "performed_via_github_app": null
  },
  {
    "url": "https://api.github.com/repos/bitcoin/bitcoin/issues/comments/429535222",
    "html_url": "https://github.com/bitcoin/bitcoin/pull/14460#issuecomment-429535222",
    "issue_url": "https://api.github.com/repos/bitcoin/bitcoin/issues/14460",
    "id": 429535222,
    "node_id": "MDEyOklzc3VlQ29tbWVudDQyOTUzNTIyMg==",
    "user": {
      "login": "hebasto",
      "id": 32963518,
      "node_id": "MDQ6VXNlcjMyOTYzNTE4",
      "avatar_url": "https://avatars.githubusercontent.com/u/32963518?v=4",
      "gravatar_id": "",
      "url": "https://api.github.com/users/hebasto",
      "html_url": "https://github.com/hebasto",
      "followers_url": "https://api.github.com/users/hebasto/followers",
      "following_url": "https://api.github.com/users/hebasto/following{/other_user}",
      "gists_url": "https://api.github.com/users/hebasto/gists{/gist_id}",
      "starred_url": "https://api.github.com/users/hebasto/starred{/owner}{/repo}",
      "subscriptions_url": "https://api.github.com/users/hebasto/subscriptions",
      "organizations_url": "https://api.github.com/users/hebasto/orgs",
      "repos_url": "https://api.github.com/users/hebasto/repos",
      "events_url": "https://api.github.com/users/hebasto/events{/privacy}",
      "received_events_url": "https://api.github.com/users/hebasto/received_events",
      "type": "User",
      "site_admin": false
    },
    "created_at": "2018-10-13T11:42:44Z",
    "updated_at": "2018-10-13T11:42:44Z",
    "author_association": "MEMBER",
    "body_html": "<p dir=\"auto\"><a class=\"user-mention notranslate\" data-hovercard-type=\"user\" data-hovercard-url=\"/users/sipa/hovercard\" data-octo-click=\"hovercard-link-click\" data-octo-dimensions=\"link_type:self\" href=\"https://github.com/sipa\">@sipa</a> <a class=\"user-mention notranslate\" data-hovercard-type=\"user\" data-hovercard-url=\"/users/jb55/hovercard\" data-octo-click=\"hovercard-link-click\" data-octo-dimensions=\"link_type:self\" href=\"https://github.com/jb55\">@jb55</a><br>\nThank you for your reviews.</p>\n<p dir=\"auto\">Is it worth to just add an explicit test case for type conversions like this:</p>\n<div class=\"snippet-clipboard-content notranslate position-relative overflow-auto\" data-snippet-clipboard-copy-content=\"BOOST_AUTO_TEST_CASE(CAmountTypeConversionTest)\n{\n    BOOST_CHECK_EQUAL(CAmount(-MAX_MONEY), -MAX_MONEY);\n    BOOST_CHECK_EQUAL(CAmount(-1), -1);\n    BOOST_CHECK_EQUAL(CAmount(0), 0);\n    BOOST_CHECK_EQUAL(CAmount(1), 1);\n    BOOST_CHECK_EQUAL(CAmount(MAX_MONEY), MAX_MONEY);\n}\"><pre class=\"notranslate\"><code class=\"notranslate\">BOOST_AUTO_TEST_CASE(CAmountTypeConversionTest)\n{\n    BOOST_CHECK_EQUAL(CAmount(-MAX_MONEY), -MAX_MONEY);\n    BOOST_CHECK_EQUAL(CAmount(-1), -1);\n    BOOST_CHECK_EQUAL(CAmount(0), 0);\n    BOOST_CHECK_EQUAL(CAmount(1), 1);\n    BOOST_CHECK_EQUAL(CAmount(MAX_MONEY), MAX_MONEY);\n}\n</code></pre></div>\n<p dir=\"auto\">or just keep in mind that<br>\n</p><div class=\"Box Box--condensed my-2\">\n  <div class=\"Box-header f6\">\n    <p class=\"mb-0 text-bold\">\n      <a href=\"https://github.com/bitcoin/bitcoin/blob/fa84723e73d3d7766e7821881ac96ec203e50efc/src/amount.h#L12\">bitcoin/src/amount.h</a>\n    </p>\n    <p class=\"mb-0 color-fg-muted\">\n         Line 12\n      in\n      <a data-pjax=\"true\" class=\"commit-tease-sha Link--inTextBlock\" href=\"/bitcoin/bitcoin/commit/fa84723e73d3d7766e7821881ac96ec203e50efc\">fa84723</a>\n    </p>\n  </div>\n  <div itemprop=\"text\" class=\"Box-body p-0 blob-wrapper blob-wrapper-embedded data\">\n    <table class=\"highlight tab-size mb-0 js-file-line-container\" data-tab-size=\"8\" data-paste-markdown-skip=\"\">\n\n        <tbody><tr class=\"border-0\">\n          <td id=\"L12\" class=\"blob-num border-0 px-3 py-0 color-bg-default\" data-line-number=\"12\"></td>\n          <td id=\"LC12\" class=\"blob-code border-0 px-3 py-0 color-bg-default blob-code-inner js-file-line\"> <span class=\"pl-k\">typedef</span> <span class=\"pl-smi\">int64_t</span> <span class=\"pl-smi\">CAmount</span>; </td>\n        </tr>\n    </tbody></table>\n  </div>\n</div>\n<p></p>",
    "body_text": "@sipa @jb55\nThank you for your reviews.\nIs it worth to just add an explicit test case for type conversions like this:\nBOOST_AUTO_TEST_CASE(CAmountTypeConversionTest)\n{\n    BOOST_CHECK_EQUAL(CAmount(-MAX_MONEY), -MAX_MONEY);\n    BOOST_CHECK_EQUAL(CAmount(-1), -1);\n    BOOST_CHECK_EQUAL(CAmount(0), 0);\n    BOOST_CHECK_EQUAL(CAmount(1), 1);\n    BOOST_CHECK_EQUAL(CAmount(MAX_MONEY), MAX_MONEY);\n}\n\nor just keep in mind that\n\n  \n    \n      bitcoin/src/amount.h\n    \n    \n         Line 12\n      in\n      fa84723\n    \n  \n  \n    \n\n        \n          \n           typedef int64_t CAmount;",
    "body": "@sipa @jb55 \r\nThank you for your reviews.\r\n\r\nIs it worth to just add an explicit test case for type conversions like this:\r\n```\r\nBOOST_AUTO_TEST_CASE(CAmountTypeConversionTest)\r\n{\r\n    BOOST_CHECK_EQUAL(CAmount(-MAX_MONEY), -MAX_MONEY);\r\n    BOOST_CHECK_EQUAL(CAmount(-1), -1);\r\n    BOOST_CHECK_EQUAL(CAmount(0), 0);\r\n    BOOST_CHECK_EQUAL(CAmount(1), 1);\r\n    BOOST_CHECK_EQUAL(CAmount(MAX_MONEY), MAX_MONEY);\r\n}\r\n```\r\n\r\nor just keep in mind that\r\nhttps://github.com/bitcoin/bitcoin/blob/fa84723e73d3d7766e7821881ac96ec203e50efc/src/amount.h#L12",
    "reactions": {
      "url": "https://api.github.com/repos/bitcoin/bitcoin/issues/comments/429535222/reactions",
      "total_count": 0,
      "+1": 0,
      "-1": 0,
      "laugh": 0,
      "hooray": 0,
      "confused": 0,
      "heart": 0,
      "rocket": 0,
      "eyes": 0
    },
    "performed_via_github_app": null
  },
  {
    "url": "https://api.github.com/repos/bitcoin/bitcoin/issues/comments/431113214",
    "html_url": "https://github.com/bitcoin/bitcoin/pull/14460#issuecomment-431113214",
    "issue_url": "https://api.github.com/repos/bitcoin/bitcoin/issues/14460",
    "id": 431113214,
    "node_id": "MDEyOklzc3VlQ29tbWVudDQzMTExMzIxNA==",
    "user": {
      "login": "laanwj",
      "id": 126646,
      "node_id": "MDQ6VXNlcjEyNjY0Ng==",
      "avatar_url": "https://avatars.githubusercontent.com/u/126646?v=4",
      "gravatar_id": "",
      "url": "https://api.github.com/users/laanwj",
      "html_url": "https://github.com/laanwj",
      "followers_url": "https://api.github.com/users/laanwj/followers",
      "following_url": "https://api.github.com/users/laanwj/following{/other_user}",
      "gists_url": "https://api.github.com/users/laanwj/gists{/gist_id}",
      "starred_url": "https://api.github.com/users/laanwj/starred{/owner}{/repo}",
      "subscriptions_url": "https://api.github.com/users/laanwj/subscriptions",
      "organizations_url": "https://api.github.com/users/laanwj/orgs",
      "repos_url": "https://api.github.com/users/laanwj/repos",
      "events_url": "https://api.github.com/users/laanwj/events{/privacy}",
      "received_events_url": "https://api.github.com/users/laanwj/received_events",
      "type": "User",
      "site_admin": false
    },
    "created_at": "2018-10-18T18:25:17Z",
    "updated_at": "2018-10-18T18:25:17Z",
    "author_association": "MEMBER",
    "body_html": "<blockquote>\n<p dir=\"auto\">Is it worth to just add an explicit test case for type conversions like this:</p>\n</blockquote>\n<p dir=\"auto\">I don't think so—because at the same time that would be worth testing (e.g. CAmount becomes an actual type instead of typedef), implicit conversion will be no longer possible</p>",
    "body_text": "Is it worth to just add an explicit test case for type conversions like this:\n\nI don't think so—because at the same time that would be worth testing (e.g. CAmount becomes an actual type instead of typedef), implicit conversion will be no longer possible",
    "body": "> Is it worth to just add an explicit test case for type conversions like this:\r\n\r\nI don't think so—because at the same time that would be worth testing (e.g. CAmount becomes an actual type instead of typedef), implicit conversion will be no longer possible",
    "reactions": {
      "url": "https://api.github.com/repos/bitcoin/bitcoin/issues/comments/431113214/reactions",
      "total_count": 0,
      "+1": 0,
      "-1": 0,
      "laugh": 0,
      "hooray": 0,
      "confused": 0,
      "heart": 0,
      "rocket": 0,
      "eyes": 0
    },
    "performed_via_github_app": null
  },
  {
    "url": "https://api.github.com/repos/bitcoin/bitcoin/issues/comments/431114547",
    "html_url": "https://github.com/bitcoin/bitcoin/pull/14460#issuecomment-431114547",
    "issue_url": "https://api.github.com/repos/bitcoin/bitcoin/issues/14460",
    "id": 431114547,
    "node_id": "MDEyOklzc3VlQ29tbWVudDQzMTExNDU0Nw==",
    "user": {
      "login": "laanwj",
      "id": 126646,
      "node_id": "MDQ6VXNlcjEyNjY0Ng==",
      "avatar_url": "https://avatars.githubusercontent.com/u/126646?v=4",
      "gravatar_id": "",
      "url": "https://api.github.com/users/laanwj",
      "html_url": "https://github.com/laanwj",
      "followers_url": "https://api.github.com/users/laanwj/followers",
      "following_url": "https://api.github.com/users/laanwj/following{/other_user}",
      "gists_url": "https://api.github.com/users/laanwj/gists{/gist_id}",
      "starred_url": "https://api.github.com/users/laanwj/starred{/owner}{/repo}",
      "subscriptions_url": "https://api.github.com/users/laanwj/subscriptions",
      "organizations_url": "https://api.github.com/users/laanwj/orgs",
      "repos_url": "https://api.github.com/users/laanwj/repos",
      "events_url": "https://api.github.com/users/laanwj/events{/privacy}",
      "received_events_url": "https://api.github.com/users/laanwj/received_events",
      "type": "User",
      "site_admin": false
    },
    "created_at": "2018-10-18T18:29:34Z",
    "updated_at": "2018-10-18T18:29:34Z",
    "author_association": "MEMBER",
    "body_html": "<p dir=\"auto\">utACK <a class=\"commit-link\" data-hovercard-type=\"commit\" data-hovercard-url=\"https://github.com/bitcoin/bitcoin/commit/29ed2d64f6d03e242068589ba35805b3fd2ad05a/hovercard\" href=\"https://github.com/bitcoin/bitcoin/commit/29ed2d64f6d03e242068589ba35805b3fd2ad05a\"><tt>29ed2d6</tt></a></p>",
    "body_text": "utACK 29ed2d6",
    "body": "utACK 29ed2d64f6d03e242068589ba35805b3fd2ad05a",
    "reactions": {
      "url": "https://api.github.com/repos/bitcoin/bitcoin/issues/comments/431114547/reactions",
      "total_count": 0,
      "+1": 0,
      "-1": 0,
      "laugh": 0,
      "hooray": 0,
      "confused": 0,
      "heart": 0,
      "rocket": 0,
      "eyes": 0
    },
    "performed_via_github_app": null
  },
  {
    "url": "https://api.github.com/repos/bitcoin/bitcoin/issues/comments/431540866",
    "html_url": "https://github.com/bitcoin/bitcoin/pull/14460#issuecomment-431540866",
    "issue_url": "https://api.github.com/repos/bitcoin/bitcoin/issues/14460",
    "id": 431540866,
    "node_id": "MDEyOklzc3VlQ29tbWVudDQzMTU0MDg2Ng==",
    "user": {
      "login": "sipa",
      "id": 548488,
      "node_id": "MDQ6VXNlcjU0ODQ4OA==",
      "avatar_url": "https://avatars.githubusercontent.com/u/548488?v=4",
      "gravatar_id": "",
      "url": "https://api.github.com/users/sipa",
      "html_url": "https://github.com/sipa",
      "followers_url": "https://api.github.com/users/sipa/followers",
      "following_url": "https://api.github.com/users/sipa/following{/other_user}",
      "gists_url": "https://api.github.com/users/sipa/gists{/gist_id}",
      "starred_url": "https://api.github.com/users/sipa/starred{/owner}{/repo}",
      "subscriptions_url": "https://api.github.com/users/sipa/subscriptions",
      "organizations_url": "https://api.github.com/users/sipa/orgs",
      "repos_url": "https://api.github.com/users/sipa/repos",
      "events_url": "https://api.github.com/users/sipa/events{/privacy}",
      "received_events_url": "https://api.github.com/users/sipa/received_events",
      "type": "User",
      "site_admin": false
    },
    "created_at": "2018-10-20T02:15:58Z",
    "updated_at": "2018-10-20T02:15:58Z",
    "author_association": "MEMBER",
    "body_html": "<p dir=\"auto\">utACK <a class=\"commit-link\" data-hovercard-type=\"commit\" data-hovercard-url=\"https://github.com/bitcoin/bitcoin/commit/29ed2d64f6d03e242068589ba35805b3fd2ad05a/hovercard\" href=\"https://github.com/bitcoin/bitcoin/commit/29ed2d64f6d03e242068589ba35805b3fd2ad05a\"><tt>29ed2d6</tt></a></p>",
    "body_text": "utACK 29ed2d6",
    "body": "utACK 29ed2d64f6d03e242068589ba35805b3fd2ad05a",
    "reactions": {
      "url": "https://api.github.com/repos/bitcoin/bitcoin/issues/comments/431540866/reactions",
      "total_count": 0,
      "+1": 0,
      "-1": 0,
      "laugh": 0,
      "hooray": 0,
      "confused": 0,
      "heart": 0,
      "rocket": 0,
      "eyes": 0
    },
    "performed_via_github_app": null
  }
]
