{
  "url": "https://api.github.com/repos/bitcoin/bitcoin/issues/11475",
  "repository_url": "https://api.github.com/repos/bitcoin/bitcoin",
  "labels_url": "https://api.github.com/repos/bitcoin/bitcoin/issues/11475/labels{/name}",
  "comments_url": "https://api.github.com/repos/bitcoin/bitcoin/issues/11475/comments",
  "events_url": "https://api.github.com/repos/bitcoin/bitcoin/issues/11475/events",
  "html_url": "https://github.com/bitcoin/bitcoin/pull/11475",
  "id": 264299014,
  "node_id": "MDExOlB1bGxSZXF1ZXN0MTQ1NzQ1MTg0",
  "number": 11475,
  "title": "[rpc] mempoolinfo should take ::minRelayTxFee into account",
  "user": {
    "login": "mess110",
    "id": 226170,
    "node_id": "MDQ6VXNlcjIyNjE3MA==",
    "avatar_url": "https://avatars.githubusercontent.com/u/226170?v=4",
    "gravatar_id": "",
    "url": "https://api.github.com/users/mess110",
    "html_url": "https://github.com/mess110",
    "followers_url": "https://api.github.com/users/mess110/followers",
    "following_url": "https://api.github.com/users/mess110/following{/other_user}",
    "gists_url": "https://api.github.com/users/mess110/gists{/gist_id}",
    "starred_url": "https://api.github.com/users/mess110/starred{/owner}{/repo}",
    "subscriptions_url": "https://api.github.com/users/mess110/subscriptions",
    "organizations_url": "https://api.github.com/users/mess110/orgs",
    "repos_url": "https://api.github.com/users/mess110/repos",
    "events_url": "https://api.github.com/users/mess110/events{/privacy}",
    "received_events_url": "https://api.github.com/users/mess110/received_events",
    "type": "User",
    "site_admin": false
  },
  "labels": [
    {
      "id": 98279177,
      "node_id": "MDU6TGFiZWw5ODI3OTE3Nw==",
      "url": "https://api.github.com/repos/bitcoin/bitcoin/labels/RPC/REST/ZMQ",
      "name": "RPC/REST/ZMQ",
      "color": "0052cc",
      "default": false,
      "description": null
    }
  ],
  "state": "closed",
  "locked": true,
  "assignee": null,
  "assignees": [

  ],
  "milestone": null,
  "comments": 4,
  "created_at": "2017-10-10T16:45:56Z",
  "updated_at": "2021-09-08T11:51:09Z",
  "closed_at": "2017-12-23T09:00:55Z",
  "author_association": "CONTRIBUTOR",
  "active_lock_reason": "resolved",
  "draft": false,
  "pull_request": {
    "url": "https://api.github.com/repos/bitcoin/bitcoin/pulls/11475",
    "html_url": "https://github.com/bitcoin/bitcoin/pull/11475",
    "diff_url": "https://github.com/bitcoin/bitcoin/pull/11475.diff",
    "patch_url": "https://github.com/bitcoin/bitcoin/pull/11475.patch",
    "merged_at": "2017-12-23T09:00:55Z"
  },
  "body_html": "<p dir=\"auto\"><span class=\"issue-keyword tooltipped tooltipped-se\" aria-label=\"This pull request closes issue #6941.\">Fixes</span> <a class=\"issue-link js-issue-link\" data-error-text=\"Failed to load title\" data-id=\"115132669\" data-permission-text=\"Title is private\" data-url=\"https://github.com/bitcoin/bitcoin/issues/6941\" data-hovercard-type=\"issue\" data-hovercard-url=\"/bitcoin/bitcoin/issues/6941/hovercard\" href=\"https://github.com/bitcoin/bitcoin/issues/6941\">#6941</a> following <a class=\"issue-link js-issue-link\" data-error-text=\"Failed to load title\" data-id=\"261142370\" data-permission-text=\"Title is private\" data-url=\"https://github.com/bitcoin/bitcoin/issues/11410\" data-hovercard-type=\"pull_request\" data-hovercard-url=\"/bitcoin/bitcoin/pull/11410/hovercard?comment_id=332991078&amp;comment_type=issue_comment\" href=\"https://github.com/bitcoin/bitcoin/pull/11410#issuecomment-332991078\">#11410 (comment)</a> 's suggestion</p>\n<p dir=\"auto\">This takes care of the mentioned ticket without changing the behavior of <a href=\"https://github.com/bitcoin/bitcoin/pull/11410/files#diff-24efdb00bfbe56b140fb006b562cc70bL629\">https://github.com/bitcoin/bitcoin/pull/11410/files#diff-24efdb00bfbe56b140fb006b562cc70bL629</a></p>\n<p dir=\"auto\">By modifying </p><div class=\"Box Box--condensed my-2\">\n  <div class=\"Box-header f6\">\n    <p class=\"mb-0 text-bold\">\n      <a href=\"https://github.com/bitcoin/bitcoin/blob/5a9da37fb3f4b53f556e1d46509b94dc3c661d75/src/txmempool.cpp#L984\">bitcoin/src/txmempool.cpp</a>\n    </p>\n    <p class=\"mb-0 color-fg-muted\">\n         Line 984\n      in\n      <a data-pjax=\"true\" class=\"commit-tease-sha Link--inTextBlock\" href=\"/bitcoin/bitcoin/commit/5a9da37fb3f4b53f556e1d46509b94dc3c661d75\">5a9da37</a>\n    </p>\n  </div>\n  <div itemprop=\"text\" class=\"Box-body p-0 blob-wrapper blob-wrapper-embedded data\">\n    <table class=\"highlight tab-size mb-0 js-file-line-container\" data-tab-size=\"8\" data-paste-markdown-skip=\"\">\n\n        <tbody><tr class=\"border-0\">\n          <td id=\"L984\" class=\"blob-num border-0 px-3 py-0 color-bg-default\" data-line-number=\"984\"></td>\n          <td id=\"LC984\" class=\"blob-code border-0 px-3 py-0 color-bg-default blob-code-inner js-file-line\"> <span class=\"pl-k\">return</span> <span class=\"pl-c1\">CFeeRate</span>(<span class=\"pl-c1\">llround</span>(rollingMinimumFeeRate)); </td>\n        </tr>\n    </tbody></table>\n  </div>\n</div>\n the syncing mempools becomes problematic as per <a class=\"issue-link js-issue-link\" data-error-text=\"Failed to load title\" data-id=\"261142370\" data-permission-text=\"Title is private\" data-url=\"https://github.com/bitcoin/bitcoin/issues/11410\" data-hovercard-type=\"pull_request\" data-hovercard-url=\"/bitcoin/bitcoin/pull/11410/hovercard?comment_id=333868390&amp;comment_type=issue_comment\" href=\"https://github.com/bitcoin/bitcoin/pull/11410#issuecomment-333868390\">#11410 (comment)</a><p></p>\n<p dir=\"auto\"><del>Same code causes different tests to fail: <a href=\"https://travis-ci.org/bitcoin/bitcoin/jobs/286128241\" rel=\"nofollow\">https://travis-ci.org/bitcoin/bitcoin/jobs/286128241</a> <a href=\"https://travis-ci.org/bitcoin/bitcoin/jobs/286128241\" rel=\"nofollow\">https://travis-ci.org/bitcoin/bitcoin/jobs/286128241</a> . I can't reproduce the problems locally, am I doing something wrong?</del> travis sometimes fails unexpectedly</p>",
  "body_text": "Fixes #6941 following #11410 (comment) 's suggestion\nThis takes care of the mentioned ticket without changing the behavior of https://github.com/bitcoin/bitcoin/pull/11410/files#diff-24efdb00bfbe56b140fb006b562cc70bL629\nBy modifying \n  \n    \n      bitcoin/src/txmempool.cpp\n    \n    \n         Line 984\n      in\n      5a9da37\n    \n  \n  \n    \n\n        \n          \n           return CFeeRate(llround(rollingMinimumFeeRate)); \n        \n    \n  \n\n the syncing mempools becomes problematic as per #11410 (comment)\nSame code causes different tests to fail: https://travis-ci.org/bitcoin/bitcoin/jobs/286128241 https://travis-ci.org/bitcoin/bitcoin/jobs/286128241 . I can't reproduce the problems locally, am I doing something wrong? travis sometimes fails unexpectedly",
  "body": "Fixes #6941 following https://github.com/bitcoin/bitcoin/pull/11410#issuecomment-332991078 's suggestion\r\n\r\nThis takes care of the mentioned ticket without changing the behavior of https://github.com/bitcoin/bitcoin/pull/11410/files#diff-24efdb00bfbe56b140fb006b562cc70bL629\r\n\r\nBy modifying https://github.com/bitcoin/bitcoin/blob/5a9da37fb3f4b53f556e1d46509b94dc3c661d75/src/txmempool.cpp#L984 the syncing mempools becomes problematic as per https://github.com/bitcoin/bitcoin/pull/11410#issuecomment-333868390\r\n\r\n~~Same code causes different tests to fail: https://travis-ci.org/bitcoin/bitcoin/jobs/286128241 https://travis-ci.org/bitcoin/bitcoin/jobs/286128241 . I can't reproduce the problems locally, am I doing something wrong?~~ travis sometimes fails unexpectedly",
  "closed_by": {
    "login": "laanwj",
    "id": 126646,
    "node_id": "MDQ6VXNlcjEyNjY0Ng==",
    "avatar_url": "https://avatars.githubusercontent.com/u/126646?v=4",
    "gravatar_id": "",
    "url": "https://api.github.com/users/laanwj",
    "html_url": "https://github.com/laanwj",
    "followers_url": "https://api.github.com/users/laanwj/followers",
    "following_url": "https://api.github.com/users/laanwj/following{/other_user}",
    "gists_url": "https://api.github.com/users/laanwj/gists{/gist_id}",
    "starred_url": "https://api.github.com/users/laanwj/starred{/owner}{/repo}",
    "subscriptions_url": "https://api.github.com/users/laanwj/subscriptions",
    "organizations_url": "https://api.github.com/users/laanwj/orgs",
    "repos_url": "https://api.github.com/users/laanwj/repos",
    "events_url": "https://api.github.com/users/laanwj/events{/privacy}",
    "received_events_url": "https://api.github.com/users/laanwj/received_events",
    "type": "User",
    "site_admin": false
  },
  "reactions": {
    "url": "https://api.github.com/repos/bitcoin/bitcoin/issues/11475/reactions",
    "total_count": 0,
    "+1": 0,
    "-1": 0,
    "laugh": 0,
    "hooray": 0,
    "confused": 0,
    "heart": 0,
    "rocket": 0,
    "eyes": 0
  },
  "timeline_url": "https://api.github.com/repos/bitcoin/bitcoin/issues/11475/timeline",
  "performed_via_github_app": null,
  "state_reason": null
}
