{
  "url": "https://api.github.com/repos/bitcoin/bitcoin/issues/17371",
  "repository_url": "https://api.github.com/repos/bitcoin/bitcoin",
  "labels_url": "https://api.github.com/repos/bitcoin/bitcoin/issues/17371/labels{/name}",
  "comments_url": "https://api.github.com/repos/bitcoin/bitcoin/issues/17371/comments",
  "events_url": "https://api.github.com/repos/bitcoin/bitcoin/issues/17371/events",
  "html_url": "https://github.com/bitcoin/bitcoin/pull/17371",
  "id": 517430552,
  "node_id": "MDExOlB1bGxSZXF1ZXN0MzM2NTAxNzUx",
  "number": 17371,
  "title": "Refactor: Require scriptPubKey to get wallet SigningProvider",
  "user": {
    "login": "achow101",
    "id": 3782274,
    "node_id": "MDQ6VXNlcjM3ODIyNzQ=",
    "avatar_url": "https://avatars.githubusercontent.com/u/3782274?v=4",
    "gravatar_id": "",
    "url": "https://api.github.com/users/achow101",
    "html_url": "https://github.com/achow101",
    "followers_url": "https://api.github.com/users/achow101/followers",
    "following_url": "https://api.github.com/users/achow101/following{/other_user}",
    "gists_url": "https://api.github.com/users/achow101/gists{/gist_id}",
    "starred_url": "https://api.github.com/users/achow101/starred{/owner}{/repo}",
    "subscriptions_url": "https://api.github.com/users/achow101/subscriptions",
    "organizations_url": "https://api.github.com/users/achow101/orgs",
    "repos_url": "https://api.github.com/users/achow101/repos",
    "events_url": "https://api.github.com/users/achow101/events{/privacy}",
    "received_events_url": "https://api.github.com/users/achow101/received_events",
    "type": "User",
    "site_admin": false
  },
  "labels": [
    {
      "id": 135961,
      "node_id": "MDU6TGFiZWwxMzU5NjE=",
      "url": "https://api.github.com/repos/bitcoin/bitcoin/labels/Refactoring",
      "name": "Refactoring",
      "color": "E6F6D6",
      "default": false,
      "description": null
    },
    {
      "id": 149424,
      "node_id": "MDU6TGFiZWwxNDk0MjQ=",
      "url": "https://api.github.com/repos/bitcoin/bitcoin/labels/Wallet",
      "name": "Wallet",
      "color": "08a781",
      "default": false,
      "description": null
    }
  ],
  "state": "closed",
  "locked": true,
  "assignee": null,
  "assignees": [

  ],
  "milestone": null,
  "comments": 4,
  "created_at": "2019-11-04T22:03:45Z",
  "updated_at": "2021-12-16T14:55:14Z",
  "closed_at": "2019-11-22T19:35:48Z",
  "author_association": "MEMBER",
  "active_lock_reason": "resolved",
  "draft": false,
  "pull_request": {
    "url": "https://api.github.com/repos/bitcoin/bitcoin/pulls/17371",
    "html_url": "https://github.com/bitcoin/bitcoin/pull/17371",
    "diff_url": "https://github.com/bitcoin/bitcoin/pull/17371.diff",
    "patch_url": "https://github.com/bitcoin/bitcoin/pull/17371.patch",
    "merged_at": "2019-11-22T19:35:48Z"
  },
  "body_html": "<p dir=\"auto\">Easier to review ignoring whitespace:</p>\n<div class=\"snippet-clipboard-content notranslate position-relative overflow-auto\" data-snippet-clipboard-copy-content=\"git log -p -n1 -w\"><pre class=\"notranslate\"><code class=\"notranslate\">git log -p -n1 -w\n</code></pre></div>\n<p dir=\"auto\">This commit does not change behavior. It passes new CScript arguments to<br>\nsigning functions, but the arguments aren't currently used.</p>\n<p dir=\"auto\">Split from <a class=\"issue-link js-issue-link\" data-error-text=\"Failed to load title\" data-id=\"512792743\" data-permission-text=\"Title is private\" data-url=\"https://github.com/bitcoin/bitcoin/issues/17261\" data-hovercard-type=\"pull_request\" data-hovercard-url=\"/bitcoin/bitcoin/pull/17261/hovercard\" href=\"https://github.com/bitcoin/bitcoin/pull/17261\">#17261</a></p>",
  "body_text": "Easier to review ignoring whitespace:\ngit log -p -n1 -w\n\nThis commit does not change behavior. It passes new CScript arguments to\nsigning functions, but the arguments aren't currently used.\nSplit from #17261",
  "body": "Easier to review ignoring whitespace:\r\n\r\n    git log -p -n1 -w\r\n\r\nThis commit does not change behavior. It passes new CScript arguments to\r\nsigning functions, but the arguments aren't currently used.\r\n\r\nSplit from #17261",
  "closed_by": {
    "login": "meshcollider",
    "id": 3211283,
    "node_id": "MDQ6VXNlcjMyMTEyODM=",
    "avatar_url": "https://avatars.githubusercontent.com/u/3211283?v=4",
    "gravatar_id": "",
    "url": "https://api.github.com/users/meshcollider",
    "html_url": "https://github.com/meshcollider",
    "followers_url": "https://api.github.com/users/meshcollider/followers",
    "following_url": "https://api.github.com/users/meshcollider/following{/other_user}",
    "gists_url": "https://api.github.com/users/meshcollider/gists{/gist_id}",
    "starred_url": "https://api.github.com/users/meshcollider/starred{/owner}{/repo}",
    "subscriptions_url": "https://api.github.com/users/meshcollider/subscriptions",
    "organizations_url": "https://api.github.com/users/meshcollider/orgs",
    "repos_url": "https://api.github.com/users/meshcollider/repos",
    "events_url": "https://api.github.com/users/meshcollider/events{/privacy}",
    "received_events_url": "https://api.github.com/users/meshcollider/received_events",
    "type": "User",
    "site_admin": false
  },
  "reactions": {
    "url": "https://api.github.com/repos/bitcoin/bitcoin/issues/17371/reactions",
    "total_count": 0,
    "+1": 0,
    "-1": 0,
    "laugh": 0,
    "hooray": 0,
    "confused": 0,
    "heart": 0,
    "rocket": 0,
    "eyes": 0
  },
  "timeline_url": "https://api.github.com/repos/bitcoin/bitcoin/issues/17371/timeline",
  "performed_via_github_app": null,
  "state_reason": null
}
