{
  "url": "https://api.github.com/repos/bitcoin/bitcoin/issues/10678",
  "repository_url": "https://api.github.com/repos/bitcoin/bitcoin",
  "labels_url": "https://api.github.com/repos/bitcoin/bitcoin/issues/10678/labels{/name}",
  "comments_url": "https://api.github.com/repos/bitcoin/bitcoin/issues/10678/comments",
  "events_url": "https://api.github.com/repos/bitcoin/bitcoin/issues/10678/events",
  "html_url": "https://github.com/bitcoin/bitcoin/issues/10678",
  "id": 238750220,
  "node_id": "MDU6SXNzdWUyMzg3NTAyMjA=",
  "number": 10678,
  "title": "zapwallettxes.py test failure due to bitcoind return code",
  "user": {
    "login": "laanwj",
    "id": 126646,
    "node_id": "MDQ6VXNlcjEyNjY0Ng==",
    "avatar_url": "https://avatars.githubusercontent.com/u/126646?v=4",
    "gravatar_id": "",
    "url": "https://api.github.com/users/laanwj",
    "html_url": "https://github.com/laanwj",
    "followers_url": "https://api.github.com/users/laanwj/followers",
    "following_url": "https://api.github.com/users/laanwj/following{/other_user}",
    "gists_url": "https://api.github.com/users/laanwj/gists{/gist_id}",
    "starred_url": "https://api.github.com/users/laanwj/starred{/owner}{/repo}",
    "subscriptions_url": "https://api.github.com/users/laanwj/subscriptions",
    "organizations_url": "https://api.github.com/users/laanwj/orgs",
    "repos_url": "https://api.github.com/users/laanwj/repos",
    "events_url": "https://api.github.com/users/laanwj/events{/privacy}",
    "received_events_url": "https://api.github.com/users/laanwj/received_events",
    "type": "User",
    "site_admin": false
  },
  "labels": [
    {
      "id": 62963516,
      "node_id": "MDU6TGFiZWw2Mjk2MzUxNg==",
      "url": "https://api.github.com/repos/bitcoin/bitcoin/labels/Tests",
      "name": "Tests",
      "color": "d4c5f9",
      "default": false,
      "description": null
    }
  ],
  "state": "closed",
  "locked": true,
  "assignee": null,
  "assignees": [

  ],
  "milestone": null,
  "comments": 4,
  "created_at": "2017-06-27T06:35:10Z",
  "updated_at": "2021-09-08T12:43:53Z",
  "closed_at": "2017-12-17T02:36:46Z",
  "author_association": "MEMBER",
  "active_lock_reason": "resolved",
  "body_html": "<p dir=\"auto\">In <a class=\"issue-link js-issue-link\" data-error-text=\"Failed to load title\" data-id=\"238728724\" data-permission-text=\"Title is private\" data-url=\"https://github.com/bitcoin/bitcoin/issues/10677\" data-hovercard-type=\"pull_request\" data-hovercard-url=\"/bitcoin/bitcoin/pull/10677/hovercard\" href=\"https://github.com/bitcoin/bitcoin/pull/10677\">#10677</a> there was what looks like a new kind of Travis false positive, or at least an intermittent error.<br>\nIt is triggered by the assertion on return code added in <a class=\"issue-link js-issue-link\" data-error-text=\"Failed to load title\" data-id=\"237184971\" data-permission-text=\"Title is private\" data-url=\"https://github.com/bitcoin/bitcoin/issues/10636\" data-hovercard-type=\"pull_request\" data-hovercard-url=\"/bitcoin/bitcoin/pull/10636/hovercard\" href=\"https://github.com/bitcoin/bitcoin/pull/10636\">#10636</a>:</p>\n<div class=\"snippet-clipboard-content notranslate position-relative overflow-auto\" data-snippet-clipboard-copy-content=\"zapwallettxes.py failed, Duration: 11 s\nstdout:\n2017-06-27 03:50:43.814000 TestFramework (INFO): Initializing test directory /tmp/bitcoin_test_runner_20170627_034653/zapwallettxes_338\n2017-06-27 03:50:46.305000 TestFramework (INFO): Mining blocks...\n2017-06-27 03:50:54.465000 TestFramework (ERROR): Assertion failed\nTraceback (most recent call last):\n  File &quot;/home/travis/build/bitcoin/bitcoin/build/bitcoin-x86_64-unknown-linux-gnu/test/functional/test_framework/test_framework.py&quot;, line 153, in main\n    self.run_test()\n  File &quot;/home/travis/build/bitcoin/bitcoin/build/bitcoin-x86_64-unknown-linux-gnu/test/functional/zapwallettxes.py&quot;, line 67, in run_test\n    self.stop_node(0)\n  File &quot;/home/travis/build/bitcoin/bitcoin/build/bitcoin-x86_64-unknown-linux-gnu/test/functional/test_framework/test_framework.py&quot;, line 217, in stop_node\n    _stop_node(self.nodes[num_node], num_node)\n  File &quot;/home/travis/build/bitcoin/bitcoin/build/bitcoin-x86_64-unknown-linux-gnu/test/functional/test_framework/util.py&quot;, line 326, in _stop_node\n    assert_equal(return_code, 0)\n  File &quot;/home/travis/build/bitcoin/bitcoin/build/bitcoin-x86_64-unknown-linux-gnu/test/functional/test_framework/util.py&quot;, line 440, in assert_equal\n    raise AssertionError(&quot;not(%s)&quot; % &quot; == &quot;.join(str(arg) for arg in (thing1, thing2) + args))\nAssertionError: not(1 == 0)\n2017-06-27 03:50:54.466000 TestFramework (INFO): Stopping nodes\nstderr:\nTraceback (most recent call last):\n  File &quot;/home/travis/build/bitcoin/bitcoin/build/bitcoin-x86_64-unknown-linux-gnu/test/functional/test_framework/authproxy.py&quot;, line 126, in _request\n    return self._get_response()\n  File &quot;/home/travis/build/bitcoin/bitcoin/build/bitcoin-x86_64-unknown-linux-gnu/test/functional/test_framework/authproxy.py&quot;, line 169, in _get_response\n    http_response = self.__conn.getresponse()\n  File &quot;/usr/lib/python3.4/http/client.py&quot;, line 1208, in getresponse\n    response.begin()\n  File &quot;/usr/lib/python3.4/http/client.py&quot;, line 380, in begin\n    version, status, reason = self._read_status()\n  File &quot;/usr/lib/python3.4/http/client.py&quot;, line 350, in _read_status\n    raise BadStatusLine(line)\nhttp.client.BadStatusLine: ''\nDuring handling of the above exception, another exception occurred:\nTraceback (most recent call last):\n  File &quot;/home/travis/build/bitcoin/bitcoin/build/bitcoin-x86_64-unknown-linux-gnu/test/functional/zapwallettxes.py&quot;, line 80, in &lt;module&gt;\n    ZapWalletTXesTest ().main ()\n  File &quot;/home/travis/build/bitcoin/bitcoin/build/bitcoin-x86_64-unknown-linux-gnu/test/functional/test_framework/test_framework.py&quot;, line 172, in main\n    self.stop_nodes()\n  File &quot;/home/travis/build/bitcoin/bitcoin/build/bitcoin-x86_64-unknown-linux-gnu/test/functional/test_framework/test_framework.py&quot;, line 220, in stop_nodes\n    _stop_nodes(self.nodes)\n  File &quot;/home/travis/build/bitcoin/bitcoin/build/bitcoin-x86_64-unknown-linux-gnu/test/functional/test_framework/util.py&quot;, line 334, in _stop_nodes\n    _stop_node(node, i)\n  File &quot;/home/travis/build/bitcoin/bitcoin/build/bitcoin-x86_64-unknown-linux-gnu/test/functional/test_framework/util.py&quot;, line 321, in _stop_node\n    node.stop()\n  File &quot;/home/travis/build/bitcoin/bitcoin/build/bitcoin-x86_64-unknown-linux-gnu/test/functional/test_framework/coverage.py&quot;, line 46, in __call__\n    return_val = self.auth_service_proxy_instance.__call__(*args, **kwargs)\n  File &quot;/home/travis/build/bitcoin/bitcoin/build/bitcoin-x86_64-unknown-linux-gnu/test/functional/test_framework/authproxy.py&quot;, line 152, in __call__\n    response = self._request('POST', self.__url.path, postdata.encode('utf-8'))\n  File &quot;/home/travis/build/bitcoin/bitcoin/build/bitcoin-x86_64-unknown-linux-gnu/test/functional/test_framework/authproxy.py&quot;, line 130, in _request\n    self.__conn.request(method, path, postdata, headers)\n  File &quot;/usr/lib/python3.4/http/client.py&quot;, line 1125, in request\n    self._send_request(method, url, body, headers)\n  File &quot;/usr/lib/python3.4/http/client.py&quot;, line 1163, in _send_request\n    self.endheaders(body)\n  File &quot;/usr/lib/python3.4/http/client.py&quot;, line 1121, in endheaders\n    self._send_output(message_body)\n  File &quot;/usr/lib/python3.4/http/client.py&quot;, line 951, in _send_output\n    self.send(msg)\n  File &quot;/usr/lib/python3.4/http/client.py&quot;, line 886, in send\n    self.connect()\n  File &quot;/usr/lib/python3.4/http/client.py&quot;, line 863, in connect\n    self.timeout, self.source_address)\n  File &quot;/usr/lib/python3.4/socket.py&quot;, line 512, in create_connection\n    raise err\n  File &quot;/usr/lib/python3.4/socket.py&quot;, line 503, in create_connection\n    sock.connect(sa)\nConnectionRefusedError: [Errno 111] Connection refused\"><pre class=\"notranslate\"><code class=\"notranslate\">zapwallettxes.py failed, Duration: 11 s\nstdout:\n2017-06-27 03:50:43.814000 TestFramework (INFO): Initializing test directory /tmp/bitcoin_test_runner_20170627_034653/zapwallettxes_338\n2017-06-27 03:50:46.305000 TestFramework (INFO): Mining blocks...\n2017-06-27 03:50:54.465000 TestFramework (ERROR): Assertion failed\nTraceback (most recent call last):\n  File \"/home/travis/build/bitcoin/bitcoin/build/bitcoin-x86_64-unknown-linux-gnu/test/functional/test_framework/test_framework.py\", line 153, in main\n    self.run_test()\n  File \"/home/travis/build/bitcoin/bitcoin/build/bitcoin-x86_64-unknown-linux-gnu/test/functional/zapwallettxes.py\", line 67, in run_test\n    self.stop_node(0)\n  File \"/home/travis/build/bitcoin/bitcoin/build/bitcoin-x86_64-unknown-linux-gnu/test/functional/test_framework/test_framework.py\", line 217, in stop_node\n    _stop_node(self.nodes[num_node], num_node)\n  File \"/home/travis/build/bitcoin/bitcoin/build/bitcoin-x86_64-unknown-linux-gnu/test/functional/test_framework/util.py\", line 326, in _stop_node\n    assert_equal(return_code, 0)\n  File \"/home/travis/build/bitcoin/bitcoin/build/bitcoin-x86_64-unknown-linux-gnu/test/functional/test_framework/util.py\", line 440, in assert_equal\n    raise AssertionError(\"not(%s)\" % \" == \".join(str(arg) for arg in (thing1, thing2) + args))\nAssertionError: not(1 == 0)\n2017-06-27 03:50:54.466000 TestFramework (INFO): Stopping nodes\nstderr:\nTraceback (most recent call last):\n  File \"/home/travis/build/bitcoin/bitcoin/build/bitcoin-x86_64-unknown-linux-gnu/test/functional/test_framework/authproxy.py\", line 126, in _request\n    return self._get_response()\n  File \"/home/travis/build/bitcoin/bitcoin/build/bitcoin-x86_64-unknown-linux-gnu/test/functional/test_framework/authproxy.py\", line 169, in _get_response\n    http_response = self.__conn.getresponse()\n  File \"/usr/lib/python3.4/http/client.py\", line 1208, in getresponse\n    response.begin()\n  File \"/usr/lib/python3.4/http/client.py\", line 380, in begin\n    version, status, reason = self._read_status()\n  File \"/usr/lib/python3.4/http/client.py\", line 350, in _read_status\n    raise BadStatusLine(line)\nhttp.client.BadStatusLine: ''\nDuring handling of the above exception, another exception occurred:\nTraceback (most recent call last):\n  File \"/home/travis/build/bitcoin/bitcoin/build/bitcoin-x86_64-unknown-linux-gnu/test/functional/zapwallettxes.py\", line 80, in &lt;module&gt;\n    ZapWalletTXesTest ().main ()\n  File \"/home/travis/build/bitcoin/bitcoin/build/bitcoin-x86_64-unknown-linux-gnu/test/functional/test_framework/test_framework.py\", line 172, in main\n    self.stop_nodes()\n  File \"/home/travis/build/bitcoin/bitcoin/build/bitcoin-x86_64-unknown-linux-gnu/test/functional/test_framework/test_framework.py\", line 220, in stop_nodes\n    _stop_nodes(self.nodes)\n  File \"/home/travis/build/bitcoin/bitcoin/build/bitcoin-x86_64-unknown-linux-gnu/test/functional/test_framework/util.py\", line 334, in _stop_nodes\n    _stop_node(node, i)\n  File \"/home/travis/build/bitcoin/bitcoin/build/bitcoin-x86_64-unknown-linux-gnu/test/functional/test_framework/util.py\", line 321, in _stop_node\n    node.stop()\n  File \"/home/travis/build/bitcoin/bitcoin/build/bitcoin-x86_64-unknown-linux-gnu/test/functional/test_framework/coverage.py\", line 46, in __call__\n    return_val = self.auth_service_proxy_instance.__call__(*args, **kwargs)\n  File \"/home/travis/build/bitcoin/bitcoin/build/bitcoin-x86_64-unknown-linux-gnu/test/functional/test_framework/authproxy.py\", line 152, in __call__\n    response = self._request('POST', self.__url.path, postdata.encode('utf-8'))\n  File \"/home/travis/build/bitcoin/bitcoin/build/bitcoin-x86_64-unknown-linux-gnu/test/functional/test_framework/authproxy.py\", line 130, in _request\n    self.__conn.request(method, path, postdata, headers)\n  File \"/usr/lib/python3.4/http/client.py\", line 1125, in request\n    self._send_request(method, url, body, headers)\n  File \"/usr/lib/python3.4/http/client.py\", line 1163, in _send_request\n    self.endheaders(body)\n  File \"/usr/lib/python3.4/http/client.py\", line 1121, in endheaders\n    self._send_output(message_body)\n  File \"/usr/lib/python3.4/http/client.py\", line 951, in _send_output\n    self.send(msg)\n  File \"/usr/lib/python3.4/http/client.py\", line 886, in send\n    self.connect()\n  File \"/usr/lib/python3.4/http/client.py\", line 863, in connect\n    self.timeout, self.source_address)\n  File \"/usr/lib/python3.4/socket.py\", line 512, in create_connection\n    raise err\n  File \"/usr/lib/python3.4/socket.py\", line 503, in create_connection\n    sock.connect(sa)\nConnectionRefusedError: [Errno 111] Connection refused\n</code></pre></div>\n<p dir=\"auto\">I'm not able to reproduce this locally.<br>\nIt's likely that the node crashed in some way, but this doesn't give enough information to extract what happened.</p>",
  "body_text": "In #10677 there was what looks like a new kind of Travis false positive, or at least an intermittent error.\nIt is triggered by the assertion on return code added in #10636:\nzapwallettxes.py failed, Duration: 11 s\nstdout:\n2017-06-27 03:50:43.814000 TestFramework (INFO): Initializing test directory /tmp/bitcoin_test_runner_20170627_034653/zapwallettxes_338\n2017-06-27 03:50:46.305000 TestFramework (INFO): Mining blocks...\n2017-06-27 03:50:54.465000 TestFramework (ERROR): Assertion failed\nTraceback (most recent call last):\n  File \"/home/travis/build/bitcoin/bitcoin/build/bitcoin-x86_64-unknown-linux-gnu/test/functional/test_framework/test_framework.py\", line 153, in main\n    self.run_test()\n  File \"/home/travis/build/bitcoin/bitcoin/build/bitcoin-x86_64-unknown-linux-gnu/test/functional/zapwallettxes.py\", line 67, in run_test\n    self.stop_node(0)\n  File \"/home/travis/build/bitcoin/bitcoin/build/bitcoin-x86_64-unknown-linux-gnu/test/functional/test_framework/test_framework.py\", line 217, in stop_node\n    _stop_node(self.nodes[num_node], num_node)\n  File \"/home/travis/build/bitcoin/bitcoin/build/bitcoin-x86_64-unknown-linux-gnu/test/functional/test_framework/util.py\", line 326, in _stop_node\n    assert_equal(return_code, 0)\n  File \"/home/travis/build/bitcoin/bitcoin/build/bitcoin-x86_64-unknown-linux-gnu/test/functional/test_framework/util.py\", line 440, in assert_equal\n    raise AssertionError(\"not(%s)\" % \" == \".join(str(arg) for arg in (thing1, thing2) + args))\nAssertionError: not(1 == 0)\n2017-06-27 03:50:54.466000 TestFramework (INFO): Stopping nodes\nstderr:\nTraceback (most recent call last):\n  File \"/home/travis/build/bitcoin/bitcoin/build/bitcoin-x86_64-unknown-linux-gnu/test/functional/test_framework/authproxy.py\", line 126, in _request\n    return self._get_response()\n  File \"/home/travis/build/bitcoin/bitcoin/build/bitcoin-x86_64-unknown-linux-gnu/test/functional/test_framework/authproxy.py\", line 169, in _get_response\n    http_response = self.__conn.getresponse()\n  File \"/usr/lib/python3.4/http/client.py\", line 1208, in getresponse\n    response.begin()\n  File \"/usr/lib/python3.4/http/client.py\", line 380, in begin\n    version, status, reason = self._read_status()\n  File \"/usr/lib/python3.4/http/client.py\", line 350, in _read_status\n    raise BadStatusLine(line)\nhttp.client.BadStatusLine: ''\nDuring handling of the above exception, another exception occurred:\nTraceback (most recent call last):\n  File \"/home/travis/build/bitcoin/bitcoin/build/bitcoin-x86_64-unknown-linux-gnu/test/functional/zapwallettxes.py\", line 80, in <module>\n    ZapWalletTXesTest ().main ()\n  File \"/home/travis/build/bitcoin/bitcoin/build/bitcoin-x86_64-unknown-linux-gnu/test/functional/test_framework/test_framework.py\", line 172, in main\n    self.stop_nodes()\n  File \"/home/travis/build/bitcoin/bitcoin/build/bitcoin-x86_64-unknown-linux-gnu/test/functional/test_framework/test_framework.py\", line 220, in stop_nodes\n    _stop_nodes(self.nodes)\n  File \"/home/travis/build/bitcoin/bitcoin/build/bitcoin-x86_64-unknown-linux-gnu/test/functional/test_framework/util.py\", line 334, in _stop_nodes\n    _stop_node(node, i)\n  File \"/home/travis/build/bitcoin/bitcoin/build/bitcoin-x86_64-unknown-linux-gnu/test/functional/test_framework/util.py\", line 321, in _stop_node\n    node.stop()\n  File \"/home/travis/build/bitcoin/bitcoin/build/bitcoin-x86_64-unknown-linux-gnu/test/functional/test_framework/coverage.py\", line 46, in __call__\n    return_val = self.auth_service_proxy_instance.__call__(*args, **kwargs)\n  File \"/home/travis/build/bitcoin/bitcoin/build/bitcoin-x86_64-unknown-linux-gnu/test/functional/test_framework/authproxy.py\", line 152, in __call__\n    response = self._request('POST', self.__url.path, postdata.encode('utf-8'))\n  File \"/home/travis/build/bitcoin/bitcoin/build/bitcoin-x86_64-unknown-linux-gnu/test/functional/test_framework/authproxy.py\", line 130, in _request\n    self.__conn.request(method, path, postdata, headers)\n  File \"/usr/lib/python3.4/http/client.py\", line 1125, in request\n    self._send_request(method, url, body, headers)\n  File \"/usr/lib/python3.4/http/client.py\", line 1163, in _send_request\n    self.endheaders(body)\n  File \"/usr/lib/python3.4/http/client.py\", line 1121, in endheaders\n    self._send_output(message_body)\n  File \"/usr/lib/python3.4/http/client.py\", line 951, in _send_output\n    self.send(msg)\n  File \"/usr/lib/python3.4/http/client.py\", line 886, in send\n    self.connect()\n  File \"/usr/lib/python3.4/http/client.py\", line 863, in connect\n    self.timeout, self.source_address)\n  File \"/usr/lib/python3.4/socket.py\", line 512, in create_connection\n    raise err\n  File \"/usr/lib/python3.4/socket.py\", line 503, in create_connection\n    sock.connect(sa)\nConnectionRefusedError: [Errno 111] Connection refused\n\nI'm not able to reproduce this locally.\nIt's likely that the node crashed in some way, but this doesn't give enough information to extract what happened.",
  "body": "In #10677 there was what looks like a new kind of Travis false positive, or at least an intermittent error.\r\nIt is triggered by the assertion on return code added in #10636:\r\n```\r\nzapwallettxes.py failed, Duration: 11 s\r\nstdout:\r\n2017-06-27 03:50:43.814000 TestFramework (INFO): Initializing test directory /tmp/bitcoin_test_runner_20170627_034653/zapwallettxes_338\r\n2017-06-27 03:50:46.305000 TestFramework (INFO): Mining blocks...\r\n2017-06-27 03:50:54.465000 TestFramework (ERROR): Assertion failed\r\nTraceback (most recent call last):\r\n  File \"/home/travis/build/bitcoin/bitcoin/build/bitcoin-x86_64-unknown-linux-gnu/test/functional/test_framework/test_framework.py\", line 153, in main\r\n    self.run_test()\r\n  File \"/home/travis/build/bitcoin/bitcoin/build/bitcoin-x86_64-unknown-linux-gnu/test/functional/zapwallettxes.py\", line 67, in run_test\r\n    self.stop_node(0)\r\n  File \"/home/travis/build/bitcoin/bitcoin/build/bitcoin-x86_64-unknown-linux-gnu/test/functional/test_framework/test_framework.py\", line 217, in stop_node\r\n    _stop_node(self.nodes[num_node], num_node)\r\n  File \"/home/travis/build/bitcoin/bitcoin/build/bitcoin-x86_64-unknown-linux-gnu/test/functional/test_framework/util.py\", line 326, in _stop_node\r\n    assert_equal(return_code, 0)\r\n  File \"/home/travis/build/bitcoin/bitcoin/build/bitcoin-x86_64-unknown-linux-gnu/test/functional/test_framework/util.py\", line 440, in assert_equal\r\n    raise AssertionError(\"not(%s)\" % \" == \".join(str(arg) for arg in (thing1, thing2) + args))\r\nAssertionError: not(1 == 0)\r\n2017-06-27 03:50:54.466000 TestFramework (INFO): Stopping nodes\r\nstderr:\r\nTraceback (most recent call last):\r\n  File \"/home/travis/build/bitcoin/bitcoin/build/bitcoin-x86_64-unknown-linux-gnu/test/functional/test_framework/authproxy.py\", line 126, in _request\r\n    return self._get_response()\r\n  File \"/home/travis/build/bitcoin/bitcoin/build/bitcoin-x86_64-unknown-linux-gnu/test/functional/test_framework/authproxy.py\", line 169, in _get_response\r\n    http_response = self.__conn.getresponse()\r\n  File \"/usr/lib/python3.4/http/client.py\", line 1208, in getresponse\r\n    response.begin()\r\n  File \"/usr/lib/python3.4/http/client.py\", line 380, in begin\r\n    version, status, reason = self._read_status()\r\n  File \"/usr/lib/python3.4/http/client.py\", line 350, in _read_status\r\n    raise BadStatusLine(line)\r\nhttp.client.BadStatusLine: ''\r\nDuring handling of the above exception, another exception occurred:\r\nTraceback (most recent call last):\r\n  File \"/home/travis/build/bitcoin/bitcoin/build/bitcoin-x86_64-unknown-linux-gnu/test/functional/zapwallettxes.py\", line 80, in <module>\r\n    ZapWalletTXesTest ().main ()\r\n  File \"/home/travis/build/bitcoin/bitcoin/build/bitcoin-x86_64-unknown-linux-gnu/test/functional/test_framework/test_framework.py\", line 172, in main\r\n    self.stop_nodes()\r\n  File \"/home/travis/build/bitcoin/bitcoin/build/bitcoin-x86_64-unknown-linux-gnu/test/functional/test_framework/test_framework.py\", line 220, in stop_nodes\r\n    _stop_nodes(self.nodes)\r\n  File \"/home/travis/build/bitcoin/bitcoin/build/bitcoin-x86_64-unknown-linux-gnu/test/functional/test_framework/util.py\", line 334, in _stop_nodes\r\n    _stop_node(node, i)\r\n  File \"/home/travis/build/bitcoin/bitcoin/build/bitcoin-x86_64-unknown-linux-gnu/test/functional/test_framework/util.py\", line 321, in _stop_node\r\n    node.stop()\r\n  File \"/home/travis/build/bitcoin/bitcoin/build/bitcoin-x86_64-unknown-linux-gnu/test/functional/test_framework/coverage.py\", line 46, in __call__\r\n    return_val = self.auth_service_proxy_instance.__call__(*args, **kwargs)\r\n  File \"/home/travis/build/bitcoin/bitcoin/build/bitcoin-x86_64-unknown-linux-gnu/test/functional/test_framework/authproxy.py\", line 152, in __call__\r\n    response = self._request('POST', self.__url.path, postdata.encode('utf-8'))\r\n  File \"/home/travis/build/bitcoin/bitcoin/build/bitcoin-x86_64-unknown-linux-gnu/test/functional/test_framework/authproxy.py\", line 130, in _request\r\n    self.__conn.request(method, path, postdata, headers)\r\n  File \"/usr/lib/python3.4/http/client.py\", line 1125, in request\r\n    self._send_request(method, url, body, headers)\r\n  File \"/usr/lib/python3.4/http/client.py\", line 1163, in _send_request\r\n    self.endheaders(body)\r\n  File \"/usr/lib/python3.4/http/client.py\", line 1121, in endheaders\r\n    self._send_output(message_body)\r\n  File \"/usr/lib/python3.4/http/client.py\", line 951, in _send_output\r\n    self.send(msg)\r\n  File \"/usr/lib/python3.4/http/client.py\", line 886, in send\r\n    self.connect()\r\n  File \"/usr/lib/python3.4/http/client.py\", line 863, in connect\r\n    self.timeout, self.source_address)\r\n  File \"/usr/lib/python3.4/socket.py\", line 512, in create_connection\r\n    raise err\r\n  File \"/usr/lib/python3.4/socket.py\", line 503, in create_connection\r\n    sock.connect(sa)\r\nConnectionRefusedError: [Errno 111] Connection refused\r\n```\r\nI'm not able to reproduce this locally.\r\nIt's likely that the node crashed in some way, but this doesn't give enough information to extract what happened.",
  "closed_by": {
    "login": "maflcko",
    "id": 6399679,
    "node_id": "MDQ6VXNlcjYzOTk2Nzk=",
    "avatar_url": "https://avatars.githubusercontent.com/u/6399679?v=4",
    "gravatar_id": "",
    "url": "https://api.github.com/users/maflcko",
    "html_url": "https://github.com/maflcko",
    "followers_url": "https://api.github.com/users/maflcko/followers",
    "following_url": "https://api.github.com/users/maflcko/following{/other_user}",
    "gists_url": "https://api.github.com/users/maflcko/gists{/gist_id}",
    "starred_url": "https://api.github.com/users/maflcko/starred{/owner}{/repo}",
    "subscriptions_url": "https://api.github.com/users/maflcko/subscriptions",
    "organizations_url": "https://api.github.com/users/maflcko/orgs",
    "repos_url": "https://api.github.com/users/maflcko/repos",
    "events_url": "https://api.github.com/users/maflcko/events{/privacy}",
    "received_events_url": "https://api.github.com/users/maflcko/received_events",
    "type": "User",
    "site_admin": false
  },
  "reactions": {
    "url": "https://api.github.com/repos/bitcoin/bitcoin/issues/10678/reactions",
    "total_count": 0,
    "+1": 0,
    "-1": 0,
    "laugh": 0,
    "hooray": 0,
    "confused": 0,
    "heart": 0,
    "rocket": 0,
    "eyes": 0
  },
  "timeline_url": "https://api.github.com/repos/bitcoin/bitcoin/issues/10678/timeline",
  "performed_via_github_app": null,
  "state_reason": "completed"
}
