{
  "url": "https://api.github.com/repos/bitcoin/bitcoin/issues/20118",
  "repository_url": "https://api.github.com/repos/bitcoin/bitcoin",
  "labels_url": "https://api.github.com/repos/bitcoin/bitcoin/issues/20118/labels{/name}",
  "comments_url": "https://api.github.com/repos/bitcoin/bitcoin/issues/20118/comments",
  "events_url": "https://api.github.com/repos/bitcoin/bitcoin/issues/20118/events",
  "html_url": "https://github.com/bitcoin/bitcoin/issues/20118",
  "id": 718673749,
  "node_id": "MDU6SXNzdWU3MTg2NzM3NDk=",
  "number": 20118,
  "title": "BITCOIN_SUBDIR_TO_INCLUDE no longer works",
  "user": {
    "login": "luke-jr",
    "id": 1095675,
    "node_id": "MDQ6VXNlcjEwOTU2NzU=",
    "avatar_url": "https://avatars.githubusercontent.com/u/1095675?v=4",
    "gravatar_id": "",
    "url": "https://api.github.com/users/luke-jr",
    "html_url": "https://github.com/luke-jr",
    "followers_url": "https://api.github.com/users/luke-jr/followers",
    "following_url": "https://api.github.com/users/luke-jr/following{/other_user}",
    "gists_url": "https://api.github.com/users/luke-jr/gists{/gist_id}",
    "starred_url": "https://api.github.com/users/luke-jr/starred{/owner}{/repo}",
    "subscriptions_url": "https://api.github.com/users/luke-jr/subscriptions",
    "organizations_url": "https://api.github.com/users/luke-jr/orgs",
    "repos_url": "https://api.github.com/users/luke-jr/repos",
    "events_url": "https://api.github.com/users/luke-jr/events{/privacy}",
    "received_events_url": "https://api.github.com/users/luke-jr/received_events",
    "type": "User",
    "site_admin": false
  },
  "labels": [
    {
      "id": 64585,
      "node_id": "MDU6TGFiZWw2NDU4NQ==",
      "url": "https://api.github.com/repos/bitcoin/bitcoin/labels/Bug",
      "name": "Bug",
      "color": "FBBAAB",
      "default": false,
      "description": null
    },
    {
      "id": 61889416,
      "node_id": "MDU6TGFiZWw2MTg4OTQxNg==",
      "url": "https://api.github.com/repos/bitcoin/bitcoin/labels/Build%20system",
      "name": "Build system",
      "color": "5319e7",
      "default": false,
      "description": null
    }
  ],
  "state": "closed",
  "locked": true,
  "assignee": null,
  "assignees": [

  ],
  "milestone": null,
  "comments": 4,
  "created_at": "2020-10-10T18:14:34Z",
  "updated_at": "2023-08-12T10:19:55Z",
  "closed_at": "2022-08-12T09:23:50Z",
  "author_association": "MEMBER",
  "active_lock_reason": null,
  "body_html": "<p dir=\"auto\">I haven't been able to figure out why yet, but it seems gcc/clang/g++/clang++ <code class=\"notranslate\">-E</code> no longer does the same thing as <code class=\"notranslate\">cpp</code></p>",
  "body_text": "I haven't been able to figure out why yet, but it seems gcc/clang/g++/clang++ -E no longer does the same thing as cpp",
  "body": "I haven't been able to figure out why yet, but it seems gcc/clang/g++/clang++ `-E` no longer does the same thing as `cpp`",
  "closed_by": {
    "login": "fanquake",
    "id": 863730,
    "node_id": "MDQ6VXNlcjg2MzczMA==",
    "avatar_url": "https://avatars.githubusercontent.com/u/863730?v=4",
    "gravatar_id": "",
    "url": "https://api.github.com/users/fanquake",
    "html_url": "https://github.com/fanquake",
    "followers_url": "https://api.github.com/users/fanquake/followers",
    "following_url": "https://api.github.com/users/fanquake/following{/other_user}",
    "gists_url": "https://api.github.com/users/fanquake/gists{/gist_id}",
    "starred_url": "https://api.github.com/users/fanquake/starred{/owner}{/repo}",
    "subscriptions_url": "https://api.github.com/users/fanquake/subscriptions",
    "organizations_url": "https://api.github.com/users/fanquake/orgs",
    "repos_url": "https://api.github.com/users/fanquake/repos",
    "events_url": "https://api.github.com/users/fanquake/events{/privacy}",
    "received_events_url": "https://api.github.com/users/fanquake/received_events",
    "type": "User",
    "site_admin": false
  },
  "reactions": {
    "url": "https://api.github.com/repos/bitcoin/bitcoin/issues/20118/reactions",
    "total_count": 0,
    "+1": 0,
    "-1": 0,
    "laugh": 0,
    "hooray": 0,
    "confused": 0,
    "heart": 0,
    "rocket": 0,
    "eyes": 0
  },
  "timeline_url": "https://api.github.com/repos/bitcoin/bitcoin/issues/20118/timeline",
  "performed_via_github_app": null,
  "state_reason": "not_planned"
}
