[
  {
    "url": "https://api.github.com/repos/bitcoin/bitcoin/issues/comments/697139663",
    "html_url": "https://github.com/bitcoin/bitcoin/pull/19998#issuecomment-697139663",
    "issue_url": "https://api.github.com/repos/bitcoin/bitcoin/issues/19998",
    "id": 697139663,
    "node_id": "MDEyOklzc3VlQ29tbWVudDY5NzEzOTY2Mw==",
    "user": {
      "login": "DrahtBot",
      "id": 39886733,
      "node_id": "MDQ6VXNlcjM5ODg2NzMz",
      "avatar_url": "https://avatars.githubusercontent.com/u/39886733?v=4",
      "gravatar_id": "",
      "url": "https://api.github.com/users/DrahtBot",
      "html_url": "https://github.com/DrahtBot",
      "followers_url": "https://api.github.com/users/DrahtBot/followers",
      "following_url": "https://api.github.com/users/DrahtBot/following{/other_user}",
      "gists_url": "https://api.github.com/users/DrahtBot/gists{/gist_id}",
      "starred_url": "https://api.github.com/users/DrahtBot/starred{/owner}{/repo}",
      "subscriptions_url": "https://api.github.com/users/DrahtBot/subscriptions",
      "organizations_url": "https://api.github.com/users/DrahtBot/orgs",
      "repos_url": "https://api.github.com/users/DrahtBot/repos",
      "events_url": "https://api.github.com/users/DrahtBot/events{/privacy}",
      "received_events_url": "https://api.github.com/users/DrahtBot/received_events",
      "type": "User",
      "site_admin": false
    },
    "created_at": "2020-09-23T05:18:38Z",
    "updated_at": "2020-10-03T14:38:06Z",
    "author_association": "CONTRIBUTOR",
    "body_html": "\n<p dir=\"auto\">The following sections might be updated with supplementary metadata relevant to reviewers and maintainers.</p>\n\n<h3 dir=\"auto\">Conflicts</h3>\n<p dir=\"auto\">Reviewers, this pull request conflicts with the following ones:</p>\n<ul dir=\"auto\">\n<li><a class=\"issue-link js-issue-link\" data-error-text=\"Failed to load title\" data-id=\"707291265\" data-permission-text=\"Title is private\" data-url=\"https://github.com/bitcoin/bitcoin/issues/20002\" data-hovercard-type=\"pull_request\" data-hovercard-url=\"/bitcoin/bitcoin/pull/20002/hovercard\" href=\"https://github.com/bitcoin/bitcoin/pull/20002\">#20002</a> (net, rpc, cli: expose peer network in getpeerinfo; simplify/improve -netinfo by jonatack)</li>\n<li><a class=\"issue-link js-issue-link\" data-error-text=\"Failed to load title\" data-id=\"695355791\" data-permission-text=\"Title is private\" data-url=\"https://github.com/bitcoin/bitcoin/issues/19911\" data-hovercard-type=\"pull_request\" data-hovercard-url=\"/bitcoin/bitcoin/pull/19911/hovercard\" href=\"https://github.com/bitcoin/bitcoin/pull/19911\">#19911</a> (net: guard vRecvGetData with cs_vRecv and orphan_work_set with g_cs_orphans by narula)</li>\n<li><a class=\"issue-link js-issue-link\" data-error-text=\"Failed to load title\" data-id=\"560626660\" data-permission-text=\"Title is private\" data-url=\"https://github.com/bitcoin/bitcoin/issues/18077\" data-hovercard-type=\"pull_request\" data-hovercard-url=\"/bitcoin/bitcoin/pull/18077/hovercard\" href=\"https://github.com/bitcoin/bitcoin/pull/18077\">#18077</a> (net: Add NAT-PMP port forwarding support by hebasto)</li>\n</ul>\n<p dir=\"auto\">If you consider this pull request important, please also help to review the conflicting pull requests. Ideally, start with the one that should be merged first.</p>",
    "body_text": "The following sections might be updated with supplementary metadata relevant to reviewers and maintainers.\n\nConflicts\nReviewers, this pull request conflicts with the following ones:\n\n#20002 (net, rpc, cli: expose peer network in getpeerinfo; simplify/improve -netinfo by jonatack)\n#19911 (net: guard vRecvGetData with cs_vRecv and orphan_work_set with g_cs_orphans by narula)\n#18077 (net: Add NAT-PMP port forwarding support by hebasto)\n\nIf you consider this pull request important, please also help to review the conflicting pull requests. Ideally, start with the one that should be merged first.",
    "body": "<!--e57a25ab6845829454e8d69fc972939a-->\n\nThe following sections might be updated with supplementary metadata relevant to reviewers and maintainers.\n\n<!--174a7506f384e20aa4161008e828411d-->\n### Conflicts\nReviewers, this pull request conflicts with the following ones:\n\n* #20002 (net, rpc, cli: expose peer network in getpeerinfo; simplify/improve -netinfo by jonatack)\n* #19911 (net: guard vRecvGetData with cs_vRecv and orphan_work_set with g_cs_orphans by narula)\n* #18077 (net: Add NAT-PMP port forwarding support by hebasto)\n\nIf you consider this pull request important, please also help to review the conflicting pull requests. Ideally, start with the one that should be merged first.",
    "reactions": {
      "url": "https://api.github.com/repos/bitcoin/bitcoin/issues/comments/697139663/reactions",
      "total_count": 0,
      "+1": 0,
      "-1": 0,
      "laugh": 0,
      "hooray": 0,
      "confused": 0,
      "heart": 0,
      "rocket": 0,
      "eyes": 0
    },
    "performed_via_github_app": null
  },
  {
    "url": "https://api.github.com/repos/bitcoin/bitcoin/issues/comments/697144220",
    "html_url": "https://github.com/bitcoin/bitcoin/pull/19998#issuecomment-697144220",
    "issue_url": "https://api.github.com/repos/bitcoin/bitcoin/issues/19998",
    "id": 697144220,
    "node_id": "MDEyOklzc3VlQ29tbWVudDY5NzE0NDIyMA==",
    "user": {
      "login": "practicalswift",
      "id": 7826565,
      "node_id": "MDQ6VXNlcjc4MjY1NjU=",
      "avatar_url": "https://avatars.githubusercontent.com/u/7826565?v=4",
      "gravatar_id": "",
      "url": "https://api.github.com/users/practicalswift",
      "html_url": "https://github.com/practicalswift",
      "followers_url": "https://api.github.com/users/practicalswift/followers",
      "following_url": "https://api.github.com/users/practicalswift/following{/other_user}",
      "gists_url": "https://api.github.com/users/practicalswift/gists{/gist_id}",
      "starred_url": "https://api.github.com/users/practicalswift/starred{/owner}{/repo}",
      "subscriptions_url": "https://api.github.com/users/practicalswift/subscriptions",
      "organizations_url": "https://api.github.com/users/practicalswift/orgs",
      "repos_url": "https://api.github.com/users/practicalswift/repos",
      "events_url": "https://api.github.com/users/practicalswift/events{/privacy}",
      "received_events_url": "https://api.github.com/users/practicalswift/received_events",
      "type": "User",
      "site_admin": false
    },
    "created_at": "2020-09-23T05:35:06Z",
    "updated_at": "2020-09-23T05:35:06Z",
    "author_association": "CONTRIBUTOR",
    "body_html": "<p dir=\"auto\">Concept ACK</p>\n<p dir=\"auto\">Nice! :)</p>",
    "body_text": "Concept ACK\nNice! :)",
    "body": "Concept ACK\r\n\r\nNice! :)",
    "reactions": {
      "url": "https://api.github.com/repos/bitcoin/bitcoin/issues/comments/697144220/reactions",
      "total_count": 0,
      "+1": 0,
      "-1": 0,
      "laugh": 0,
      "hooray": 0,
      "confused": 0,
      "heart": 0,
      "rocket": 0,
      "eyes": 0
    },
    "performed_via_github_app": null
  },
  {
    "url": "https://api.github.com/repos/bitcoin/bitcoin/issues/comments/697292952",
    "html_url": "https://github.com/bitcoin/bitcoin/pull/19998#issuecomment-697292952",
    "issue_url": "https://api.github.com/repos/bitcoin/bitcoin/issues/19998",
    "id": 697292952,
    "node_id": "MDEyOklzc3VlQ29tbWVudDY5NzI5Mjk1Mg==",
    "user": {
      "login": "laanwj",
      "id": 126646,
      "node_id": "MDQ6VXNlcjEyNjY0Ng==",
      "avatar_url": "https://avatars.githubusercontent.com/u/126646?v=4",
      "gravatar_id": "",
      "url": "https://api.github.com/users/laanwj",
      "html_url": "https://github.com/laanwj",
      "followers_url": "https://api.github.com/users/laanwj/followers",
      "following_url": "https://api.github.com/users/laanwj/following{/other_user}",
      "gists_url": "https://api.github.com/users/laanwj/gists{/gist_id}",
      "starred_url": "https://api.github.com/users/laanwj/starred{/owner}{/repo}",
      "subscriptions_url": "https://api.github.com/users/laanwj/subscriptions",
      "organizations_url": "https://api.github.com/users/laanwj/orgs",
      "repos_url": "https://api.github.com/users/laanwj/repos",
      "events_url": "https://api.github.com/users/laanwj/events{/privacy}",
      "received_events_url": "https://api.github.com/users/laanwj/received_events",
      "type": "User",
      "site_admin": false
    },
    "created_at": "2020-09-23T11:05:19Z",
    "updated_at": "2020-09-23T11:05:51Z",
    "author_association": "MEMBER",
    "body_html": "<p dir=\"auto\">Concept ACK</p>\n<p dir=\"auto\">What about a multiple-choice option that more generally specifies the network that the connection (comes in/goes out) through, instead of specializing it for Tor? Might want to have the same for I2P later, for example.</p>\n<p dir=\"auto\">Also this should be 'onion' to be consistent with our other uses.</p>",
    "body_text": "Concept ACK\nWhat about a multiple-choice option that more generally specifies the network that the connection (comes in/goes out) through, instead of specializing it for Tor? Might want to have the same for I2P later, for example.\nAlso this should be 'onion' to be consistent with our other uses.",
    "body": "Concept ACK\r\n\r\nWhat about a multiple-choice option that more generally specifies the network that the connection (comes in/goes out) through, instead of specializing it for Tor? Might want to have the same for I2P later, for example.\r\n\r\nAlso this should be 'onion' to be consistent with our other uses.\r\n",
    "reactions": {
      "url": "https://api.github.com/repos/bitcoin/bitcoin/issues/comments/697292952/reactions",
      "total_count": 0,
      "+1": 0,
      "-1": 0,
      "laugh": 0,
      "hooray": 0,
      "confused": 0,
      "heart": 0,
      "rocket": 0,
      "eyes": 0
    },
    "performed_via_github_app": null
  },
  {
    "url": "https://api.github.com/repos/bitcoin/bitcoin/issues/comments/697300466",
    "html_url": "https://github.com/bitcoin/bitcoin/pull/19998#issuecomment-697300466",
    "issue_url": "https://api.github.com/repos/bitcoin/bitcoin/issues/19998",
    "id": 697300466,
    "node_id": "MDEyOklzc3VlQ29tbWVudDY5NzMwMDQ2Ng==",
    "user": {
      "login": "hebasto",
      "id": 32963518,
      "node_id": "MDQ6VXNlcjMyOTYzNTE4",
      "avatar_url": "https://avatars.githubusercontent.com/u/32963518?v=4",
      "gravatar_id": "",
      "url": "https://api.github.com/users/hebasto",
      "html_url": "https://github.com/hebasto",
      "followers_url": "https://api.github.com/users/hebasto/followers",
      "following_url": "https://api.github.com/users/hebasto/following{/other_user}",
      "gists_url": "https://api.github.com/users/hebasto/gists{/gist_id}",
      "starred_url": "https://api.github.com/users/hebasto/starred{/owner}{/repo}",
      "subscriptions_url": "https://api.github.com/users/hebasto/subscriptions",
      "organizations_url": "https://api.github.com/users/hebasto/orgs",
      "repos_url": "https://api.github.com/users/hebasto/repos",
      "events_url": "https://api.github.com/users/hebasto/events{/privacy}",
      "received_events_url": "https://api.github.com/users/hebasto/received_events",
      "type": "User",
      "site_admin": false
    },
    "created_at": "2020-09-23T11:21:41Z",
    "updated_at": "2020-09-23T11:21:41Z",
    "author_association": "MEMBER",
    "body_html": "<p dir=\"auto\"><a class=\"user-mention notranslate\" data-hovercard-type=\"user\" data-hovercard-url=\"/users/laanwj/hovercard\" data-octo-click=\"hovercard-link-click\" data-octo-dimensions=\"link_type:self\" href=\"https://github.com/laanwj\">@laanwj</a></p>\n<blockquote>\n<p dir=\"auto\">What about a multiple-choice option that more generally specifies the network that the connection (comes in/goes out) through, instead of specializing it for Tor? Might want to have the same for I2P later, for example.</p>\n</blockquote>\n<p dir=\"auto\">Do I understand you correctly that smth following is expected:</p>\n<div class=\"snippet-clipboard-content notranslate position-relative overflow-auto\" data-snippet-clipboard-copy-content=\"$ src/bitcoin-cli help getpeerinfo | grep network_type\n    &quot;network_type&quot; : clearnet|onion|I2P,        Type of the network the peer has connected via\"><pre class=\"notranslate\"><code class=\"notranslate\">$ src/bitcoin-cli help getpeerinfo | grep network_type\n    \"network_type\" : clearnet|onion|I2P,        Type of the network the peer has connected via\n</code></pre></div>\n<p dir=\"auto\">?</p>",
    "body_text": "@laanwj\n\nWhat about a multiple-choice option that more generally specifies the network that the connection (comes in/goes out) through, instead of specializing it for Tor? Might want to have the same for I2P later, for example.\n\nDo I understand you correctly that smth following is expected:\n$ src/bitcoin-cli help getpeerinfo | grep network_type\n    \"network_type\" : clearnet|onion|I2P,        Type of the network the peer has connected via\n\n?",
    "body": "@laanwj \r\n> What about a multiple-choice option that more generally specifies the network that the connection (comes in/goes out) through, instead of specializing it for Tor? Might want to have the same for I2P later, for example.\r\n\r\nDo I understand you correctly that smth following is expected:\r\n```\r\n$ src/bitcoin-cli help getpeerinfo | grep network_type\r\n    \"network_type\" : clearnet|onion|I2P,        Type of the network the peer has connected via\r\n```\r\n?",
    "reactions": {
      "url": "https://api.github.com/repos/bitcoin/bitcoin/issues/comments/697300466/reactions",
      "total_count": 0,
      "+1": 0,
      "-1": 0,
      "laugh": 0,
      "hooray": 0,
      "confused": 0,
      "heart": 0,
      "rocket": 0,
      "eyes": 0
    },
    "performed_via_github_app": null
  },
  {
    "url": "https://api.github.com/repos/bitcoin/bitcoin/issues/comments/697419848",
    "html_url": "https://github.com/bitcoin/bitcoin/pull/19998#issuecomment-697419848",
    "issue_url": "https://api.github.com/repos/bitcoin/bitcoin/issues/19998",
    "id": 697419848,
    "node_id": "MDEyOklzc3VlQ29tbWVudDY5NzQxOTg0OA==",
    "user": {
      "login": "naumenkogs",
      "id": 7975071,
      "node_id": "MDQ6VXNlcjc5NzUwNzE=",
      "avatar_url": "https://avatars.githubusercontent.com/u/7975071?v=4",
      "gravatar_id": "",
      "url": "https://api.github.com/users/naumenkogs",
      "html_url": "https://github.com/naumenkogs",
      "followers_url": "https://api.github.com/users/naumenkogs/followers",
      "following_url": "https://api.github.com/users/naumenkogs/following{/other_user}",
      "gists_url": "https://api.github.com/users/naumenkogs/gists{/gist_id}",
      "starred_url": "https://api.github.com/users/naumenkogs/starred{/owner}{/repo}",
      "subscriptions_url": "https://api.github.com/users/naumenkogs/subscriptions",
      "organizations_url": "https://api.github.com/users/naumenkogs/orgs",
      "repos_url": "https://api.github.com/users/naumenkogs/repos",
      "events_url": "https://api.github.com/users/naumenkogs/events{/privacy}",
      "received_events_url": "https://api.github.com/users/naumenkogs/received_events",
      "type": "User",
      "site_admin": false
    },
    "created_at": "2020-09-23T14:12:48Z",
    "updated_at": "2020-09-23T14:12:48Z",
    "author_association": "MEMBER",
    "body_html": "<p dir=\"auto\">Concept ACK.<br>\nI agree with wladimir's suggestions.<br>\n<a class=\"user-mention notranslate\" data-hovercard-type=\"user\" data-hovercard-url=\"/users/hebasto/hovercard\" data-octo-click=\"hovercard-link-click\" data-octo-dimensions=\"link_type:self\" href=\"https://github.com/hebasto\">@hebasto</a> I think your understanding is correct.</p>",
    "body_text": "Concept ACK.\nI agree with wladimir's suggestions.\n@hebasto I think your understanding is correct.",
    "body": "Concept ACK.\r\nI agree with wladimir's suggestions.\r\n@hebasto I think your understanding is correct.",
    "reactions": {
      "url": "https://api.github.com/repos/bitcoin/bitcoin/issues/comments/697419848/reactions",
      "total_count": 0,
      "+1": 0,
      "-1": 0,
      "laugh": 0,
      "hooray": 0,
      "confused": 0,
      "heart": 0,
      "rocket": 0,
      "eyes": 0
    },
    "performed_via_github_app": null
  },
  {
    "url": "https://api.github.com/repos/bitcoin/bitcoin/issues/comments/697433454",
    "html_url": "https://github.com/bitcoin/bitcoin/pull/19998#issuecomment-697433454",
    "issue_url": "https://api.github.com/repos/bitcoin/bitcoin/issues/19998",
    "id": 697433454,
    "node_id": "MDEyOklzc3VlQ29tbWVudDY5NzQzMzQ1NA==",
    "user": {
      "login": "jonatack",
      "id": 2415484,
      "node_id": "MDQ6VXNlcjI0MTU0ODQ=",
      "avatar_url": "https://avatars.githubusercontent.com/u/2415484?v=4",
      "gravatar_id": "",
      "url": "https://api.github.com/users/jonatack",
      "html_url": "https://github.com/jonatack",
      "followers_url": "https://api.github.com/users/jonatack/followers",
      "following_url": "https://api.github.com/users/jonatack/following{/other_user}",
      "gists_url": "https://api.github.com/users/jonatack/gists{/gist_id}",
      "starred_url": "https://api.github.com/users/jonatack/starred{/owner}{/repo}",
      "subscriptions_url": "https://api.github.com/users/jonatack/subscriptions",
      "organizations_url": "https://api.github.com/users/jonatack/orgs",
      "repos_url": "https://api.github.com/users/jonatack/repos",
      "events_url": "https://api.github.com/users/jonatack/events{/privacy}",
      "received_events_url": "https://api.github.com/users/jonatack/received_events",
      "type": "User",
      "site_admin": false
    },
    "created_at": "2020-09-23T14:21:03Z",
    "updated_at": "2020-09-23T14:21:03Z",
    "author_association": "CONTRIBUTOR",
    "body_html": "<blockquote>\n<p dir=\"auto\">Concept ACK</p>\n<p dir=\"auto\">What about a multiple-choice option that more generally specifies the network that the connection (comes in/goes out) through, instead of specializing it for Tor? Might want to have the same for I2P later, for example.</p>\n<p dir=\"auto\">Also this should be 'onion' to be consistent with our other uses.</p>\n</blockquote>\n<p dir=\"auto\">This was the goal in <a class=\"issue-link js-issue-link\" data-error-text=\"Failed to load title\" data-id=\"707291265\" data-permission-text=\"Title is private\" data-url=\"https://github.com/bitcoin/bitcoin/issues/20002\" data-hovercard-type=\"pull_request\" data-hovercard-url=\"/bitcoin/bitcoin/pull/20002/hovercard\" href=\"https://github.com/bitcoin/bitcoin/pull/20002\">#20002</a>, which exposes the <code class=\"notranslate\">GetNetClass()</code> index (allowing for a significant code simplification in -netinfo). Feedback welcome if it should also expose the network class name.</p>",
    "body_text": "Concept ACK\nWhat about a multiple-choice option that more generally specifies the network that the connection (comes in/goes out) through, instead of specializing it for Tor? Might want to have the same for I2P later, for example.\nAlso this should be 'onion' to be consistent with our other uses.\n\nThis was the goal in #20002, which exposes the GetNetClass() index (allowing for a significant code simplification in -netinfo). Feedback welcome if it should also expose the network class name.",
    "body": "> Concept ACK\r\n> \r\n> What about a multiple-choice option that more generally specifies the network that the connection (comes in/goes out) through, instead of specializing it for Tor? Might want to have the same for I2P later, for example.\r\n> \r\n> Also this should be 'onion' to be consistent with our other uses.\r\n\r\nThis was the goal in #20002, which exposes the `GetNetClass()` index (allowing for a significant code simplification in -netinfo). Feedback welcome if it should also expose the network class name.   ",
    "reactions": {
      "url": "https://api.github.com/repos/bitcoin/bitcoin/issues/comments/697433454/reactions",
      "total_count": 0,
      "+1": 0,
      "-1": 0,
      "laugh": 0,
      "hooray": 0,
      "confused": 0,
      "heart": 0,
      "rocket": 0,
      "eyes": 0
    },
    "performed_via_github_app": null
  },
  {
    "url": "https://api.github.com/repos/bitcoin/bitcoin/issues/comments/697453528",
    "html_url": "https://github.com/bitcoin/bitcoin/pull/19998#issuecomment-697453528",
    "issue_url": "https://api.github.com/repos/bitcoin/bitcoin/issues/19998",
    "id": 697453528,
    "node_id": "MDEyOklzc3VlQ29tbWVudDY5NzQ1MzUyOA==",
    "user": {
      "login": "hebasto",
      "id": 32963518,
      "node_id": "MDQ6VXNlcjMyOTYzNTE4",
      "avatar_url": "https://avatars.githubusercontent.com/u/32963518?v=4",
      "gravatar_id": "",
      "url": "https://api.github.com/users/hebasto",
      "html_url": "https://github.com/hebasto",
      "followers_url": "https://api.github.com/users/hebasto/followers",
      "following_url": "https://api.github.com/users/hebasto/following{/other_user}",
      "gists_url": "https://api.github.com/users/hebasto/gists{/gist_id}",
      "starred_url": "https://api.github.com/users/hebasto/starred{/owner}{/repo}",
      "subscriptions_url": "https://api.github.com/users/hebasto/subscriptions",
      "organizations_url": "https://api.github.com/users/hebasto/orgs",
      "repos_url": "https://api.github.com/users/hebasto/repos",
      "events_url": "https://api.github.com/users/hebasto/events{/privacy}",
      "received_events_url": "https://api.github.com/users/hebasto/received_events",
      "type": "User",
      "site_admin": false
    },
    "created_at": "2020-09-23T14:33:26Z",
    "updated_at": "2020-09-23T14:35:47Z",
    "author_association": "MEMBER",
    "body_html": "<p dir=\"auto\"><a class=\"user-mention notranslate\" data-hovercard-type=\"user\" data-hovercard-url=\"/users/jonatack/hovercard\" data-octo-click=\"hovercard-link-click\" data-octo-dimensions=\"link_type:self\" href=\"https://github.com/jonatack\">@jonatack</a></p>\n<blockquote>\n<p dir=\"auto\">This was the goal in <a class=\"issue-link js-issue-link\" data-error-text=\"Failed to load title\" data-id=\"707291265\" data-permission-text=\"Title is private\" data-url=\"https://github.com/bitcoin/bitcoin/issues/20002\" data-hovercard-type=\"pull_request\" data-hovercard-url=\"/bitcoin/bitcoin/pull/20002/hovercard\" href=\"https://github.com/bitcoin/bitcoin/pull/20002\">#20002</a>, which exposes the <code class=\"notranslate\">GetNetClass()</code> index (allowing for a significant code simplification in -netinfo). Feedback welcome if it should also expose the network class name.</p>\n</blockquote>\n<p dir=\"auto\">What about limiting this PR to introducing <code class=\"notranslate\">CNode::GetNetClass()</code> in addition to <code class=\"notranslate\">CNetAddr::GetNetClass()</code> as the latter does not work for inbound connections via Tor?</p>\n<p dir=\"auto\">Or just drop the last commit in favor of <a class=\"issue-link js-issue-link\" data-error-text=\"Failed to load title\" data-id=\"707291265\" data-permission-text=\"Title is private\" data-url=\"https://github.com/bitcoin/bitcoin/issues/20002\" data-hovercard-type=\"pull_request\" data-hovercard-url=\"/bitcoin/bitcoin/pull/20002/hovercard\" href=\"https://github.com/bitcoin/bitcoin/pull/20002\">#20002</a> (if <code class=\"notranslate\">CNode::ConnectedViaTor()</code> logic is sufficient)?</p>",
    "body_text": "@jonatack\n\nThis was the goal in #20002, which exposes the GetNetClass() index (allowing for a significant code simplification in -netinfo). Feedback welcome if it should also expose the network class name.\n\nWhat about limiting this PR to introducing CNode::GetNetClass() in addition to CNetAddr::GetNetClass() as the latter does not work for inbound connections via Tor?\nOr just drop the last commit in favor of #20002 (if CNode::ConnectedViaTor() logic is sufficient)?",
    "body": "@jonatack \r\n> This was the goal in #20002, which exposes the `GetNetClass()` index (allowing for a significant code simplification in -netinfo). Feedback welcome if it should also expose the network class name.\r\n\r\nWhat about limiting this PR to introducing `CNode::GetNetClass()` in addition to `CNetAddr::GetNetClass()` as the latter does not work for inbound connections via Tor?\r\n\r\nOr just drop the last commit in favor of #20002 (if `CNode::ConnectedViaTor()` logic is sufficient)?",
    "reactions": {
      "url": "https://api.github.com/repos/bitcoin/bitcoin/issues/comments/697453528/reactions",
      "total_count": 0,
      "+1": 0,
      "-1": 0,
      "laugh": 0,
      "hooray": 0,
      "confused": 0,
      "heart": 0,
      "rocket": 0,
      "eyes": 0
    },
    "performed_via_github_app": null
  },
  {
    "url": "https://api.github.com/repos/bitcoin/bitcoin/issues/comments/697602462",
    "html_url": "https://github.com/bitcoin/bitcoin/pull/19998#issuecomment-697602462",
    "issue_url": "https://api.github.com/repos/bitcoin/bitcoin/issues/19998",
    "id": 697602462,
    "node_id": "MDEyOklzc3VlQ29tbWVudDY5NzYwMjQ2Mg==",
    "user": {
      "login": "jonatack",
      "id": 2415484,
      "node_id": "MDQ6VXNlcjI0MTU0ODQ=",
      "avatar_url": "https://avatars.githubusercontent.com/u/2415484?v=4",
      "gravatar_id": "",
      "url": "https://api.github.com/users/jonatack",
      "html_url": "https://github.com/jonatack",
      "followers_url": "https://api.github.com/users/jonatack/followers",
      "following_url": "https://api.github.com/users/jonatack/following{/other_user}",
      "gists_url": "https://api.github.com/users/jonatack/gists{/gist_id}",
      "starred_url": "https://api.github.com/users/jonatack/starred{/owner}{/repo}",
      "subscriptions_url": "https://api.github.com/users/jonatack/subscriptions",
      "organizations_url": "https://api.github.com/users/jonatack/orgs",
      "repos_url": "https://api.github.com/users/jonatack/repos",
      "events_url": "https://api.github.com/users/jonatack/events{/privacy}",
      "received_events_url": "https://api.github.com/users/jonatack/received_events",
      "type": "User",
      "site_admin": false
    },
    "created_at": "2020-09-23T16:03:29Z",
    "updated_at": "2020-09-23T16:48:03Z",
    "author_association": "CONTRIBUTOR",
    "body_html": "<p dir=\"auto\"><a class=\"user-mention notranslate\" data-hovercard-type=\"user\" data-hovercard-url=\"/users/hebasto/hovercard\" data-octo-click=\"hovercard-link-click\" data-octo-dimensions=\"link_type:self\" href=\"https://github.com/hebasto\">@hebasto</a> after chatting offline, that makes sense, will look at building on your commit \"net: Add CNode::ConnectedViaTor() member function\".</p>\n<p dir=\"auto\">Concept ACK in any case, will test your inbound onions detection.</p>",
    "body_text": "@hebasto after chatting offline, that makes sense, will look at building on your commit \"net: Add CNode::ConnectedViaTor() member function\".\nConcept ACK in any case, will test your inbound onions detection.",
    "body": "@hebasto after chatting offline, that makes sense, will look at building on your commit \"net: Add CNode::ConnectedViaTor() member function\".\r\n\r\nConcept ACK in any case, will test your inbound onions detection.",
    "reactions": {
      "url": "https://api.github.com/repos/bitcoin/bitcoin/issues/comments/697602462/reactions",
      "total_count": 0,
      "+1": 0,
      "-1": 0,
      "laugh": 0,
      "hooray": 0,
      "confused": 0,
      "heart": 0,
      "rocket": 0,
      "eyes": 0
    },
    "performed_via_github_app": null
  },
  {
    "url": "https://api.github.com/repos/bitcoin/bitcoin/issues/comments/697612804",
    "html_url": "https://github.com/bitcoin/bitcoin/pull/19998#issuecomment-697612804",
    "issue_url": "https://api.github.com/repos/bitcoin/bitcoin/issues/19998",
    "id": 697612804,
    "node_id": "MDEyOklzc3VlQ29tbWVudDY5NzYxMjgwNA==",
    "user": {
      "login": "hebasto",
      "id": 32963518,
      "node_id": "MDQ6VXNlcjMyOTYzNTE4",
      "avatar_url": "https://avatars.githubusercontent.com/u/32963518?v=4",
      "gravatar_id": "",
      "url": "https://api.github.com/users/hebasto",
      "html_url": "https://github.com/hebasto",
      "followers_url": "https://api.github.com/users/hebasto/followers",
      "following_url": "https://api.github.com/users/hebasto/following{/other_user}",
      "gists_url": "https://api.github.com/users/hebasto/gists{/gist_id}",
      "starred_url": "https://api.github.com/users/hebasto/starred{/owner}{/repo}",
      "subscriptions_url": "https://api.github.com/users/hebasto/subscriptions",
      "organizations_url": "https://api.github.com/users/hebasto/orgs",
      "repos_url": "https://api.github.com/users/hebasto/repos",
      "events_url": "https://api.github.com/users/hebasto/events{/privacy}",
      "received_events_url": "https://api.github.com/users/hebasto/received_events",
      "type": "User",
      "site_admin": false
    },
    "created_at": "2020-09-23T16:09:33Z",
    "updated_at": "2020-09-23T16:14:18Z",
    "author_association": "MEMBER",
    "body_html": "<p dir=\"auto\">Updated <a class=\"commit-link\" data-hovercard-type=\"commit\" data-hovercard-url=\"https://github.com/bitcoin/bitcoin/commit/fcd938e80abe634ccd0c0a289a8bdd339c186d24/hovercard\" href=\"https://github.com/bitcoin/bitcoin/commit/fcd938e80abe634ccd0c0a289a8bdd339c186d24\"><tt>fcd938e</tt></a> -&gt; <a class=\"commit-link\" data-hovercard-type=\"commit\" data-hovercard-url=\"https://github.com/bitcoin/bitcoin/commit/911a3f9929e2c10493c1ad525ad592dd6859df3f/hovercard\" href=\"https://github.com/bitcoin/bitcoin/commit/911a3f9929e2c10493c1ad525ad592dd6859df3f\"><tt>911a3f9</tt></a> (<a href=\"https://github.com/hebasto/bitcoin/commits/pr19998.02\">pr19998.02</a> -&gt; <a href=\"https://github.com/hebasto/bitcoin/commits/pr19998.03\">pr19998.03</a>, <a href=\"https://github.com/hebasto/bitcoin/compare/pr19998.02..pr19998.03\">diff</a>):</p>\n<ul dir=\"auto\">\n<li>dropped the last commit \"rpc: Add <code class=\"notranslate\">via_tor</code> to <code class=\"notranslate\">getpeerinfo</code> output\" in favor of more consistent approach in <a class=\"issue-link js-issue-link\" data-error-text=\"Failed to load title\" data-id=\"707291265\" data-permission-text=\"Title is private\" data-url=\"https://github.com/bitcoin/bitcoin/issues/20002\" data-hovercard-type=\"pull_request\" data-hovercard-url=\"/bitcoin/bitcoin/pull/20002/hovercard\" href=\"https://github.com/bitcoin/bitcoin/pull/20002\">#20002</a></li>\n</ul>\n<p dir=\"auto\"><a class=\"user-mention notranslate\" data-hovercard-type=\"user\" data-hovercard-url=\"/users/laanwj/hovercard\" data-octo-click=\"hovercard-link-click\" data-octo-dimensions=\"link_type:self\" href=\"https://github.com/laanwj\">@laanwj</a> <a class=\"user-mention notranslate\" data-hovercard-type=\"user\" data-hovercard-url=\"/users/naumenkogs/hovercard\" data-octo-click=\"hovercard-link-click\" data-octo-dimensions=\"link_type:self\" href=\"https://github.com/naumenkogs\">@naumenkogs</a> RPC part has been moved to <a class=\"issue-link js-issue-link\" data-error-text=\"Failed to load title\" data-id=\"707291265\" data-permission-text=\"Title is private\" data-url=\"https://github.com/bitcoin/bitcoin/issues/20002\" data-hovercard-type=\"pull_request\" data-hovercard-url=\"/bitcoin/bitcoin/pull/20002/hovercard\" href=\"https://github.com/bitcoin/bitcoin/pull/20002\">#20002</a> now.</p>",
    "body_text": "Updated fcd938e -> 911a3f9 (pr19998.02 -> pr19998.03, diff):\n\ndropped the last commit \"rpc: Add via_tor to getpeerinfo output\" in favor of more consistent approach in #20002\n\n@laanwj @naumenkogs RPC part has been moved to #20002 now.",
    "body": "Updated fcd938e80abe634ccd0c0a289a8bdd339c186d24 -> 911a3f9929e2c10493c1ad525ad592dd6859df3f ([pr19998.02](https://github.com/hebasto/bitcoin/commits/pr19998.02) -> [pr19998.03](https://github.com/hebasto/bitcoin/commits/pr19998.03), [diff](https://github.com/hebasto/bitcoin/compare/pr19998.02..pr19998.03)):\r\n\r\n- dropped the last commit \"rpc: Add `via_tor` to `getpeerinfo` output\" in favor of more consistent approach in #20002\r\n\r\n@laanwj @naumenkogs RPC part has been moved to #20002 now.",
    "reactions": {
      "url": "https://api.github.com/repos/bitcoin/bitcoin/issues/comments/697612804/reactions",
      "total_count": 0,
      "+1": 0,
      "-1": 0,
      "laugh": 0,
      "hooray": 0,
      "confused": 0,
      "heart": 0,
      "rocket": 0,
      "eyes": 0
    },
    "performed_via_github_app": null
  },
  {
    "url": "https://api.github.com/repos/bitcoin/bitcoin/issues/comments/701261700",
    "html_url": "https://github.com/bitcoin/bitcoin/pull/19998#issuecomment-701261700",
    "issue_url": "https://api.github.com/repos/bitcoin/bitcoin/issues/19998",
    "id": 701261700,
    "node_id": "MDEyOklzc3VlQ29tbWVudDcwMTI2MTcwMA==",
    "user": {
      "login": "laanwj",
      "id": 126646,
      "node_id": "MDQ6VXNlcjEyNjY0Ng==",
      "avatar_url": "https://avatars.githubusercontent.com/u/126646?v=4",
      "gravatar_id": "",
      "url": "https://api.github.com/users/laanwj",
      "html_url": "https://github.com/laanwj",
      "followers_url": "https://api.github.com/users/laanwj/followers",
      "following_url": "https://api.github.com/users/laanwj/following{/other_user}",
      "gists_url": "https://api.github.com/users/laanwj/gists{/gist_id}",
      "starred_url": "https://api.github.com/users/laanwj/starred{/owner}{/repo}",
      "subscriptions_url": "https://api.github.com/users/laanwj/subscriptions",
      "organizations_url": "https://api.github.com/users/laanwj/orgs",
      "repos_url": "https://api.github.com/users/laanwj/repos",
      "events_url": "https://api.github.com/users/laanwj/events{/privacy}",
      "received_events_url": "https://api.github.com/users/laanwj/received_events",
      "type": "User",
      "site_admin": false
    },
    "created_at": "2020-09-30T09:02:03Z",
    "updated_at": "2020-09-30T09:12:57Z",
    "author_association": "MEMBER",
    "body_html": "<p dir=\"auto\">Haven't reveiewed the code, but conceptually, for future-readyness I'd prefer this to be called <code class=\"notranslate\">ConnectedThroughNetwork</code> and return an enumeration instead of have a Tor-specific call one the API.</p>\n<p dir=\"auto\">Edit: oh, I suggested this before. Apparently I feel strongly about this 😄 .</p>\n<blockquote>\n<p dir=\"auto\">$ src/bitcoin-cli help getpeerinfo | grep network_type<br>\n\"network_type\" : clearnet|onion|I2P,        Type of the network the peer has connected via</p>\n</blockquote>\n<p dir=\"auto\">Yes, exactly! Or maybe even split clearnet into IPv4 and IPv6.</p>",
    "body_text": "Haven't reveiewed the code, but conceptually, for future-readyness I'd prefer this to be called ConnectedThroughNetwork and return an enumeration instead of have a Tor-specific call one the API.\nEdit: oh, I suggested this before. Apparently I feel strongly about this 😄 .\n\n$ src/bitcoin-cli help getpeerinfo | grep network_type\n\"network_type\" : clearnet|onion|I2P,        Type of the network the peer has connected via\n\nYes, exactly! Or maybe even split clearnet into IPv4 and IPv6.",
    "body": "Haven't reveiewed the code, but conceptually, for future-readyness I'd prefer this to be called `ConnectedThroughNetwork` and return an enumeration instead of have a Tor-specific call one the API.\r\n\r\nEdit: oh, I suggested this before. Apparently I feel strongly about this :smile: .\r\n\r\n> $ src/bitcoin-cli help getpeerinfo | grep network_type\r\n>    \"network_type\" : clearnet|onion|I2P,        Type of the network the peer has connected via\r\n\r\nYes, exactly! Or maybe even split clearnet into IPv4 and IPv6.",
    "reactions": {
      "url": "https://api.github.com/repos/bitcoin/bitcoin/issues/comments/701261700/reactions",
      "total_count": 0,
      "+1": 0,
      "-1": 0,
      "laugh": 0,
      "hooray": 0,
      "confused": 0,
      "heart": 0,
      "rocket": 0,
      "eyes": 0
    },
    "performed_via_github_app": null
  },
  {
    "url": "https://api.github.com/repos/bitcoin/bitcoin/issues/comments/701295073",
    "html_url": "https://github.com/bitcoin/bitcoin/pull/19998#issuecomment-701295073",
    "issue_url": "https://api.github.com/repos/bitcoin/bitcoin/issues/19998",
    "id": 701295073,
    "node_id": "MDEyOklzc3VlQ29tbWVudDcwMTI5NTA3Mw==",
    "user": {
      "login": "jonatack",
      "id": 2415484,
      "node_id": "MDQ6VXNlcjI0MTU0ODQ=",
      "avatar_url": "https://avatars.githubusercontent.com/u/2415484?v=4",
      "gravatar_id": "",
      "url": "https://api.github.com/users/jonatack",
      "html_url": "https://github.com/jonatack",
      "followers_url": "https://api.github.com/users/jonatack/followers",
      "following_url": "https://api.github.com/users/jonatack/following{/other_user}",
      "gists_url": "https://api.github.com/users/jonatack/gists{/gist_id}",
      "starred_url": "https://api.github.com/users/jonatack/starred{/owner}{/repo}",
      "subscriptions_url": "https://api.github.com/users/jonatack/subscriptions",
      "organizations_url": "https://api.github.com/users/jonatack/orgs",
      "repos_url": "https://api.github.com/users/jonatack/repos",
      "events_url": "https://api.github.com/users/jonatack/events{/privacy}",
      "received_events_url": "https://api.github.com/users/jonatack/received_events",
      "type": "User",
      "site_admin": false
    },
    "created_at": "2020-09-30T10:07:14Z",
    "updated_at": "2020-09-30T10:56:30Z",
    "author_association": "CONTRIBUTOR",
    "body_html": "<p dir=\"auto\">Yes, ATM returning an enum is delegated to the follow-up <a class=\"issue-link js-issue-link\" data-error-text=\"Failed to load title\" data-id=\"707291265\" data-permission-text=\"Title is private\" data-url=\"https://github.com/bitcoin/bitcoin/issues/20002\" data-hovercard-type=\"pull_request\" data-hovercard-url=\"/bitcoin/bitcoin/pull/20002/hovercard\" href=\"https://github.com/bitcoin/bitcoin/pull/20002\">#20002</a>, where the <code class=\"notranslate\">Network</code> enum is returned using the existing <code class=\"notranslate\">GetNetworkName()</code> function for the enum-to-string conversion. New networks like I2P and CJDNS can be added to that function when they are supported.</p>\n<p dir=\"auto\">Feel free to combine the two steps into one if that is better.</p>",
    "body_text": "Yes, ATM returning an enum is delegated to the follow-up #20002, where the Network enum is returned using the existing GetNetworkName() function for the enum-to-string conversion. New networks like I2P and CJDNS can be added to that function when they are supported.\nFeel free to combine the two steps into one if that is better.",
    "body": "Yes, ATM returning an enum is delegated to the follow-up #20002, where the `Network` enum is returned using the existing `GetNetworkName()` function for the enum-to-string conversion. New networks like I2P and CJDNS can be added to that function when they are supported.\n\nFeel free to combine the two steps into one if that is better.",
    "reactions": {
      "url": "https://api.github.com/repos/bitcoin/bitcoin/issues/comments/701295073/reactions",
      "total_count": 0,
      "+1": 0,
      "-1": 0,
      "laugh": 0,
      "hooray": 0,
      "confused": 0,
      "heart": 0,
      "rocket": 0,
      "eyes": 0
    },
    "performed_via_github_app": null
  },
  {
    "url": "https://api.github.com/repos/bitcoin/bitcoin/issues/comments/701557196",
    "html_url": "https://github.com/bitcoin/bitcoin/pull/19998#issuecomment-701557196",
    "issue_url": "https://api.github.com/repos/bitcoin/bitcoin/issues/19998",
    "id": 701557196,
    "node_id": "MDEyOklzc3VlQ29tbWVudDcwMTU1NzE5Ng==",
    "user": {
      "login": "hebasto",
      "id": 32963518,
      "node_id": "MDQ6VXNlcjMyOTYzNTE4",
      "avatar_url": "https://avatars.githubusercontent.com/u/32963518?v=4",
      "gravatar_id": "",
      "url": "https://api.github.com/users/hebasto",
      "html_url": "https://github.com/hebasto",
      "followers_url": "https://api.github.com/users/hebasto/followers",
      "following_url": "https://api.github.com/users/hebasto/following{/other_user}",
      "gists_url": "https://api.github.com/users/hebasto/gists{/gist_id}",
      "starred_url": "https://api.github.com/users/hebasto/starred{/owner}{/repo}",
      "subscriptions_url": "https://api.github.com/users/hebasto/subscriptions",
      "organizations_url": "https://api.github.com/users/hebasto/orgs",
      "repos_url": "https://api.github.com/users/hebasto/repos",
      "events_url": "https://api.github.com/users/hebasto/events{/privacy}",
      "received_events_url": "https://api.github.com/users/hebasto/received_events",
      "type": "User",
      "site_admin": false
    },
    "created_at": "2020-09-30T18:13:52Z",
    "updated_at": "2020-09-30T18:13:52Z",
    "author_association": "MEMBER",
    "body_html": "<p dir=\"auto\">Updated <a class=\"commit-link\" data-hovercard-type=\"commit\" data-hovercard-url=\"https://github.com/bitcoin/bitcoin/commit/911a3f9929e2c10493c1ad525ad592dd6859df3f/hovercard\" href=\"https://github.com/bitcoin/bitcoin/commit/911a3f9929e2c10493c1ad525ad592dd6859df3f\"><tt>911a3f9</tt></a> -&gt; <a class=\"commit-link\" data-hovercard-type=\"commit\" data-hovercard-url=\"https://github.com/bitcoin/bitcoin/commit/cf532ae5d68c2e35e73c793923398e01ee7bca7f/hovercard\" href=\"https://github.com/bitcoin/bitcoin/commit/cf532ae5d68c2e35e73c793923398e01ee7bca7f\"><tt>cf532ae</tt></a> (<a href=\"https://github.com/hebasto/bitcoin/commits/pr19998.03\">pr19998.03</a> -&gt; <a href=\"https://github.com/hebasto/bitcoin/commits/pr19998.06\">pr19998.06</a>):</p>\n<ul dir=\"auto\">\n<li>\n<p dir=\"auto\">rebased on top of the recent <a class=\"issue-link js-issue-link\" data-error-text=\"Failed to load title\" data-id=\"706310398\" data-permission-text=\"Title is private\" data-url=\"https://github.com/bitcoin/bitcoin/issues/19991\" data-hovercard-type=\"pull_request\" data-hovercard-url=\"/bitcoin/bitcoin/pull/19991/hovercard\" href=\"https://github.com/bitcoin/bitcoin/pull/19991\">#19991</a></p>\n</li>\n<li>\n<p dir=\"auto\">addressed <a class=\"user-mention notranslate\" data-hovercard-type=\"user\" data-hovercard-url=\"/users/laanwj/hovercard\" data-octo-click=\"hovercard-link-click\" data-octo-dimensions=\"link_type:self\" href=\"https://github.com/laanwj\">@laanwj</a>'s <a href=\"https://github.com/bitcoin/bitcoin/pull/19998#issuecomment-701261700\" data-hovercard-type=\"pull_request\" data-hovercard-url=\"/bitcoin/bitcoin/pull/19998/hovercard\">comment</a>:</p>\n</li>\n</ul>\n<blockquote>\n<p dir=\"auto\">Haven't reveiewed the code, but conceptually, for future-readyness I'd prefer this to be called <code class=\"notranslate\">ConnectedThroughNetwork</code> and return an enumeration instead of have a Tor-specific call one the API.</p>\n<p dir=\"auto\">Edit: oh, I suggested this before. Apparently I feel strongly about this smile .</p>\n<blockquote>\n<p dir=\"auto\">$ src/bitcoin-cli help getpeerinfo | grep network_type<br>\n\"network_type\" : clearnet|onion|I2P,        Type of the network the peer has connected via</p>\n</blockquote>\n<p dir=\"auto\">Yes, exactly! Or maybe even split clearnet into IPv4 and IPv6.</p>\n</blockquote>",
    "body_text": "Updated 911a3f9 -> cf532ae (pr19998.03 -> pr19998.06):\n\n\nrebased on top of the recent #19991\n\n\naddressed @laanwj's comment:\n\n\n\nHaven't reveiewed the code, but conceptually, for future-readyness I'd prefer this to be called ConnectedThroughNetwork and return an enumeration instead of have a Tor-specific call one the API.\nEdit: oh, I suggested this before. Apparently I feel strongly about this smile .\n\n$ src/bitcoin-cli help getpeerinfo | grep network_type\n\"network_type\" : clearnet|onion|I2P,        Type of the network the peer has connected via\n\nYes, exactly! Or maybe even split clearnet into IPv4 and IPv6.",
    "body": "Updated 911a3f9929e2c10493c1ad525ad592dd6859df3f -> cf532ae5d68c2e35e73c793923398e01ee7bca7f ([pr19998.03](https://github.com/hebasto/bitcoin/commits/pr19998.03) -> [pr19998.06](https://github.com/hebasto/bitcoin/commits/pr19998.06)):\r\n\r\n- rebased on top of the recent #19991\r\n\r\n- addressed @laanwj's [comment](https://github.com/bitcoin/bitcoin/pull/19998#issuecomment-701261700):\r\n\r\n> Haven't reveiewed the code, but conceptually, for future-readyness I'd prefer this to be called `ConnectedThroughNetwork` and return an enumeration instead of have a Tor-specific call one the API.\r\n> \r\n> Edit: oh, I suggested this before. Apparently I feel strongly about this smile .\r\n> \r\n> > $ src/bitcoin-cli help getpeerinfo | grep network_type\r\n> > \"network_type\" : clearnet|onion|I2P,        Type of the network the peer has connected via\r\n> \r\n> Yes, exactly! Or maybe even split clearnet into IPv4 and IPv6.",
    "reactions": {
      "url": "https://api.github.com/repos/bitcoin/bitcoin/issues/comments/701557196/reactions",
      "total_count": 0,
      "+1": 0,
      "-1": 0,
      "laugh": 0,
      "hooray": 0,
      "confused": 0,
      "heart": 0,
      "rocket": 0,
      "eyes": 0
    },
    "performed_via_github_app": null
  },
  {
    "url": "https://api.github.com/repos/bitcoin/bitcoin/issues/comments/702257559",
    "html_url": "https://github.com/bitcoin/bitcoin/pull/19998#issuecomment-702257559",
    "issue_url": "https://api.github.com/repos/bitcoin/bitcoin/issues/19998",
    "id": 702257559,
    "node_id": "MDEyOklzc3VlQ29tbWVudDcwMjI1NzU1OQ==",
    "user": {
      "login": "hebasto",
      "id": 32963518,
      "node_id": "MDQ6VXNlcjMyOTYzNTE4",
      "avatar_url": "https://avatars.githubusercontent.com/u/32963518?v=4",
      "gravatar_id": "",
      "url": "https://api.github.com/users/hebasto",
      "html_url": "https://github.com/hebasto",
      "followers_url": "https://api.github.com/users/hebasto/followers",
      "following_url": "https://api.github.com/users/hebasto/following{/other_user}",
      "gists_url": "https://api.github.com/users/hebasto/gists{/gist_id}",
      "starred_url": "https://api.github.com/users/hebasto/starred{/owner}{/repo}",
      "subscriptions_url": "https://api.github.com/users/hebasto/subscriptions",
      "organizations_url": "https://api.github.com/users/hebasto/orgs",
      "repos_url": "https://api.github.com/users/hebasto/repos",
      "events_url": "https://api.github.com/users/hebasto/events{/privacy}",
      "received_events_url": "https://api.github.com/users/hebasto/received_events",
      "type": "User",
      "site_admin": false
    },
    "created_at": "2020-10-01T16:37:55Z",
    "updated_at": "2020-10-01T16:37:55Z",
    "author_association": "MEMBER",
    "body_html": "<p dir=\"auto\">Updated <a class=\"commit-link\" data-hovercard-type=\"commit\" data-hovercard-url=\"https://github.com/bitcoin/bitcoin/commit/cf532ae5d68c2e35e73c793923398e01ee7bca7f/hovercard\" href=\"https://github.com/bitcoin/bitcoin/commit/cf532ae5d68c2e35e73c793923398e01ee7bca7f\"><tt>cf532ae</tt></a> -&gt; <a class=\"commit-link\" data-hovercard-type=\"commit\" data-hovercard-url=\"https://github.com/bitcoin/bitcoin/commit/c972792511f764ff300602bd3c71df1fea90ddcc/hovercard\" href=\"https://github.com/bitcoin/bitcoin/commit/c972792511f764ff300602bd3c71df1fea90ddcc\"><tt>c972792</tt></a> (<a href=\"https://github.com/hebasto/bitcoin/commits/pr19998.06\">pr19998.06</a> -&gt; <a href=\"https://github.com/hebasto/bitcoin/commits/pr19998.07\">pr19998.07</a>) to the recent <a class=\"issue-link js-issue-link\" data-error-text=\"Failed to load title\" data-id=\"706310398\" data-permission-text=\"Title is private\" data-url=\"https://github.com/bitcoin/bitcoin/issues/19991\" data-hovercard-type=\"pull_request\" data-hovercard-url=\"/bitcoin/bitcoin/pull/19991/hovercard\" href=\"https://github.com/bitcoin/bitcoin/pull/19991\">#19991</a>.</p>",
    "body_text": "Updated cf532ae -> c972792 (pr19998.06 -> pr19998.07) to the recent #19991.",
    "body": "Updated cf532ae5d68c2e35e73c793923398e01ee7bca7f -> c972792511f764ff300602bd3c71df1fea90ddcc ([pr19998.06](https://github.com/hebasto/bitcoin/commits/pr19998.06) -> [pr19998.07](https://github.com/hebasto/bitcoin/commits/pr19998.07)) to the recent #19991.",
    "reactions": {
      "url": "https://api.github.com/repos/bitcoin/bitcoin/issues/comments/702257559/reactions",
      "total_count": 0,
      "+1": 0,
      "-1": 0,
      "laugh": 0,
      "hooray": 0,
      "confused": 0,
      "heart": 0,
      "rocket": 0,
      "eyes": 0
    },
    "performed_via_github_app": null
  },
  {
    "url": "https://api.github.com/repos/bitcoin/bitcoin/issues/comments/702316618",
    "html_url": "https://github.com/bitcoin/bitcoin/pull/19998#issuecomment-702316618",
    "issue_url": "https://api.github.com/repos/bitcoin/bitcoin/issues/19998",
    "id": 702316618,
    "node_id": "MDEyOklzc3VlQ29tbWVudDcwMjMxNjYxOA==",
    "user": {
      "login": "Sjors",
      "id": 10217,
      "node_id": "MDQ6VXNlcjEwMjE3",
      "avatar_url": "https://avatars.githubusercontent.com/u/10217?v=4",
      "gravatar_id": "",
      "url": "https://api.github.com/users/Sjors",
      "html_url": "https://github.com/Sjors",
      "followers_url": "https://api.github.com/users/Sjors/followers",
      "following_url": "https://api.github.com/users/Sjors/following{/other_user}",
      "gists_url": "https://api.github.com/users/Sjors/gists{/gist_id}",
      "starred_url": "https://api.github.com/users/Sjors/starred{/owner}{/repo}",
      "subscriptions_url": "https://api.github.com/users/Sjors/subscriptions",
      "organizations_url": "https://api.github.com/users/Sjors/orgs",
      "repos_url": "https://api.github.com/users/Sjors/repos",
      "events_url": "https://api.github.com/users/Sjors/events{/privacy}",
      "received_events_url": "https://api.github.com/users/Sjors/received_events",
      "type": "User",
      "site_admin": false
    },
    "created_at": "2020-10-01T18:25:10Z",
    "updated_at": "2020-10-01T18:25:10Z",
    "author_association": "MEMBER",
    "body_html": "<p dir=\"auto\">utACK <a class=\"commit-link\" data-hovercard-type=\"commit\" data-hovercard-url=\"https://github.com/bitcoin/bitcoin/commit/c972792511f764ff300602bd3c71df1fea90ddcc/hovercard\" href=\"https://github.com/bitcoin/bitcoin/commit/c972792511f764ff300602bd3c71df1fea90ddcc\"><tt>c972792</tt></a></p>\n<p dir=\"auto\">This will be easier to test after <a class=\"issue-link js-issue-link\" data-error-text=\"Failed to load title\" data-id=\"707291265\" data-permission-text=\"Title is private\" data-url=\"https://github.com/bitcoin/bitcoin/issues/20002\" data-hovercard-type=\"pull_request\" data-hovercard-url=\"/bitcoin/bitcoin/pull/20002/hovercard\" href=\"https://github.com/bitcoin/bitcoin/pull/20002\">#20002</a> is refreshed (don't forget to mention it in the description)</p>\n<p dir=\"auto\">The asmap test failure on macOS Travis seems spurious (it passes on my machine)</p>",
    "body_text": "utACK c972792\nThis will be easier to test after #20002 is refreshed (don't forget to mention it in the description)\nThe asmap test failure on macOS Travis seems spurious (it passes on my machine)",
    "body": "utACK c972792\r\n\r\nThis will be easier to test after #20002 is refreshed (don't forget to mention it in the description) \r\n\r\nThe asmap test failure on macOS Travis seems spurious (it passes on my machine)",
    "reactions": {
      "url": "https://api.github.com/repos/bitcoin/bitcoin/issues/comments/702316618/reactions",
      "total_count": 1,
      "+1": 0,
      "-1": 0,
      "laugh": 0,
      "hooray": 0,
      "confused": 0,
      "heart": 1,
      "rocket": 0,
      "eyes": 0
    },
    "performed_via_github_app": null
  },
  {
    "url": "https://api.github.com/repos/bitcoin/bitcoin/issues/comments/702687034",
    "html_url": "https://github.com/bitcoin/bitcoin/pull/19998#issuecomment-702687034",
    "issue_url": "https://api.github.com/repos/bitcoin/bitcoin/issues/19998",
    "id": 702687034,
    "node_id": "MDEyOklzc3VlQ29tbWVudDcwMjY4NzAzNA==",
    "user": {
      "login": "hebasto",
      "id": 32963518,
      "node_id": "MDQ6VXNlcjMyOTYzNTE4",
      "avatar_url": "https://avatars.githubusercontent.com/u/32963518?v=4",
      "gravatar_id": "",
      "url": "https://api.github.com/users/hebasto",
      "html_url": "https://github.com/hebasto",
      "followers_url": "https://api.github.com/users/hebasto/followers",
      "following_url": "https://api.github.com/users/hebasto/following{/other_user}",
      "gists_url": "https://api.github.com/users/hebasto/gists{/gist_id}",
      "starred_url": "https://api.github.com/users/hebasto/starred{/owner}{/repo}",
      "subscriptions_url": "https://api.github.com/users/hebasto/subscriptions",
      "organizations_url": "https://api.github.com/users/hebasto/orgs",
      "repos_url": "https://api.github.com/users/hebasto/repos",
      "events_url": "https://api.github.com/users/hebasto/events{/privacy}",
      "received_events_url": "https://api.github.com/users/hebasto/received_events",
      "type": "User",
      "site_admin": false
    },
    "created_at": "2020-10-02T11:43:34Z",
    "updated_at": "2020-10-02T11:43:34Z",
    "author_association": "MEMBER",
    "body_html": "<p dir=\"auto\">Updated <a class=\"commit-link\" data-hovercard-type=\"commit\" data-hovercard-url=\"https://github.com/bitcoin/bitcoin/commit/c972792511f764ff300602bd3c71df1fea90ddcc/hovercard\" href=\"https://github.com/bitcoin/bitcoin/commit/c972792511f764ff300602bd3c71df1fea90ddcc\"><tt>c972792</tt></a> -&gt; <a class=\"commit-link\" data-hovercard-type=\"commit\" data-hovercard-url=\"https://github.com/bitcoin/bitcoin/commit/ac0f4975fe00f2f72c408cbd6b642b29b0e2f8ce/hovercard\" href=\"https://github.com/bitcoin/bitcoin/commit/ac0f4975fe00f2f72c408cbd6b642b29b0e2f8ce\"><tt>ac0f497</tt></a> (<a href=\"https://github.com/hebasto/bitcoin/commits/pr19998.07\">pr19998.07</a> -&gt; <a href=\"https://github.com/hebasto/bitcoin/commits/pr19998.08\">pr19998.08</a>) due to the conflict with <a class=\"issue-link js-issue-link\" data-error-text=\"Failed to load title\" data-id=\"706310398\" data-permission-text=\"Title is private\" data-url=\"https://github.com/bitcoin/bitcoin/issues/19991\" data-hovercard-type=\"pull_request\" data-hovercard-url=\"/bitcoin/bitcoin/pull/19991/hovercard\" href=\"https://github.com/bitcoin/bitcoin/pull/19991\">#19991</a>.</p>",
    "body_text": "Updated c972792 -> ac0f497 (pr19998.07 -> pr19998.08) due to the conflict with #19991.",
    "body": "Updated c972792511f764ff300602bd3c71df1fea90ddcc -> ac0f4975fe00f2f72c408cbd6b642b29b0e2f8ce ([pr19998.07](https://github.com/hebasto/bitcoin/commits/pr19998.07) -> [pr19998.08](https://github.com/hebasto/bitcoin/commits/pr19998.08)) due to the conflict with #19991.",
    "reactions": {
      "url": "https://api.github.com/repos/bitcoin/bitcoin/issues/comments/702687034/reactions",
      "total_count": 0,
      "+1": 0,
      "-1": 0,
      "laugh": 0,
      "hooray": 0,
      "confused": 0,
      "heart": 0,
      "rocket": 0,
      "eyes": 0
    },
    "performed_via_github_app": null
  },
  {
    "url": "https://api.github.com/repos/bitcoin/bitcoin/issues/comments/702696905",
    "html_url": "https://github.com/bitcoin/bitcoin/pull/19998#issuecomment-702696905",
    "issue_url": "https://api.github.com/repos/bitcoin/bitcoin/issues/19998",
    "id": 702696905,
    "node_id": "MDEyOklzc3VlQ29tbWVudDcwMjY5NjkwNQ==",
    "user": {
      "login": "jonatack",
      "id": 2415484,
      "node_id": "MDQ6VXNlcjI0MTU0ODQ=",
      "avatar_url": "https://avatars.githubusercontent.com/u/2415484?v=4",
      "gravatar_id": "",
      "url": "https://api.github.com/users/jonatack",
      "html_url": "https://github.com/jonatack",
      "followers_url": "https://api.github.com/users/jonatack/followers",
      "following_url": "https://api.github.com/users/jonatack/following{/other_user}",
      "gists_url": "https://api.github.com/users/jonatack/gists{/gist_id}",
      "starred_url": "https://api.github.com/users/jonatack/starred{/owner}{/repo}",
      "subscriptions_url": "https://api.github.com/users/jonatack/subscriptions",
      "organizations_url": "https://api.github.com/users/jonatack/orgs",
      "repos_url": "https://api.github.com/users/jonatack/repos",
      "events_url": "https://api.github.com/users/jonatack/events{/privacy}",
      "received_events_url": "https://api.github.com/users/jonatack/received_events",
      "type": "User",
      "site_admin": false
    },
    "created_at": "2020-10-02T12:05:49Z",
    "updated_at": "2020-10-02T12:05:49Z",
    "author_association": "CONTRIBUTOR",
    "body_html": "<p dir=\"auto\">Do you plan to add test coverage for the changes here (and in <a class=\"issue-link js-issue-link\" data-error-text=\"Failed to load title\" data-id=\"706310398\" data-permission-text=\"Title is private\" data-url=\"https://github.com/bitcoin/bitcoin/issues/19991\" data-hovercard-type=\"pull_request\" data-hovercard-url=\"/bitcoin/bitcoin/pull/19991/hovercard\" href=\"https://github.com/bitcoin/bitcoin/pull/19991\">#19991</a>?)</p>",
    "body_text": "Do you plan to add test coverage for the changes here (and in #19991?)",
    "body": "Do you plan to add test coverage for the changes here (and in #19991?)",
    "reactions": {
      "url": "https://api.github.com/repos/bitcoin/bitcoin/issues/comments/702696905/reactions",
      "total_count": 0,
      "+1": 0,
      "-1": 0,
      "laugh": 0,
      "hooray": 0,
      "confused": 0,
      "heart": 0,
      "rocket": 0,
      "eyes": 0
    },
    "performed_via_github_app": null
  },
  {
    "url": "https://api.github.com/repos/bitcoin/bitcoin/issues/comments/702698912",
    "html_url": "https://github.com/bitcoin/bitcoin/pull/19998#issuecomment-702698912",
    "issue_url": "https://api.github.com/repos/bitcoin/bitcoin/issues/19998",
    "id": 702698912,
    "node_id": "MDEyOklzc3VlQ29tbWVudDcwMjY5ODkxMg==",
    "user": {
      "login": "hebasto",
      "id": 32963518,
      "node_id": "MDQ6VXNlcjMyOTYzNTE4",
      "avatar_url": "https://avatars.githubusercontent.com/u/32963518?v=4",
      "gravatar_id": "",
      "url": "https://api.github.com/users/hebasto",
      "html_url": "https://github.com/hebasto",
      "followers_url": "https://api.github.com/users/hebasto/followers",
      "following_url": "https://api.github.com/users/hebasto/following{/other_user}",
      "gists_url": "https://api.github.com/users/hebasto/gists{/gist_id}",
      "starred_url": "https://api.github.com/users/hebasto/starred{/owner}{/repo}",
      "subscriptions_url": "https://api.github.com/users/hebasto/subscriptions",
      "organizations_url": "https://api.github.com/users/hebasto/orgs",
      "repos_url": "https://api.github.com/users/hebasto/repos",
      "events_url": "https://api.github.com/users/hebasto/events{/privacy}",
      "received_events_url": "https://api.github.com/users/hebasto/received_events",
      "type": "User",
      "site_admin": false
    },
    "created_at": "2020-10-02T12:10:25Z",
    "updated_at": "2020-10-02T12:10:25Z",
    "author_association": "MEMBER",
    "body_html": "<p dir=\"auto\"><a class=\"user-mention notranslate\" data-hovercard-type=\"user\" data-hovercard-url=\"/users/jonatack/hovercard\" data-octo-click=\"hovercard-link-click\" data-octo-dimensions=\"link_type:self\" href=\"https://github.com/jonatack\">@jonatack</a></p>\n<blockquote>\n<p dir=\"auto\">Do you plan to add test coverage for the changes here (and in <a class=\"issue-link js-issue-link\" data-error-text=\"Failed to load title\" data-id=\"706310398\" data-permission-text=\"Title is private\" data-url=\"https://github.com/bitcoin/bitcoin/issues/19991\" data-hovercard-type=\"pull_request\" data-hovercard-url=\"/bitcoin/bitcoin/pull/19991/hovercard\" href=\"https://github.com/bitcoin/bitcoin/pull/19991\">#19991</a>?)</p>\n</blockquote>\n<p dir=\"auto\">I thought <a href=\"https://github.com/bitcoin/bitcoin/pull/19991#issuecomment-702685460\" data-hovercard-type=\"pull_request\" data-hovercard-url=\"/bitcoin/bitcoin/pull/19991/hovercard\">your tests</a> could cover all aspects, right?</p>",
    "body_text": "@jonatack\n\nDo you plan to add test coverage for the changes here (and in #19991?)\n\nI thought your tests could cover all aspects, right?",
    "body": "@jonatack \r\n> Do you plan to add test coverage for the changes here (and in #19991?)\r\n\r\nI thought [your tests](https://github.com/bitcoin/bitcoin/pull/19991#issuecomment-702685460) could cover all aspects, right?",
    "reactions": {
      "url": "https://api.github.com/repos/bitcoin/bitcoin/issues/comments/702698912/reactions",
      "total_count": 0,
      "+1": 0,
      "-1": 0,
      "laugh": 0,
      "hooray": 0,
      "confused": 0,
      "heart": 0,
      "rocket": 0,
      "eyes": 0
    },
    "performed_via_github_app": null
  },
  {
    "url": "https://api.github.com/repos/bitcoin/bitcoin/issues/comments/702711137",
    "html_url": "https://github.com/bitcoin/bitcoin/pull/19998#issuecomment-702711137",
    "issue_url": "https://api.github.com/repos/bitcoin/bitcoin/issues/19998",
    "id": 702711137,
    "node_id": "MDEyOklzc3VlQ29tbWVudDcwMjcxMTEzNw==",
    "user": {
      "login": "jonatack",
      "id": 2415484,
      "node_id": "MDQ6VXNlcjI0MTU0ODQ=",
      "avatar_url": "https://avatars.githubusercontent.com/u/2415484?v=4",
      "gravatar_id": "",
      "url": "https://api.github.com/users/jonatack",
      "html_url": "https://github.com/jonatack",
      "followers_url": "https://api.github.com/users/jonatack/followers",
      "following_url": "https://api.github.com/users/jonatack/following{/other_user}",
      "gists_url": "https://api.github.com/users/jonatack/gists{/gist_id}",
      "starred_url": "https://api.github.com/users/jonatack/starred{/owner}{/repo}",
      "subscriptions_url": "https://api.github.com/users/jonatack/subscriptions",
      "organizations_url": "https://api.github.com/users/jonatack/orgs",
      "repos_url": "https://api.github.com/users/jonatack/repos",
      "events_url": "https://api.github.com/users/jonatack/events{/privacy}",
      "received_events_url": "https://api.github.com/users/jonatack/received_events",
      "type": "User",
      "site_admin": false
    },
    "created_at": "2020-10-02T12:39:49Z",
    "updated_at": "2020-10-02T12:39:49Z",
    "author_association": "CONTRIBUTOR",
    "body_html": "<p dir=\"auto\"><a class=\"user-mention notranslate\" data-hovercard-type=\"user\" data-hovercard-url=\"/users/hebasto/hovercard\" data-octo-click=\"hovercard-link-click\" data-octo-dimensions=\"link_type:self\" href=\"https://github.com/hebasto\">@hebasto</a> I don't plan to open a PR just for follow-up tests. I think it's easiest when the coverage accompanies the changes.</p>",
    "body_text": "@hebasto I don't plan to open a PR just for follow-up tests. I think it's easiest when the coverage accompanies the changes.",
    "body": "@hebasto I don't plan to open a PR just for follow-up tests. I think it's easiest when the coverage accompanies the changes.",
    "reactions": {
      "url": "https://api.github.com/repos/bitcoin/bitcoin/issues/comments/702711137/reactions",
      "total_count": 0,
      "+1": 0,
      "-1": 0,
      "laugh": 0,
      "hooray": 0,
      "confused": 0,
      "heart": 0,
      "rocket": 0,
      "eyes": 0
    },
    "performed_via_github_app": null
  },
  {
    "url": "https://api.github.com/repos/bitcoin/bitcoin/issues/comments/702848285",
    "html_url": "https://github.com/bitcoin/bitcoin/pull/19998#issuecomment-702848285",
    "issue_url": "https://api.github.com/repos/bitcoin/bitcoin/issues/19998",
    "id": 702848285,
    "node_id": "MDEyOklzc3VlQ29tbWVudDcwMjg0ODI4NQ==",
    "user": {
      "login": "jonatack",
      "id": 2415484,
      "node_id": "MDQ6VXNlcjI0MTU0ODQ=",
      "avatar_url": "https://avatars.githubusercontent.com/u/2415484?v=4",
      "gravatar_id": "",
      "url": "https://api.github.com/users/jonatack",
      "html_url": "https://github.com/jonatack",
      "followers_url": "https://api.github.com/users/jonatack/followers",
      "following_url": "https://api.github.com/users/jonatack/following{/other_user}",
      "gists_url": "https://api.github.com/users/jonatack/gists{/gist_id}",
      "starred_url": "https://api.github.com/users/jonatack/starred{/owner}{/repo}",
      "subscriptions_url": "https://api.github.com/users/jonatack/subscriptions",
      "organizations_url": "https://api.github.com/users/jonatack/orgs",
      "repos_url": "https://api.github.com/users/jonatack/repos",
      "events_url": "https://api.github.com/users/jonatack/events{/privacy}",
      "received_events_url": "https://api.github.com/users/jonatack/received_events",
      "type": "User",
      "site_admin": false
    },
    "created_at": "2020-10-02T17:04:26Z",
    "updated_at": "2020-10-02T17:52:49Z",
    "author_association": "CONTRIBUTOR",
    "body_html": "<p dir=\"auto\">Starting to see inbound onions while testing this on <a class=\"issue-link js-issue-link\" data-error-text=\"Failed to load title\" data-id=\"707291265\" data-permission-text=\"Title is private\" data-url=\"https://github.com/bitcoin/bitcoin/issues/20002\" data-hovercard-type=\"pull_request\" data-hovercard-url=\"/bitcoin/bitcoin/pull/20002/hovercard\" href=\"https://github.com/bitcoin/bitcoin/pull/20002\">#20002</a> (Edit: WIP update now pushed if anyone wants to use it for testing).</p>\n<div class=\"snippet-clipboard-content notranslate position-relative overflow-auto\" data-snippet-clipboard-copy-content=\"&lt;-&gt; relay   net mping   ping send recv  txn  blk uptime  asmap  id address\n in  full onion   358    469    0   90               49         35 127.0.0.1:43064\n in block onion   450    722   29  104               35         66 127.0.0.1:45118\"><pre lang=\"text\" class=\"notranslate\"><code class=\"notranslate\">&lt;-&gt; relay   net mping   ping send recv  txn  blk uptime  asmap  id address\n in  full onion   358    469    0   90               49         35 127.0.0.1:43064\n in block onion   450    722   29  104               35         66 127.0.0.1:45118\n</code></pre></div>\n<p dir=\"auto\">The updated function here is easy to use, too.</p>\n<div class=\"highlight highlight-source-c++ notranslate position-relative overflow-auto\" dir=\"auto\" data-snippet-clipboard-copy-content=\"stats.m_network = GetNetworkName(ConnectedThroughNetwork());\"><pre class=\"notranslate\">stats.m_network = GetNetworkName(ConnectedThroughNetwork());</pre></div>",
    "body_text": "Starting to see inbound onions while testing this on #20002 (Edit: WIP update now pushed if anyone wants to use it for testing).\n<-> relay   net mping   ping send recv  txn  blk uptime  asmap  id address\n in  full onion   358    469    0   90               49         35 127.0.0.1:43064\n in block onion   450    722   29  104               35         66 127.0.0.1:45118\n\nThe updated function here is easy to use, too.\nstats.m_network = GetNetworkName(ConnectedThroughNetwork());",
    "body": "Starting to see inbound onions while testing this on #20002 (Edit: WIP update now pushed if anyone wants to use it for testing).\r\n```text\r\n<-> relay   net mping   ping send recv  txn  blk uptime  asmap  id address\r\n in  full onion   358    469    0   90               49         35 127.0.0.1:43064\r\n in block onion   450    722   29  104               35         66 127.0.0.1:45118\r\n```\r\n\r\nThe updated function here is easy to use, too.\r\n```c++\r\nstats.m_network = GetNetworkName(ConnectedThroughNetwork());\r\n```",
    "reactions": {
      "url": "https://api.github.com/repos/bitcoin/bitcoin/issues/comments/702848285/reactions",
      "total_count": 0,
      "+1": 0,
      "-1": 0,
      "laugh": 0,
      "hooray": 0,
      "confused": 0,
      "heart": 0,
      "rocket": 0,
      "eyes": 0
    },
    "performed_via_github_app": null
  },
  {
    "url": "https://api.github.com/repos/bitcoin/bitcoin/issues/comments/703077457",
    "html_url": "https://github.com/bitcoin/bitcoin/pull/19998#issuecomment-703077457",
    "issue_url": "https://api.github.com/repos/bitcoin/bitcoin/issues/19998",
    "id": 703077457,
    "node_id": "MDEyOklzc3VlQ29tbWVudDcwMzA3NzQ1Nw==",
    "user": {
      "login": "hebasto",
      "id": 32963518,
      "node_id": "MDQ6VXNlcjMyOTYzNTE4",
      "avatar_url": "https://avatars.githubusercontent.com/u/32963518?v=4",
      "gravatar_id": "",
      "url": "https://api.github.com/users/hebasto",
      "html_url": "https://github.com/hebasto",
      "followers_url": "https://api.github.com/users/hebasto/followers",
      "following_url": "https://api.github.com/users/hebasto/following{/other_user}",
      "gists_url": "https://api.github.com/users/hebasto/gists{/gist_id}",
      "starred_url": "https://api.github.com/users/hebasto/starred{/owner}{/repo}",
      "subscriptions_url": "https://api.github.com/users/hebasto/subscriptions",
      "organizations_url": "https://api.github.com/users/hebasto/orgs",
      "repos_url": "https://api.github.com/users/hebasto/repos",
      "events_url": "https://api.github.com/users/hebasto/events{/privacy}",
      "received_events_url": "https://api.github.com/users/hebasto/received_events",
      "type": "User",
      "site_admin": false
    },
    "created_at": "2020-10-03T09:45:11Z",
    "updated_at": "2020-10-03T09:45:11Z",
    "author_association": "MEMBER",
    "body_html": "<p dir=\"auto\">Added test coverage.</p>",
    "body_text": "Added test coverage.",
    "body": "Added test coverage.",
    "reactions": {
      "url": "https://api.github.com/repos/bitcoin/bitcoin/issues/comments/703077457/reactions",
      "total_count": 1,
      "+1": 1,
      "-1": 0,
      "laugh": 0,
      "hooray": 0,
      "confused": 0,
      "heart": 0,
      "rocket": 0,
      "eyes": 0
    },
    "performed_via_github_app": null
  },
  {
    "url": "https://api.github.com/repos/bitcoin/bitcoin/issues/comments/703090033",
    "html_url": "https://github.com/bitcoin/bitcoin/pull/19998#issuecomment-703090033",
    "issue_url": "https://api.github.com/repos/bitcoin/bitcoin/issues/19998",
    "id": 703090033,
    "node_id": "MDEyOklzc3VlQ29tbWVudDcwMzA5MDAzMw==",
    "user": {
      "login": "hebasto",
      "id": 32963518,
      "node_id": "MDQ6VXNlcjMyOTYzNTE4",
      "avatar_url": "https://avatars.githubusercontent.com/u/32963518?v=4",
      "gravatar_id": "",
      "url": "https://api.github.com/users/hebasto",
      "html_url": "https://github.com/hebasto",
      "followers_url": "https://api.github.com/users/hebasto/followers",
      "following_url": "https://api.github.com/users/hebasto/following{/other_user}",
      "gists_url": "https://api.github.com/users/hebasto/gists{/gist_id}",
      "starred_url": "https://api.github.com/users/hebasto/starred{/owner}{/repo}",
      "subscriptions_url": "https://api.github.com/users/hebasto/subscriptions",
      "organizations_url": "https://api.github.com/users/hebasto/orgs",
      "repos_url": "https://api.github.com/users/hebasto/repos",
      "events_url": "https://api.github.com/users/hebasto/events{/privacy}",
      "received_events_url": "https://api.github.com/users/hebasto/received_events",
      "type": "User",
      "site_admin": false
    },
    "created_at": "2020-10-03T11:40:27Z",
    "updated_at": "2020-10-03T11:40:27Z",
    "author_association": "MEMBER",
    "body_html": "<p dir=\"auto\">Updated <a class=\"commit-link\" data-hovercard-type=\"commit\" data-hovercard-url=\"https://github.com/bitcoin/bitcoin/commit/5fc8f155549b1ad39aeef1c3220ebd6026d7f845/hovercard\" href=\"https://github.com/bitcoin/bitcoin/commit/5fc8f155549b1ad39aeef1c3220ebd6026d7f845\"><tt>5fc8f15</tt></a> -&gt; <a class=\"commit-link\" data-hovercard-type=\"commit\" data-hovercard-url=\"https://github.com/bitcoin/bitcoin/commit/3989fcfb6713b074c6c6be143db3aaa33e50525a/hovercard\" href=\"https://github.com/bitcoin/bitcoin/commit/3989fcfb6713b074c6c6be143db3aaa33e50525a\"><tt>3989fcf</tt></a> (<a href=\"https://github.com/hebasto/bitcoin/commits/pr19998.10\">pr19998.10</a> -&gt; <a href=\"https://github.com/hebasto/bitcoin/commits/pr19998.11\">pr19998.11</a>):</p>\n<ul dir=\"auto\">\n<li>addressed all of the recent <a class=\"user-mention notranslate\" data-hovercard-type=\"user\" data-hovercard-url=\"/users/jonatack/hovercard\" data-octo-click=\"hovercard-link-click\" data-octo-dimensions=\"link_type:self\" href=\"https://github.com/jonatack\">@jonatack</a>'s comments</li>\n<li>rebased to avoid a weird CI <a href=\"https://travis-ci.org/github/bitcoin/bitcoin/jobs/732481553\" rel=\"nofollow\">error message</a></li>\n</ul>",
    "body_text": "Updated 5fc8f15 -> 3989fcf (pr19998.10 -> pr19998.11):\n\naddressed all of the recent @jonatack's comments\nrebased to avoid a weird CI error message",
    "body": "Updated 5fc8f155549b1ad39aeef1c3220ebd6026d7f845 -> 3989fcfb6713b074c6c6be143db3aaa33e50525a ([pr19998.10](https://github.com/hebasto/bitcoin/commits/pr19998.10) -> [pr19998.11](https://github.com/hebasto/bitcoin/commits/pr19998.11)):\r\n\r\n- addressed all of the recent @jonatack's comments\r\n- rebased to avoid a weird CI [error message](https://travis-ci.org/github/bitcoin/bitcoin/jobs/732481553)",
    "reactions": {
      "url": "https://api.github.com/repos/bitcoin/bitcoin/issues/comments/703090033/reactions",
      "total_count": 0,
      "+1": 0,
      "-1": 0,
      "laugh": 0,
      "hooray": 0,
      "confused": 0,
      "heart": 0,
      "rocket": 0,
      "eyes": 0
    },
    "performed_via_github_app": null
  },
  {
    "url": "https://api.github.com/repos/bitcoin/bitcoin/issues/comments/703097616",
    "html_url": "https://github.com/bitcoin/bitcoin/pull/19998#issuecomment-703097616",
    "issue_url": "https://api.github.com/repos/bitcoin/bitcoin/issues/19998",
    "id": 703097616,
    "node_id": "MDEyOklzc3VlQ29tbWVudDcwMzA5NzYxNg==",
    "user": {
      "login": "hebasto",
      "id": 32963518,
      "node_id": "MDQ6VXNlcjMyOTYzNTE4",
      "avatar_url": "https://avatars.githubusercontent.com/u/32963518?v=4",
      "gravatar_id": "",
      "url": "https://api.github.com/users/hebasto",
      "html_url": "https://github.com/hebasto",
      "followers_url": "https://api.github.com/users/hebasto/followers",
      "following_url": "https://api.github.com/users/hebasto/following{/other_user}",
      "gists_url": "https://api.github.com/users/hebasto/gists{/gist_id}",
      "starred_url": "https://api.github.com/users/hebasto/starred{/owner}{/repo}",
      "subscriptions_url": "https://api.github.com/users/hebasto/subscriptions",
      "organizations_url": "https://api.github.com/users/hebasto/orgs",
      "repos_url": "https://api.github.com/users/hebasto/repos",
      "events_url": "https://api.github.com/users/hebasto/events{/privacy}",
      "received_events_url": "https://api.github.com/users/hebasto/received_events",
      "type": "User",
      "site_admin": false
    },
    "created_at": "2020-10-03T12:41:51Z",
    "updated_at": "2020-10-03T12:41:51Z",
    "author_association": "MEMBER",
    "body_html": "<p dir=\"auto\">Updated <a class=\"commit-link\" data-hovercard-type=\"commit\" data-hovercard-url=\"https://github.com/bitcoin/bitcoin/commit/3989fcfb6713b074c6c6be143db3aaa33e50525a/hovercard\" href=\"https://github.com/bitcoin/bitcoin/commit/3989fcfb6713b074c6c6be143db3aaa33e50525a\"><tt>3989fcf</tt></a> -&gt; <a class=\"commit-link\" data-hovercard-type=\"commit\" data-hovercard-url=\"https://github.com/bitcoin/bitcoin/commit/3984b78cd7f49e409377f2175a56e8e4bd71d1d8/hovercard\" href=\"https://github.com/bitcoin/bitcoin/commit/3984b78cd7f49e409377f2175a56e8e4bd71d1d8\"><tt>3984b78</tt></a> (<a href=\"https://github.com/hebasto/bitcoin/commits/pr19998.11\">pr19998.11</a> -&gt; <a href=\"https://github.com/hebasto/bitcoin/commits/pr19998.12\">pr19998.12</a>, <a href=\"https://github.com/hebasto/bitcoin/compare/pr19998.11..pr19998.12\">diff</a>):</p>\n<ul dir=\"auto\">\n<li>addressed <a class=\"user-mention notranslate\" data-hovercard-type=\"user\" data-hovercard-url=\"/users/jonatack/hovercard\" data-octo-click=\"hovercard-link-click\" data-octo-dimensions=\"link_type:self\" href=\"https://github.com/jonatack\">@jonatack</a>'s <a href=\"https://github.com/bitcoin/bitcoin/pull/19998#discussion_r499143917\" data-hovercard-type=\"pull_request\" data-hovercard-url=\"/bitcoin/bitcoin/pull/19998/hovercard\">comment</a></li>\n</ul>",
    "body_text": "Updated 3989fcf -> 3984b78 (pr19998.11 -> pr19998.12, diff):\n\naddressed @jonatack's comment",
    "body": "Updated 3989fcfb6713b074c6c6be143db3aaa33e50525a -> 3984b78cd7f49e409377f2175a56e8e4bd71d1d8 ([pr19998.11](https://github.com/hebasto/bitcoin/commits/pr19998.11) -> [pr19998.12](https://github.com/hebasto/bitcoin/commits/pr19998.12), [diff](https://github.com/hebasto/bitcoin/compare/pr19998.11..pr19998.12)):\r\n\r\n- addressed @jonatack's [comment](https://github.com/bitcoin/bitcoin/pull/19998#discussion_r499143917)",
    "reactions": {
      "url": "https://api.github.com/repos/bitcoin/bitcoin/issues/comments/703097616/reactions",
      "total_count": 0,
      "+1": 0,
      "-1": 0,
      "laugh": 0,
      "hooray": 0,
      "confused": 0,
      "heart": 0,
      "rocket": 0,
      "eyes": 0
    },
    "performed_via_github_app": null
  },
  {
    "url": "https://api.github.com/repos/bitcoin/bitcoin/issues/comments/703101654",
    "html_url": "https://github.com/bitcoin/bitcoin/pull/19998#issuecomment-703101654",
    "issue_url": "https://api.github.com/repos/bitcoin/bitcoin/issues/19998",
    "id": 703101654,
    "node_id": "MDEyOklzc3VlQ29tbWVudDcwMzEwMTY1NA==",
    "user": {
      "login": "jonatack",
      "id": 2415484,
      "node_id": "MDQ6VXNlcjI0MTU0ODQ=",
      "avatar_url": "https://avatars.githubusercontent.com/u/2415484?v=4",
      "gravatar_id": "",
      "url": "https://api.github.com/users/jonatack",
      "html_url": "https://github.com/jonatack",
      "followers_url": "https://api.github.com/users/jonatack/followers",
      "following_url": "https://api.github.com/users/jonatack/following{/other_user}",
      "gists_url": "https://api.github.com/users/jonatack/gists{/gist_id}",
      "starred_url": "https://api.github.com/users/jonatack/starred{/owner}{/repo}",
      "subscriptions_url": "https://api.github.com/users/jonatack/subscriptions",
      "organizations_url": "https://api.github.com/users/jonatack/orgs",
      "repos_url": "https://api.github.com/users/jonatack/repos",
      "events_url": "https://api.github.com/users/jonatack/events{/privacy}",
      "received_events_url": "https://api.github.com/users/jonatack/received_events",
      "type": "User",
      "site_admin": false
    },
    "created_at": "2020-10-03T13:12:42Z",
    "updated_at": "2020-10-04T08:04:42Z",
    "author_association": "CONTRIBUTOR",
    "body_html": "<p dir=\"auto\">Thanks for your patience with the suggestions.</p>\n<p dir=\"auto\">re-ACK <a class=\"commit-link\" data-hovercard-type=\"commit\" data-hovercard-url=\"https://github.com/bitcoin/bitcoin/commit/3984b78cd7f49e409377f2175a56e8e4bd71d1d8/hovercard\" href=\"https://github.com/bitcoin/bitcoin/commit/3984b78cd7f49e409377f2175a56e8e4bd71d1d8\"><tt>3984b78</tt></a> per <code class=\"notranslate\">git diff 3989fcf 3984b78c</code></p>\n<p dir=\"auto\">Edit: testing with <a class=\"issue-link js-issue-link\" data-error-text=\"Failed to load title\" data-id=\"707291265\" data-permission-text=\"Title is private\" data-url=\"https://github.com/bitcoin/bitcoin/issues/20002\" data-hovercard-type=\"pull_request\" data-hovercard-url=\"/bitcoin/bitcoin/pull/20002/hovercard\" href=\"https://github.com/bitcoin/bitcoin/pull/20002\">#20002</a> (inbound onions detected server-side) vs on master (inbound onions detected client-side), I'm seeing the same ones detected.</p>",
    "body_text": "Thanks for your patience with the suggestions.\nre-ACK 3984b78 per git diff 3989fcf 3984b78c\nEdit: testing with #20002 (inbound onions detected server-side) vs on master (inbound onions detected client-side), I'm seeing the same ones detected.",
    "body": "Thanks for your patience with the suggestions.\r\n\r\nre-ACK 3984b78cd7f49e409377f2175a56e8e4bd71d1d8 per `git diff 3989fcf 3984b78c`\r\n\r\nEdit: testing with #20002 (inbound onions detected server-side) vs on master (inbound onions detected client-side), I'm seeing the same ones detected.",
    "reactions": {
      "url": "https://api.github.com/repos/bitcoin/bitcoin/issues/comments/703101654/reactions",
      "total_count": 1,
      "+1": 0,
      "-1": 0,
      "laugh": 0,
      "hooray": 0,
      "confused": 0,
      "heart": 1,
      "rocket": 0,
      "eyes": 0
    },
    "performed_via_github_app": null
  },
  {
    "url": "https://api.github.com/repos/bitcoin/bitcoin/issues/comments/707226178",
    "html_url": "https://github.com/bitcoin/bitcoin/pull/19998#issuecomment-707226178",
    "issue_url": "https://api.github.com/repos/bitcoin/bitcoin/issues/19998",
    "id": 707226178,
    "node_id": "MDEyOklzc3VlQ29tbWVudDcwNzIyNjE3OA==",
    "user": {
      "login": "laanwj",
      "id": 126646,
      "node_id": "MDQ6VXNlcjEyNjY0Ng==",
      "avatar_url": "https://avatars.githubusercontent.com/u/126646?v=4",
      "gravatar_id": "",
      "url": "https://api.github.com/users/laanwj",
      "html_url": "https://github.com/laanwj",
      "followers_url": "https://api.github.com/users/laanwj/followers",
      "following_url": "https://api.github.com/users/laanwj/following{/other_user}",
      "gists_url": "https://api.github.com/users/laanwj/gists{/gist_id}",
      "starred_url": "https://api.github.com/users/laanwj/starred{/owner}{/repo}",
      "subscriptions_url": "https://api.github.com/users/laanwj/subscriptions",
      "organizations_url": "https://api.github.com/users/laanwj/orgs",
      "repos_url": "https://api.github.com/users/laanwj/repos",
      "events_url": "https://api.github.com/users/laanwj/events{/privacy}",
      "received_events_url": "https://api.github.com/users/laanwj/received_events",
      "type": "User",
      "site_admin": false
    },
    "created_at": "2020-10-12T16:37:27Z",
    "updated_at": "2020-10-12T16:38:12Z",
    "author_association": "MEMBER",
    "body_html": "<p dir=\"auto\">Code review ACK <a class=\"commit-link\" data-hovercard-type=\"commit\" data-hovercard-url=\"https://github.com/bitcoin/bitcoin/commit/3984b78cd7f49e409377f2175a56e8e4bd71d1d8/hovercard\" href=\"https://github.com/bitcoin/bitcoin/commit/3984b78cd7f49e409377f2175a56e8e4bd71d1d8\"><tt>3984b78</tt></a><br>\nThanks for addressing my suggestion. And making <code class=\"notranslate\">CNode::ConnectedThroughNetwork()</code> return a <code class=\"notranslate\">Network</code> enum directly is a nice touch.</p>",
    "body_text": "Code review ACK 3984b78\nThanks for addressing my suggestion. And making CNode::ConnectedThroughNetwork() return a Network enum directly is a nice touch.",
    "body": "Code review ACK 3984b78cd7f49e409377f2175a56e8e4bd71d1d8\r\nThanks for addressing my suggestion. And making `CNode::ConnectedThroughNetwork()` return a `Network` enum directly is a nice touch.",
    "reactions": {
      "url": "https://api.github.com/repos/bitcoin/bitcoin/issues/comments/707226178/reactions",
      "total_count": 1,
      "+1": 0,
      "-1": 0,
      "laugh": 0,
      "hooray": 0,
      "confused": 0,
      "heart": 1,
      "rocket": 0,
      "eyes": 0
    },
    "performed_via_github_app": null
  }
]
