{
  "url": "https://api.github.com/repos/bitcoin/bitcoin/issues/28409",
  "repository_url": "https://api.github.com/repos/bitcoin/bitcoin",
  "labels_url": "https://api.github.com/repos/bitcoin/bitcoin/issues/28409/labels{/name}",
  "comments_url": "https://api.github.com/repos/bitcoin/bitcoin/issues/28409/comments",
  "events_url": "https://api.github.com/repos/bitcoin/bitcoin/issues/28409/events",
  "html_url": "https://github.com/bitcoin/bitcoin/pull/28409",
  "id": 1881656648,
  "node_id": "PR_kwDOABII585Zjr5V",
  "number": 28409,
  "title": "test: Combine sync_send_with_ping and sync_with_ping",
  "user": {
    "login": "maflcko",
    "id": 6399679,
    "node_id": "MDQ6VXNlcjYzOTk2Nzk=",
    "avatar_url": "https://avatars.githubusercontent.com/u/6399679?v=4",
    "gravatar_id": "",
    "url": "https://api.github.com/users/maflcko",
    "html_url": "https://github.com/maflcko",
    "followers_url": "https://api.github.com/users/maflcko/followers",
    "following_url": "https://api.github.com/users/maflcko/following{/other_user}",
    "gists_url": "https://api.github.com/users/maflcko/gists{/gist_id}",
    "starred_url": "https://api.github.com/users/maflcko/starred{/owner}{/repo}",
    "subscriptions_url": "https://api.github.com/users/maflcko/subscriptions",
    "organizations_url": "https://api.github.com/users/maflcko/orgs",
    "repos_url": "https://api.github.com/users/maflcko/repos",
    "events_url": "https://api.github.com/users/maflcko/events{/privacy}",
    "received_events_url": "https://api.github.com/users/maflcko/received_events",
    "type": "User",
    "site_admin": false
  },
  "labels": [
    {
      "id": 62963516,
      "node_id": "MDU6TGFiZWw2Mjk2MzUxNg==",
      "url": "https://api.github.com/repos/bitcoin/bitcoin/labels/Tests",
      "name": "Tests",
      "color": "d4c5f9",
      "default": false,
      "description": null
    }
  ],
  "state": "closed",
  "locked": false,
  "assignee": null,
  "assignees": [

  ],
  "milestone": null,
  "comments": 2,
  "created_at": "2023-09-05T10:13:28Z",
  "updated_at": "2023-09-11T12:05:10Z",
  "closed_at": "2023-09-06T16:08:43Z",
  "author_association": "MEMBER",
  "active_lock_reason": null,
  "draft": false,
  "pull_request": {
    "url": "https://api.github.com/repos/bitcoin/bitcoin/pulls/28409",
    "html_url": "https://github.com/bitcoin/bitcoin/pull/28409",
    "diff_url": "https://github.com/bitcoin/bitcoin/pull/28409.diff",
    "patch_url": "https://github.com/bitcoin/bitcoin/pull/28409.patch",
    "merged_at": "2023-09-06T16:08:43Z"
  },
  "body_html": "<p dir=\"auto\">This reduces bloat, complexity, and makes tests less fragile to intermittent failures, see <a class=\"issue-link js-issue-link\" data-error-text=\"Failed to load title\" data-id=\"1712063643\" data-permission-text=\"Title is private\" data-url=\"https://github.com/bitcoin/bitcoin/issues/27675\" data-hovercard-type=\"pull_request\" data-hovercard-url=\"/bitcoin/bitcoin/pull/27675/hovercard?comment_id=1315648343&amp;comment_type=review_comment\" href=\"https://github.com/bitcoin/bitcoin/pull/27675#discussion_r1315648343\">#27675 (comment)</a>.</p>\n<p dir=\"auto\">This should not cause any noticeable slowdown, or may even be faster, because active polling will be done at most once.</p>",
  "body_text": "This reduces bloat, complexity, and makes tests less fragile to intermittent failures, see #27675 (comment).\nThis should not cause any noticeable slowdown, or may even be faster, because active polling will be done at most once.",
  "body": "This reduces bloat, complexity, and makes tests less fragile to intermittent failures, see https://github.com/bitcoin/bitcoin/pull/27675#discussion_r1315648343.\r\n\r\nThis should not cause any noticeable slowdown, or may even be faster, because active polling will be done at most once.",
  "closed_by": {
    "login": "fanquake",
    "id": 863730,
    "node_id": "MDQ6VXNlcjg2MzczMA==",
    "avatar_url": "https://avatars.githubusercontent.com/u/863730?v=4",
    "gravatar_id": "",
    "url": "https://api.github.com/users/fanquake",
    "html_url": "https://github.com/fanquake",
    "followers_url": "https://api.github.com/users/fanquake/followers",
    "following_url": "https://api.github.com/users/fanquake/following{/other_user}",
    "gists_url": "https://api.github.com/users/fanquake/gists{/gist_id}",
    "starred_url": "https://api.github.com/users/fanquake/starred{/owner}{/repo}",
    "subscriptions_url": "https://api.github.com/users/fanquake/subscriptions",
    "organizations_url": "https://api.github.com/users/fanquake/orgs",
    "repos_url": "https://api.github.com/users/fanquake/repos",
    "events_url": "https://api.github.com/users/fanquake/events{/privacy}",
    "received_events_url": "https://api.github.com/users/fanquake/received_events",
    "type": "User",
    "site_admin": false
  },
  "reactions": {
    "url": "https://api.github.com/repos/bitcoin/bitcoin/issues/28409/reactions",
    "total_count": 0,
    "+1": 0,
    "-1": 0,
    "laugh": 0,
    "hooray": 0,
    "confused": 0,
    "heart": 0,
    "rocket": 0,
    "eyes": 0
  },
  "timeline_url": "https://api.github.com/repos/bitcoin/bitcoin/issues/28409/timeline",
  "performed_via_github_app": null,
  "state_reason": null
}
