[
  {
    "url": "https://api.github.com/repos/bitcoin/bitcoin/issues/comments/446472071",
    "html_url": "https://github.com/bitcoin/bitcoin/issues/14933#issuecomment-446472071",
    "issue_url": "https://api.github.com/repos/bitcoin/bitcoin/issues/14933",
    "id": 446472071,
    "node_id": "MDEyOklzc3VlQ29tbWVudDQ0NjQ3MjA3MQ==",
    "user": {
      "login": "jonasschnelli",
      "id": 178464,
      "node_id": "MDQ6VXNlcjE3ODQ2NA==",
      "avatar_url": "https://avatars.githubusercontent.com/u/178464?v=4",
      "gravatar_id": "",
      "url": "https://api.github.com/users/jonasschnelli",
      "html_url": "https://github.com/jonasschnelli",
      "followers_url": "https://api.github.com/users/jonasschnelli/followers",
      "following_url": "https://api.github.com/users/jonasschnelli/following{/other_user}",
      "gists_url": "https://api.github.com/users/jonasschnelli/gists{/gist_id}",
      "starred_url": "https://api.github.com/users/jonasschnelli/starred{/owner}{/repo}",
      "subscriptions_url": "https://api.github.com/users/jonasschnelli/subscriptions",
      "organizations_url": "https://api.github.com/users/jonasschnelli/orgs",
      "repos_url": "https://api.github.com/users/jonasschnelli/repos",
      "events_url": "https://api.github.com/users/jonasschnelli/events{/privacy}",
      "received_events_url": "https://api.github.com/users/jonasschnelli/received_events",
      "type": "User",
      "site_admin": false
    },
    "created_at": "2018-12-12T05:56:43Z",
    "updated_at": "2018-12-12T05:56:43Z",
    "author_association": "CONTRIBUTOR",
    "body_html": "<p dir=\"auto\">Looks like a standard disk corruption...<br>\nSince everything gets validated, Bitcoin Core is very good in spotting all sorts of corruption on lower levels.</p>",
    "body_text": "Looks like a standard disk corruption...\nSince everything gets validated, Bitcoin Core is very good in spotting all sorts of corruption on lower levels.",
    "body": "Looks like a standard disk corruption... \r\nSince everything gets validated, Bitcoin Core is very good in spotting all sorts of corruption on lower levels.",
    "reactions": {
      "url": "https://api.github.com/repos/bitcoin/bitcoin/issues/comments/446472071/reactions",
      "total_count": 0,
      "+1": 0,
      "-1": 0,
      "laugh": 0,
      "hooray": 0,
      "confused": 0,
      "heart": 0,
      "rocket": 0,
      "eyes": 0
    },
    "performed_via_github_app": null
  },
  {
    "url": "https://api.github.com/repos/bitcoin/bitcoin/issues/comments/446491153",
    "html_url": "https://github.com/bitcoin/bitcoin/issues/14933#issuecomment-446491153",
    "issue_url": "https://api.github.com/repos/bitcoin/bitcoin/issues/14933",
    "id": 446491153,
    "node_id": "MDEyOklzc3VlQ29tbWVudDQ0NjQ5MTE1Mw==",
    "user": {
      "login": "andronoob",
      "id": 4075106,
      "node_id": "MDQ6VXNlcjQwNzUxMDY=",
      "avatar_url": "https://avatars.githubusercontent.com/u/4075106?v=4",
      "gravatar_id": "",
      "url": "https://api.github.com/users/andronoob",
      "html_url": "https://github.com/andronoob",
      "followers_url": "https://api.github.com/users/andronoob/followers",
      "following_url": "https://api.github.com/users/andronoob/following{/other_user}",
      "gists_url": "https://api.github.com/users/andronoob/gists{/gist_id}",
      "starred_url": "https://api.github.com/users/andronoob/starred{/owner}{/repo}",
      "subscriptions_url": "https://api.github.com/users/andronoob/subscriptions",
      "organizations_url": "https://api.github.com/users/andronoob/orgs",
      "repos_url": "https://api.github.com/users/andronoob/repos",
      "events_url": "https://api.github.com/users/andronoob/events{/privacy}",
      "received_events_url": "https://api.github.com/users/andronoob/received_events",
      "type": "User",
      "site_admin": false
    },
    "created_at": "2018-12-12T07:37:35Z",
    "updated_at": "2018-12-12T07:46:47Z",
    "author_association": "NONE",
    "body_html": "<blockquote>\n<p dir=\"auto\">Looks like a standard disk corruption...</p>\n</blockquote>\n<p dir=\"auto\">After that crash, I tried to restart bitcoin-qt, it launched successfully, without any complain. The S.M.A.R.T data didn't report anything wrong, either.</p>\n<p dir=\"auto\">debug.log:</p>\n<div class=\"snippet-clipboard-content notranslate position-relative overflow-auto\" data-snippet-clipboard-copy-content=\"2018-12-12T04:07:21Z Pre-allocating up to position 0x5000000 in blk01459.dat\n2018-12-12T04:07:21Z UpdateTip: new best=0000000000000000002fc33ac46fe482972e0e9e479377e5ce1f5b6d13ec4b58 height=553481 version=0x20000000 log2_work=90.117717 tx=363835988 date='2018-12-12T04:06:32Z' progress=1.000000 cache=76.2MiB(566931txo) warning='最后100个区块中的34个包含未知的版本号'\n2018-12-12T04:14:40Z UpdateTip: new best=0000000000000000002fa928a8c2ecf79f1d8f962745c49a8ba4f98e32de3f05 height=553482 version=0x20000000 log2_work=90.117743 tx=363838797 date='2018-12-12T04:14:27Z' progress=1.000000 cache=76.5MiB(569323txo) warning='最后100个区块中的33个包含未知的版本号'\n2018-12-12T04:15:44Z UpdateTip: new best=000000000000000000189ffff78b77d6c408a36b99098c41fb4be2d4ff6ffceb height=553483 version=0x20000000 log2_work=90.117769 tx=363839216 date='2018-12-12T04:15:40Z' progress=1.000000 cache=76.5MiB(569447txo) warning='最后100个区块中的33个包含未知的版本号'\n2018-12-12T04:24:19Z socket recv error [远程主机强迫关闭了一个现有的连接。(This string was stored as GBK, I've converted it to UTF-8)]  (10054)\n2018-12-12T04:24:48Z New outbound peer connected: version: 70015, blocks=553483, peer=1707\n2018-12-12T04:30:31Z socket receive timeout: 1201s\n2018-12-12T04:46:45Z Potential stale tip detected, will try using extra outbound peer (last tip update: 1861 seconds ago)\n2018-12-12T04:47:07Z New outbound peer connected: version: 70015, blocks=553483, peer=1769\n2018-12-12T04:52:56Z Pre-allocating up to position 0xa00000 in rev01459.dat\n2018-12-12T04:52:56Z UpdateTip: new best=0000000000000000001cf0ebf56562a16461f1fea099950fcec09e1f2686b8a7 height=553484 version=0x20000000 log2_work=90.117795 tx=363842195 date='2018-12-12T04:51:50Z' progress=1.000000 cache=8.4MiB(12725txo) warning='最后100个区块中的33个包含未知的版本号'\n2018-12-12T05:02:45Z UpdateTip: new best=00000000000000000001396826d49b72e9e1061665039553ac783a26a75e6dfc height=553485 version=0x20000000 log2_work=90.117821 tx=363844765 date='2018-12-12T05:02:33Z' progress=1.000000 cache=9.5MiB(21314txo) warning='最后100个区块中的32个包含未知的版本号'\n2018-12-12T05:09:16Z ERROR: ReadRawBlockFromDisk: Read from block file failed: CAutoFile::read: end of file: iostream error for CBlockDiskPos(nFile=0, nPos=16830050)\n2018-12-12T05:10:13Z \n\n\n\n\n2018-12-12T05:10:13Z Bitcoin Core version v0.17.0.1 (release build)\n2018-12-12T05:10:13Z InitParameterInteraction: parameter interaction: -whitelistforcerelay=1 -&gt; setting -whitelistrelay=1\n2018-12-12T05:10:14Z Assuming ancestors of block 0000000000000000002e63058c023a9a1de233554f28c7b21380b6c9003f36a8 have valid signatures.\n2018-12-12T05:10:14Z Setting nMinimumChainWork=0000000000000000000000000000000000000000028822fef1c230963535a90d\n2018-12-12T05:10:14Z Using the 'sse4(1way),sse41(4way),avx2(8way)' SHA256 implementation\n2018-12-12T05:10:14Z Using RdRand as an additional entropy source\n2018-12-12T05:10:15Z Default data directory C:\\Users\\user\\AppData\\Roaming\\Bitcoin\n2018-12-12T05:10:15Z Using data directory S:\\Bitcoin\n2018-12-12T05:10:15Z Using config file S:\\Bitcoin\\bitcoin.conf\n2018-12-12T05:10:15Z Using at most 125 automatic connections (2048 file descriptors available)\n2018-12-12T05:10:15Z GUI: &quot;registerShutdownBlockReason: Successfully registered: Bitcoin Core 尚未安全退出&quot;\n2018-12-12T05:10:15Z Using 16 MiB out of 32/2 requested for signature cache, able to store 524288 elements\n2018-12-12T05:10:15Z Using 16 MiB out of 32/2 requested for script execution cache, able to store 524288 elements\n2018-12-12T05:10:15Z Using 8 threads for script verification\n2018-12-12T05:10:15Z scheduler thread start\n2018-12-12T05:10:15Z HTTP: creating work queue of depth 16\n2018-12-12T05:10:15Z Config options rpcuser and rpcpassword will soon be deprecated. Locally-run instances may remove rpcuser to use cookie-based auth, or may be replaced with rpcauth. Please see share/rpcauth for rpcauth auth generation.\n2018-12-12T05:10:15Z HTTP: starting 4 worker threads\n2018-12-12T05:10:15Z Using wallet directory S:\\Bitcoin\n2018-12-12T05:10:15Z init message: 正在检测钱包的完整性...\n2018-12-12T05:10:15Z Using BerkeleyDB version Berkeley DB 4.8.30: (April  9, 2010)\n2018-12-12T05:10:15Z Using wallet wallet.dat\n2018-12-12T05:10:15Z BerkeleyEnvironment::Open: LogDir=S:\\Bitcoin\\database ErrorFile=S:\\Bitcoin\\db.log\n2018-12-12T05:10:15Z AddLocal(117.65.15.106:8333,4)\n2018-12-12T05:10:15Z Cache configuration:\n2018-12-12T05:10:15Z * Using 2.0MiB for block index database\n2018-12-12T05:10:15Z * Using 15.8MiB for transaction index database\n2018-12-12T05:10:15Z * Using 8.0MiB for chain state database\n2018-12-12T05:10:15Z * Using 102.2MiB for in-memory UTXO set (plus up to 286.1MiB of unused mempool space)\n2018-12-12T05:10:15Z init message: 正在加载区块索引...\n2018-12-12T05:10:15Z Opening LevelDB in S:\\Bitcoin\\blocks\\index\n2018-12-12T05:10:15Z Opened LevelDB successfully\n2018-12-12T05:10:15Z Using obfuscation key for S:\\Bitcoin\\blocks\\index: 0000000000000000\n2018-12-12T05:10:18Z LoadBlockIndexDB: last block file = 1459\n2018-12-12T05:10:18Z LoadBlockIndexDB: last block file info: CBlockFileInfo(blocks=63, size=70173409, heights=553421...553483, time=2018-12-11...2018-12-12)\n2018-12-12T05:10:18Z Checking all blk files are present...\n2018-12-12T05:10:19Z Opening LevelDB in S:\\Bitcoin\\chainstate\n2018-12-12T05:10:19Z Opened LevelDB successfully\n2018-12-12T05:10:19Z Using obfuscation key for S:\\Bitcoin\\chainstate: d2e993e4daed8602\n2018-12-12T05:10:20Z Loaded best chain: hashBestChain=000000000000000000189ffff78b77d6c408a36b99098c41fb4be2d4ff6ffceb height=553483 date=2018-12-12T04:15:40Z progress=0.999978\n2018-12-12T05:10:20Z init message: 回退区块\n2018-12-12T05:10:21Z init message: 正在验证区块...\n2018-12-12T05:10:21Z Verifying last 6 blocks at level 3\n2018-12-12T05:10:21Z [0%]...[16%]...[33%]...[50%]...[66%]...[83%]...[99%]...[DONE].\n2018-12-12T05:10:23Z No coin database inconsistencies in last 6 blocks (8507 transactions)\n2018-12-12T05:10:23Z  block index            8173ms\n2018-12-12T05:10:23Z Opening LevelDB in S:\\Bitcoin\\indexes\\txindex\n2018-12-12T05:10:23Z Opened LevelDB successfully\n2018-12-12T05:10:23Z Using obfuscation key for S:\\Bitcoin\\indexes\\txindex: 0000000000000000\n2018-12-12T05:10:23Z txindex thread start\n2018-12-12T05:10:23Z txindex is enabled at height 553483\n2018-12-12T05:10:23Z txindex thread exit\n2018-12-12T05:10:23Z init message: 正在加载钱包...\n2018-12-12T05:10:23Z [default wallet] nFileVersion = 170001\n2018-12-12T05:10:23Z [default wallet] Keys: 0 plaintext, 4016 encrypted, 8018 w/ metadata, 4016 total. Unknown wallet records: 1\n2018-12-12T05:10:23Z [default wallet] Wallet completed loading in              78ms\n2018-12-12T05:10:23Z [default wallet] setKeyPool.size() = 1999\n2018-12-12T05:10:23Z [default wallet] mapWallet.size() = 18\n2018-12-12T05:10:23Z [default wallet] mapAddressBook.size() = 4019\n2018-12-12T05:10:23Z mapBlockIndex.size() = 553488\n2018-12-12T05:10:23Z nBestHeight = 553483\n2018-12-12T05:10:23Z torcontrol thread start\n2018-12-12T05:10:23Z upnp thread start\n2018-12-12T05:10:23Z Bound to [::]:8333\n2018-12-12T05:10:23Z Bound to 0.0.0.0:8333\n2018-12-12T05:10:23Z init message: 正在加载P2P地址...\n2018-12-12T05:10:23Z Imported mempool transactions from disk: 572 succeeded, 0 failed, 0 expired, 0 already there\n2018-12-12T05:10:24Z Loaded 70317 addresses from peers.dat  203ms\n2018-12-12T05:10:24Z init message: 正在加载黑名单...\n2018-12-12T05:10:24Z init message: 正在启动网络线程...\n2018-12-12T05:10:24Z net thread start\n2018-12-12T05:10:24Z dnsseed thread start\n2018-12-12T05:10:24Z addcon thread start\n2018-12-12T05:10:24Z opencon thread start\n2018-12-12T05:10:24Z init message: 加载完成\"><pre class=\"notranslate\"><code class=\"notranslate\">2018-12-12T04:07:21Z Pre-allocating up to position 0x5000000 in blk01459.dat\n2018-12-12T04:07:21Z UpdateTip: new best=0000000000000000002fc33ac46fe482972e0e9e479377e5ce1f5b6d13ec4b58 height=553481 version=0x20000000 log2_work=90.117717 tx=363835988 date='2018-12-12T04:06:32Z' progress=1.000000 cache=76.2MiB(566931txo) warning='最后100个区块中的34个包含未知的版本号'\n2018-12-12T04:14:40Z UpdateTip: new best=0000000000000000002fa928a8c2ecf79f1d8f962745c49a8ba4f98e32de3f05 height=553482 version=0x20000000 log2_work=90.117743 tx=363838797 date='2018-12-12T04:14:27Z' progress=1.000000 cache=76.5MiB(569323txo) warning='最后100个区块中的33个包含未知的版本号'\n2018-12-12T04:15:44Z UpdateTip: new best=000000000000000000189ffff78b77d6c408a36b99098c41fb4be2d4ff6ffceb height=553483 version=0x20000000 log2_work=90.117769 tx=363839216 date='2018-12-12T04:15:40Z' progress=1.000000 cache=76.5MiB(569447txo) warning='最后100个区块中的33个包含未知的版本号'\n2018-12-12T04:24:19Z socket recv error [远程主机强迫关闭了一个现有的连接。(This string was stored as GBK, I've converted it to UTF-8)]  (10054)\n2018-12-12T04:24:48Z New outbound peer connected: version: 70015, blocks=553483, peer=1707\n2018-12-12T04:30:31Z socket receive timeout: 1201s\n2018-12-12T04:46:45Z Potential stale tip detected, will try using extra outbound peer (last tip update: 1861 seconds ago)\n2018-12-12T04:47:07Z New outbound peer connected: version: 70015, blocks=553483, peer=1769\n2018-12-12T04:52:56Z Pre-allocating up to position 0xa00000 in rev01459.dat\n2018-12-12T04:52:56Z UpdateTip: new best=0000000000000000001cf0ebf56562a16461f1fea099950fcec09e1f2686b8a7 height=553484 version=0x20000000 log2_work=90.117795 tx=363842195 date='2018-12-12T04:51:50Z' progress=1.000000 cache=8.4MiB(12725txo) warning='最后100个区块中的33个包含未知的版本号'\n2018-12-12T05:02:45Z UpdateTip: new best=00000000000000000001396826d49b72e9e1061665039553ac783a26a75e6dfc height=553485 version=0x20000000 log2_work=90.117821 tx=363844765 date='2018-12-12T05:02:33Z' progress=1.000000 cache=9.5MiB(21314txo) warning='最后100个区块中的32个包含未知的版本号'\n2018-12-12T05:09:16Z ERROR: ReadRawBlockFromDisk: Read from block file failed: CAutoFile::read: end of file: iostream error for CBlockDiskPos(nFile=0, nPos=16830050)\n2018-12-12T05:10:13Z \n\n\n\n\n2018-12-12T05:10:13Z Bitcoin Core version v0.17.0.1 (release build)\n2018-12-12T05:10:13Z InitParameterInteraction: parameter interaction: -whitelistforcerelay=1 -&gt; setting -whitelistrelay=1\n2018-12-12T05:10:14Z Assuming ancestors of block 0000000000000000002e63058c023a9a1de233554f28c7b21380b6c9003f36a8 have valid signatures.\n2018-12-12T05:10:14Z Setting nMinimumChainWork=0000000000000000000000000000000000000000028822fef1c230963535a90d\n2018-12-12T05:10:14Z Using the 'sse4(1way),sse41(4way),avx2(8way)' SHA256 implementation\n2018-12-12T05:10:14Z Using RdRand as an additional entropy source\n2018-12-12T05:10:15Z Default data directory C:\\Users\\user\\AppData\\Roaming\\Bitcoin\n2018-12-12T05:10:15Z Using data directory S:\\Bitcoin\n2018-12-12T05:10:15Z Using config file S:\\Bitcoin\\bitcoin.conf\n2018-12-12T05:10:15Z Using at most 125 automatic connections (2048 file descriptors available)\n2018-12-12T05:10:15Z GUI: \"registerShutdownBlockReason: Successfully registered: Bitcoin Core 尚未安全退出\"\n2018-12-12T05:10:15Z Using 16 MiB out of 32/2 requested for signature cache, able to store 524288 elements\n2018-12-12T05:10:15Z Using 16 MiB out of 32/2 requested for script execution cache, able to store 524288 elements\n2018-12-12T05:10:15Z Using 8 threads for script verification\n2018-12-12T05:10:15Z scheduler thread start\n2018-12-12T05:10:15Z HTTP: creating work queue of depth 16\n2018-12-12T05:10:15Z Config options rpcuser and rpcpassword will soon be deprecated. Locally-run instances may remove rpcuser to use cookie-based auth, or may be replaced with rpcauth. Please see share/rpcauth for rpcauth auth generation.\n2018-12-12T05:10:15Z HTTP: starting 4 worker threads\n2018-12-12T05:10:15Z Using wallet directory S:\\Bitcoin\n2018-12-12T05:10:15Z init message: 正在检测钱包的完整性...\n2018-12-12T05:10:15Z Using BerkeleyDB version Berkeley DB 4.8.30: (April  9, 2010)\n2018-12-12T05:10:15Z Using wallet wallet.dat\n2018-12-12T05:10:15Z BerkeleyEnvironment::Open: LogDir=S:\\Bitcoin\\database ErrorFile=S:\\Bitcoin\\db.log\n2018-12-12T05:10:15Z AddLocal(117.65.15.106:8333,4)\n2018-12-12T05:10:15Z Cache configuration:\n2018-12-12T05:10:15Z * Using 2.0MiB for block index database\n2018-12-12T05:10:15Z * Using 15.8MiB for transaction index database\n2018-12-12T05:10:15Z * Using 8.0MiB for chain state database\n2018-12-12T05:10:15Z * Using 102.2MiB for in-memory UTXO set (plus up to 286.1MiB of unused mempool space)\n2018-12-12T05:10:15Z init message: 正在加载区块索引...\n2018-12-12T05:10:15Z Opening LevelDB in S:\\Bitcoin\\blocks\\index\n2018-12-12T05:10:15Z Opened LevelDB successfully\n2018-12-12T05:10:15Z Using obfuscation key for S:\\Bitcoin\\blocks\\index: 0000000000000000\n2018-12-12T05:10:18Z LoadBlockIndexDB: last block file = 1459\n2018-12-12T05:10:18Z LoadBlockIndexDB: last block file info: CBlockFileInfo(blocks=63, size=70173409, heights=553421...553483, time=2018-12-11...2018-12-12)\n2018-12-12T05:10:18Z Checking all blk files are present...\n2018-12-12T05:10:19Z Opening LevelDB in S:\\Bitcoin\\chainstate\n2018-12-12T05:10:19Z Opened LevelDB successfully\n2018-12-12T05:10:19Z Using obfuscation key for S:\\Bitcoin\\chainstate: d2e993e4daed8602\n2018-12-12T05:10:20Z Loaded best chain: hashBestChain=000000000000000000189ffff78b77d6c408a36b99098c41fb4be2d4ff6ffceb height=553483 date=2018-12-12T04:15:40Z progress=0.999978\n2018-12-12T05:10:20Z init message: 回退区块\n2018-12-12T05:10:21Z init message: 正在验证区块...\n2018-12-12T05:10:21Z Verifying last 6 blocks at level 3\n2018-12-12T05:10:21Z [0%]...[16%]...[33%]...[50%]...[66%]...[83%]...[99%]...[DONE].\n2018-12-12T05:10:23Z No coin database inconsistencies in last 6 blocks (8507 transactions)\n2018-12-12T05:10:23Z  block index            8173ms\n2018-12-12T05:10:23Z Opening LevelDB in S:\\Bitcoin\\indexes\\txindex\n2018-12-12T05:10:23Z Opened LevelDB successfully\n2018-12-12T05:10:23Z Using obfuscation key for S:\\Bitcoin\\indexes\\txindex: 0000000000000000\n2018-12-12T05:10:23Z txindex thread start\n2018-12-12T05:10:23Z txindex is enabled at height 553483\n2018-12-12T05:10:23Z txindex thread exit\n2018-12-12T05:10:23Z init message: 正在加载钱包...\n2018-12-12T05:10:23Z [default wallet] nFileVersion = 170001\n2018-12-12T05:10:23Z [default wallet] Keys: 0 plaintext, 4016 encrypted, 8018 w/ metadata, 4016 total. Unknown wallet records: 1\n2018-12-12T05:10:23Z [default wallet] Wallet completed loading in              78ms\n2018-12-12T05:10:23Z [default wallet] setKeyPool.size() = 1999\n2018-12-12T05:10:23Z [default wallet] mapWallet.size() = 18\n2018-12-12T05:10:23Z [default wallet] mapAddressBook.size() = 4019\n2018-12-12T05:10:23Z mapBlockIndex.size() = 553488\n2018-12-12T05:10:23Z nBestHeight = 553483\n2018-12-12T05:10:23Z torcontrol thread start\n2018-12-12T05:10:23Z upnp thread start\n2018-12-12T05:10:23Z Bound to [::]:8333\n2018-12-12T05:10:23Z Bound to 0.0.0.0:8333\n2018-12-12T05:10:23Z init message: 正在加载P2P地址...\n2018-12-12T05:10:23Z Imported mempool transactions from disk: 572 succeeded, 0 failed, 0 expired, 0 already there\n2018-12-12T05:10:24Z Loaded 70317 addresses from peers.dat  203ms\n2018-12-12T05:10:24Z init message: 正在加载黑名单...\n2018-12-12T05:10:24Z init message: 正在启动网络线程...\n2018-12-12T05:10:24Z net thread start\n2018-12-12T05:10:24Z dnsseed thread start\n2018-12-12T05:10:24Z addcon thread start\n2018-12-12T05:10:24Z opencon thread start\n2018-12-12T05:10:24Z init message: 加载完成\n</code></pre></div>",
    "body_text": "Looks like a standard disk corruption...\n\nAfter that crash, I tried to restart bitcoin-qt, it launched successfully, without any complain. The S.M.A.R.T data didn't report anything wrong, either.\ndebug.log:\n2018-12-12T04:07:21Z Pre-allocating up to position 0x5000000 in blk01459.dat\n2018-12-12T04:07:21Z UpdateTip: new best=0000000000000000002fc33ac46fe482972e0e9e479377e5ce1f5b6d13ec4b58 height=553481 version=0x20000000 log2_work=90.117717 tx=363835988 date='2018-12-12T04:06:32Z' progress=1.000000 cache=76.2MiB(566931txo) warning='最后100个区块中的34个包含未知的版本号'\n2018-12-12T04:14:40Z UpdateTip: new best=0000000000000000002fa928a8c2ecf79f1d8f962745c49a8ba4f98e32de3f05 height=553482 version=0x20000000 log2_work=90.117743 tx=363838797 date='2018-12-12T04:14:27Z' progress=1.000000 cache=76.5MiB(569323txo) warning='最后100个区块中的33个包含未知的版本号'\n2018-12-12T04:15:44Z UpdateTip: new best=000000000000000000189ffff78b77d6c408a36b99098c41fb4be2d4ff6ffceb height=553483 version=0x20000000 log2_work=90.117769 tx=363839216 date='2018-12-12T04:15:40Z' progress=1.000000 cache=76.5MiB(569447txo) warning='最后100个区块中的33个包含未知的版本号'\n2018-12-12T04:24:19Z socket recv error [远程主机强迫关闭了一个现有的连接。(This string was stored as GBK, I've converted it to UTF-8)]  (10054)\n2018-12-12T04:24:48Z New outbound peer connected: version: 70015, blocks=553483, peer=1707\n2018-12-12T04:30:31Z socket receive timeout: 1201s\n2018-12-12T04:46:45Z Potential stale tip detected, will try using extra outbound peer (last tip update: 1861 seconds ago)\n2018-12-12T04:47:07Z New outbound peer connected: version: 70015, blocks=553483, peer=1769\n2018-12-12T04:52:56Z Pre-allocating up to position 0xa00000 in rev01459.dat\n2018-12-12T04:52:56Z UpdateTip: new best=0000000000000000001cf0ebf56562a16461f1fea099950fcec09e1f2686b8a7 height=553484 version=0x20000000 log2_work=90.117795 tx=363842195 date='2018-12-12T04:51:50Z' progress=1.000000 cache=8.4MiB(12725txo) warning='最后100个区块中的33个包含未知的版本号'\n2018-12-12T05:02:45Z UpdateTip: new best=00000000000000000001396826d49b72e9e1061665039553ac783a26a75e6dfc height=553485 version=0x20000000 log2_work=90.117821 tx=363844765 date='2018-12-12T05:02:33Z' progress=1.000000 cache=9.5MiB(21314txo) warning='最后100个区块中的32个包含未知的版本号'\n2018-12-12T05:09:16Z ERROR: ReadRawBlockFromDisk: Read from block file failed: CAutoFile::read: end of file: iostream error for CBlockDiskPos(nFile=0, nPos=16830050)\n2018-12-12T05:10:13Z \n\n\n\n\n2018-12-12T05:10:13Z Bitcoin Core version v0.17.0.1 (release build)\n2018-12-12T05:10:13Z InitParameterInteraction: parameter interaction: -whitelistforcerelay=1 -> setting -whitelistrelay=1\n2018-12-12T05:10:14Z Assuming ancestors of block 0000000000000000002e63058c023a9a1de233554f28c7b21380b6c9003f36a8 have valid signatures.\n2018-12-12T05:10:14Z Setting nMinimumChainWork=0000000000000000000000000000000000000000028822fef1c230963535a90d\n2018-12-12T05:10:14Z Using the 'sse4(1way),sse41(4way),avx2(8way)' SHA256 implementation\n2018-12-12T05:10:14Z Using RdRand as an additional entropy source\n2018-12-12T05:10:15Z Default data directory C:\\Users\\user\\AppData\\Roaming\\Bitcoin\n2018-12-12T05:10:15Z Using data directory S:\\Bitcoin\n2018-12-12T05:10:15Z Using config file S:\\Bitcoin\\bitcoin.conf\n2018-12-12T05:10:15Z Using at most 125 automatic connections (2048 file descriptors available)\n2018-12-12T05:10:15Z GUI: \"registerShutdownBlockReason: Successfully registered: Bitcoin Core 尚未安全退出\"\n2018-12-12T05:10:15Z Using 16 MiB out of 32/2 requested for signature cache, able to store 524288 elements\n2018-12-12T05:10:15Z Using 16 MiB out of 32/2 requested for script execution cache, able to store 524288 elements\n2018-12-12T05:10:15Z Using 8 threads for script verification\n2018-12-12T05:10:15Z scheduler thread start\n2018-12-12T05:10:15Z HTTP: creating work queue of depth 16\n2018-12-12T05:10:15Z Config options rpcuser and rpcpassword will soon be deprecated. Locally-run instances may remove rpcuser to use cookie-based auth, or may be replaced with rpcauth. Please see share/rpcauth for rpcauth auth generation.\n2018-12-12T05:10:15Z HTTP: starting 4 worker threads\n2018-12-12T05:10:15Z Using wallet directory S:\\Bitcoin\n2018-12-12T05:10:15Z init message: 正在检测钱包的完整性...\n2018-12-12T05:10:15Z Using BerkeleyDB version Berkeley DB 4.8.30: (April  9, 2010)\n2018-12-12T05:10:15Z Using wallet wallet.dat\n2018-12-12T05:10:15Z BerkeleyEnvironment::Open: LogDir=S:\\Bitcoin\\database ErrorFile=S:\\Bitcoin\\db.log\n2018-12-12T05:10:15Z AddLocal(117.65.15.106:8333,4)\n2018-12-12T05:10:15Z Cache configuration:\n2018-12-12T05:10:15Z * Using 2.0MiB for block index database\n2018-12-12T05:10:15Z * Using 15.8MiB for transaction index database\n2018-12-12T05:10:15Z * Using 8.0MiB for chain state database\n2018-12-12T05:10:15Z * Using 102.2MiB for in-memory UTXO set (plus up to 286.1MiB of unused mempool space)\n2018-12-12T05:10:15Z init message: 正在加载区块索引...\n2018-12-12T05:10:15Z Opening LevelDB in S:\\Bitcoin\\blocks\\index\n2018-12-12T05:10:15Z Opened LevelDB successfully\n2018-12-12T05:10:15Z Using obfuscation key for S:\\Bitcoin\\blocks\\index: 0000000000000000\n2018-12-12T05:10:18Z LoadBlockIndexDB: last block file = 1459\n2018-12-12T05:10:18Z LoadBlockIndexDB: last block file info: CBlockFileInfo(blocks=63, size=70173409, heights=553421...553483, time=2018-12-11...2018-12-12)\n2018-12-12T05:10:18Z Checking all blk files are present...\n2018-12-12T05:10:19Z Opening LevelDB in S:\\Bitcoin\\chainstate\n2018-12-12T05:10:19Z Opened LevelDB successfully\n2018-12-12T05:10:19Z Using obfuscation key for S:\\Bitcoin\\chainstate: d2e993e4daed8602\n2018-12-12T05:10:20Z Loaded best chain: hashBestChain=000000000000000000189ffff78b77d6c408a36b99098c41fb4be2d4ff6ffceb height=553483 date=2018-12-12T04:15:40Z progress=0.999978\n2018-12-12T05:10:20Z init message: 回退区块\n2018-12-12T05:10:21Z init message: 正在验证区块...\n2018-12-12T05:10:21Z Verifying last 6 blocks at level 3\n2018-12-12T05:10:21Z [0%]...[16%]...[33%]...[50%]...[66%]...[83%]...[99%]...[DONE].\n2018-12-12T05:10:23Z No coin database inconsistencies in last 6 blocks (8507 transactions)\n2018-12-12T05:10:23Z  block index            8173ms\n2018-12-12T05:10:23Z Opening LevelDB in S:\\Bitcoin\\indexes\\txindex\n2018-12-12T05:10:23Z Opened LevelDB successfully\n2018-12-12T05:10:23Z Using obfuscation key for S:\\Bitcoin\\indexes\\txindex: 0000000000000000\n2018-12-12T05:10:23Z txindex thread start\n2018-12-12T05:10:23Z txindex is enabled at height 553483\n2018-12-12T05:10:23Z txindex thread exit\n2018-12-12T05:10:23Z init message: 正在加载钱包...\n2018-12-12T05:10:23Z [default wallet] nFileVersion = 170001\n2018-12-12T05:10:23Z [default wallet] Keys: 0 plaintext, 4016 encrypted, 8018 w/ metadata, 4016 total. Unknown wallet records: 1\n2018-12-12T05:10:23Z [default wallet] Wallet completed loading in              78ms\n2018-12-12T05:10:23Z [default wallet] setKeyPool.size() = 1999\n2018-12-12T05:10:23Z [default wallet] mapWallet.size() = 18\n2018-12-12T05:10:23Z [default wallet] mapAddressBook.size() = 4019\n2018-12-12T05:10:23Z mapBlockIndex.size() = 553488\n2018-12-12T05:10:23Z nBestHeight = 553483\n2018-12-12T05:10:23Z torcontrol thread start\n2018-12-12T05:10:23Z upnp thread start\n2018-12-12T05:10:23Z Bound to [::]:8333\n2018-12-12T05:10:23Z Bound to 0.0.0.0:8333\n2018-12-12T05:10:23Z init message: 正在加载P2P地址...\n2018-12-12T05:10:23Z Imported mempool transactions from disk: 572 succeeded, 0 failed, 0 expired, 0 already there\n2018-12-12T05:10:24Z Loaded 70317 addresses from peers.dat  203ms\n2018-12-12T05:10:24Z init message: 正在加载黑名单...\n2018-12-12T05:10:24Z init message: 正在启动网络线程...\n2018-12-12T05:10:24Z net thread start\n2018-12-12T05:10:24Z dnsseed thread start\n2018-12-12T05:10:24Z addcon thread start\n2018-12-12T05:10:24Z opencon thread start\n2018-12-12T05:10:24Z init message: 加载完成",
    "body": "> Looks like a standard disk corruption...\r\n\r\nAfter that crash, I tried to restart bitcoin-qt, it launched successfully, without any complain. The S.M.A.R.T data didn't report anything wrong, either.\r\n\r\ndebug.log:\r\n```\r\n2018-12-12T04:07:21Z Pre-allocating up to position 0x5000000 in blk01459.dat\r\n2018-12-12T04:07:21Z UpdateTip: new best=0000000000000000002fc33ac46fe482972e0e9e479377e5ce1f5b6d13ec4b58 height=553481 version=0x20000000 log2_work=90.117717 tx=363835988 date='2018-12-12T04:06:32Z' progress=1.000000 cache=76.2MiB(566931txo) warning='最后100个区块中的34个包含未知的版本号'\r\n2018-12-12T04:14:40Z UpdateTip: new best=0000000000000000002fa928a8c2ecf79f1d8f962745c49a8ba4f98e32de3f05 height=553482 version=0x20000000 log2_work=90.117743 tx=363838797 date='2018-12-12T04:14:27Z' progress=1.000000 cache=76.5MiB(569323txo) warning='最后100个区块中的33个包含未知的版本号'\r\n2018-12-12T04:15:44Z UpdateTip: new best=000000000000000000189ffff78b77d6c408a36b99098c41fb4be2d4ff6ffceb height=553483 version=0x20000000 log2_work=90.117769 tx=363839216 date='2018-12-12T04:15:40Z' progress=1.000000 cache=76.5MiB(569447txo) warning='最后100个区块中的33个包含未知的版本号'\r\n2018-12-12T04:24:19Z socket recv error [远程主机强迫关闭了一个现有的连接。(This string was stored as GBK, I've converted it to UTF-8)]  (10054)\r\n2018-12-12T04:24:48Z New outbound peer connected: version: 70015, blocks=553483, peer=1707\r\n2018-12-12T04:30:31Z socket receive timeout: 1201s\r\n2018-12-12T04:46:45Z Potential stale tip detected, will try using extra outbound peer (last tip update: 1861 seconds ago)\r\n2018-12-12T04:47:07Z New outbound peer connected: version: 70015, blocks=553483, peer=1769\r\n2018-12-12T04:52:56Z Pre-allocating up to position 0xa00000 in rev01459.dat\r\n2018-12-12T04:52:56Z UpdateTip: new best=0000000000000000001cf0ebf56562a16461f1fea099950fcec09e1f2686b8a7 height=553484 version=0x20000000 log2_work=90.117795 tx=363842195 date='2018-12-12T04:51:50Z' progress=1.000000 cache=8.4MiB(12725txo) warning='最后100个区块中的33个包含未知的版本号'\r\n2018-12-12T05:02:45Z UpdateTip: new best=00000000000000000001396826d49b72e9e1061665039553ac783a26a75e6dfc height=553485 version=0x20000000 log2_work=90.117821 tx=363844765 date='2018-12-12T05:02:33Z' progress=1.000000 cache=9.5MiB(21314txo) warning='最后100个区块中的32个包含未知的版本号'\r\n2018-12-12T05:09:16Z ERROR: ReadRawBlockFromDisk: Read from block file failed: CAutoFile::read: end of file: iostream error for CBlockDiskPos(nFile=0, nPos=16830050)\r\n2018-12-12T05:10:13Z \r\n\r\n\r\n\r\n\r\n2018-12-12T05:10:13Z Bitcoin Core version v0.17.0.1 (release build)\r\n2018-12-12T05:10:13Z InitParameterInteraction: parameter interaction: -whitelistforcerelay=1 -> setting -whitelistrelay=1\r\n2018-12-12T05:10:14Z Assuming ancestors of block 0000000000000000002e63058c023a9a1de233554f28c7b21380b6c9003f36a8 have valid signatures.\r\n2018-12-12T05:10:14Z Setting nMinimumChainWork=0000000000000000000000000000000000000000028822fef1c230963535a90d\r\n2018-12-12T05:10:14Z Using the 'sse4(1way),sse41(4way),avx2(8way)' SHA256 implementation\r\n2018-12-12T05:10:14Z Using RdRand as an additional entropy source\r\n2018-12-12T05:10:15Z Default data directory C:\\Users\\user\\AppData\\Roaming\\Bitcoin\r\n2018-12-12T05:10:15Z Using data directory S:\\Bitcoin\r\n2018-12-12T05:10:15Z Using config file S:\\Bitcoin\\bitcoin.conf\r\n2018-12-12T05:10:15Z Using at most 125 automatic connections (2048 file descriptors available)\r\n2018-12-12T05:10:15Z GUI: \"registerShutdownBlockReason: Successfully registered: Bitcoin Core 尚未安全退出\"\r\n2018-12-12T05:10:15Z Using 16 MiB out of 32/2 requested for signature cache, able to store 524288 elements\r\n2018-12-12T05:10:15Z Using 16 MiB out of 32/2 requested for script execution cache, able to store 524288 elements\r\n2018-12-12T05:10:15Z Using 8 threads for script verification\r\n2018-12-12T05:10:15Z scheduler thread start\r\n2018-12-12T05:10:15Z HTTP: creating work queue of depth 16\r\n2018-12-12T05:10:15Z Config options rpcuser and rpcpassword will soon be deprecated. Locally-run instances may remove rpcuser to use cookie-based auth, or may be replaced with rpcauth. Please see share/rpcauth for rpcauth auth generation.\r\n2018-12-12T05:10:15Z HTTP: starting 4 worker threads\r\n2018-12-12T05:10:15Z Using wallet directory S:\\Bitcoin\r\n2018-12-12T05:10:15Z init message: 正在检测钱包的完整性...\r\n2018-12-12T05:10:15Z Using BerkeleyDB version Berkeley DB 4.8.30: (April  9, 2010)\r\n2018-12-12T05:10:15Z Using wallet wallet.dat\r\n2018-12-12T05:10:15Z BerkeleyEnvironment::Open: LogDir=S:\\Bitcoin\\database ErrorFile=S:\\Bitcoin\\db.log\r\n2018-12-12T05:10:15Z AddLocal(117.65.15.106:8333,4)\r\n2018-12-12T05:10:15Z Cache configuration:\r\n2018-12-12T05:10:15Z * Using 2.0MiB for block index database\r\n2018-12-12T05:10:15Z * Using 15.8MiB for transaction index database\r\n2018-12-12T05:10:15Z * Using 8.0MiB for chain state database\r\n2018-12-12T05:10:15Z * Using 102.2MiB for in-memory UTXO set (plus up to 286.1MiB of unused mempool space)\r\n2018-12-12T05:10:15Z init message: 正在加载区块索引...\r\n2018-12-12T05:10:15Z Opening LevelDB in S:\\Bitcoin\\blocks\\index\r\n2018-12-12T05:10:15Z Opened LevelDB successfully\r\n2018-12-12T05:10:15Z Using obfuscation key for S:\\Bitcoin\\blocks\\index: 0000000000000000\r\n2018-12-12T05:10:18Z LoadBlockIndexDB: last block file = 1459\r\n2018-12-12T05:10:18Z LoadBlockIndexDB: last block file info: CBlockFileInfo(blocks=63, size=70173409, heights=553421...553483, time=2018-12-11...2018-12-12)\r\n2018-12-12T05:10:18Z Checking all blk files are present...\r\n2018-12-12T05:10:19Z Opening LevelDB in S:\\Bitcoin\\chainstate\r\n2018-12-12T05:10:19Z Opened LevelDB successfully\r\n2018-12-12T05:10:19Z Using obfuscation key for S:\\Bitcoin\\chainstate: d2e993e4daed8602\r\n2018-12-12T05:10:20Z Loaded best chain: hashBestChain=000000000000000000189ffff78b77d6c408a36b99098c41fb4be2d4ff6ffceb height=553483 date=2018-12-12T04:15:40Z progress=0.999978\r\n2018-12-12T05:10:20Z init message: 回退区块\r\n2018-12-12T05:10:21Z init message: 正在验证区块...\r\n2018-12-12T05:10:21Z Verifying last 6 blocks at level 3\r\n2018-12-12T05:10:21Z [0%]...[16%]...[33%]...[50%]...[66%]...[83%]...[99%]...[DONE].\r\n2018-12-12T05:10:23Z No coin database inconsistencies in last 6 blocks (8507 transactions)\r\n2018-12-12T05:10:23Z  block index            8173ms\r\n2018-12-12T05:10:23Z Opening LevelDB in S:\\Bitcoin\\indexes\\txindex\r\n2018-12-12T05:10:23Z Opened LevelDB successfully\r\n2018-12-12T05:10:23Z Using obfuscation key for S:\\Bitcoin\\indexes\\txindex: 0000000000000000\r\n2018-12-12T05:10:23Z txindex thread start\r\n2018-12-12T05:10:23Z txindex is enabled at height 553483\r\n2018-12-12T05:10:23Z txindex thread exit\r\n2018-12-12T05:10:23Z init message: 正在加载钱包...\r\n2018-12-12T05:10:23Z [default wallet] nFileVersion = 170001\r\n2018-12-12T05:10:23Z [default wallet] Keys: 0 plaintext, 4016 encrypted, 8018 w/ metadata, 4016 total. Unknown wallet records: 1\r\n2018-12-12T05:10:23Z [default wallet] Wallet completed loading in              78ms\r\n2018-12-12T05:10:23Z [default wallet] setKeyPool.size() = 1999\r\n2018-12-12T05:10:23Z [default wallet] mapWallet.size() = 18\r\n2018-12-12T05:10:23Z [default wallet] mapAddressBook.size() = 4019\r\n2018-12-12T05:10:23Z mapBlockIndex.size() = 553488\r\n2018-12-12T05:10:23Z nBestHeight = 553483\r\n2018-12-12T05:10:23Z torcontrol thread start\r\n2018-12-12T05:10:23Z upnp thread start\r\n2018-12-12T05:10:23Z Bound to [::]:8333\r\n2018-12-12T05:10:23Z Bound to 0.0.0.0:8333\r\n2018-12-12T05:10:23Z init message: 正在加载P2P地址...\r\n2018-12-12T05:10:23Z Imported mempool transactions from disk: 572 succeeded, 0 failed, 0 expired, 0 already there\r\n2018-12-12T05:10:24Z Loaded 70317 addresses from peers.dat  203ms\r\n2018-12-12T05:10:24Z init message: 正在加载黑名单...\r\n2018-12-12T05:10:24Z init message: 正在启动网络线程...\r\n2018-12-12T05:10:24Z net thread start\r\n2018-12-12T05:10:24Z dnsseed thread start\r\n2018-12-12T05:10:24Z addcon thread start\r\n2018-12-12T05:10:24Z opencon thread start\r\n2018-12-12T05:10:24Z init message: 加载完成\r\n```",
    "reactions": {
      "url": "https://api.github.com/repos/bitcoin/bitcoin/issues/comments/446491153/reactions",
      "total_count": 0,
      "+1": 0,
      "-1": 0,
      "laugh": 0,
      "hooray": 0,
      "confused": 0,
      "heart": 0,
      "rocket": 0,
      "eyes": 0
    },
    "performed_via_github_app": null
  },
  {
    "url": "https://api.github.com/repos/bitcoin/bitcoin/issues/comments/446494134",
    "html_url": "https://github.com/bitcoin/bitcoin/issues/14933#issuecomment-446494134",
    "issue_url": "https://api.github.com/repos/bitcoin/bitcoin/issues/14933",
    "id": 446494134,
    "node_id": "MDEyOklzc3VlQ29tbWVudDQ0NjQ5NDEzNA==",
    "user": {
      "login": "andronoob",
      "id": 4075106,
      "node_id": "MDQ6VXNlcjQwNzUxMDY=",
      "avatar_url": "https://avatars.githubusercontent.com/u/4075106?v=4",
      "gravatar_id": "",
      "url": "https://api.github.com/users/andronoob",
      "html_url": "https://github.com/andronoob",
      "followers_url": "https://api.github.com/users/andronoob/followers",
      "following_url": "https://api.github.com/users/andronoob/following{/other_user}",
      "gists_url": "https://api.github.com/users/andronoob/gists{/gist_id}",
      "starred_url": "https://api.github.com/users/andronoob/starred{/owner}{/repo}",
      "subscriptions_url": "https://api.github.com/users/andronoob/subscriptions",
      "organizations_url": "https://api.github.com/users/andronoob/orgs",
      "repos_url": "https://api.github.com/users/andronoob/repos",
      "events_url": "https://api.github.com/users/andronoob/events{/privacy}",
      "received_events_url": "https://api.github.com/users/andronoob/received_events",
      "type": "User",
      "site_admin": false
    },
    "created_at": "2018-12-12T07:51:07Z",
    "updated_at": "2018-12-12T07:53:06Z",
    "author_association": "NONE",
    "body_html": "<p dir=\"auto\">BTW: I came across some problem pasting the log above...😓<br>\nThe log file contains Chinese charaters with different encoding - both UTF8 and GBK.<br>\nWhen I was trying to copy them to the browser, I found that the GBK-encoded Chinese character string \"远程主机强迫关闭了一个现有的连接。\"(The remote host has forcibly closed an existing connection.) turned into a glitch.</p>",
    "body_text": "BTW: I came across some problem pasting the log above...😓\nThe log file contains Chinese charaters with different encoding - both UTF8 and GBK.\nWhen I was trying to copy them to the browser, I found that the GBK-encoded Chinese character string \"远程主机强迫关闭了一个现有的连接。\"(The remote host has forcibly closed an existing connection.) turned into a glitch.",
    "body": "BTW: I came across some problem pasting the log above...😓\r\nThe log file contains Chinese charaters with different encoding - both UTF8 and GBK.\r\nWhen I was trying to copy them to the browser, I found that the GBK-encoded Chinese character string \"远程主机强迫关闭了一个现有的连接。\"(The remote host has forcibly closed an existing connection.) turned into a glitch.",
    "reactions": {
      "url": "https://api.github.com/repos/bitcoin/bitcoin/issues/comments/446494134/reactions",
      "total_count": 0,
      "+1": 0,
      "-1": 0,
      "laugh": 0,
      "hooray": 0,
      "confused": 0,
      "heart": 0,
      "rocket": 0,
      "eyes": 0
    },
    "performed_via_github_app": null
  },
  {
    "url": "https://api.github.com/repos/bitcoin/bitcoin/issues/comments/448889320",
    "html_url": "https://github.com/bitcoin/bitcoin/issues/14933#issuecomment-448889320",
    "issue_url": "https://api.github.com/repos/bitcoin/bitcoin/issues/14933",
    "id": 448889320,
    "node_id": "MDEyOklzc3VlQ29tbWVudDQ0ODg4OTMyMA==",
    "user": {
      "login": "andronoob",
      "id": 4075106,
      "node_id": "MDQ6VXNlcjQwNzUxMDY=",
      "avatar_url": "https://avatars.githubusercontent.com/u/4075106?v=4",
      "gravatar_id": "",
      "url": "https://api.github.com/users/andronoob",
      "html_url": "https://github.com/andronoob",
      "followers_url": "https://api.github.com/users/andronoob/followers",
      "following_url": "https://api.github.com/users/andronoob/following{/other_user}",
      "gists_url": "https://api.github.com/users/andronoob/gists{/gist_id}",
      "starred_url": "https://api.github.com/users/andronoob/starred{/owner}{/repo}",
      "subscriptions_url": "https://api.github.com/users/andronoob/subscriptions",
      "organizations_url": "https://api.github.com/users/andronoob/orgs",
      "repos_url": "https://api.github.com/users/andronoob/repos",
      "events_url": "https://api.github.com/users/andronoob/events{/privacy}",
      "received_events_url": "https://api.github.com/users/andronoob/received_events",
      "type": "User",
      "site_admin": false
    },
    "created_at": "2018-12-20T06:32:24Z",
    "updated_at": "2018-12-20T06:32:24Z",
    "author_association": "NONE",
    "body_html": "<p dir=\"auto\"><a class=\"user-mention notranslate\" data-hovercard-type=\"user\" data-hovercard-url=\"/users/jonasschnelli/hovercard\" data-octo-click=\"hovercard-link-click\" data-octo-dimensions=\"link_type:self\" href=\"https://github.com/jonasschnelli\">@jonasschnelli</a><br>\nThis problem came up once again. The assertion came from here:<br>\n</p><div class=\"Box Box--condensed my-2\">\n  <div class=\"Box-header f6\">\n    <p class=\"mb-0 text-bold\">\n      <a href=\"https://github.com/bitcoin/bitcoin/blob/cb52cee29d0d8be062c22e59299b8e332da340c5/src/net_processing.cpp#L1186\">bitcoin/src/net_processing.cpp</a>\n    </p>\n    <p class=\"mb-0 color-fg-muted\">\n         Line 1186\n      in\n      <a data-pjax=\"true\" class=\"commit-tease-sha Link--inTextBlock\" href=\"/bitcoin/bitcoin/commit/cb52cee29d0d8be062c22e59299b8e332da340c5\">cb52cee</a>\n    </p>\n  </div>\n  <div itemprop=\"text\" class=\"Box-body p-0 blob-wrapper blob-wrapper-embedded data\">\n    <table class=\"highlight tab-size mb-0 js-file-line-container\" data-tab-size=\"8\" data-paste-markdown-skip=\"\">\n\n        <tbody><tr class=\"border-0\">\n          <td id=\"L1186\" class=\"blob-num border-0 px-3 py-0 color-bg-default\" data-line-number=\"1186\"></td>\n          <td id=\"LC1186\" class=\"blob-code border-0 px-3 py-0 color-bg-default blob-code-inner js-file-line\"> <span class=\"pl-k\">if</span> (!<span class=\"pl-c1\">ReadRawBlockFromDisk</span>(block_data, pindex, chainparams.<span class=\"pl-c1\">MessageStart</span>())) { </td>\n        </tr>\n    </tbody></table>\n  </div>\n</div>\n<p></p>\n<p dir=\"auto\">This time I didn't keep Electrum Personal Server running in background.</p>",
    "body_text": "@jonasschnelli\nThis problem came up once again. The assertion came from here:\n\n  \n    \n      bitcoin/src/net_processing.cpp\n    \n    \n         Line 1186\n      in\n      cb52cee\n    \n  \n  \n    \n\n        \n          \n           if (!ReadRawBlockFromDisk(block_data, pindex, chainparams.MessageStart())) { \n        \n    \n  \n\n\nThis time I didn't keep Electrum Personal Server running in background.",
    "body": "@jonasschnelli \r\nThis problem came up once again. The assertion came from here:\r\nhttps://github.com/bitcoin/bitcoin/blob/cb52cee29d0d8be062c22e59299b8e332da340c5/src/net_processing.cpp#L1186\r\n\r\nThis time I didn't keep Electrum Personal Server running in background.",
    "reactions": {
      "url": "https://api.github.com/repos/bitcoin/bitcoin/issues/comments/448889320/reactions",
      "total_count": 0,
      "+1": 0,
      "-1": 0,
      "laugh": 0,
      "hooray": 0,
      "confused": 0,
      "heart": 0,
      "rocket": 0,
      "eyes": 0
    },
    "performed_via_github_app": null
  },
  {
    "url": "https://api.github.com/repos/bitcoin/bitcoin/issues/comments/448899671",
    "html_url": "https://github.com/bitcoin/bitcoin/issues/14933#issuecomment-448899671",
    "issue_url": "https://api.github.com/repos/bitcoin/bitcoin/issues/14933",
    "id": 448899671,
    "node_id": "MDEyOklzc3VlQ29tbWVudDQ0ODg5OTY3MQ==",
    "user": {
      "login": "jonasschnelli",
      "id": 178464,
      "node_id": "MDQ6VXNlcjE3ODQ2NA==",
      "avatar_url": "https://avatars.githubusercontent.com/u/178464?v=4",
      "gravatar_id": "",
      "url": "https://api.github.com/users/jonasschnelli",
      "html_url": "https://github.com/jonasschnelli",
      "followers_url": "https://api.github.com/users/jonasschnelli/followers",
      "following_url": "https://api.github.com/users/jonasschnelli/following{/other_user}",
      "gists_url": "https://api.github.com/users/jonasschnelli/gists{/gist_id}",
      "starred_url": "https://api.github.com/users/jonasschnelli/starred{/owner}{/repo}",
      "subscriptions_url": "https://api.github.com/users/jonasschnelli/subscriptions",
      "organizations_url": "https://api.github.com/users/jonasschnelli/orgs",
      "repos_url": "https://api.github.com/users/jonasschnelli/repos",
      "events_url": "https://api.github.com/users/jonasschnelli/events{/privacy}",
      "received_events_url": "https://api.github.com/users/jonasschnelli/received_events",
      "type": "User",
      "site_admin": false
    },
    "created_at": "2018-12-20T07:24:03Z",
    "updated_at": "2018-12-20T07:24:03Z",
    "author_association": "CONTRIBUTOR",
    "body_html": "<p dir=\"auto\">Looks really like a data corruption.<br>\nWhat filesystem are you using? Is you disk attached over some sort of a NAS?</p>\n<p dir=\"auto\">Please try a different (internal) disk to see where the corruption comes from.</p>",
    "body_text": "Looks really like a data corruption.\nWhat filesystem are you using? Is you disk attached over some sort of a NAS?\nPlease try a different (internal) disk to see where the corruption comes from.",
    "body": "Looks really like a data corruption.\r\nWhat filesystem are you using? Is you disk attached over some sort of a NAS?\r\n\r\nPlease try a different (internal) disk to see where the corruption comes from.",
    "reactions": {
      "url": "https://api.github.com/repos/bitcoin/bitcoin/issues/comments/448899671/reactions",
      "total_count": 0,
      "+1": 0,
      "-1": 0,
      "laugh": 0,
      "hooray": 0,
      "confused": 0,
      "heart": 0,
      "rocket": 0,
      "eyes": 0
    },
    "performed_via_github_app": null
  },
  {
    "url": "https://api.github.com/repos/bitcoin/bitcoin/issues/comments/448944574",
    "html_url": "https://github.com/bitcoin/bitcoin/issues/14933#issuecomment-448944574",
    "issue_url": "https://api.github.com/repos/bitcoin/bitcoin/issues/14933",
    "id": 448944574,
    "node_id": "MDEyOklzc3VlQ29tbWVudDQ0ODk0NDU3NA==",
    "user": {
      "login": "andronoob",
      "id": 4075106,
      "node_id": "MDQ6VXNlcjQwNzUxMDY=",
      "avatar_url": "https://avatars.githubusercontent.com/u/4075106?v=4",
      "gravatar_id": "",
      "url": "https://api.github.com/users/andronoob",
      "html_url": "https://github.com/andronoob",
      "followers_url": "https://api.github.com/users/andronoob/followers",
      "following_url": "https://api.github.com/users/andronoob/following{/other_user}",
      "gists_url": "https://api.github.com/users/andronoob/gists{/gist_id}",
      "starred_url": "https://api.github.com/users/andronoob/starred{/owner}{/repo}",
      "subscriptions_url": "https://api.github.com/users/andronoob/subscriptions",
      "organizations_url": "https://api.github.com/users/andronoob/orgs",
      "repos_url": "https://api.github.com/users/andronoob/repos",
      "events_url": "https://api.github.com/users/andronoob/events{/privacy}",
      "received_events_url": "https://api.github.com/users/andronoob/received_events",
      "type": "User",
      "site_admin": false
    },
    "created_at": "2018-12-20T10:12:06Z",
    "updated_at": "2018-12-20T10:12:06Z",
    "author_association": "NONE",
    "body_html": "<blockquote>\n<p dir=\"auto\">Looks really like a data corruption.</p>\n</blockquote>\n<p dir=\"auto\">Maybe... But I didn't come across such problem before using <code class=\"notranslate\">blocksdir</code>.<br>\nI'm going to do reindex multiple times - with or without <code class=\"notranslate\">blocksdir</code> - to figure out the exact reason.</p>\n<blockquote>\n<p dir=\"auto\">What filesystem are you using? Is you disk attached over some sort of a NAS?<br>\nPlease try a different (internal) disk to see where the corruption comes from.</p>\n</blockquote>\n<p dir=\"auto\">NTFS with BitLocker enabled. Blocks are stored in the internal HDD, while other data is stored in the internal SSD.</p>\n<p dir=\"auto\">Just now, I restarted bitcoin-qt.exe with <code class=\"notranslate\">-reindex -rescan</code>, then I found <code class=\"notranslate\">Deserialize or I/O error</code> in debug.log:</p>\n<div class=\"snippet-clipboard-content notranslate position-relative overflow-auto\" data-snippet-clipboard-copy-content=\"2018-12-20T08:32:35Z init message: 正在加载P2P地址...\n2018-12-20T08:32:36Z Loaded 70571 addresses from peers.dat  251ms\n2018-12-20T08:32:36Z init message: 正在加载黑名单...\n2018-12-20T08:32:36Z init message: 正在启动网络线程...\n2018-12-20T08:32:36Z net thread start\n2018-12-20T08:32:36Z dnsseed thread start\n2018-12-20T08:32:36Z addcon thread start\n2018-12-20T08:32:36Z opencon thread start\n2018-12-20T08:32:36Z init message: 加载完成\n2018-12-20T08:32:36Z msghand thread start\n2018-12-20T08:32:36Z GUI: Platform customization: &quot;windows&quot;\n2018-12-20T08:32:36Z GUI: PaymentServer::LoadRootCAs: Loaded  119  root certificates\n2018-12-20T08:32:37Z No valid UPnP IGDs found\n2018-12-20T08:32:37Z upnp thread exit\n2018-12-20T08:32:47Z Loading addresses from DNS seeds (could take a while)\n2018-12-20T08:32:47Z New outbound peer connected: version: 70015, blocks=554598, peer=0\n2018-12-20T08:32:49Z 162 addresses found from DNS seeds\n2018-12-20T08:32:49Z dnsseed thread exit\n2018-12-20T08:32:54Z New outbound peer connected: version: 70015, blocks=554598, peer=1\n2018-12-20T08:33:00Z New outbound peer connected: version: 70015, blocks=554598, peer=3\n2018-12-20T08:33:00Z LoadExternalBlockFile: Deserialize or I/O error - CBufferedFile::Fill: end of file: iostream error\n2018-12-20T08:33:00Z Loaded 59344 blocks from external file in 25213ms\n2018-12-20T08:33:00Z Reindexing block file blk00001.dat...\n2018-12-20T08:33:02Z Reindexing block file blk00002.dat...\n2018-12-20T08:33:03Z Reindexing block file blk00003.dat...\n2018-12-20T08:33:05Z Reindexing block file blk00004.dat...\n2018-12-20T08:33:06Z Reindexing block file blk00005.dat...\"><pre class=\"notranslate\"><code class=\"notranslate\">2018-12-20T08:32:35Z init message: 正在加载P2P地址...\n2018-12-20T08:32:36Z Loaded 70571 addresses from peers.dat  251ms\n2018-12-20T08:32:36Z init message: 正在加载黑名单...\n2018-12-20T08:32:36Z init message: 正在启动网络线程...\n2018-12-20T08:32:36Z net thread start\n2018-12-20T08:32:36Z dnsseed thread start\n2018-12-20T08:32:36Z addcon thread start\n2018-12-20T08:32:36Z opencon thread start\n2018-12-20T08:32:36Z init message: 加载完成\n2018-12-20T08:32:36Z msghand thread start\n2018-12-20T08:32:36Z GUI: Platform customization: \"windows\"\n2018-12-20T08:32:36Z GUI: PaymentServer::LoadRootCAs: Loaded  119  root certificates\n2018-12-20T08:32:37Z No valid UPnP IGDs found\n2018-12-20T08:32:37Z upnp thread exit\n2018-12-20T08:32:47Z Loading addresses from DNS seeds (could take a while)\n2018-12-20T08:32:47Z New outbound peer connected: version: 70015, blocks=554598, peer=0\n2018-12-20T08:32:49Z 162 addresses found from DNS seeds\n2018-12-20T08:32:49Z dnsseed thread exit\n2018-12-20T08:32:54Z New outbound peer connected: version: 70015, blocks=554598, peer=1\n2018-12-20T08:33:00Z New outbound peer connected: version: 70015, blocks=554598, peer=3\n2018-12-20T08:33:00Z LoadExternalBlockFile: Deserialize or I/O error - CBufferedFile::Fill: end of file: iostream error\n2018-12-20T08:33:00Z Loaded 59344 blocks from external file in 25213ms\n2018-12-20T08:33:00Z Reindexing block file blk00001.dat...\n2018-12-20T08:33:02Z Reindexing block file blk00002.dat...\n2018-12-20T08:33:03Z Reindexing block file blk00003.dat...\n2018-12-20T08:33:05Z Reindexing block file blk00004.dat...\n2018-12-20T08:33:06Z Reindexing block file blk00005.dat...\n</code></pre></div>\n<p dir=\"auto\">tail of debug.log:</p>\n<div class=\"snippet-clipboard-content notranslate position-relative overflow-auto\" data-snippet-clipboard-copy-content=\"2018-12-20T09:05:37Z Reindexing block file blk01468.dat...\n2018-12-20T09:05:38Z Reindexing finished\n2018-12-20T09:05:38Z Pre-allocating up to position 0x100000 in rev00000.dat\n2018-12-20T09:06:06Z Pre-allocating up to position 0x200000 in rev00000.dat\n2018-12-20T09:06:30Z Pre-allocating up to position 0x300000 in rev00000.dat\n2018-12-20T09:06:47Z Pre-allocating up to position 0x400000 in rev00000.dat\n2018-12-20T09:06:48Z Imported mempool transactions from disk: 3947 succeeded, 671 failed, 0 expired, 0 already there\n2018-12-20T09:07:47Z Pre-allocating up to position 0x2000000 in blk00000.dat\n2018-12-20T09:07:56Z Peer=9 is stalling block download, disconnecting\"><pre lang=\"2018-12-20T09:05:36Z\" class=\"notranslate\"><code class=\"notranslate\">2018-12-20T09:05:37Z Reindexing block file blk01468.dat...\n2018-12-20T09:05:38Z Reindexing finished\n2018-12-20T09:05:38Z Pre-allocating up to position 0x100000 in rev00000.dat\n2018-12-20T09:06:06Z Pre-allocating up to position 0x200000 in rev00000.dat\n2018-12-20T09:06:30Z Pre-allocating up to position 0x300000 in rev00000.dat\n2018-12-20T09:06:47Z Pre-allocating up to position 0x400000 in rev00000.dat\n2018-12-20T09:06:48Z Imported mempool transactions from disk: 3947 succeeded, 671 failed, 0 expired, 0 already there\n2018-12-20T09:07:47Z Pre-allocating up to position 0x2000000 in blk00000.dat\n2018-12-20T09:07:56Z Peer=9 is stalling block download, disconnecting\n</code></pre></div>\n<p dir=\"auto\">Now I'm waiting for the download/sync process to complete.</p>",
    "body_text": "Looks really like a data corruption.\n\nMaybe... But I didn't come across such problem before using blocksdir.\nI'm going to do reindex multiple times - with or without blocksdir - to figure out the exact reason.\n\nWhat filesystem are you using? Is you disk attached over some sort of a NAS?\nPlease try a different (internal) disk to see where the corruption comes from.\n\nNTFS with BitLocker enabled. Blocks are stored in the internal HDD, while other data is stored in the internal SSD.\nJust now, I restarted bitcoin-qt.exe with -reindex -rescan, then I found Deserialize or I/O error in debug.log:\n2018-12-20T08:32:35Z init message: 正在加载P2P地址...\n2018-12-20T08:32:36Z Loaded 70571 addresses from peers.dat  251ms\n2018-12-20T08:32:36Z init message: 正在加载黑名单...\n2018-12-20T08:32:36Z init message: 正在启动网络线程...\n2018-12-20T08:32:36Z net thread start\n2018-12-20T08:32:36Z dnsseed thread start\n2018-12-20T08:32:36Z addcon thread start\n2018-12-20T08:32:36Z opencon thread start\n2018-12-20T08:32:36Z init message: 加载完成\n2018-12-20T08:32:36Z msghand thread start\n2018-12-20T08:32:36Z GUI: Platform customization: \"windows\"\n2018-12-20T08:32:36Z GUI: PaymentServer::LoadRootCAs: Loaded  119  root certificates\n2018-12-20T08:32:37Z No valid UPnP IGDs found\n2018-12-20T08:32:37Z upnp thread exit\n2018-12-20T08:32:47Z Loading addresses from DNS seeds (could take a while)\n2018-12-20T08:32:47Z New outbound peer connected: version: 70015, blocks=554598, peer=0\n2018-12-20T08:32:49Z 162 addresses found from DNS seeds\n2018-12-20T08:32:49Z dnsseed thread exit\n2018-12-20T08:32:54Z New outbound peer connected: version: 70015, blocks=554598, peer=1\n2018-12-20T08:33:00Z New outbound peer connected: version: 70015, blocks=554598, peer=3\n2018-12-20T08:33:00Z LoadExternalBlockFile: Deserialize or I/O error - CBufferedFile::Fill: end of file: iostream error\n2018-12-20T08:33:00Z Loaded 59344 blocks from external file in 25213ms\n2018-12-20T08:33:00Z Reindexing block file blk00001.dat...\n2018-12-20T08:33:02Z Reindexing block file blk00002.dat...\n2018-12-20T08:33:03Z Reindexing block file blk00003.dat...\n2018-12-20T08:33:05Z Reindexing block file blk00004.dat...\n2018-12-20T08:33:06Z Reindexing block file blk00005.dat...\n\ntail of debug.log:\n2018-12-20T09:05:37Z Reindexing block file blk01468.dat...\n2018-12-20T09:05:38Z Reindexing finished\n2018-12-20T09:05:38Z Pre-allocating up to position 0x100000 in rev00000.dat\n2018-12-20T09:06:06Z Pre-allocating up to position 0x200000 in rev00000.dat\n2018-12-20T09:06:30Z Pre-allocating up to position 0x300000 in rev00000.dat\n2018-12-20T09:06:47Z Pre-allocating up to position 0x400000 in rev00000.dat\n2018-12-20T09:06:48Z Imported mempool transactions from disk: 3947 succeeded, 671 failed, 0 expired, 0 already there\n2018-12-20T09:07:47Z Pre-allocating up to position 0x2000000 in blk00000.dat\n2018-12-20T09:07:56Z Peer=9 is stalling block download, disconnecting\n\nNow I'm waiting for the download/sync process to complete.",
    "body": "> Looks really like a data corruption.\r\n\r\nMaybe... But I didn't come across such problem before using `blocksdir`.\r\nI'm going to do reindex multiple times - with or without `blocksdir` - to figure out the exact reason.\r\n\r\n> What filesystem are you using? Is you disk attached over some sort of a NAS?\r\n> Please try a different (internal) disk to see where the corruption comes from.\r\n\r\nNTFS with BitLocker enabled. Blocks are stored in the internal HDD, while other data is stored in the internal SSD.\r\n\r\nJust now, I restarted bitcoin-qt.exe with `-reindex -rescan`, then I found `Deserialize or I/O error` in debug.log:\r\n```\r\n2018-12-20T08:32:35Z init message: 正在加载P2P地址...\r\n2018-12-20T08:32:36Z Loaded 70571 addresses from peers.dat  251ms\r\n2018-12-20T08:32:36Z init message: 正在加载黑名单...\r\n2018-12-20T08:32:36Z init message: 正在启动网络线程...\r\n2018-12-20T08:32:36Z net thread start\r\n2018-12-20T08:32:36Z dnsseed thread start\r\n2018-12-20T08:32:36Z addcon thread start\r\n2018-12-20T08:32:36Z opencon thread start\r\n2018-12-20T08:32:36Z init message: 加载完成\r\n2018-12-20T08:32:36Z msghand thread start\r\n2018-12-20T08:32:36Z GUI: Platform customization: \"windows\"\r\n2018-12-20T08:32:36Z GUI: PaymentServer::LoadRootCAs: Loaded  119  root certificates\r\n2018-12-20T08:32:37Z No valid UPnP IGDs found\r\n2018-12-20T08:32:37Z upnp thread exit\r\n2018-12-20T08:32:47Z Loading addresses from DNS seeds (could take a while)\r\n2018-12-20T08:32:47Z New outbound peer connected: version: 70015, blocks=554598, peer=0\r\n2018-12-20T08:32:49Z 162 addresses found from DNS seeds\r\n2018-12-20T08:32:49Z dnsseed thread exit\r\n2018-12-20T08:32:54Z New outbound peer connected: version: 70015, blocks=554598, peer=1\r\n2018-12-20T08:33:00Z New outbound peer connected: version: 70015, blocks=554598, peer=3\r\n2018-12-20T08:33:00Z LoadExternalBlockFile: Deserialize or I/O error - CBufferedFile::Fill: end of file: iostream error\r\n2018-12-20T08:33:00Z Loaded 59344 blocks from external file in 25213ms\r\n2018-12-20T08:33:00Z Reindexing block file blk00001.dat...\r\n2018-12-20T08:33:02Z Reindexing block file blk00002.dat...\r\n2018-12-20T08:33:03Z Reindexing block file blk00003.dat...\r\n2018-12-20T08:33:05Z Reindexing block file blk00004.dat...\r\n2018-12-20T08:33:06Z Reindexing block file blk00005.dat...\r\n```\r\ntail of debug.log:\r\n```2018-12-20T09:05:36Z Reindexing block file blk01467.dat...\r\n2018-12-20T09:05:37Z Reindexing block file blk01468.dat...\r\n2018-12-20T09:05:38Z Reindexing finished\r\n2018-12-20T09:05:38Z Pre-allocating up to position 0x100000 in rev00000.dat\r\n2018-12-20T09:06:06Z Pre-allocating up to position 0x200000 in rev00000.dat\r\n2018-12-20T09:06:30Z Pre-allocating up to position 0x300000 in rev00000.dat\r\n2018-12-20T09:06:47Z Pre-allocating up to position 0x400000 in rev00000.dat\r\n2018-12-20T09:06:48Z Imported mempool transactions from disk: 3947 succeeded, 671 failed, 0 expired, 0 already there\r\n2018-12-20T09:07:47Z Pre-allocating up to position 0x2000000 in blk00000.dat\r\n2018-12-20T09:07:56Z Peer=9 is stalling block download, disconnecting\r\n```\r\n\r\nNow I'm waiting for the download/sync process to complete.",
    "reactions": {
      "url": "https://api.github.com/repos/bitcoin/bitcoin/issues/comments/448944574/reactions",
      "total_count": 0,
      "+1": 0,
      "-1": 0,
      "laugh": 0,
      "hooray": 0,
      "confused": 0,
      "heart": 0,
      "rocket": 0,
      "eyes": 0
    },
    "performed_via_github_app": null
  },
  {
    "url": "https://api.github.com/repos/bitcoin/bitcoin/issues/comments/449551064",
    "html_url": "https://github.com/bitcoin/bitcoin/issues/14933#issuecomment-449551064",
    "issue_url": "https://api.github.com/repos/bitcoin/bitcoin/issues/14933",
    "id": 449551064,
    "node_id": "MDEyOklzc3VlQ29tbWVudDQ0OTU1MTA2NA==",
    "user": {
      "login": "andronoob",
      "id": 4075106,
      "node_id": "MDQ6VXNlcjQwNzUxMDY=",
      "avatar_url": "https://avatars.githubusercontent.com/u/4075106?v=4",
      "gravatar_id": "",
      "url": "https://api.github.com/users/andronoob",
      "html_url": "https://github.com/andronoob",
      "followers_url": "https://api.github.com/users/andronoob/followers",
      "following_url": "https://api.github.com/users/andronoob/following{/other_user}",
      "gists_url": "https://api.github.com/users/andronoob/gists{/gist_id}",
      "starred_url": "https://api.github.com/users/andronoob/starred{/owner}{/repo}",
      "subscriptions_url": "https://api.github.com/users/andronoob/subscriptions",
      "organizations_url": "https://api.github.com/users/andronoob/orgs",
      "repos_url": "https://api.github.com/users/andronoob/repos",
      "events_url": "https://api.github.com/users/andronoob/events{/privacy}",
      "received_events_url": "https://api.github.com/users/andronoob/received_events",
      "type": "User",
      "site_admin": false
    },
    "created_at": "2018-12-22T07:05:57Z",
    "updated_at": "2018-12-22T07:06:14Z",
    "author_association": "NONE",
    "body_html": "<p dir=\"auto\"><a class=\"user-mention notranslate\" data-hovercard-type=\"user\" data-hovercard-url=\"/users/jonasschnelli/hovercard\" data-octo-click=\"hovercard-link-click\" data-octo-dimensions=\"link_type:self\" href=\"https://github.com/jonasschnelli\">@jonasschnelli</a><br>\n<em>1st pass of reindex:</em> All blkXXXXX.dat files had \"last modified\" timestamps of two month ago (should be the date I got initial sync done), before they got overwritten by freshly downloaded data - <strong>so does it mean that my HDD is indeedly faulted? If so, why didn't I receive any warning/error report from Bitcoin Core during this reindex process?</strong> CrystalDiskInfo didn't report anything wrong, either.<br>\n<strong>I also found something suspicious in debug.log such as <code class=\"notranslate\">Deserialize or I/O error</code> (pasted above), but I'm still not sure whether it is related with hardware problems.</strong><br>\n<em>2nd pass of reindex:</em> Everything went smoothly, except that the weird <code class=\"notranslate\">Deserialize or I/O error</code> appeared in debug.log again:</p>\n<div class=\"snippet-clipboard-content notranslate position-relative overflow-auto\" data-snippet-clipboard-copy-content=\"2018-12-20T16:43:23Z init message: 加载完成\n2018-12-20T16:43:23Z opencon thread start\n2018-12-20T16:43:23Z msghand thread start\n2018-12-20T16:43:23Z GUI: Platform customization: &quot;windows&quot;\n2018-12-20T16:43:23Z GUI: PaymentServer::LoadRootCAs: Loaded  119  root certificates\n2018-12-20T16:43:25Z No valid UPnP IGDs found\n2018-12-20T16:43:25Z upnp thread exit\n2018-12-20T16:43:29Z New outbound peer connected: version: 70015, blocks=554655, peer=0\n2018-12-20T16:43:34Z Loading addresses from DNS seeds (could take a while)\n2018-12-20T16:43:36Z 161 addresses found from DNS seeds\n2018-12-20T16:43:36Z dnsseed thread exit\n2018-12-20T16:43:47Z LoadExternalBlockFile: Deserialize or I/O error - Read attempted past buffer limit: iostream error\n2018-12-20T16:43:58Z New outbound peer connected: version: 70015, blocks=554655, peer=1\n2018-12-20T16:44:11Z New outbound peer connected: version: 70015, blocks=554655, peer=2\n2018-12-20T16:44:17Z Loaded 119629 blocks from external file in 54223ms\n2018-12-20T16:44:17Z Reindexing block file blk00001.dat...\n2018-12-20T16:44:25Z Loaded 10817 blocks from external file in 8572ms\n2018-12-20T16:44:25Z Reindexing block file blk00002.dat...\n2018-12-20T16:44:32Z Loaded 5880 blocks from external file in 6399ms\n2018-12-20T16:44:32Z Reindexing block file blk00003.dat...\n2018-12-20T16:44:38Z Loaded 5856 blocks from external file in 6496ms\n2018-12-20T16:44:38Z Reindexing block file blk00004.dat...\n2018-12-20T16:44:44Z Loaded 5994 blocks from external file in 6098ms\n2018-12-20T16:44:44Z Reindexing block file blk00005.dat...\n2018-12-20T16:44:51Z Loaded 7793 blocks from external file in 7099ms\"><pre class=\"notranslate\"><code class=\"notranslate\">2018-12-20T16:43:23Z init message: 加载完成\n2018-12-20T16:43:23Z opencon thread start\n2018-12-20T16:43:23Z msghand thread start\n2018-12-20T16:43:23Z GUI: Platform customization: \"windows\"\n2018-12-20T16:43:23Z GUI: PaymentServer::LoadRootCAs: Loaded  119  root certificates\n2018-12-20T16:43:25Z No valid UPnP IGDs found\n2018-12-20T16:43:25Z upnp thread exit\n2018-12-20T16:43:29Z New outbound peer connected: version: 70015, blocks=554655, peer=0\n2018-12-20T16:43:34Z Loading addresses from DNS seeds (could take a while)\n2018-12-20T16:43:36Z 161 addresses found from DNS seeds\n2018-12-20T16:43:36Z dnsseed thread exit\n2018-12-20T16:43:47Z LoadExternalBlockFile: Deserialize or I/O error - Read attempted past buffer limit: iostream error\n2018-12-20T16:43:58Z New outbound peer connected: version: 70015, blocks=554655, peer=1\n2018-12-20T16:44:11Z New outbound peer connected: version: 70015, blocks=554655, peer=2\n2018-12-20T16:44:17Z Loaded 119629 blocks from external file in 54223ms\n2018-12-20T16:44:17Z Reindexing block file blk00001.dat...\n2018-12-20T16:44:25Z Loaded 10817 blocks from external file in 8572ms\n2018-12-20T16:44:25Z Reindexing block file blk00002.dat...\n2018-12-20T16:44:32Z Loaded 5880 blocks from external file in 6399ms\n2018-12-20T16:44:32Z Reindexing block file blk00003.dat...\n2018-12-20T16:44:38Z Loaded 5856 blocks from external file in 6496ms\n2018-12-20T16:44:38Z Reindexing block file blk00004.dat...\n2018-12-20T16:44:44Z Loaded 5994 blocks from external file in 6098ms\n2018-12-20T16:44:44Z Reindexing block file blk00005.dat...\n2018-12-20T16:44:51Z Loaded 7793 blocks from external file in 7099ms\n</code></pre></div>\n<p dir=\"auto\"><em>3rd pass of reindex:</em> Before starting, I moved the datadir from SSD to HDD, then I made a NTFS junction link of <code class=\"notranslate\">indexes</code> pointing to SSD. bitcoin-qt.exe was started without <code class=\"notranslate\">blocksdir</code>.<br>\nAgain, everything went smoothly, <code class=\"notranslate\">Deserialize or I/O error</code> also appeared in debug.log.<br>\n<em>4th pass:</em> Deleted all the block files. <strong>I made bitcoin-qt to do a initial sync from scratch.</strong><br>\nEverything went smoothly. <strong>This time no <code class=\"notranslate\">Deserialize or I/O error</code> appeared.</strong><br>\n<em>5th pass of reindex:</em> Before starting, I moved the datadir (except the <code class=\"notranslate\">blocks</code> subdir) back to SSD. A <code class=\"notranslate\">blocksdir=path_to_hdd</code> line was also added to <code class=\"notranslate\">bitcoin.conf</code>.<br>\nSimilarly, everything went smoothly. No <code class=\"notranslate\">Deserialize or I/O error</code> appeared.</p>",
    "body_text": "@jonasschnelli\n1st pass of reindex: All blkXXXXX.dat files had \"last modified\" timestamps of two month ago (should be the date I got initial sync done), before they got overwritten by freshly downloaded data - so does it mean that my HDD is indeedly faulted? If so, why didn't I receive any warning/error report from Bitcoin Core during this reindex process? CrystalDiskInfo didn't report anything wrong, either.\nI also found something suspicious in debug.log such as Deserialize or I/O error (pasted above), but I'm still not sure whether it is related with hardware problems.\n2nd pass of reindex: Everything went smoothly, except that the weird Deserialize or I/O error appeared in debug.log again:\n2018-12-20T16:43:23Z init message: 加载完成\n2018-12-20T16:43:23Z opencon thread start\n2018-12-20T16:43:23Z msghand thread start\n2018-12-20T16:43:23Z GUI: Platform customization: \"windows\"\n2018-12-20T16:43:23Z GUI: PaymentServer::LoadRootCAs: Loaded  119  root certificates\n2018-12-20T16:43:25Z No valid UPnP IGDs found\n2018-12-20T16:43:25Z upnp thread exit\n2018-12-20T16:43:29Z New outbound peer connected: version: 70015, blocks=554655, peer=0\n2018-12-20T16:43:34Z Loading addresses from DNS seeds (could take a while)\n2018-12-20T16:43:36Z 161 addresses found from DNS seeds\n2018-12-20T16:43:36Z dnsseed thread exit\n2018-12-20T16:43:47Z LoadExternalBlockFile: Deserialize or I/O error - Read attempted past buffer limit: iostream error\n2018-12-20T16:43:58Z New outbound peer connected: version: 70015, blocks=554655, peer=1\n2018-12-20T16:44:11Z New outbound peer connected: version: 70015, blocks=554655, peer=2\n2018-12-20T16:44:17Z Loaded 119629 blocks from external file in 54223ms\n2018-12-20T16:44:17Z Reindexing block file blk00001.dat...\n2018-12-20T16:44:25Z Loaded 10817 blocks from external file in 8572ms\n2018-12-20T16:44:25Z Reindexing block file blk00002.dat...\n2018-12-20T16:44:32Z Loaded 5880 blocks from external file in 6399ms\n2018-12-20T16:44:32Z Reindexing block file blk00003.dat...\n2018-12-20T16:44:38Z Loaded 5856 blocks from external file in 6496ms\n2018-12-20T16:44:38Z Reindexing block file blk00004.dat...\n2018-12-20T16:44:44Z Loaded 5994 blocks from external file in 6098ms\n2018-12-20T16:44:44Z Reindexing block file blk00005.dat...\n2018-12-20T16:44:51Z Loaded 7793 blocks from external file in 7099ms\n\n3rd pass of reindex: Before starting, I moved the datadir from SSD to HDD, then I made a NTFS junction link of indexes pointing to SSD. bitcoin-qt.exe was started without blocksdir.\nAgain, everything went smoothly, Deserialize or I/O error also appeared in debug.log.\n4th pass: Deleted all the block files. I made bitcoin-qt to do a initial sync from scratch.\nEverything went smoothly. This time no Deserialize or I/O error appeared.\n5th pass of reindex: Before starting, I moved the datadir (except the blocks subdir) back to SSD. A blocksdir=path_to_hdd line was also added to bitcoin.conf.\nSimilarly, everything went smoothly. No Deserialize or I/O error appeared.",
    "body": "@jonasschnelli \r\n_1st pass of reindex:_ All blkXXXXX.dat files had \"last modified\" timestamps of two month ago (should be the date I got initial sync done), before they got overwritten by freshly downloaded data - **so does it mean that my HDD is indeedly faulted? If so, why didn't I receive any warning/error report from Bitcoin Core during this reindex process?** CrystalDiskInfo didn't report anything wrong, either.\r\n**I also found something suspicious in debug.log such as `Deserialize or I/O error` (pasted above), but I'm still not sure whether it is related with hardware problems.**\r\n_2nd pass of reindex:_ Everything went smoothly, except that the weird `Deserialize or I/O error` appeared in debug.log again:\r\n```\r\n2018-12-20T16:43:23Z init message: 加载完成\r\n2018-12-20T16:43:23Z opencon thread start\r\n2018-12-20T16:43:23Z msghand thread start\r\n2018-12-20T16:43:23Z GUI: Platform customization: \"windows\"\r\n2018-12-20T16:43:23Z GUI: PaymentServer::LoadRootCAs: Loaded  119  root certificates\r\n2018-12-20T16:43:25Z No valid UPnP IGDs found\r\n2018-12-20T16:43:25Z upnp thread exit\r\n2018-12-20T16:43:29Z New outbound peer connected: version: 70015, blocks=554655, peer=0\r\n2018-12-20T16:43:34Z Loading addresses from DNS seeds (could take a while)\r\n2018-12-20T16:43:36Z 161 addresses found from DNS seeds\r\n2018-12-20T16:43:36Z dnsseed thread exit\r\n2018-12-20T16:43:47Z LoadExternalBlockFile: Deserialize or I/O error - Read attempted past buffer limit: iostream error\r\n2018-12-20T16:43:58Z New outbound peer connected: version: 70015, blocks=554655, peer=1\r\n2018-12-20T16:44:11Z New outbound peer connected: version: 70015, blocks=554655, peer=2\r\n2018-12-20T16:44:17Z Loaded 119629 blocks from external file in 54223ms\r\n2018-12-20T16:44:17Z Reindexing block file blk00001.dat...\r\n2018-12-20T16:44:25Z Loaded 10817 blocks from external file in 8572ms\r\n2018-12-20T16:44:25Z Reindexing block file blk00002.dat...\r\n2018-12-20T16:44:32Z Loaded 5880 blocks from external file in 6399ms\r\n2018-12-20T16:44:32Z Reindexing block file blk00003.dat...\r\n2018-12-20T16:44:38Z Loaded 5856 blocks from external file in 6496ms\r\n2018-12-20T16:44:38Z Reindexing block file blk00004.dat...\r\n2018-12-20T16:44:44Z Loaded 5994 blocks from external file in 6098ms\r\n2018-12-20T16:44:44Z Reindexing block file blk00005.dat...\r\n2018-12-20T16:44:51Z Loaded 7793 blocks from external file in 7099ms\r\n```\r\n_3rd pass of reindex:_ Before starting, I moved the datadir from SSD to HDD, then I made a NTFS junction link of `indexes` pointing to SSD. bitcoin-qt.exe was started without `blocksdir`.\r\nAgain, everything went smoothly, `Deserialize or I/O error` also appeared in debug.log.\r\n_4th pass:_ Deleted all the block files. **I made bitcoin-qt to do a initial sync from scratch.**\r\nEverything went smoothly. **This time no `Deserialize or I/O error` appeared.**\r\n_5th pass of reindex:_ Before starting, I moved the datadir (except the `blocks` subdir) back to SSD. A `blocksdir=path_to_hdd` line was also added to `bitcoin.conf`.\r\nSimilarly, everything went smoothly. No `Deserialize or I/O error` appeared.",
    "reactions": {
      "url": "https://api.github.com/repos/bitcoin/bitcoin/issues/comments/449551064/reactions",
      "total_count": 0,
      "+1": 0,
      "-1": 0,
      "laugh": 0,
      "hooray": 0,
      "confused": 0,
      "heart": 0,
      "rocket": 0,
      "eyes": 0
    },
    "performed_via_github_app": null
  },
  {
    "url": "https://api.github.com/repos/bitcoin/bitcoin/issues/comments/449551807",
    "html_url": "https://github.com/bitcoin/bitcoin/issues/14933#issuecomment-449551807",
    "issue_url": "https://api.github.com/repos/bitcoin/bitcoin/issues/14933",
    "id": 449551807,
    "node_id": "MDEyOklzc3VlQ29tbWVudDQ0OTU1MTgwNw==",
    "user": {
      "login": "andronoob",
      "id": 4075106,
      "node_id": "MDQ6VXNlcjQwNzUxMDY=",
      "avatar_url": "https://avatars.githubusercontent.com/u/4075106?v=4",
      "gravatar_id": "",
      "url": "https://api.github.com/users/andronoob",
      "html_url": "https://github.com/andronoob",
      "followers_url": "https://api.github.com/users/andronoob/followers",
      "following_url": "https://api.github.com/users/andronoob/following{/other_user}",
      "gists_url": "https://api.github.com/users/andronoob/gists{/gist_id}",
      "starred_url": "https://api.github.com/users/andronoob/starred{/owner}{/repo}",
      "subscriptions_url": "https://api.github.com/users/andronoob/subscriptions",
      "organizations_url": "https://api.github.com/users/andronoob/orgs",
      "repos_url": "https://api.github.com/users/andronoob/repos",
      "events_url": "https://api.github.com/users/andronoob/events{/privacy}",
      "received_events_url": "https://api.github.com/users/andronoob/received_events",
      "type": "User",
      "site_admin": false
    },
    "created_at": "2018-12-22T07:16:41Z",
    "updated_at": "2018-12-22T07:17:08Z",
    "author_association": "NONE",
    "body_html": "<p dir=\"auto\">I've also done read-only <code class=\"notranslate\">chkdsk</code> on my SSD and HDD, no problem was found.<br>\nBTW, A BSOD once happened to me recently, which might be the cause of data corruption.</p>",
    "body_text": "I've also done read-only chkdsk on my SSD and HDD, no problem was found.\nBTW, A BSOD once happened to me recently, which might be the cause of data corruption.",
    "body": "I've also done read-only `chkdsk` on my SSD and HDD, no problem was found.\r\nBTW, A BSOD once happened to me recently, which might be the cause of data corruption.",
    "reactions": {
      "url": "https://api.github.com/repos/bitcoin/bitcoin/issues/comments/449551807/reactions",
      "total_count": 0,
      "+1": 0,
      "-1": 0,
      "laugh": 0,
      "hooray": 0,
      "confused": 0,
      "heart": 0,
      "rocket": 0,
      "eyes": 0
    },
    "performed_via_github_app": null
  },
  {
    "url": "https://api.github.com/repos/bitcoin/bitcoin/issues/comments/450721523",
    "html_url": "https://github.com/bitcoin/bitcoin/issues/14933#issuecomment-450721523",
    "issue_url": "https://api.github.com/repos/bitcoin/bitcoin/issues/14933",
    "id": 450721523,
    "node_id": "MDEyOklzc3VlQ29tbWVudDQ1MDcyMTUyMw==",
    "user": {
      "login": "andronoob",
      "id": 4075106,
      "node_id": "MDQ6VXNlcjQwNzUxMDY=",
      "avatar_url": "https://avatars.githubusercontent.com/u/4075106?v=4",
      "gravatar_id": "",
      "url": "https://api.github.com/users/andronoob",
      "html_url": "https://github.com/andronoob",
      "followers_url": "https://api.github.com/users/andronoob/followers",
      "following_url": "https://api.github.com/users/andronoob/following{/other_user}",
      "gists_url": "https://api.github.com/users/andronoob/gists{/gist_id}",
      "starred_url": "https://api.github.com/users/andronoob/starred{/owner}{/repo}",
      "subscriptions_url": "https://api.github.com/users/andronoob/subscriptions",
      "organizations_url": "https://api.github.com/users/andronoob/orgs",
      "repos_url": "https://api.github.com/users/andronoob/repos",
      "events_url": "https://api.github.com/users/andronoob/events{/privacy}",
      "received_events_url": "https://api.github.com/users/andronoob/received_events",
      "type": "User",
      "site_admin": false
    },
    "created_at": "2019-01-01T10:43:03Z",
    "updated_at": "2019-01-01T10:43:03Z",
    "author_association": "NONE",
    "body_html": "<p dir=\"auto\">Cannot reproduce. Closing this.</p>",
    "body_text": "Cannot reproduce. Closing this.",
    "body": "Cannot reproduce. Closing this.",
    "reactions": {
      "url": "https://api.github.com/repos/bitcoin/bitcoin/issues/comments/450721523/reactions",
      "total_count": 0,
      "+1": 0,
      "-1": 0,
      "laugh": 0,
      "hooray": 0,
      "confused": 0,
      "heart": 0,
      "rocket": 0,
      "eyes": 0
    },
    "performed_via_github_app": null
  }
]
