{
  "url": "https://api.github.com/repos/bitcoin/bitcoin/issues/10536",
  "repository_url": "https://api.github.com/repos/bitcoin/bitcoin",
  "labels_url": "https://api.github.com/repos/bitcoin/bitcoin/issues/10536/labels{/name}",
  "comments_url": "https://api.github.com/repos/bitcoin/bitcoin/issues/10536/comments",
  "events_url": "https://api.github.com/repos/bitcoin/bitcoin/issues/10536/events",
  "html_url": "https://github.com/bitcoin/bitcoin/pull/10536",
  "id": 233743036,
  "node_id": "MDExOlB1bGxSZXF1ZXN0MTI0MDg0NTcy",
  "number": 10536,
  "title": "Remove unreachable or otherwise redundant code",
  "user": {
    "login": "practicalswift",
    "id": 7826565,
    "node_id": "MDQ6VXNlcjc4MjY1NjU=",
    "avatar_url": "https://avatars.githubusercontent.com/u/7826565?v=4",
    "gravatar_id": "",
    "url": "https://api.github.com/users/practicalswift",
    "html_url": "https://github.com/practicalswift",
    "followers_url": "https://api.github.com/users/practicalswift/followers",
    "following_url": "https://api.github.com/users/practicalswift/following{/other_user}",
    "gists_url": "https://api.github.com/users/practicalswift/gists{/gist_id}",
    "starred_url": "https://api.github.com/users/practicalswift/starred{/owner}{/repo}",
    "subscriptions_url": "https://api.github.com/users/practicalswift/subscriptions",
    "organizations_url": "https://api.github.com/users/practicalswift/orgs",
    "repos_url": "https://api.github.com/users/practicalswift/repos",
    "events_url": "https://api.github.com/users/practicalswift/events{/privacy}",
    "received_events_url": "https://api.github.com/users/practicalswift/received_events",
    "type": "User",
    "site_admin": false
  },
  "labels": [
    {
      "id": 135961,
      "node_id": "MDU6TGFiZWwxMzU5NjE=",
      "url": "https://api.github.com/repos/bitcoin/bitcoin/labels/Refactoring",
      "name": "Refactoring",
      "color": "E6F6D6",
      "default": false,
      "description": null
    }
  ],
  "state": "closed",
  "locked": true,
  "assignee": null,
  "assignees": [

  ],
  "milestone": null,
  "comments": 5,
  "created_at": "2017-06-05T23:56:11Z",
  "updated_at": "2022-08-18T18:29:22Z",
  "closed_at": "2017-06-20T23:17:17Z",
  "author_association": "CONTRIBUTOR",
  "active_lock_reason": "resolved",
  "draft": false,
  "pull_request": {
    "url": "https://api.github.com/repos/bitcoin/bitcoin/pulls/10536",
    "html_url": "https://github.com/bitcoin/bitcoin/pull/10536",
    "diff_url": "https://github.com/bitcoin/bitcoin/pull/10536.diff",
    "patch_url": "https://github.com/bitcoin/bitcoin/pull/10536.patch",
    "merged_at": "2017-06-20T23:17:17Z"
  },
  "body_html": "<p dir=\"auto\">Remove unreachable or otherwise redundant code.</p>",
  "body_text": "Remove unreachable or otherwise redundant code.",
  "body": "Remove unreachable or otherwise redundant code.",
  "closed_by": {
    "login": "sipa",
    "id": 548488,
    "node_id": "MDQ6VXNlcjU0ODQ4OA==",
    "avatar_url": "https://avatars.githubusercontent.com/u/548488?v=4",
    "gravatar_id": "",
    "url": "https://api.github.com/users/sipa",
    "html_url": "https://github.com/sipa",
    "followers_url": "https://api.github.com/users/sipa/followers",
    "following_url": "https://api.github.com/users/sipa/following{/other_user}",
    "gists_url": "https://api.github.com/users/sipa/gists{/gist_id}",
    "starred_url": "https://api.github.com/users/sipa/starred{/owner}{/repo}",
    "subscriptions_url": "https://api.github.com/users/sipa/subscriptions",
    "organizations_url": "https://api.github.com/users/sipa/orgs",
    "repos_url": "https://api.github.com/users/sipa/repos",
    "events_url": "https://api.github.com/users/sipa/events{/privacy}",
    "received_events_url": "https://api.github.com/users/sipa/received_events",
    "type": "User",
    "site_admin": false
  },
  "reactions": {
    "url": "https://api.github.com/repos/bitcoin/bitcoin/issues/10536/reactions",
    "total_count": 0,
    "+1": 0,
    "-1": 0,
    "laugh": 0,
    "hooray": 0,
    "confused": 0,
    "heart": 0,
    "rocket": 0,
    "eyes": 0
  },
  "timeline_url": "https://api.github.com/repos/bitcoin/bitcoin/issues/10536/timeline",
  "performed_via_github_app": null,
  "state_reason": null
}
