{
  "url": "https://api.github.com/repos/bitcoin/bitcoin/issues/12605",
  "repository_url": "https://api.github.com/repos/bitcoin/bitcoin",
  "labels_url": "https://api.github.com/repos/bitcoin/bitcoin/issues/12605/labels{/name}",
  "comments_url": "https://api.github.com/repos/bitcoin/bitcoin/issues/12605/comments",
  "events_url": "https://api.github.com/repos/bitcoin/bitcoin/issues/12605/events",
  "html_url": "https://github.com/bitcoin/bitcoin/issues/12605",
  "id": 302458679,
  "node_id": "MDU6SXNzdWUzMDI0NTg2Nzk=",
  "number": 12605,
  "title": "High level road map for coin selection changes",
  "user": {
    "login": "morcos",
    "id": 4360349,
    "node_id": "MDQ6VXNlcjQzNjAzNDk=",
    "avatar_url": "https://avatars.githubusercontent.com/u/4360349?v=4",
    "gravatar_id": "",
    "url": "https://api.github.com/users/morcos",
    "html_url": "https://github.com/morcos",
    "followers_url": "https://api.github.com/users/morcos/followers",
    "following_url": "https://api.github.com/users/morcos/following{/other_user}",
    "gists_url": "https://api.github.com/users/morcos/gists{/gist_id}",
    "starred_url": "https://api.github.com/users/morcos/starred{/owner}{/repo}",
    "subscriptions_url": "https://api.github.com/users/morcos/subscriptions",
    "organizations_url": "https://api.github.com/users/morcos/orgs",
    "repos_url": "https://api.github.com/users/morcos/repos",
    "events_url": "https://api.github.com/users/morcos/events{/privacy}",
    "received_events_url": "https://api.github.com/users/morcos/received_events",
    "type": "User",
    "site_admin": false
  },
  "labels": [
    {
      "id": 149424,
      "node_id": "MDU6TGFiZWwxNDk0MjQ=",
      "url": "https://api.github.com/repos/bitcoin/bitcoin/labels/Wallet",
      "name": "Wallet",
      "color": "08a781",
      "default": false,
      "description": null
    }
  ],
  "state": "closed",
  "locked": true,
  "assignee": null,
  "assignees": [

  ],
  "milestone": null,
  "comments": 10,
  "created_at": "2018-03-05T20:54:47Z",
  "updated_at": "2023-10-26T12:16:06Z",
  "closed_at": "2022-10-26T22:05:18Z",
  "author_association": "MEMBER",
  "active_lock_reason": null,
  "body_html": "<p dir=\"auto\">Here is my proposed path forward after some in-person discussion.</p>\n<ul dir=\"auto\">\n<li>Merge <a class=\"issue-link js-issue-link\" data-error-text=\"Failed to load title\" data-id=\"237298009\" data-permission-text=\"Title is private\" data-url=\"https://github.com/bitcoin/bitcoin/issues/10637\" data-hovercard-type=\"pull_request\" data-hovercard-url=\"/bitcoin/bitcoin/pull/10637/hovercard\" href=\"https://github.com/bitcoin/bitcoin/pull/10637\">#10637</a> which simply adds a preliminary attempt to find an exact match using Branch and Bound and then falls back to the existing Core algo.</li>\n</ul>\n<p dir=\"auto\">Then we'll replace the fallback to an improved algo:</p>\n<ul dir=\"auto\">\n<li>Remove Core's exact match finding. (If BnB doesn't find exact match, just resign yourself to creating change)</li>\n<li>Use effective value for adding inputs.</li>\n<li>Aim for a target which is actual target + some minimum reasonable change.</li>\n<li>Consider inputs lower than the target value separately from inputs &gt; than target value.\n<ul dir=\"auto\">\n<li>If we can achieve target with lower value inputs, randomly add them until we are above the target and return.</li>\n<li>If we can't achieve target with lower value inputs, randomly select one of the higher value inputs and return.</li>\n<li>Handle edge cases where we can't create a reasonable size change, but do have enough balance.</li>\n</ul>\n</li>\n</ul>\n<p dir=\"auto\">The change from the existing Core fallback here will be that we are no longer spending uneconomic inputs, but we will still by default be highly consolidating as we are always combining lower value inputs to meet our target when possible.   When fees are lower, more inputs will automatically be available for inclusion.  Also when it's not possible to find a solution from lower value inputs, we won't always use the smallest high valued output.</p>\n<p dir=\"auto\">In the future we can reconsider this 100% bias towards always using lower value inputsand consider other factors such as current feerate and size of transaction required in deciding whether to consolidate or use just one higher value input.  It may also be the case that Branch and Bound performance in finding exact matches improves when we more often use larger inputs and don't always get rid of our small ones.</p>",
  "body_text": "Here is my proposed path forward after some in-person discussion.\n\nMerge #10637 which simply adds a preliminary attempt to find an exact match using Branch and Bound and then falls back to the existing Core algo.\n\nThen we'll replace the fallback to an improved algo:\n\nRemove Core's exact match finding. (If BnB doesn't find exact match, just resign yourself to creating change)\nUse effective value for adding inputs.\nAim for a target which is actual target + some minimum reasonable change.\nConsider inputs lower than the target value separately from inputs > than target value.\n\nIf we can achieve target with lower value inputs, randomly add them until we are above the target and return.\nIf we can't achieve target with lower value inputs, randomly select one of the higher value inputs and return.\nHandle edge cases where we can't create a reasonable size change, but do have enough balance.\n\n\n\nThe change from the existing Core fallback here will be that we are no longer spending uneconomic inputs, but we will still by default be highly consolidating as we are always combining lower value inputs to meet our target when possible.   When fees are lower, more inputs will automatically be available for inclusion.  Also when it's not possible to find a solution from lower value inputs, we won't always use the smallest high valued output.\nIn the future we can reconsider this 100% bias towards always using lower value inputsand consider other factors such as current feerate and size of transaction required in deciding whether to consolidate or use just one higher value input.  It may also be the case that Branch and Bound performance in finding exact matches improves when we more often use larger inputs and don't always get rid of our small ones.",
  "body": "Here is my proposed path forward after some in-person discussion.\r\n\r\n- Merge #10637 which simply adds a preliminary attempt to find an exact match using Branch and Bound and then falls back to the existing Core algo.\r\n\r\nThen we'll replace the fallback to an improved algo:\r\n- Remove Core's exact match finding. (If BnB doesn't find exact match, just resign yourself to creating change)\r\n- Use effective value for adding inputs.  \r\n- Aim for a target which is actual target + some minimum reasonable change.  \r\n- Consider inputs lower than the target value separately from inputs > than target value.    \r\n     -  If we can achieve target with lower value inputs, randomly add them until we are above the target and return.\r\n    -  If we can't achieve target with lower value inputs, randomly select one of the higher value inputs and return.\r\n    -  Handle edge cases where we can't create a reasonable size change, but do have enough balance.\r\n\r\nThe change from the existing Core fallback here will be that we are no longer spending uneconomic inputs, but we will still by default be highly consolidating as we are always combining lower value inputs to meet our target when possible.   When fees are lower, more inputs will automatically be available for inclusion.  Also when it's not possible to find a solution from lower value inputs, we won't always use the smallest high valued output.\r\n\r\nIn the future we can reconsider this 100% bias towards always using lower value inputsand consider other factors such as current feerate and size of transaction required in deciding whether to consolidate or use just one higher value input.  It may also be the case that Branch and Bound performance in finding exact matches improves when we more often use larger inputs and don't always get rid of our small ones.\r\n",
  "closed_by": {
    "login": "achow101",
    "id": 3782274,
    "node_id": "MDQ6VXNlcjM3ODIyNzQ=",
    "avatar_url": "https://avatars.githubusercontent.com/u/3782274?v=4",
    "gravatar_id": "",
    "url": "https://api.github.com/users/achow101",
    "html_url": "https://github.com/achow101",
    "followers_url": "https://api.github.com/users/achow101/followers",
    "following_url": "https://api.github.com/users/achow101/following{/other_user}",
    "gists_url": "https://api.github.com/users/achow101/gists{/gist_id}",
    "starred_url": "https://api.github.com/users/achow101/starred{/owner}{/repo}",
    "subscriptions_url": "https://api.github.com/users/achow101/subscriptions",
    "organizations_url": "https://api.github.com/users/achow101/orgs",
    "repos_url": "https://api.github.com/users/achow101/repos",
    "events_url": "https://api.github.com/users/achow101/events{/privacy}",
    "received_events_url": "https://api.github.com/users/achow101/received_events",
    "type": "User",
    "site_admin": false
  },
  "reactions": {
    "url": "https://api.github.com/repos/bitcoin/bitcoin/issues/12605/reactions",
    "total_count": 3,
    "+1": 3,
    "-1": 0,
    "laugh": 0,
    "hooray": 0,
    "confused": 0,
    "heart": 0,
    "rocket": 0,
    "eyes": 0
  },
  "timeline_url": "https://api.github.com/repos/bitcoin/bitcoin/issues/12605/timeline",
  "performed_via_github_app": null,
  "state_reason": "completed"
}
