[
  {
    "url": "https://api.github.com/repos/bitcoin/bitcoin/issues/comments/467268817",
    "html_url": "https://github.com/bitcoin/bitcoin/pull/15482#issuecomment-467268817",
    "issue_url": "https://api.github.com/repos/bitcoin/bitcoin/issues/15482",
    "id": 467268817,
    "node_id": "MDEyOklzc3VlQ29tbWVudDQ2NzI2ODgxNw==",
    "user": {
      "login": "DrahtBot",
      "id": 39886733,
      "node_id": "MDQ6VXNlcjM5ODg2NzMz",
      "avatar_url": "https://avatars.githubusercontent.com/u/39886733?v=4",
      "gravatar_id": "",
      "url": "https://api.github.com/users/DrahtBot",
      "html_url": "https://github.com/DrahtBot",
      "followers_url": "https://api.github.com/users/DrahtBot/followers",
      "following_url": "https://api.github.com/users/DrahtBot/following{/other_user}",
      "gists_url": "https://api.github.com/users/DrahtBot/gists{/gist_id}",
      "starred_url": "https://api.github.com/users/DrahtBot/starred{/owner}{/repo}",
      "subscriptions_url": "https://api.github.com/users/DrahtBot/subscriptions",
      "organizations_url": "https://api.github.com/users/DrahtBot/orgs",
      "repos_url": "https://api.github.com/users/DrahtBot/repos",
      "events_url": "https://api.github.com/users/DrahtBot/events{/privacy}",
      "received_events_url": "https://api.github.com/users/DrahtBot/received_events",
      "type": "User",
      "site_admin": false
    },
    "created_at": "2019-02-26T02:32:03Z",
    "updated_at": "2019-03-04T10:31:32Z",
    "author_association": "CONTRIBUTOR",
    "body_html": "\n<p dir=\"auto\">The following sections might be updated with supplementary metadata relevant to reviewers and maintainers.</p>\n\n<h3 dir=\"auto\">Conflicts</h3>\n<p dir=\"auto\">Reviewers, this pull request conflicts with the following ones:</p>\n<ul dir=\"auto\">\n<li><a href=\"https://drahtbot.github.io/bitcoin_core_issue_redirect/r/15481.html\" rel=\"nofollow\">#15481</a> (Restrict timestamp when mining a diff-adjustment block to prev-600 by TheBlueMatt)</li>\n<li><a href=\"https://drahtbot.github.io/bitcoin_core_issue_redirect/r/15141.html\" rel=\"nofollow\">#15141</a> (Rewrite DoS interface between validation and net_processing by sdaftuar)</li>\n<li><a href=\"https://drahtbot.github.io/bitcoin_core_issue_redirect/r/14954.html\" rel=\"nofollow\">#14954</a> (build: Require python 3.5 by MarcoFalke)</li>\n<li><a href=\"https://drahtbot.github.io/bitcoin_core_issue_redirect/r/13868.html\" rel=\"nofollow\">#13868</a> (Remove unused fScriptChecks parameter from CheckInputs by Empact)</li>\n<li><a href=\"https://drahtbot.github.io/bitcoin_core_issue_redirect/r/13541.html\" rel=\"nofollow\">#13541</a> (wallet/rpc: sendrawtransaction maxfeerate by kallewoof)</li>\n<li><a href=\"https://drahtbot.github.io/bitcoin_core_issue_redirect/r/13533.html\" rel=\"nofollow\">#13533</a> ([tests] Reduced number of validations in tx_validationcache_tests by lucash-dev)</li>\n<li><a href=\"https://drahtbot.github.io/bitcoin_core_issue_redirect/r/13360.html\" rel=\"nofollow\">#13360</a> ([Policy] Reject SIGHASH_SINGLE with output out of bound by jl2012)</li>\n</ul>\n<p dir=\"auto\">If you consider this pull request important, please also help to review the conflicting pull requests. Ideally, start with the one that should be merged first.</p>",
    "body_text": "The following sections might be updated with supplementary metadata relevant to reviewers and maintainers.\n\nConflicts\nReviewers, this pull request conflicts with the following ones:\n\n#15481 (Restrict timestamp when mining a diff-adjustment block to prev-600 by TheBlueMatt)\n#15141 (Rewrite DoS interface between validation and net_processing by sdaftuar)\n#14954 (build: Require python 3.5 by MarcoFalke)\n#13868 (Remove unused fScriptChecks parameter from CheckInputs by Empact)\n#13541 (wallet/rpc: sendrawtransaction maxfeerate by kallewoof)\n#13533 ([tests] Reduced number of validations in tx_validationcache_tests by lucash-dev)\n#13360 ([Policy] Reject SIGHASH_SINGLE with output out of bound by jl2012)\n\nIf you consider this pull request important, please also help to review the conflicting pull requests. Ideally, start with the one that should be merged first.",
    "body": "<!--e57a25ab6845829454e8d69fc972939a-->\n\nThe following sections might be updated with supplementary metadata relevant to reviewers and maintainers.\n\n<!--174a7506f384e20aa4161008e828411d-->\n### Conflicts\nReviewers, this pull request conflicts with the following ones:\n\n* [#15481](https://drahtbot.github.io/bitcoin_core_issue_redirect/r/15481.html) (Restrict timestamp when mining a diff-adjustment block to prev-600 by TheBlueMatt)\n* [#15141](https://drahtbot.github.io/bitcoin_core_issue_redirect/r/15141.html) (Rewrite DoS interface between validation and net_processing by sdaftuar)\n* [#14954](https://drahtbot.github.io/bitcoin_core_issue_redirect/r/14954.html) (build: Require python 3.5 by MarcoFalke)\n* [#13868](https://drahtbot.github.io/bitcoin_core_issue_redirect/r/13868.html) (Remove unused fScriptChecks parameter from CheckInputs by Empact)\n* [#13541](https://drahtbot.github.io/bitcoin_core_issue_redirect/r/13541.html) (wallet/rpc: sendrawtransaction maxfeerate by kallewoof)\n* [#13533](https://drahtbot.github.io/bitcoin_core_issue_redirect/r/13533.html) ([tests] Reduced number of validations in tx_validationcache_tests by lucash-dev)\n* [#13360](https://drahtbot.github.io/bitcoin_core_issue_redirect/r/13360.html) ([Policy] Reject SIGHASH_SINGLE with output out of bound by jl2012)\n\nIf you consider this pull request important, please also help to review the conflicting pull requests. Ideally, start with the one that should be merged first.",
    "reactions": {
      "url": "https://api.github.com/repos/bitcoin/bitcoin/issues/comments/467268817/reactions",
      "total_count": 0,
      "+1": 0,
      "-1": 0,
      "laugh": 0,
      "hooray": 0,
      "confused": 0,
      "heart": 0,
      "rocket": 0,
      "eyes": 0
    },
    "performed_via_github_app": null
  },
  {
    "url": "https://api.github.com/repos/bitcoin/bitcoin/issues/comments/468419450",
    "html_url": "https://github.com/bitcoin/bitcoin/pull/15482#issuecomment-468419450",
    "issue_url": "https://api.github.com/repos/bitcoin/bitcoin/issues/15482",
    "id": 468419450,
    "node_id": "MDEyOklzc3VlQ29tbWVudDQ2ODQxOTQ1MA==",
    "user": {
      "login": "practicalswift",
      "id": 7826565,
      "node_id": "MDQ6VXNlcjc4MjY1NjU=",
      "avatar_url": "https://avatars.githubusercontent.com/u/7826565?v=4",
      "gravatar_id": "",
      "url": "https://api.github.com/users/practicalswift",
      "html_url": "https://github.com/practicalswift",
      "followers_url": "https://api.github.com/users/practicalswift/followers",
      "following_url": "https://api.github.com/users/practicalswift/following{/other_user}",
      "gists_url": "https://api.github.com/users/practicalswift/gists{/gist_id}",
      "starred_url": "https://api.github.com/users/practicalswift/starred{/owner}{/repo}",
      "subscriptions_url": "https://api.github.com/users/practicalswift/subscriptions",
      "organizations_url": "https://api.github.com/users/practicalswift/orgs",
      "repos_url": "https://api.github.com/users/practicalswift/repos",
      "events_url": "https://api.github.com/users/practicalswift/events{/privacy}",
      "received_events_url": "https://api.github.com/users/practicalswift/received_events",
      "type": "User",
      "site_admin": false
    },
    "created_at": "2019-02-28T20:09:32Z",
    "updated_at": "2019-02-28T20:09:32Z",
    "author_association": "CONTRIBUTOR",
    "body_html": "<p dir=\"auto\">A small commit message typo: \"eatuer_assumevalid\" should be \"feature_assumevalid\" :-)</p>",
    "body_text": "A small commit message typo: \"eatuer_assumevalid\" should be \"feature_assumevalid\" :-)",
    "body": "A small commit message typo: \"eatuer_assumevalid\" should be \"feature_assumevalid\" :-)",
    "reactions": {
      "url": "https://api.github.com/repos/bitcoin/bitcoin/issues/comments/468419450/reactions",
      "total_count": 0,
      "+1": 0,
      "-1": 0,
      "laugh": 0,
      "hooray": 0,
      "confused": 0,
      "heart": 0,
      "rocket": 0,
      "eyes": 0
    },
    "performed_via_github_app": null
  },
  {
    "url": "https://api.github.com/repos/bitcoin/bitcoin/issues/comments/469741412",
    "html_url": "https://github.com/bitcoin/bitcoin/pull/15482#issuecomment-469741412",
    "issue_url": "https://api.github.com/repos/bitcoin/bitcoin/issues/15482",
    "id": 469741412,
    "node_id": "MDEyOklzc3VlQ29tbWVudDQ2OTc0MTQxMg==",
    "user": {
      "login": "DrahtBot",
      "id": 39886733,
      "node_id": "MDQ6VXNlcjM5ODg2NzMz",
      "avatar_url": "https://avatars.githubusercontent.com/u/39886733?v=4",
      "gravatar_id": "",
      "url": "https://api.github.com/users/DrahtBot",
      "html_url": "https://github.com/DrahtBot",
      "followers_url": "https://api.github.com/users/DrahtBot/followers",
      "following_url": "https://api.github.com/users/DrahtBot/following{/other_user}",
      "gists_url": "https://api.github.com/users/DrahtBot/gists{/gist_id}",
      "starred_url": "https://api.github.com/users/DrahtBot/starred{/owner}{/repo}",
      "subscriptions_url": "https://api.github.com/users/DrahtBot/subscriptions",
      "organizations_url": "https://api.github.com/users/DrahtBot/orgs",
      "repos_url": "https://api.github.com/users/DrahtBot/repos",
      "events_url": "https://api.github.com/users/DrahtBot/events{/privacy}",
      "received_events_url": "https://api.github.com/users/DrahtBot/received_events",
      "type": "User",
      "site_admin": false
    },
    "created_at": "2019-03-05T16:13:03Z",
    "updated_at": "2019-03-05T16:13:03Z",
    "author_association": "CONTRIBUTOR",
    "body_html": "Needs rebase",
    "body_text": "Needs rebase",
    "body": "<!--cf906140f33d8803c4a75a2196329ecb-->Needs rebase",
    "reactions": {
      "url": "https://api.github.com/repos/bitcoin/bitcoin/issues/comments/469741412/reactions",
      "total_count": 0,
      "+1": 0,
      "-1": 0,
      "laugh": 0,
      "hooray": 0,
      "confused": 0,
      "heart": 0,
      "rocket": 0,
      "eyes": 0
    },
    "performed_via_github_app": null
  },
  {
    "url": "https://api.github.com/repos/bitcoin/bitcoin/issues/comments/469822630",
    "html_url": "https://github.com/bitcoin/bitcoin/pull/15482#issuecomment-469822630",
    "issue_url": "https://api.github.com/repos/bitcoin/bitcoin/issues/15482",
    "id": 469822630,
    "node_id": "MDEyOklzc3VlQ29tbWVudDQ2OTgyMjYzMA==",
    "user": {
      "login": "maaku",
      "id": 69154,
      "node_id": "MDQ6VXNlcjY5MTU0",
      "avatar_url": "https://avatars.githubusercontent.com/u/69154?v=4",
      "gravatar_id": "",
      "url": "https://api.github.com/users/maaku",
      "html_url": "https://github.com/maaku",
      "followers_url": "https://api.github.com/users/maaku/followers",
      "following_url": "https://api.github.com/users/maaku/following{/other_user}",
      "gists_url": "https://api.github.com/users/maaku/gists{/gist_id}",
      "starred_url": "https://api.github.com/users/maaku/starred{/owner}{/repo}",
      "subscriptions_url": "https://api.github.com/users/maaku/subscriptions",
      "organizations_url": "https://api.github.com/users/maaku/orgs",
      "repos_url": "https://api.github.com/users/maaku/repos",
      "events_url": "https://api.github.com/users/maaku/events{/privacy}",
      "received_events_url": "https://api.github.com/users/maaku/received_events",
      "type": "User",
      "site_admin": false
    },
    "created_at": "2019-03-05T19:21:27Z",
    "updated_at": "2019-03-05T19:25:25Z",
    "author_association": "CONTRIBUTOR",
    "body_html": "<p dir=\"auto\">Given the issues with the mailing list, and the lack of a PR adding the BIP, I'm going to write some thoughts I have regarding the general idea of the proposal here. My apologies if this seems like the wrong forum.</p>\n<p dir=\"auto\">I'm a bit surprised that the possibility of using forward blocks to achieve future scaling is not mentioned in the BIP or PR, since the absolute removal of the time-warp attack vector closes off the possibility of using the bug for forward- and backwards-compatible soft-fork scaling in the future, as I covered in <a href=\"https://scalingbitcoin.org/transcript/tokyo2018/forward-blocks\" rel=\"nofollow\">my talk at Scaling Bitcoin</a> last year.</p>\n<p dir=\"auto\">While developing the idea of forward blocks I sent a vulnerability report email to some of the senior Bitcoin Core developers. In it I outlayed some analysis of the attack vectors, and a suggested solution which both prevents the sort of attacks which could be devastating to the network, while still allowing uses of the time-warp \"feature\" to achieve on-chain scaling when it becomes necessary at some point in the future. I'll quote that part of the email here:</p>\n<blockquote>\n<p dir=\"auto\">...It turns out this is to the advantage of bitcoin users as the time warp is an integral part of how we can make a block size increase and/or PoW change without a hard fork, and thereby allow such proposals be decided on their own merits rather than as a yea or nay decision on hard forks generally.</p>\n<p dir=\"auto\">...This is an issue that has been known about for some time and persists as unfixed because, as I understand it, the likelihood of attack was low and likelihood of coordinated user response high.  And since ideas like Forward Blocks require the time-warp bug to achieve forwards-compatible scaling of settlement capacity, I would think it short sighted to advocate for \"fixing\" the bug now.</p>\n<p dir=\"auto\">However in discussing forward blocks with another developer, I happened upon a solution that would allow for the worst scenarios to be avoided while not blocking off the later deployment of forward blocks: If the current block timestamp is more than 4 hours beyond the median time of the past 11 blocks, then the difficulty adjustment errors if the adjustment would exceed a smaller limiting factor than the normal +/- 4x.  Specifically I recommend ensuring that the block timestamp is within the range [start + 600*2015 - 4800, start + 600*2015 + 4800]. 4800 = 80 * 60 = 1 hour 20 minutes.  This would allow decreases in the inter-block time of no more than 12.6% the first year of purposeful adjustments, and is easy to implement.</p>\n<p dir=\"auto\">(Potentially the lower limit could be removed as it would be nice for the difficulty to be able to quickly reset, but asymmetric adjustments have been a source of error in the past.)</p>\n<p dir=\"auto\">This would prevent ... [censored bug disclosure] ... while still allowing a rate of growth for forward blocks or other proposals to that is conservative slow enough as to not cause catastrophic failure. Requiring the block timestamp to be 4 hours ahead of the median time past ensures this rule is very unlikely to be engaged during normal operation of a healthy network, for which normal [unconstrained] difficulty adjustments can still occur.</p>\n</blockquote>\n<p dir=\"auto\">This approach additionally has the advantage of being <em>less</em> disruptive than what is implemented in this PR. No rule changes are engaged at all until such time as the adjustment block's timestamp is 4 hours ahead of median time past, so there is no risk to un-upgraded miners outside of a time-warp regime because a block more than 2 hours in the future is considered invalid. I <em>think</em> this modified rule would make it safe to switch to BIP8 instead of BIP9 for deployment.</p>",
    "body_text": "Given the issues with the mailing list, and the lack of a PR adding the BIP, I'm going to write some thoughts I have regarding the general idea of the proposal here. My apologies if this seems like the wrong forum.\nI'm a bit surprised that the possibility of using forward blocks to achieve future scaling is not mentioned in the BIP or PR, since the absolute removal of the time-warp attack vector closes off the possibility of using the bug for forward- and backwards-compatible soft-fork scaling in the future, as I covered in my talk at Scaling Bitcoin last year.\nWhile developing the idea of forward blocks I sent a vulnerability report email to some of the senior Bitcoin Core developers. In it I outlayed some analysis of the attack vectors, and a suggested solution which both prevents the sort of attacks which could be devastating to the network, while still allowing uses of the time-warp \"feature\" to achieve on-chain scaling when it becomes necessary at some point in the future. I'll quote that part of the email here:\n\n...It turns out this is to the advantage of bitcoin users as the time warp is an integral part of how we can make a block size increase and/or PoW change without a hard fork, and thereby allow such proposals be decided on their own merits rather than as a yea or nay decision on hard forks generally.\n...This is an issue that has been known about for some time and persists as unfixed because, as I understand it, the likelihood of attack was low and likelihood of coordinated user response high.  And since ideas like Forward Blocks require the time-warp bug to achieve forwards-compatible scaling of settlement capacity, I would think it short sighted to advocate for \"fixing\" the bug now.\nHowever in discussing forward blocks with another developer, I happened upon a solution that would allow for the worst scenarios to be avoided while not blocking off the later deployment of forward blocks: If the current block timestamp is more than 4 hours beyond the median time of the past 11 blocks, then the difficulty adjustment errors if the adjustment would exceed a smaller limiting factor than the normal +/- 4x.  Specifically I recommend ensuring that the block timestamp is within the range [start + 600*2015 - 4800, start + 600*2015 + 4800]. 4800 = 80 * 60 = 1 hour 20 minutes.  This would allow decreases in the inter-block time of no more than 12.6% the first year of purposeful adjustments, and is easy to implement.\n(Potentially the lower limit could be removed as it would be nice for the difficulty to be able to quickly reset, but asymmetric adjustments have been a source of error in the past.)\nThis would prevent ... [censored bug disclosure] ... while still allowing a rate of growth for forward blocks or other proposals to that is conservative slow enough as to not cause catastrophic failure. Requiring the block timestamp to be 4 hours ahead of the median time past ensures this rule is very unlikely to be engaged during normal operation of a healthy network, for which normal [unconstrained] difficulty adjustments can still occur.\n\nThis approach additionally has the advantage of being less disruptive than what is implemented in this PR. No rule changes are engaged at all until such time as the adjustment block's timestamp is 4 hours ahead of median time past, so there is no risk to un-upgraded miners outside of a time-warp regime because a block more than 2 hours in the future is considered invalid. I think this modified rule would make it safe to switch to BIP8 instead of BIP9 for deployment.",
    "body": "Given the issues with the mailing list, and the lack of a PR adding the BIP, I'm going to write some thoughts I have regarding the general idea of the proposal here. My apologies if this seems like the wrong forum.\r\n\r\nI'm a bit surprised that the possibility of using forward blocks to achieve future scaling is not mentioned in the BIP or PR, since the absolute removal of the time-warp attack vector closes off the possibility of using the bug for forward- and backwards-compatible soft-fork scaling in the future, as I covered in [my talk at Scaling Bitcoin](https://scalingbitcoin.org/transcript/tokyo2018/forward-blocks) last year.\r\n\r\nWhile developing the idea of forward blocks I sent a vulnerability report email to some of the senior Bitcoin Core developers. In it I outlayed some analysis of the attack vectors, and a suggested solution which both prevents the sort of attacks which could be devastating to the network, while still allowing uses of the time-warp \"feature\" to achieve on-chain scaling when it becomes necessary at some point in the future. I'll quote that part of the email here:\r\n\r\n> ...It turns out this is to the advantage of bitcoin users as the time warp is an integral part of how we can make a block size increase and/or PoW change without a hard fork, and thereby allow such proposals be decided on their own merits rather than as a yea or nay decision on hard forks generally.\r\n>\r\n> ...This is an issue that has been known about for some time and persists as unfixed because, as I understand it, the likelihood of attack was low and likelihood of coordinated user response high.  And since ideas like Forward Blocks require the time-warp bug to achieve forwards-compatible scaling of settlement capacity, I would think it short sighted to advocate for \"fixing\" the bug now.\r\n>\r\n> However in discussing forward blocks with another developer, I happened upon a solution that would allow for the worst scenarios to be avoided while not blocking off the later deployment of forward blocks: If the current block timestamp is more than 4 hours beyond the median time of the past 11 blocks, then the difficulty adjustment errors if the adjustment would exceed a smaller limiting factor than the normal +/- 4x.  Specifically I recommend ensuring that the block timestamp is within the range [start + 600\\*2015 - 4800, start + 600\\*2015 + 4800]. 4800 = 80 * 60 = 1 hour 20 minutes.  This would allow decreases in the inter-block time of no more than 12.6% the first year of purposeful adjustments, and is easy to implement.\r\n>\r\n> (Potentially the lower limit could be removed as it would be nice for the difficulty to be able to quickly reset, but asymmetric adjustments have been a source of error in the past.)\r\n>\r\n> This would prevent ... [censored bug disclosure] ... while still allowing a rate of growth for forward blocks or other proposals to that is conservative slow enough as to not cause catastrophic failure. Requiring the block timestamp to be 4 hours ahead of the median time past ensures this rule is very unlikely to be engaged during normal operation of a healthy network, for which normal [unconstrained] difficulty adjustments can still occur.\r\n\r\nThis approach additionally has the advantage of being *less* disruptive than what is implemented in this PR. No rule changes are engaged at all until such time as the adjustment block's timestamp is 4 hours ahead of median time past, so there is no risk to un-upgraded miners outside of a time-warp regime because a block more than 2 hours in the future is considered invalid. I *think* this modified rule would make it safe to switch to BIP8 instead of BIP9 for deployment.",
    "reactions": {
      "url": "https://api.github.com/repos/bitcoin/bitcoin/issues/comments/469822630/reactions",
      "total_count": 0,
      "+1": 0,
      "-1": 0,
      "laugh": 0,
      "hooray": 0,
      "confused": 0,
      "heart": 0,
      "rocket": 0,
      "eyes": 0
    },
    "performed_via_github_app": null
  },
  {
    "url": "https://api.github.com/repos/bitcoin/bitcoin/issues/comments/469835210",
    "html_url": "https://github.com/bitcoin/bitcoin/pull/15482#issuecomment-469835210",
    "issue_url": "https://api.github.com/repos/bitcoin/bitcoin/issues/15482",
    "id": 469835210,
    "node_id": "MDEyOklzc3VlQ29tbWVudDQ2OTgzNTIxMA==",
    "user": {
      "login": "TheBlueMatt",
      "id": 649246,
      "node_id": "MDQ6VXNlcjY0OTI0Ng==",
      "avatar_url": "https://avatars.githubusercontent.com/u/649246?v=4",
      "gravatar_id": "",
      "url": "https://api.github.com/users/TheBlueMatt",
      "html_url": "https://github.com/TheBlueMatt",
      "followers_url": "https://api.github.com/users/TheBlueMatt/followers",
      "following_url": "https://api.github.com/users/TheBlueMatt/following{/other_user}",
      "gists_url": "https://api.github.com/users/TheBlueMatt/gists{/gist_id}",
      "starred_url": "https://api.github.com/users/TheBlueMatt/starred{/owner}{/repo}",
      "subscriptions_url": "https://api.github.com/users/TheBlueMatt/subscriptions",
      "organizations_url": "https://api.github.com/users/TheBlueMatt/orgs",
      "repos_url": "https://api.github.com/users/TheBlueMatt/repos",
      "events_url": "https://api.github.com/users/TheBlueMatt/events{/privacy}",
      "received_events_url": "https://api.github.com/users/TheBlueMatt/received_events",
      "type": "User",
      "site_admin": false
    },
    "created_at": "2019-03-05T19:57:59Z",
    "updated_at": "2019-03-05T19:57:59Z",
    "author_association": "CONTRIBUTOR",
    "body_html": "<p dir=\"auto\">This is not the appropriate forum for having that discussion. I'll include further motivation in the email to the mailing list, so lets wait for the mailing list to be online before we open it up further.</p>",
    "body_text": "This is not the appropriate forum for having that discussion. I'll include further motivation in the email to the mailing list, so lets wait for the mailing list to be online before we open it up further.",
    "body": "This is not the appropriate forum for having that discussion. I'll include further motivation in the email to the mailing list, so lets wait for the mailing list to be online before we open it up further.",
    "reactions": {
      "url": "https://api.github.com/repos/bitcoin/bitcoin/issues/comments/469835210/reactions",
      "total_count": 0,
      "+1": 0,
      "-1": 0,
      "laugh": 0,
      "hooray": 0,
      "confused": 0,
      "heart": 0,
      "rocket": 0,
      "eyes": 0
    },
    "performed_via_github_app": null
  },
  {
    "url": "https://api.github.com/repos/bitcoin/bitcoin/issues/comments/469836918",
    "html_url": "https://github.com/bitcoin/bitcoin/pull/15482#issuecomment-469836918",
    "issue_url": "https://api.github.com/repos/bitcoin/bitcoin/issues/15482",
    "id": 469836918,
    "node_id": "MDEyOklzc3VlQ29tbWVudDQ2OTgzNjkxOA==",
    "user": {
      "login": "maaku",
      "id": 69154,
      "node_id": "MDQ6VXNlcjY5MTU0",
      "avatar_url": "https://avatars.githubusercontent.com/u/69154?v=4",
      "gravatar_id": "",
      "url": "https://api.github.com/users/maaku",
      "html_url": "https://github.com/maaku",
      "followers_url": "https://api.github.com/users/maaku/followers",
      "following_url": "https://api.github.com/users/maaku/following{/other_user}",
      "gists_url": "https://api.github.com/users/maaku/gists{/gist_id}",
      "starred_url": "https://api.github.com/users/maaku/starred{/owner}{/repo}",
      "subscriptions_url": "https://api.github.com/users/maaku/subscriptions",
      "organizations_url": "https://api.github.com/users/maaku/orgs",
      "repos_url": "https://api.github.com/users/maaku/repos",
      "events_url": "https://api.github.com/users/maaku/events{/privacy}",
      "received_events_url": "https://api.github.com/users/maaku/received_events",
      "type": "User",
      "site_admin": false
    },
    "created_at": "2019-03-05T20:03:00Z",
    "updated_at": "2019-03-05T20:03:00Z",
    "author_association": "CONTRIBUTOR",
    "body_html": "<p dir=\"auto\">Ok, I hope you do (I'm not on the bitcoin mailing list).</p>",
    "body_text": "Ok, I hope you do (I'm not on the bitcoin mailing list).",
    "body": "Ok, I hope you do (I'm not on the bitcoin mailing list).",
    "reactions": {
      "url": "https://api.github.com/repos/bitcoin/bitcoin/issues/comments/469836918/reactions",
      "total_count": 0,
      "+1": 0,
      "-1": 0,
      "laugh": 0,
      "hooray": 0,
      "confused": 0,
      "heart": 0,
      "rocket": 0,
      "eyes": 0
    },
    "performed_via_github_app": null
  },
  {
    "url": "https://api.github.com/repos/bitcoin/bitcoin/issues/comments/471042401",
    "html_url": "https://github.com/bitcoin/bitcoin/pull/15482#issuecomment-471042401",
    "issue_url": "https://api.github.com/repos/bitcoin/bitcoin/issues/15482",
    "id": 471042401,
    "node_id": "MDEyOklzc3VlQ29tbWVudDQ3MTA0MjQwMQ==",
    "user": {
      "login": "Sjors",
      "id": 10217,
      "node_id": "MDQ6VXNlcjEwMjE3",
      "avatar_url": "https://avatars.githubusercontent.com/u/10217?v=4",
      "gravatar_id": "",
      "url": "https://api.github.com/users/Sjors",
      "html_url": "https://github.com/Sjors",
      "followers_url": "https://api.github.com/users/Sjors/followers",
      "following_url": "https://api.github.com/users/Sjors/following{/other_user}",
      "gists_url": "https://api.github.com/users/Sjors/gists{/gist_id}",
      "starred_url": "https://api.github.com/users/Sjors/starred{/owner}{/repo}",
      "subscriptions_url": "https://api.github.com/users/Sjors/subscriptions",
      "organizations_url": "https://api.github.com/users/Sjors/orgs",
      "repos_url": "https://api.github.com/users/Sjors/repos",
      "events_url": "https://api.github.com/users/Sjors/events{/privacy}",
      "received_events_url": "https://api.github.com/users/Sjors/received_events",
      "type": "User",
      "site_admin": false
    },
    "created_at": "2019-03-08T19:12:45Z",
    "updated_at": "2019-03-08T19:12:45Z",
    "author_association": "MEMBER",
    "body_html": "<p dir=\"auto\"><a class=\"user-mention notranslate\" data-hovercard-type=\"user\" data-hovercard-url=\"/users/maaku/hovercard\" data-octo-click=\"hovercard-link-click\" data-octo-dimensions=\"link_type:self\" href=\"https://github.com/maaku\">@maaku</a> e.a. FYI mailinglist threads:</p>\n<ul dir=\"auto\">\n<li><a href=\"https://lists.linuxfoundation.org/pipermail/bitcoin-dev/2019-March/016714.html\" rel=\"nofollow\">overall proposal</a></li>\n<li><a href=\"https://lists.linuxfoundation.org/pipermail/bitcoin-dev/2019-March/016722.html\" rel=\"nofollow\">OP_CODESEPERATOR discussion</a></li>\n<li><a href=\"https://lists.linuxfoundation.org/pipermail/bitcoin-dev/2019-March/016723.html\" rel=\"nofollow\">Sighash Type Byte</a></li>\n</ul>\n<p dir=\"auto\">Can you split the soft-fork rules into separate commits, away from the activation logic? E.g. it's hard to spot the <code class=\"notranslate\">OP_CODESEPERATOR</code> change if you're not familiar with <a class=\"issue-link js-issue-link\" data-error-text=\"Failed to load title\" data-id=\"261779160\" data-permission-text=\"Title is private\" data-url=\"https://github.com/bitcoin/bitcoin/issues/11423\" data-hovercard-type=\"pull_request\" data-hovercard-url=\"/bitcoin/bitcoin/pull/11423/hovercard\" href=\"https://github.com/bitcoin/bitcoin/pull/11423\">#11423</a> that made it non-standard.</p>\n<p dir=\"auto\">Shameless review plug for <a class=\"issue-link js-issue-link\" data-error-text=\"Failed to load title\" data-id=\"287204826\" data-permission-text=\"Title is private\" data-url=\"https://github.com/bitcoin/bitcoin/issues/12134\" data-hovercard-type=\"pull_request\" data-hovercard-url=\"/bitcoin/bitcoin/pull/12134/hovercard\" href=\"https://github.com/bitcoin/bitcoin/pull/12134\">#12134</a>, so we can test the interaction with older nodes.</p>",
    "body_text": "@maaku e.a. FYI mailinglist threads:\n\noverall proposal\nOP_CODESEPERATOR discussion\nSighash Type Byte\n\nCan you split the soft-fork rules into separate commits, away from the activation logic? E.g. it's hard to spot the OP_CODESEPERATOR change if you're not familiar with #11423 that made it non-standard.\nShameless review plug for #12134, so we can test the interaction with older nodes.",
    "body": "@maaku e.a. FYI mailinglist threads:\r\n* [overall proposal](https://lists.linuxfoundation.org/pipermail/bitcoin-dev/2019-March/016714.html)\r\n* [OP_CODESEPERATOR discussion](https://lists.linuxfoundation.org/pipermail/bitcoin-dev/2019-March/016722.html)\r\n* [Sighash Type Byte](\r\nhttps://lists.linuxfoundation.org/pipermail/bitcoin-dev/2019-March/016723.html)\r\n\r\nCan you split the soft-fork rules into separate commits, away from the activation logic? E.g. it's hard to spot the `OP_CODESEPERATOR` change if you're not familiar with #11423 that made it non-standard.\r\n\r\nShameless review plug for #12134, so we can test the interaction with older nodes.",
    "reactions": {
      "url": "https://api.github.com/repos/bitcoin/bitcoin/issues/comments/471042401/reactions",
      "total_count": 0,
      "+1": 0,
      "-1": 0,
      "laugh": 0,
      "hooray": 0,
      "confused": 0,
      "heart": 0,
      "rocket": 0,
      "eyes": 0
    },
    "performed_via_github_app": null
  },
  {
    "url": "https://api.github.com/repos/bitcoin/bitcoin/issues/comments/536544557",
    "html_url": "https://github.com/bitcoin/bitcoin/pull/15482#issuecomment-536544557",
    "issue_url": "https://api.github.com/repos/bitcoin/bitcoin/issues/15482",
    "id": 536544557,
    "node_id": "MDEyOklzc3VlQ29tbWVudDUzNjU0NDU1Nw==",
    "user": {
      "login": "DrahtBot",
      "id": 39886733,
      "node_id": "MDQ6VXNlcjM5ODg2NzMz",
      "avatar_url": "https://avatars.githubusercontent.com/u/39886733?v=4",
      "gravatar_id": "",
      "url": "https://api.github.com/users/DrahtBot",
      "html_url": "https://github.com/DrahtBot",
      "followers_url": "https://api.github.com/users/DrahtBot/followers",
      "following_url": "https://api.github.com/users/DrahtBot/following{/other_user}",
      "gists_url": "https://api.github.com/users/DrahtBot/gists{/gist_id}",
      "starred_url": "https://api.github.com/users/DrahtBot/starred{/owner}{/repo}",
      "subscriptions_url": "https://api.github.com/users/DrahtBot/subscriptions",
      "organizations_url": "https://api.github.com/users/DrahtBot/orgs",
      "repos_url": "https://api.github.com/users/DrahtBot/repos",
      "events_url": "https://api.github.com/users/DrahtBot/events{/privacy}",
      "received_events_url": "https://api.github.com/users/DrahtBot/received_events",
      "type": "User",
      "site_admin": false
    },
    "created_at": "2019-09-30T12:45:34Z",
    "updated_at": "2019-09-30T12:45:34Z",
    "author_association": "CONTRIBUTOR",
    "body_html": "There hasn't been much activity lately and the patch still needs rebase, so I am closing this for now. Please let me know when you want to continue working on this, so the pull request can be re-opened.",
    "body_text": "There hasn't been much activity lately and the patch still needs rebase, so I am closing this for now. Please let me know when you want to continue working on this, so the pull request can be re-opened.",
    "body": "<!--5fd3d806e98f4a0ca80977bb178665a0-->There hasn't been much activity lately and the patch still needs rebase, so I am closing this for now. Please let me know when you want to continue working on this, so the pull request can be re-opened.",
    "reactions": {
      "url": "https://api.github.com/repos/bitcoin/bitcoin/issues/comments/536544557/reactions",
      "total_count": 0,
      "+1": 0,
      "-1": 0,
      "laugh": 0,
      "hooray": 0,
      "confused": 0,
      "heart": 0,
      "rocket": 0,
      "eyes": 0
    },
    "performed_via_github_app": null
  },
  {
    "url": "https://api.github.com/repos/bitcoin/bitcoin/issues/comments/536546546",
    "html_url": "https://github.com/bitcoin/bitcoin/pull/15482#issuecomment-536546546",
    "issue_url": "https://api.github.com/repos/bitcoin/bitcoin/issues/15482",
    "id": 536546546,
    "node_id": "MDEyOklzc3VlQ29tbWVudDUzNjU0NjU0Ng==",
    "user": {
      "login": "maaku",
      "id": 69154,
      "node_id": "MDQ6VXNlcjY5MTU0",
      "avatar_url": "https://avatars.githubusercontent.com/u/69154?v=4",
      "gravatar_id": "",
      "url": "https://api.github.com/users/maaku",
      "html_url": "https://github.com/maaku",
      "followers_url": "https://api.github.com/users/maaku/followers",
      "following_url": "https://api.github.com/users/maaku/following{/other_user}",
      "gists_url": "https://api.github.com/users/maaku/gists{/gist_id}",
      "starred_url": "https://api.github.com/users/maaku/starred{/owner}{/repo}",
      "subscriptions_url": "https://api.github.com/users/maaku/subscriptions",
      "organizations_url": "https://api.github.com/users/maaku/orgs",
      "repos_url": "https://api.github.com/users/maaku/repos",
      "events_url": "https://api.github.com/users/maaku/events{/privacy}",
      "received_events_url": "https://api.github.com/users/maaku/received_events",
      "type": "User",
      "site_admin": false
    },
    "created_at": "2019-09-30T12:51:10Z",
    "updated_at": "2019-09-30T12:51:10Z",
    "author_association": "CONTRIBUTOR",
    "body_html": "<p dir=\"auto\">Please tell me that we don’t have a bot that auto closes issues.</p>",
    "body_text": "Please tell me that we don’t have a bot that auto closes issues.",
    "body": "Please tell me that we don’t have a bot that auto closes issues.",
    "reactions": {
      "url": "https://api.github.com/repos/bitcoin/bitcoin/issues/comments/536546546/reactions",
      "total_count": 0,
      "+1": 0,
      "-1": 0,
      "laugh": 0,
      "hooray": 0,
      "confused": 0,
      "heart": 0,
      "rocket": 0,
      "eyes": 0
    },
    "performed_via_github_app": null
  },
  {
    "url": "https://api.github.com/repos/bitcoin/bitcoin/issues/comments/536560914",
    "html_url": "https://github.com/bitcoin/bitcoin/pull/15482#issuecomment-536560914",
    "issue_url": "https://api.github.com/repos/bitcoin/bitcoin/issues/15482",
    "id": 536560914,
    "node_id": "MDEyOklzc3VlQ29tbWVudDUzNjU2MDkxNA==",
    "user": {
      "login": "Sjors",
      "id": 10217,
      "node_id": "MDQ6VXNlcjEwMjE3",
      "avatar_url": "https://avatars.githubusercontent.com/u/10217?v=4",
      "gravatar_id": "",
      "url": "https://api.github.com/users/Sjors",
      "html_url": "https://github.com/Sjors",
      "followers_url": "https://api.github.com/users/Sjors/followers",
      "following_url": "https://api.github.com/users/Sjors/following{/other_user}",
      "gists_url": "https://api.github.com/users/Sjors/gists{/gist_id}",
      "starred_url": "https://api.github.com/users/Sjors/starred{/owner}{/repo}",
      "subscriptions_url": "https://api.github.com/users/Sjors/subscriptions",
      "organizations_url": "https://api.github.com/users/Sjors/orgs",
      "repos_url": "https://api.github.com/users/Sjors/repos",
      "events_url": "https://api.github.com/users/Sjors/events{/privacy}",
      "received_events_url": "https://api.github.com/users/Sjors/received_events",
      "type": "User",
      "site_admin": false
    },
    "created_at": "2019-09-30T13:29:11Z",
    "updated_at": "2019-09-30T13:29:11Z",
    "author_association": "MEMBER",
    "body_html": "<p dir=\"auto\">We do, but this one should stay open, <a class=\"user-mention notranslate\" data-hovercard-type=\"user\" data-hovercard-url=\"/users/MarcoFalke/hovercard\" data-octo-click=\"hovercard-link-click\" data-octo-dimensions=\"link_type:self\" href=\"https://github.com/MarcoFalke\">@MarcoFalke</a>.</p>",
    "body_text": "We do, but this one should stay open, @MarcoFalke.",
    "body": "We do, but this one should stay open, @MarcoFalke.",
    "reactions": {
      "url": "https://api.github.com/repos/bitcoin/bitcoin/issues/comments/536560914/reactions",
      "total_count": 0,
      "+1": 0,
      "-1": 0,
      "laugh": 0,
      "hooray": 0,
      "confused": 0,
      "heart": 0,
      "rocket": 0,
      "eyes": 0
    },
    "performed_via_github_app": null
  },
  {
    "url": "https://api.github.com/repos/bitcoin/bitcoin/issues/comments/536566024",
    "html_url": "https://github.com/bitcoin/bitcoin/pull/15482#issuecomment-536566024",
    "issue_url": "https://api.github.com/repos/bitcoin/bitcoin/issues/15482",
    "id": 536566024,
    "node_id": "MDEyOklzc3VlQ29tbWVudDUzNjU2NjAyNA==",
    "user": {
      "login": "maaku",
      "id": 69154,
      "node_id": "MDQ6VXNlcjY5MTU0",
      "avatar_url": "https://avatars.githubusercontent.com/u/69154?v=4",
      "gravatar_id": "",
      "url": "https://api.github.com/users/maaku",
      "html_url": "https://github.com/maaku",
      "followers_url": "https://api.github.com/users/maaku/followers",
      "following_url": "https://api.github.com/users/maaku/following{/other_user}",
      "gists_url": "https://api.github.com/users/maaku/gists{/gist_id}",
      "starred_url": "https://api.github.com/users/maaku/starred{/owner}{/repo}",
      "subscriptions_url": "https://api.github.com/users/maaku/subscriptions",
      "organizations_url": "https://api.github.com/users/maaku/orgs",
      "repos_url": "https://api.github.com/users/maaku/repos",
      "events_url": "https://api.github.com/users/maaku/events{/privacy}",
      "received_events_url": "https://api.github.com/users/maaku/received_events",
      "type": "User",
      "site_admin": false
    },
    "created_at": "2019-09-30T13:41:20Z",
    "updated_at": "2019-09-30T13:41:20Z",
    "author_association": "CONTRIBUTOR",
    "body_html": "<p dir=\"auto\">I highly suggest you disable that functionality altogether. There is no circumstance where it should ever be used. Actual human maintainers need to be involved to evaluate whether issues have been fixed, or to explain a wontfix closure. Worse it drives contributors away: nothing is more frustrating and alienating than to submit an issue, have it sit for a while, then be robo-closed. There is absolutely no reason to have an issue-closing bot.</p>",
    "body_text": "I highly suggest you disable that functionality altogether. There is no circumstance where it should ever be used. Actual human maintainers need to be involved to evaluate whether issues have been fixed, or to explain a wontfix closure. Worse it drives contributors away: nothing is more frustrating and alienating than to submit an issue, have it sit for a while, then be robo-closed. There is absolutely no reason to have an issue-closing bot.",
    "body": "I highly suggest you disable that functionality altogether. There is no circumstance where it should ever be used. Actual human maintainers need to be involved to evaluate whether issues have been fixed, or to explain a wontfix closure. Worse it drives contributors away: nothing is more frustrating and alienating than to submit an issue, have it sit for a while, then be robo-closed. There is absolutely no reason to have an issue-closing bot.",
    "reactions": {
      "url": "https://api.github.com/repos/bitcoin/bitcoin/issues/comments/536566024/reactions",
      "total_count": 1,
      "+1": 1,
      "-1": 0,
      "laugh": 0,
      "hooray": 0,
      "confused": 0,
      "heart": 0,
      "rocket": 0,
      "eyes": 0
    },
    "performed_via_github_app": null
  },
  {
    "url": "https://api.github.com/repos/bitcoin/bitcoin/issues/comments/536568604",
    "html_url": "https://github.com/bitcoin/bitcoin/pull/15482#issuecomment-536568604",
    "issue_url": "https://api.github.com/repos/bitcoin/bitcoin/issues/15482",
    "id": 536568604,
    "node_id": "MDEyOklzc3VlQ29tbWVudDUzNjU2ODYwNA==",
    "user": {
      "login": "practicalswift",
      "id": 7826565,
      "node_id": "MDQ6VXNlcjc4MjY1NjU=",
      "avatar_url": "https://avatars.githubusercontent.com/u/7826565?v=4",
      "gravatar_id": "",
      "url": "https://api.github.com/users/practicalswift",
      "html_url": "https://github.com/practicalswift",
      "followers_url": "https://api.github.com/users/practicalswift/followers",
      "following_url": "https://api.github.com/users/practicalswift/following{/other_user}",
      "gists_url": "https://api.github.com/users/practicalswift/gists{/gist_id}",
      "starred_url": "https://api.github.com/users/practicalswift/starred{/owner}{/repo}",
      "subscriptions_url": "https://api.github.com/users/practicalswift/subscriptions",
      "organizations_url": "https://api.github.com/users/practicalswift/orgs",
      "repos_url": "https://api.github.com/users/practicalswift/repos",
      "events_url": "https://api.github.com/users/practicalswift/events{/privacy}",
      "received_events_url": "https://api.github.com/users/practicalswift/received_events",
      "type": "User",
      "site_admin": false
    },
    "created_at": "2019-09-30T13:47:24Z",
    "updated_at": "2019-09-30T13:47:24Z",
    "author_association": "CONTRIBUTOR",
    "body_html": "<p dir=\"auto\"><a class=\"user-mention notranslate\" data-hovercard-type=\"user\" data-hovercard-url=\"/users/maaku/hovercard\" data-octo-click=\"hovercard-link-click\" data-octo-dimensions=\"link_type:self\" href=\"https://github.com/maaku\">@maaku</a> AFAIK <code class=\"notranslate\">DrahtBot</code> does not close issues - only stale PR:s :)</p>",
    "body_text": "@maaku AFAIK DrahtBot does not close issues - only stale PR:s :)",
    "body": "@maaku AFAIK `DrahtBot` does not close issues - only stale PR:s :)",
    "reactions": {
      "url": "https://api.github.com/repos/bitcoin/bitcoin/issues/comments/536568604/reactions",
      "total_count": 0,
      "+1": 0,
      "-1": 0,
      "laugh": 0,
      "hooray": 0,
      "confused": 0,
      "heart": 0,
      "rocket": 0,
      "eyes": 0
    },
    "performed_via_github_app": null
  },
  {
    "url": "https://api.github.com/repos/bitcoin/bitcoin/issues/comments/536570418",
    "html_url": "https://github.com/bitcoin/bitcoin/pull/15482#issuecomment-536570418",
    "issue_url": "https://api.github.com/repos/bitcoin/bitcoin/issues/15482",
    "id": 536570418,
    "node_id": "MDEyOklzc3VlQ29tbWVudDUzNjU3MDQxOA==",
    "user": {
      "login": "maaku",
      "id": 69154,
      "node_id": "MDQ6VXNlcjY5MTU0",
      "avatar_url": "https://avatars.githubusercontent.com/u/69154?v=4",
      "gravatar_id": "",
      "url": "https://api.github.com/users/maaku",
      "html_url": "https://github.com/maaku",
      "followers_url": "https://api.github.com/users/maaku/followers",
      "following_url": "https://api.github.com/users/maaku/following{/other_user}",
      "gists_url": "https://api.github.com/users/maaku/gists{/gist_id}",
      "starred_url": "https://api.github.com/users/maaku/starred{/owner}{/repo}",
      "subscriptions_url": "https://api.github.com/users/maaku/subscriptions",
      "organizations_url": "https://api.github.com/users/maaku/orgs",
      "repos_url": "https://api.github.com/users/maaku/repos",
      "events_url": "https://api.github.com/users/maaku/events{/privacy}",
      "received_events_url": "https://api.github.com/users/maaku/received_events",
      "type": "User",
      "site_admin": false
    },
    "created_at": "2019-09-30T13:51:33Z",
    "updated_at": "2019-09-30T13:51:33Z",
    "author_association": "CONTRIBUTOR",
    "body_html": "<p dir=\"auto\">I don't see the relevant difference. But anyway, this'll be my last comment on the matter.</p>",
    "body_text": "I don't see the relevant difference. But anyway, this'll be my last comment on the matter.",
    "body": "I don't see the relevant difference. But anyway, this'll be my last comment on the matter.",
    "reactions": {
      "url": "https://api.github.com/repos/bitcoin/bitcoin/issues/comments/536570418/reactions",
      "total_count": 0,
      "+1": 0,
      "-1": 0,
      "laugh": 0,
      "hooray": 0,
      "confused": 0,
      "heart": 0,
      "rocket": 0,
      "eyes": 0
    },
    "performed_via_github_app": null
  },
  {
    "url": "https://api.github.com/repos/bitcoin/bitcoin/issues/comments/536578212",
    "html_url": "https://github.com/bitcoin/bitcoin/pull/15482#issuecomment-536578212",
    "issue_url": "https://api.github.com/repos/bitcoin/bitcoin/issues/15482",
    "id": 536578212,
    "node_id": "MDEyOklzc3VlQ29tbWVudDUzNjU3ODIxMg==",
    "user": {
      "login": "maflcko",
      "id": 6399679,
      "node_id": "MDQ6VXNlcjYzOTk2Nzk=",
      "avatar_url": "https://avatars.githubusercontent.com/u/6399679?v=4",
      "gravatar_id": "",
      "url": "https://api.github.com/users/maflcko",
      "html_url": "https://github.com/maflcko",
      "followers_url": "https://api.github.com/users/maflcko/followers",
      "following_url": "https://api.github.com/users/maflcko/following{/other_user}",
      "gists_url": "https://api.github.com/users/maflcko/gists{/gist_id}",
      "starred_url": "https://api.github.com/users/maflcko/starred{/owner}{/repo}",
      "subscriptions_url": "https://api.github.com/users/maflcko/subscriptions",
      "organizations_url": "https://api.github.com/users/maflcko/orgs",
      "repos_url": "https://api.github.com/users/maflcko/repos",
      "events_url": "https://api.github.com/users/maflcko/events{/privacy}",
      "received_events_url": "https://api.github.com/users/maflcko/received_events",
      "type": "User",
      "site_admin": false
    },
    "created_at": "2019-09-30T14:08:15Z",
    "updated_at": "2019-09-30T14:08:15Z",
    "author_association": "MEMBER",
    "body_html": "<p dir=\"auto\">This pull request is the wrong place for meta discussions. You can contact me directly or open a new issue if you have any concerns or suggestions for improvements.</p>",
    "body_text": "This pull request is the wrong place for meta discussions. You can contact me directly or open a new issue if you have any concerns or suggestions for improvements.",
    "body": "This pull request is the wrong place for meta discussions. You can contact me directly or open a new issue if you have any concerns or suggestions for improvements.",
    "reactions": {
      "url": "https://api.github.com/repos/bitcoin/bitcoin/issues/comments/536578212/reactions",
      "total_count": 0,
      "+1": 0,
      "-1": 0,
      "laugh": 0,
      "hooray": 0,
      "confused": 0,
      "heart": 0,
      "rocket": 0,
      "eyes": 0
    },
    "performed_via_github_app": null
  },
  {
    "url": "https://api.github.com/repos/bitcoin/bitcoin/issues/comments/553098245",
    "html_url": "https://github.com/bitcoin/bitcoin/pull/15482#issuecomment-553098245",
    "issue_url": "https://api.github.com/repos/bitcoin/bitcoin/issues/15482",
    "id": 553098245,
    "node_id": "MDEyOklzc3VlQ29tbWVudDU1MzA5ODI0NQ==",
    "user": {
      "login": "TheBlueMatt",
      "id": 649246,
      "node_id": "MDQ6VXNlcjY0OTI0Ng==",
      "avatar_url": "https://avatars.githubusercontent.com/u/649246?v=4",
      "gravatar_id": "",
      "url": "https://api.github.com/users/TheBlueMatt",
      "html_url": "https://github.com/TheBlueMatt",
      "followers_url": "https://api.github.com/users/TheBlueMatt/followers",
      "following_url": "https://api.github.com/users/TheBlueMatt/following{/other_user}",
      "gists_url": "https://api.github.com/users/TheBlueMatt/gists{/gist_id}",
      "starred_url": "https://api.github.com/users/TheBlueMatt/starred{/owner}{/repo}",
      "subscriptions_url": "https://api.github.com/users/TheBlueMatt/subscriptions",
      "organizations_url": "https://api.github.com/users/TheBlueMatt/orgs",
      "repos_url": "https://api.github.com/users/TheBlueMatt/repos",
      "events_url": "https://api.github.com/users/TheBlueMatt/events{/privacy}",
      "received_events_url": "https://api.github.com/users/TheBlueMatt/received_events",
      "type": "User",
      "site_admin": false
    },
    "created_at": "2019-11-12T20:23:41Z",
    "updated_at": "2019-11-12T20:23:41Z",
    "author_association": "CONTRIBUTOR",
    "body_html": "<p dir=\"auto\">The BIP needs cleanup, so no use leaving this open.</p>",
    "body_text": "The BIP needs cleanup, so no use leaving this open.",
    "body": "The BIP needs cleanup, so no use leaving this open.",
    "reactions": {
      "url": "https://api.github.com/repos/bitcoin/bitcoin/issues/comments/553098245/reactions",
      "total_count": 0,
      "+1": 0,
      "-1": 0,
      "laugh": 0,
      "hooray": 0,
      "confused": 0,
      "heart": 0,
      "rocket": 0,
      "eyes": 0
    },
    "performed_via_github_app": null
  }
]
