[
  {
    "url": "https://api.github.com/repos/bitcoin/bitcoin/issues/comments/2057708243",
    "html_url": "https://github.com/bitcoin/bitcoin/issues/29883#issuecomment-2057708243",
    "issue_url": "https://api.github.com/repos/bitcoin/bitcoin/issues/29883",
    "id": 2057708243,
    "node_id": "IC_kwDOABII5856piLT",
    "user": {
      "login": "laanwj",
      "id": 126646,
      "node_id": "MDQ6VXNlcjEyNjY0Ng==",
      "avatar_url": "https://avatars.githubusercontent.com/u/126646?v=4",
      "gravatar_id": "",
      "url": "https://api.github.com/users/laanwj",
      "html_url": "https://github.com/laanwj",
      "followers_url": "https://api.github.com/users/laanwj/followers",
      "following_url": "https://api.github.com/users/laanwj/following{/other_user}",
      "gists_url": "https://api.github.com/users/laanwj/gists{/gist_id}",
      "starred_url": "https://api.github.com/users/laanwj/starred{/owner}{/repo}",
      "subscriptions_url": "https://api.github.com/users/laanwj/subscriptions",
      "organizations_url": "https://api.github.com/users/laanwj/orgs",
      "repos_url": "https://api.github.com/users/laanwj/repos",
      "events_url": "https://api.github.com/users/laanwj/events{/privacy}",
      "received_events_url": "https://api.github.com/users/laanwj/received_events",
      "type": "User",
      "site_admin": false
    },
    "created_at": "2024-04-15T20:03:26Z",
    "updated_at": "2024-04-15T20:03:40Z",
    "author_association": "MEMBER",
    "body_html": "<p dir=\"auto\">Oh, i think part of the trigger here is that some of the wallets are backups of the same database at different times, so the logs can get re-used because the unique id matches (?).</p>",
    "body_text": "Oh, i think part of the trigger here is that some of the wallets are backups of the same database at different times, so the logs can get re-used because the unique id matches (?).",
    "body": "Oh, i think part of the trigger here is that some of the wallets are backups of the same database at different times, so the logs can get re-used because the unique id matches (?).",
    "reactions": {
      "url": "https://api.github.com/repos/bitcoin/bitcoin/issues/comments/2057708243/reactions",
      "total_count": 0,
      "+1": 0,
      "-1": 0,
      "laugh": 0,
      "hooray": 0,
      "confused": 0,
      "heart": 0,
      "rocket": 0,
      "eyes": 0
    },
    "performed_via_github_app": null
  },
  {
    "url": "https://api.github.com/repos/bitcoin/bitcoin/issues/comments/2057925564",
    "html_url": "https://github.com/bitcoin/bitcoin/issues/29883#issuecomment-2057925564",
    "issue_url": "https://api.github.com/repos/bitcoin/bitcoin/issues/29883",
    "id": 2057925564,
    "node_id": "IC_kwDOABII5856qXO8",
    "user": {
      "login": "achow101",
      "id": 3782274,
      "node_id": "MDQ6VXNlcjM3ODIyNzQ=",
      "avatar_url": "https://avatars.githubusercontent.com/u/3782274?v=4",
      "gravatar_id": "",
      "url": "https://api.github.com/users/achow101",
      "html_url": "https://github.com/achow101",
      "followers_url": "https://api.github.com/users/achow101/followers",
      "following_url": "https://api.github.com/users/achow101/following{/other_user}",
      "gists_url": "https://api.github.com/users/achow101/gists{/gist_id}",
      "starred_url": "https://api.github.com/users/achow101/starred{/owner}{/repo}",
      "subscriptions_url": "https://api.github.com/users/achow101/subscriptions",
      "organizations_url": "https://api.github.com/users/achow101/orgs",
      "repos_url": "https://api.github.com/users/achow101/repos",
      "events_url": "https://api.github.com/users/achow101/events{/privacy}",
      "received_events_url": "https://api.github.com/users/achow101/received_events",
      "type": "User",
      "site_admin": false
    },
    "created_at": "2024-04-15T22:34:51Z",
    "updated_at": "2024-04-15T22:34:51Z",
    "author_association": "MEMBER",
    "body_html": "<p dir=\"auto\">Hmm, the contents of the log files shouldn't matter since the database files have their LSNs reset when the wallet is closed. Is it possible that the wallet files were last opened in an unclean shutdown, or maybe with older versions that didn't always flush on shutdown?</p>\n<p dir=\"auto\">Also, yes, having duplicate files will result in the same unique id which means that the log files can be applied to the wrong file, which will really mess things up.</p>",
    "body_text": "Hmm, the contents of the log files shouldn't matter since the database files have their LSNs reset when the wallet is closed. Is it possible that the wallet files were last opened in an unclean shutdown, or maybe with older versions that didn't always flush on shutdown?\nAlso, yes, having duplicate files will result in the same unique id which means that the log files can be applied to the wrong file, which will really mess things up.",
    "body": "Hmm, the contents of the log files shouldn't matter since the database files have their LSNs reset when the wallet is closed. Is it possible that the wallet files were last opened in an unclean shutdown, or maybe with older versions that didn't always flush on shutdown?\r\n\r\nAlso, yes, having duplicate files will result in the same unique id which means that the log files can be applied to the wrong file, which will really mess things up.",
    "reactions": {
      "url": "https://api.github.com/repos/bitcoin/bitcoin/issues/comments/2057925564/reactions",
      "total_count": 0,
      "+1": 0,
      "-1": 0,
      "laugh": 0,
      "hooray": 0,
      "confused": 0,
      "heart": 0,
      "rocket": 0,
      "eyes": 0
    },
    "performed_via_github_app": null
  },
  {
    "url": "https://api.github.com/repos/bitcoin/bitcoin/issues/comments/2058216588",
    "html_url": "https://github.com/bitcoin/bitcoin/issues/29883#issuecomment-2058216588",
    "issue_url": "https://api.github.com/repos/bitcoin/bitcoin/issues/29883",
    "id": 2058216588,
    "node_id": "IC_kwDOABII5856reSM",
    "user": {
      "login": "laanwj",
      "id": 126646,
      "node_id": "MDQ6VXNlcjEyNjY0Ng==",
      "avatar_url": "https://avatars.githubusercontent.com/u/126646?v=4",
      "gravatar_id": "",
      "url": "https://api.github.com/users/laanwj",
      "html_url": "https://github.com/laanwj",
      "followers_url": "https://api.github.com/users/laanwj/followers",
      "following_url": "https://api.github.com/users/laanwj/following{/other_user}",
      "gists_url": "https://api.github.com/users/laanwj/gists{/gist_id}",
      "starred_url": "https://api.github.com/users/laanwj/starred{/owner}{/repo}",
      "subscriptions_url": "https://api.github.com/users/laanwj/subscriptions",
      "organizations_url": "https://api.github.com/users/laanwj/orgs",
      "repos_url": "https://api.github.com/users/laanwj/repos",
      "events_url": "https://api.github.com/users/laanwj/events{/privacy}",
      "received_events_url": "https://api.github.com/users/laanwj/received_events",
      "type": "User",
      "site_admin": false
    },
    "created_at": "2024-04-16T04:41:46Z",
    "updated_at": "2024-04-16T04:41:46Z",
    "author_association": "MEMBER",
    "body_html": "<blockquote>\n<p dir=\"auto\">Is it possible that the wallet files were last opened in an unclean shutdown, or maybe with older versions that didn't always flush on shutdown?</p>\n</blockquote>\n<p dir=\"auto\">Yes, this is possible, it's a random grab bag of wallet database files (not even sure there's not a litecoin or dogecoin one in there).</p>\n<blockquote>\n<p dir=\"auto\">Also, yes, having duplicate files will result in the same unique id which means that the log files can be applied to the wrong file, which will really mess things up.</p>\n</blockquote>\n<p dir=\"auto\">Honestly after this train wreck i'm at the point where i am more confident about your bdb parsing code to get things right than bdb itself.</p>",
    "body_text": "Is it possible that the wallet files were last opened in an unclean shutdown, or maybe with older versions that didn't always flush on shutdown?\n\nYes, this is possible, it's a random grab bag of wallet database files (not even sure there's not a litecoin or dogecoin one in there).\n\nAlso, yes, having duplicate files will result in the same unique id which means that the log files can be applied to the wrong file, which will really mess things up.\n\nHonestly after this train wreck i'm at the point where i am more confident about your bdb parsing code to get things right than bdb itself.",
    "body": "> Is it possible that the wallet files were last opened in an unclean shutdown, or maybe with older versions that didn't always flush on shutdown?\r\n\r\nYes, this is possible, it's a random grab bag of wallet database files (not even sure there's not a litecoin or dogecoin one in there).\r\n\r\n> Also, yes, having duplicate files will result in the same unique id which means that the log files can be applied to the wrong file, which will really mess things up.\r\n\r\nHonestly after this train wreck i'm at the point where i am more confident about your bdb parsing code to get things right than bdb itself.",
    "reactions": {
      "url": "https://api.github.com/repos/bitcoin/bitcoin/issues/comments/2058216588/reactions",
      "total_count": 0,
      "+1": 0,
      "-1": 0,
      "laugh": 0,
      "hooray": 0,
      "confused": 0,
      "heart": 0,
      "rocket": 0,
      "eyes": 0
    },
    "performed_via_github_app": null
  },
  {
    "url": "https://api.github.com/repos/bitcoin/bitcoin/issues/comments/2058298297",
    "html_url": "https://github.com/bitcoin/bitcoin/issues/29883#issuecomment-2058298297",
    "issue_url": "https://api.github.com/repos/bitcoin/bitcoin/issues/29883",
    "id": 2058298297,
    "node_id": "IC_kwDOABII5856ryO5",
    "user": {
      "login": "laanwj",
      "id": 126646,
      "node_id": "MDQ6VXNlcjEyNjY0Ng==",
      "avatar_url": "https://avatars.githubusercontent.com/u/126646?v=4",
      "gravatar_id": "",
      "url": "https://api.github.com/users/laanwj",
      "html_url": "https://github.com/laanwj",
      "followers_url": "https://api.github.com/users/laanwj/followers",
      "following_url": "https://api.github.com/users/laanwj/following{/other_user}",
      "gists_url": "https://api.github.com/users/laanwj/gists{/gist_id}",
      "starred_url": "https://api.github.com/users/laanwj/starred{/owner}{/repo}",
      "subscriptions_url": "https://api.github.com/users/laanwj/subscriptions",
      "organizations_url": "https://api.github.com/users/laanwj/orgs",
      "repos_url": "https://api.github.com/users/laanwj/repos",
      "events_url": "https://api.github.com/users/laanwj/events{/privacy}",
      "received_events_url": "https://api.github.com/users/laanwj/received_events",
      "type": "User",
      "site_admin": false
    },
    "created_at": "2024-04-16T06:07:10Z",
    "updated_at": "2024-04-16T06:21:02Z",
    "author_association": "MEMBER",
    "body_html": "<p dir=\"auto\">You were right: with the LSN check, one of the wallets (a backup) from 2015 trips up:</p>\n<div class=\"snippet-clipboard-content notranslate position-relative overflow-auto\" data-snippet-clipboard-copy-content=\"terminate called after throwing an instance of 'std::runtime_error'\n  what():  LSNs are not reset, this database is not completely flushed. Please reopen then close the database with a version that has BDB support\"><pre class=\"notranslate\"><code class=\"notranslate\">terminate called after throwing an instance of 'std::runtime_error'\n  what():  LSNs are not reset, this database is not completely flushed. Please reopen then close the database with a version that has BDB support\n</code></pre></div>",
    "body_text": "You were right: with the LSN check, one of the wallets (a backup) from 2015 trips up:\nterminate called after throwing an instance of 'std::runtime_error'\n  what():  LSNs are not reset, this database is not completely flushed. Please reopen then close the database with a version that has BDB support",
    "body": "You were right: with the LSN check, one of the wallets (a backup) from 2015 trips up:\r\n```\r\nterminate called after throwing an instance of 'std::runtime_error'\r\n  what():  LSNs are not reset, this database is not completely flushed. Please reopen then close the database with a version that has BDB support\r\n```",
    "reactions": {
      "url": "https://api.github.com/repos/bitcoin/bitcoin/issues/comments/2058298297/reactions",
      "total_count": 0,
      "+1": 0,
      "-1": 0,
      "laugh": 0,
      "hooray": 0,
      "confused": 0,
      "heart": 0,
      "rocket": 0,
      "eyes": 0
    },
    "performed_via_github_app": null
  }
]
