{
  "url": "https://api.github.com/repos/bitcoin/bitcoin/issues/1370",
  "repository_url": "https://api.github.com/repos/bitcoin/bitcoin",
  "labels_url": "https://api.github.com/repos/bitcoin/bitcoin/issues/1370/labels{/name}",
  "comments_url": "https://api.github.com/repos/bitcoin/bitcoin/issues/1370/comments",
  "events_url": "https://api.github.com/repos/bitcoin/bitcoin/issues/1370/events",
  "html_url": "https://github.com/bitcoin/bitcoin/pull/1370",
  "id": 4679536,
  "node_id": "MDExOlB1bGxSZXF1ZXN0MTM5NjY3NQ==",
  "number": 1370,
  "title": "add client startup time as an entry to debug.log",
  "user": {
    "login": "Diapolo",
    "id": 1419649,
    "node_id": "MDQ6VXNlcjE0MTk2NDk=",
    "avatar_url": "https://avatars.githubusercontent.com/u/1419649?v=4",
    "gravatar_id": "",
    "url": "https://api.github.com/users/Diapolo",
    "html_url": "https://github.com/Diapolo",
    "followers_url": "https://api.github.com/users/Diapolo/followers",
    "following_url": "https://api.github.com/users/Diapolo/following{/other_user}",
    "gists_url": "https://api.github.com/users/Diapolo/gists{/gist_id}",
    "starred_url": "https://api.github.com/users/Diapolo/starred{/owner}{/repo}",
    "subscriptions_url": "https://api.github.com/users/Diapolo/subscriptions",
    "organizations_url": "https://api.github.com/users/Diapolo/orgs",
    "repos_url": "https://api.github.com/users/Diapolo/repos",
    "events_url": "https://api.github.com/users/Diapolo/events{/privacy}",
    "received_events_url": "https://api.github.com/users/Diapolo/received_events",
    "type": "User",
    "site_admin": false
  },
  "labels": [

  ],
  "state": "closed",
  "locked": true,
  "assignee": null,
  "assignees": [

  ],
  "milestone": null,
  "comments": 12,
  "created_at": "2012-05-21T21:11:07Z",
  "updated_at": "2021-09-08T10:11:44Z",
  "closed_at": "2012-05-26T08:55:18Z",
  "author_association": "NONE",
  "active_lock_reason": "resolved",
  "draft": false,
  "pull_request": {
    "url": "https://api.github.com/repos/bitcoin/bitcoin/pulls/1370",
    "html_url": "https://github.com/bitcoin/bitcoin/pull/1370",
    "diff_url": "https://github.com/bitcoin/bitcoin/pull/1370.diff",
    "patch_url": "https://github.com/bitcoin/bitcoin/pull/1370.patch",
    "merged_at": "2012-05-26T08:55:18Z"
  },
  "body_html": "<ul dir=\"auto\">\n<li>make ClientModel::formatClientStartupTime() return a QString</li>\n</ul>\n<p dir=\"auto\">Note: Logged time in debug.log differs by a few seconds from the one displayed in the Debug window because of different initialisation times.</p>",
  "body_text": "make ClientModel::formatClientStartupTime() return a QString\n\nNote: Logged time in debug.log differs by a few seconds from the one displayed in the Debug window because of different initialisation times.",
  "body": "- make ClientModel::formatClientStartupTime() return a QString\n\nNote: Logged time in debug.log differs by a few seconds from the one displayed in the Debug window because of different initialisation times.\n",
  "closed_by": {
    "login": "sipa",
    "id": 548488,
    "node_id": "MDQ6VXNlcjU0ODQ4OA==",
    "avatar_url": "https://avatars.githubusercontent.com/u/548488?v=4",
    "gravatar_id": "",
    "url": "https://api.github.com/users/sipa",
    "html_url": "https://github.com/sipa",
    "followers_url": "https://api.github.com/users/sipa/followers",
    "following_url": "https://api.github.com/users/sipa/following{/other_user}",
    "gists_url": "https://api.github.com/users/sipa/gists{/gist_id}",
    "starred_url": "https://api.github.com/users/sipa/starred{/owner}{/repo}",
    "subscriptions_url": "https://api.github.com/users/sipa/subscriptions",
    "organizations_url": "https://api.github.com/users/sipa/orgs",
    "repos_url": "https://api.github.com/users/sipa/repos",
    "events_url": "https://api.github.com/users/sipa/events{/privacy}",
    "received_events_url": "https://api.github.com/users/sipa/received_events",
    "type": "User",
    "site_admin": false
  },
  "reactions": {
    "url": "https://api.github.com/repos/bitcoin/bitcoin/issues/1370/reactions",
    "total_count": 0,
    "+1": 0,
    "-1": 0,
    "laugh": 0,
    "hooray": 0,
    "confused": 0,
    "heart": 0,
    "rocket": 0,
    "eyes": 0
  },
  "timeline_url": "https://api.github.com/repos/bitcoin/bitcoin/issues/1370/timeline",
  "performed_via_github_app": null,
  "state_reason": null
}
