{
  "url": "https://api.github.com/repos/bitcoin/bitcoin/issues/12402",
  "repository_url": "https://api.github.com/repos/bitcoin/bitcoin",
  "labels_url": "https://api.github.com/repos/bitcoin/bitcoin/issues/12402/labels{/name}",
  "comments_url": "https://api.github.com/repos/bitcoin/bitcoin/issues/12402/comments",
  "events_url": "https://api.github.com/repos/bitcoin/bitcoin/issues/12402/events",
  "html_url": "https://github.com/bitcoin/bitcoin/pull/12402",
  "id": 296064408,
  "node_id": "MDExOlB1bGxSZXF1ZXN0MTY4MzgwNDk1",
  "number": 12402,
  "title": "[depends] expat 2.2.5, ccache 3.4.1, miniupnpc 2.0.20180203",
  "user": {
    "login": "fanquake",
    "id": 863730,
    "node_id": "MDQ6VXNlcjg2MzczMA==",
    "avatar_url": "https://avatars.githubusercontent.com/u/863730?v=4",
    "gravatar_id": "",
    "url": "https://api.github.com/users/fanquake",
    "html_url": "https://github.com/fanquake",
    "followers_url": "https://api.github.com/users/fanquake/followers",
    "following_url": "https://api.github.com/users/fanquake/following{/other_user}",
    "gists_url": "https://api.github.com/users/fanquake/gists{/gist_id}",
    "starred_url": "https://api.github.com/users/fanquake/starred{/owner}{/repo}",
    "subscriptions_url": "https://api.github.com/users/fanquake/subscriptions",
    "organizations_url": "https://api.github.com/users/fanquake/orgs",
    "repos_url": "https://api.github.com/users/fanquake/repos",
    "events_url": "https://api.github.com/users/fanquake/events{/privacy}",
    "received_events_url": "https://api.github.com/users/fanquake/received_events",
    "type": "User",
    "site_admin": false
  },
  "labels": [
    {
      "id": 61889416,
      "node_id": "MDU6TGFiZWw2MTg4OTQxNg==",
      "url": "https://api.github.com/repos/bitcoin/bitcoin/labels/Build%20system",
      "name": "Build system",
      "color": "5319e7",
      "default": false,
      "description": null
    }
  ],
  "state": "closed",
  "locked": true,
  "assignee": null,
  "assignees": [

  ],
  "milestone": null,
  "comments": 13,
  "created_at": "2018-02-10T02:11:38Z",
  "updated_at": "2021-09-08T11:46:58Z",
  "closed_at": "2018-02-16T16:41:11Z",
  "author_association": "MEMBER",
  "active_lock_reason": "resolved",
  "draft": false,
  "pull_request": {
    "url": "https://api.github.com/repos/bitcoin/bitcoin/pulls/12402",
    "html_url": "https://github.com/bitcoin/bitcoin/pull/12402",
    "diff_url": "https://github.com/bitcoin/bitcoin/pull/12402.diff",
    "patch_url": "https://github.com/bitcoin/bitcoin/pull/12402.patch",
    "merged_at": "2018-02-16T16:41:11Z"
  },
  "body_html": "<p dir=\"auto\">miniupnpc changelog: <a href=\"http://miniupnp.free.fr/files/changelog.php?file=miniupnpc-2.0.20180203.tar.gz\" rel=\"nofollow\">http://miniupnp.free.fr/files/changelog.php?file=miniupnpc-2.0.20180203.tar.gz</a><br>\n2.0.20180203 includes fixes for the recent buffer overflow and segfault issues, see <a class=\"issue-link js-issue-link\" data-error-text=\"Failed to load title\" data-id=\"280731198\" data-permission-text=\"Title is private\" data-url=\"https://github.com/miniupnp/miniupnp/issues/268\" data-hovercard-type=\"issue\" data-hovercard-url=\"/miniupnp/miniupnp/issues/268/hovercard\" href=\"https://github.com/miniupnp/miniupnp/issues/268\">miniupnp/miniupnp#268</a>.</p>\n<p dir=\"auto\">expat changelog: <a href=\"https://github.com/libexpat/libexpat/blob/R_2_2_5/expat/Changes\">https://github.com/libexpat/libexpat/blob/R_2_2_5/expat/Changes</a><br>\n2.2.2 &amp; 2.2.3 included security fixes.</p>\n<p dir=\"auto\">ccache changelog: <a href=\"https://ccache.samba.org/releasenotes.html#_ccache_3_4_1\" rel=\"nofollow\">https://ccache.samba.org/releasenotes.html#_ccache_3_4_1</a></p>\n<p dir=\"auto\">Also includes latest config.guess and config.sub.</p>",
  "body_text": "miniupnpc changelog: http://miniupnp.free.fr/files/changelog.php?file=miniupnpc-2.0.20180203.tar.gz\n2.0.20180203 includes fixes for the recent buffer overflow and segfault issues, see miniupnp/miniupnp#268.\nexpat changelog: https://github.com/libexpat/libexpat/blob/R_2_2_5/expat/Changes\n2.2.2 & 2.2.3 included security fixes.\nccache changelog: https://ccache.samba.org/releasenotes.html#_ccache_3_4_1\nAlso includes latest config.guess and config.sub.",
  "body": "miniupnpc changelog: http://miniupnp.free.fr/files/changelog.php?file=miniupnpc-2.0.20180203.tar.gz\r\n2.0.20180203 includes fixes for the recent buffer overflow and segfault issues, see https://github.com/miniupnp/miniupnp/issues/268.\r\n\r\nexpat changelog: https://github.com/libexpat/libexpat/blob/R_2_2_5/expat/Changes\r\n2.2.2 & 2.2.3 included security fixes.\r\n\r\nccache changelog: https://ccache.samba.org/releasenotes.html#_ccache_3_4_1\r\n\r\nAlso includes latest config.guess and config.sub.",
  "closed_by": {
    "login": "laanwj",
    "id": 126646,
    "node_id": "MDQ6VXNlcjEyNjY0Ng==",
    "avatar_url": "https://avatars.githubusercontent.com/u/126646?v=4",
    "gravatar_id": "",
    "url": "https://api.github.com/users/laanwj",
    "html_url": "https://github.com/laanwj",
    "followers_url": "https://api.github.com/users/laanwj/followers",
    "following_url": "https://api.github.com/users/laanwj/following{/other_user}",
    "gists_url": "https://api.github.com/users/laanwj/gists{/gist_id}",
    "starred_url": "https://api.github.com/users/laanwj/starred{/owner}{/repo}",
    "subscriptions_url": "https://api.github.com/users/laanwj/subscriptions",
    "organizations_url": "https://api.github.com/users/laanwj/orgs",
    "repos_url": "https://api.github.com/users/laanwj/repos",
    "events_url": "https://api.github.com/users/laanwj/events{/privacy}",
    "received_events_url": "https://api.github.com/users/laanwj/received_events",
    "type": "User",
    "site_admin": false
  },
  "reactions": {
    "url": "https://api.github.com/repos/bitcoin/bitcoin/issues/12402/reactions",
    "total_count": 0,
    "+1": 0,
    "-1": 0,
    "laugh": 0,
    "hooray": 0,
    "confused": 0,
    "heart": 0,
    "rocket": 0,
    "eyes": 0
  },
  "timeline_url": "https://api.github.com/repos/bitcoin/bitcoin/issues/12402/timeline",
  "performed_via_github_app": null,
  "state_reason": null
}
