{
  "url": "https://api.github.com/repos/bitcoin/bitcoin/issues/2502",
  "repository_url": "https://api.github.com/repos/bitcoin/bitcoin",
  "labels_url": "https://api.github.com/repos/bitcoin/bitcoin/issues/2502/labels{/name}",
  "comments_url": "https://api.github.com/repos/bitcoin/bitcoin/issues/2502/comments",
  "events_url": "https://api.github.com/repos/bitcoin/bitcoin/issues/2502/events",
  "html_url": "https://github.com/bitcoin/bitcoin/pull/2502",
  "id": 13020033,
  "node_id": "MDExOlB1bGxSZXF1ZXN0NTA4Mjc5NA==",
  "number": 2502,
  "title": "Bitcoin-Qt: add missing setIcon() for MacDoc when on Mac",
  "user": {
    "login": "Diapolo",
    "id": 1419649,
    "node_id": "MDQ6VXNlcjE0MTk2NDk=",
    "avatar_url": "https://avatars.githubusercontent.com/u/1419649?v=4",
    "gravatar_id": "",
    "url": "https://api.github.com/users/Diapolo",
    "html_url": "https://github.com/Diapolo",
    "followers_url": "https://api.github.com/users/Diapolo/followers",
    "following_url": "https://api.github.com/users/Diapolo/following{/other_user}",
    "gists_url": "https://api.github.com/users/Diapolo/gists{/gist_id}",
    "starred_url": "https://api.github.com/users/Diapolo/starred{/owner}{/repo}",
    "subscriptions_url": "https://api.github.com/users/Diapolo/subscriptions",
    "organizations_url": "https://api.github.com/users/Diapolo/orgs",
    "repos_url": "https://api.github.com/users/Diapolo/repos",
    "events_url": "https://api.github.com/users/Diapolo/events{/privacy}",
    "received_events_url": "https://api.github.com/users/Diapolo/received_events",
    "type": "User",
    "site_admin": false
  },
  "labels": [

  ],
  "state": "closed",
  "locked": true,
  "assignee": null,
  "assignees": [

  ],
  "milestone": null,
  "comments": 7,
  "created_at": "2013-04-10T13:59:55Z",
  "updated_at": "2021-09-08T10:21:00Z",
  "closed_at": "2013-04-10T14:39:50Z",
  "author_association": "NONE",
  "active_lock_reason": "resolved",
  "draft": false,
  "pull_request": {
    "url": "https://api.github.com/repos/bitcoin/bitcoin/pulls/2502",
    "html_url": "https://github.com/bitcoin/bitcoin/pull/2502",
    "diff_url": "https://github.com/bitcoin/bitcoin/pull/2502.diff",
    "patch_url": "https://github.com/bitcoin/bitcoin/pull/2502.patch",
    "merged_at": null
  },
  "body_html": "<p dir=\"auto\"><a class=\"user-mention notranslate\" data-hovercard-type=\"user\" data-hovercard-url=\"/users/jonasschnelli/hovercard\" data-octo-click=\"hovercard-link-click\" data-octo-dimensions=\"link_type:self\" href=\"https://github.com/jonasschnelli\">@jonasschnelli</a> Can you verify if this is needed, at least it seems to be missing as we have THIS in the current code: <a href=\"https://github.com/bitcoin/bitcoin/blob/master/src/qt/bitcoingui.cpp#L317\">https://github.com/bitcoin/bitcoin/blob/master/src/qt/bitcoingui.cpp#L317</a></p>",
  "body_text": "@jonasschnelli Can you verify if this is needed, at least it seems to be missing as we have THIS in the current code: https://github.com/bitcoin/bitcoin/blob/master/src/qt/bitcoingui.cpp#L317",
  "body": "@jonasschnelli Can you verify if this is needed, at least it seems to be missing as we have THIS in the current code: https://github.com/bitcoin/bitcoin/blob/master/src/qt/bitcoingui.cpp#L317\n",
  "closed_by": {
    "login": "Diapolo",
    "id": 1419649,
    "node_id": "MDQ6VXNlcjE0MTk2NDk=",
    "avatar_url": "https://avatars.githubusercontent.com/u/1419649?v=4",
    "gravatar_id": "",
    "url": "https://api.github.com/users/Diapolo",
    "html_url": "https://github.com/Diapolo",
    "followers_url": "https://api.github.com/users/Diapolo/followers",
    "following_url": "https://api.github.com/users/Diapolo/following{/other_user}",
    "gists_url": "https://api.github.com/users/Diapolo/gists{/gist_id}",
    "starred_url": "https://api.github.com/users/Diapolo/starred{/owner}{/repo}",
    "subscriptions_url": "https://api.github.com/users/Diapolo/subscriptions",
    "organizations_url": "https://api.github.com/users/Diapolo/orgs",
    "repos_url": "https://api.github.com/users/Diapolo/repos",
    "events_url": "https://api.github.com/users/Diapolo/events{/privacy}",
    "received_events_url": "https://api.github.com/users/Diapolo/received_events",
    "type": "User",
    "site_admin": false
  },
  "reactions": {
    "url": "https://api.github.com/repos/bitcoin/bitcoin/issues/2502/reactions",
    "total_count": 0,
    "+1": 0,
    "-1": 0,
    "laugh": 0,
    "hooray": 0,
    "confused": 0,
    "heart": 0,
    "rocket": 0,
    "eyes": 0
  },
  "timeline_url": "https://api.github.com/repos/bitcoin/bitcoin/issues/2502/timeline",
  "performed_via_github_app": null,
  "state_reason": null
}
