[
  {
    "url": "https://api.github.com/repos/bitcoin/bitcoin/issues/comments/776068694",
    "html_url": "https://github.com/bitcoin/bitcoin/pull/21128#issuecomment-776068694",
    "issue_url": "https://api.github.com/repos/bitcoin/bitcoin/issues/21128",
    "id": 776068694,
    "node_id": "MDEyOklzc3VlQ29tbWVudDc3NjA2ODY5NA==",
    "user": {
      "login": "fanquake",
      "id": 863730,
      "node_id": "MDQ6VXNlcjg2MzczMA==",
      "avatar_url": "https://avatars.githubusercontent.com/u/863730?v=4",
      "gravatar_id": "",
      "url": "https://api.github.com/users/fanquake",
      "html_url": "https://github.com/fanquake",
      "followers_url": "https://api.github.com/users/fanquake/followers",
      "following_url": "https://api.github.com/users/fanquake/following{/other_user}",
      "gists_url": "https://api.github.com/users/fanquake/gists{/gist_id}",
      "starred_url": "https://api.github.com/users/fanquake/starred{/owner}{/repo}",
      "subscriptions_url": "https://api.github.com/users/fanquake/subscriptions",
      "organizations_url": "https://api.github.com/users/fanquake/orgs",
      "repos_url": "https://api.github.com/users/fanquake/repos",
      "events_url": "https://api.github.com/users/fanquake/events{/privacy}",
      "received_events_url": "https://api.github.com/users/fanquake/received_events",
      "type": "User",
      "site_admin": false
    },
    "created_at": "2021-02-09T16:33:53Z",
    "updated_at": "2021-02-09T16:33:53Z",
    "author_association": "MEMBER",
    "body_html": "<p dir=\"auto\">Thanks, however this is a duplicate of <a class=\"issue-link js-issue-link\" data-error-text=\"Failed to load title\" data-id=\"791124831\" data-permission-text=\"Title is private\" data-url=\"https://github.com/bitcoin/bitcoin/issues/20976\" data-hovercard-type=\"pull_request\" data-hovercard-url=\"/bitcoin/bitcoin/pull/20976/hovercard\" href=\"https://github.com/bitcoin/bitcoin/pull/20976\">#20976</a>.</p>",
    "body_text": "Thanks, however this is a duplicate of #20976.",
    "body": "Thanks, however this is a duplicate of #20976.",
    "reactions": {
      "url": "https://api.github.com/repos/bitcoin/bitcoin/issues/comments/776068694/reactions",
      "total_count": 0,
      "+1": 0,
      "-1": 0,
      "laugh": 0,
      "hooray": 0,
      "confused": 0,
      "heart": 0,
      "rocket": 0,
      "eyes": 0
    },
    "performed_via_github_app": null
  }
]
