{
  "url": "https://api.github.com/repos/bitcoin/bitcoin/issues/20558",
  "repository_url": "https://api.github.com/repos/bitcoin/bitcoin",
  "labels_url": "https://api.github.com/repos/bitcoin/bitcoin/issues/20558/labels{/name}",
  "comments_url": "https://api.github.com/repos/bitcoin/bitcoin/issues/20558/comments",
  "events_url": "https://api.github.com/repos/bitcoin/bitcoin/issues/20558/events",
  "html_url": "https://github.com/bitcoin/bitcoin/pull/20558",
  "id": 756175805,
  "node_id": "MDExOlB1bGxSZXF1ZXN0NTMxNzYyNTg1",
  "number": 20558,
  "title": "test: Add MaybeCompactWalletDB tsan suppression (take 2)",
  "user": {
    "login": "maflcko",
    "id": 6399679,
    "node_id": "MDQ6VXNlcjYzOTk2Nzk=",
    "avatar_url": "https://avatars.githubusercontent.com/u/6399679?v=4",
    "gravatar_id": "",
    "url": "https://api.github.com/users/maflcko",
    "html_url": "https://github.com/maflcko",
    "followers_url": "https://api.github.com/users/maflcko/followers",
    "following_url": "https://api.github.com/users/maflcko/following{/other_user}",
    "gists_url": "https://api.github.com/users/maflcko/gists{/gist_id}",
    "starred_url": "https://api.github.com/users/maflcko/starred{/owner}{/repo}",
    "subscriptions_url": "https://api.github.com/users/maflcko/subscriptions",
    "organizations_url": "https://api.github.com/users/maflcko/orgs",
    "repos_url": "https://api.github.com/users/maflcko/repos",
    "events_url": "https://api.github.com/users/maflcko/events{/privacy}",
    "received_events_url": "https://api.github.com/users/maflcko/received_events",
    "type": "User",
    "site_admin": false
  },
  "labels": [
    {
      "id": 62963516,
      "node_id": "MDU6TGFiZWw2Mjk2MzUxNg==",
      "url": "https://api.github.com/repos/bitcoin/bitcoin/labels/Tests",
      "name": "Tests",
      "color": "d4c5f9",
      "default": false,
      "description": null
    },
    {
      "id": 955867938,
      "node_id": "MDU6TGFiZWw5NTU4Njc5Mzg=",
      "url": "https://api.github.com/repos/bitcoin/bitcoin/labels/Needs%20rebase",
      "name": "Needs rebase",
      "color": "cccccc",
      "default": false,
      "description": ""
    }
  ],
  "state": "closed",
  "locked": true,
  "assignee": null,
  "assignees": [

  ],
  "milestone": null,
  "comments": 5,
  "created_at": "2020-12-03T13:02:43Z",
  "updated_at": "2022-08-16T17:20:22Z",
  "closed_at": "2021-04-15T06:00:14Z",
  "author_association": "MEMBER",
  "active_lock_reason": "resolved",
  "draft": false,
  "pull_request": {
    "url": "https://api.github.com/repos/bitcoin/bitcoin/pulls/20558",
    "html_url": "https://github.com/bitcoin/bitcoin/pull/20558",
    "diff_url": "https://github.com/bitcoin/bitcoin/pull/20558.diff",
    "patch_url": "https://github.com/bitcoin/bitcoin/pull/20558.patch",
    "merged_at": null
  },
  "body_html": "<p dir=\"auto\">Previous attempt: <a class=\"issue-link js-issue-link\" data-error-text=\"Failed to load title\" data-id=\"727338493\" data-permission-text=\"Title is private\" data-url=\"https://github.com/bitcoin/bitcoin/issues/20218\" data-hovercard-type=\"pull_request\" data-hovercard-url=\"/bitcoin/bitcoin/pull/20218/hovercard\" href=\"https://github.com/bitcoin/bitcoin/pull/20218\">#20218</a></p>",
  "body_text": "Previous attempt: #20218",
  "body": "Previous attempt: #20218",
  "closed_by": {
    "login": "maflcko",
    "id": 6399679,
    "node_id": "MDQ6VXNlcjYzOTk2Nzk=",
    "avatar_url": "https://avatars.githubusercontent.com/u/6399679?v=4",
    "gravatar_id": "",
    "url": "https://api.github.com/users/maflcko",
    "html_url": "https://github.com/maflcko",
    "followers_url": "https://api.github.com/users/maflcko/followers",
    "following_url": "https://api.github.com/users/maflcko/following{/other_user}",
    "gists_url": "https://api.github.com/users/maflcko/gists{/gist_id}",
    "starred_url": "https://api.github.com/users/maflcko/starred{/owner}{/repo}",
    "subscriptions_url": "https://api.github.com/users/maflcko/subscriptions",
    "organizations_url": "https://api.github.com/users/maflcko/orgs",
    "repos_url": "https://api.github.com/users/maflcko/repos",
    "events_url": "https://api.github.com/users/maflcko/events{/privacy}",
    "received_events_url": "https://api.github.com/users/maflcko/received_events",
    "type": "User",
    "site_admin": false
  },
  "reactions": {
    "url": "https://api.github.com/repos/bitcoin/bitcoin/issues/20558/reactions",
    "total_count": 0,
    "+1": 0,
    "-1": 0,
    "laugh": 0,
    "hooray": 0,
    "confused": 0,
    "heart": 0,
    "rocket": 0,
    "eyes": 0
  },
  "timeline_url": "https://api.github.com/repos/bitcoin/bitcoin/issues/20558/timeline",
  "performed_via_github_app": null,
  "state_reason": null
}
