[
  {
    "url": "https://api.github.com/repos/bitcoin/bitcoin/issues/comments/374647271",
    "html_url": "https://github.com/bitcoin/bitcoin/pull/12736#issuecomment-374647271",
    "issue_url": "https://api.github.com/repos/bitcoin/bitcoin/issues/12736",
    "id": 374647271,
    "node_id": "MDEyOklzc3VlQ29tbWVudDM3NDY0NzI3MQ==",
    "user": {
      "login": "jnewbery",
      "id": 1063656,
      "node_id": "MDQ6VXNlcjEwNjM2NTY=",
      "avatar_url": "https://avatars.githubusercontent.com/u/1063656?v=4",
      "gravatar_id": "",
      "url": "https://api.github.com/users/jnewbery",
      "html_url": "https://github.com/jnewbery",
      "followers_url": "https://api.github.com/users/jnewbery/followers",
      "following_url": "https://api.github.com/users/jnewbery/following{/other_user}",
      "gists_url": "https://api.github.com/users/jnewbery/gists{/gist_id}",
      "starred_url": "https://api.github.com/users/jnewbery/starred{/owner}{/repo}",
      "subscriptions_url": "https://api.github.com/users/jnewbery/subscriptions",
      "organizations_url": "https://api.github.com/users/jnewbery/orgs",
      "repos_url": "https://api.github.com/users/jnewbery/repos",
      "events_url": "https://api.github.com/users/jnewbery/events{/privacy}",
      "received_events_url": "https://api.github.com/users/jnewbery/received_events",
      "type": "User",
      "site_admin": false
    },
    "created_at": "2018-03-20T15:45:42Z",
    "updated_at": "2018-03-20T15:45:42Z",
    "author_association": "CONTRIBUTOR",
    "body_html": "<p dir=\"auto\">I'm on the fence about this one. <code class=\"notranslate\">RPC_INVALID_REQUEST</code> does seem like a more sensible error for this, but is this just change for change's sake? The response already contains the help text which shows how many arguments are required and optional. Is receiving a <code class=\"notranslate\">RPC_MISC_ERROR</code> causing any problems for users?</p>\n<p dir=\"auto\">Changing this is an API change so would require release notes.</p>",
    "body_text": "I'm on the fence about this one. RPC_INVALID_REQUEST does seem like a more sensible error for this, but is this just change for change's sake? The response already contains the help text which shows how many arguments are required and optional. Is receiving a RPC_MISC_ERROR causing any problems for users?\nChanging this is an API change so would require release notes.",
    "body": "I'm on the fence about this one. `RPC_INVALID_REQUEST` does seem like a more sensible error for this, but is this just change for change's sake? The response already contains the help text which shows how many arguments are required and optional. Is receiving a `RPC_MISC_ERROR` causing any problems for users?\r\n\r\nChanging this is an API change so would require release notes.",
    "reactions": {
      "url": "https://api.github.com/repos/bitcoin/bitcoin/issues/comments/374647271/reactions",
      "total_count": 0,
      "+1": 0,
      "-1": 0,
      "laugh": 0,
      "hooray": 0,
      "confused": 0,
      "heart": 0,
      "rocket": 0,
      "eyes": 0
    },
    "performed_via_github_app": null
  },
  {
    "url": "https://api.github.com/repos/bitcoin/bitcoin/issues/comments/374654469",
    "html_url": "https://github.com/bitcoin/bitcoin/pull/12736#issuecomment-374654469",
    "issue_url": "https://api.github.com/repos/bitcoin/bitcoin/issues/12736",
    "id": 374654469,
    "node_id": "MDEyOklzc3VlQ29tbWVudDM3NDY1NDQ2OQ==",
    "user": {
      "login": "lutangar",
      "id": 568769,
      "node_id": "MDQ6VXNlcjU2ODc2OQ==",
      "avatar_url": "https://avatars.githubusercontent.com/u/568769?v=4",
      "gravatar_id": "",
      "url": "https://api.github.com/users/lutangar",
      "html_url": "https://github.com/lutangar",
      "followers_url": "https://api.github.com/users/lutangar/followers",
      "following_url": "https://api.github.com/users/lutangar/following{/other_user}",
      "gists_url": "https://api.github.com/users/lutangar/gists{/gist_id}",
      "starred_url": "https://api.github.com/users/lutangar/starred{/owner}{/repo}",
      "subscriptions_url": "https://api.github.com/users/lutangar/subscriptions",
      "organizations_url": "https://api.github.com/users/lutangar/orgs",
      "repos_url": "https://api.github.com/users/lutangar/repos",
      "events_url": "https://api.github.com/users/lutangar/events{/privacy}",
      "received_events_url": "https://api.github.com/users/lutangar/received_events",
      "type": "User",
      "site_admin": false
    },
    "created_at": "2018-03-20T16:04:06Z",
    "updated_at": "2018-03-20T16:04:06Z",
    "author_association": "CONTRIBUTOR",
    "body_html": "<p dir=\"auto\">No it might not be a problem for users as is.<br>\nThe motivations behind this are:</p>\n<ul dir=\"auto\">\n<li>consistency on the Exception/Error type thrown by the RPC layer</li>\n<li>more meaning on the error code thrown by the RPC layer</li>\n<li>more consistency for the help command output</li>\n</ul>\n<p dir=\"auto\">...to eventually raise discussion on the RPC Http layer.</p>\n<p dir=\"auto\">My take on this might not be right. Maybe should I focus on one of the above first? What would be your take on this?</p>",
    "body_text": "No it might not be a problem for users as is.\nThe motivations behind this are:\n\nconsistency on the Exception/Error type thrown by the RPC layer\nmore meaning on the error code thrown by the RPC layer\nmore consistency for the help command output\n\n...to eventually raise discussion on the RPC Http layer.\nMy take on this might not be right. Maybe should I focus on one of the above first? What would be your take on this?",
    "body": "No it might not be a problem for users as is. \r\nThe motivations behind this are:\r\n* consistency on the Exception/Error type thrown by the RPC layer\r\n* more meaning on the error code thrown by the RPC layer\r\n* more consistency for the help command output\r\n\r\n...to eventually raise discussion on the RPC Http layer.\r\n\r\nMy take on this might not be right. Maybe should I focus on one of the above first? What would be your take on this?",
    "reactions": {
      "url": "https://api.github.com/repos/bitcoin/bitcoin/issues/comments/374654469/reactions",
      "total_count": 0,
      "+1": 0,
      "-1": 0,
      "laugh": 0,
      "hooray": 0,
      "confused": 0,
      "heart": 0,
      "rocket": 0,
      "eyes": 0
    },
    "performed_via_github_app": null
  },
  {
    "url": "https://api.github.com/repos/bitcoin/bitcoin/issues/comments/374692688",
    "html_url": "https://github.com/bitcoin/bitcoin/pull/12736#issuecomment-374692688",
    "issue_url": "https://api.github.com/repos/bitcoin/bitcoin/issues/12736",
    "id": 374692688,
    "node_id": "MDEyOklzc3VlQ29tbWVudDM3NDY5MjY4OA==",
    "user": {
      "login": "jnewbery",
      "id": 1063656,
      "node_id": "MDQ6VXNlcjEwNjM2NTY=",
      "avatar_url": "https://avatars.githubusercontent.com/u/1063656?v=4",
      "gravatar_id": "",
      "url": "https://api.github.com/users/jnewbery",
      "html_url": "https://github.com/jnewbery",
      "followers_url": "https://api.github.com/users/jnewbery/followers",
      "following_url": "https://api.github.com/users/jnewbery/following{/other_user}",
      "gists_url": "https://api.github.com/users/jnewbery/gists{/gist_id}",
      "starred_url": "https://api.github.com/users/jnewbery/starred{/owner}{/repo}",
      "subscriptions_url": "https://api.github.com/users/jnewbery/subscriptions",
      "organizations_url": "https://api.github.com/users/jnewbery/orgs",
      "repos_url": "https://api.github.com/users/jnewbery/repos",
      "events_url": "https://api.github.com/users/jnewbery/events{/privacy}",
      "received_events_url": "https://api.github.com/users/jnewbery/received_events",
      "type": "User",
      "site_admin": false
    },
    "created_at": "2018-03-20T17:46:45Z",
    "updated_at": "2018-03-20T17:46:45Z",
    "author_association": "CONTRIBUTOR",
    "body_html": "<p dir=\"auto\">My take is that the error you suggest is slightly better, but it's not clear to me that it's so much better that it warrants and a code change and an API change.</p>",
    "body_text": "My take is that the error you suggest is slightly better, but it's not clear to me that it's so much better that it warrants and a code change and an API change.",
    "body": "My take is that the error you suggest is slightly better, but it's not clear to me that it's so much better that it warrants and a code change and an API change.",
    "reactions": {
      "url": "https://api.github.com/repos/bitcoin/bitcoin/issues/comments/374692688/reactions",
      "total_count": 0,
      "+1": 0,
      "-1": 0,
      "laugh": 0,
      "hooray": 0,
      "confused": 0,
      "heart": 0,
      "rocket": 0,
      "eyes": 0
    },
    "performed_via_github_app": null
  },
  {
    "url": "https://api.github.com/repos/bitcoin/bitcoin/issues/comments/374899957",
    "html_url": "https://github.com/bitcoin/bitcoin/pull/12736#issuecomment-374899957",
    "issue_url": "https://api.github.com/repos/bitcoin/bitcoin/issues/12736",
    "id": 374899957,
    "node_id": "MDEyOklzc3VlQ29tbWVudDM3NDg5OTk1Nw==",
    "user": {
      "login": "lutangar",
      "id": 568769,
      "node_id": "MDQ6VXNlcjU2ODc2OQ==",
      "avatar_url": "https://avatars.githubusercontent.com/u/568769?v=4",
      "gravatar_id": "",
      "url": "https://api.github.com/users/lutangar",
      "html_url": "https://github.com/lutangar",
      "followers_url": "https://api.github.com/users/lutangar/followers",
      "following_url": "https://api.github.com/users/lutangar/following{/other_user}",
      "gists_url": "https://api.github.com/users/lutangar/gists{/gist_id}",
      "starred_url": "https://api.github.com/users/lutangar/starred{/owner}{/repo}",
      "subscriptions_url": "https://api.github.com/users/lutangar/subscriptions",
      "organizations_url": "https://api.github.com/users/lutangar/orgs",
      "repos_url": "https://api.github.com/users/lutangar/repos",
      "events_url": "https://api.github.com/users/lutangar/events{/privacy}",
      "received_events_url": "https://api.github.com/users/lutangar/received_events",
      "type": "User",
      "site_admin": false
    },
    "created_at": "2018-03-21T10:58:27Z",
    "updated_at": "2018-03-21T10:58:54Z",
    "author_association": "CONTRIBUTOR",
    "body_html": "<blockquote>\n<p dir=\"auto\">the help text is distinguished from the parameter handling</p>\n</blockquote>\n<p dir=\"auto\"><a class=\"user-mention notranslate\" data-hovercard-type=\"user\" data-hovercard-url=\"/users/promag/hovercard\" data-octo-click=\"hovercard-link-click\" data-octo-dimensions=\"link_type:self\" href=\"https://github.com/promag\">@promag</a> I do agree this is the best solution, but it's even more changes to the code base, isn't this against the principle of keeping PR simple?<br>\nAbout the implementation though, are you proposing to drop the usage of the <code class=\"notranslate\">fHelp</code> flag on the <code class=\"notranslate\">JSONRPCRequest</code>?</p>\n<p dir=\"auto\">I was thinking about something like the following:</p>\n<div class=\"snippet-clipboard-content notranslate position-relative overflow-auto\" data-snippet-clipboard-copy-content=\"    std::string help = &quot;...&quot;;\n    if (request.fHelp) return help;\n    if (request.params.size() &gt; 1) throw JSONRPCError(RPC_INVALID_REQUEST, help);\"><pre class=\"notranslate\"><code class=\"notranslate\">    std::string help = \"...\";\n    if (request.fHelp) return help;\n    if (request.params.size() &gt; 1) throw JSONRPCError(RPC_INVALID_REQUEST, help);\n</code></pre></div>\n<p dir=\"auto\">Thinking even further, maybe the help message could be stored somewhere in the <code class=\"notranslate\">CRPCTable</code>?</p>",
    "body_text": "the help text is distinguished from the parameter handling\n\n@promag I do agree this is the best solution, but it's even more changes to the code base, isn't this against the principle of keeping PR simple?\nAbout the implementation though, are you proposing to drop the usage of the fHelp flag on the JSONRPCRequest?\nI was thinking about something like the following:\n    std::string help = \"...\";\n    if (request.fHelp) return help;\n    if (request.params.size() > 1) throw JSONRPCError(RPC_INVALID_REQUEST, help);\n\nThinking even further, maybe the help message could be stored somewhere in the CRPCTable?",
    "body": "> the help text is distinguished from the parameter handling  \r\n\r\n@promag I do agree this is the best solution, but it's even more changes to the code base, isn't this against the principle of keeping PR simple? \r\nAbout the implementation though, are you proposing to drop the usage of the `fHelp` flag on the `JSONRPCRequest`?\r\n\r\nI was thinking about something like the following:\r\n```\r\n    std::string help = \"...\";\r\n    if (request.fHelp) return help;\r\n    if (request.params.size() > 1) throw JSONRPCError(RPC_INVALID_REQUEST, help);\r\n```\r\nThinking even further, maybe the help message could be stored somewhere in the `CRPCTable`? ",
    "reactions": {
      "url": "https://api.github.com/repos/bitcoin/bitcoin/issues/comments/374899957/reactions",
      "total_count": 0,
      "+1": 0,
      "-1": 0,
      "laugh": 0,
      "hooray": 0,
      "confused": 0,
      "heart": 0,
      "rocket": 0,
      "eyes": 0
    },
    "performed_via_github_app": null
  },
  {
    "url": "https://api.github.com/repos/bitcoin/bitcoin/issues/comments/380571137",
    "html_url": "https://github.com/bitcoin/bitcoin/pull/12736#issuecomment-380571137",
    "issue_url": "https://api.github.com/repos/bitcoin/bitcoin/issues/12736",
    "id": 380571137,
    "node_id": "MDEyOklzc3VlQ29tbWVudDM4MDU3MTEzNw==",
    "user": {
      "login": "maflcko",
      "id": 6399679,
      "node_id": "MDQ6VXNlcjYzOTk2Nzk=",
      "avatar_url": "https://avatars.githubusercontent.com/u/6399679?v=4",
      "gravatar_id": "",
      "url": "https://api.github.com/users/maflcko",
      "html_url": "https://github.com/maflcko",
      "followers_url": "https://api.github.com/users/maflcko/followers",
      "following_url": "https://api.github.com/users/maflcko/following{/other_user}",
      "gists_url": "https://api.github.com/users/maflcko/gists{/gist_id}",
      "starred_url": "https://api.github.com/users/maflcko/starred{/owner}{/repo}",
      "subscriptions_url": "https://api.github.com/users/maflcko/subscriptions",
      "organizations_url": "https://api.github.com/users/maflcko/orgs",
      "repos_url": "https://api.github.com/users/maflcko/repos",
      "events_url": "https://api.github.com/users/maflcko/events{/privacy}",
      "received_events_url": "https://api.github.com/users/maflcko/received_events",
      "type": "User",
      "site_admin": false
    },
    "created_at": "2018-04-11T19:37:24Z",
    "updated_at": "2018-04-11T19:37:24Z",
    "author_association": "MEMBER",
    "body_html": "<p dir=\"auto\">Needs rebase if still relevant. Otherwise, I think this can be closed.</p>",
    "body_text": "Needs rebase if still relevant. Otherwise, I think this can be closed.",
    "body": "Needs rebase if still relevant. Otherwise, I think this can be closed.",
    "reactions": {
      "url": "https://api.github.com/repos/bitcoin/bitcoin/issues/comments/380571137/reactions",
      "total_count": 0,
      "+1": 0,
      "-1": 0,
      "laugh": 0,
      "hooray": 0,
      "confused": 0,
      "heart": 0,
      "rocket": 0,
      "eyes": 0
    },
    "performed_via_github_app": null
  }
]
