[
  {
    "url": "https://api.github.com/repos/bitcoin/bitcoin/issues/comments/420434263",
    "html_url": "https://github.com/bitcoin/bitcoin/pull/14201#issuecomment-420434263",
    "issue_url": "https://api.github.com/repos/bitcoin/bitcoin/issues/14201",
    "id": 420434263,
    "node_id": "MDEyOklzc3VlQ29tbWVudDQyMDQzNDI2Mw==",
    "user": {
      "login": "maflcko",
      "id": 6399679,
      "node_id": "MDQ6VXNlcjYzOTk2Nzk=",
      "avatar_url": "https://avatars.githubusercontent.com/u/6399679?v=4",
      "gravatar_id": "",
      "url": "https://api.github.com/users/maflcko",
      "html_url": "https://github.com/maflcko",
      "followers_url": "https://api.github.com/users/maflcko/followers",
      "following_url": "https://api.github.com/users/maflcko/following{/other_user}",
      "gists_url": "https://api.github.com/users/maflcko/gists{/gist_id}",
      "starred_url": "https://api.github.com/users/maflcko/starred{/owner}{/repo}",
      "subscriptions_url": "https://api.github.com/users/maflcko/subscriptions",
      "organizations_url": "https://api.github.com/users/maflcko/orgs",
      "repos_url": "https://api.github.com/users/maflcko/repos",
      "events_url": "https://api.github.com/users/maflcko/events{/privacy}",
      "received_events_url": "https://api.github.com/users/maflcko/received_events",
      "type": "User",
      "site_admin": false
    },
    "created_at": "2018-09-11T21:37:43Z",
    "updated_at": "2018-09-11T21:37:43Z",
    "author_association": "MEMBER",
    "body_html": "<p dir=\"auto\">If they are known at compile time, they should use static_assert. Otherwise NACK</p>",
    "body_text": "If they are known at compile time, they should use static_assert. Otherwise NACK",
    "body": "If they are known at compile time, they should use static_assert. Otherwise NACK",
    "reactions": {
      "url": "https://api.github.com/repos/bitcoin/bitcoin/issues/comments/420434263/reactions",
      "total_count": 0,
      "+1": 0,
      "-1": 0,
      "laugh": 0,
      "hooray": 0,
      "confused": 0,
      "heart": 0,
      "rocket": 0,
      "eyes": 0
    },
    "performed_via_github_app": null
  },
  {
    "url": "https://api.github.com/repos/bitcoin/bitcoin/issues/comments/420436353",
    "html_url": "https://github.com/bitcoin/bitcoin/pull/14201#issuecomment-420436353",
    "issue_url": "https://api.github.com/repos/bitcoin/bitcoin/issues/14201",
    "id": 420436353,
    "node_id": "MDEyOklzc3VlQ29tbWVudDQyMDQzNjM1Mw==",
    "user": {
      "login": "practicalswift",
      "id": 7826565,
      "node_id": "MDQ6VXNlcjc4MjY1NjU=",
      "avatar_url": "https://avatars.githubusercontent.com/u/7826565?v=4",
      "gravatar_id": "",
      "url": "https://api.github.com/users/practicalswift",
      "html_url": "https://github.com/practicalswift",
      "followers_url": "https://api.github.com/users/practicalswift/followers",
      "following_url": "https://api.github.com/users/practicalswift/following{/other_user}",
      "gists_url": "https://api.github.com/users/practicalswift/gists{/gist_id}",
      "starred_url": "https://api.github.com/users/practicalswift/starred{/owner}{/repo}",
      "subscriptions_url": "https://api.github.com/users/practicalswift/subscriptions",
      "organizations_url": "https://api.github.com/users/practicalswift/orgs",
      "repos_url": "https://api.github.com/users/practicalswift/repos",
      "events_url": "https://api.github.com/users/practicalswift/events{/privacy}",
      "received_events_url": "https://api.github.com/users/practicalswift/received_events",
      "type": "User",
      "site_admin": false
    },
    "created_at": "2018-09-11T21:45:22Z",
    "updated_at": "2018-09-11T21:48:08Z",
    "author_association": "CONTRIBUTOR",
    "body_html": "<p dir=\"auto\"><a class=\"user-mention notranslate\" data-hovercard-type=\"user\" data-hovercard-url=\"/users/MarcoFalke/hovercard\" data-octo-click=\"hovercard-link-click\" data-octo-dimensions=\"link_type:self\" href=\"https://github.com/MarcoFalke\">@MarcoFalke</a> They are known at compile time by a sufficiently intelligent compiler, but I'm afraid we can't use <code class=\"notranslate\">static_assert</code> since that requires the expressions to be <a href=\"https://en.cppreference.com/w/cpp/language/constant_expression#Converted_constant_expression\" rel=\"nofollow\">contextually converted constant expression of type bool</a> which they are not.</p>\n<p dir=\"auto\">This PR is WIP: let's find which of these cases that might be indication of flaws in the current logic.  <code class=\"notranslate\">fAllOk</code> looks weird as an example. See these cases as smells of logic that could be wrong in the current code :-)</p>",
    "body_text": "@MarcoFalke They are known at compile time by a sufficiently intelligent compiler, but I'm afraid we can't use static_assert since that requires the expressions to be contextually converted constant expression of type bool which they are not.\nThis PR is WIP: let's find which of these cases that might be indication of flaws in the current logic.  fAllOk looks weird as an example. See these cases as smells of logic that could be wrong in the current code :-)",
    "body": "@MarcoFalke They are known at compile time by a sufficiently intelligent compiler, but I'm afraid we can't use `static_assert` since that requires the expressions to be [contextually converted constant expression of type bool](https://en.cppreference.com/w/cpp/language/constant_expression#Converted_constant_expression) which they are not.\r\n\r\nThis PR is WIP: let's find which of these cases that might be indication of flaws in the current logic.  `fAllOk` looks weird as an example. See these cases as smells of logic that could be wrong in the current code :-)",
    "reactions": {
      "url": "https://api.github.com/repos/bitcoin/bitcoin/issues/comments/420436353/reactions",
      "total_count": 0,
      "+1": 0,
      "-1": 0,
      "laugh": 0,
      "hooray": 0,
      "confused": 0,
      "heart": 0,
      "rocket": 0,
      "eyes": 0
    },
    "performed_via_github_app": null
  },
  {
    "url": "https://api.github.com/repos/bitcoin/bitcoin/issues/comments/420436806",
    "html_url": "https://github.com/bitcoin/bitcoin/pull/14201#issuecomment-420436806",
    "issue_url": "https://api.github.com/repos/bitcoin/bitcoin/issues/14201",
    "id": 420436806,
    "node_id": "MDEyOklzc3VlQ29tbWVudDQyMDQzNjgwNg==",
    "user": {
      "login": "ryanofsky",
      "id": 7133040,
      "node_id": "MDQ6VXNlcjcxMzMwNDA=",
      "avatar_url": "https://avatars.githubusercontent.com/u/7133040?v=4",
      "gravatar_id": "",
      "url": "https://api.github.com/users/ryanofsky",
      "html_url": "https://github.com/ryanofsky",
      "followers_url": "https://api.github.com/users/ryanofsky/followers",
      "following_url": "https://api.github.com/users/ryanofsky/following{/other_user}",
      "gists_url": "https://api.github.com/users/ryanofsky/gists{/gist_id}",
      "starred_url": "https://api.github.com/users/ryanofsky/starred{/owner}{/repo}",
      "subscriptions_url": "https://api.github.com/users/ryanofsky/subscriptions",
      "organizations_url": "https://api.github.com/users/ryanofsky/orgs",
      "repos_url": "https://api.github.com/users/ryanofsky/repos",
      "events_url": "https://api.github.com/users/ryanofsky/events{/privacy}",
      "received_events_url": "https://api.github.com/users/ryanofsky/received_events",
      "type": "User",
      "site_admin": false
    },
    "created_at": "2018-09-11T21:46:51Z",
    "updated_at": "2018-09-11T21:46:51Z",
    "author_association": "CONTRIBUTOR",
    "body_html": "<blockquote>\n<p dir=\"auto\">If they are known at compile time, they should use static_assert</p>\n</blockquote>\n<p dir=\"auto\">Static assert is not applicable in any of these cases.</p>\n<blockquote>\n<p dir=\"auto\">Otherwise NACK</p>\n</blockquote>\n<p dir=\"auto\">Would dispute this NACK. Generally these are nice code simplifications, though in many of these cases, I would probably just keep the simplifications and drop the asserts.</p>",
    "body_text": "If they are known at compile time, they should use static_assert\n\nStatic assert is not applicable in any of these cases.\n\nOtherwise NACK\n\nWould dispute this NACK. Generally these are nice code simplifications, though in many of these cases, I would probably just keep the simplifications and drop the asserts.",
    "body": "> If they are known at compile time, they should use static_assert\r\n\r\nStatic assert is not applicable in any of these cases.\r\n\r\n> Otherwise NACK\r\n\r\nWould dispute this NACK. Generally these are nice code simplifications, though in many of these cases, I would probably just keep the simplifications and drop the asserts.",
    "reactions": {
      "url": "https://api.github.com/repos/bitcoin/bitcoin/issues/comments/420436806/reactions",
      "total_count": 2,
      "+1": 1,
      "-1": 0,
      "laugh": 0,
      "hooray": 0,
      "confused": 0,
      "heart": 1,
      "rocket": 0,
      "eyes": 0
    },
    "performed_via_github_app": null
  },
  {
    "url": "https://api.github.com/repos/bitcoin/bitcoin/issues/comments/420445006",
    "html_url": "https://github.com/bitcoin/bitcoin/pull/14201#issuecomment-420445006",
    "issue_url": "https://api.github.com/repos/bitcoin/bitcoin/issues/14201",
    "id": 420445006,
    "node_id": "MDEyOklzc3VlQ29tbWVudDQyMDQ0NTAwNg==",
    "user": {
      "login": "maflcko",
      "id": 6399679,
      "node_id": "MDQ6VXNlcjYzOTk2Nzk=",
      "avatar_url": "https://avatars.githubusercontent.com/u/6399679?v=4",
      "gravatar_id": "",
      "url": "https://api.github.com/users/maflcko",
      "html_url": "https://github.com/maflcko",
      "followers_url": "https://api.github.com/users/maflcko/followers",
      "following_url": "https://api.github.com/users/maflcko/following{/other_user}",
      "gists_url": "https://api.github.com/users/maflcko/gists{/gist_id}",
      "starred_url": "https://api.github.com/users/maflcko/starred{/owner}{/repo}",
      "subscriptions_url": "https://api.github.com/users/maflcko/subscriptions",
      "organizations_url": "https://api.github.com/users/maflcko/orgs",
      "repos_url": "https://api.github.com/users/maflcko/repos",
      "events_url": "https://api.github.com/users/maflcko/events{/privacy}",
      "received_events_url": "https://api.github.com/users/maflcko/received_events",
      "type": "User",
      "site_admin": false
    },
    "created_at": "2018-09-11T22:17:56Z",
    "updated_at": "2018-09-11T22:17:56Z",
    "author_association": "MEMBER",
    "body_html": "<p dir=\"auto\">The code with the explicit conditions is robust to refactoring oversights. I don't see why we would want to trade that for run-time assertions that can potentially be triggered remotely after some accidentally careless refactoring.</p>",
    "body_text": "The code with the explicit conditions is robust to refactoring oversights. I don't see why we would want to trade that for run-time assertions that can potentially be triggered remotely after some accidentally careless refactoring.",
    "body": "The code with the explicit conditions is robust to refactoring oversights. I don't see why we would want to trade that for run-time assertions that can potentially be triggered remotely after some accidentally careless refactoring.",
    "reactions": {
      "url": "https://api.github.com/repos/bitcoin/bitcoin/issues/comments/420445006/reactions",
      "total_count": 0,
      "+1": 0,
      "-1": 0,
      "laugh": 0,
      "hooray": 0,
      "confused": 0,
      "heart": 0,
      "rocket": 0,
      "eyes": 0
    },
    "performed_via_github_app": null
  },
  {
    "url": "https://api.github.com/repos/bitcoin/bitcoin/issues/comments/420446697",
    "html_url": "https://github.com/bitcoin/bitcoin/pull/14201#issuecomment-420446697",
    "issue_url": "https://api.github.com/repos/bitcoin/bitcoin/issues/14201",
    "id": 420446697,
    "node_id": "MDEyOklzc3VlQ29tbWVudDQyMDQ0NjY5Nw==",
    "user": {
      "login": "ryanofsky",
      "id": 7133040,
      "node_id": "MDQ6VXNlcjcxMzMwNDA=",
      "avatar_url": "https://avatars.githubusercontent.com/u/7133040?v=4",
      "gravatar_id": "",
      "url": "https://api.github.com/users/ryanofsky",
      "html_url": "https://github.com/ryanofsky",
      "followers_url": "https://api.github.com/users/ryanofsky/followers",
      "following_url": "https://api.github.com/users/ryanofsky/following{/other_user}",
      "gists_url": "https://api.github.com/users/ryanofsky/gists{/gist_id}",
      "starred_url": "https://api.github.com/users/ryanofsky/starred{/owner}{/repo}",
      "subscriptions_url": "https://api.github.com/users/ryanofsky/subscriptions",
      "organizations_url": "https://api.github.com/users/ryanofsky/orgs",
      "repos_url": "https://api.github.com/users/ryanofsky/repos",
      "events_url": "https://api.github.com/users/ryanofsky/events{/privacy}",
      "received_events_url": "https://api.github.com/users/ryanofsky/received_events",
      "type": "User",
      "site_admin": false
    },
    "created_at": "2018-09-11T22:24:29Z",
    "updated_at": "2018-09-11T22:24:29Z",
    "author_association": "CONTRIBUTOR",
    "body_html": "<blockquote>\n<p dir=\"auto\">The code with the explicit conditions is robust to refactoring oversights</p>\n</blockquote>\n<p dir=\"auto\">Like I said, I definitely would want to drop most of the assertions, but can you point to an example of a redundant condition which makes the code more robust?</p>",
    "body_text": "The code with the explicit conditions is robust to refactoring oversights\n\nLike I said, I definitely would want to drop most of the assertions, but can you point to an example of a redundant condition which makes the code more robust?",
    "body": "> The code with the explicit conditions is robust to refactoring oversights\r\n\r\nLike I said, I definitely would want to drop most of the assertions, but can you point to an example of a redundant condition which makes the code more robust?",
    "reactions": {
      "url": "https://api.github.com/repos/bitcoin/bitcoin/issues/comments/420446697/reactions",
      "total_count": 0,
      "+1": 0,
      "-1": 0,
      "laugh": 0,
      "hooray": 0,
      "confused": 0,
      "heart": 0,
      "rocket": 0,
      "eyes": 0
    },
    "performed_via_github_app": null
  },
  {
    "url": "https://api.github.com/repos/bitcoin/bitcoin/issues/comments/420447845",
    "html_url": "https://github.com/bitcoin/bitcoin/pull/14201#issuecomment-420447845",
    "issue_url": "https://api.github.com/repos/bitcoin/bitcoin/issues/14201",
    "id": 420447845,
    "node_id": "MDEyOklzc3VlQ29tbWVudDQyMDQ0Nzg0NQ==",
    "user": {
      "login": "maflcko",
      "id": 6399679,
      "node_id": "MDQ6VXNlcjYzOTk2Nzk=",
      "avatar_url": "https://avatars.githubusercontent.com/u/6399679?v=4",
      "gravatar_id": "",
      "url": "https://api.github.com/users/maflcko",
      "html_url": "https://github.com/maflcko",
      "followers_url": "https://api.github.com/users/maflcko/followers",
      "following_url": "https://api.github.com/users/maflcko/following{/other_user}",
      "gists_url": "https://api.github.com/users/maflcko/gists{/gist_id}",
      "starred_url": "https://api.github.com/users/maflcko/starred{/owner}{/repo}",
      "subscriptions_url": "https://api.github.com/users/maflcko/subscriptions",
      "organizations_url": "https://api.github.com/users/maflcko/orgs",
      "repos_url": "https://api.github.com/users/maflcko/repos",
      "events_url": "https://api.github.com/users/maflcko/events{/privacy}",
      "received_events_url": "https://api.github.com/users/maflcko/received_events",
      "type": "User",
      "site_admin": false
    },
    "created_at": "2018-09-11T22:29:22Z",
    "updated_at": "2018-09-11T22:29:22Z",
    "author_association": "MEMBER",
    "body_html": "<p dir=\"auto\">The condition to hit <code class=\"notranslate\">bad-cb-missing</code> allows the if-statement to swap places with the if-statement above it. With or without an assert this is no longer possible and we'd have to rely on tests or review to not break anything.</p>",
    "body_text": "The condition to hit bad-cb-missing allows the if-statement to swap places with the if-statement above it. With or without an assert this is no longer possible and we'd have to rely on tests or review to not break anything.",
    "body": "The condition to hit `bad-cb-missing` allows the if-statement to swap places with the if-statement above it. With or without an assert this is no longer possible and we'd have to rely on tests or review to not break anything.",
    "reactions": {
      "url": "https://api.github.com/repos/bitcoin/bitcoin/issues/comments/420447845/reactions",
      "total_count": 0,
      "+1": 0,
      "-1": 0,
      "laugh": 0,
      "hooray": 0,
      "confused": 0,
      "heart": 0,
      "rocket": 0,
      "eyes": 0
    },
    "performed_via_github_app": null
  },
  {
    "url": "https://api.github.com/repos/bitcoin/bitcoin/issues/comments/420451505",
    "html_url": "https://github.com/bitcoin/bitcoin/pull/14201#issuecomment-420451505",
    "issue_url": "https://api.github.com/repos/bitcoin/bitcoin/issues/14201",
    "id": 420451505,
    "node_id": "MDEyOklzc3VlQ29tbWVudDQyMDQ1MTUwNQ==",
    "user": {
      "login": "ryanofsky",
      "id": 7133040,
      "node_id": "MDQ6VXNlcjcxMzMwNDA=",
      "avatar_url": "https://avatars.githubusercontent.com/u/7133040?v=4",
      "gravatar_id": "",
      "url": "https://api.github.com/users/ryanofsky",
      "html_url": "https://github.com/ryanofsky",
      "followers_url": "https://api.github.com/users/ryanofsky/followers",
      "following_url": "https://api.github.com/users/ryanofsky/following{/other_user}",
      "gists_url": "https://api.github.com/users/ryanofsky/gists{/gist_id}",
      "starred_url": "https://api.github.com/users/ryanofsky/starred{/owner}{/repo}",
      "subscriptions_url": "https://api.github.com/users/ryanofsky/subscriptions",
      "organizations_url": "https://api.github.com/users/ryanofsky/orgs",
      "repos_url": "https://api.github.com/users/ryanofsky/repos",
      "events_url": "https://api.github.com/users/ryanofsky/events{/privacy}",
      "received_events_url": "https://api.github.com/users/ryanofsky/received_events",
      "type": "User",
      "site_admin": false
    },
    "created_at": "2018-09-11T22:45:51Z",
    "updated_at": "2018-09-11T22:45:51Z",
    "author_association": "CONTRIBUTOR",
    "body_html": "<p dir=\"auto\">Agreed in that case, but would still be happy to see code cleaned up in other cases. <a class=\"user-mention notranslate\" data-hovercard-type=\"user\" data-hovercard-url=\"/users/practicalswift/hovercard\" data-octo-click=\"hovercard-link-click\" data-octo-dimensions=\"link_type:self\" href=\"https://github.com/practicalswift\">@practicalswift</a>, it sounds like it's up to you to decide whether you want to make manual cleanups here and then remove the [wip] tag, or abandon the PR given concerns raised about the approach.</p>",
    "body_text": "Agreed in that case, but would still be happy to see code cleaned up in other cases. @practicalswift, it sounds like it's up to you to decide whether you want to make manual cleanups here and then remove the [wip] tag, or abandon the PR given concerns raised about the approach.",
    "body": "Agreed in that case, but would still be happy to see code cleaned up in other cases. @practicalswift, it sounds like it's up to you to decide whether you want to make manual cleanups here and then remove the [wip] tag, or abandon the PR given concerns raised about the approach.",
    "reactions": {
      "url": "https://api.github.com/repos/bitcoin/bitcoin/issues/comments/420451505/reactions",
      "total_count": 0,
      "+1": 0,
      "-1": 0,
      "laugh": 0,
      "hooray": 0,
      "confused": 0,
      "heart": 0,
      "rocket": 0,
      "eyes": 0
    },
    "performed_via_github_app": null
  },
  {
    "url": "https://api.github.com/repos/bitcoin/bitcoin/issues/comments/420457760",
    "html_url": "https://github.com/bitcoin/bitcoin/pull/14201#issuecomment-420457760",
    "issue_url": "https://api.github.com/repos/bitcoin/bitcoin/issues/14201",
    "id": 420457760,
    "node_id": "MDEyOklzc3VlQ29tbWVudDQyMDQ1Nzc2MA==",
    "user": {
      "login": "DrahtBot",
      "id": 39886733,
      "node_id": "MDQ6VXNlcjM5ODg2NzMz",
      "avatar_url": "https://avatars.githubusercontent.com/u/39886733?v=4",
      "gravatar_id": "",
      "url": "https://api.github.com/users/DrahtBot",
      "html_url": "https://github.com/DrahtBot",
      "followers_url": "https://api.github.com/users/DrahtBot/followers",
      "following_url": "https://api.github.com/users/DrahtBot/following{/other_user}",
      "gists_url": "https://api.github.com/users/DrahtBot/gists{/gist_id}",
      "starred_url": "https://api.github.com/users/DrahtBot/starred{/owner}{/repo}",
      "subscriptions_url": "https://api.github.com/users/DrahtBot/subscriptions",
      "organizations_url": "https://api.github.com/users/DrahtBot/orgs",
      "repos_url": "https://api.github.com/users/DrahtBot/repos",
      "events_url": "https://api.github.com/users/DrahtBot/events{/privacy}",
      "received_events_url": "https://api.github.com/users/DrahtBot/received_events",
      "type": "User",
      "site_admin": false
    },
    "created_at": "2018-09-11T23:16:45Z",
    "updated_at": "2018-09-13T00:27:32Z",
    "author_association": "CONTRIBUTOR",
    "body_html": "Note to reviewers: This pull request conflicts with the following ones:\n<ul dir=\"auto\">\n<li><a class=\"issue-link js-issue-link\" data-error-text=\"Failed to load title\" data-id=\"357464142\" data-permission-text=\"Title is private\" data-url=\"https://github.com/bitcoin/bitcoin/issues/14156\" data-hovercard-type=\"pull_request\" data-hovercard-url=\"/bitcoin/bitcoin/pull/14156/hovercard\" href=\"https://github.com/bitcoin/bitcoin/pull/14156\">#14156</a> ([WIP] refactor: Make explicit CMutableTransaction -&gt; CTransaction conversion. by lucash-dev)</li>\n<li><a class=\"issue-link js-issue-link\" data-error-text=\"Failed to load title\" data-id=\"247218529\" data-permission-text=\"Title is private\" data-url=\"https://github.com/bitcoin/bitcoin/issues/10973\" data-hovercard-type=\"pull_request\" data-hovercard-url=\"/bitcoin/bitcoin/pull/10973/hovercard\" href=\"https://github.com/bitcoin/bitcoin/pull/10973\">#10973</a> (Refactor: separate wallet from node by ryanofsky)</li>\n</ul>\n<p dir=\"auto\">If you consider this pull request important, please also help to review the conflicting pull requests. Ideally, start with the one that should be merged first.</p>",
    "body_text": "Note to reviewers: This pull request conflicts with the following ones:\n\n#14156 ([WIP] refactor: Make explicit CMutableTransaction -> CTransaction conversion. by lucash-dev)\n#10973 (Refactor: separate wallet from node by ryanofsky)\n\nIf you consider this pull request important, please also help to review the conflicting pull requests. Ideally, start with the one that should be merged first.",
    "body": "<!--e57a25ab6845829454e8d69fc972939a-->Note to reviewers: This pull request conflicts with the following ones:\n\n* #14156 ([WIP] refactor: Make explicit CMutableTransaction -> CTransaction conversion. by lucash-dev)\n* #10973 (Refactor: separate wallet from node by ryanofsky)\n\nIf you consider this pull request important, please also help to review the conflicting pull requests. Ideally, start with the one that should be merged first.",
    "reactions": {
      "url": "https://api.github.com/repos/bitcoin/bitcoin/issues/comments/420457760/reactions",
      "total_count": 0,
      "+1": 0,
      "-1": 0,
      "laugh": 0,
      "hooray": 0,
      "confused": 0,
      "heart": 0,
      "rocket": 0,
      "eyes": 0
    },
    "performed_via_github_app": null
  },
  {
    "url": "https://api.github.com/repos/bitcoin/bitcoin/issues/comments/420559831",
    "html_url": "https://github.com/bitcoin/bitcoin/pull/14201#issuecomment-420559831",
    "issue_url": "https://api.github.com/repos/bitcoin/bitcoin/issues/14201",
    "id": 420559831,
    "node_id": "MDEyOklzc3VlQ29tbWVudDQyMDU1OTgzMQ==",
    "user": {
      "login": "practicalswift",
      "id": 7826565,
      "node_id": "MDQ6VXNlcjc4MjY1NjU=",
      "avatar_url": "https://avatars.githubusercontent.com/u/7826565?v=4",
      "gravatar_id": "",
      "url": "https://api.github.com/users/practicalswift",
      "html_url": "https://github.com/practicalswift",
      "followers_url": "https://api.github.com/users/practicalswift/followers",
      "following_url": "https://api.github.com/users/practicalswift/following{/other_user}",
      "gists_url": "https://api.github.com/users/practicalswift/gists{/gist_id}",
      "starred_url": "https://api.github.com/users/practicalswift/starred{/owner}{/repo}",
      "subscriptions_url": "https://api.github.com/users/practicalswift/subscriptions",
      "organizations_url": "https://api.github.com/users/practicalswift/orgs",
      "repos_url": "https://api.github.com/users/practicalswift/repos",
      "events_url": "https://api.github.com/users/practicalswift/events{/privacy}",
      "received_events_url": "https://api.github.com/users/practicalswift/received_events",
      "type": "User",
      "site_admin": false
    },
    "created_at": "2018-09-12T08:30:01Z",
    "updated_at": "2018-09-12T08:30:01Z",
    "author_association": "CONTRIBUTOR",
    "body_html": "<p dir=\"auto\"><a class=\"user-mention notranslate\" data-hovercard-type=\"user\" data-hovercard-url=\"/users/ryanofsky/hovercard\" data-octo-click=\"hovercard-link-click\" data-octo-dimensions=\"link_type:self\" href=\"https://github.com/ryanofsky\">@ryanofsky</a> <a class=\"user-mention notranslate\" data-hovercard-type=\"user\" data-hovercard-url=\"/users/Empact/hovercard\" data-octo-click=\"hovercard-link-click\" data-octo-dimensions=\"link_type:self\" href=\"https://github.com/Empact\">@Empact</a> <a class=\"user-mention notranslate\" data-hovercard-type=\"user\" data-hovercard-url=\"/users/MarcoFalke/hovercard\" data-octo-click=\"hovercard-link-click\" data-octo-dimensions=\"link_type:self\" href=\"https://github.com/MarcoFalke\">@MarcoFalke</a> Updated to address all feedback. Please re-review :-)</p>",
    "body_text": "@ryanofsky @Empact @MarcoFalke Updated to address all feedback. Please re-review :-)",
    "body": "@ryanofsky @Empact @MarcoFalke Updated to address all feedback. Please re-review :-)",
    "reactions": {
      "url": "https://api.github.com/repos/bitcoin/bitcoin/issues/comments/420559831/reactions",
      "total_count": 0,
      "+1": 0,
      "-1": 0,
      "laugh": 0,
      "hooray": 0,
      "confused": 0,
      "heart": 0,
      "rocket": 0,
      "eyes": 0
    },
    "performed_via_github_app": null
  },
  {
    "url": "https://api.github.com/repos/bitcoin/bitcoin/issues/comments/421115450",
    "html_url": "https://github.com/bitcoin/bitcoin/pull/14201#issuecomment-421115450",
    "issue_url": "https://api.github.com/repos/bitcoin/bitcoin/issues/14201",
    "id": 421115450,
    "node_id": "MDEyOklzc3VlQ29tbWVudDQyMTExNTQ1MA==",
    "user": {
      "login": "laanwj",
      "id": 126646,
      "node_id": "MDQ6VXNlcjEyNjY0Ng==",
      "avatar_url": "https://avatars.githubusercontent.com/u/126646?v=4",
      "gravatar_id": "",
      "url": "https://api.github.com/users/laanwj",
      "html_url": "https://github.com/laanwj",
      "followers_url": "https://api.github.com/users/laanwj/followers",
      "following_url": "https://api.github.com/users/laanwj/following{/other_user}",
      "gists_url": "https://api.github.com/users/laanwj/gists{/gist_id}",
      "starred_url": "https://api.github.com/users/laanwj/starred{/owner}{/repo}",
      "subscriptions_url": "https://api.github.com/users/laanwj/subscriptions",
      "organizations_url": "https://api.github.com/users/laanwj/orgs",
      "repos_url": "https://api.github.com/users/laanwj/repos",
      "events_url": "https://api.github.com/users/laanwj/events{/privacy}",
      "received_events_url": "https://api.github.com/users/laanwj/received_events",
      "type": "User",
      "site_admin": false
    },
    "created_at": "2018-09-13T18:58:43Z",
    "updated_at": "2018-09-13T18:58:43Z",
    "author_association": "MEMBER",
    "body_html": "<p dir=\"auto\">I think it's bad to add assertions here; before you know it, you might introduce a DoS or other crash bug where none exists now. This change is, all in all, too risky.</p>",
    "body_text": "I think it's bad to add assertions here; before you know it, you might introduce a DoS or other crash bug where none exists now. This change is, all in all, too risky.",
    "body": "I think it's bad to add assertions here; before you know it, you might introduce a DoS or other crash bug where none exists now. This change is, all in all, too risky.",
    "reactions": {
      "url": "https://api.github.com/repos/bitcoin/bitcoin/issues/comments/421115450/reactions",
      "total_count": 0,
      "+1": 0,
      "-1": 0,
      "laugh": 0,
      "hooray": 0,
      "confused": 0,
      "heart": 0,
      "rocket": 0,
      "eyes": 0
    },
    "performed_via_github_app": null
  },
  {
    "url": "https://api.github.com/repos/bitcoin/bitcoin/issues/comments/421115961",
    "html_url": "https://github.com/bitcoin/bitcoin/pull/14201#issuecomment-421115961",
    "issue_url": "https://api.github.com/repos/bitcoin/bitcoin/issues/14201",
    "id": 421115961,
    "node_id": "MDEyOklzc3VlQ29tbWVudDQyMTExNTk2MQ==",
    "user": {
      "login": "gmaxwell",
      "id": 858454,
      "node_id": "MDQ6VXNlcjg1ODQ1NA==",
      "avatar_url": "https://avatars.githubusercontent.com/u/858454?v=4",
      "gravatar_id": "",
      "url": "https://api.github.com/users/gmaxwell",
      "html_url": "https://github.com/gmaxwell",
      "followers_url": "https://api.github.com/users/gmaxwell/followers",
      "following_url": "https://api.github.com/users/gmaxwell/following{/other_user}",
      "gists_url": "https://api.github.com/users/gmaxwell/gists{/gist_id}",
      "starred_url": "https://api.github.com/users/gmaxwell/starred{/owner}{/repo}",
      "subscriptions_url": "https://api.github.com/users/gmaxwell/subscriptions",
      "organizations_url": "https://api.github.com/users/gmaxwell/orgs",
      "repos_url": "https://api.github.com/users/gmaxwell/repos",
      "events_url": "https://api.github.com/users/gmaxwell/events{/privacy}",
      "received_events_url": "https://api.github.com/users/gmaxwell/received_events",
      "type": "User",
      "site_admin": false
    },
    "created_at": "2018-09-13T19:00:32Z",
    "updated_at": "2018-09-13T19:01:34Z",
    "author_association": "CONTRIBUTOR",
    "body_html": "<p dir=\"auto\">NAK.   I just don't see an benefit to this change which would justify the small (but decidedly non-zero) review effort involved.  In particular, if any one of these assertions in consensus code aren't guaranteed by the preceding code they can cause network wide DOS and consensus failure. so it must be reviewed carefully even if the review is simple.   MarcoFalke's point that they make the code more brittle against refactoring is also worth keeping in mind.</p>\n<p dir=\"auto\">In general we do want to include assertions in places where incorrect execution could cause an RCE or what not, but we need to take pretty good care that they don't introduce crashes where otherwise things would run fine.</p>",
    "body_text": "NAK.   I just don't see an benefit to this change which would justify the small (but decidedly non-zero) review effort involved.  In particular, if any one of these assertions in consensus code aren't guaranteed by the preceding code they can cause network wide DOS and consensus failure. so it must be reviewed carefully even if the review is simple.   MarcoFalke's point that they make the code more brittle against refactoring is also worth keeping in mind.\nIn general we do want to include assertions in places where incorrect execution could cause an RCE or what not, but we need to take pretty good care that they don't introduce crashes where otherwise things would run fine.",
    "body": "NAK.   I just don't see an benefit to this change which would justify the small (but decidedly non-zero) review effort involved.  In particular, if any one of these assertions in consensus code aren't guaranteed by the preceding code they can cause network wide DOS and consensus failure. so it must be reviewed carefully even if the review is simple.   MarcoFalke's point that they make the code more brittle against refactoring is also worth keeping in mind.\r\n\r\nIn general we do want to include assertions in places where incorrect execution could cause an RCE or what not, but we need to take pretty good care that they don't introduce crashes where otherwise things would run fine.",
    "reactions": {
      "url": "https://api.github.com/repos/bitcoin/bitcoin/issues/comments/421115961/reactions",
      "total_count": 0,
      "+1": 0,
      "-1": 0,
      "laugh": 0,
      "hooray": 0,
      "confused": 0,
      "heart": 0,
      "rocket": 0,
      "eyes": 0
    },
    "performed_via_github_app": null
  },
  {
    "url": "https://api.github.com/repos/bitcoin/bitcoin/issues/comments/421119307",
    "html_url": "https://github.com/bitcoin/bitcoin/pull/14201#issuecomment-421119307",
    "issue_url": "https://api.github.com/repos/bitcoin/bitcoin/issues/14201",
    "id": 421119307,
    "node_id": "MDEyOklzc3VlQ29tbWVudDQyMTExOTMwNw==",
    "user": {
      "login": "sdaftuar",
      "id": 7463573,
      "node_id": "MDQ6VXNlcjc0NjM1NzM=",
      "avatar_url": "https://avatars.githubusercontent.com/u/7463573?v=4",
      "gravatar_id": "",
      "url": "https://api.github.com/users/sdaftuar",
      "html_url": "https://github.com/sdaftuar",
      "followers_url": "https://api.github.com/users/sdaftuar/followers",
      "following_url": "https://api.github.com/users/sdaftuar/following{/other_user}",
      "gists_url": "https://api.github.com/users/sdaftuar/gists{/gist_id}",
      "starred_url": "https://api.github.com/users/sdaftuar/starred{/owner}{/repo}",
      "subscriptions_url": "https://api.github.com/users/sdaftuar/subscriptions",
      "organizations_url": "https://api.github.com/users/sdaftuar/orgs",
      "repos_url": "https://api.github.com/users/sdaftuar/repos",
      "events_url": "https://api.github.com/users/sdaftuar/events{/privacy}",
      "received_events_url": "https://api.github.com/users/sdaftuar/received_events",
      "type": "User",
      "site_admin": false
    },
    "created_at": "2018-09-13T19:11:54Z",
    "updated_at": "2018-09-13T19:11:54Z",
    "author_association": "MEMBER",
    "body_html": "<p dir=\"auto\">fwiw I'm also a concept NACK on this.  Aside from the issue around the way we use asserts in this project (which we could probably document better for contributors in the developer notes, if anyone is up for it!), I generally think the review effort for minor changes to consensus critical code is not worth it unless we're achieving some larger goal than code cleanup, like a bugfix, new feature, or a refactor in support of future new feature.  I think code comments are a much better way to explain consensus code that is correct but doesn't look pretty, as there is much lower review burden for doc-only PRs, and we can achieve a similar effect of making the code more understandable to a future reader.</p>",
    "body_text": "fwiw I'm also a concept NACK on this.  Aside from the issue around the way we use asserts in this project (which we could probably document better for contributors in the developer notes, if anyone is up for it!), I generally think the review effort for minor changes to consensus critical code is not worth it unless we're achieving some larger goal than code cleanup, like a bugfix, new feature, or a refactor in support of future new feature.  I think code comments are a much better way to explain consensus code that is correct but doesn't look pretty, as there is much lower review burden for doc-only PRs, and we can achieve a similar effect of making the code more understandable to a future reader.",
    "body": "fwiw I'm also a concept NACK on this.  Aside from the issue around the way we use asserts in this project (which we could probably document better for contributors in the developer notes, if anyone is up for it!), I generally think the review effort for minor changes to consensus critical code is not worth it unless we're achieving some larger goal than code cleanup, like a bugfix, new feature, or a refactor in support of future new feature.  I think code comments are a much better way to explain consensus code that is correct but doesn't look pretty, as there is much lower review burden for doc-only PRs, and we can achieve a similar effect of making the code more understandable to a future reader.",
    "reactions": {
      "url": "https://api.github.com/repos/bitcoin/bitcoin/issues/comments/421119307/reactions",
      "total_count": 0,
      "+1": 0,
      "-1": 0,
      "laugh": 0,
      "hooray": 0,
      "confused": 0,
      "heart": 0,
      "rocket": 0,
      "eyes": 0
    },
    "performed_via_github_app": null
  }
]
