{
  "url": "https://api.github.com/repos/bitcoin/bitcoin/issues/16480",
  "repository_url": "https://api.github.com/repos/bitcoin/bitcoin",
  "labels_url": "https://api.github.com/repos/bitcoin/bitcoin/issues/16480/labels{/name}",
  "comments_url": "https://api.github.com/repos/bitcoin/bitcoin/issues/16480/comments",
  "events_url": "https://api.github.com/repos/bitcoin/bitcoin/issues/16480/events",
  "html_url": "https://github.com/bitcoin/bitcoin/issues/16480",
  "id": 473786919,
  "node_id": "MDU6SXNzdWU0NzM3ODY5MTk=",
  "number": 16480,
  "title": "build blockchain based on Mastering bitcoin book",
  "user": {
    "login": "cezarexi",
    "id": 39422375,
    "node_id": "MDQ6VXNlcjM5NDIyMzc1",
    "avatar_url": "https://avatars.githubusercontent.com/u/39422375?v=4",
    "gravatar_id": "",
    "url": "https://api.github.com/users/cezarexi",
    "html_url": "https://github.com/cezarexi",
    "followers_url": "https://api.github.com/users/cezarexi/followers",
    "following_url": "https://api.github.com/users/cezarexi/following{/other_user}",
    "gists_url": "https://api.github.com/users/cezarexi/gists{/gist_id}",
    "starred_url": "https://api.github.com/users/cezarexi/starred{/owner}{/repo}",
    "subscriptions_url": "https://api.github.com/users/cezarexi/subscriptions",
    "organizations_url": "https://api.github.com/users/cezarexi/orgs",
    "repos_url": "https://api.github.com/users/cezarexi/repos",
    "events_url": "https://api.github.com/users/cezarexi/events{/privacy}",
    "received_events_url": "https://api.github.com/users/cezarexi/received_events",
    "type": "User",
    "site_admin": false
  },
  "labels": [

  ],
  "state": "closed",
  "locked": true,
  "assignee": null,
  "assignees": [

  ],
  "milestone": null,
  "comments": 1,
  "created_at": "2019-07-28T21:16:17Z",
  "updated_at": "2021-12-16T14:53:04Z",
  "closed_at": "2019-07-28T23:42:25Z",
  "author_association": "NONE",
  "active_lock_reason": "resolved",
  "body_html": "<p dir=\"auto\">I started learning how to build a blockchain from Antonopoulos book using Git Bash and i have a problem.</p>\n<p dir=\"auto\">I used commands:<br>\ngit clone github.com/bitcoin/bitcoin.git<br>\ncd bitcoin<br>\n<a target=\"_blank\" rel=\"noopener noreferrer nofollow\" href=\"https://user-images.githubusercontent.com/39422375/62013027-aea40280-b18d-11e9-81b2-7925597556a6.png\"><img src=\"https://user-images.githubusercontent.com/39422375/62013027-aea40280-b18d-11e9-81b2-7925597556a6.png\" alt=\"scre\" style=\"max-width: 100%;\"></a></p>\n<p dir=\"auto\">git tag<br>\ngit checkout v0.11.2</p>\n<p dir=\"auto\">and when i try to use command ./autogen.sh on the screen appear information:</p>\n<p dir=\"auto\">./autogen.sh: line 9: autoreconf: command not found.</p>\n<p dir=\"auto\">Where is the problem? What i do wrong? i need some libraries?</p>",
  "body_text": "I started learning how to build a blockchain from Antonopoulos book using Git Bash and i have a problem.\nI used commands:\ngit clone github.com/bitcoin/bitcoin.git\ncd bitcoin\n\ngit tag\ngit checkout v0.11.2\nand when i try to use command ./autogen.sh on the screen appear information:\n./autogen.sh: line 9: autoreconf: command not found.\nWhere is the problem? What i do wrong? i need some libraries?",
  "body": "I started learning how to build a blockchain from Antonopoulos book using Git Bash and i have a problem. \r\n\r\nI used commands: \r\ngit clone github.com/bitcoin/bitcoin.git \r\ncd bitcoin \r\n![scre](https://user-images.githubusercontent.com/39422375/62013027-aea40280-b18d-11e9-81b2-7925597556a6.png)\r\n\r\ngit tag \r\ngit checkout v0.11.2 \r\n\r\nand when i try to use command ./autogen.sh on the screen appear information:\r\n\r\n ./autogen.sh: line 9: autoreconf: command not found.\r\n\r\nWhere is the problem? What i do wrong? i need some libraries?",
  "closed_by": {
    "login": "fanquake",
    "id": 863730,
    "node_id": "MDQ6VXNlcjg2MzczMA==",
    "avatar_url": "https://avatars.githubusercontent.com/u/863730?v=4",
    "gravatar_id": "",
    "url": "https://api.github.com/users/fanquake",
    "html_url": "https://github.com/fanquake",
    "followers_url": "https://api.github.com/users/fanquake/followers",
    "following_url": "https://api.github.com/users/fanquake/following{/other_user}",
    "gists_url": "https://api.github.com/users/fanquake/gists{/gist_id}",
    "starred_url": "https://api.github.com/users/fanquake/starred{/owner}{/repo}",
    "subscriptions_url": "https://api.github.com/users/fanquake/subscriptions",
    "organizations_url": "https://api.github.com/users/fanquake/orgs",
    "repos_url": "https://api.github.com/users/fanquake/repos",
    "events_url": "https://api.github.com/users/fanquake/events{/privacy}",
    "received_events_url": "https://api.github.com/users/fanquake/received_events",
    "type": "User",
    "site_admin": false
  },
  "reactions": {
    "url": "https://api.github.com/repos/bitcoin/bitcoin/issues/16480/reactions",
    "total_count": 0,
    "+1": 0,
    "-1": 0,
    "laugh": 0,
    "hooray": 0,
    "confused": 0,
    "heart": 0,
    "rocket": 0,
    "eyes": 0
  },
  "timeline_url": "https://api.github.com/repos/bitcoin/bitcoin/issues/16480/timeline",
  "performed_via_github_app": null,
  "state_reason": "completed"
}
