[
  {
    "url": "https://api.github.com/repos/bitcoin/bitcoin/issues/comments/219806670",
    "html_url": "https://github.com/bitcoin/bitcoin/pull/8066#issuecomment-219806670",
    "issue_url": "https://api.github.com/repos/bitcoin/bitcoin/issues/8066",
    "id": 219806670,
    "node_id": "MDEyOklzc3VlQ29tbWVudDIxOTgwNjY3MA==",
    "user": {
      "login": "paveljanik",
      "id": 6848764,
      "node_id": "MDQ6VXNlcjY4NDg3NjQ=",
      "avatar_url": "https://avatars.githubusercontent.com/u/6848764?v=4",
      "gravatar_id": "",
      "url": "https://api.github.com/users/paveljanik",
      "html_url": "https://github.com/paveljanik",
      "followers_url": "https://api.github.com/users/paveljanik/followers",
      "following_url": "https://api.github.com/users/paveljanik/following{/other_user}",
      "gists_url": "https://api.github.com/users/paveljanik/gists{/gist_id}",
      "starred_url": "https://api.github.com/users/paveljanik/starred{/owner}{/repo}",
      "subscriptions_url": "https://api.github.com/users/paveljanik/subscriptions",
      "organizations_url": "https://api.github.com/users/paveljanik/orgs",
      "repos_url": "https://api.github.com/users/paveljanik/repos",
      "events_url": "https://api.github.com/users/paveljanik/events{/privacy}",
      "received_events_url": "https://api.github.com/users/paveljanik/received_events",
      "type": "User",
      "site_admin": false
    },
    "created_at": "2016-05-17T18:17:02Z",
    "updated_at": "2016-05-17T18:17:02Z",
    "author_association": "CONTRIBUTOR",
    "body_html": "<p dir=\"auto\">ACK <a class=\"commit-link\" data-hovercard-type=\"commit\" data-hovercard-url=\"https://github.com/bitcoin/bitcoin/commit/fad184550e1c507a897be59169f9c5dabce8d652/hovercard\" href=\"https://github.com/bitcoin/bitcoin/commit/fad184550e1c507a897be59169f9c5dabce8d652\"><tt>fad1845</tt></a></p>",
    "body_text": "ACK fad1845",
    "body": "ACK https://github.com/bitcoin/bitcoin/pull/8066/commits/fad184550e1c507a897be59169f9c5dabce8d652\n",
    "reactions": {
      "url": "https://api.github.com/repos/bitcoin/bitcoin/issues/comments/219806670/reactions",
      "total_count": 0,
      "+1": 0,
      "-1": 0,
      "laugh": 0,
      "hooray": 0,
      "confused": 0,
      "heart": 0,
      "rocket": 0,
      "eyes": 0
    },
    "performed_via_github_app": null
  },
  {
    "url": "https://api.github.com/repos/bitcoin/bitcoin/issues/comments/219807478",
    "html_url": "https://github.com/bitcoin/bitcoin/pull/8066#issuecomment-219807478",
    "issue_url": "https://api.github.com/repos/bitcoin/bitcoin/issues/8066",
    "id": 219807478,
    "node_id": "MDEyOklzc3VlQ29tbWVudDIxOTgwNzQ3OA==",
    "user": {
      "login": "sipa",
      "id": 548488,
      "node_id": "MDQ6VXNlcjU0ODQ4OA==",
      "avatar_url": "https://avatars.githubusercontent.com/u/548488?v=4",
      "gravatar_id": "",
      "url": "https://api.github.com/users/sipa",
      "html_url": "https://github.com/sipa",
      "followers_url": "https://api.github.com/users/sipa/followers",
      "following_url": "https://api.github.com/users/sipa/following{/other_user}",
      "gists_url": "https://api.github.com/users/sipa/gists{/gist_id}",
      "starred_url": "https://api.github.com/users/sipa/starred{/owner}{/repo}",
      "subscriptions_url": "https://api.github.com/users/sipa/subscriptions",
      "organizations_url": "https://api.github.com/users/sipa/orgs",
      "repos_url": "https://api.github.com/users/sipa/repos",
      "events_url": "https://api.github.com/users/sipa/events{/privacy}",
      "received_events_url": "https://api.github.com/users/sipa/received_events",
      "type": "User",
      "site_admin": false
    },
    "created_at": "2016-05-17T18:19:49Z",
    "updated_at": "2016-05-17T18:19:49Z",
    "author_association": "MEMBER",
    "body_html": "<p dir=\"auto\">Is there a benefit to having different rpcauth pairs for each node?</p>\n<p dir=\"auto\">(that's a separate question from not hardcoding it)</p>",
    "body_text": "Is there a benefit to having different rpcauth pairs for each node?\n(that's a separate question from not hardcoding it)",
    "body": "Is there a benefit to having different rpcauth pairs for each node?\n\n(that's a separate question from not hardcoding it)\n",
    "reactions": {
      "url": "https://api.github.com/repos/bitcoin/bitcoin/issues/comments/219807478/reactions",
      "total_count": 0,
      "+1": 0,
      "-1": 0,
      "laugh": 0,
      "hooray": 0,
      "confused": 0,
      "heart": 0,
      "rocket": 0,
      "eyes": 0
    },
    "performed_via_github_app": null
  },
  {
    "url": "https://api.github.com/repos/bitcoin/bitcoin/issues/comments/219962937",
    "html_url": "https://github.com/bitcoin/bitcoin/pull/8066#issuecomment-219962937",
    "issue_url": "https://api.github.com/repos/bitcoin/bitcoin/issues/8066",
    "id": 219962937,
    "node_id": "MDEyOklzc3VlQ29tbWVudDIxOTk2MjkzNw==",
    "user": {
      "login": "laanwj",
      "id": 126646,
      "node_id": "MDQ6VXNlcjEyNjY0Ng==",
      "avatar_url": "https://avatars.githubusercontent.com/u/126646?v=4",
      "gravatar_id": "",
      "url": "https://api.github.com/users/laanwj",
      "html_url": "https://github.com/laanwj",
      "followers_url": "https://api.github.com/users/laanwj/followers",
      "following_url": "https://api.github.com/users/laanwj/following{/other_user}",
      "gists_url": "https://api.github.com/users/laanwj/gists{/gist_id}",
      "starred_url": "https://api.github.com/users/laanwj/starred{/owner}{/repo}",
      "subscriptions_url": "https://api.github.com/users/laanwj/subscriptions",
      "organizations_url": "https://api.github.com/users/laanwj/orgs",
      "repos_url": "https://api.github.com/users/laanwj/repos",
      "events_url": "https://api.github.com/users/laanwj/events{/privacy}",
      "received_events_url": "https://api.github.com/users/laanwj/received_events",
      "type": "User",
      "site_admin": false
    },
    "created_at": "2016-05-18T08:42:31Z",
    "updated_at": "2016-05-18T08:42:31Z",
    "author_association": "MEMBER",
    "body_html": "<p dir=\"auto\"><a class=\"user-mention notranslate\" data-hovercard-type=\"user\" data-hovercard-url=\"/users/sipa/hovercard\" data-octo-click=\"hovercard-link-click\" data-octo-dimensions=\"link_type:self\" href=\"https://github.com/sipa\">@sipa</a> I think the motivation is that it prevents accidentally connecting to the wrong/old instance which may still be sticking around.<br>\nSpeaking of which, should we add a random per-session factor too?</p>",
    "body_text": "@sipa I think the motivation is that it prevents accidentally connecting to the wrong/old instance which may still be sticking around.\nSpeaking of which, should we add a random per-session factor too?",
    "body": "@sipa I think the motivation is that it prevents accidentally connecting to the wrong/old instance which may still be sticking around.\nSpeaking of which, should we add a random per-session factor too?\n",
    "reactions": {
      "url": "https://api.github.com/repos/bitcoin/bitcoin/issues/comments/219962937/reactions",
      "total_count": 0,
      "+1": 0,
      "-1": 0,
      "laugh": 0,
      "hooray": 0,
      "confused": 0,
      "heart": 0,
      "rocket": 0,
      "eyes": 0
    },
    "performed_via_github_app": null
  },
  {
    "url": "https://api.github.com/repos/bitcoin/bitcoin/issues/comments/219963323",
    "html_url": "https://github.com/bitcoin/bitcoin/pull/8066#issuecomment-219963323",
    "issue_url": "https://api.github.com/repos/bitcoin/bitcoin/issues/8066",
    "id": 219963323,
    "node_id": "MDEyOklzc3VlQ29tbWVudDIxOTk2MzMyMw==",
    "user": {
      "login": "laanwj",
      "id": 126646,
      "node_id": "MDQ6VXNlcjEyNjY0Ng==",
      "avatar_url": "https://avatars.githubusercontent.com/u/126646?v=4",
      "gravatar_id": "",
      "url": "https://api.github.com/users/laanwj",
      "html_url": "https://github.com/laanwj",
      "followers_url": "https://api.github.com/users/laanwj/followers",
      "following_url": "https://api.github.com/users/laanwj/following{/other_user}",
      "gists_url": "https://api.github.com/users/laanwj/gists{/gist_id}",
      "starred_url": "https://api.github.com/users/laanwj/starred{/owner}{/repo}",
      "subscriptions_url": "https://api.github.com/users/laanwj/subscriptions",
      "organizations_url": "https://api.github.com/users/laanwj/orgs",
      "repos_url": "https://api.github.com/users/laanwj/repos",
      "events_url": "https://api.github.com/users/laanwj/events{/privacy}",
      "received_events_url": "https://api.github.com/users/laanwj/received_events",
      "type": "User",
      "site_admin": false
    },
    "created_at": "2016-05-18T08:44:11Z",
    "updated_at": "2016-05-18T08:44:11Z",
    "author_association": "MEMBER",
    "body_html": "<p dir=\"auto\">But one drawback I can see of this is that it makes it more difficult to diagnose after a non-cleanup test run, or interrogating a bitcoind stuck around after a crashing test. No longer is the user/password to query it obvious.</p>",
    "body_text": "But one drawback I can see of this is that it makes it more difficult to diagnose after a non-cleanup test run, or interrogating a bitcoind stuck around after a crashing test. No longer is the user/password to query it obvious.",
    "body": "But one drawback I can see of this is that it makes it more difficult to diagnose after a non-cleanup test run, or interrogating a bitcoind stuck around after a crashing test. No longer is the user/password to query it obvious.\n",
    "reactions": {
      "url": "https://api.github.com/repos/bitcoin/bitcoin/issues/comments/219963323/reactions",
      "total_count": 0,
      "+1": 0,
      "-1": 0,
      "laugh": 0,
      "hooray": 0,
      "confused": 0,
      "heart": 0,
      "rocket": 0,
      "eyes": 0
    },
    "performed_via_github_app": null
  },
  {
    "url": "https://api.github.com/repos/bitcoin/bitcoin/issues/comments/220076462",
    "html_url": "https://github.com/bitcoin/bitcoin/pull/8066#issuecomment-220076462",
    "issue_url": "https://api.github.com/repos/bitcoin/bitcoin/issues/8066",
    "id": 220076462,
    "node_id": "MDEyOklzc3VlQ29tbWVudDIyMDA3NjQ2Mg==",
    "user": {
      "login": "maflcko",
      "id": 6399679,
      "node_id": "MDQ6VXNlcjYzOTk2Nzk=",
      "avatar_url": "https://avatars.githubusercontent.com/u/6399679?v=4",
      "gravatar_id": "",
      "url": "https://api.github.com/users/maflcko",
      "html_url": "https://github.com/maflcko",
      "followers_url": "https://api.github.com/users/maflcko/followers",
      "following_url": "https://api.github.com/users/maflcko/following{/other_user}",
      "gists_url": "https://api.github.com/users/maflcko/gists{/gist_id}",
      "starred_url": "https://api.github.com/users/maflcko/starred{/owner}{/repo}",
      "subscriptions_url": "https://api.github.com/users/maflcko/subscriptions",
      "organizations_url": "https://api.github.com/users/maflcko/orgs",
      "repos_url": "https://api.github.com/users/maflcko/repos",
      "events_url": "https://api.github.com/users/maflcko/events{/privacy}",
      "received_events_url": "https://api.github.com/users/maflcko/received_events",
      "type": "User",
      "site_admin": false
    },
    "created_at": "2016-05-18T16:08:20Z",
    "updated_at": "2016-05-18T16:08:20Z",
    "author_association": "MEMBER",
    "body_html": "<p dir=\"auto\">Indeed this is the drawback, which would mean I better remove the fancy utf-8 chars as well...</p>\n<p dir=\"auto\">Obviously we are running the daemons on different ports, so within the test framework it is more than unlikely to accidentally speak to the wrong daemon. I think a reasonable compromise would be to use <code class=\"notranslate\">'rt_u'+str(n)</code> and <code class=\"notranslate\">'rt_p'+str(n)</code>.</p>",
    "body_text": "Indeed this is the drawback, which would mean I better remove the fancy utf-8 chars as well...\nObviously we are running the daemons on different ports, so within the test framework it is more than unlikely to accidentally speak to the wrong daemon. I think a reasonable compromise would be to use 'rt_u'+str(n) and 'rt_p'+str(n).",
    "body": "Indeed this is the drawback, which would mean I better remove the fancy utf-8 chars as well...\n\nObviously we are running the daemons on different ports, so within the test framework it is more than unlikely to accidentally speak to the wrong daemon. I think a reasonable compromise would be to use `'rt_u'+str(n)` and `'rt_p'+str(n)`.\n",
    "reactions": {
      "url": "https://api.github.com/repos/bitcoin/bitcoin/issues/comments/220076462/reactions",
      "total_count": 0,
      "+1": 0,
      "-1": 0,
      "laugh": 0,
      "hooray": 0,
      "confused": 0,
      "heart": 0,
      "rocket": 0,
      "eyes": 0
    },
    "performed_via_github_app": null
  },
  {
    "url": "https://api.github.com/repos/bitcoin/bitcoin/issues/comments/220778601",
    "html_url": "https://github.com/bitcoin/bitcoin/pull/8066#issuecomment-220778601",
    "issue_url": "https://api.github.com/repos/bitcoin/bitcoin/issues/8066",
    "id": 220778601,
    "node_id": "MDEyOklzc3VlQ29tbWVudDIyMDc3ODYwMQ==",
    "user": {
      "login": "laanwj",
      "id": 126646,
      "node_id": "MDQ6VXNlcjEyNjY0Ng==",
      "avatar_url": "https://avatars.githubusercontent.com/u/126646?v=4",
      "gravatar_id": "",
      "url": "https://api.github.com/users/laanwj",
      "html_url": "https://github.com/laanwj",
      "followers_url": "https://api.github.com/users/laanwj/followers",
      "following_url": "https://api.github.com/users/laanwj/following{/other_user}",
      "gists_url": "https://api.github.com/users/laanwj/gists{/gist_id}",
      "starred_url": "https://api.github.com/users/laanwj/starred{/owner}{/repo}",
      "subscriptions_url": "https://api.github.com/users/laanwj/subscriptions",
      "organizations_url": "https://api.github.com/users/laanwj/orgs",
      "repos_url": "https://api.github.com/users/laanwj/repos",
      "events_url": "https://api.github.com/users/laanwj/events{/privacy}",
      "received_events_url": "https://api.github.com/users/laanwj/received_events",
      "type": "User",
      "site_admin": false
    },
    "created_at": "2016-05-21T13:45:18Z",
    "updated_at": "2016-05-21T13:45:18Z",
    "author_association": "MEMBER",
    "body_html": "<blockquote>\n<p dir=\"auto\">No longer is the user/password to query it obvious.</p>\n</blockquote>\n<p dir=\"auto\">I  just realized this may be a smaller problem than I thought: we write a bitcoin.conf in every node directory with the user/password information so <code class=\"notranslate\">bitcoin-cli -datadir=$DIR</code> can be used. As the directory is printed to stdout, I think there is not really a problem with 'guessing' the user/password.</p>",
    "body_text": "No longer is the user/password to query it obvious.\n\nI  just realized this may be a smaller problem than I thought: we write a bitcoin.conf in every node directory with the user/password information so bitcoin-cli -datadir=$DIR can be used. As the directory is printed to stdout, I think there is not really a problem with 'guessing' the user/password.",
    "body": "> No longer is the user/password to query it obvious.\n\nI  just realized this may be a smaller problem than I thought: we write a bitcoin.conf in every node directory with the user/password information so `bitcoin-cli -datadir=$DIR` can be used. As the directory is printed to stdout, I think there is not really a problem with 'guessing' the user/password.\n",
    "reactions": {
      "url": "https://api.github.com/repos/bitcoin/bitcoin/issues/comments/220778601/reactions",
      "total_count": 0,
      "+1": 0,
      "-1": 0,
      "laugh": 0,
      "hooray": 0,
      "confused": 0,
      "heart": 0,
      "rocket": 0,
      "eyes": 0
    },
    "performed_via_github_app": null
  },
  {
    "url": "https://api.github.com/repos/bitcoin/bitcoin/issues/comments/227119668",
    "html_url": "https://github.com/bitcoin/bitcoin/pull/8066#issuecomment-227119668",
    "issue_url": "https://api.github.com/repos/bitcoin/bitcoin/issues/8066",
    "id": 227119668,
    "node_id": "MDEyOklzc3VlQ29tbWVudDIyNzExOTY2OA==",
    "user": {
      "login": "laanwj",
      "id": 126646,
      "node_id": "MDQ6VXNlcjEyNjY0Ng==",
      "avatar_url": "https://avatars.githubusercontent.com/u/126646?v=4",
      "gravatar_id": "",
      "url": "https://api.github.com/users/laanwj",
      "html_url": "https://github.com/laanwj",
      "followers_url": "https://api.github.com/users/laanwj/followers",
      "following_url": "https://api.github.com/users/laanwj/following{/other_user}",
      "gists_url": "https://api.github.com/users/laanwj/gists{/gist_id}",
      "starred_url": "https://api.github.com/users/laanwj/starred{/owner}{/repo}",
      "subscriptions_url": "https://api.github.com/users/laanwj/subscriptions",
      "organizations_url": "https://api.github.com/users/laanwj/orgs",
      "repos_url": "https://api.github.com/users/laanwj/repos",
      "events_url": "https://api.github.com/users/laanwj/events{/privacy}",
      "received_events_url": "https://api.github.com/users/laanwj/received_events",
      "type": "User",
      "site_admin": false
    },
    "created_at": "2016-06-20T11:41:19Z",
    "updated_at": "2016-06-20T11:41:19Z",
    "author_association": "MEMBER",
    "body_html": "<p dir=\"auto\">ACK fad1845</p>",
    "body_text": "ACK fad1845",
    "body": "ACK fad1845\n",
    "reactions": {
      "url": "https://api.github.com/repos/bitcoin/bitcoin/issues/comments/227119668/reactions",
      "total_count": 0,
      "+1": 0,
      "-1": 0,
      "laugh": 0,
      "hooray": 0,
      "confused": 0,
      "heart": 0,
      "rocket": 0,
      "eyes": 0
    },
    "performed_via_github_app": null
  }
]
