{
  "url": "https://api.github.com/repos/bitcoin/bitcoin/issues/2332",
  "repository_url": "https://api.github.com/repos/bitcoin/bitcoin",
  "labels_url": "https://api.github.com/repos/bitcoin/bitcoin/issues/2332/labels{/name}",
  "comments_url": "https://api.github.com/repos/bitcoin/bitcoin/issues/2332/comments",
  "events_url": "https://api.github.com/repos/bitcoin/bitcoin/issues/2332/events",
  "html_url": "https://github.com/bitcoin/bitcoin/pull/2332",
  "id": 11326574,
  "node_id": "MDExOlB1bGxSZXF1ZXN0NDI5MTE1MQ==",
  "number": 2332,
  "title": "harmonize 2 init messages and remove one",
  "user": {
    "login": "Diapolo",
    "id": 1419649,
    "node_id": "MDQ6VXNlcjE0MTk2NDk=",
    "avatar_url": "https://avatars.githubusercontent.com/u/1419649?v=4",
    "gravatar_id": "",
    "url": "https://api.github.com/users/Diapolo",
    "html_url": "https://github.com/Diapolo",
    "followers_url": "https://api.github.com/users/Diapolo/followers",
    "following_url": "https://api.github.com/users/Diapolo/following{/other_user}",
    "gists_url": "https://api.github.com/users/Diapolo/gists{/gist_id}",
    "starred_url": "https://api.github.com/users/Diapolo/starred{/owner}{/repo}",
    "subscriptions_url": "https://api.github.com/users/Diapolo/subscriptions",
    "organizations_url": "https://api.github.com/users/Diapolo/orgs",
    "repos_url": "https://api.github.com/users/Diapolo/repos",
    "events_url": "https://api.github.com/users/Diapolo/events{/privacy}",
    "received_events_url": "https://api.github.com/users/Diapolo/received_events",
    "type": "User",
    "site_admin": false
  },
  "labels": [

  ],
  "state": "closed",
  "locked": true,
  "assignee": null,
  "assignees": [

  ],
  "milestone": null,
  "comments": 5,
  "created_at": "2013-02-23T22:50:16Z",
  "updated_at": "2021-09-08T10:19:53Z",
  "closed_at": "2013-03-19T16:57:58Z",
  "author_association": "NONE",
  "active_lock_reason": "resolved",
  "draft": false,
  "pull_request": {
    "url": "https://api.github.com/repos/bitcoin/bitcoin/pulls/2332",
    "html_url": "https://github.com/bitcoin/bitcoin/pull/2332",
    "diff_url": "https://github.com/bitcoin/bitcoin/pull/2332.diff",
    "patch_url": "https://github.com/bitcoin/bitcoin/pull/2332.patch",
    "merged_at": "2013-03-19T16:57:58Z"
  },
  "body_html": "<ul dir=\"auto\">\n<li>harmonize the database related init messages</li>\n<li>as we have a thread for importing blocks, that init message is obsolete</li>\n</ul>",
  "body_text": "harmonize the database related init messages\nas we have a thread for importing blocks, that init message is obsolete",
  "body": "- harmonize the database related init messages\n- as we have a thread for importing blocks, that init message is obsolete\n",
  "closed_by": {
    "login": "laanwj",
    "id": 126646,
    "node_id": "MDQ6VXNlcjEyNjY0Ng==",
    "avatar_url": "https://avatars.githubusercontent.com/u/126646?v=4",
    "gravatar_id": "",
    "url": "https://api.github.com/users/laanwj",
    "html_url": "https://github.com/laanwj",
    "followers_url": "https://api.github.com/users/laanwj/followers",
    "following_url": "https://api.github.com/users/laanwj/following{/other_user}",
    "gists_url": "https://api.github.com/users/laanwj/gists{/gist_id}",
    "starred_url": "https://api.github.com/users/laanwj/starred{/owner}{/repo}",
    "subscriptions_url": "https://api.github.com/users/laanwj/subscriptions",
    "organizations_url": "https://api.github.com/users/laanwj/orgs",
    "repos_url": "https://api.github.com/users/laanwj/repos",
    "events_url": "https://api.github.com/users/laanwj/events{/privacy}",
    "received_events_url": "https://api.github.com/users/laanwj/received_events",
    "type": "User",
    "site_admin": false
  },
  "reactions": {
    "url": "https://api.github.com/repos/bitcoin/bitcoin/issues/2332/reactions",
    "total_count": 0,
    "+1": 0,
    "-1": 0,
    "laugh": 0,
    "hooray": 0,
    "confused": 0,
    "heart": 0,
    "rocket": 0,
    "eyes": 0
  },
  "timeline_url": "https://api.github.com/repos/bitcoin/bitcoin/issues/2332/timeline",
  "performed_via_github_app": null,
  "state_reason": null
}
