{
  "url": "https://api.github.com/repos/bitcoin/bitcoin/issues/4924",
  "repository_url": "https://api.github.com/repos/bitcoin/bitcoin",
  "labels_url": "https://api.github.com/repos/bitcoin/bitcoin/issues/4924/labels{/name}",
  "comments_url": "https://api.github.com/repos/bitcoin/bitcoin/issues/4924/comments",
  "events_url": "https://api.github.com/repos/bitcoin/bitcoin/issues/4924/events",
  "html_url": "https://github.com/bitcoin/bitcoin/issues/4924",
  "id": 42803200,
  "node_id": "MDU6SXNzdWU0MjgwMzIwMA==",
  "number": 4924,
  "title": "Sync stopped after drive ran out of space",
  "user": {
    "login": "DoooX",
    "id": 8782179,
    "node_id": "MDQ6VXNlcjg3ODIxNzk=",
    "avatar_url": "https://avatars.githubusercontent.com/u/8782179?v=4",
    "gravatar_id": "",
    "url": "https://api.github.com/users/DoooX",
    "html_url": "https://github.com/DoooX",
    "followers_url": "https://api.github.com/users/DoooX/followers",
    "following_url": "https://api.github.com/users/DoooX/following{/other_user}",
    "gists_url": "https://api.github.com/users/DoooX/gists{/gist_id}",
    "starred_url": "https://api.github.com/users/DoooX/starred{/owner}{/repo}",
    "subscriptions_url": "https://api.github.com/users/DoooX/subscriptions",
    "organizations_url": "https://api.github.com/users/DoooX/orgs",
    "repos_url": "https://api.github.com/users/DoooX/repos",
    "events_url": "https://api.github.com/users/DoooX/events{/privacy}",
    "received_events_url": "https://api.github.com/users/DoooX/received_events",
    "type": "User",
    "site_admin": false
  },
  "labels": [

  ],
  "state": "closed",
  "locked": true,
  "assignee": null,
  "assignees": [

  ],
  "milestone": null,
  "comments": 10,
  "created_at": "2014-09-15T18:26:13Z",
  "updated_at": "2021-09-08T12:21:01Z",
  "closed_at": "2014-09-18T07:16:59Z",
  "author_association": "NONE",
  "active_lock_reason": "resolved",
  "body_html": "<p dir=\"auto\">I've installed the latest version of Bitcoin core 0.9.2.1 for Windows (64bit), than I've downloaded bootstrap.dat from the torrent file and put it into C:\\Users\\User\\AppData\\Roaming\\Bitcoin and than I ran the bitcoin-qt.exe file. It started importing blocks from the bootstrap.dat file and after that it started syncing but after a little it got stuck while I ran out space on my C: drive and I got message \"Low on space!\" so I closed the wallet, transfered the whole Bitcoin folder to another partition (with 100GB of free space) and ran the wallet again but it was not syncing and I got stuck at block #285337.<br>\nAfter that I reindexed the blockchain at <a class=\"user-mention notranslate\" data-hovercard-type=\"user\" data-hovercard-url=\"/users/apoelstra/hovercard\" data-octo-click=\"hovercard-link-click\" data-octo-dimensions=\"link_type:self\" href=\"https://github.com/apoelstra\">@apoelstra</a>'s suggestion using the -reindex command but still after it finished reindexing it didn't want to sync and it got stuck again.<br>\nThe solution was to delete everything, uninstall the Bitcoin Core, I ran CCleaner and fixed the registry (there was the exe file of the Bitcoin Core app on the list of the broken registry files), everything was cleaned up, then I reinstalled the wallet, put the bootstrap.dat again into the data folder(on the new partition) and it worked out ok in the end.</p>\n<p dir=\"auto\">My suggestion would be to put some kind of a limit on the drive where the blockchain is being installed so the blockchain download doesn't \"eat up\" the whole system capacity. So for example if the user has 1GB of free space left the wallet could detect that and pop out a message, for example \"Your drive has ran out of space, the sync has stopped. Please change the directory or empty some space on the drive\" so in that case the sync could start again normally after you free up the space on your drive or you change the directory of the files so the sync doesn't get broken.</p>",
  "body_text": "I've installed the latest version of Bitcoin core 0.9.2.1 for Windows (64bit), than I've downloaded bootstrap.dat from the torrent file and put it into C:\\Users\\User\\AppData\\Roaming\\Bitcoin and than I ran the bitcoin-qt.exe file. It started importing blocks from the bootstrap.dat file and after that it started syncing but after a little it got stuck while I ran out space on my C: drive and I got message \"Low on space!\" so I closed the wallet, transfered the whole Bitcoin folder to another partition (with 100GB of free space) and ran the wallet again but it was not syncing and I got stuck at block #285337.\nAfter that I reindexed the blockchain at @apoelstra's suggestion using the -reindex command but still after it finished reindexing it didn't want to sync and it got stuck again.\nThe solution was to delete everything, uninstall the Bitcoin Core, I ran CCleaner and fixed the registry (there was the exe file of the Bitcoin Core app on the list of the broken registry files), everything was cleaned up, then I reinstalled the wallet, put the bootstrap.dat again into the data folder(on the new partition) and it worked out ok in the end.\nMy suggestion would be to put some kind of a limit on the drive where the blockchain is being installed so the blockchain download doesn't \"eat up\" the whole system capacity. So for example if the user has 1GB of free space left the wallet could detect that and pop out a message, for example \"Your drive has ran out of space, the sync has stopped. Please change the directory or empty some space on the drive\" so in that case the sync could start again normally after you free up the space on your drive or you change the directory of the files so the sync doesn't get broken.",
  "body": "I've installed the latest version of Bitcoin core 0.9.2.1 for Windows (64bit), than I've downloaded bootstrap.dat from the torrent file and put it into C:\\Users\\User\\AppData\\Roaming\\Bitcoin and than I ran the bitcoin-qt.exe file. It started importing blocks from the bootstrap.dat file and after that it started syncing but after a little it got stuck while I ran out space on my C: drive and I got message \"Low on space!\" so I closed the wallet, transfered the whole Bitcoin folder to another partition (with 100GB of free space) and ran the wallet again but it was not syncing and I got stuck at block #285337.\nAfter that I reindexed the blockchain at @apoelstra's suggestion using the -reindex command but still after it finished reindexing it didn't want to sync and it got stuck again.\nThe solution was to delete everything, uninstall the Bitcoin Core, I ran CCleaner and fixed the registry (there was the exe file of the Bitcoin Core app on the list of the broken registry files), everything was cleaned up, then I reinstalled the wallet, put the bootstrap.dat again into the data folder(on the new partition) and it worked out ok in the end.\n\nMy suggestion would be to put some kind of a limit on the drive where the blockchain is being installed so the blockchain download doesn't \"eat up\" the whole system capacity. So for example if the user has 1GB of free space left the wallet could detect that and pop out a message, for example \"Your drive has ran out of space, the sync has stopped. Please change the directory or empty some space on the drive\" so in that case the sync could start again normally after you free up the space on your drive or you change the directory of the files so the sync doesn't get broken.\n",
  "closed_by": {
    "login": "laanwj",
    "id": 126646,
    "node_id": "MDQ6VXNlcjEyNjY0Ng==",
    "avatar_url": "https://avatars.githubusercontent.com/u/126646?v=4",
    "gravatar_id": "",
    "url": "https://api.github.com/users/laanwj",
    "html_url": "https://github.com/laanwj",
    "followers_url": "https://api.github.com/users/laanwj/followers",
    "following_url": "https://api.github.com/users/laanwj/following{/other_user}",
    "gists_url": "https://api.github.com/users/laanwj/gists{/gist_id}",
    "starred_url": "https://api.github.com/users/laanwj/starred{/owner}{/repo}",
    "subscriptions_url": "https://api.github.com/users/laanwj/subscriptions",
    "organizations_url": "https://api.github.com/users/laanwj/orgs",
    "repos_url": "https://api.github.com/users/laanwj/repos",
    "events_url": "https://api.github.com/users/laanwj/events{/privacy}",
    "received_events_url": "https://api.github.com/users/laanwj/received_events",
    "type": "User",
    "site_admin": false
  },
  "reactions": {
    "url": "https://api.github.com/repos/bitcoin/bitcoin/issues/4924/reactions",
    "total_count": 0,
    "+1": 0,
    "-1": 0,
    "laugh": 0,
    "hooray": 0,
    "confused": 0,
    "heart": 0,
    "rocket": 0,
    "eyes": 0
  },
  "timeline_url": "https://api.github.com/repos/bitcoin/bitcoin/issues/4924/timeline",
  "performed_via_github_app": null,
  "state_reason": "completed"
}
