[
  {
    "url": "https://api.github.com/repos/bitcoin/bitcoin/issues/comments/3258761",
    "html_url": "https://github.com/bitcoin/bitcoin/issues/722#issuecomment-3258761",
    "issue_url": "https://api.github.com/repos/bitcoin/bitcoin/issues/722",
    "id": 3258761,
    "node_id": "MDEyOklzc3VlQ29tbWVudDMyNTg3NjE=",
    "user": {
      "login": "laanwj",
      "id": 126646,
      "node_id": "MDQ6VXNlcjEyNjY0Ng==",
      "avatar_url": "https://avatars.githubusercontent.com/u/126646?v=4",
      "gravatar_id": "",
      "url": "https://api.github.com/users/laanwj",
      "html_url": "https://github.com/laanwj",
      "followers_url": "https://api.github.com/users/laanwj/followers",
      "following_url": "https://api.github.com/users/laanwj/following{/other_user}",
      "gists_url": "https://api.github.com/users/laanwj/gists{/gist_id}",
      "starred_url": "https://api.github.com/users/laanwj/starred{/owner}{/repo}",
      "subscriptions_url": "https://api.github.com/users/laanwj/subscriptions",
      "organizations_url": "https://api.github.com/users/laanwj/orgs",
      "repos_url": "https://api.github.com/users/laanwj/repos",
      "events_url": "https://api.github.com/users/laanwj/events{/privacy}",
      "received_events_url": "https://api.github.com/users/laanwj/received_events",
      "type": "User",
      "site_admin": false
    },
    "created_at": "2011-12-23T07:44:20Z",
    "updated_at": "2011-12-23T07:44:20Z",
    "author_association": "MEMBER",
    "body_html": "<p dir=\"auto\">You get this with error with the pre-built binaries? What platform?</p>",
    "body_text": "You get this with error with the pre-built binaries? What platform?",
    "body": "You get this with error with the pre-built binaries? What platform?\n",
    "reactions": {
      "url": "https://api.github.com/repos/bitcoin/bitcoin/issues/comments/3258761/reactions",
      "total_count": 0,
      "+1": 0,
      "-1": 0,
      "laugh": 0,
      "hooray": 0,
      "confused": 0,
      "heart": 0,
      "rocket": 0,
      "eyes": 0
    },
    "performed_via_github_app": null
  },
  {
    "url": "https://api.github.com/repos/bitcoin/bitcoin/issues/comments/3259122",
    "html_url": "https://github.com/bitcoin/bitcoin/issues/722#issuecomment-3259122",
    "issue_url": "https://api.github.com/repos/bitcoin/bitcoin/issues/722",
    "id": 3259122,
    "node_id": "MDEyOklzc3VlQ29tbWVudDMyNTkxMjI=",
    "user": {
      "login": "AEtherSurfer",
      "id": 193637,
      "node_id": "MDQ6VXNlcjE5MzYzNw==",
      "avatar_url": "https://avatars.githubusercontent.com/u/193637?v=4",
      "gravatar_id": "",
      "url": "https://api.github.com/users/AEtherSurfer",
      "html_url": "https://github.com/AEtherSurfer",
      "followers_url": "https://api.github.com/users/AEtherSurfer/followers",
      "following_url": "https://api.github.com/users/AEtherSurfer/following{/other_user}",
      "gists_url": "https://api.github.com/users/AEtherSurfer/gists{/gist_id}",
      "starred_url": "https://api.github.com/users/AEtherSurfer/starred{/owner}{/repo}",
      "subscriptions_url": "https://api.github.com/users/AEtherSurfer/subscriptions",
      "organizations_url": "https://api.github.com/users/AEtherSurfer/orgs",
      "repos_url": "https://api.github.com/users/AEtherSurfer/repos",
      "events_url": "https://api.github.com/users/AEtherSurfer/events{/privacy}",
      "received_events_url": "https://api.github.com/users/AEtherSurfer/received_events",
      "type": "User",
      "site_admin": false
    },
    "created_at": "2011-12-23T08:53:17Z",
    "updated_at": "2011-12-23T08:53:17Z",
    "author_association": "NONE",
    "body_html": "<p dir=\"auto\">yes linux</p>",
    "body_text": "yes linux",
    "body": "yes linux\n",
    "reactions": {
      "url": "https://api.github.com/repos/bitcoin/bitcoin/issues/comments/3259122/reactions",
      "total_count": 0,
      "+1": 0,
      "-1": 0,
      "laugh": 0,
      "hooray": 0,
      "confused": 0,
      "heart": 0,
      "rocket": 0,
      "eyes": 0
    },
    "performed_via_github_app": null
  }
]
