[
  {
    "url": "https://api.github.com/repos/bitcoin/bitcoin/issues/comments/89714343",
    "html_url": "https://github.com/bitcoin/bitcoin/pull/5965#issuecomment-89714343",
    "issue_url": "https://api.github.com/repos/bitcoin/bitcoin/issues/5965",
    "id": 89714343,
    "node_id": "MDEyOklzc3VlQ29tbWVudDg5NzE0MzQz",
    "user": {
      "login": "fanquake",
      "id": 863730,
      "node_id": "MDQ6VXNlcjg2MzczMA==",
      "avatar_url": "https://avatars.githubusercontent.com/u/863730?v=4",
      "gravatar_id": "",
      "url": "https://api.github.com/users/fanquake",
      "html_url": "https://github.com/fanquake",
      "followers_url": "https://api.github.com/users/fanquake/followers",
      "following_url": "https://api.github.com/users/fanquake/following{/other_user}",
      "gists_url": "https://api.github.com/users/fanquake/gists{/gist_id}",
      "starred_url": "https://api.github.com/users/fanquake/starred{/owner}{/repo}",
      "subscriptions_url": "https://api.github.com/users/fanquake/subscriptions",
      "organizations_url": "https://api.github.com/users/fanquake/orgs",
      "repos_url": "https://api.github.com/users/fanquake/repos",
      "events_url": "https://api.github.com/users/fanquake/events{/privacy}",
      "received_events_url": "https://api.github.com/users/fanquake/received_events",
      "type": "User",
      "site_admin": false
    },
    "created_at": "2015-04-05T04:21:36Z",
    "updated_at": "2015-04-05T04:21:36Z",
    "author_association": "MEMBER",
    "body_html": "<p dir=\"auto\">Testing. <a class=\"user-mention notranslate\" data-hovercard-type=\"user\" data-hovercard-url=\"/users/sipa/hovercard\" data-octo-click=\"hovercard-link-click\" data-octo-dimensions=\"link_type:self\" href=\"https://github.com/sipa\">@sipa</a> Does this match what you'd expect to see?</p>\n<div class=\"snippet-clipboard-content notranslate position-relative overflow-auto\" data-snippet-clipboard-copy-content=\"bash-3.2$ contrib/devtools/git-subtree-check.sh src/secp256k1\nsrc/secp256k1 in HEAD was last updated to upstream commit 50cc6ab0625efda6dddf1dc86c1e2671f069b0d8 (tree 3b675a638355f8ccad0474900fed0bffcda8e62a)\nsrc/secp256k1 in HEAD currently refers to tree 3b675a638355f8ccad0474900fed0bffcda8e62a\nGOOD\nbash-3.2$ contrib/devtools/git-subtree-check.sh src/leveldb\nsrc/leveldb in HEAD was last updated to upstream commit 7d41e6f89ff04ce9e6a742932924796f69c6e23d (tree ab3e90ac840140eb5bec8a5c69bf890162a43941)\nsrc/leveldb in HEAD currently refers to tree ab3e90ac840140eb5bec8a5c69bf890162a43941\nGOOD\"><pre class=\"notranslate\"><code class=\"notranslate\">bash-3.2$ contrib/devtools/git-subtree-check.sh src/secp256k1\nsrc/secp256k1 in HEAD was last updated to upstream commit 50cc6ab0625efda6dddf1dc86c1e2671f069b0d8 (tree 3b675a638355f8ccad0474900fed0bffcda8e62a)\nsrc/secp256k1 in HEAD currently refers to tree 3b675a638355f8ccad0474900fed0bffcda8e62a\nGOOD\nbash-3.2$ contrib/devtools/git-subtree-check.sh src/leveldb\nsrc/leveldb in HEAD was last updated to upstream commit 7d41e6f89ff04ce9e6a742932924796f69c6e23d (tree ab3e90ac840140eb5bec8a5c69bf890162a43941)\nsrc/leveldb in HEAD currently refers to tree ab3e90ac840140eb5bec8a5c69bf890162a43941\nGOOD\n</code></pre></div>",
    "body_text": "Testing. @sipa Does this match what you'd expect to see?\nbash-3.2$ contrib/devtools/git-subtree-check.sh src/secp256k1\nsrc/secp256k1 in HEAD was last updated to upstream commit 50cc6ab0625efda6dddf1dc86c1e2671f069b0d8 (tree 3b675a638355f8ccad0474900fed0bffcda8e62a)\nsrc/secp256k1 in HEAD currently refers to tree 3b675a638355f8ccad0474900fed0bffcda8e62a\nGOOD\nbash-3.2$ contrib/devtools/git-subtree-check.sh src/leveldb\nsrc/leveldb in HEAD was last updated to upstream commit 7d41e6f89ff04ce9e6a742932924796f69c6e23d (tree ab3e90ac840140eb5bec8a5c69bf890162a43941)\nsrc/leveldb in HEAD currently refers to tree ab3e90ac840140eb5bec8a5c69bf890162a43941\nGOOD",
    "body": "Testing. @sipa Does this match what you'd expect to see?\n\n```\nbash-3.2$ contrib/devtools/git-subtree-check.sh src/secp256k1\nsrc/secp256k1 in HEAD was last updated to upstream commit 50cc6ab0625efda6dddf1dc86c1e2671f069b0d8 (tree 3b675a638355f8ccad0474900fed0bffcda8e62a)\nsrc/secp256k1 in HEAD currently refers to tree 3b675a638355f8ccad0474900fed0bffcda8e62a\nGOOD\nbash-3.2$ contrib/devtools/git-subtree-check.sh src/leveldb\nsrc/leveldb in HEAD was last updated to upstream commit 7d41e6f89ff04ce9e6a742932924796f69c6e23d (tree ab3e90ac840140eb5bec8a5c69bf890162a43941)\nsrc/leveldb in HEAD currently refers to tree ab3e90ac840140eb5bec8a5c69bf890162a43941\nGOOD\n```\n",
    "reactions": {
      "url": "https://api.github.com/repos/bitcoin/bitcoin/issues/comments/89714343/reactions",
      "total_count": 0,
      "+1": 0,
      "-1": 0,
      "laugh": 0,
      "hooray": 0,
      "confused": 0,
      "heart": 0,
      "rocket": 0,
      "eyes": 0
    },
    "performed_via_github_app": null
  },
  {
    "url": "https://api.github.com/repos/bitcoin/bitcoin/issues/comments/89716067",
    "html_url": "https://github.com/bitcoin/bitcoin/pull/5965#issuecomment-89716067",
    "issue_url": "https://api.github.com/repos/bitcoin/bitcoin/issues/5965",
    "id": 89716067,
    "node_id": "MDEyOklzc3VlQ29tbWVudDg5NzE2MDY3",
    "user": {
      "login": "sipa",
      "id": 548488,
      "node_id": "MDQ6VXNlcjU0ODQ4OA==",
      "avatar_url": "https://avatars.githubusercontent.com/u/548488?v=4",
      "gravatar_id": "",
      "url": "https://api.github.com/users/sipa",
      "html_url": "https://github.com/sipa",
      "followers_url": "https://api.github.com/users/sipa/followers",
      "following_url": "https://api.github.com/users/sipa/following{/other_user}",
      "gists_url": "https://api.github.com/users/sipa/gists{/gist_id}",
      "starred_url": "https://api.github.com/users/sipa/starred{/owner}{/repo}",
      "subscriptions_url": "https://api.github.com/users/sipa/subscriptions",
      "organizations_url": "https://api.github.com/users/sipa/orgs",
      "repos_url": "https://api.github.com/users/sipa/repos",
      "events_url": "https://api.github.com/users/sipa/events{/privacy}",
      "received_events_url": "https://api.github.com/users/sipa/received_events",
      "type": "User",
      "site_admin": false
    },
    "created_at": "2015-04-05T04:46:34Z",
    "updated_at": "2015-04-05T04:46:34Z",
    "author_association": "MEMBER",
    "body_html": "<p dir=\"auto\">You indeed expect it to say 'GOOD'.</p>\n<p dir=\"auto\">Note that it will fail for src/secp256k1 in 0.10, as that has local modifications on top of the upstream import.</p>",
    "body_text": "You indeed expect it to say 'GOOD'.\nNote that it will fail for src/secp256k1 in 0.10, as that has local modifications on top of the upstream import.",
    "body": "You indeed expect it to say 'GOOD'.\n\nNote that it will fail for src/secp256k1 in 0.10, as that has local modifications on top of the upstream import.\n",
    "reactions": {
      "url": "https://api.github.com/repos/bitcoin/bitcoin/issues/comments/89716067/reactions",
      "total_count": 0,
      "+1": 0,
      "-1": 0,
      "laugh": 0,
      "hooray": 0,
      "confused": 0,
      "heart": 0,
      "rocket": 0,
      "eyes": 0
    },
    "performed_via_github_app": null
  }
]
