{
  "url": "https://api.github.com/repos/bitcoin/bitcoin/issues/20943",
  "repository_url": "https://api.github.com/repos/bitcoin/bitcoin",
  "labels_url": "https://api.github.com/repos/bitcoin/bitcoin/issues/20943/labels{/name}",
  "comments_url": "https://api.github.com/repos/bitcoin/bitcoin/issues/20943/comments",
  "events_url": "https://api.github.com/repos/bitcoin/bitcoin/issues/20943/events",
  "html_url": "https://github.com/bitcoin/bitcoin/issues/20943",
  "id": 786751457,
  "node_id": "MDU6SXNzdWU3ODY3NTE0NTc=",
  "number": 20943,
  "title": "wallet: balance gone when tx broadcast failed",
  "user": {
    "login": "decryp2kanon",
    "id": 60179867,
    "node_id": "MDQ6VXNlcjYwMTc5ODY3",
    "avatar_url": "https://avatars.githubusercontent.com/u/60179867?v=4",
    "gravatar_id": "",
    "url": "https://api.github.com/users/decryp2kanon",
    "html_url": "https://github.com/decryp2kanon",
    "followers_url": "https://api.github.com/users/decryp2kanon/followers",
    "following_url": "https://api.github.com/users/decryp2kanon/following{/other_user}",
    "gists_url": "https://api.github.com/users/decryp2kanon/gists{/gist_id}",
    "starred_url": "https://api.github.com/users/decryp2kanon/starred{/owner}{/repo}",
    "subscriptions_url": "https://api.github.com/users/decryp2kanon/subscriptions",
    "organizations_url": "https://api.github.com/users/decryp2kanon/orgs",
    "repos_url": "https://api.github.com/users/decryp2kanon/repos",
    "events_url": "https://api.github.com/users/decryp2kanon/events{/privacy}",
    "received_events_url": "https://api.github.com/users/decryp2kanon/received_events",
    "type": "User",
    "site_admin": false
  },
  "labels": [
    {
      "id": 64585,
      "node_id": "MDU6TGFiZWw2NDU4NQ==",
      "url": "https://api.github.com/repos/bitcoin/bitcoin/labels/Bug",
      "name": "Bug",
      "color": "FBBAAB",
      "default": false,
      "description": null
    },
    {
      "id": 149424,
      "node_id": "MDU6TGFiZWwxNDk0MjQ=",
      "url": "https://api.github.com/repos/bitcoin/bitcoin/labels/Wallet",
      "name": "Wallet",
      "color": "08a781",
      "default": false,
      "description": null
    }
  ],
  "state": "open",
  "locked": false,
  "assignee": null,
  "assignees": [

  ],
  "milestone": null,
  "comments": 5,
  "created_at": "2021-01-15T09:39:20Z",
  "updated_at": "2023-03-09T09:39:45Z",
  "closed_at": null,
  "author_association": "CONTRIBUTOR",
  "active_lock_reason": null,
  "body_html": "<p dir=\"auto\">on BTC mainnet. I set the txfee as minimal (custom <code class=\"notranslate\">0.00001</code> per kilo) and it failed. The problem is displaying my balance as <code class=\"notranslate\">0</code> (on QT GUI side) until abandon this tx. I was very scared.</p>\n<p dir=\"auto\">v0.20.1</p>\n<div class=\"snippet-clipboard-content notranslate position-relative overflow-auto\" data-snippet-clipboard-copy-content=\"2021-01-15T09:26:27Z [default wallet] AddToWallet xxx  new\n2021-01-15T09:26:28Z [default wallet] Submitting wtx xxx to mempool for relay\n2021-01-15T09:26:28Z [default wallet] CommitTransaction(): Transaction cannot be broadcast immediately, mempool min fee not met, 142 &lt; 152\n2021-01-15T09:29:10Z [default wallet] Fee Calculation: Fee:17407 Bytes:142 Needed:17407 Tgt:0 (requested 0) Reason:&quot;PayTxFee set&quot; Decay 0.00000: Estimation: (-1 - -1) -nan% 0.0/(0.0 0 mem 0.0 out) Fail: (-1 - -1) -nan% 0.0/(0.0 0 mem 0.0 out)\"><pre class=\"notranslate\"><code class=\"notranslate\">2021-01-15T09:26:27Z [default wallet] AddToWallet xxx  new\n2021-01-15T09:26:28Z [default wallet] Submitting wtx xxx to mempool for relay\n2021-01-15T09:26:28Z [default wallet] CommitTransaction(): Transaction cannot be broadcast immediately, mempool min fee not met, 142 &lt; 152\n2021-01-15T09:29:10Z [default wallet] Fee Calculation: Fee:17407 Bytes:142 Needed:17407 Tgt:0 (requested 0) Reason:\"PayTxFee set\" Decay 0.00000: Estimation: (-1 - -1) -nan% 0.0/(0.0 0 mem 0.0 out) Fail: (-1 - -1) -nan% 0.0/(0.0 0 mem 0.0 out)\n</code></pre></div>",
  "body_text": "on BTC mainnet. I set the txfee as minimal (custom 0.00001 per kilo) and it failed. The problem is displaying my balance as 0 (on QT GUI side) until abandon this tx. I was very scared.\nv0.20.1\n2021-01-15T09:26:27Z [default wallet] AddToWallet xxx  new\n2021-01-15T09:26:28Z [default wallet] Submitting wtx xxx to mempool for relay\n2021-01-15T09:26:28Z [default wallet] CommitTransaction(): Transaction cannot be broadcast immediately, mempool min fee not met, 142 < 152\n2021-01-15T09:29:10Z [default wallet] Fee Calculation: Fee:17407 Bytes:142 Needed:17407 Tgt:0 (requested 0) Reason:\"PayTxFee set\" Decay 0.00000: Estimation: (-1 - -1) -nan% 0.0/(0.0 0 mem 0.0 out) Fail: (-1 - -1) -nan% 0.0/(0.0 0 mem 0.0 out)",
  "body": "on BTC mainnet. I set the txfee as minimal (custom `0.00001` per kilo) and it failed. The problem is displaying my balance as `0` (on QT GUI side) until abandon this tx. I was very scared.\r\n\r\nv0.20.1\r\n\r\n```\r\n2021-01-15T09:26:27Z [default wallet] AddToWallet xxx  new\r\n2021-01-15T09:26:28Z [default wallet] Submitting wtx xxx to mempool for relay\r\n2021-01-15T09:26:28Z [default wallet] CommitTransaction(): Transaction cannot be broadcast immediately, mempool min fee not met, 142 < 152\r\n2021-01-15T09:29:10Z [default wallet] Fee Calculation: Fee:17407 Bytes:142 Needed:17407 Tgt:0 (requested 0) Reason:\"PayTxFee set\" Decay 0.00000: Estimation: (-1 - -1) -nan% 0.0/(0.0 0 mem 0.0 out) Fail: (-1 - -1) -nan% 0.0/(0.0 0 mem 0.0 out)\r\n```\r\n",
  "closed_by": null,
  "reactions": {
    "url": "https://api.github.com/repos/bitcoin/bitcoin/issues/20943/reactions",
    "total_count": 0,
    "+1": 0,
    "-1": 0,
    "laugh": 0,
    "hooray": 0,
    "confused": 0,
    "heart": 0,
    "rocket": 0,
    "eyes": 0
  },
  "timeline_url": "https://api.github.com/repos/bitcoin/bitcoin/issues/20943/timeline",
  "performed_via_github_app": null,
  "state_reason": null
}
