{
  "url": "https://api.github.com/repos/bitcoin/bitcoin/issues/6086",
  "repository_url": "https://api.github.com/repos/bitcoin/bitcoin",
  "labels_url": "https://api.github.com/repos/bitcoin/bitcoin/issues/6086/labels{/name}",
  "comments_url": "https://api.github.com/repos/bitcoin/bitcoin/issues/6086/comments",
  "events_url": "https://api.github.com/repos/bitcoin/bitcoin/issues/6086/events",
  "html_url": "https://github.com/bitcoin/bitcoin/pull/6086",
  "id": 72269803,
  "node_id": "MDExOlB1bGxSZXF1ZXN0MzQ0OTY2MTE=",
  "number": 6086,
  "title": "Trivial: useless cast (ptime)(I'm ptime)",
  "user": {
    "login": "svost",
    "id": 6769910,
    "node_id": "MDQ6VXNlcjY3Njk5MTA=",
    "avatar_url": "https://avatars.githubusercontent.com/u/6769910?v=4",
    "gravatar_id": "",
    "url": "https://api.github.com/users/svost",
    "html_url": "https://github.com/svost",
    "followers_url": "https://api.github.com/users/svost/followers",
    "following_url": "https://api.github.com/users/svost/following{/other_user}",
    "gists_url": "https://api.github.com/users/svost/gists{/gist_id}",
    "starred_url": "https://api.github.com/users/svost/starred{/owner}{/repo}",
    "subscriptions_url": "https://api.github.com/users/svost/subscriptions",
    "organizations_url": "https://api.github.com/users/svost/orgs",
    "repos_url": "https://api.github.com/users/svost/repos",
    "events_url": "https://api.github.com/users/svost/events{/privacy}",
    "received_events_url": "https://api.github.com/users/svost/received_events",
    "type": "User",
    "site_admin": false
  },
  "labels": [
    {
      "id": 135961,
      "node_id": "MDU6TGFiZWwxMzU5NjE=",
      "url": "https://api.github.com/repos/bitcoin/bitcoin/labels/Refactoring",
      "name": "Refactoring",
      "color": "E6F6D6",
      "default": false,
      "description": null
    }
  ],
  "state": "closed",
  "locked": true,
  "assignee": null,
  "assignees": [

  ],
  "milestone": null,
  "comments": 2,
  "created_at": "2015-04-30T20:16:20Z",
  "updated_at": "2021-09-08T10:45:55Z",
  "closed_at": "2015-05-04T07:30:15Z",
  "author_association": "CONTRIBUTOR",
  "active_lock_reason": "resolved",
  "draft": false,
  "pull_request": {
    "url": "https://api.github.com/repos/bitcoin/bitcoin/pulls/6086",
    "html_url": "https://github.com/bitcoin/bitcoin/pull/6086",
    "diff_url": "https://github.com/bitcoin/bitcoin/pull/6086.diff",
    "patch_url": "https://github.com/bitcoin/bitcoin/pull/6086.patch",
    "merged_at": "2015-05-04T07:30:15Z"
  },
  "body_html": "",
  "body_text": "",
  "body": "",
  "closed_by": {
    "login": "laanwj",
    "id": 126646,
    "node_id": "MDQ6VXNlcjEyNjY0Ng==",
    "avatar_url": "https://avatars.githubusercontent.com/u/126646?v=4",
    "gravatar_id": "",
    "url": "https://api.github.com/users/laanwj",
    "html_url": "https://github.com/laanwj",
    "followers_url": "https://api.github.com/users/laanwj/followers",
    "following_url": "https://api.github.com/users/laanwj/following{/other_user}",
    "gists_url": "https://api.github.com/users/laanwj/gists{/gist_id}",
    "starred_url": "https://api.github.com/users/laanwj/starred{/owner}{/repo}",
    "subscriptions_url": "https://api.github.com/users/laanwj/subscriptions",
    "organizations_url": "https://api.github.com/users/laanwj/orgs",
    "repos_url": "https://api.github.com/users/laanwj/repos",
    "events_url": "https://api.github.com/users/laanwj/events{/privacy}",
    "received_events_url": "https://api.github.com/users/laanwj/received_events",
    "type": "User",
    "site_admin": false
  },
  "reactions": {
    "url": "https://api.github.com/repos/bitcoin/bitcoin/issues/6086/reactions",
    "total_count": 0,
    "+1": 0,
    "-1": 0,
    "laugh": 0,
    "hooray": 0,
    "confused": 0,
    "heart": 0,
    "rocket": 0,
    "eyes": 0
  },
  "timeline_url": "https://api.github.com/repos/bitcoin/bitcoin/issues/6086/timeline",
  "performed_via_github_app": null,
  "state_reason": null
}
