[
  {
    "url": "https://api.github.com/repos/bitcoin/bitcoin/issues/comments/770529201",
    "html_url": "https://github.com/bitcoin/bitcoin/issues/21047#issuecomment-770529201",
    "issue_url": "https://api.github.com/repos/bitcoin/bitcoin/issues/21047",
    "id": 770529201,
    "node_id": "MDEyOklzc3VlQ29tbWVudDc3MDUyOTIwMQ==",
    "user": {
      "login": "fanquake",
      "id": 863730,
      "node_id": "MDQ6VXNlcjg2MzczMA==",
      "avatar_url": "https://avatars.githubusercontent.com/u/863730?v=4",
      "gravatar_id": "",
      "url": "https://api.github.com/users/fanquake",
      "html_url": "https://github.com/fanquake",
      "followers_url": "https://api.github.com/users/fanquake/followers",
      "following_url": "https://api.github.com/users/fanquake/following{/other_user}",
      "gists_url": "https://api.github.com/users/fanquake/gists{/gist_id}",
      "starred_url": "https://api.github.com/users/fanquake/starred{/owner}{/repo}",
      "subscriptions_url": "https://api.github.com/users/fanquake/subscriptions",
      "organizations_url": "https://api.github.com/users/fanquake/orgs",
      "repos_url": "https://api.github.com/users/fanquake/repos",
      "events_url": "https://api.github.com/users/fanquake/events{/privacy}",
      "received_events_url": "https://api.github.com/users/fanquake/received_events",
      "type": "User",
      "site_admin": false
    },
    "created_at": "2021-02-01T02:54:06Z",
    "updated_at": "2021-02-01T02:54:06Z",
    "author_association": "MEMBER",
    "body_html": "<blockquote>\n<p dir=\"auto\">let's make a pull request to reduce the network fees.</p>\n</blockquote>\n<p dir=\"auto\">That is not how that would work. Please stop opening these issues.</p>",
    "body_text": "let's make a pull request to reduce the network fees.\n\nThat is not how that would work. Please stop opening these issues.",
    "body": "> let's make a pull request to reduce the network fees.\r\n\r\nThat is not how that would work. Please stop opening these issues.",
    "reactions": {
      "url": "https://api.github.com/repos/bitcoin/bitcoin/issues/comments/770529201/reactions",
      "total_count": 0,
      "+1": 0,
      "-1": 0,
      "laugh": 0,
      "hooray": 0,
      "confused": 0,
      "heart": 0,
      "rocket": 0,
      "eyes": 0
    },
    "performed_via_github_app": null
  },
  {
    "url": "https://api.github.com/repos/bitcoin/bitcoin/issues/comments/770530140",
    "html_url": "https://github.com/bitcoin/bitcoin/issues/21047#issuecomment-770530140",
    "issue_url": "https://api.github.com/repos/bitcoin/bitcoin/issues/21047",
    "id": 770530140,
    "node_id": "MDEyOklzc3VlQ29tbWVudDc3MDUzMDE0MA==",
    "user": {
      "login": "sipa",
      "id": 548488,
      "node_id": "MDQ6VXNlcjU0ODQ4OA==",
      "avatar_url": "https://avatars.githubusercontent.com/u/548488?v=4",
      "gravatar_id": "",
      "url": "https://api.github.com/users/sipa",
      "html_url": "https://github.com/sipa",
      "followers_url": "https://api.github.com/users/sipa/followers",
      "following_url": "https://api.github.com/users/sipa/following{/other_user}",
      "gists_url": "https://api.github.com/users/sipa/gists{/gist_id}",
      "starred_url": "https://api.github.com/users/sipa/starred{/owner}{/repo}",
      "subscriptions_url": "https://api.github.com/users/sipa/subscriptions",
      "organizations_url": "https://api.github.com/users/sipa/orgs",
      "repos_url": "https://api.github.com/users/sipa/repos",
      "events_url": "https://api.github.com/users/sipa/events{/privacy}",
      "received_events_url": "https://api.github.com/users/sipa/received_events",
      "type": "User",
      "site_admin": false
    },
    "created_at": "2021-02-01T02:57:31Z",
    "updated_at": "2021-02-01T02:57:31Z",
    "author_association": "MEMBER",
    "body_html": "<p dir=\"auto\">Discussion on proposals for changing Bitcoin's network rules affects more than just a single implementation, and belong on the bitcoin-dev mailiglist: <a href=\"https://lists.linuxfoundation.org/mailman/listinfo/bitcoin-dev\" rel=\"nofollow\">https://lists.linuxfoundation.org/mailman/listinfo/bitcoin-dev</a></p>\n<p dir=\"auto\">This issue tracker is for specific implementation issues with Bitcoin Core, not network-wide protocol changes.</p>",
    "body_text": "Discussion on proposals for changing Bitcoin's network rules affects more than just a single implementation, and belong on the bitcoin-dev mailiglist: https://lists.linuxfoundation.org/mailman/listinfo/bitcoin-dev\nThis issue tracker is for specific implementation issues with Bitcoin Core, not network-wide protocol changes.",
    "body": "Discussion on proposals for changing Bitcoin's network rules affects more than just a single implementation, and belong on the bitcoin-dev mailiglist: https://lists.linuxfoundation.org/mailman/listinfo/bitcoin-dev\n\nThis issue tracker is for specific implementation issues with Bitcoin Core, not network-wide protocol changes.",
    "reactions": {
      "url": "https://api.github.com/repos/bitcoin/bitcoin/issues/comments/770530140/reactions",
      "total_count": 0,
      "+1": 0,
      "-1": 0,
      "laugh": 0,
      "hooray": 0,
      "confused": 0,
      "heart": 0,
      "rocket": 0,
      "eyes": 0
    },
    "performed_via_github_app": null
  }
]
