{
  "url": "https://api.github.com/repos/bitcoin/bitcoin/issues/20721",
  "repository_url": "https://api.github.com/repos/bitcoin/bitcoin",
  "labels_url": "https://api.github.com/repos/bitcoin/bitcoin/issues/20721/labels{/name}",
  "comments_url": "https://api.github.com/repos/bitcoin/bitcoin/issues/20721/comments",
  "events_url": "https://api.github.com/repos/bitcoin/bitcoin/issues/20721/events",
  "html_url": "https://github.com/bitcoin/bitcoin/pull/20721",
  "id": 771362614,
  "node_id": "MDExOlB1bGxSZXF1ZXN0NTQyOTE0MzY4",
  "number": 20721,
  "title": "Net: Move ping data to net_processing",
  "user": {
    "login": "jnewbery",
    "id": 1063656,
    "node_id": "MDQ6VXNlcjEwNjM2NTY=",
    "avatar_url": "https://avatars.githubusercontent.com/u/1063656?v=4",
    "gravatar_id": "",
    "url": "https://api.github.com/users/jnewbery",
    "html_url": "https://github.com/jnewbery",
    "followers_url": "https://api.github.com/users/jnewbery/followers",
    "following_url": "https://api.github.com/users/jnewbery/following{/other_user}",
    "gists_url": "https://api.github.com/users/jnewbery/gists{/gist_id}",
    "starred_url": "https://api.github.com/users/jnewbery/starred{/owner}{/repo}",
    "subscriptions_url": "https://api.github.com/users/jnewbery/subscriptions",
    "organizations_url": "https://api.github.com/users/jnewbery/orgs",
    "repos_url": "https://api.github.com/users/jnewbery/repos",
    "events_url": "https://api.github.com/users/jnewbery/events{/privacy}",
    "received_events_url": "https://api.github.com/users/jnewbery/received_events",
    "type": "User",
    "site_admin": false
  },
  "labels": [
    {
      "id": 98298007,
      "node_id": "MDU6TGFiZWw5ODI5ODAwNw==",
      "url": "https://api.github.com/repos/bitcoin/bitcoin/labels/P2P",
      "name": "P2P",
      "color": "006b75",
      "default": false,
      "description": null
    }
  ],
  "state": "closed",
  "locked": true,
  "assignee": null,
  "assignees": [

  ],
  "milestone": null,
  "comments": 35,
  "created_at": "2020-12-19T11:24:22Z",
  "updated_at": "2022-08-16T17:12:27Z",
  "closed_at": "2021-02-16T10:49:27Z",
  "author_association": "CONTRIBUTOR",
  "active_lock_reason": "resolved",
  "draft": false,
  "pull_request": {
    "url": "https://api.github.com/repos/bitcoin/bitcoin/pulls/20721",
    "html_url": "https://github.com/bitcoin/bitcoin/pull/20721",
    "diff_url": "https://github.com/bitcoin/bitcoin/pull/20721.diff",
    "patch_url": "https://github.com/bitcoin/bitcoin/pull/20721.patch",
    "merged_at": "2021-02-16T10:49:27Z"
  },
  "body_html": "<p dir=\"auto\">This continues the work of moving application layer data into net_processing, by moving all ping data into the new Peer object added in <a class=\"issue-link js-issue-link\" data-error-text=\"Failed to load title\" data-id=\"666913502\" data-permission-text=\"Title is private\" data-url=\"https://github.com/bitcoin/bitcoin/issues/19607\" data-hovercard-type=\"pull_request\" data-hovercard-url=\"/bitcoin/bitcoin/pull/19607/hovercard\" href=\"https://github.com/bitcoin/bitcoin/pull/19607\">#19607</a>.</p>\n<p dir=\"auto\">For motivation, see <a class=\"issue-link js-issue-link\" data-error-text=\"Failed to load title\" data-id=\"646725848\" data-permission-text=\"Title is private\" data-url=\"https://github.com/bitcoin/bitcoin/issues/19398\" data-hovercard-type=\"issue\" data-hovercard-url=\"/bitcoin/bitcoin/issues/19398/hovercard\" href=\"https://github.com/bitcoin/bitcoin/issues/19398\">#19398</a>.</p>",
  "body_text": "This continues the work of moving application layer data into net_processing, by moving all ping data into the new Peer object added in #19607.\nFor motivation, see #19398.",
  "body": "This continues the work of moving application layer data into net_processing, by moving all ping data into the new Peer object added in #19607.\r\n\r\nFor motivation, see #19398.",
  "closed_by": {
    "login": "fanquake",
    "id": 863730,
    "node_id": "MDQ6VXNlcjg2MzczMA==",
    "avatar_url": "https://avatars.githubusercontent.com/u/863730?v=4",
    "gravatar_id": "",
    "url": "https://api.github.com/users/fanquake",
    "html_url": "https://github.com/fanquake",
    "followers_url": "https://api.github.com/users/fanquake/followers",
    "following_url": "https://api.github.com/users/fanquake/following{/other_user}",
    "gists_url": "https://api.github.com/users/fanquake/gists{/gist_id}",
    "starred_url": "https://api.github.com/users/fanquake/starred{/owner}{/repo}",
    "subscriptions_url": "https://api.github.com/users/fanquake/subscriptions",
    "organizations_url": "https://api.github.com/users/fanquake/orgs",
    "repos_url": "https://api.github.com/users/fanquake/repos",
    "events_url": "https://api.github.com/users/fanquake/events{/privacy}",
    "received_events_url": "https://api.github.com/users/fanquake/received_events",
    "type": "User",
    "site_admin": false
  },
  "reactions": {
    "url": "https://api.github.com/repos/bitcoin/bitcoin/issues/20721/reactions",
    "total_count": 1,
    "+1": 1,
    "-1": 0,
    "laugh": 0,
    "hooray": 0,
    "confused": 0,
    "heart": 0,
    "rocket": 0,
    "eyes": 0
  },
  "timeline_url": "https://api.github.com/repos/bitcoin/bitcoin/issues/20721/timeline",
  "performed_via_github_app": null,
  "state_reason": null
}
