[
  {
    "url": "https://api.github.com/repos/bitcoin/bitcoin/issues/comments/160036506",
    "html_url": "https://github.com/bitcoin/bitcoin/issues/7108#issuecomment-160036506",
    "issue_url": "https://api.github.com/repos/bitcoin/bitcoin/issues/7108",
    "id": 160036506,
    "node_id": "MDEyOklzc3VlQ29tbWVudDE2MDAzNjUwNg==",
    "user": {
      "login": "fanquake",
      "id": 863730,
      "node_id": "MDQ6VXNlcjg2MzczMA==",
      "avatar_url": "https://avatars.githubusercontent.com/u/863730?v=4",
      "gravatar_id": "",
      "url": "https://api.github.com/users/fanquake",
      "html_url": "https://github.com/fanquake",
      "followers_url": "https://api.github.com/users/fanquake/followers",
      "following_url": "https://api.github.com/users/fanquake/following{/other_user}",
      "gists_url": "https://api.github.com/users/fanquake/gists{/gist_id}",
      "starred_url": "https://api.github.com/users/fanquake/starred{/owner}{/repo}",
      "subscriptions_url": "https://api.github.com/users/fanquake/subscriptions",
      "organizations_url": "https://api.github.com/users/fanquake/orgs",
      "repos_url": "https://api.github.com/users/fanquake/repos",
      "events_url": "https://api.github.com/users/fanquake/events{/privacy}",
      "received_events_url": "https://api.github.com/users/fanquake/received_events",
      "type": "User",
      "site_admin": false
    },
    "created_at": "2015-11-27T03:58:38Z",
    "updated_at": "2015-11-27T03:58:38Z",
    "author_association": "MEMBER",
    "body_html": "<p dir=\"auto\">Except from the PasteBin link:</p>\n<div class=\"snippet-clipboard-content notranslate position-relative overflow-auto\" data-snippet-clipboard-copy-content=\"2015-11-27 00:56:14 CoinControlDialog::updateLabels() - Time elapsed: 0.188000\n2015-11-27 00:56:14 CoinControlDialog::viewItemChanged() - Time elapsed: 0.188000\n\n2015-11-27 00:56:15 CoinControlDialog::updateLabels() - Time elapsed: 0.187000\n2015-11-27 00:56:15 CoinControlDialog::viewItemChanged() - Time elapsed: 0.187000\n\n2015-11-27 00:56:15 CoinControlDialog::updateLabels() - Time elapsed: 0.186000\n2015-11-27 00:56:15 CoinControlDialog::viewItemChanged() - Time elapsed: 0.187000\n\n2015-11-27 00:56:15 CoinControlDialog::updateLabels() - Time elapsed: 0.185000\n2015-11-27 00:56:15 CoinControlDialog::viewItemChanged() - Time elapsed: 0.186000\n\n2015-11-27 00:56:15 CoinControlDialog::updateLabels() - Time elapsed: 0.185000\n2015-11-27 00:56:15 CoinControlDialog::viewItemChanged() - Time elapsed: 0.185000\n\n2015-11-27 00:56:15 CoinControlDialog::updateLabels() - Time elapsed: 0.189000\n2015-11-27 00:56:15 CoinControlDialog::viewItemChanged() - Time elapsed: 0.190000\n\n2015-11-27 00:56:16 CoinControlDialog::updateLabels() - Time elapsed: 0.186000\n2015-11-27 00:56:16 CoinControlDialog::viewItemChanged() - Time elapsed: 0.186000\n\n2015-11-27 00:56:16 CoinControlDialog::updateLabels() - Time elapsed: 0.189000\n2015-11-27 00:56:16 CoinControlDialog::viewItemChanged() - Time elapsed: 0.189000\n\n2015-11-27 00:56:16 CoinControlDialog::updateLabels() - Time elapsed: 0.187000\n2015-11-27 00:56:16 CoinControlDialog::viewItemChanged() - Time elapsed: 0.188000\n\n2015-11-27 00:56:16 CoinControlDialog::updateLabels() - Time elapsed: 0.186000\n2015-11-27 00:56:16 CoinControlDialog::viewItemChanged() - Time elapsed: 0.186000\n\n2015-11-27 00:56:16 CoinControlDialog::viewItemChanged() - Time elapsed: 0.000000\n\n2015-11-27 00:56:16 CoinControlDialog::viewItemChanged() - Time elapsed: 57.793000\"><pre class=\"notranslate\"><code class=\"notranslate\">2015-11-27 00:56:14 CoinControlDialog::updateLabels() - Time elapsed: 0.188000\n2015-11-27 00:56:14 CoinControlDialog::viewItemChanged() - Time elapsed: 0.188000\n\n2015-11-27 00:56:15 CoinControlDialog::updateLabels() - Time elapsed: 0.187000\n2015-11-27 00:56:15 CoinControlDialog::viewItemChanged() - Time elapsed: 0.187000\n\n2015-11-27 00:56:15 CoinControlDialog::updateLabels() - Time elapsed: 0.186000\n2015-11-27 00:56:15 CoinControlDialog::viewItemChanged() - Time elapsed: 0.187000\n\n2015-11-27 00:56:15 CoinControlDialog::updateLabels() - Time elapsed: 0.185000\n2015-11-27 00:56:15 CoinControlDialog::viewItemChanged() - Time elapsed: 0.186000\n\n2015-11-27 00:56:15 CoinControlDialog::updateLabels() - Time elapsed: 0.185000\n2015-11-27 00:56:15 CoinControlDialog::viewItemChanged() - Time elapsed: 0.185000\n\n2015-11-27 00:56:15 CoinControlDialog::updateLabels() - Time elapsed: 0.189000\n2015-11-27 00:56:15 CoinControlDialog::viewItemChanged() - Time elapsed: 0.190000\n\n2015-11-27 00:56:16 CoinControlDialog::updateLabels() - Time elapsed: 0.186000\n2015-11-27 00:56:16 CoinControlDialog::viewItemChanged() - Time elapsed: 0.186000\n\n2015-11-27 00:56:16 CoinControlDialog::updateLabels() - Time elapsed: 0.189000\n2015-11-27 00:56:16 CoinControlDialog::viewItemChanged() - Time elapsed: 0.189000\n\n2015-11-27 00:56:16 CoinControlDialog::updateLabels() - Time elapsed: 0.187000\n2015-11-27 00:56:16 CoinControlDialog::viewItemChanged() - Time elapsed: 0.188000\n\n2015-11-27 00:56:16 CoinControlDialog::updateLabels() - Time elapsed: 0.186000\n2015-11-27 00:56:16 CoinControlDialog::viewItemChanged() - Time elapsed: 0.186000\n\n2015-11-27 00:56:16 CoinControlDialog::viewItemChanged() - Time elapsed: 0.000000\n\n2015-11-27 00:56:16 CoinControlDialog::viewItemChanged() - Time elapsed: 57.793000\n</code></pre></div>",
    "body_text": "Except from the PasteBin link:\n2015-11-27 00:56:14 CoinControlDialog::updateLabels() - Time elapsed: 0.188000\n2015-11-27 00:56:14 CoinControlDialog::viewItemChanged() - Time elapsed: 0.188000\n\n2015-11-27 00:56:15 CoinControlDialog::updateLabels() - Time elapsed: 0.187000\n2015-11-27 00:56:15 CoinControlDialog::viewItemChanged() - Time elapsed: 0.187000\n\n2015-11-27 00:56:15 CoinControlDialog::updateLabels() - Time elapsed: 0.186000\n2015-11-27 00:56:15 CoinControlDialog::viewItemChanged() - Time elapsed: 0.187000\n\n2015-11-27 00:56:15 CoinControlDialog::updateLabels() - Time elapsed: 0.185000\n2015-11-27 00:56:15 CoinControlDialog::viewItemChanged() - Time elapsed: 0.186000\n\n2015-11-27 00:56:15 CoinControlDialog::updateLabels() - Time elapsed: 0.185000\n2015-11-27 00:56:15 CoinControlDialog::viewItemChanged() - Time elapsed: 0.185000\n\n2015-11-27 00:56:15 CoinControlDialog::updateLabels() - Time elapsed: 0.189000\n2015-11-27 00:56:15 CoinControlDialog::viewItemChanged() - Time elapsed: 0.190000\n\n2015-11-27 00:56:16 CoinControlDialog::updateLabels() - Time elapsed: 0.186000\n2015-11-27 00:56:16 CoinControlDialog::viewItemChanged() - Time elapsed: 0.186000\n\n2015-11-27 00:56:16 CoinControlDialog::updateLabels() - Time elapsed: 0.189000\n2015-11-27 00:56:16 CoinControlDialog::viewItemChanged() - Time elapsed: 0.189000\n\n2015-11-27 00:56:16 CoinControlDialog::updateLabels() - Time elapsed: 0.187000\n2015-11-27 00:56:16 CoinControlDialog::viewItemChanged() - Time elapsed: 0.188000\n\n2015-11-27 00:56:16 CoinControlDialog::updateLabels() - Time elapsed: 0.186000\n2015-11-27 00:56:16 CoinControlDialog::viewItemChanged() - Time elapsed: 0.186000\n\n2015-11-27 00:56:16 CoinControlDialog::viewItemChanged() - Time elapsed: 0.000000\n\n2015-11-27 00:56:16 CoinControlDialog::viewItemChanged() - Time elapsed: 57.793000",
    "body": "Except from the PasteBin link:\n\n```\n2015-11-27 00:56:14 CoinControlDialog::updateLabels() - Time elapsed: 0.188000\n2015-11-27 00:56:14 CoinControlDialog::viewItemChanged() - Time elapsed: 0.188000\n\n2015-11-27 00:56:15 CoinControlDialog::updateLabels() - Time elapsed: 0.187000\n2015-11-27 00:56:15 CoinControlDialog::viewItemChanged() - Time elapsed: 0.187000\n\n2015-11-27 00:56:15 CoinControlDialog::updateLabels() - Time elapsed: 0.186000\n2015-11-27 00:56:15 CoinControlDialog::viewItemChanged() - Time elapsed: 0.187000\n\n2015-11-27 00:56:15 CoinControlDialog::updateLabels() - Time elapsed: 0.185000\n2015-11-27 00:56:15 CoinControlDialog::viewItemChanged() - Time elapsed: 0.186000\n\n2015-11-27 00:56:15 CoinControlDialog::updateLabels() - Time elapsed: 0.185000\n2015-11-27 00:56:15 CoinControlDialog::viewItemChanged() - Time elapsed: 0.185000\n\n2015-11-27 00:56:15 CoinControlDialog::updateLabels() - Time elapsed: 0.189000\n2015-11-27 00:56:15 CoinControlDialog::viewItemChanged() - Time elapsed: 0.190000\n\n2015-11-27 00:56:16 CoinControlDialog::updateLabels() - Time elapsed: 0.186000\n2015-11-27 00:56:16 CoinControlDialog::viewItemChanged() - Time elapsed: 0.186000\n\n2015-11-27 00:56:16 CoinControlDialog::updateLabels() - Time elapsed: 0.189000\n2015-11-27 00:56:16 CoinControlDialog::viewItemChanged() - Time elapsed: 0.189000\n\n2015-11-27 00:56:16 CoinControlDialog::updateLabels() - Time elapsed: 0.187000\n2015-11-27 00:56:16 CoinControlDialog::viewItemChanged() - Time elapsed: 0.188000\n\n2015-11-27 00:56:16 CoinControlDialog::updateLabels() - Time elapsed: 0.186000\n2015-11-27 00:56:16 CoinControlDialog::viewItemChanged() - Time elapsed: 0.186000\n\n2015-11-27 00:56:16 CoinControlDialog::viewItemChanged() - Time elapsed: 0.000000\n\n2015-11-27 00:56:16 CoinControlDialog::viewItemChanged() - Time elapsed: 57.793000\n```\n",
    "reactions": {
      "url": "https://api.github.com/repos/bitcoin/bitcoin/issues/comments/160036506/reactions",
      "total_count": 0,
      "+1": 0,
      "-1": 0,
      "laugh": 0,
      "hooray": 0,
      "confused": 0,
      "heart": 0,
      "rocket": 0,
      "eyes": 0
    },
    "performed_via_github_app": null
  },
  {
    "url": "https://api.github.com/repos/bitcoin/bitcoin/issues/comments/160036719",
    "html_url": "https://github.com/bitcoin/bitcoin/issues/7108#issuecomment-160036719",
    "issue_url": "https://api.github.com/repos/bitcoin/bitcoin/issues/7108",
    "id": 160036719,
    "node_id": "MDEyOklzc3VlQ29tbWVudDE2MDAzNjcxOQ==",
    "user": {
      "login": "Infernoman",
      "id": 8021207,
      "node_id": "MDQ6VXNlcjgwMjEyMDc=",
      "avatar_url": "https://avatars.githubusercontent.com/u/8021207?v=4",
      "gravatar_id": "",
      "url": "https://api.github.com/users/Infernoman",
      "html_url": "https://github.com/Infernoman",
      "followers_url": "https://api.github.com/users/Infernoman/followers",
      "following_url": "https://api.github.com/users/Infernoman/following{/other_user}",
      "gists_url": "https://api.github.com/users/Infernoman/gists{/gist_id}",
      "starred_url": "https://api.github.com/users/Infernoman/starred{/owner}{/repo}",
      "subscriptions_url": "https://api.github.com/users/Infernoman/subscriptions",
      "organizations_url": "https://api.github.com/users/Infernoman/orgs",
      "repos_url": "https://api.github.com/users/Infernoman/repos",
      "events_url": "https://api.github.com/users/Infernoman/events{/privacy}",
      "received_events_url": "https://api.github.com/users/Infernoman/received_events",
      "type": "User",
      "site_admin": false
    },
    "created_at": "2015-11-27T04:02:02Z",
    "updated_at": "2015-11-27T05:00:12Z",
    "author_association": "NONE",
    "body_html": "<p dir=\"auto\">scroll up to the top of the pastebin where the loop started.<br>\n2015-11-27 00:54:49 CoinControlDialog::updateLabels() - Time elapsed: 0.001000<br>\n2015-11-27 00:54:49 CoinControlDialog::viewItemChanged() - Time elapsed: 0.001000<br>\nalso when the number of inputs hits 500+ the delay starts to increase again.<br>\nI'll create another pastebin for reference, that is a bit better displayed. with a total of 1679 tx's. once it finally completes...<br>\nEDIT: <a href=\"http://pastebin.com/9M5h1c6n\" rel=\"nofollow\">http://pastebin.com/9M5h1c6n</a></p>",
    "body_text": "scroll up to the top of the pastebin where the loop started.\n2015-11-27 00:54:49 CoinControlDialog::updateLabels() - Time elapsed: 0.001000\n2015-11-27 00:54:49 CoinControlDialog::viewItemChanged() - Time elapsed: 0.001000\nalso when the number of inputs hits 500+ the delay starts to increase again.\nI'll create another pastebin for reference, that is a bit better displayed. with a total of 1679 tx's. once it finally completes...\nEDIT: http://pastebin.com/9M5h1c6n",
    "body": "scroll up to the top of the pastebin where the loop started.\n2015-11-27 00:54:49 CoinControlDialog::updateLabels() - Time elapsed: 0.001000\n2015-11-27 00:54:49 CoinControlDialog::viewItemChanged() - Time elapsed: 0.001000\nalso when the number of inputs hits 500+ the delay starts to increase again.\nI'll create another pastebin for reference, that is a bit better displayed. with a total of 1679 tx's. once it finally completes...\nEDIT: http://pastebin.com/9M5h1c6n\n",
    "reactions": {
      "url": "https://api.github.com/repos/bitcoin/bitcoin/issues/comments/160036719/reactions",
      "total_count": 0,
      "+1": 0,
      "-1": 0,
      "laugh": 0,
      "hooray": 0,
      "confused": 0,
      "heart": 0,
      "rocket": 0,
      "eyes": 0
    },
    "performed_via_github_app": null
  },
  {
    "url": "https://api.github.com/repos/bitcoin/bitcoin/issues/comments/619224277",
    "html_url": "https://github.com/bitcoin/bitcoin/issues/7108#issuecomment-619224277",
    "issue_url": "https://api.github.com/repos/bitcoin/bitcoin/issues/7108",
    "id": 619224277,
    "node_id": "MDEyOklzc3VlQ29tbWVudDYxOTIyNDI3Nw==",
    "user": {
      "login": "maflcko",
      "id": 6399679,
      "node_id": "MDQ6VXNlcjYzOTk2Nzk=",
      "avatar_url": "https://avatars.githubusercontent.com/u/6399679?v=4",
      "gravatar_id": "",
      "url": "https://api.github.com/users/maflcko",
      "html_url": "https://github.com/maflcko",
      "followers_url": "https://api.github.com/users/maflcko/followers",
      "following_url": "https://api.github.com/users/maflcko/following{/other_user}",
      "gists_url": "https://api.github.com/users/maflcko/gists{/gist_id}",
      "starred_url": "https://api.github.com/users/maflcko/starred{/owner}{/repo}",
      "subscriptions_url": "https://api.github.com/users/maflcko/subscriptions",
      "organizations_url": "https://api.github.com/users/maflcko/orgs",
      "repos_url": "https://api.github.com/users/maflcko/repos",
      "events_url": "https://api.github.com/users/maflcko/events{/privacy}",
      "received_events_url": "https://api.github.com/users/maflcko/received_events",
      "type": "User",
      "site_admin": false
    },
    "created_at": "2020-04-24T20:28:12Z",
    "updated_at": "2020-04-24T20:28:12Z",
    "author_association": "MEMBER",
    "body_html": "<p dir=\"auto\">Is this still an issue with a recent version of Bitcoin Core? If yes, what are the steps to reproduce?</p>\n<p dir=\"auto\">I tried with 3000 inputs and it took 3 seconds.</p>\n<p dir=\"auto\"><a target=\"_blank\" rel=\"noopener noreferrer nofollow\" href=\"https://user-images.githubusercontent.com/6399679/80254073-824be280-8648-11ea-9f10-231c9c2ad8ae.png\"><img src=\"https://user-images.githubusercontent.com/6399679/80254073-824be280-8648-11ea-9f10-231c9c2ad8ae.png\" alt=\"Screenshot from 2020-04-24 16-27-26\" style=\"max-width: 100%;\"></a></p>",
    "body_text": "Is this still an issue with a recent version of Bitcoin Core? If yes, what are the steps to reproduce?\nI tried with 3000 inputs and it took 3 seconds.",
    "body": "Is this still an issue with a recent version of Bitcoin Core? If yes, what are the steps to reproduce?\r\n\r\nI tried with 3000 inputs and it took 3 seconds.\r\n\r\n\r\n![Screenshot from 2020-04-24 16-27-26](https://user-images.githubusercontent.com/6399679/80254073-824be280-8648-11ea-9f10-231c9c2ad8ae.png)\r\n",
    "reactions": {
      "url": "https://api.github.com/repos/bitcoin/bitcoin/issues/comments/619224277/reactions",
      "total_count": 0,
      "+1": 0,
      "-1": 0,
      "laugh": 0,
      "hooray": 0,
      "confused": 0,
      "heart": 0,
      "rocket": 0,
      "eyes": 0
    },
    "performed_via_github_app": null
  }
]
