[
  {
    "url": "https://api.github.com/repos/bitcoin/bitcoin/issues/comments/297578336",
    "html_url": "https://github.com/bitcoin/bitcoin/pull/10285#issuecomment-297578336",
    "issue_url": "https://api.github.com/repos/bitcoin/bitcoin/issues/10285",
    "id": 297578336,
    "node_id": "MDEyOklzc3VlQ29tbWVudDI5NzU3ODMzNg==",
    "user": {
      "login": "gmaxwell",
      "id": 858454,
      "node_id": "MDQ6VXNlcjg1ODQ1NA==",
      "avatar_url": "https://avatars.githubusercontent.com/u/858454?v=4",
      "gravatar_id": "",
      "url": "https://api.github.com/users/gmaxwell",
      "html_url": "https://github.com/gmaxwell",
      "followers_url": "https://api.github.com/users/gmaxwell/followers",
      "following_url": "https://api.github.com/users/gmaxwell/following{/other_user}",
      "gists_url": "https://api.github.com/users/gmaxwell/gists{/gist_id}",
      "starred_url": "https://api.github.com/users/gmaxwell/starred{/owner}{/repo}",
      "subscriptions_url": "https://api.github.com/users/gmaxwell/subscriptions",
      "organizations_url": "https://api.github.com/users/gmaxwell/orgs",
      "repos_url": "https://api.github.com/users/gmaxwell/repos",
      "events_url": "https://api.github.com/users/gmaxwell/events{/privacy}",
      "received_events_url": "https://api.github.com/users/gmaxwell/received_events",
      "type": "User",
      "site_admin": false
    },
    "created_at": "2017-04-27T00:31:10Z",
    "updated_at": "2017-04-27T00:31:10Z",
    "author_association": "CONTRIBUTOR",
    "body_html": "<p dir=\"auto\">Vague Concept ACK.</p>",
    "body_text": "Vague Concept ACK.",
    "body": "Vague Concept ACK.",
    "reactions": {
      "url": "https://api.github.com/repos/bitcoin/bitcoin/issues/comments/297578336/reactions",
      "total_count": 0,
      "+1": 0,
      "-1": 0,
      "laugh": 0,
      "hooray": 0,
      "confused": 0,
      "heart": 0,
      "rocket": 0,
      "eyes": 0
    },
    "performed_via_github_app": null
  },
  {
    "url": "https://api.github.com/repos/bitcoin/bitcoin/issues/comments/298621881",
    "html_url": "https://github.com/bitcoin/bitcoin/pull/10285#issuecomment-298621881",
    "issue_url": "https://api.github.com/repos/bitcoin/bitcoin/issues/10285",
    "id": 298621881,
    "node_id": "MDEyOklzc3VlQ29tbWVudDI5ODYyMTg4MQ==",
    "user": {
      "login": "laanwj",
      "id": 126646,
      "node_id": "MDQ6VXNlcjEyNjY0Ng==",
      "avatar_url": "https://avatars.githubusercontent.com/u/126646?v=4",
      "gravatar_id": "",
      "url": "https://api.github.com/users/laanwj",
      "html_url": "https://github.com/laanwj",
      "followers_url": "https://api.github.com/users/laanwj/followers",
      "following_url": "https://api.github.com/users/laanwj/following{/other_user}",
      "gists_url": "https://api.github.com/users/laanwj/gists{/gist_id}",
      "starred_url": "https://api.github.com/users/laanwj/starred{/owner}{/repo}",
      "subscriptions_url": "https://api.github.com/users/laanwj/subscriptions",
      "organizations_url": "https://api.github.com/users/laanwj/orgs",
      "repos_url": "https://api.github.com/users/laanwj/repos",
      "events_url": "https://api.github.com/users/laanwj/events{/privacy}",
      "received_events_url": "https://api.github.com/users/laanwj/received_events",
      "type": "User",
      "site_admin": false
    },
    "created_at": "2017-05-02T12:32:03Z",
    "updated_at": "2017-05-02T12:32:03Z",
    "author_association": "MEMBER",
    "body_html": "<p dir=\"auto\">utACK, going to test this</p>",
    "body_text": "utACK, going to test this",
    "body": "utACK, going to test this",
    "reactions": {
      "url": "https://api.github.com/repos/bitcoin/bitcoin/issues/comments/298621881/reactions",
      "total_count": 0,
      "+1": 0,
      "-1": 0,
      "laugh": 0,
      "hooray": 0,
      "confused": 0,
      "heart": 0,
      "rocket": 0,
      "eyes": 0
    },
    "performed_via_github_app": null
  },
  {
    "url": "https://api.github.com/repos/bitcoin/bitcoin/issues/comments/302275523",
    "html_url": "https://github.com/bitcoin/bitcoin/pull/10285#issuecomment-302275523",
    "issue_url": "https://api.github.com/repos/bitcoin/bitcoin/issues/10285",
    "id": 302275523,
    "node_id": "MDEyOklzc3VlQ29tbWVudDMwMjI3NTUyMw==",
    "user": {
      "login": "theuni",
      "id": 417043,
      "node_id": "MDQ6VXNlcjQxNzA0Mw==",
      "avatar_url": "https://avatars.githubusercontent.com/u/417043?v=4",
      "gravatar_id": "",
      "url": "https://api.github.com/users/theuni",
      "html_url": "https://github.com/theuni",
      "followers_url": "https://api.github.com/users/theuni/followers",
      "following_url": "https://api.github.com/users/theuni/following{/other_user}",
      "gists_url": "https://api.github.com/users/theuni/gists{/gist_id}",
      "starred_url": "https://api.github.com/users/theuni/starred{/owner}{/repo}",
      "subscriptions_url": "https://api.github.com/users/theuni/subscriptions",
      "organizations_url": "https://api.github.com/users/theuni/orgs",
      "repos_url": "https://api.github.com/users/theuni/repos",
      "events_url": "https://api.github.com/users/theuni/events{/privacy}",
      "received_events_url": "https://api.github.com/users/theuni/received_events",
      "type": "User",
      "site_admin": false
    },
    "created_at": "2017-05-18T01:30:12Z",
    "updated_at": "2017-05-18T01:30:12Z",
    "author_association": "MEMBER",
    "body_html": "<p dir=\"auto\">Closing this for now. I'm working on getting this fully refactored with libevent instead.</p>\n<p dir=\"auto\">Breaking this out and serializing the logic was very helpful as an intermediary step, but I now agree that it doesn't make much sense to review/merge those changes alone.</p>",
    "body_text": "Closing this for now. I'm working on getting this fully refactored with libevent instead.\nBreaking this out and serializing the logic was very helpful as an intermediary step, but I now agree that it doesn't make much sense to review/merge those changes alone.",
    "body": "Closing this for now. I'm working on getting this fully refactored with libevent instead.\r\n\r\nBreaking this out and serializing the logic was very helpful as an intermediary step, but I now agree that it doesn't make much sense to review/merge those changes alone.",
    "reactions": {
      "url": "https://api.github.com/repos/bitcoin/bitcoin/issues/comments/302275523/reactions",
      "total_count": 0,
      "+1": 0,
      "-1": 0,
      "laugh": 0,
      "hooray": 0,
      "confused": 0,
      "heart": 0,
      "rocket": 0,
      "eyes": 0
    },
    "performed_via_github_app": null
  }
]
