[
  {
    "url": "https://api.github.com/repos/bitcoin/bitcoin/issues/comments/1373103706",
    "html_url": "https://github.com/bitcoin/bitcoin/pull/26829#issuecomment-1373103706",
    "issue_url": "https://api.github.com/repos/bitcoin/bitcoin/issues/26829",
    "id": 1373103706,
    "node_id": "IC_kwDOABII585R1-Za",
    "user": {
      "login": "DrahtBot",
      "id": 39886733,
      "node_id": "MDQ6VXNlcjM5ODg2NzMz",
      "avatar_url": "https://avatars.githubusercontent.com/u/39886733?v=4",
      "gravatar_id": "",
      "url": "https://api.github.com/users/DrahtBot",
      "html_url": "https://github.com/DrahtBot",
      "followers_url": "https://api.github.com/users/DrahtBot/followers",
      "following_url": "https://api.github.com/users/DrahtBot/following{/other_user}",
      "gists_url": "https://api.github.com/users/DrahtBot/gists{/gist_id}",
      "starred_url": "https://api.github.com/users/DrahtBot/starred{/owner}{/repo}",
      "subscriptions_url": "https://api.github.com/users/DrahtBot/subscriptions",
      "organizations_url": "https://api.github.com/users/DrahtBot/orgs",
      "repos_url": "https://api.github.com/users/DrahtBot/repos",
      "events_url": "https://api.github.com/users/DrahtBot/events{/privacy}",
      "received_events_url": "https://api.github.com/users/DrahtBot/received_events",
      "type": "User",
      "site_admin": false
    },
    "created_at": "2023-01-06T03:39:51Z",
    "updated_at": "2023-01-25T14:29:06Z",
    "author_association": "CONTRIBUTOR",
    "body_html": "\n<p dir=\"auto\">The following sections might be updated with supplementary metadata relevant to reviewers and maintainers.</p>\n\n<h3 dir=\"auto\">Reviews</h3>\n<p dir=\"auto\">See <a href=\"https://github.com/bitcoin/bitcoin/blob/master/CONTRIBUTING.md#code-review\">the guideline</a> for information on the review process.</p>\n<table role=\"table\">\n<thead>\n<tr>\n<th>Type</th>\n<th>Reviewers</th>\n</tr>\n</thead>\n<tbody>\n<tr>\n<td>ACK</td>\n<td><a href=\"https://github.com/bitcoin/bitcoin/pull/26829#pullrequestreview-1266533354\" data-hovercard-type=\"pull_request\" data-hovercard-url=\"/bitcoin/bitcoin/pull/26829/hovercard\">theStack</a>, <a href=\"https://github.com/bitcoin/bitcoin/pull/26829#issuecomment-1401621373\" data-hovercard-type=\"pull_request\" data-hovercard-url=\"/bitcoin/bitcoin/pull/26829/hovercard\">Sjors</a>, <a href=\"https://github.com/bitcoin/bitcoin/pull/26829#issuecomment-1403709465\" data-hovercard-type=\"pull_request\" data-hovercard-url=\"/bitcoin/bitcoin/pull/26829/hovercard\">willcl-ark</a></td>\n</tr>\n</tbody>\n</table>\n<p dir=\"auto\">If your review is incorrectly listed, please react with 👎 to this comment and the bot will ignore it on the next update.</p>\n\n<h3 dir=\"auto\">Conflicts</h3>\n<p dir=\"auto\">No conflicts as of last run.</p>",
    "body_text": "The following sections might be updated with supplementary metadata relevant to reviewers and maintainers.\n\nReviews\nSee the guideline for information on the review process.\n\n\n\nType\nReviewers\n\n\n\n\nACK\ntheStack, Sjors, willcl-ark\n\n\n\nIf your review is incorrectly listed, please react with 👎 to this comment and the bot will ignore it on the next update.\n\nConflicts\nNo conflicts as of last run.",
    "body": "<!--e57a25ab6845829454e8d69fc972939a-->\n\nThe following sections might be updated with supplementary metadata relevant to reviewers and maintainers.\n\n<!--021abf342d371248e50ceaed478a90ca-->\n### Reviews\nSee [the guideline](https://github.com/bitcoin/bitcoin/blob/master/CONTRIBUTING.md#code-review) for information on the review process.\n| Type | Reviewers |\n| ---- | --------- |\n| ACK | [theStack](https://github.com/bitcoin/bitcoin/pull/26829#pullrequestreview-1266533354), [Sjors](https://github.com/bitcoin/bitcoin/pull/26829#issuecomment-1401621373), [willcl-ark](https://github.com/bitcoin/bitcoin/pull/26829#issuecomment-1403709465) |\n\nIf your review is incorrectly listed, please react with 👎 to this comment and the bot will ignore it on the next update.\n<!--174a7506f384e20aa4161008e828411d-->\n### Conflicts\nNo conflicts as of last run.\n",
    "reactions": {
      "url": "https://api.github.com/repos/bitcoin/bitcoin/issues/comments/1373103706/reactions",
      "total_count": 0,
      "+1": 0,
      "-1": 0,
      "laugh": 0,
      "hooray": 0,
      "confused": 0,
      "heart": 0,
      "rocket": 0,
      "eyes": 0
    },
    "performed_via_github_app": null
  },
  {
    "url": "https://api.github.com/repos/bitcoin/bitcoin/issues/comments/1396981679",
    "html_url": "https://github.com/bitcoin/bitcoin/pull/26829#issuecomment-1396981679",
    "issue_url": "https://api.github.com/repos/bitcoin/bitcoin/issues/26829",
    "id": 1396981679,
    "node_id": "IC_kwDOABII585TRD-v",
    "user": {
      "login": "Sjors",
      "id": 10217,
      "node_id": "MDQ6VXNlcjEwMjE3",
      "avatar_url": "https://avatars.githubusercontent.com/u/10217?v=4",
      "gravatar_id": "",
      "url": "https://api.github.com/users/Sjors",
      "html_url": "https://github.com/Sjors",
      "followers_url": "https://api.github.com/users/Sjors/followers",
      "following_url": "https://api.github.com/users/Sjors/following{/other_user}",
      "gists_url": "https://api.github.com/users/Sjors/gists{/gist_id}",
      "starred_url": "https://api.github.com/users/Sjors/starred{/owner}{/repo}",
      "subscriptions_url": "https://api.github.com/users/Sjors/subscriptions",
      "organizations_url": "https://api.github.com/users/Sjors/orgs",
      "repos_url": "https://api.github.com/users/Sjors/repos",
      "events_url": "https://api.github.com/users/Sjors/events{/privacy}",
      "received_events_url": "https://api.github.com/users/Sjors/received_events",
      "type": "User",
      "site_admin": false
    },
    "created_at": "2023-01-19T13:32:46Z",
    "updated_at": "2023-01-19T13:32:46Z",
    "author_association": "MEMBER",
    "body_html": "<p dir=\"auto\">utACK <a class=\"commit-link\" data-hovercard-type=\"commit\" data-hovercard-url=\"https://github.com/bitcoin/bitcoin/commit/c5fbea97c020df43907ca648c050215c9b20dfc9/hovercard\" href=\"https://github.com/bitcoin/bitcoin/commit/c5fbea97c020df43907ca648c050215c9b20dfc9\"><tt>c5fbea9</tt></a></p>\n<p dir=\"auto\">That said, for a followup it could make sense to go the other direction and make sure we don't log the user IP address anywhere. For IPv4 <code class=\"notranslate\">-(rpc)bind</code> is typically just a 192.168.x.x address, but for IPv6 it's a global address.</p>",
    "body_text": "utACK c5fbea9\nThat said, for a followup it could make sense to go the other direction and make sure we don't log the user IP address anywhere. For IPv4 -(rpc)bind is typically just a 192.168.x.x address, but for IPv6 it's a global address.",
    "body": "utACK c5fbea97c020df43907ca648c050215c9b20dfc9\r\n\r\nThat said, for a followup it could make sense to go the other direction and make sure we don't log the user IP address anywhere. For IPv4 `-(rpc)bind` is typically just a 192.168.x.x address, but for IPv6 it's a global address.",
    "reactions": {
      "url": "https://api.github.com/repos/bitcoin/bitcoin/issues/comments/1396981679/reactions",
      "total_count": 0,
      "+1": 0,
      "-1": 0,
      "laugh": 0,
      "hooray": 0,
      "confused": 0,
      "heart": 0,
      "rocket": 0,
      "eyes": 0
    },
    "performed_via_github_app": null
  },
  {
    "url": "https://api.github.com/repos/bitcoin/bitcoin/issues/comments/1401621373",
    "html_url": "https://github.com/bitcoin/bitcoin/pull/26829#issuecomment-1401621373",
    "issue_url": "https://api.github.com/repos/bitcoin/bitcoin/issues/26829",
    "id": 1401621373,
    "node_id": "IC_kwDOABII585Tiwt9",
    "user": {
      "login": "Sjors",
      "id": 10217,
      "node_id": "MDQ6VXNlcjEwMjE3",
      "avatar_url": "https://avatars.githubusercontent.com/u/10217?v=4",
      "gravatar_id": "",
      "url": "https://api.github.com/users/Sjors",
      "html_url": "https://github.com/Sjors",
      "followers_url": "https://api.github.com/users/Sjors/followers",
      "following_url": "https://api.github.com/users/Sjors/following{/other_user}",
      "gists_url": "https://api.github.com/users/Sjors/gists{/gist_id}",
      "starred_url": "https://api.github.com/users/Sjors/starred{/owner}{/repo}",
      "subscriptions_url": "https://api.github.com/users/Sjors/subscriptions",
      "organizations_url": "https://api.github.com/users/Sjors/orgs",
      "repos_url": "https://api.github.com/users/Sjors/repos",
      "events_url": "https://api.github.com/users/Sjors/events{/privacy}",
      "received_events_url": "https://api.github.com/users/Sjors/received_events",
      "type": "User",
      "site_admin": false
    },
    "created_at": "2023-01-24T09:27:38Z",
    "updated_at": "2023-01-24T09:27:38Z",
    "author_association": "MEMBER",
    "body_html": "<p dir=\"auto\">re-utACK <a class=\"commit-link\" data-hovercard-type=\"commit\" data-hovercard-url=\"https://github.com/bitcoin/bitcoin/commit/b9d567454159f062ce84353f5821d6e6daf433bd/hovercard\" href=\"https://github.com/bitcoin/bitcoin/commit/b9d567454159f062ce84353f5821d6e6daf433bd\"><tt>b9d5674</tt></a></p>\n<p dir=\"auto\">Running the old code against the new test triggers the unexpected argument error, as expected.</p>",
    "body_text": "re-utACK b9d5674\nRunning the old code against the new test triggers the unexpected argument error, as expected.",
    "body": "re-utACK b9d567454159f062ce84353f5821d6e6daf433bd\r\n\r\nRunning the old code against the new test triggers the unexpected argument error, as expected.",
    "reactions": {
      "url": "https://api.github.com/repos/bitcoin/bitcoin/issues/comments/1401621373/reactions",
      "total_count": 0,
      "+1": 0,
      "-1": 0,
      "laugh": 0,
      "hooray": 0,
      "confused": 0,
      "heart": 0,
      "rocket": 0,
      "eyes": 0
    },
    "performed_via_github_app": null
  },
  {
    "url": "https://api.github.com/repos/bitcoin/bitcoin/issues/comments/1403709465",
    "html_url": "https://github.com/bitcoin/bitcoin/pull/26829#issuecomment-1403709465",
    "issue_url": "https://api.github.com/repos/bitcoin/bitcoin/issues/26829",
    "id": 1403709465,
    "node_id": "IC_kwDOABII585TqugZ",
    "user": {
      "login": "willcl-ark",
      "id": 6606587,
      "node_id": "MDQ6VXNlcjY2MDY1ODc=",
      "avatar_url": "https://avatars.githubusercontent.com/u/6606587?v=4",
      "gravatar_id": "",
      "url": "https://api.github.com/users/willcl-ark",
      "html_url": "https://github.com/willcl-ark",
      "followers_url": "https://api.github.com/users/willcl-ark/followers",
      "following_url": "https://api.github.com/users/willcl-ark/following{/other_user}",
      "gists_url": "https://api.github.com/users/willcl-ark/gists{/gist_id}",
      "starred_url": "https://api.github.com/users/willcl-ark/starred{/owner}{/repo}",
      "subscriptions_url": "https://api.github.com/users/willcl-ark/subscriptions",
      "organizations_url": "https://api.github.com/users/willcl-ark/orgs",
      "repos_url": "https://api.github.com/users/willcl-ark/repos",
      "events_url": "https://api.github.com/users/willcl-ark/events{/privacy}",
      "received_events_url": "https://api.github.com/users/willcl-ark/received_events",
      "type": "User",
      "site_admin": false
    },
    "created_at": "2023-01-25T14:29:03Z",
    "updated_at": "2023-01-25T14:29:03Z",
    "author_association": "MEMBER",
    "body_html": "<p dir=\"auto\">ACK <a class=\"commit-link\" data-hovercard-type=\"commit\" data-hovercard-url=\"https://github.com/bitcoin/bitcoin/commit/b9d567454159f062ce84353f5821d6e6daf433bd/hovercard\" href=\"https://github.com/bitcoin/bitcoin/commit/b9d567454159f062ce84353f5821d6e6daf433bd\"><tt>b9d5674</tt></a></p>\n<p dir=\"auto\">Looks like it was added in <a class=\"commit-link\" data-hovercard-type=\"commit\" data-hovercard-url=\"https://github.com/bitcoin/bitcoin/commit/b951b0973cfd4e0db4607a00d434a04afb0d6199/hovercard\" href=\"https://github.com/bitcoin/bitcoin/commit/b951b0973cfd4e0db4607a00d434a04afb0d6199\"><tt>b951b09</tt></a> as part of writing config options to debug.log.</p>\n<p dir=\"auto\">FWIW I was just working on <a class=\"issue-link js-issue-link\" data-error-text=\"Failed to load title\" data-id=\"1556241401\" data-permission-text=\"Title is private\" data-url=\"https://github.com/bitcoin/bitcoin/issues/26964\" data-hovercard-type=\"pull_request\" data-hovercard-url=\"/bitcoin/bitcoin/pull/26964/hovercard\" href=\"https://github.com/bitcoin/bitcoin/pull/26964\">#26964</a> which ensures that we don't create the RPC cookie before we've bound to the server. As long as we don't do that, there seems little danger in having the bound port and address exposed in the log messages. We should not rely on port obscurity for security.</p>",
    "body_text": "ACK b9d5674\nLooks like it was added in b951b09 as part of writing config options to debug.log.\nFWIW I was just working on #26964 which ensures that we don't create the RPC cookie before we've bound to the server. As long as we don't do that, there seems little danger in having the bound port and address exposed in the log messages. We should not rely on port obscurity for security.",
    "body": "ACK b9d5674\r\n\r\nLooks like it was added in b951b0973cfd4e0db4607a00d434a04afb0d6199 as part of writing config options to debug.log.\r\n\r\nFWIW I was just working on https://github.com/bitcoin/bitcoin/pull/26964 which ensures that we don't create the RPC cookie before we've bound to the server. As long as we don't do that, there seems little danger in having the bound port and address exposed in the log messages. We should not rely on port obscurity for security.",
    "reactions": {
      "url": "https://api.github.com/repos/bitcoin/bitcoin/issues/comments/1403709465/reactions",
      "total_count": 0,
      "+1": 0,
      "-1": 0,
      "laugh": 0,
      "hooray": 0,
      "confused": 0,
      "heart": 0,
      "rocket": 0,
      "eyes": 0
    },
    "performed_via_github_app": null
  }
]
