{
  "url": "https://api.github.com/repos/bitcoin/bitcoin/issues/15203",
  "repository_url": "https://api.github.com/repos/bitcoin/bitcoin",
  "labels_url": "https://api.github.com/repos/bitcoin/bitcoin/issues/15203/labels{/name}",
  "comments_url": "https://api.github.com/repos/bitcoin/bitcoin/issues/15203/comments",
  "events_url": "https://api.github.com/repos/bitcoin/bitcoin/issues/15203/events",
  "html_url": "https://github.com/bitcoin/bitcoin/pull/15203",
  "id": 400783747,
  "node_id": "MDExOlB1bGxSZXF1ZXN0MjQ1ODkxMzA3",
  "number": 15203,
  "title": "Fix issue #9683 \"gui, wallet: random abort (segmentation fault)",
  "user": {
    "login": "dooglus",
    "id": 573356,
    "node_id": "MDQ6VXNlcjU3MzM1Ng==",
    "avatar_url": "https://avatars.githubusercontent.com/u/573356?v=4",
    "gravatar_id": "",
    "url": "https://api.github.com/users/dooglus",
    "html_url": "https://github.com/dooglus",
    "followers_url": "https://api.github.com/users/dooglus/followers",
    "following_url": "https://api.github.com/users/dooglus/following{/other_user}",
    "gists_url": "https://api.github.com/users/dooglus/gists{/gist_id}",
    "starred_url": "https://api.github.com/users/dooglus/starred{/owner}{/repo}",
    "subscriptions_url": "https://api.github.com/users/dooglus/subscriptions",
    "organizations_url": "https://api.github.com/users/dooglus/orgs",
    "repos_url": "https://api.github.com/users/dooglus/repos",
    "events_url": "https://api.github.com/users/dooglus/events{/privacy}",
    "received_events_url": "https://api.github.com/users/dooglus/received_events",
    "type": "User",
    "site_admin": false
  },
  "labels": [
    {
      "id": 135946,
      "node_id": "MDU6TGFiZWwxMzU5NDY=",
      "url": "https://api.github.com/repos/bitcoin/bitcoin/labels/GUI",
      "name": "GUI",
      "color": "02d7e1",
      "default": false,
      "description": null
    }
  ],
  "state": "closed",
  "locked": true,
  "assignee": null,
  "assignees": [

  ],
  "milestone": null,
  "comments": 4,
  "created_at": "2019-01-18T15:55:43Z",
  "updated_at": "2021-12-16T14:05:40Z",
  "closed_at": "2019-02-05T21:42:32Z",
  "author_association": "CONTRIBUTOR",
  "active_lock_reason": "resolved",
  "draft": false,
  "pull_request": {
    "url": "https://api.github.com/repos/bitcoin/bitcoin/pulls/15203",
    "html_url": "https://github.com/bitcoin/bitcoin/pull/15203",
    "diff_url": "https://github.com/bitcoin/bitcoin/pull/15203.diff",
    "patch_url": "https://github.com/bitcoin/bitcoin/pull/15203.patch",
    "merged_at": "2019-02-05T21:42:32Z"
  },
  "body_html": "<p dir=\"auto\">Patch taken from <a class=\"user-mention notranslate\" data-hovercard-type=\"user\" data-hovercard-url=\"/users/ryanofsky/hovercard\" data-octo-click=\"hovercard-link-click\" data-octo-dimensions=\"link_type:self\" href=\"https://github.com/ryanofsky\">@ryanofsky</a>'s comment <a class=\"issue-link js-issue-link\" data-error-text=\"Failed to load title\" data-id=\"205311204\" data-permission-text=\"Title is private\" data-url=\"https://github.com/bitcoin/bitcoin/issues/9683\" data-hovercard-type=\"issue\" data-hovercard-url=\"/bitcoin/bitcoin/issues/9683/hovercard?comment_id=448035913&amp;comment_type=issue_comment\" href=\"https://github.com/bitcoin/bitcoin/issues/9683#issuecomment-448035913\">#9683 (comment)</a>.</p>\n<p dir=\"auto\"><a href=\"https://github.com/bitcoin/bitcoin/issues/9683#issuecomment-454066004\" data-hovercard-type=\"issue\" data-hovercard-url=\"/bitcoin/bitcoin/issues/9683/hovercard\">MarcoFalke wrote</a>:</p>\n<blockquote>\n<p dir=\"auto\">Mind to submit this patch as a pull request?</p>\n</blockquote>\n<p dir=\"auto\">So that's what I'm doing.</p>\n<p dir=\"auto\">I was regularly seeing crashes on startup before applying this patch and haven't seen a single crash on startup since applying it almost a month ago.</p>",
  "body_text": "Patch taken from @ryanofsky's comment #9683 (comment).\nMarcoFalke wrote:\n\nMind to submit this patch as a pull request?\n\nSo that's what I'm doing.\nI was regularly seeing crashes on startup before applying this patch and haven't seen a single crash on startup since applying it almost a month ago.",
  "body": "Patch taken from @ryanofsky's comment https://github.com/bitcoin/bitcoin/issues/9683#issuecomment-448035913.\r\n\r\n[MarcoFalke wrote](https://github.com/bitcoin/bitcoin/issues/9683#issuecomment-454066004):\r\n> Mind to submit this patch as a pull request?\r\n\r\nSo that's what I'm doing.\r\n\r\nI was regularly seeing crashes on startup before applying this patch and haven't seen a single crash on startup since applying it almost a month ago.",
  "closed_by": {
    "login": "maflcko",
    "id": 6399679,
    "node_id": "MDQ6VXNlcjYzOTk2Nzk=",
    "avatar_url": "https://avatars.githubusercontent.com/u/6399679?v=4",
    "gravatar_id": "",
    "url": "https://api.github.com/users/maflcko",
    "html_url": "https://github.com/maflcko",
    "followers_url": "https://api.github.com/users/maflcko/followers",
    "following_url": "https://api.github.com/users/maflcko/following{/other_user}",
    "gists_url": "https://api.github.com/users/maflcko/gists{/gist_id}",
    "starred_url": "https://api.github.com/users/maflcko/starred{/owner}{/repo}",
    "subscriptions_url": "https://api.github.com/users/maflcko/subscriptions",
    "organizations_url": "https://api.github.com/users/maflcko/orgs",
    "repos_url": "https://api.github.com/users/maflcko/repos",
    "events_url": "https://api.github.com/users/maflcko/events{/privacy}",
    "received_events_url": "https://api.github.com/users/maflcko/received_events",
    "type": "User",
    "site_admin": false
  },
  "reactions": {
    "url": "https://api.github.com/repos/bitcoin/bitcoin/issues/15203/reactions",
    "total_count": 0,
    "+1": 0,
    "-1": 0,
    "laugh": 0,
    "hooray": 0,
    "confused": 0,
    "heart": 0,
    "rocket": 0,
    "eyes": 0
  },
  "timeline_url": "https://api.github.com/repos/bitcoin/bitcoin/issues/15203/timeline",
  "performed_via_github_app": null,
  "state_reason": null
}
