{
  "url": "https://api.github.com/repos/bitcoin/bitcoin/issues/28561",
  "repository_url": "https://api.github.com/repos/bitcoin/bitcoin",
  "labels_url": "https://api.github.com/repos/bitcoin/bitcoin/issues/28561/labels{/name}",
  "comments_url": "https://api.github.com/repos/bitcoin/bitcoin/issues/28561/comments",
  "events_url": "https://api.github.com/repos/bitcoin/bitcoin/issues/28561/events",
  "html_url": "https://github.com/bitcoin/bitcoin/pull/28561",
  "id": 1922751238,
  "node_id": "PR_kwDOABII585bt579",
  "number": 28561,
  "title": "build: Update `qt` package up to 5.15.10",
  "user": {
    "login": "hebasto",
    "id": 32963518,
    "node_id": "MDQ6VXNlcjMyOTYzNTE4",
    "avatar_url": "https://avatars.githubusercontent.com/u/32963518?v=4",
    "gravatar_id": "",
    "url": "https://api.github.com/users/hebasto",
    "html_url": "https://github.com/hebasto",
    "followers_url": "https://api.github.com/users/hebasto/followers",
    "following_url": "https://api.github.com/users/hebasto/following{/other_user}",
    "gists_url": "https://api.github.com/users/hebasto/gists{/gist_id}",
    "starred_url": "https://api.github.com/users/hebasto/starred{/owner}{/repo}",
    "subscriptions_url": "https://api.github.com/users/hebasto/subscriptions",
    "organizations_url": "https://api.github.com/users/hebasto/orgs",
    "repos_url": "https://api.github.com/users/hebasto/repos",
    "events_url": "https://api.github.com/users/hebasto/events{/privacy}",
    "received_events_url": "https://api.github.com/users/hebasto/received_events",
    "type": "User",
    "site_admin": false
  },
  "labels": [
    {
      "id": 61889416,
      "node_id": "MDU6TGFiZWw2MTg4OTQxNg==",
      "url": "https://api.github.com/repos/bitcoin/bitcoin/labels/Build%20system",
      "name": "Build system",
      "color": "5319e7",
      "default": false,
      "description": null
    }
  ],
  "state": "closed",
  "locked": false,
  "assignee": null,
  "assignees": [

  ],
  "milestone": null,
  "comments": 28,
  "created_at": "2023-10-02T21:27:54Z",
  "updated_at": "2023-10-10T13:25:45Z",
  "closed_at": "2023-10-04T17:37:39Z",
  "author_association": "MEMBER",
  "active_lock_reason": null,
  "draft": false,
  "pull_request": {
    "url": "https://api.github.com/repos/bitcoin/bitcoin/pulls/28561",
    "html_url": "https://github.com/bitcoin/bitcoin/pull/28561",
    "diff_url": "https://github.com/bitcoin/bitcoin/pull/28561.diff",
    "patch_url": "https://github.com/bitcoin/bitcoin/pull/28561.patch",
    "merged_at": "2023-10-04T17:37:39Z"
  },
  "body_html": "<p dir=\"auto\">The Qt 5.15.10 contains at least three important for us fixes:</p>\n<ul dir=\"auto\">\n<li><a class=\"commit-link\" data-hovercard-type=\"commit\" data-hovercard-url=\"https://github.com/qt/qtbase/commit/8bb90ab760310c9bc82b6ecbe068532fcb4e7822/hovercard\" href=\"https://github.com/qt/qtbase/commit/8bb90ab760310c9bc82b6ecbe068532fcb4e7822\">qt/qtbase@<tt>8bb90ab</tt></a>, which allows us to drop the <a href=\"https://github.com/bitcoin/bitcoin/blob/fd8ab08558ccfb62f2d0a64d2d0d4dcefba977bc/depends/patches/qt/dont_hardcode_x86_64.patch\"><code class=\"notranslate\">dont_hardcode_x86_64.patch</code></a></li>\n<li><a class=\"commit-link\" data-hovercard-type=\"commit\" data-hovercard-url=\"https://github.com/qt/qtbase/commit/8467beddb7239cc213ae13900fa30e3d26df5e78/hovercard\" href=\"https://github.com/qt/qtbase/commit/8467beddb7239cc213ae13900fa30e3d26df5e78\">qt/qtbase@<tt>8467bed</tt></a>, which allows us to drop the <a href=\"https://github.com/bitcoin/bitcoin/blob/fd8ab08558ccfb62f2d0a64d2d0d4dcefba977bc/depends/patches/qt/fix_montery_include.patch\"><code class=\"notranslate\">fix_montery_include.patch</code></a></li>\n<li><a class=\"commit-link\" data-hovercard-type=\"commit\" data-hovercard-url=\"https://github.com/qt/qtbase/commit/df08a21fa4e7139d46ec68bcf264c922789c4f3a/hovercard\" href=\"https://github.com/qt/qtbase/commit/df08a21fa4e7139d46ec68bcf264c922789c4f3a\">qt/qtbase@<tt>df08a21</tt></a>, which addresses <a class=\"issue-link js-issue-link\" data-error-text=\"Failed to load title\" data-id=\"1868416891\" data-permission-text=\"Title is private\" data-url=\"https://github.com/bitcoin/bitcoin/issues/28349\" data-hovercard-type=\"pull_request\" data-hovercard-url=\"/bitcoin/bitcoin/pull/28349/hovercard?comment_id=1743519614&amp;comment_type=issue_comment\" href=\"https://github.com/bitcoin/bitcoin/pull/28349#issuecomment-1743519614\">#28349 (comment)</a></li>\n</ul>",
  "body_text": "The Qt 5.15.10 contains at least three important for us fixes:\n\nqt/qtbase@8bb90ab, which allows us to drop the dont_hardcode_x86_64.patch\nqt/qtbase@8467bed, which allows us to drop the fix_montery_include.patch\nqt/qtbase@df08a21, which addresses #28349 (comment)",
  "body": "The Qt 5.15.10 contains at least three important for us fixes:\r\n- https://github.com/qt/qtbase/commit/8bb90ab760310c9bc82b6ecbe068532fcb4e7822, which allows us to drop the [`dont_hardcode_x86_64.patch`](https://github.com/bitcoin/bitcoin/blob/fd8ab08558ccfb62f2d0a64d2d0d4dcefba977bc/depends/patches/qt/dont_hardcode_x86_64.patch)\r\n- https://github.com/qt/qtbase/commit/8467beddb7239cc213ae13900fa30e3d26df5e78, which allows us to drop the [`fix_montery_include.patch`](https://github.com/bitcoin/bitcoin/blob/fd8ab08558ccfb62f2d0a64d2d0d4dcefba977bc/depends/patches/qt/fix_montery_include.patch)\r\n- https://github.com/qt/qtbase/commit/df08a21fa4e7139d46ec68bcf264c922789c4f3a, which addresses https://github.com/bitcoin/bitcoin/pull/28349#issuecomment-1743519614",
  "closed_by": {
    "login": "fanquake",
    "id": 863730,
    "node_id": "MDQ6VXNlcjg2MzczMA==",
    "avatar_url": "https://avatars.githubusercontent.com/u/863730?v=4",
    "gravatar_id": "",
    "url": "https://api.github.com/users/fanquake",
    "html_url": "https://github.com/fanquake",
    "followers_url": "https://api.github.com/users/fanquake/followers",
    "following_url": "https://api.github.com/users/fanquake/following{/other_user}",
    "gists_url": "https://api.github.com/users/fanquake/gists{/gist_id}",
    "starred_url": "https://api.github.com/users/fanquake/starred{/owner}{/repo}",
    "subscriptions_url": "https://api.github.com/users/fanquake/subscriptions",
    "organizations_url": "https://api.github.com/users/fanquake/orgs",
    "repos_url": "https://api.github.com/users/fanquake/repos",
    "events_url": "https://api.github.com/users/fanquake/events{/privacy}",
    "received_events_url": "https://api.github.com/users/fanquake/received_events",
    "type": "User",
    "site_admin": false
  },
  "reactions": {
    "url": "https://api.github.com/repos/bitcoin/bitcoin/issues/28561/reactions",
    "total_count": 0,
    "+1": 0,
    "-1": 0,
    "laugh": 0,
    "hooray": 0,
    "confused": 0,
    "heart": 0,
    "rocket": 0,
    "eyes": 0
  },
  "timeline_url": "https://api.github.com/repos/bitcoin/bitcoin/issues/28561/timeline",
  "performed_via_github_app": null,
  "state_reason": null
}
