{
  "url": "https://api.github.com/repos/bitcoin/bitcoin/issues/10966",
  "repository_url": "https://api.github.com/repos/bitcoin/bitcoin",
  "labels_url": "https://api.github.com/repos/bitcoin/bitcoin/issues/10966/labels{/name}",
  "comments_url": "https://api.github.com/repos/bitcoin/bitcoin/issues/10966/comments",
  "events_url": "https://api.github.com/repos/bitcoin/bitcoin/issues/10966/events",
  "html_url": "https://github.com/bitcoin/bitcoin/pull/10966",
  "id": 246892717,
  "node_id": "MDExOlB1bGxSZXF1ZXN0MTMzMzQzMzY2",
  "number": 10966,
  "title": "Add walletnotify functional test",
  "user": {
    "login": "promag",
    "id": 3534524,
    "node_id": "MDQ6VXNlcjM1MzQ1MjQ=",
    "avatar_url": "https://avatars.githubusercontent.com/u/3534524?v=4",
    "gravatar_id": "",
    "url": "https://api.github.com/users/promag",
    "html_url": "https://github.com/promag",
    "followers_url": "https://api.github.com/users/promag/followers",
    "following_url": "https://api.github.com/users/promag/following{/other_user}",
    "gists_url": "https://api.github.com/users/promag/gists{/gist_id}",
    "starred_url": "https://api.github.com/users/promag/starred{/owner}{/repo}",
    "subscriptions_url": "https://api.github.com/users/promag/subscriptions",
    "organizations_url": "https://api.github.com/users/promag/orgs",
    "repos_url": "https://api.github.com/users/promag/repos",
    "events_url": "https://api.github.com/users/promag/events{/privacy}",
    "received_events_url": "https://api.github.com/users/promag/received_events",
    "type": "User",
    "site_admin": false
  },
  "labels": [
    {
      "id": 62963516,
      "node_id": "MDU6TGFiZWw2Mjk2MzUxNg==",
      "url": "https://api.github.com/repos/bitcoin/bitcoin/labels/Tests",
      "name": "Tests",
      "color": "d4c5f9",
      "default": false,
      "description": null
    }
  ],
  "state": "closed",
  "locked": true,
  "assignee": null,
  "assignees": [

  ],
  "milestone": null,
  "comments": 11,
  "created_at": "2017-07-31T21:39:53Z",
  "updated_at": "2021-09-08T11:45:22Z",
  "closed_at": "2017-10-10T00:33:07Z",
  "author_association": "MEMBER",
  "active_lock_reason": "resolved",
  "draft": false,
  "pull_request": {
    "url": "https://api.github.com/repos/bitcoin/bitcoin/pulls/10966",
    "html_url": "https://github.com/bitcoin/bitcoin/pull/10966",
    "diff_url": "https://github.com/bitcoin/bitcoin/pull/10966.diff",
    "patch_url": "https://github.com/bitcoin/bitcoin/pull/10966.patch",
    "merged_at": null
  },
  "body_html": "<p dir=\"auto\">Similar to <a class=\"issue-link js-issue-link\" data-error-text=\"Failed to load title\" data-id=\"246005993\" data-permission-text=\"Title is private\" data-url=\"https://github.com/bitcoin/bitcoin/issues/10941\" data-hovercard-type=\"pull_request\" data-hovercard-url=\"/bitcoin/bitcoin/pull/10941/hovercard\" href=\"https://github.com/bitcoin/bitcoin/pull/10941\">#10941</a>, but for <code class=\"notranslate\">-walletnotify</code> option.</p>",
  "body_text": "Similar to #10941, but for -walletnotify option.",
  "body": "Similar to #10941, but for `-walletnotify` option.",
  "closed_by": {
    "login": "promag",
    "id": 3534524,
    "node_id": "MDQ6VXNlcjM1MzQ1MjQ=",
    "avatar_url": "https://avatars.githubusercontent.com/u/3534524?v=4",
    "gravatar_id": "",
    "url": "https://api.github.com/users/promag",
    "html_url": "https://github.com/promag",
    "followers_url": "https://api.github.com/users/promag/followers",
    "following_url": "https://api.github.com/users/promag/following{/other_user}",
    "gists_url": "https://api.github.com/users/promag/gists{/gist_id}",
    "starred_url": "https://api.github.com/users/promag/starred{/owner}{/repo}",
    "subscriptions_url": "https://api.github.com/users/promag/subscriptions",
    "organizations_url": "https://api.github.com/users/promag/orgs",
    "repos_url": "https://api.github.com/users/promag/repos",
    "events_url": "https://api.github.com/users/promag/events{/privacy}",
    "received_events_url": "https://api.github.com/users/promag/received_events",
    "type": "User",
    "site_admin": false
  },
  "reactions": {
    "url": "https://api.github.com/repos/bitcoin/bitcoin/issues/10966/reactions",
    "total_count": 0,
    "+1": 0,
    "-1": 0,
    "laugh": 0,
    "hooray": 0,
    "confused": 0,
    "heart": 0,
    "rocket": 0,
    "eyes": 0
  },
  "timeline_url": "https://api.github.com/repos/bitcoin/bitcoin/issues/10966/timeline",
  "performed_via_github_app": null,
  "state_reason": null
}
