{
  "url": "https://api.github.com/repos/bitcoin/bitcoin/issues/2263",
  "repository_url": "https://api.github.com/repos/bitcoin/bitcoin",
  "labels_url": "https://api.github.com/repos/bitcoin/bitcoin/issues/2263/labels{/name}",
  "comments_url": "https://api.github.com/repos/bitcoin/bitcoin/issues/2263/comments",
  "events_url": "https://api.github.com/repos/bitcoin/bitcoin/issues/2263/events",
  "html_url": "https://github.com/bitcoin/bitcoin/issues/2263",
  "id": 10560563,
  "node_id": "MDU6SXNzdWUxMDU2MDU2Mw==",
  "number": 2263,
  "title": "Reloaded chain",
  "user": {
    "login": "rricci2009",
    "id": 3014212,
    "node_id": "MDQ6VXNlcjMwMTQyMTI=",
    "avatar_url": "https://avatars.githubusercontent.com/u/3014212?v=4",
    "gravatar_id": "",
    "url": "https://api.github.com/users/rricci2009",
    "html_url": "https://github.com/rricci2009",
    "followers_url": "https://api.github.com/users/rricci2009/followers",
    "following_url": "https://api.github.com/users/rricci2009/following{/other_user}",
    "gists_url": "https://api.github.com/users/rricci2009/gists{/gist_id}",
    "starred_url": "https://api.github.com/users/rricci2009/starred{/owner}{/repo}",
    "subscriptions_url": "https://api.github.com/users/rricci2009/subscriptions",
    "organizations_url": "https://api.github.com/users/rricci2009/orgs",
    "repos_url": "https://api.github.com/users/rricci2009/repos",
    "events_url": "https://api.github.com/users/rricci2009/events{/privacy}",
    "received_events_url": "https://api.github.com/users/rricci2009/received_events",
    "type": "User",
    "site_admin": false
  },
  "labels": [

  ],
  "state": "closed",
  "locked": true,
  "assignee": null,
  "assignees": [

  ],
  "milestone": null,
  "comments": 3,
  "created_at": "2013-02-01T21:50:56Z",
  "updated_at": "2021-09-08T12:18:07Z",
  "closed_at": "2013-02-04T19:03:09Z",
  "author_association": "NONE",
  "active_lock_reason": "resolved",
  "body_html": "<p dir=\"auto\">After upgrade, the client scan and reload all the blockchain creating and populating the \"chainstate\" directory.<br>\nAfter upgrade all run fast.</p>",
  "body_text": "After upgrade, the client scan and reload all the blockchain creating and populating the \"chainstate\" directory.\nAfter upgrade all run fast.",
  "body": "After upgrade, the client scan and reload all the blockchain creating and populating the \"chainstate\" directory.\nAfter upgrade all run fast.\n",
  "closed_by": {
    "login": "laanwj",
    "id": 126646,
    "node_id": "MDQ6VXNlcjEyNjY0Ng==",
    "avatar_url": "https://avatars.githubusercontent.com/u/126646?v=4",
    "gravatar_id": "",
    "url": "https://api.github.com/users/laanwj",
    "html_url": "https://github.com/laanwj",
    "followers_url": "https://api.github.com/users/laanwj/followers",
    "following_url": "https://api.github.com/users/laanwj/following{/other_user}",
    "gists_url": "https://api.github.com/users/laanwj/gists{/gist_id}",
    "starred_url": "https://api.github.com/users/laanwj/starred{/owner}{/repo}",
    "subscriptions_url": "https://api.github.com/users/laanwj/subscriptions",
    "organizations_url": "https://api.github.com/users/laanwj/orgs",
    "repos_url": "https://api.github.com/users/laanwj/repos",
    "events_url": "https://api.github.com/users/laanwj/events{/privacy}",
    "received_events_url": "https://api.github.com/users/laanwj/received_events",
    "type": "User",
    "site_admin": false
  },
  "reactions": {
    "url": "https://api.github.com/repos/bitcoin/bitcoin/issues/2263/reactions",
    "total_count": 0,
    "+1": 0,
    "-1": 0,
    "laugh": 0,
    "hooray": 0,
    "confused": 0,
    "heart": 0,
    "rocket": 0,
    "eyes": 0
  },
  "timeline_url": "https://api.github.com/repos/bitcoin/bitcoin/issues/2263/timeline",
  "performed_via_github_app": null,
  "state_reason": "completed"
}
