{
  "url": "https://api.github.com/repos/bitcoin/bitcoin/issues/18520",
  "repository_url": "https://api.github.com/repos/bitcoin/bitcoin",
  "labels_url": "https://api.github.com/repos/bitcoin/bitcoin/issues/18520/labels{/name}",
  "comments_url": "https://api.github.com/repos/bitcoin/bitcoin/issues/18520/comments",
  "events_url": "https://api.github.com/repos/bitcoin/bitcoin/issues/18520/events",
  "html_url": "https://github.com/bitcoin/bitcoin/pull/18520",
  "id": 593648895,
  "node_id": "MDExOlB1bGxSZXF1ZXN0Mzk4MzkzMTAw",
  "number": 18520,
  "title": "test: remaining replacements of (send_message+sync_with_ping) with send_and_ping",
  "user": {
    "login": "theStack",
    "id": 91535,
    "node_id": "MDQ6VXNlcjkxNTM1",
    "avatar_url": "https://avatars.githubusercontent.com/u/91535?v=4",
    "gravatar_id": "",
    "url": "https://api.github.com/users/theStack",
    "html_url": "https://github.com/theStack",
    "followers_url": "https://api.github.com/users/theStack/followers",
    "following_url": "https://api.github.com/users/theStack/following{/other_user}",
    "gists_url": "https://api.github.com/users/theStack/gists{/gist_id}",
    "starred_url": "https://api.github.com/users/theStack/starred{/owner}{/repo}",
    "subscriptions_url": "https://api.github.com/users/theStack/subscriptions",
    "organizations_url": "https://api.github.com/users/theStack/orgs",
    "repos_url": "https://api.github.com/users/theStack/repos",
    "events_url": "https://api.github.com/users/theStack/events{/privacy}",
    "received_events_url": "https://api.github.com/users/theStack/received_events",
    "type": "User",
    "site_admin": false
  },
  "labels": [
    {
      "id": 62963516,
      "node_id": "MDU6TGFiZWw2Mjk2MzUxNg==",
      "url": "https://api.github.com/repos/bitcoin/bitcoin/labels/Tests",
      "name": "Tests",
      "color": "d4c5f9",
      "default": false,
      "description": null
    }
  ],
  "state": "closed",
  "locked": true,
  "assignee": null,
  "assignees": [

  ],
  "milestone": null,
  "comments": 1,
  "created_at": "2020-04-03T21:23:44Z",
  "updated_at": "2022-02-15T10:38:47Z",
  "closed_at": "2020-04-04T20:48:16Z",
  "author_association": "CONTRIBUTOR",
  "active_lock_reason": "resolved",
  "draft": false,
  "pull_request": {
    "url": "https://api.github.com/repos/bitcoin/bitcoin/pulls/18520",
    "html_url": "https://github.com/bitcoin/bitcoin/pull/18520",
    "diff_url": "https://github.com/bitcoin/bitcoin/pull/18520.diff",
    "patch_url": "https://github.com/bitcoin/bitcoin/pull/18520.patch",
    "merged_at": "2020-04-04T20:48:16Z"
  },
  "body_html": "<p dir=\"auto\">This is a tiny follow-up PR to <a class=\"issue-link js-issue-link\" data-error-text=\"Failed to load title\" data-id=\"591956225\" data-permission-text=\"Title is private\" data-url=\"https://github.com/bitcoin/bitcoin/issues/18494\" data-hovercard-type=\"pull_request\" data-hovercard-url=\"/bitcoin/bitcoin/pull/18494/hovercard\" href=\"https://github.com/bitcoin/bitcoin/pull/18494\">#18494</a>, substituting the remaining occurences of <code class=\"notranslate\">send_message(...)</code>/<code class=\"notranslate\">sync_with_ping(...)</code> pairs with <code class=\"notranslate\">send_and_ping(...)</code>, as suggested in the comment <a class=\"issue-link js-issue-link\" data-error-text=\"Failed to load title\" data-id=\"591956225\" data-permission-text=\"Title is private\" data-url=\"https://github.com/bitcoin/bitcoin/issues/18494\" data-hovercard-type=\"pull_request\" data-hovercard-url=\"/bitcoin/bitcoin/pull/18494/hovercard?comment_id=386418913&amp;comment_type=review\" href=\"https://github.com/bitcoin/bitcoin/pull/18494#pullrequestreview-386418913\">#18494 (review)</a>. Thanks to jonatack and <a href=\"https://github.com/bitcoin/bitcoin/pull/18494#issuecomment-608496342\" data-hovercard-type=\"pull_request\" data-hovercard-url=\"/bitcoin/bitcoin/pull/18494/hovercard\">MarcoFalke</a> for giving me the hint to do this follow-up.</p>",
  "body_text": "This is a tiny follow-up PR to #18494, substituting the remaining occurences of send_message(...)/sync_with_ping(...) pairs with send_and_ping(...), as suggested in the comment #18494 (review). Thanks to jonatack and MarcoFalke for giving me the hint to do this follow-up.",
  "body": "This is a tiny follow-up PR to #18494, substituting the remaining occurences of `send_message(...)`/`sync_with_ping(...)` pairs with `send_and_ping(...)`, as suggested in the comment https://github.com/bitcoin/bitcoin/pull/18494#pullrequestreview-386418913. Thanks to jonatack and [MarcoFalke](https://github.com/bitcoin/bitcoin/pull/18494#issuecomment-608496342) for giving me the hint to do this follow-up.",
  "closed_by": {
    "login": "maflcko",
    "id": 6399679,
    "node_id": "MDQ6VXNlcjYzOTk2Nzk=",
    "avatar_url": "https://avatars.githubusercontent.com/u/6399679?v=4",
    "gravatar_id": "",
    "url": "https://api.github.com/users/maflcko",
    "html_url": "https://github.com/maflcko",
    "followers_url": "https://api.github.com/users/maflcko/followers",
    "following_url": "https://api.github.com/users/maflcko/following{/other_user}",
    "gists_url": "https://api.github.com/users/maflcko/gists{/gist_id}",
    "starred_url": "https://api.github.com/users/maflcko/starred{/owner}{/repo}",
    "subscriptions_url": "https://api.github.com/users/maflcko/subscriptions",
    "organizations_url": "https://api.github.com/users/maflcko/orgs",
    "repos_url": "https://api.github.com/users/maflcko/repos",
    "events_url": "https://api.github.com/users/maflcko/events{/privacy}",
    "received_events_url": "https://api.github.com/users/maflcko/received_events",
    "type": "User",
    "site_admin": false
  },
  "reactions": {
    "url": "https://api.github.com/repos/bitcoin/bitcoin/issues/18520/reactions",
    "total_count": 0,
    "+1": 0,
    "-1": 0,
    "laugh": 0,
    "hooray": 0,
    "confused": 0,
    "heart": 0,
    "rocket": 0,
    "eyes": 0
  },
  "timeline_url": "https://api.github.com/repos/bitcoin/bitcoin/issues/18520/timeline",
  "performed_via_github_app": null,
  "state_reason": null
}
