[
  {
    "url": "https://api.github.com/repos/bitcoin/bitcoin/issues/comments/316113627",
    "html_url": "https://github.com/bitcoin/bitcoin/pull/10868#issuecomment-316113627",
    "issue_url": "https://api.github.com/repos/bitcoin/bitcoin/issues/10868",
    "id": 316113627,
    "node_id": "MDEyOklzc3VlQ29tbWVudDMxNjExMzYyNw==",
    "user": {
      "login": "jnewbery",
      "id": 1063656,
      "node_id": "MDQ6VXNlcjEwNjM2NTY=",
      "avatar_url": "https://avatars.githubusercontent.com/u/1063656?v=4",
      "gravatar_id": "",
      "url": "https://api.github.com/users/jnewbery",
      "html_url": "https://github.com/jnewbery",
      "followers_url": "https://api.github.com/users/jnewbery/followers",
      "following_url": "https://api.github.com/users/jnewbery/following{/other_user}",
      "gists_url": "https://api.github.com/users/jnewbery/gists{/gist_id}",
      "starred_url": "https://api.github.com/users/jnewbery/starred{/owner}{/repo}",
      "subscriptions_url": "https://api.github.com/users/jnewbery/subscriptions",
      "organizations_url": "https://api.github.com/users/jnewbery/orgs",
      "repos_url": "https://api.github.com/users/jnewbery/repos",
      "events_url": "https://api.github.com/users/jnewbery/events{/privacy}",
      "received_events_url": "https://api.github.com/users/jnewbery/received_events",
      "type": "User",
      "site_admin": false
    },
    "created_at": "2017-07-18T16:07:30Z",
    "updated_at": "2017-07-18T16:07:30Z",
    "author_association": "CONTRIBUTOR",
    "body_html": "<p dir=\"auto\"><a class=\"user-mention notranslate\" data-hovercard-type=\"user\" data-hovercard-url=\"/users/ryanofsky/hovercard\" data-octo-click=\"hovercard-link-click\" data-octo-dimensions=\"link_type:self\" href=\"https://github.com/ryanofsky\">@ryanofsky</a> - should address your concern about <code class=\"notranslate\">usewallet</code></p>",
    "body_text": "@ryanofsky - should address your concern about usewallet",
    "body": "@ryanofsky - should address your concern about `usewallet`",
    "reactions": {
      "url": "https://api.github.com/repos/bitcoin/bitcoin/issues/comments/316113627/reactions",
      "total_count": 0,
      "+1": 0,
      "-1": 0,
      "laugh": 0,
      "hooray": 0,
      "confused": 0,
      "heart": 0,
      "rocket": 0,
      "eyes": 0
    },
    "performed_via_github_app": null
  },
  {
    "url": "https://api.github.com/repos/bitcoin/bitcoin/issues/comments/316137480",
    "html_url": "https://github.com/bitcoin/bitcoin/pull/10868#issuecomment-316137480",
    "issue_url": "https://api.github.com/repos/bitcoin/bitcoin/issues/10868",
    "id": 316137480,
    "node_id": "MDEyOklzc3VlQ29tbWVudDMxNjEzNzQ4MA==",
    "user": {
      "login": "jnewbery",
      "id": 1063656,
      "node_id": "MDQ6VXNlcjEwNjM2NTY=",
      "avatar_url": "https://avatars.githubusercontent.com/u/1063656?v=4",
      "gravatar_id": "",
      "url": "https://api.github.com/users/jnewbery",
      "html_url": "https://github.com/jnewbery",
      "followers_url": "https://api.github.com/users/jnewbery/followers",
      "following_url": "https://api.github.com/users/jnewbery/following{/other_user}",
      "gists_url": "https://api.github.com/users/jnewbery/gists{/gist_id}",
      "starred_url": "https://api.github.com/users/jnewbery/starred{/owner}{/repo}",
      "subscriptions_url": "https://api.github.com/users/jnewbery/subscriptions",
      "organizations_url": "https://api.github.com/users/jnewbery/orgs",
      "repos_url": "https://api.github.com/users/jnewbery/repos",
      "events_url": "https://api.github.com/users/jnewbery/events{/privacy}",
      "received_events_url": "https://api.github.com/users/jnewbery/received_events",
      "type": "User",
      "site_admin": false
    },
    "created_at": "2017-07-18T17:30:36Z",
    "updated_at": "2017-07-18T17:30:45Z",
    "author_association": "CONTRIBUTOR",
    "body_html": "<p dir=\"auto\"><a class=\"user-mention notranslate\" data-hovercard-type=\"user\" data-hovercard-url=\"/users/ryanofsky/hovercard\" data-octo-click=\"hovercard-link-click\" data-octo-dimensions=\"link_type:self\" href=\"https://github.com/ryanofsky\">@ryanofsky</a> Thanks for the feedback. You're right - the PR description was overly long and confusing for something that's actually very simple. I've reworked it using your words.</p>\n<p dir=\"auto\">Yes, perhaps this could go in 0.15 as a bugfix.</p>\n<p dir=\"auto\">Will address your technical feedback soon.</p>",
    "body_text": "@ryanofsky Thanks for the feedback. You're right - the PR description was overly long and confusing for something that's actually very simple. I've reworked it using your words.\nYes, perhaps this could go in 0.15 as a bugfix.\nWill address your technical feedback soon.",
    "body": "@ryanofsky Thanks for the feedback. You're right - the PR description was overly long and confusing for something that's actually very simple. I've reworked it using your words.\r\n\r\nYes, perhaps this could go in 0.15 as a bugfix.\r\n\r\nWill address your technical feedback soon.",
    "reactions": {
      "url": "https://api.github.com/repos/bitcoin/bitcoin/issues/comments/316137480/reactions",
      "total_count": 0,
      "+1": 0,
      "-1": 0,
      "laugh": 0,
      "hooray": 0,
      "confused": 0,
      "heart": 0,
      "rocket": 0,
      "eyes": 0
    },
    "performed_via_github_app": null
  },
  {
    "url": "https://api.github.com/repos/bitcoin/bitcoin/issues/comments/316138572",
    "html_url": "https://github.com/bitcoin/bitcoin/pull/10868#issuecomment-316138572",
    "issue_url": "https://api.github.com/repos/bitcoin/bitcoin/issues/10868",
    "id": 316138572,
    "node_id": "MDEyOklzc3VlQ29tbWVudDMxNjEzODU3Mg==",
    "user": {
      "login": "sipa",
      "id": 548488,
      "node_id": "MDQ6VXNlcjU0ODQ4OA==",
      "avatar_url": "https://avatars.githubusercontent.com/u/548488?v=4",
      "gravatar_id": "",
      "url": "https://api.github.com/users/sipa",
      "html_url": "https://github.com/sipa",
      "followers_url": "https://api.github.com/users/sipa/followers",
      "following_url": "https://api.github.com/users/sipa/following{/other_user}",
      "gists_url": "https://api.github.com/users/sipa/gists{/gist_id}",
      "starred_url": "https://api.github.com/users/sipa/starred{/owner}{/repo}",
      "subscriptions_url": "https://api.github.com/users/sipa/subscriptions",
      "organizations_url": "https://api.github.com/users/sipa/orgs",
      "repos_url": "https://api.github.com/users/sipa/repos",
      "events_url": "https://api.github.com/users/sipa/events{/privacy}",
      "received_events_url": "https://api.github.com/users/sipa/received_events",
      "type": "User",
      "site_admin": false
    },
    "created_at": "2017-07-18T17:34:09Z",
    "updated_at": "2017-07-18T17:34:09Z",
    "author_association": "MEMBER",
    "body_html": "<p dir=\"auto\">If we want to replace <code class=\"notranslate\">-usewallet</code> with <code class=\"notranslate\">-wallet</code> for <code class=\"notranslate\">bitcoin-cli</code>, it should go in 0.15 or we'd be breaking backward compatibility in later?</p>",
    "body_text": "If we want to replace -usewallet with -wallet for bitcoin-cli, it should go in 0.15 or we'd be breaking backward compatibility in later?",
    "body": "If we want to replace `-usewallet` with `-wallet` for `bitcoin-cli`, it should go in 0.15 or we'd be breaking backward compatibility in later?",
    "reactions": {
      "url": "https://api.github.com/repos/bitcoin/bitcoin/issues/comments/316138572/reactions",
      "total_count": 0,
      "+1": 0,
      "-1": 0,
      "laugh": 0,
      "hooray": 0,
      "confused": 0,
      "heart": 0,
      "rocket": 0,
      "eyes": 0
    },
    "performed_via_github_app": null
  },
  {
    "url": "https://api.github.com/repos/bitcoin/bitcoin/issues/comments/316141986",
    "html_url": "https://github.com/bitcoin/bitcoin/pull/10868#issuecomment-316141986",
    "issue_url": "https://api.github.com/repos/bitcoin/bitcoin/issues/10868",
    "id": 316141986,
    "node_id": "MDEyOklzc3VlQ29tbWVudDMxNjE0MTk4Ng==",
    "user": {
      "login": "jnewbery",
      "id": 1063656,
      "node_id": "MDQ6VXNlcjEwNjM2NTY=",
      "avatar_url": "https://avatars.githubusercontent.com/u/1063656?v=4",
      "gravatar_id": "",
      "url": "https://api.github.com/users/jnewbery",
      "html_url": "https://github.com/jnewbery",
      "followers_url": "https://api.github.com/users/jnewbery/followers",
      "following_url": "https://api.github.com/users/jnewbery/following{/other_user}",
      "gists_url": "https://api.github.com/users/jnewbery/gists{/gist_id}",
      "starred_url": "https://api.github.com/users/jnewbery/starred{/owner}{/repo}",
      "subscriptions_url": "https://api.github.com/users/jnewbery/subscriptions",
      "organizations_url": "https://api.github.com/users/jnewbery/orgs",
      "repos_url": "https://api.github.com/users/jnewbery/repos",
      "events_url": "https://api.github.com/users/jnewbery/events{/privacy}",
      "received_events_url": "https://api.github.com/users/jnewbery/received_events",
      "type": "User",
      "site_admin": false
    },
    "created_at": "2017-07-18T17:46:21Z",
    "updated_at": "2017-07-18T17:46:21Z",
    "author_association": "CONTRIBUTOR",
    "body_html": "<blockquote>\n<p dir=\"auto\">If we want to replace -usewallet with -wallet for bitcoin-cli, it should go in 0.15 or we'd be breaking backward compatibility in later?</p>\n</blockquote>\n<p dir=\"auto\">Yes, but as I've mentioned before, I'm not very concerned about backward compatibility for an interface that should be marked as experimental.</p>\n<p dir=\"auto\">That said, I'm happy for this to go in v0.15 as a bugfix.</p>",
    "body_text": "If we want to replace -usewallet with -wallet for bitcoin-cli, it should go in 0.15 or we'd be breaking backward compatibility in later?\n\nYes, but as I've mentioned before, I'm not very concerned about backward compatibility for an interface that should be marked as experimental.\nThat said, I'm happy for this to go in v0.15 as a bugfix.",
    "body": "> If we want to replace -usewallet with -wallet for bitcoin-cli, it should go in 0.15 or we'd be breaking backward compatibility in later?\r\n\r\nYes, but as I've mentioned before, I'm not very concerned about backward compatibility for an interface that should be marked as experimental.\r\n\r\nThat said, I'm happy for this to go in v0.15 as a bugfix.",
    "reactions": {
      "url": "https://api.github.com/repos/bitcoin/bitcoin/issues/comments/316141986/reactions",
      "total_count": 0,
      "+1": 0,
      "-1": 0,
      "laugh": 0,
      "hooray": 0,
      "confused": 0,
      "heart": 0,
      "rocket": 0,
      "eyes": 0
    },
    "performed_via_github_app": null
  },
  {
    "url": "https://api.github.com/repos/bitcoin/bitcoin/issues/comments/316142883",
    "html_url": "https://github.com/bitcoin/bitcoin/pull/10868#issuecomment-316142883",
    "issue_url": "https://api.github.com/repos/bitcoin/bitcoin/issues/10868",
    "id": 316142883,
    "node_id": "MDEyOklzc3VlQ29tbWVudDMxNjE0Mjg4Mw==",
    "user": {
      "login": "sipa",
      "id": 548488,
      "node_id": "MDQ6VXNlcjU0ODQ4OA==",
      "avatar_url": "https://avatars.githubusercontent.com/u/548488?v=4",
      "gravatar_id": "",
      "url": "https://api.github.com/users/sipa",
      "html_url": "https://github.com/sipa",
      "followers_url": "https://api.github.com/users/sipa/followers",
      "following_url": "https://api.github.com/users/sipa/following{/other_user}",
      "gists_url": "https://api.github.com/users/sipa/gists{/gist_id}",
      "starred_url": "https://api.github.com/users/sipa/starred{/owner}{/repo}",
      "subscriptions_url": "https://api.github.com/users/sipa/subscriptions",
      "organizations_url": "https://api.github.com/users/sipa/orgs",
      "repos_url": "https://api.github.com/users/sipa/repos",
      "events_url": "https://api.github.com/users/sipa/events{/privacy}",
      "received_events_url": "https://api.github.com/users/sipa/received_events",
      "type": "User",
      "site_admin": false
    },
    "created_at": "2017-07-18T17:49:29Z",
    "updated_at": "2017-07-18T17:49:29Z",
    "author_association": "MEMBER",
    "body_html": "<blockquote>\n<p dir=\"auto\">I'm not very concerned about backward compatibility for an interface that should be marked as experimental.</p>\n</blockquote>\n<p dir=\"auto\">Still no reason to go intentionally plan to break it.</p>",
    "body_text": "I'm not very concerned about backward compatibility for an interface that should be marked as experimental.\n\nStill no reason to go intentionally plan to break it.",
    "body": "> I'm not very concerned about backward compatibility for an interface that should be marked as experimental.\r\n\r\nStill no reason to go intentionally plan to break it.",
    "reactions": {
      "url": "https://api.github.com/repos/bitcoin/bitcoin/issues/comments/316142883/reactions",
      "total_count": 0,
      "+1": 0,
      "-1": 0,
      "laugh": 0,
      "hooray": 0,
      "confused": 0,
      "heart": 0,
      "rocket": 0,
      "eyes": 0
    },
    "performed_via_github_app": null
  },
  {
    "url": "https://api.github.com/repos/bitcoin/bitcoin/issues/comments/316146666",
    "html_url": "https://github.com/bitcoin/bitcoin/pull/10868#issuecomment-316146666",
    "issue_url": "https://api.github.com/repos/bitcoin/bitcoin/issues/10868",
    "id": 316146666,
    "node_id": "MDEyOklzc3VlQ29tbWVudDMxNjE0NjY2Ng==",
    "user": {
      "login": "jnewbery",
      "id": 1063656,
      "node_id": "MDQ6VXNlcjEwNjM2NTY=",
      "avatar_url": "https://avatars.githubusercontent.com/u/1063656?v=4",
      "gravatar_id": "",
      "url": "https://api.github.com/users/jnewbery",
      "html_url": "https://github.com/jnewbery",
      "followers_url": "https://api.github.com/users/jnewbery/followers",
      "following_url": "https://api.github.com/users/jnewbery/following{/other_user}",
      "gists_url": "https://api.github.com/users/jnewbery/gists{/gist_id}",
      "starred_url": "https://api.github.com/users/jnewbery/starred{/owner}{/repo}",
      "subscriptions_url": "https://api.github.com/users/jnewbery/subscriptions",
      "organizations_url": "https://api.github.com/users/jnewbery/orgs",
      "repos_url": "https://api.github.com/users/jnewbery/repos",
      "events_url": "https://api.github.com/users/jnewbery/events{/privacy}",
      "received_events_url": "https://api.github.com/users/jnewbery/received_events",
      "type": "User",
      "site_admin": false
    },
    "created_at": "2017-07-18T18:02:51Z",
    "updated_at": "2017-07-18T18:02:51Z",
    "author_association": "CONTRIBUTOR",
    "body_html": "<blockquote>\n<p dir=\"auto\">Still no reason to go intentionally plan to break it.</p>\n</blockquote>\n<p dir=\"auto\">Sorry, I'm confused about what you're advocating for? I've already said I'm happy for this to go into v0.15 as a bugfix.</p>",
    "body_text": "Still no reason to go intentionally plan to break it.\n\nSorry, I'm confused about what you're advocating for? I've already said I'm happy for this to go into v0.15 as a bugfix.",
    "body": "> Still no reason to go intentionally plan to break it.\r\n\r\nSorry, I'm confused about what you're advocating for? I've already said I'm happy for this to go into v0.15 as a bugfix.",
    "reactions": {
      "url": "https://api.github.com/repos/bitcoin/bitcoin/issues/comments/316146666/reactions",
      "total_count": 0,
      "+1": 0,
      "-1": 0,
      "laugh": 0,
      "hooray": 0,
      "confused": 0,
      "heart": 0,
      "rocket": 0,
      "eyes": 0
    },
    "performed_via_github_app": null
  },
  {
    "url": "https://api.github.com/repos/bitcoin/bitcoin/issues/comments/316147518",
    "html_url": "https://github.com/bitcoin/bitcoin/pull/10868#issuecomment-316147518",
    "issue_url": "https://api.github.com/repos/bitcoin/bitcoin/issues/10868",
    "id": 316147518,
    "node_id": "MDEyOklzc3VlQ29tbWVudDMxNjE0NzUxOA==",
    "user": {
      "login": "sipa",
      "id": 548488,
      "node_id": "MDQ6VXNlcjU0ODQ4OA==",
      "avatar_url": "https://avatars.githubusercontent.com/u/548488?v=4",
      "gravatar_id": "",
      "url": "https://api.github.com/users/sipa",
      "html_url": "https://github.com/sipa",
      "followers_url": "https://api.github.com/users/sipa/followers",
      "following_url": "https://api.github.com/users/sipa/following{/other_user}",
      "gists_url": "https://api.github.com/users/sipa/gists{/gist_id}",
      "starred_url": "https://api.github.com/users/sipa/starred{/owner}{/repo}",
      "subscriptions_url": "https://api.github.com/users/sipa/subscriptions",
      "organizations_url": "https://api.github.com/users/sipa/orgs",
      "repos_url": "https://api.github.com/users/sipa/repos",
      "events_url": "https://api.github.com/users/sipa/events{/privacy}",
      "received_events_url": "https://api.github.com/users/sipa/received_events",
      "type": "User",
      "site_admin": false
    },
    "created_at": "2017-07-18T18:06:04Z",
    "updated_at": "2017-07-18T18:06:04Z",
    "author_association": "MEMBER",
    "body_html": "<p dir=\"auto\"><a class=\"user-mention notranslate\" data-hovercard-type=\"user\" data-hovercard-url=\"/users/jnewbery/hovercard\" data-octo-click=\"hovercard-link-click\" data-octo-dimensions=\"link_type:self\" href=\"https://github.com/jnewbery\">@jnewbery</a> I think we should either decide to have it, and get it in now, or not at all.</p>",
    "body_text": "@jnewbery I think we should either decide to have it, and get it in now, or not at all.",
    "body": "@jnewbery I think we should either decide to have it, and get it in now, or not at all.",
    "reactions": {
      "url": "https://api.github.com/repos/bitcoin/bitcoin/issues/comments/316147518/reactions",
      "total_count": 0,
      "+1": 0,
      "-1": 0,
      "laugh": 0,
      "hooray": 0,
      "confused": 0,
      "heart": 0,
      "rocket": 0,
      "eyes": 0
    },
    "performed_via_github_app": null
  },
  {
    "url": "https://api.github.com/repos/bitcoin/bitcoin/issues/comments/316148515",
    "html_url": "https://github.com/bitcoin/bitcoin/pull/10868#issuecomment-316148515",
    "issue_url": "https://api.github.com/repos/bitcoin/bitcoin/issues/10868",
    "id": 316148515,
    "node_id": "MDEyOklzc3VlQ29tbWVudDMxNjE0ODUxNQ==",
    "user": {
      "login": "jnewbery",
      "id": 1063656,
      "node_id": "MDQ6VXNlcjEwNjM2NTY=",
      "avatar_url": "https://avatars.githubusercontent.com/u/1063656?v=4",
      "gravatar_id": "",
      "url": "https://api.github.com/users/jnewbery",
      "html_url": "https://github.com/jnewbery",
      "followers_url": "https://api.github.com/users/jnewbery/followers",
      "following_url": "https://api.github.com/users/jnewbery/following{/other_user}",
      "gists_url": "https://api.github.com/users/jnewbery/gists{/gist_id}",
      "starred_url": "https://api.github.com/users/jnewbery/starred{/owner}{/repo}",
      "subscriptions_url": "https://api.github.com/users/jnewbery/subscriptions",
      "organizations_url": "https://api.github.com/users/jnewbery/orgs",
      "repos_url": "https://api.github.com/users/jnewbery/repos",
      "events_url": "https://api.github.com/users/jnewbery/events{/privacy}",
      "received_events_url": "https://api.github.com/users/jnewbery/received_events",
      "type": "User",
      "site_admin": false
    },
    "created_at": "2017-07-18T18:09:29Z",
    "updated_at": "2017-07-18T18:09:29Z",
    "author_association": "CONTRIBUTOR",
    "body_html": "<p dir=\"auto\">ok, my vote is for having it now.</p>\n<p dir=\"auto\">aside: on a philosophical level I disagree that we should be forever bound to an interface that hasn't been fully agreed or designed. Presumably any users that are active enough to enable multiwallet in its first release and update all their client software are perfectly able to change <code class=\"notranslate\">usewallet</code> to <code class=\"notranslate\">wallet</code> at a later date.</p>",
    "body_text": "ok, my vote is for having it now.\naside: on a philosophical level I disagree that we should be forever bound to an interface that hasn't been fully agreed or designed. Presumably any users that are active enough to enable multiwallet in its first release and update all their client software are perfectly able to change usewallet to wallet at a later date.",
    "body": "ok, my vote is for having it now.\r\n\r\naside: on a philosophical level I disagree that we should be forever bound to an interface that hasn't been fully agreed or designed. Presumably any users that are active enough to enable multiwallet in its first release and update all their client software are perfectly able to change `usewallet` to `wallet` at a later date.",
    "reactions": {
      "url": "https://api.github.com/repos/bitcoin/bitcoin/issues/comments/316148515/reactions",
      "total_count": 0,
      "+1": 0,
      "-1": 0,
      "laugh": 0,
      "hooray": 0,
      "confused": 0,
      "heart": 0,
      "rocket": 0,
      "eyes": 0
    },
    "performed_via_github_app": null
  },
  {
    "url": "https://api.github.com/repos/bitcoin/bitcoin/issues/comments/316163834",
    "html_url": "https://github.com/bitcoin/bitcoin/pull/10868#issuecomment-316163834",
    "issue_url": "https://api.github.com/repos/bitcoin/bitcoin/issues/10868",
    "id": 316163834,
    "node_id": "MDEyOklzc3VlQ29tbWVudDMxNjE2MzgzNA==",
    "user": {
      "login": "jnewbery",
      "id": 1063656,
      "node_id": "MDQ6VXNlcjEwNjM2NTY=",
      "avatar_url": "https://avatars.githubusercontent.com/u/1063656?v=4",
      "gravatar_id": "",
      "url": "https://api.github.com/users/jnewbery",
      "html_url": "https://github.com/jnewbery",
      "followers_url": "https://api.github.com/users/jnewbery/followers",
      "following_url": "https://api.github.com/users/jnewbery/following{/other_user}",
      "gists_url": "https://api.github.com/users/jnewbery/gists{/gist_id}",
      "starred_url": "https://api.github.com/users/jnewbery/starred{/owner}{/repo}",
      "subscriptions_url": "https://api.github.com/users/jnewbery/subscriptions",
      "organizations_url": "https://api.github.com/users/jnewbery/orgs",
      "repos_url": "https://api.github.com/users/jnewbery/repos",
      "events_url": "https://api.github.com/users/jnewbery/events{/privacy}",
      "received_events_url": "https://api.github.com/users/jnewbery/received_events",
      "type": "User",
      "site_admin": false
    },
    "created_at": "2017-07-18T18:57:47Z",
    "updated_at": "2017-07-18T18:57:47Z",
    "author_association": "CONTRIBUTOR",
    "body_html": "<p dir=\"auto\">Addressed <a class=\"user-mention notranslate\" data-hovercard-type=\"user\" data-hovercard-url=\"/users/ryanofsky/hovercard\" data-octo-click=\"hovercard-link-click\" data-octo-dimensions=\"link_type:self\" href=\"https://github.com/ryanofsky\">@ryanofsky</a>'s comments</p>",
    "body_text": "Addressed @ryanofsky's comments",
    "body": "Addressed @ryanofsky's comments",
    "reactions": {
      "url": "https://api.github.com/repos/bitcoin/bitcoin/issues/comments/316163834/reactions",
      "total_count": 0,
      "+1": 0,
      "-1": 0,
      "laugh": 0,
      "hooray": 0,
      "confused": 0,
      "heart": 0,
      "rocket": 0,
      "eyes": 0
    },
    "performed_via_github_app": null
  },
  {
    "url": "https://api.github.com/repos/bitcoin/bitcoin/issues/comments/316180003",
    "html_url": "https://github.com/bitcoin/bitcoin/pull/10868#issuecomment-316180003",
    "issue_url": "https://api.github.com/repos/bitcoin/bitcoin/issues/10868",
    "id": 316180003,
    "node_id": "MDEyOklzc3VlQ29tbWVudDMxNjE4MDAwMw==",
    "user": {
      "login": "gmaxwell",
      "id": 858454,
      "node_id": "MDQ6VXNlcjg1ODQ1NA==",
      "avatar_url": "https://avatars.githubusercontent.com/u/858454?v=4",
      "gravatar_id": "",
      "url": "https://api.github.com/users/gmaxwell",
      "html_url": "https://github.com/gmaxwell",
      "followers_url": "https://api.github.com/users/gmaxwell/followers",
      "following_url": "https://api.github.com/users/gmaxwell/following{/other_user}",
      "gists_url": "https://api.github.com/users/gmaxwell/gists{/gist_id}",
      "starred_url": "https://api.github.com/users/gmaxwell/starred{/owner}{/repo}",
      "subscriptions_url": "https://api.github.com/users/gmaxwell/subscriptions",
      "organizations_url": "https://api.github.com/users/gmaxwell/orgs",
      "repos_url": "https://api.github.com/users/gmaxwell/repos",
      "events_url": "https://api.github.com/users/gmaxwell/events{/privacy}",
      "received_events_url": "https://api.github.com/users/gmaxwell/received_events",
      "type": "User",
      "site_admin": false
    },
    "created_at": "2017-07-18T19:59:40Z",
    "updated_at": "2017-07-18T19:59:40Z",
    "author_association": "CONTRIBUTOR",
    "body_html": "<p dir=\"auto\">But I want to be able to tell my daemon to load wallets one two and three, while make my bitcoin-cli default to wallet one.</p>",
    "body_text": "But I want to be able to tell my daemon to load wallets one two and three, while make my bitcoin-cli default to wallet one.",
    "body": "But I want to be able to tell my daemon to load wallets one two and three, while make my bitcoin-cli default to wallet one.",
    "reactions": {
      "url": "https://api.github.com/repos/bitcoin/bitcoin/issues/comments/316180003/reactions",
      "total_count": 0,
      "+1": 0,
      "-1": 0,
      "laugh": 0,
      "hooray": 0,
      "confused": 0,
      "heart": 0,
      "rocket": 0,
      "eyes": 0
    },
    "performed_via_github_app": null
  },
  {
    "url": "https://api.github.com/repos/bitcoin/bitcoin/issues/comments/316181874",
    "html_url": "https://github.com/bitcoin/bitcoin/pull/10868#issuecomment-316181874",
    "issue_url": "https://api.github.com/repos/bitcoin/bitcoin/issues/10868",
    "id": 316181874,
    "node_id": "MDEyOklzc3VlQ29tbWVudDMxNjE4MTg3NA==",
    "user": {
      "login": "ryanofsky",
      "id": 7133040,
      "node_id": "MDQ6VXNlcjcxMzMwNDA=",
      "avatar_url": "https://avatars.githubusercontent.com/u/7133040?v=4",
      "gravatar_id": "",
      "url": "https://api.github.com/users/ryanofsky",
      "html_url": "https://github.com/ryanofsky",
      "followers_url": "https://api.github.com/users/ryanofsky/followers",
      "following_url": "https://api.github.com/users/ryanofsky/following{/other_user}",
      "gists_url": "https://api.github.com/users/ryanofsky/gists{/gist_id}",
      "starred_url": "https://api.github.com/users/ryanofsky/starred{/owner}{/repo}",
      "subscriptions_url": "https://api.github.com/users/ryanofsky/subscriptions",
      "organizations_url": "https://api.github.com/users/ryanofsky/orgs",
      "repos_url": "https://api.github.com/users/ryanofsky/repos",
      "events_url": "https://api.github.com/users/ryanofsky/events{/privacy}",
      "received_events_url": "https://api.github.com/users/ryanofsky/received_events",
      "type": "User",
      "site_admin": false
    },
    "created_at": "2017-07-18T20:06:41Z",
    "updated_at": "2017-07-18T20:06:41Z",
    "author_association": "CONTRIBUTOR",
    "body_html": "<blockquote>\n<p dir=\"auto\">But I want to be able to tell my daemon to load wallets one two and three, while make my bitcoin-cli default to wallet one.</p>\n</blockquote>\n<p dir=\"auto\">We could allow this, but the thought is that it's dangerous because maybe you'll forget to add an explicit -wallet=filename argument in one of the cases where you don't intend to use your default wallet (maybe in a single bitcoin-cli invocation as part of a larger script) and then you will accidentally perform an action on the wrong wallet.</p>",
    "body_text": "But I want to be able to tell my daemon to load wallets one two and three, while make my bitcoin-cli default to wallet one.\n\nWe could allow this, but the thought is that it's dangerous because maybe you'll forget to add an explicit -wallet=filename argument in one of the cases where you don't intend to use your default wallet (maybe in a single bitcoin-cli invocation as part of a larger script) and then you will accidentally perform an action on the wrong wallet.",
    "body": "> But I want to be able to tell my daemon to load wallets one two and three, while make my bitcoin-cli default to wallet one.\r\n\r\nWe could allow this, but the thought is that it's dangerous because maybe you'll forget to add an explicit -wallet=filename argument in one of the cases where you don't intend to use your default wallet (maybe in a single bitcoin-cli invocation as part of a larger script) and then you will accidentally perform an action on the wrong wallet.",
    "reactions": {
      "url": "https://api.github.com/repos/bitcoin/bitcoin/issues/comments/316181874/reactions",
      "total_count": 0,
      "+1": 0,
      "-1": 0,
      "laugh": 0,
      "hooray": 0,
      "confused": 0,
      "heart": 0,
      "rocket": 0,
      "eyes": 0
    },
    "performed_via_github_app": null
  },
  {
    "url": "https://api.github.com/repos/bitcoin/bitcoin/issues/comments/316182535",
    "html_url": "https://github.com/bitcoin/bitcoin/pull/10868#issuecomment-316182535",
    "issue_url": "https://api.github.com/repos/bitcoin/bitcoin/issues/10868",
    "id": 316182535,
    "node_id": "MDEyOklzc3VlQ29tbWVudDMxNjE4MjUzNQ==",
    "user": {
      "login": "gmaxwell",
      "id": 858454,
      "node_id": "MDQ6VXNlcjg1ODQ1NA==",
      "avatar_url": "https://avatars.githubusercontent.com/u/858454?v=4",
      "gravatar_id": "",
      "url": "https://api.github.com/users/gmaxwell",
      "html_url": "https://github.com/gmaxwell",
      "followers_url": "https://api.github.com/users/gmaxwell/followers",
      "following_url": "https://api.github.com/users/gmaxwell/following{/other_user}",
      "gists_url": "https://api.github.com/users/gmaxwell/gists{/gist_id}",
      "starred_url": "https://api.github.com/users/gmaxwell/starred{/owner}{/repo}",
      "subscriptions_url": "https://api.github.com/users/gmaxwell/subscriptions",
      "organizations_url": "https://api.github.com/users/gmaxwell/orgs",
      "repos_url": "https://api.github.com/users/gmaxwell/repos",
      "events_url": "https://api.github.com/users/gmaxwell/events{/privacy}",
      "received_events_url": "https://api.github.com/users/gmaxwell/received_events",
      "type": "User",
      "site_admin": false
    },
    "created_at": "2017-07-18T20:09:21Z",
    "updated_at": "2017-07-18T20:09:50Z",
    "author_association": "CONTRIBUTOR",
    "body_html": "<p dir=\"auto\"><a class=\"user-mention notranslate\" data-hovercard-type=\"user\" data-hovercard-url=\"/users/ryanofsky/hovercard\" data-octo-click=\"hovercard-link-click\" data-octo-dimensions=\"link_type:self\" href=\"https://github.com/ryanofsky\">@ryanofsky</a>  That danger doesn't hold w the only allow one argument change.</p>\n<p dir=\"auto\">Example usecase is joinmarket wallet and a normal wallet.  Joinmarket will always use the rpc, but the cli I want to always use the normal wallet.</p>",
    "body_text": "@ryanofsky  That danger doesn't hold w the only allow one argument change.\nExample usecase is joinmarket wallet and a normal wallet.  Joinmarket will always use the rpc, but the cli I want to always use the normal wallet.",
    "body": "@ryanofsky  That danger doesn't hold w the only allow one argument change.  \r\n\r\nExample usecase is joinmarket wallet and a normal wallet.  Joinmarket will always use the rpc, but the cli I want to always use the normal wallet.",
    "reactions": {
      "url": "https://api.github.com/repos/bitcoin/bitcoin/issues/comments/316182535/reactions",
      "total_count": 0,
      "+1": 0,
      "-1": 0,
      "laugh": 0,
      "hooray": 0,
      "confused": 0,
      "heart": 0,
      "rocket": 0,
      "eyes": 0
    },
    "performed_via_github_app": null
  },
  {
    "url": "https://api.github.com/repos/bitcoin/bitcoin/issues/comments/316183548",
    "html_url": "https://github.com/bitcoin/bitcoin/pull/10868#issuecomment-316183548",
    "issue_url": "https://api.github.com/repos/bitcoin/bitcoin/issues/10868",
    "id": 316183548,
    "node_id": "MDEyOklzc3VlQ29tbWVudDMxNjE4MzU0OA==",
    "user": {
      "login": "jnewbery",
      "id": 1063656,
      "node_id": "MDQ6VXNlcjEwNjM2NTY=",
      "avatar_url": "https://avatars.githubusercontent.com/u/1063656?v=4",
      "gravatar_id": "",
      "url": "https://api.github.com/users/jnewbery",
      "html_url": "https://github.com/jnewbery",
      "followers_url": "https://api.github.com/users/jnewbery/followers",
      "following_url": "https://api.github.com/users/jnewbery/following{/other_user}",
      "gists_url": "https://api.github.com/users/jnewbery/gists{/gist_id}",
      "starred_url": "https://api.github.com/users/jnewbery/starred{/owner}{/repo}",
      "subscriptions_url": "https://api.github.com/users/jnewbery/subscriptions",
      "organizations_url": "https://api.github.com/users/jnewbery/orgs",
      "repos_url": "https://api.github.com/users/jnewbery/repos",
      "events_url": "https://api.github.com/users/jnewbery/events{/privacy}",
      "received_events_url": "https://api.github.com/users/jnewbery/received_events",
      "type": "User",
      "site_admin": false
    },
    "created_at": "2017-07-18T20:13:18Z",
    "updated_at": "2017-07-18T20:13:18Z",
    "author_association": "CONTRIBUTOR",
    "body_html": "<blockquote>\n<p dir=\"auto\">But I want to be able to tell my daemon to load wallets one two and three, while make my bitcoin-cli default to wallet one.</p>\n</blockquote>\n<p dir=\"auto\">Then write a wrapper around your cli 🙂</p>\n<p dir=\"auto\">I agree with <a class=\"user-mention notranslate\" data-hovercard-type=\"user\" data-hovercard-url=\"/users/ryanofsky/hovercard\" data-octo-click=\"hovercard-link-click\" data-octo-dimensions=\"link_type:self\" href=\"https://github.com/ryanofsky\">@ryanofsky</a> - not having a default wallet is <em>much</em> safer for all users.</p>",
    "body_text": "But I want to be able to tell my daemon to load wallets one two and three, while make my bitcoin-cli default to wallet one.\n\nThen write a wrapper around your cli 🙂\nI agree with @ryanofsky - not having a default wallet is much safer for all users.",
    "body": "> But I want to be able to tell my daemon to load wallets one two and three, while make my bitcoin-cli default to wallet one.\r\n\r\nThen write a wrapper around your cli :slightly_smiling_face: \r\n\r\nI agree with @ryanofsky - not having a default wallet is *much* safer for all users.",
    "reactions": {
      "url": "https://api.github.com/repos/bitcoin/bitcoin/issues/comments/316183548/reactions",
      "total_count": 0,
      "+1": 0,
      "-1": 0,
      "laugh": 0,
      "hooray": 0,
      "confused": 0,
      "heart": 0,
      "rocket": 0,
      "eyes": 0
    },
    "performed_via_github_app": null
  },
  {
    "url": "https://api.github.com/repos/bitcoin/bitcoin/issues/comments/316184290",
    "html_url": "https://github.com/bitcoin/bitcoin/pull/10868#issuecomment-316184290",
    "issue_url": "https://api.github.com/repos/bitcoin/bitcoin/issues/10868",
    "id": 316184290,
    "node_id": "MDEyOklzc3VlQ29tbWVudDMxNjE4NDI5MA==",
    "user": {
      "login": "gmaxwell",
      "id": 858454,
      "node_id": "MDQ6VXNlcjg1ODQ1NA==",
      "avatar_url": "https://avatars.githubusercontent.com/u/858454?v=4",
      "gravatar_id": "",
      "url": "https://api.github.com/users/gmaxwell",
      "html_url": "https://github.com/gmaxwell",
      "followers_url": "https://api.github.com/users/gmaxwell/followers",
      "following_url": "https://api.github.com/users/gmaxwell/following{/other_user}",
      "gists_url": "https://api.github.com/users/gmaxwell/gists{/gist_id}",
      "starred_url": "https://api.github.com/users/gmaxwell/starred{/owner}{/repo}",
      "subscriptions_url": "https://api.github.com/users/gmaxwell/subscriptions",
      "organizations_url": "https://api.github.com/users/gmaxwell/orgs",
      "repos_url": "https://api.github.com/users/gmaxwell/repos",
      "events_url": "https://api.github.com/users/gmaxwell/events{/privacy}",
      "received_events_url": "https://api.github.com/users/gmaxwell/received_events",
      "type": "User",
      "site_admin": false
    },
    "created_at": "2017-07-18T20:16:07Z",
    "updated_at": "2017-07-18T20:16:07Z",
    "author_association": "CONTRIBUTOR",
    "body_html": "<p dir=\"auto\">A setting I explicitly set isn't a default though. I agree it shouldn't have a default.  The argument you're making would apply identically to the testnet vs mainnet switch (which is also multiple wallets and also unsafe if you get the wrong one).</p>",
    "body_text": "A setting I explicitly set isn't a default though. I agree it shouldn't have a default.  The argument you're making would apply identically to the testnet vs mainnet switch (which is also multiple wallets and also unsafe if you get the wrong one).",
    "body": "A setting I explicitly set isn't a default though. I agree it shouldn't have a default.  The argument you're making would apply identically to the testnet vs mainnet switch (which is also multiple wallets and also unsafe if you get the wrong one).",
    "reactions": {
      "url": "https://api.github.com/repos/bitcoin/bitcoin/issues/comments/316184290/reactions",
      "total_count": 0,
      "+1": 0,
      "-1": 0,
      "laugh": 0,
      "hooray": 0,
      "confused": 0,
      "heart": 0,
      "rocket": 0,
      "eyes": 0
    },
    "performed_via_github_app": null
  },
  {
    "url": "https://api.github.com/repos/bitcoin/bitcoin/issues/comments/316185086",
    "html_url": "https://github.com/bitcoin/bitcoin/pull/10868#issuecomment-316185086",
    "issue_url": "https://api.github.com/repos/bitcoin/bitcoin/issues/10868",
    "id": 316185086,
    "node_id": "MDEyOklzc3VlQ29tbWVudDMxNjE4NTA4Ng==",
    "user": {
      "login": "ryanofsky",
      "id": 7133040,
      "node_id": "MDQ6VXNlcjcxMzMwNDA=",
      "avatar_url": "https://avatars.githubusercontent.com/u/7133040?v=4",
      "gravatar_id": "",
      "url": "https://api.github.com/users/ryanofsky",
      "html_url": "https://github.com/ryanofsky",
      "followers_url": "https://api.github.com/users/ryanofsky/followers",
      "following_url": "https://api.github.com/users/ryanofsky/following{/other_user}",
      "gists_url": "https://api.github.com/users/ryanofsky/gists{/gist_id}",
      "starred_url": "https://api.github.com/users/ryanofsky/starred{/owner}{/repo}",
      "subscriptions_url": "https://api.github.com/users/ryanofsky/subscriptions",
      "organizations_url": "https://api.github.com/users/ryanofsky/orgs",
      "repos_url": "https://api.github.com/users/ryanofsky/repos",
      "events_url": "https://api.github.com/users/ryanofsky/events{/privacy}",
      "received_events_url": "https://api.github.com/users/ryanofsky/received_events",
      "type": "User",
      "site_admin": false
    },
    "created_at": "2017-07-18T20:19:13Z",
    "updated_at": "2017-07-18T20:21:15Z",
    "author_association": "CONTRIBUTOR",
    "body_html": "<p dir=\"auto\">Yeah, I'm not actually against allowing users to explicitly set a default wallet. I was just trying to explain what the rationale was.</p>\n<p dir=\"auto\"><a class=\"user-mention notranslate\" data-hovercard-type=\"user\" data-hovercard-url=\"/users/gmaxwell/hovercard\" data-octo-click=\"hovercard-link-click\" data-octo-dimensions=\"link_type:self\" href=\"https://github.com/gmaxwell\">@gmaxwell</a>, are you suggesting with the one-argument limit that you might want to allow users to specify a default wallet in the conf file, but then disallow specifying a second wallet on the command line that would override it? That seems like a weird behavior, but I guess would be safe by john's definition.</p>",
    "body_text": "Yeah, I'm not actually against allowing users to explicitly set a default wallet. I was just trying to explain what the rationale was.\n@gmaxwell, are you suggesting with the one-argument limit that you might want to allow users to specify a default wallet in the conf file, but then disallow specifying a second wallet on the command line that would override it? That seems like a weird behavior, but I guess would be safe by john's definition.",
    "body": "Yeah, I'm not actually against allowing users to explicitly set a default wallet. I was just trying to explain what the rationale was.\r\n\r\n@gmaxwell, are you suggesting with the one-argument limit that you might want to allow users to specify a default wallet in the conf file, but then disallow specifying a second wallet on the command line that would override it? That seems like a weird behavior, but I guess would be safe by john's definition.",
    "reactions": {
      "url": "https://api.github.com/repos/bitcoin/bitcoin/issues/comments/316185086/reactions",
      "total_count": 0,
      "+1": 0,
      "-1": 0,
      "laugh": 0,
      "hooray": 0,
      "confused": 0,
      "heart": 0,
      "rocket": 0,
      "eyes": 0
    },
    "performed_via_github_app": null
  },
  {
    "url": "https://api.github.com/repos/bitcoin/bitcoin/issues/comments/316185956",
    "html_url": "https://github.com/bitcoin/bitcoin/pull/10868#issuecomment-316185956",
    "issue_url": "https://api.github.com/repos/bitcoin/bitcoin/issues/10868",
    "id": 316185956,
    "node_id": "MDEyOklzc3VlQ29tbWVudDMxNjE4NTk1Ng==",
    "user": {
      "login": "jnewbery",
      "id": 1063656,
      "node_id": "MDQ6VXNlcjEwNjM2NTY=",
      "avatar_url": "https://avatars.githubusercontent.com/u/1063656?v=4",
      "gravatar_id": "",
      "url": "https://api.github.com/users/jnewbery",
      "html_url": "https://github.com/jnewbery",
      "followers_url": "https://api.github.com/users/jnewbery/followers",
      "following_url": "https://api.github.com/users/jnewbery/following{/other_user}",
      "gists_url": "https://api.github.com/users/jnewbery/gists{/gist_id}",
      "starred_url": "https://api.github.com/users/jnewbery/starred{/owner}{/repo}",
      "subscriptions_url": "https://api.github.com/users/jnewbery/subscriptions",
      "organizations_url": "https://api.github.com/users/jnewbery/orgs",
      "repos_url": "https://api.github.com/users/jnewbery/repos",
      "events_url": "https://api.github.com/users/jnewbery/events{/privacy}",
      "received_events_url": "https://api.github.com/users/jnewbery/received_events",
      "type": "User",
      "site_admin": false
    },
    "created_at": "2017-07-18T20:22:28Z",
    "updated_at": "2017-07-18T20:22:28Z",
    "author_association": "CONTRIBUTOR",
    "body_html": "<p dir=\"auto\">I agree - the <code class=\"notranslate\">testnet</code> / <code class=\"notranslate\">mainnet</code> switch in the .conf file is dangerous and has tripped lots of people up, including me several times. Having to specify it explicitly it for each bitcoin-cli call would be safer (but irritating).</p>\n<p dir=\"auto\">I'm not even clear on what exact functionality you want - are you saying <code class=\"notranslate\">-usewallet</code> in the conf file should be the default? But that it can be overridden by <code class=\"notranslate\">-usewallet</code> on the command line?</p>",
    "body_text": "I agree - the testnet / mainnet switch in the .conf file is dangerous and has tripped lots of people up, including me several times. Having to specify it explicitly it for each bitcoin-cli call would be safer (but irritating).\nI'm not even clear on what exact functionality you want - are you saying -usewallet in the conf file should be the default? But that it can be overridden by -usewallet on the command line?",
    "body": "I agree - the `testnet` / `mainnet` switch in the .conf file is dangerous and has tripped lots of people up, including me several times. Having to specify it explicitly it for each bitcoin-cli call would be safer (but irritating).\r\n\r\nI'm not even clear on what exact functionality you want - are you saying `-usewallet` in the conf file should be the default? But that it can be overridden by `-usewallet` on the command line?",
    "reactions": {
      "url": "https://api.github.com/repos/bitcoin/bitcoin/issues/comments/316185956/reactions",
      "total_count": 0,
      "+1": 0,
      "-1": 0,
      "laugh": 0,
      "hooray": 0,
      "confused": 0,
      "heart": 0,
      "rocket": 0,
      "eyes": 0
    },
    "performed_via_github_app": null
  },
  {
    "url": "https://api.github.com/repos/bitcoin/bitcoin/issues/comments/316186690",
    "html_url": "https://github.com/bitcoin/bitcoin/pull/10868#issuecomment-316186690",
    "issue_url": "https://api.github.com/repos/bitcoin/bitcoin/issues/10868",
    "id": 316186690,
    "node_id": "MDEyOklzc3VlQ29tbWVudDMxNjE4NjY5MA==",
    "user": {
      "login": "ryanofsky",
      "id": 7133040,
      "node_id": "MDQ6VXNlcjcxMzMwNDA=",
      "avatar_url": "https://avatars.githubusercontent.com/u/7133040?v=4",
      "gravatar_id": "",
      "url": "https://api.github.com/users/ryanofsky",
      "html_url": "https://github.com/ryanofsky",
      "followers_url": "https://api.github.com/users/ryanofsky/followers",
      "following_url": "https://api.github.com/users/ryanofsky/following{/other_user}",
      "gists_url": "https://api.github.com/users/ryanofsky/gists{/gist_id}",
      "starred_url": "https://api.github.com/users/ryanofsky/starred{/owner}{/repo}",
      "subscriptions_url": "https://api.github.com/users/ryanofsky/subscriptions",
      "organizations_url": "https://api.github.com/users/ryanofsky/orgs",
      "repos_url": "https://api.github.com/users/ryanofsky/repos",
      "events_url": "https://api.github.com/users/ryanofsky/events{/privacy}",
      "received_events_url": "https://api.github.com/users/ryanofsky/received_events",
      "type": "User",
      "site_admin": false
    },
    "created_at": "2017-07-18T20:25:14Z",
    "updated_at": "2017-07-18T20:27:29Z",
    "author_association": "CONTRIBUTOR",
    "body_html": "<p dir=\"auto\">If we are ok with explicitly set default wallets, maybe it would best to have a \"-defaultwallet\" config setting that gets implemented on server side rather than client side. This would allow for consistent behavior even across different clients, and provide functionality that couldn't be replicated with a simple wrapper script or command alias.</p>",
    "body_text": "If we are ok with explicitly set default wallets, maybe it would best to have a \"-defaultwallet\" config setting that gets implemented on server side rather than client side. This would allow for consistent behavior even across different clients, and provide functionality that couldn't be replicated with a simple wrapper script or command alias.",
    "body": "If we are ok with explicitly set default wallets, maybe it would best to have a \"-defaultwallet\" config setting that gets implemented on server side rather than client side. This would allow for consistent behavior even across different clients, and provide functionality that couldn't be replicated with a simple wrapper script or command alias.",
    "reactions": {
      "url": "https://api.github.com/repos/bitcoin/bitcoin/issues/comments/316186690/reactions",
      "total_count": 0,
      "+1": 0,
      "-1": 0,
      "laugh": 0,
      "hooray": 0,
      "confused": 0,
      "heart": 0,
      "rocket": 0,
      "eyes": 0
    },
    "performed_via_github_app": null
  },
  {
    "url": "https://api.github.com/repos/bitcoin/bitcoin/issues/comments/316190736",
    "html_url": "https://github.com/bitcoin/bitcoin/pull/10868#issuecomment-316190736",
    "issue_url": "https://api.github.com/repos/bitcoin/bitcoin/issues/10868",
    "id": 316190736,
    "node_id": "MDEyOklzc3VlQ29tbWVudDMxNjE5MDczNg==",
    "user": {
      "login": "sipa",
      "id": 548488,
      "node_id": "MDQ6VXNlcjU0ODQ4OA==",
      "avatar_url": "https://avatars.githubusercontent.com/u/548488?v=4",
      "gravatar_id": "",
      "url": "https://api.github.com/users/sipa",
      "html_url": "https://github.com/sipa",
      "followers_url": "https://api.github.com/users/sipa/followers",
      "following_url": "https://api.github.com/users/sipa/following{/other_user}",
      "gists_url": "https://api.github.com/users/sipa/gists{/gist_id}",
      "starred_url": "https://api.github.com/users/sipa/starred{/owner}{/repo}",
      "subscriptions_url": "https://api.github.com/users/sipa/subscriptions",
      "organizations_url": "https://api.github.com/users/sipa/orgs",
      "repos_url": "https://api.github.com/users/sipa/repos",
      "events_url": "https://api.github.com/users/sipa/events{/privacy}",
      "received_events_url": "https://api.github.com/users/sipa/received_events",
      "type": "User",
      "site_admin": false
    },
    "created_at": "2017-07-18T20:40:02Z",
    "updated_at": "2017-07-18T20:46:39Z",
    "author_association": "MEMBER",
    "body_html": "<p dir=\"auto\">What is the rationale for renaming -usewallet to -wallet (over just rejecting duplicate -usewallet and/or having -defaultwallet)? Besides being slightly shorter, I don't see the advantage.</p>",
    "body_text": "What is the rationale for renaming -usewallet to -wallet (over just rejecting duplicate -usewallet and/or having -defaultwallet)? Besides being slightly shorter, I don't see the advantage.",
    "body": "What is the rationale for renaming -usewallet to -wallet (over just rejecting duplicate -usewallet and/or having -defaultwallet)? Besides being slightly shorter, I don't see the advantage.",
    "reactions": {
      "url": "https://api.github.com/repos/bitcoin/bitcoin/issues/comments/316190736/reactions",
      "total_count": 0,
      "+1": 0,
      "-1": 0,
      "laugh": 0,
      "hooray": 0,
      "confused": 0,
      "heart": 0,
      "rocket": 0,
      "eyes": 0
    },
    "performed_via_github_app": null
  },
  {
    "url": "https://api.github.com/repos/bitcoin/bitcoin/issues/comments/316192750",
    "html_url": "https://github.com/bitcoin/bitcoin/pull/10868#issuecomment-316192750",
    "issue_url": "https://api.github.com/repos/bitcoin/bitcoin/issues/10868",
    "id": 316192750,
    "node_id": "MDEyOklzc3VlQ29tbWVudDMxNjE5Mjc1MA==",
    "user": {
      "login": "ryanofsky",
      "id": 7133040,
      "node_id": "MDQ6VXNlcjcxMzMwNDA=",
      "avatar_url": "https://avatars.githubusercontent.com/u/7133040?v=4",
      "gravatar_id": "",
      "url": "https://api.github.com/users/ryanofsky",
      "html_url": "https://github.com/ryanofsky",
      "followers_url": "https://api.github.com/users/ryanofsky/followers",
      "following_url": "https://api.github.com/users/ryanofsky/following{/other_user}",
      "gists_url": "https://api.github.com/users/ryanofsky/gists{/gist_id}",
      "starred_url": "https://api.github.com/users/ryanofsky/starred{/owner}{/repo}",
      "subscriptions_url": "https://api.github.com/users/ryanofsky/subscriptions",
      "organizations_url": "https://api.github.com/users/ryanofsky/orgs",
      "repos_url": "https://api.github.com/users/ryanofsky/repos",
      "events_url": "https://api.github.com/users/ryanofsky/events{/privacy}",
      "received_events_url": "https://api.github.com/users/ryanofsky/received_events",
      "type": "User",
      "site_admin": false
    },
    "created_at": "2017-07-18T20:47:26Z",
    "updated_at": "2017-07-18T20:47:26Z",
    "author_association": "CONTRIBUTOR",
    "body_html": "<blockquote>\n<p dir=\"auto\">What is the rationale for renaming -usewallet to -wallet (over just rejecting duplicate -usewallet and/or -defaultwallet)?</p>\n</blockquote>\n<p dir=\"auto\">From my point of view I think the consistency is good. If we just have a consistent \"-wallet=filename\" option accepted by <code class=\"notranslate\">bitcoind</code>, <code class=\"notranslate\">bitcoin-qt</code>, <code class=\"notranslate\">bitcoin-cli</code> tools, it is harder to screw up using them. Especially if we want to have support for default wallets like Greg wants, it seems like asking for trouble expecting users to remember \"-usewallet\" instead of \"-wallet\" on the command line for this one tool, and punishing them if they forget by not showing any error and falling back to another wallet written in some config file.</p>",
    "body_text": "What is the rationale for renaming -usewallet to -wallet (over just rejecting duplicate -usewallet and/or -defaultwallet)?\n\nFrom my point of view I think the consistency is good. If we just have a consistent \"-wallet=filename\" option accepted by bitcoind, bitcoin-qt, bitcoin-cli tools, it is harder to screw up using them. Especially if we want to have support for default wallets like Greg wants, it seems like asking for trouble expecting users to remember \"-usewallet\" instead of \"-wallet\" on the command line for this one tool, and punishing them if they forget by not showing any error and falling back to another wallet written in some config file.",
    "body": "> What is the rationale for renaming -usewallet to -wallet (over just rejecting duplicate -usewallet and/or -defaultwallet)?\r\n\r\nFrom my point of view I think the consistency is good. If we just have a consistent \"-wallet=filename\" option accepted by `bitcoind`, `bitcoin-qt`, `bitcoin-cli` tools, it is harder to screw up using them. Especially if we want to have support for default wallets like Greg wants, it seems like asking for trouble expecting users to remember \"-usewallet\" instead of \"-wallet\" on the command line for this one tool, and punishing them if they forget by not showing any error and falling back to another wallet written in some config file.",
    "reactions": {
      "url": "https://api.github.com/repos/bitcoin/bitcoin/issues/comments/316192750/reactions",
      "total_count": 0,
      "+1": 0,
      "-1": 0,
      "laugh": 0,
      "hooray": 0,
      "confused": 0,
      "heart": 0,
      "rocket": 0,
      "eyes": 0
    },
    "performed_via_github_app": null
  },
  {
    "url": "https://api.github.com/repos/bitcoin/bitcoin/issues/comments/316194307",
    "html_url": "https://github.com/bitcoin/bitcoin/pull/10868#issuecomment-316194307",
    "issue_url": "https://api.github.com/repos/bitcoin/bitcoin/issues/10868",
    "id": 316194307,
    "node_id": "MDEyOklzc3VlQ29tbWVudDMxNjE5NDMwNw==",
    "user": {
      "login": "sipa",
      "id": 548488,
      "node_id": "MDQ6VXNlcjU0ODQ4OA==",
      "avatar_url": "https://avatars.githubusercontent.com/u/548488?v=4",
      "gravatar_id": "",
      "url": "https://api.github.com/users/sipa",
      "html_url": "https://github.com/sipa",
      "followers_url": "https://api.github.com/users/sipa/followers",
      "following_url": "https://api.github.com/users/sipa/following{/other_user}",
      "gists_url": "https://api.github.com/users/sipa/gists{/gist_id}",
      "starred_url": "https://api.github.com/users/sipa/starred{/owner}{/repo}",
      "subscriptions_url": "https://api.github.com/users/sipa/subscriptions",
      "organizations_url": "https://api.github.com/users/sipa/orgs",
      "repos_url": "https://api.github.com/users/sipa/repos",
      "events_url": "https://api.github.com/users/sipa/events{/privacy}",
      "received_events_url": "https://api.github.com/users/sipa/received_events",
      "type": "User",
      "site_admin": false
    },
    "created_at": "2017-07-18T20:53:15Z",
    "updated_at": "2017-07-18T20:53:15Z",
    "author_association": "MEMBER",
    "body_html": "<p dir=\"auto\">I'm not sure it's a great thing for consistency, if it needs such exceptional processing (ignoring something in the conf file is unique...).</p>",
    "body_text": "I'm not sure it's a great thing for consistency, if it needs such exceptional processing (ignoring something in the conf file is unique...).",
    "body": "I'm not sure it's a great thing for consistency, if it needs such exceptional processing (ignoring something in the conf file is unique...).",
    "reactions": {
      "url": "https://api.github.com/repos/bitcoin/bitcoin/issues/comments/316194307/reactions",
      "total_count": 0,
      "+1": 0,
      "-1": 0,
      "laugh": 0,
      "hooray": 0,
      "confused": 0,
      "heart": 0,
      "rocket": 0,
      "eyes": 0
    },
    "performed_via_github_app": null
  },
  {
    "url": "https://api.github.com/repos/bitcoin/bitcoin/issues/comments/316194673",
    "html_url": "https://github.com/bitcoin/bitcoin/pull/10868#issuecomment-316194673",
    "issue_url": "https://api.github.com/repos/bitcoin/bitcoin/issues/10868",
    "id": 316194673,
    "node_id": "MDEyOklzc3VlQ29tbWVudDMxNjE5NDY3Mw==",
    "user": {
      "login": "jnewbery",
      "id": 1063656,
      "node_id": "MDQ6VXNlcjEwNjM2NTY=",
      "avatar_url": "https://avatars.githubusercontent.com/u/1063656?v=4",
      "gravatar_id": "",
      "url": "https://api.github.com/users/jnewbery",
      "html_url": "https://github.com/jnewbery",
      "followers_url": "https://api.github.com/users/jnewbery/followers",
      "following_url": "https://api.github.com/users/jnewbery/following{/other_user}",
      "gists_url": "https://api.github.com/users/jnewbery/gists{/gist_id}",
      "starred_url": "https://api.github.com/users/jnewbery/starred{/owner}{/repo}",
      "subscriptions_url": "https://api.github.com/users/jnewbery/subscriptions",
      "organizations_url": "https://api.github.com/users/jnewbery/orgs",
      "repos_url": "https://api.github.com/users/jnewbery/repos",
      "events_url": "https://api.github.com/users/jnewbery/events{/privacy}",
      "received_events_url": "https://api.github.com/users/jnewbery/received_events",
      "type": "User",
      "site_admin": false
    },
    "created_at": "2017-07-18T20:54:30Z",
    "updated_at": "2017-07-18T20:54:30Z",
    "author_association": "CONTRIBUTOR",
    "body_html": "<p dir=\"auto\">Exactly what <a class=\"user-mention notranslate\" data-hovercard-type=\"user\" data-hovercard-url=\"/users/ryanofsky/hovercard\" data-octo-click=\"hovercard-link-click\" data-octo-dimensions=\"link_type:self\" href=\"https://github.com/ryanofsky\">@ryanofsky</a> said.</p>\n<p dir=\"auto\">And less importantly, because <code class=\"notranslate\">-use</code> is content free. All arguments are used.</p>",
    "body_text": "Exactly what @ryanofsky said.\nAnd less importantly, because -use is content free. All arguments are used.",
    "body": "Exactly what @ryanofsky said.\r\n\r\nAnd less importantly, because `-use` is content free. All arguments are used.",
    "reactions": {
      "url": "https://api.github.com/repos/bitcoin/bitcoin/issues/comments/316194673/reactions",
      "total_count": 0,
      "+1": 0,
      "-1": 0,
      "laugh": 0,
      "hooray": 0,
      "confused": 0,
      "heart": 0,
      "rocket": 0,
      "eyes": 0
    },
    "performed_via_github_app": null
  },
  {
    "url": "https://api.github.com/repos/bitcoin/bitcoin/issues/comments/316198924",
    "html_url": "https://github.com/bitcoin/bitcoin/pull/10868#issuecomment-316198924",
    "issue_url": "https://api.github.com/repos/bitcoin/bitcoin/issues/10868",
    "id": 316198924,
    "node_id": "MDEyOklzc3VlQ29tbWVudDMxNjE5ODkyNA==",
    "user": {
      "login": "ryanofsky",
      "id": 7133040,
      "node_id": "MDQ6VXNlcjcxMzMwNDA=",
      "avatar_url": "https://avatars.githubusercontent.com/u/7133040?v=4",
      "gravatar_id": "",
      "url": "https://api.github.com/users/ryanofsky",
      "html_url": "https://github.com/ryanofsky",
      "followers_url": "https://api.github.com/users/ryanofsky/followers",
      "following_url": "https://api.github.com/users/ryanofsky/following{/other_user}",
      "gists_url": "https://api.github.com/users/ryanofsky/gists{/gist_id}",
      "starred_url": "https://api.github.com/users/ryanofsky/starred{/owner}{/repo}",
      "subscriptions_url": "https://api.github.com/users/ryanofsky/subscriptions",
      "organizations_url": "https://api.github.com/users/ryanofsky/orgs",
      "repos_url": "https://api.github.com/users/ryanofsky/repos",
      "events_url": "https://api.github.com/users/ryanofsky/events{/privacy}",
      "received_events_url": "https://api.github.com/users/ryanofsky/received_events",
      "type": "User",
      "site_admin": false
    },
    "created_at": "2017-07-18T21:10:13Z",
    "updated_at": "2017-07-18T21:10:37Z",
    "author_association": "CONTRIBUTOR",
    "body_html": "<blockquote>\n<p dir=\"auto\">I'm not sure it's a great thing for consistency, if it needs such exceptional processing (ignoring something in the conf file is unique...).</p>\n</blockquote>\n<p dir=\"auto\">I don't necessarily think it should be ignored in the conf file. That's really just a quirk of the way this PR is implemented. I think my preferred implementation would check to see if a command line argument is specified, and if so override anything in the config file (obviously). Else if no command line argument is specified, and the configuration file has more than one value specified, exit with an error message, otherwise use the value from the config file. Behavior would be indistinguishable in the common case where bitcoind and bitcoin-cli share the same config file.</p>\n<p dir=\"auto\">I think John favored current approach though to prioritize safety just always get the wallet name from the command line when an RPC call is being made.</p>",
    "body_text": "I'm not sure it's a great thing for consistency, if it needs such exceptional processing (ignoring something in the conf file is unique...).\n\nI don't necessarily think it should be ignored in the conf file. That's really just a quirk of the way this PR is implemented. I think my preferred implementation would check to see if a command line argument is specified, and if so override anything in the config file (obviously). Else if no command line argument is specified, and the configuration file has more than one value specified, exit with an error message, otherwise use the value from the config file. Behavior would be indistinguishable in the common case where bitcoind and bitcoin-cli share the same config file.\nI think John favored current approach though to prioritize safety just always get the wallet name from the command line when an RPC call is being made.",
    "body": "> I'm not sure it's a great thing for consistency, if it needs such exceptional processing (ignoring something in the conf file is unique...).\r\n\r\nI don't necessarily think it should be ignored in the conf file. That's really just a quirk of the way this PR is implemented. I think my preferred implementation would check to see if a command line argument is specified, and if so override anything in the config file (obviously). Else if no command line argument is specified, and the configuration file has more than one value specified, exit with an error message, otherwise use the value from the config file. Behavior would be indistinguishable in the common case where bitcoind and bitcoin-cli share the same config file.\r\n\r\nI think John favored current approach though to prioritize safety just always get the wallet name from the command line when an RPC call is being made.",
    "reactions": {
      "url": "https://api.github.com/repos/bitcoin/bitcoin/issues/comments/316198924/reactions",
      "total_count": 0,
      "+1": 0,
      "-1": 0,
      "laugh": 0,
      "hooray": 0,
      "confused": 0,
      "heart": 0,
      "rocket": 0,
      "eyes": 0
    },
    "performed_via_github_app": null
  },
  {
    "url": "https://api.github.com/repos/bitcoin/bitcoin/issues/comments/316202917",
    "html_url": "https://github.com/bitcoin/bitcoin/pull/10868#issuecomment-316202917",
    "issue_url": "https://api.github.com/repos/bitcoin/bitcoin/issues/10868",
    "id": 316202917,
    "node_id": "MDEyOklzc3VlQ29tbWVudDMxNjIwMjkxNw==",
    "user": {
      "login": "jnewbery",
      "id": 1063656,
      "node_id": "MDQ6VXNlcjEwNjM2NTY=",
      "avatar_url": "https://avatars.githubusercontent.com/u/1063656?v=4",
      "gravatar_id": "",
      "url": "https://api.github.com/users/jnewbery",
      "html_url": "https://github.com/jnewbery",
      "followers_url": "https://api.github.com/users/jnewbery/followers",
      "following_url": "https://api.github.com/users/jnewbery/following{/other_user}",
      "gists_url": "https://api.github.com/users/jnewbery/gists{/gist_id}",
      "starred_url": "https://api.github.com/users/jnewbery/starred{/owner}{/repo}",
      "subscriptions_url": "https://api.github.com/users/jnewbery/subscriptions",
      "organizations_url": "https://api.github.com/users/jnewbery/orgs",
      "repos_url": "https://api.github.com/users/jnewbery/repos",
      "events_url": "https://api.github.com/users/jnewbery/events{/privacy}",
      "received_events_url": "https://api.github.com/users/jnewbery/received_events",
      "type": "User",
      "site_admin": false
    },
    "created_at": "2017-07-18T21:26:32Z",
    "updated_at": "2017-07-18T21:26:32Z",
    "author_association": "CONTRIBUTOR",
    "body_html": "<blockquote>\n<p dir=\"auto\">That's really just a quirk of the way this PR is implemented.</p>\n</blockquote>\n<p dir=\"auto\">Correct - in terms of implementation, it's simpler to just clear out the .conf file wallet argument (since wallet is a multimap). The end result is exactly as Russ has described.</p>\n<p dir=\"auto\">I'm happy to review alternative implementations if that's confused people.</p>",
    "body_text": "That's really just a quirk of the way this PR is implemented.\n\nCorrect - in terms of implementation, it's simpler to just clear out the .conf file wallet argument (since wallet is a multimap). The end result is exactly as Russ has described.\nI'm happy to review alternative implementations if that's confused people.",
    "body": "> That's really just a quirk of the way this PR is implemented.\r\n\r\nCorrect - in terms of implementation, it's simpler to just clear out the .conf file wallet argument (since wallet is a multimap). The end result is exactly as Russ has described.\r\n\r\nI'm happy to review alternative implementations if that's confused people.",
    "reactions": {
      "url": "https://api.github.com/repos/bitcoin/bitcoin/issues/comments/316202917/reactions",
      "total_count": 0,
      "+1": 0,
      "-1": 0,
      "laugh": 0,
      "hooray": 0,
      "confused": 0,
      "heart": 0,
      "rocket": 0,
      "eyes": 0
    },
    "performed_via_github_app": null
  },
  {
    "url": "https://api.github.com/repos/bitcoin/bitcoin/issues/comments/316203788",
    "html_url": "https://github.com/bitcoin/bitcoin/pull/10868#issuecomment-316203788",
    "issue_url": "https://api.github.com/repos/bitcoin/bitcoin/issues/10868",
    "id": 316203788,
    "node_id": "MDEyOklzc3VlQ29tbWVudDMxNjIwMzc4OA==",
    "user": {
      "login": "sipa",
      "id": 548488,
      "node_id": "MDQ6VXNlcjU0ODQ4OA==",
      "avatar_url": "https://avatars.githubusercontent.com/u/548488?v=4",
      "gravatar_id": "",
      "url": "https://api.github.com/users/sipa",
      "html_url": "https://github.com/sipa",
      "followers_url": "https://api.github.com/users/sipa/followers",
      "following_url": "https://api.github.com/users/sipa/following{/other_user}",
      "gists_url": "https://api.github.com/users/sipa/gists{/gist_id}",
      "starred_url": "https://api.github.com/users/sipa/starred{/owner}{/repo}",
      "subscriptions_url": "https://api.github.com/users/sipa/subscriptions",
      "organizations_url": "https://api.github.com/users/sipa/orgs",
      "repos_url": "https://api.github.com/users/sipa/repos",
      "events_url": "https://api.github.com/users/sipa/events{/privacy}",
      "received_events_url": "https://api.github.com/users/sipa/received_events",
      "type": "User",
      "site_admin": false
    },
    "created_at": "2017-07-18T21:30:12Z",
    "updated_at": "2017-07-18T21:30:12Z",
    "author_association": "MEMBER",
    "body_html": "<p dir=\"auto\">I think my objection goes away if -wallet in the config file is not being ignored, but there are just rules that prevent specifying it twice on the command line.</p>",
    "body_text": "I think my objection goes away if -wallet in the config file is not being ignored, but there are just rules that prevent specifying it twice on the command line.",
    "body": "I think my objection goes away if -wallet in the config file is not being ignored, but there are just rules that prevent specifying it twice on the command line.",
    "reactions": {
      "url": "https://api.github.com/repos/bitcoin/bitcoin/issues/comments/316203788/reactions",
      "total_count": 0,
      "+1": 0,
      "-1": 0,
      "laugh": 0,
      "hooray": 0,
      "confused": 0,
      "heart": 0,
      "rocket": 0,
      "eyes": 0
    },
    "performed_via_github_app": null
  },
  {
    "url": "https://api.github.com/repos/bitcoin/bitcoin/issues/comments/316212416",
    "html_url": "https://github.com/bitcoin/bitcoin/pull/10868#issuecomment-316212416",
    "issue_url": "https://api.github.com/repos/bitcoin/bitcoin/issues/10868",
    "id": 316212416,
    "node_id": "MDEyOklzc3VlQ29tbWVudDMxNjIxMjQxNg==",
    "user": {
      "login": "sipa",
      "id": 548488,
      "node_id": "MDQ6VXNlcjU0ODQ4OA==",
      "avatar_url": "https://avatars.githubusercontent.com/u/548488?v=4",
      "gravatar_id": "",
      "url": "https://api.github.com/users/sipa",
      "html_url": "https://github.com/sipa",
      "followers_url": "https://api.github.com/users/sipa/followers",
      "following_url": "https://api.github.com/users/sipa/following{/other_user}",
      "gists_url": "https://api.github.com/users/sipa/gists{/gist_id}",
      "starred_url": "https://api.github.com/users/sipa/starred{/owner}{/repo}",
      "subscriptions_url": "https://api.github.com/users/sipa/subscriptions",
      "organizations_url": "https://api.github.com/users/sipa/orgs",
      "repos_url": "https://api.github.com/users/sipa/repos",
      "events_url": "https://api.github.com/users/sipa/events{/privacy}",
      "received_events_url": "https://api.github.com/users/sipa/received_events",
      "type": "User",
      "site_admin": false
    },
    "created_at": "2017-07-18T22:06:53Z",
    "updated_at": "2017-07-18T22:22:18Z",
    "author_association": "MEMBER",
    "body_html": "<p dir=\"auto\">After some offline discussion with <a class=\"user-mention notranslate\" data-hovercard-type=\"user\" data-hovercard-url=\"/users/jnewbery/hovercard\" data-octo-click=\"hovercard-link-click\" data-octo-dimensions=\"link_type:self\" href=\"https://github.com/jnewbery\">@jnewbery</a>, Concept ACK. I misunderstood how little effect \"ignore the config file\" had on the semantics of -wallet.</p>\n<p dir=\"auto\">I believe the behaviour of the -wallet option can effectively be modelled as \"the command-line -wallet arguments replace the config file ones as a whole, rather than appending to them\". I think that's fine. Ideally, I think that interpretation can be extended slightly further, by making <code class=\"notranslate\">bitcoin-cli</code> use (all) <code class=\"notranslate\">wallet=</code> lines from the config if no <code class=\"notranslate\">-wallet</code> is provided on the cmdline.</p>\n<p dir=\"auto\">Having a <code class=\"notranslate\">-defaultwallet</code> can be an independent feature that is added later, or not.</p>",
    "body_text": "After some offline discussion with @jnewbery, Concept ACK. I misunderstood how little effect \"ignore the config file\" had on the semantics of -wallet.\nI believe the behaviour of the -wallet option can effectively be modelled as \"the command-line -wallet arguments replace the config file ones as a whole, rather than appending to them\". I think that's fine. Ideally, I think that interpretation can be extended slightly further, by making bitcoin-cli use (all) wallet= lines from the config if no -wallet is provided on the cmdline.\nHaving a -defaultwallet can be an independent feature that is added later, or not.",
    "body": "After some offline discussion with @jnewbery, Concept ACK. I misunderstood how little effect \"ignore the config file\" had on the semantics of -wallet.\r\n\r\nI believe the behaviour of the -wallet option can effectively be modelled as \"the command-line -wallet arguments replace the config file ones as a whole, rather than appending to them\". I think that's fine. Ideally, I think that interpretation can be extended slightly further, by making `bitcoin-cli` use (all) `wallet=` lines from the config if no `-wallet` is provided on the cmdline.\r\n\r\nHaving a `-defaultwallet` can be an independent feature that is added later, or not.",
    "reactions": {
      "url": "https://api.github.com/repos/bitcoin/bitcoin/issues/comments/316212416/reactions",
      "total_count": 0,
      "+1": 0,
      "-1": 0,
      "laugh": 0,
      "hooray": 0,
      "confused": 0,
      "heart": 0,
      "rocket": 0,
      "eyes": 0
    },
    "performed_via_github_app": null
  },
  {
    "url": "https://api.github.com/repos/bitcoin/bitcoin/issues/comments/316217442",
    "html_url": "https://github.com/bitcoin/bitcoin/pull/10868#issuecomment-316217442",
    "issue_url": "https://api.github.com/repos/bitcoin/bitcoin/issues/10868",
    "id": 316217442,
    "node_id": "MDEyOklzc3VlQ29tbWVudDMxNjIxNzQ0Mg==",
    "user": {
      "login": "ryanofsky",
      "id": 7133040,
      "node_id": "MDQ6VXNlcjcxMzMwNDA=",
      "avatar_url": "https://avatars.githubusercontent.com/u/7133040?v=4",
      "gravatar_id": "",
      "url": "https://api.github.com/users/ryanofsky",
      "html_url": "https://github.com/ryanofsky",
      "followers_url": "https://api.github.com/users/ryanofsky/followers",
      "following_url": "https://api.github.com/users/ryanofsky/following{/other_user}",
      "gists_url": "https://api.github.com/users/ryanofsky/gists{/gist_id}",
      "starred_url": "https://api.github.com/users/ryanofsky/starred{/owner}{/repo}",
      "subscriptions_url": "https://api.github.com/users/ryanofsky/subscriptions",
      "organizations_url": "https://api.github.com/users/ryanofsky/orgs",
      "repos_url": "https://api.github.com/users/ryanofsky/repos",
      "events_url": "https://api.github.com/users/ryanofsky/events{/privacy}",
      "received_events_url": "https://api.github.com/users/ryanofsky/received_events",
      "type": "User",
      "site_admin": false
    },
    "created_at": "2017-07-18T22:32:22Z",
    "updated_at": "2017-07-18T22:32:22Z",
    "author_association": "CONTRIBUTOR",
    "body_html": "<p dir=\"auto\">Sounds good. I'm happy with this PR as it is, as well as the other options that have been discussed. Note that the current PR doesn't exactly model command line -wallet options \"replacing config file ones as a whole\", because it clears config wallet options even when no command line option specified. The change I was talking about earlier would give you that behavior (and potentially less safe results when bitcoind and bitcoin-cli read different config files). FWIW, I implemented it here <a class=\"commit-link\" data-hovercard-type=\"commit\" data-hovercard-url=\"https://github.com/ryanofsky/bitcoin/commit/b701085e0c35e9e09f44d8e9ba8303617e445ca3/hovercard\" href=\"https://github.com/ryanofsky/bitcoin/commit/b701085e0c35e9e09f44d8e9ba8303617e445ca3\">ryanofsky@<tt>b701085</tt></a></p>",
    "body_text": "Sounds good. I'm happy with this PR as it is, as well as the other options that have been discussed. Note that the current PR doesn't exactly model command line -wallet options \"replacing config file ones as a whole\", because it clears config wallet options even when no command line option specified. The change I was talking about earlier would give you that behavior (and potentially less safe results when bitcoind and bitcoin-cli read different config files). FWIW, I implemented it here ryanofsky@b701085",
    "body": "Sounds good. I'm happy with this PR as it is, as well as the other options that have been discussed. Note that the current PR doesn't exactly model command line -wallet options \"replacing config file ones as a whole\", because it clears config wallet options even when no command line option specified. The change I was talking about earlier would give you that behavior (and potentially less safe results when bitcoind and bitcoin-cli read different config files). FWIW, I implemented it here https://github.com/ryanofsky/bitcoin/commit/b701085e0c35e9e09f44d8e9ba8303617e445ca3",
    "reactions": {
      "url": "https://api.github.com/repos/bitcoin/bitcoin/issues/comments/316217442/reactions",
      "total_count": 0,
      "+1": 0,
      "-1": 0,
      "laugh": 0,
      "hooray": 0,
      "confused": 0,
      "heart": 0,
      "rocket": 0,
      "eyes": 0
    },
    "performed_via_github_app": null
  },
  {
    "url": "https://api.github.com/repos/bitcoin/bitcoin/issues/comments/316219219",
    "html_url": "https://github.com/bitcoin/bitcoin/pull/10868#issuecomment-316219219",
    "issue_url": "https://api.github.com/repos/bitcoin/bitcoin/issues/10868",
    "id": 316219219,
    "node_id": "MDEyOklzc3VlQ29tbWVudDMxNjIxOTIxOQ==",
    "user": {
      "login": "jnewbery",
      "id": 1063656,
      "node_id": "MDQ6VXNlcjEwNjM2NTY=",
      "avatar_url": "https://avatars.githubusercontent.com/u/1063656?v=4",
      "gravatar_id": "",
      "url": "https://api.github.com/users/jnewbery",
      "html_url": "https://github.com/jnewbery",
      "followers_url": "https://api.github.com/users/jnewbery/followers",
      "following_url": "https://api.github.com/users/jnewbery/following{/other_user}",
      "gists_url": "https://api.github.com/users/jnewbery/gists{/gist_id}",
      "starred_url": "https://api.github.com/users/jnewbery/starred{/owner}{/repo}",
      "subscriptions_url": "https://api.github.com/users/jnewbery/subscriptions",
      "organizations_url": "https://api.github.com/users/jnewbery/orgs",
      "repos_url": "https://api.github.com/users/jnewbery/repos",
      "events_url": "https://api.github.com/users/jnewbery/events{/privacy}",
      "received_events_url": "https://api.github.com/users/jnewbery/received_events",
      "type": "User",
      "site_admin": false
    },
    "created_at": "2017-07-18T22:42:51Z",
    "updated_at": "2017-07-18T22:42:51Z",
    "author_association": "CONTRIBUTOR",
    "body_html": "<p dir=\"auto\"><a class=\"user-mention notranslate\" data-hovercard-type=\"user\" data-hovercard-url=\"/users/ryanofsky/hovercard\" data-octo-click=\"hovercard-link-click\" data-octo-dimensions=\"link_type:self\" href=\"https://github.com/ryanofsky\">@ryanofsky</a> - I think your branch is much nicer (modulo the two things we just chatted about). Mind if I cherry pick it here?</p>",
    "body_text": "@ryanofsky - I think your branch is much nicer (modulo the two things we just chatted about). Mind if I cherry pick it here?",
    "body": "@ryanofsky - I think your branch is much nicer (modulo the two things we just chatted about). Mind if I cherry pick it here?",
    "reactions": {
      "url": "https://api.github.com/repos/bitcoin/bitcoin/issues/comments/316219219/reactions",
      "total_count": 0,
      "+1": 0,
      "-1": 0,
      "laugh": 0,
      "hooray": 0,
      "confused": 0,
      "heart": 0,
      "rocket": 0,
      "eyes": 0
    },
    "performed_via_github_app": null
  },
  {
    "url": "https://api.github.com/repos/bitcoin/bitcoin/issues/comments/316249457",
    "html_url": "https://github.com/bitcoin/bitcoin/pull/10868#issuecomment-316249457",
    "issue_url": "https://api.github.com/repos/bitcoin/bitcoin/issues/10868",
    "id": 316249457,
    "node_id": "MDEyOklzc3VlQ29tbWVudDMxNjI0OTQ1Nw==",
    "user": {
      "login": "achow101",
      "id": 3782274,
      "node_id": "MDQ6VXNlcjM3ODIyNzQ=",
      "avatar_url": "https://avatars.githubusercontent.com/u/3782274?v=4",
      "gravatar_id": "",
      "url": "https://api.github.com/users/achow101",
      "html_url": "https://github.com/achow101",
      "followers_url": "https://api.github.com/users/achow101/followers",
      "following_url": "https://api.github.com/users/achow101/following{/other_user}",
      "gists_url": "https://api.github.com/users/achow101/gists{/gist_id}",
      "starred_url": "https://api.github.com/users/achow101/starred{/owner}{/repo}",
      "subscriptions_url": "https://api.github.com/users/achow101/subscriptions",
      "organizations_url": "https://api.github.com/users/achow101/orgs",
      "repos_url": "https://api.github.com/users/achow101/repos",
      "events_url": "https://api.github.com/users/achow101/events{/privacy}",
      "received_events_url": "https://api.github.com/users/achow101/received_events",
      "type": "User",
      "site_admin": false
    },
    "created_at": "2017-07-19T01:54:50Z",
    "updated_at": "2017-07-19T01:54:50Z",
    "author_association": "MEMBER",
    "body_html": "<p dir=\"auto\">ACK <a class=\"commit-link\" data-hovercard-type=\"commit\" data-hovercard-url=\"https://github.com/bitcoin/bitcoin/commit/561d0190d326c4bb75d9db03cabbeea10b9ec5cb/hovercard\" href=\"https://github.com/bitcoin/bitcoin/commit/561d0190d326c4bb75d9db03cabbeea10b9ec5cb\"><tt>561d019</tt></a></p>",
    "body_text": "ACK 561d019",
    "body": "ACK 561d0190d326c4bb75d9db03cabbeea10b9ec5cb",
    "reactions": {
      "url": "https://api.github.com/repos/bitcoin/bitcoin/issues/comments/316249457/reactions",
      "total_count": 0,
      "+1": 0,
      "-1": 0,
      "laugh": 0,
      "hooray": 0,
      "confused": 0,
      "heart": 0,
      "rocket": 0,
      "eyes": 0
    },
    "performed_via_github_app": null
  },
  {
    "url": "https://api.github.com/repos/bitcoin/bitcoin/issues/comments/316328310",
    "html_url": "https://github.com/bitcoin/bitcoin/pull/10868#issuecomment-316328310",
    "issue_url": "https://api.github.com/repos/bitcoin/bitcoin/issues/10868",
    "id": 316328310,
    "node_id": "MDEyOklzc3VlQ29tbWVudDMxNjMyODMxMA==",
    "user": {
      "login": "jonasschnelli",
      "id": 178464,
      "node_id": "MDQ6VXNlcjE3ODQ2NA==",
      "avatar_url": "https://avatars.githubusercontent.com/u/178464?v=4",
      "gravatar_id": "",
      "url": "https://api.github.com/users/jonasschnelli",
      "html_url": "https://github.com/jonasschnelli",
      "followers_url": "https://api.github.com/users/jonasschnelli/followers",
      "following_url": "https://api.github.com/users/jonasschnelli/following{/other_user}",
      "gists_url": "https://api.github.com/users/jonasschnelli/gists{/gist_id}",
      "starred_url": "https://api.github.com/users/jonasschnelli/starred{/owner}{/repo}",
      "subscriptions_url": "https://api.github.com/users/jonasschnelli/subscriptions",
      "organizations_url": "https://api.github.com/users/jonasschnelli/orgs",
      "repos_url": "https://api.github.com/users/jonasschnelli/repos",
      "events_url": "https://api.github.com/users/jonasschnelli/events{/privacy}",
      "received_events_url": "https://api.github.com/users/jonasschnelli/received_events",
      "type": "User",
      "site_admin": false
    },
    "created_at": "2017-07-19T09:32:12Z",
    "updated_at": "2017-07-19T09:32:12Z",
    "author_association": "CONTRIBUTOR",
    "body_html": "<p dir=\"auto\">Agree with <a class=\"user-mention notranslate\" data-hovercard-type=\"user\" data-hovercard-url=\"/users/jnewbery/hovercard\" data-octo-click=\"hovercard-link-click\" data-octo-dimensions=\"link_type:self\" href=\"https://github.com/jnewbery\">@jnewbery</a> that <a class=\"user-mention notranslate\" data-hovercard-type=\"user\" data-hovercard-url=\"/users/ryanofsky/hovercard\" data-octo-click=\"hovercard-link-click\" data-octo-dimensions=\"link_type:self\" href=\"https://github.com/ryanofsky\">@ryanofsky</a> <a class=\"commit-link\" data-hovercard-type=\"commit\" data-hovercard-url=\"https://github.com/ryanofsky/bitcoin/commit/b701085/hovercard\" href=\"https://github.com/ryanofsky/bitcoin/commit/b701085\">ryanofsky/bitcoin@<tt>b701085</tt></a> is preferable.</p>\n<p dir=\"auto\">I like the current <code class=\"notranslate\">-usewallet</code> for the reasons that users can/will/must clearly distinct between running with multiple wallets (d/QT <code class=\"notranslate\">-wallet</code>) and accessing a specific wallet (<code class=\"notranslate\">-usewallet</code>).</p>\n<p dir=\"auto\">I'm aware of the different layers (d/Qt vs <code class=\"notranslate\">bitcoin-cli</code>) but from the users perspective, differentiation of an argument between the daemon and the cli is difficult to understand (once its running multiple wallets, once its selecting a specific wallet). Having two identical arguments that have total different effects is not ideal (even cross binaries).</p>\n<p dir=\"auto\">I think for 0.15 we should merge the multiple <code class=\"notranslate\">-usewallet</code> arguments blocker: <a class=\"issue-link js-issue-link\" data-error-text=\"Failed to load title\" data-id=\"243767124\" data-permission-text=\"Title is private\" data-url=\"https://github.com/bitcoin/bitcoin/issues/10867\" data-hovercard-type=\"pull_request\" data-hovercard-url=\"/bitcoin/bitcoin/pull/10867/hovercard\" href=\"https://github.com/bitcoin/bitcoin/pull/10867\">#10867</a></p>\n<p dir=\"auto\">Also, if we want to go with a default wallet (in future and we already do this for Qt [Index 0]), we could reuse the <code class=\"notranslate\">-usewallet</code> argument for the daemon and/or-only Qt.</p>",
    "body_text": "Agree with @jnewbery that @ryanofsky ryanofsky/bitcoin@b701085 is preferable.\nI like the current -usewallet for the reasons that users can/will/must clearly distinct between running with multiple wallets (d/QT -wallet) and accessing a specific wallet (-usewallet).\nI'm aware of the different layers (d/Qt vs bitcoin-cli) but from the users perspective, differentiation of an argument between the daemon and the cli is difficult to understand (once its running multiple wallets, once its selecting a specific wallet). Having two identical arguments that have total different effects is not ideal (even cross binaries).\nI think for 0.15 we should merge the multiple -usewallet arguments blocker: #10867\nAlso, if we want to go with a default wallet (in future and we already do this for Qt [Index 0]), we could reuse the -usewallet argument for the daemon and/or-only Qt.",
    "body": "Agree with @jnewbery that @ryanofsky ryanofsky/bitcoin@b701085 is preferable.\r\n\r\nI like the current `-usewallet` for the reasons that users can/will/must clearly distinct between running with multiple wallets (d/QT `-wallet`) and accessing a specific wallet (`-usewallet`).\r\n\r\nI'm aware of the different layers (d/Qt vs `bitcoin-cli`) but from the users perspective, differentiation of an argument between the daemon and the cli is difficult to understand (once its running multiple wallets, once its selecting a specific wallet). Having two identical arguments that have total different effects is not ideal (even cross binaries).\r\n\r\nI think for 0.15 we should merge the multiple `-usewallet` arguments blocker: #10867 \r\n\r\nAlso, if we want to go with a default wallet (in future and we already do this for Qt [Index 0]), we could reuse the `-usewallet` argument for the daemon and/or-only Qt.",
    "reactions": {
      "url": "https://api.github.com/repos/bitcoin/bitcoin/issues/comments/316328310/reactions",
      "total_count": 0,
      "+1": 0,
      "-1": 0,
      "laugh": 0,
      "hooray": 0,
      "confused": 0,
      "heart": 0,
      "rocket": 0,
      "eyes": 0
    },
    "performed_via_github_app": null
  },
  {
    "url": "https://api.github.com/repos/bitcoin/bitcoin/issues/comments/316365906",
    "html_url": "https://github.com/bitcoin/bitcoin/pull/10868#issuecomment-316365906",
    "issue_url": "https://api.github.com/repos/bitcoin/bitcoin/issues/10868",
    "id": 316365906,
    "node_id": "MDEyOklzc3VlQ29tbWVudDMxNjM2NTkwNg==",
    "user": {
      "login": "ryanofsky",
      "id": 7133040,
      "node_id": "MDQ6VXNlcjcxMzMwNDA=",
      "avatar_url": "https://avatars.githubusercontent.com/u/7133040?v=4",
      "gravatar_id": "",
      "url": "https://api.github.com/users/ryanofsky",
      "html_url": "https://github.com/ryanofsky",
      "followers_url": "https://api.github.com/users/ryanofsky/followers",
      "following_url": "https://api.github.com/users/ryanofsky/following{/other_user}",
      "gists_url": "https://api.github.com/users/ryanofsky/gists{/gist_id}",
      "starred_url": "https://api.github.com/users/ryanofsky/starred{/owner}{/repo}",
      "subscriptions_url": "https://api.github.com/users/ryanofsky/subscriptions",
      "organizations_url": "https://api.github.com/users/ryanofsky/orgs",
      "repos_url": "https://api.github.com/users/ryanofsky/repos",
      "events_url": "https://api.github.com/users/ryanofsky/events{/privacy}",
      "received_events_url": "https://api.github.com/users/ryanofsky/received_events",
      "type": "User",
      "site_admin": false
    },
    "created_at": "2017-07-19T12:11:33Z",
    "updated_at": "2017-07-19T12:20:01Z",
    "author_association": "CONTRIBUTOR",
    "body_html": "<p dir=\"auto\"><a class=\"issue-link js-issue-link\" data-error-text=\"Failed to load title\" data-id=\"243767124\" data-permission-text=\"Title is private\" data-url=\"https://github.com/bitcoin/bitcoin/issues/10867\" data-hovercard-type=\"pull_request\" data-hovercard-url=\"/bitcoin/bitcoin/pull/10867/hovercard\" href=\"https://github.com/bitcoin/bitcoin/pull/10867\">#10867</a> doesn't address usability problem I referred to above where user forgets \"use\" prefix in a bitcoin-cli call, their <code class=\"notranslate\">-wallet=filename</code> is ignored by bitcoin-cli, resulting in server error or the RPC call ignoring specified filename and accessing wrong wallet if server configured with a different single wallet.</p>\n<p dir=\"auto\"><code class=\"notranslate\">-usewallet</code> option was ~~~briefly necessary~~~ <em>added in moment of confusion</em> while the wallet endpoint didn't allow node calls, but now having two differently spelled options is just adding a footgun and source of complexity.</p>\n<p dir=\"auto\">Anyway, I believe John is currently working on an improved version of <a class=\"commit-link\" data-hovercard-type=\"commit\" data-hovercard-url=\"https://github.com/ryanofsky/bitcoin/commit/b701085/hovercard\" href=\"https://github.com/ryanofsky/bitcoin/commit/b701085\">ryanofsky/bitcoin@<tt>b701085</tt></a> that actually shrinks it down further, removes global variable, and fixes bug where I forgot to remove \"use\" prefix (footgun!).</p>",
    "body_text": "#10867 doesn't address usability problem I referred to above where user forgets \"use\" prefix in a bitcoin-cli call, their -wallet=filename is ignored by bitcoin-cli, resulting in server error or the RPC call ignoring specified filename and accessing wrong wallet if server configured with a different single wallet.\n-usewallet option was ~~~briefly necessary~~~ added in moment of confusion while the wallet endpoint didn't allow node calls, but now having two differently spelled options is just adding a footgun and source of complexity.\nAnyway, I believe John is currently working on an improved version of ryanofsky/bitcoin@b701085 that actually shrinks it down further, removes global variable, and fixes bug where I forgot to remove \"use\" prefix (footgun!).",
    "body": "#10867 doesn't address usability problem I referred to above where user forgets \"use\" prefix in a bitcoin-cli call, their `-wallet=filename` is ignored by bitcoin-cli, resulting in server error or the RPC call ignoring specified filename and accessing wrong wallet if server configured with a different single wallet.\r\n\r\n`-usewallet` option was ~~~briefly necessary~~~ *added in moment of confusion* while the wallet endpoint didn't allow node calls, but now having two differently spelled options is just adding a footgun and source of complexity.\r\n\r\nAnyway, I believe John is currently working on an improved version of ryanofsky/bitcoin@b701085 that actually shrinks it down further, removes global variable, and fixes bug where I forgot to remove \"use\" prefix (footgun!).\r\n\r\n\r\n\r\n",
    "reactions": {
      "url": "https://api.github.com/repos/bitcoin/bitcoin/issues/comments/316365906/reactions",
      "total_count": 0,
      "+1": 0,
      "-1": 0,
      "laugh": 0,
      "hooray": 0,
      "confused": 0,
      "heart": 0,
      "rocket": 0,
      "eyes": 0
    },
    "performed_via_github_app": null
  }
]
