{
  "url": "https://api.github.com/repos/bitcoin/bitcoin/issues/16501",
  "repository_url": "https://api.github.com/repos/bitcoin/bitcoin",
  "labels_url": "https://api.github.com/repos/bitcoin/bitcoin/issues/16501/labels{/name}",
  "comments_url": "https://api.github.com/repos/bitcoin/bitcoin/issues/16501/comments",
  "events_url": "https://api.github.com/repos/bitcoin/bitcoin/issues/16501/events",
  "html_url": "https://github.com/bitcoin/bitcoin/pull/16501",
  "id": 474827566,
  "node_id": "MDExOlB1bGxSZXF1ZXN0MzAyNzAxMDU2",
  "number": 16501,
  "title": "Update configure.ac to remove extra no in $use_tests",
  "user": {
    "login": "ronaldstoner",
    "id": 6909088,
    "node_id": "MDQ6VXNlcjY5MDkwODg=",
    "avatar_url": "https://avatars.githubusercontent.com/u/6909088?v=4",
    "gravatar_id": "",
    "url": "https://api.github.com/users/ronaldstoner",
    "html_url": "https://github.com/ronaldstoner",
    "followers_url": "https://api.github.com/users/ronaldstoner/followers",
    "following_url": "https://api.github.com/users/ronaldstoner/following{/other_user}",
    "gists_url": "https://api.github.com/users/ronaldstoner/gists{/gist_id}",
    "starred_url": "https://api.github.com/users/ronaldstoner/starred{/owner}{/repo}",
    "subscriptions_url": "https://api.github.com/users/ronaldstoner/subscriptions",
    "organizations_url": "https://api.github.com/users/ronaldstoner/orgs",
    "repos_url": "https://api.github.com/users/ronaldstoner/repos",
    "events_url": "https://api.github.com/users/ronaldstoner/events{/privacy}",
    "received_events_url": "https://api.github.com/users/ronaldstoner/received_events",
    "type": "User",
    "site_admin": false
  },
  "labels": [
    {
      "id": 61889416,
      "node_id": "MDU6TGFiZWw2MTg4OTQxNg==",
      "url": "https://api.github.com/repos/bitcoin/bitcoin/labels/Build%20system",
      "name": "Build system",
      "color": "5319e7",
      "default": false,
      "description": null
    }
  ],
  "state": "closed",
  "locked": true,
  "assignee": null,
  "assignees": [

  ],
  "milestone": null,
  "comments": 2,
  "created_at": "2019-07-30T21:23:13Z",
  "updated_at": "2021-12-16T14:57:26Z",
  "closed_at": "2019-07-30T21:31:12Z",
  "author_association": "NONE",
  "active_lock_reason": "resolved",
  "draft": false,
  "pull_request": {
    "url": "https://api.github.com/repos/bitcoin/bitcoin/pulls/16501",
    "html_url": "https://github.com/bitcoin/bitcoin/pull/16501",
    "diff_url": "https://github.com/bitcoin/bitcoin/pull/16501.diff",
    "patch_url": "https://github.com/bitcoin/bitcoin/pull/16501.patch",
    "merged_at": null
  },
  "body_html": "<p dir=\"auto\">There was an additional 'no' included on line 1509 for the $use_tests variable. This has been removed to reflect 'xnonononononono' used in the rest of the code.</p>",
  "body_text": "There was an additional 'no' included on line 1509 for the $use_tests variable. This has been removed to reflect 'xnonononononono' used in the rest of the code.",
  "body": "There was an additional 'no' included on line 1509 for the $use_tests variable. This has been removed to reflect 'xnonononononono' used in the rest of the code.",
  "closed_by": {
    "login": "ronaldstoner",
    "id": 6909088,
    "node_id": "MDQ6VXNlcjY5MDkwODg=",
    "avatar_url": "https://avatars.githubusercontent.com/u/6909088?v=4",
    "gravatar_id": "",
    "url": "https://api.github.com/users/ronaldstoner",
    "html_url": "https://github.com/ronaldstoner",
    "followers_url": "https://api.github.com/users/ronaldstoner/followers",
    "following_url": "https://api.github.com/users/ronaldstoner/following{/other_user}",
    "gists_url": "https://api.github.com/users/ronaldstoner/gists{/gist_id}",
    "starred_url": "https://api.github.com/users/ronaldstoner/starred{/owner}{/repo}",
    "subscriptions_url": "https://api.github.com/users/ronaldstoner/subscriptions",
    "organizations_url": "https://api.github.com/users/ronaldstoner/orgs",
    "repos_url": "https://api.github.com/users/ronaldstoner/repos",
    "events_url": "https://api.github.com/users/ronaldstoner/events{/privacy}",
    "received_events_url": "https://api.github.com/users/ronaldstoner/received_events",
    "type": "User",
    "site_admin": false
  },
  "reactions": {
    "url": "https://api.github.com/repos/bitcoin/bitcoin/issues/16501/reactions",
    "total_count": 0,
    "+1": 0,
    "-1": 0,
    "laugh": 0,
    "hooray": 0,
    "confused": 0,
    "heart": 0,
    "rocket": 0,
    "eyes": 0
  },
  "timeline_url": "https://api.github.com/repos/bitcoin/bitcoin/issues/16501/timeline",
  "performed_via_github_app": null,
  "state_reason": null
}
