{
  "url": "https://api.github.com/repos/bitcoin/bitcoin/issues/5325",
  "repository_url": "https://api.github.com/repos/bitcoin/bitcoin",
  "labels_url": "https://api.github.com/repos/bitcoin/bitcoin/issues/5325/labels{/name}",
  "comments_url": "https://api.github.com/repos/bitcoin/bitcoin/issues/5325/comments",
  "events_url": "https://api.github.com/repos/bitcoin/bitcoin/issues/5325/events",
  "html_url": "https://github.com/bitcoin/bitcoin/pull/5325",
  "id": 49541420,
  "node_id": "MDExOlB1bGxSZXF1ZXN0MjQ3NjIwNTc=",
  "number": 5325,
  "title": "Convert remaining comments in /src to doxygen format",
  "user": {
    "login": "fanquake",
    "id": 863730,
    "node_id": "MDQ6VXNlcjg2MzczMA==",
    "avatar_url": "https://avatars.githubusercontent.com/u/863730?v=4",
    "gravatar_id": "",
    "url": "https://api.github.com/users/fanquake",
    "html_url": "https://github.com/fanquake",
    "followers_url": "https://api.github.com/users/fanquake/followers",
    "following_url": "https://api.github.com/users/fanquake/following{/other_user}",
    "gists_url": "https://api.github.com/users/fanquake/gists{/gist_id}",
    "starred_url": "https://api.github.com/users/fanquake/starred{/owner}{/repo}",
    "subscriptions_url": "https://api.github.com/users/fanquake/subscriptions",
    "organizations_url": "https://api.github.com/users/fanquake/orgs",
    "repos_url": "https://api.github.com/users/fanquake/repos",
    "events_url": "https://api.github.com/users/fanquake/events{/privacy}",
    "received_events_url": "https://api.github.com/users/fanquake/received_events",
    "type": "User",
    "site_admin": false
  },
  "labels": [

  ],
  "state": "closed",
  "locked": true,
  "assignee": null,
  "assignees": [

  ],
  "milestone": null,
  "comments": 2,
  "created_at": "2014-11-20T12:39:09Z",
  "updated_at": "2021-09-08T11:40:45Z",
  "closed_at": "2014-11-21T13:46:10Z",
  "author_association": "MEMBER",
  "active_lock_reason": "resolved",
  "draft": false,
  "pull_request": {
    "url": "https://api.github.com/repos/bitcoin/bitcoin/pulls/5325",
    "html_url": "https://github.com/bitcoin/bitcoin/pull/5325",
    "diff_url": "https://github.com/bitcoin/bitcoin/pull/5325.diff",
    "patch_url": "https://github.com/bitcoin/bitcoin/pull/5325.patch",
    "merged_at": null
  },
  "body_html": "<p dir=\"auto\">Fix comment typo in crypter.h<br>\nUpdate licenses/copyright dates</p>",
  "body_text": "Fix comment typo in crypter.h\nUpdate licenses/copyright dates",
  "body": "Fix comment typo in crypter.h\nUpdate licenses/copyright dates\n",
  "closed_by": {
    "login": "laanwj",
    "id": 126646,
    "node_id": "MDQ6VXNlcjEyNjY0Ng==",
    "avatar_url": "https://avatars.githubusercontent.com/u/126646?v=4",
    "gravatar_id": "",
    "url": "https://api.github.com/users/laanwj",
    "html_url": "https://github.com/laanwj",
    "followers_url": "https://api.github.com/users/laanwj/followers",
    "following_url": "https://api.github.com/users/laanwj/following{/other_user}",
    "gists_url": "https://api.github.com/users/laanwj/gists{/gist_id}",
    "starred_url": "https://api.github.com/users/laanwj/starred{/owner}{/repo}",
    "subscriptions_url": "https://api.github.com/users/laanwj/subscriptions",
    "organizations_url": "https://api.github.com/users/laanwj/orgs",
    "repos_url": "https://api.github.com/users/laanwj/repos",
    "events_url": "https://api.github.com/users/laanwj/events{/privacy}",
    "received_events_url": "https://api.github.com/users/laanwj/received_events",
    "type": "User",
    "site_admin": false
  },
  "reactions": {
    "url": "https://api.github.com/repos/bitcoin/bitcoin/issues/5325/reactions",
    "total_count": 0,
    "+1": 0,
    "-1": 0,
    "laugh": 0,
    "hooray": 0,
    "confused": 0,
    "heart": 0,
    "rocket": 0,
    "eyes": 0
  },
  "timeline_url": "https://api.github.com/repos/bitcoin/bitcoin/issues/5325/timeline",
  "performed_via_github_app": null,
  "state_reason": null
}
