[
  {
    "url": "https://api.github.com/repos/bitcoin/bitcoin/issues/comments/165456490",
    "html_url": "https://github.com/bitcoin/bitcoin/issues/7211#issuecomment-165456490",
    "issue_url": "https://api.github.com/repos/bitcoin/bitcoin/issues/7211",
    "id": 165456490,
    "node_id": "MDEyOklzc3VlQ29tbWVudDE2NTQ1NjQ5MA==",
    "user": {
      "login": "laanwj",
      "id": 126646,
      "node_id": "MDQ6VXNlcjEyNjY0Ng==",
      "avatar_url": "https://avatars.githubusercontent.com/u/126646?v=4",
      "gravatar_id": "",
      "url": "https://api.github.com/users/laanwj",
      "html_url": "https://github.com/laanwj",
      "followers_url": "https://api.github.com/users/laanwj/followers",
      "following_url": "https://api.github.com/users/laanwj/following{/other_user}",
      "gists_url": "https://api.github.com/users/laanwj/gists{/gist_id}",
      "starred_url": "https://api.github.com/users/laanwj/starred{/owner}{/repo}",
      "subscriptions_url": "https://api.github.com/users/laanwj/subscriptions",
      "organizations_url": "https://api.github.com/users/laanwj/orgs",
      "repos_url": "https://api.github.com/users/laanwj/repos",
      "events_url": "https://api.github.com/users/laanwj/events{/privacy}",
      "received_events_url": "https://api.github.com/users/laanwj/received_events",
      "type": "User",
      "site_admin": false
    },
    "created_at": "2015-12-17T13:44:57Z",
    "updated_at": "2015-12-17T13:44:57Z",
    "author_association": "MEMBER",
    "body_html": "<p dir=\"auto\">Where do you get \"alternately\" from?</p>\n<p dir=\"auto\">What would be expected when your network is able to download the blocks faster than your CPU can validate them (the usual case) is that the CPU is continuously loaded and the network usage goes on/off.</p>",
    "body_text": "Where do you get \"alternately\" from?\nWhat would be expected when your network is able to download the blocks faster than your CPU can validate them (the usual case) is that the CPU is continuously loaded and the network usage goes on/off.",
    "body": "Where do you get \"alternately\" from?\n\nWhat would be expected when your network is able to download the blocks faster than your CPU can validate them (the usual case) is that the CPU is continuously loaded and the network usage goes on/off.\n",
    "reactions": {
      "url": "https://api.github.com/repos/bitcoin/bitcoin/issues/comments/165456490/reactions",
      "total_count": 0,
      "+1": 0,
      "-1": 0,
      "laugh": 0,
      "hooray": 0,
      "confused": 0,
      "heart": 0,
      "rocket": 0,
      "eyes": 0
    },
    "performed_via_github_app": null
  },
  {
    "url": "https://api.github.com/repos/bitcoin/bitcoin/issues/comments/165543995",
    "html_url": "https://github.com/bitcoin/bitcoin/issues/7211#issuecomment-165543995",
    "issue_url": "https://api.github.com/repos/bitcoin/bitcoin/issues/7211",
    "id": 165543995,
    "node_id": "MDEyOklzc3VlQ29tbWVudDE2NTU0Mzk5NQ==",
    "user": {
      "login": "reverofevil",
      "id": 2983969,
      "node_id": "MDQ6VXNlcjI5ODM5Njk=",
      "avatar_url": "https://avatars.githubusercontent.com/u/2983969?v=4",
      "gravatar_id": "",
      "url": "https://api.github.com/users/reverofevil",
      "html_url": "https://github.com/reverofevil",
      "followers_url": "https://api.github.com/users/reverofevil/followers",
      "following_url": "https://api.github.com/users/reverofevil/following{/other_user}",
      "gists_url": "https://api.github.com/users/reverofevil/gists{/gist_id}",
      "starred_url": "https://api.github.com/users/reverofevil/starred{/owner}{/repo}",
      "subscriptions_url": "https://api.github.com/users/reverofevil/subscriptions",
      "organizations_url": "https://api.github.com/users/reverofevil/orgs",
      "repos_url": "https://api.github.com/users/reverofevil/repos",
      "events_url": "https://api.github.com/users/reverofevil/events{/privacy}",
      "received_events_url": "https://api.github.com/users/reverofevil/received_events",
      "type": "User",
      "site_admin": false
    },
    "created_at": "2015-12-17T18:42:39Z",
    "updated_at": "2015-12-17T18:49:31Z",
    "author_association": "NONE",
    "body_html": "<p dir=\"auto\"><a class=\"user-mention notranslate\" data-hovercard-type=\"user\" data-hovercard-url=\"/users/laanwj/hovercard\" data-octo-click=\"hovercard-link-click\" data-octo-dimensions=\"link_type:self\" href=\"https://github.com/laanwj\">@laanwj</a> As you can see from the graphs neither CPU nor network is continuously loaded. I would rather expect it to load data as fast as it can, and validate data as they get available.</p>\n<p dir=\"auto\">Also, when the new piece of data starts to load, there's a significant drop in CPU load. So it seems that the download starts only when there is no not validated data left, and computation starts only when some quite big piece of data got downloaded. This sounds like it's implemented as synchronous algorithm.</p>",
    "body_text": "@laanwj As you can see from the graphs neither CPU nor network is continuously loaded. I would rather expect it to load data as fast as it can, and validate data as they get available.\nAlso, when the new piece of data starts to load, there's a significant drop in CPU load. So it seems that the download starts only when there is no not validated data left, and computation starts only when some quite big piece of data got downloaded. This sounds like it's implemented as synchronous algorithm.",
    "body": "@laanwj As you can see from the graphs neither CPU nor network is continuously loaded. I would rather expect it to load data as fast as it can, and validate data as they get available.\n\nAlso, when the new piece of data starts to load, there's a significant drop in CPU load. So it seems that the download starts only when there is no not validated data left, and computation starts only when some quite big piece of data got downloaded. This sounds like it's implemented as synchronous algorithm.\n",
    "reactions": {
      "url": "https://api.github.com/repos/bitcoin/bitcoin/issues/comments/165543995/reactions",
      "total_count": 0,
      "+1": 0,
      "-1": 0,
      "laugh": 0,
      "hooray": 0,
      "confused": 0,
      "heart": 0,
      "rocket": 0,
      "eyes": 0
    },
    "performed_via_github_app": null
  },
  {
    "url": "https://api.github.com/repos/bitcoin/bitcoin/issues/comments/165944791",
    "html_url": "https://github.com/bitcoin/bitcoin/issues/7211#issuecomment-165944791",
    "issue_url": "https://api.github.com/repos/bitcoin/bitcoin/issues/7211",
    "id": 165944791,
    "node_id": "MDEyOklzc3VlQ29tbWVudDE2NTk0NDc5MQ==",
    "user": {
      "login": "Kimax89",
      "id": 2274258,
      "node_id": "MDQ6VXNlcjIyNzQyNTg=",
      "avatar_url": "https://avatars.githubusercontent.com/u/2274258?v=4",
      "gravatar_id": "",
      "url": "https://api.github.com/users/Kimax89",
      "html_url": "https://github.com/Kimax89",
      "followers_url": "https://api.github.com/users/Kimax89/followers",
      "following_url": "https://api.github.com/users/Kimax89/following{/other_user}",
      "gists_url": "https://api.github.com/users/Kimax89/gists{/gist_id}",
      "starred_url": "https://api.github.com/users/Kimax89/starred{/owner}{/repo}",
      "subscriptions_url": "https://api.github.com/users/Kimax89/subscriptions",
      "organizations_url": "https://api.github.com/users/Kimax89/orgs",
      "repos_url": "https://api.github.com/users/Kimax89/repos",
      "events_url": "https://api.github.com/users/Kimax89/events{/privacy}",
      "received_events_url": "https://api.github.com/users/Kimax89/received_events",
      "type": "User",
      "site_admin": false
    },
    "created_at": "2015-12-19T04:07:49Z",
    "updated_at": "2015-12-19T04:07:49Z",
    "author_association": "NONE",
    "body_html": "<p dir=\"auto\">would it be possible to queue the blocks. so when you need to download the blockchain it will download and queue the second block while the first block is being verified.</p>",
    "body_text": "would it be possible to queue the blocks. so when you need to download the blockchain it will download and queue the second block while the first block is being verified.",
    "body": "would it be possible to queue the blocks. so when you need to download the blockchain it will download and queue the second block while the first block is being verified.\n",
    "reactions": {
      "url": "https://api.github.com/repos/bitcoin/bitcoin/issues/comments/165944791/reactions",
      "total_count": 0,
      "+1": 0,
      "-1": 0,
      "laugh": 0,
      "hooray": 0,
      "confused": 0,
      "heart": 0,
      "rocket": 0,
      "eyes": 0
    },
    "performed_via_github_app": null
  },
  {
    "url": "https://api.github.com/repos/bitcoin/bitcoin/issues/comments/165945649",
    "html_url": "https://github.com/bitcoin/bitcoin/issues/7211#issuecomment-165945649",
    "issue_url": "https://api.github.com/repos/bitcoin/bitcoin/issues/7211",
    "id": 165945649,
    "node_id": "MDEyOklzc3VlQ29tbWVudDE2NTk0NTY0OQ==",
    "user": {
      "login": "sipa",
      "id": 548488,
      "node_id": "MDQ6VXNlcjU0ODQ4OA==",
      "avatar_url": "https://avatars.githubusercontent.com/u/548488?v=4",
      "gravatar_id": "",
      "url": "https://api.github.com/users/sipa",
      "html_url": "https://github.com/sipa",
      "followers_url": "https://api.github.com/users/sipa/followers",
      "following_url": "https://api.github.com/users/sipa/following{/other_user}",
      "gists_url": "https://api.github.com/users/sipa/gists{/gist_id}",
      "starred_url": "https://api.github.com/users/sipa/starred{/owner}{/repo}",
      "subscriptions_url": "https://api.github.com/users/sipa/subscriptions",
      "organizations_url": "https://api.github.com/users/sipa/orgs",
      "repos_url": "https://api.github.com/users/sipa/repos",
      "events_url": "https://api.github.com/users/sipa/events{/privacy}",
      "received_events_url": "https://api.github.com/users/sipa/received_events",
      "type": "User",
      "site_admin": false
    },
    "created_at": "2015-12-19T04:13:04Z",
    "updated_at": "2015-12-19T04:13:04Z",
    "author_association": "MEMBER",
    "body_html": "<div class=\"email-fragment\">We already do that.\n\nBut there is a limit to how far downloading is allowed to go further than\nsynchronization (it's a fixed number of blocks, but I forget the number).</div>",
    "body_text": "We already do that.\n\nBut there is a limit to how far downloading is allowed to go further than\nsynchronization (it's a fixed number of blocks, but I forget the number).",
    "body": "We already do that.\n\nBut there is a limit to how far downloading is allowed to go further than\nsynchronization (it's a fixed number of blocks, but I forget the number).\n",
    "reactions": {
      "url": "https://api.github.com/repos/bitcoin/bitcoin/issues/comments/165945649/reactions",
      "total_count": 0,
      "+1": 0,
      "-1": 0,
      "laugh": 0,
      "hooray": 0,
      "confused": 0,
      "heart": 0,
      "rocket": 0,
      "eyes": 0
    },
    "performed_via_github_app": null
  }
]
