[
  {
    "url": "https://api.github.com/repos/bitcoin/bitcoin/issues/comments/788791440",
    "html_url": "https://github.com/bitcoin/bitcoin/pull/21329#issuecomment-788791440",
    "issue_url": "https://api.github.com/repos/bitcoin/bitcoin/issues/21329",
    "id": 788791440,
    "node_id": "MDEyOklzc3VlQ29tbWVudDc4ODc5MTQ0MA==",
    "user": {
      "login": "DrahtBot",
      "id": 39886733,
      "node_id": "MDQ6VXNlcjM5ODg2NzMz",
      "avatar_url": "https://avatars.githubusercontent.com/u/39886733?v=4",
      "gravatar_id": "",
      "url": "https://api.github.com/users/DrahtBot",
      "html_url": "https://github.com/DrahtBot",
      "followers_url": "https://api.github.com/users/DrahtBot/followers",
      "following_url": "https://api.github.com/users/DrahtBot/following{/other_user}",
      "gists_url": "https://api.github.com/users/DrahtBot/gists{/gist_id}",
      "starred_url": "https://api.github.com/users/DrahtBot/starred{/owner}{/repo}",
      "subscriptions_url": "https://api.github.com/users/DrahtBot/subscriptions",
      "organizations_url": "https://api.github.com/users/DrahtBot/orgs",
      "repos_url": "https://api.github.com/users/DrahtBot/repos",
      "events_url": "https://api.github.com/users/DrahtBot/events{/privacy}",
      "received_events_url": "https://api.github.com/users/DrahtBot/received_events",
      "type": "User",
      "site_admin": false
    },
    "created_at": "2021-03-02T10:11:42Z",
    "updated_at": "2021-06-24T16:50:38Z",
    "author_association": "CONTRIBUTOR",
    "body_html": "\n<p dir=\"auto\">The following sections might be updated with supplementary metadata relevant to reviewers and maintainers.</p>\n\n<h3 dir=\"auto\">Conflicts</h3>\n<p dir=\"auto\">Reviewers, this pull request conflicts with the following ones:</p>\n<ul dir=\"auto\">\n<li><a class=\"issue-link js-issue-link\" data-error-text=\"Failed to load title\" data-id=\"837467204\" data-permission-text=\"Title is private\" data-url=\"https://github.com/bitcoin/bitcoin/issues/21500\" data-hovercard-type=\"pull_request\" data-hovercard-url=\"/bitcoin/bitcoin/pull/21500/hovercard\" href=\"https://github.com/bitcoin/bitcoin/pull/21500\">#21500</a> by S3RK</li>\n<li><a class=\"issue-link js-issue-link\" data-error-text=\"Failed to load title\" data-id=\"716064606\" data-permission-text=\"Title is private\" data-url=\"https://github.com/bitcoin/bitcoin/issues/20096\" data-hovercard-type=\"pull_request\" data-hovercard-url=\"/bitcoin/bitcoin/pull/20096/hovercard\" href=\"https://github.com/bitcoin/bitcoin/pull/20096\">#20096</a> by achow101</li>\n</ul>\n<p dir=\"auto\">If you consider this pull request important, please also help to review the conflicting pull requests. Ideally, start with the one that should be merged first.</p>",
    "body_text": "The following sections might be updated with supplementary metadata relevant to reviewers and maintainers.\n\nConflicts\nReviewers, this pull request conflicts with the following ones:\n\n#21500 by S3RK\n#20096 by achow101\n\nIf you consider this pull request important, please also help to review the conflicting pull requests. Ideally, start with the one that should be merged first.",
    "body": "<!--e57a25ab6845829454e8d69fc972939a-->\n\nThe following sections might be updated with supplementary metadata relevant to reviewers and maintainers.\n\n<!--174a7506f384e20aa4161008e828411d-->\n### Conflicts\nReviewers, this pull request conflicts with the following ones:\n\n* #21500 by S3RK\n* #20096 by achow101\n\nIf you consider this pull request important, please also help to review the conflicting pull requests. Ideally, start with the one that should be merged first.",
    "reactions": {
      "url": "https://api.github.com/repos/bitcoin/bitcoin/issues/comments/788791440/reactions",
      "total_count": 0,
      "+1": 0,
      "-1": 0,
      "laugh": 0,
      "hooray": 0,
      "confused": 0,
      "heart": 0,
      "rocket": 0,
      "eyes": 0
    },
    "performed_via_github_app": null
  },
  {
    "url": "https://api.github.com/repos/bitcoin/bitcoin/issues/comments/793505411",
    "html_url": "https://github.com/bitcoin/bitcoin/pull/21329#issuecomment-793505411",
    "issue_url": "https://api.github.com/repos/bitcoin/bitcoin/issues/21329",
    "id": 793505411,
    "node_id": "MDEyOklzc3VlQ29tbWVudDc5MzUwNTQxMQ==",
    "user": {
      "login": "S3RK",
      "id": 1466284,
      "node_id": "MDQ6VXNlcjE0NjYyODQ=",
      "avatar_url": "https://avatars.githubusercontent.com/u/1466284?v=4",
      "gravatar_id": "",
      "url": "https://api.github.com/users/S3RK",
      "html_url": "https://github.com/S3RK",
      "followers_url": "https://api.github.com/users/S3RK/followers",
      "following_url": "https://api.github.com/users/S3RK/following{/other_user}",
      "gists_url": "https://api.github.com/users/S3RK/gists{/gist_id}",
      "starred_url": "https://api.github.com/users/S3RK/starred{/owner}{/repo}",
      "subscriptions_url": "https://api.github.com/users/S3RK/subscriptions",
      "organizations_url": "https://api.github.com/users/S3RK/orgs",
      "repos_url": "https://api.github.com/users/S3RK/repos",
      "events_url": "https://api.github.com/users/S3RK/events{/privacy}",
      "received_events_url": "https://api.github.com/users/S3RK/received_events",
      "type": "User",
      "site_admin": false
    },
    "created_at": "2021-03-09T07:55:22Z",
    "updated_at": "2021-03-09T07:55:22Z",
    "author_association": "CONTRIBUTOR",
    "body_html": "<p dir=\"auto\">Started reviewing this</p>",
    "body_text": "Started reviewing this",
    "body": "Started reviewing this",
    "reactions": {
      "url": "https://api.github.com/repos/bitcoin/bitcoin/issues/comments/793505411/reactions",
      "total_count": 0,
      "+1": 0,
      "-1": 0,
      "laugh": 0,
      "hooray": 0,
      "confused": 0,
      "heart": 0,
      "rocket": 0,
      "eyes": 0
    },
    "performed_via_github_app": null
  },
  {
    "url": "https://api.github.com/repos/bitcoin/bitcoin/issues/comments/823829443",
    "html_url": "https://github.com/bitcoin/bitcoin/pull/21329#issuecomment-823829443",
    "issue_url": "https://api.github.com/repos/bitcoin/bitcoin/issues/21329",
    "id": 823829443,
    "node_id": "MDEyOklzc3VlQ29tbWVudDgyMzgyOTQ0Mw==",
    "user": {
      "login": "S3RK",
      "id": 1466284,
      "node_id": "MDQ6VXNlcjE0NjYyODQ=",
      "avatar_url": "https://avatars.githubusercontent.com/u/1466284?v=4",
      "gravatar_id": "",
      "url": "https://api.github.com/users/S3RK",
      "html_url": "https://github.com/S3RK",
      "followers_url": "https://api.github.com/users/S3RK/followers",
      "following_url": "https://api.github.com/users/S3RK/following{/other_user}",
      "gists_url": "https://api.github.com/users/S3RK/gists{/gist_id}",
      "starred_url": "https://api.github.com/users/S3RK/starred{/owner}{/repo}",
      "subscriptions_url": "https://api.github.com/users/S3RK/subscriptions",
      "organizations_url": "https://api.github.com/users/S3RK/orgs",
      "repos_url": "https://api.github.com/users/S3RK/repos",
      "events_url": "https://api.github.com/users/S3RK/events{/privacy}",
      "received_events_url": "https://api.github.com/users/S3RK/received_events",
      "type": "User",
      "site_admin": false
    },
    "created_at": "2021-04-21T07:04:42Z",
    "updated_at": "2021-04-21T07:04:42Z",
    "author_association": "CONTRIBUTOR",
    "body_html": "<p dir=\"auto\">reACK <a class=\"commit-link\" data-hovercard-type=\"commit\" data-hovercard-url=\"https://github.com/bitcoin/bitcoin/commit/ec220648e0ca9be0e32dbcd0520c6af7d73f1c4b/hovercard\" href=\"https://github.com/bitcoin/bitcoin/commit/ec220648e0ca9be0e32dbcd0520c6af7d73f1c4b\"><tt>ec22064</tt></a>. Just rebased on top of latest master</p>\n<p dir=\"auto\">My <a href=\"https://github.com/bitcoin/bitcoin/pull/21329#pullrequestreview-614021474\" data-hovercard-type=\"pull_request\" data-hovercard-url=\"/bitcoin/bitcoin/pull/21329/hovercard\">comment above</a> is still relevant though.</p>",
    "body_text": "reACK ec22064. Just rebased on top of latest master\nMy comment above is still relevant though.",
    "body": "reACK ec22064. Just rebased on top of latest master\r\n\r\nMy [comment above](https://github.com/bitcoin/bitcoin/pull/21329#pullrequestreview-614021474) is still relevant though.",
    "reactions": {
      "url": "https://api.github.com/repos/bitcoin/bitcoin/issues/comments/823829443/reactions",
      "total_count": 0,
      "+1": 0,
      "-1": 0,
      "laugh": 0,
      "hooray": 0,
      "confused": 0,
      "heart": 0,
      "rocket": 0,
      "eyes": 0
    },
    "performed_via_github_app": null
  },
  {
    "url": "https://api.github.com/repos/bitcoin/bitcoin/issues/comments/824197588",
    "html_url": "https://github.com/bitcoin/bitcoin/pull/21329#issuecomment-824197588",
    "issue_url": "https://api.github.com/repos/bitcoin/bitcoin/issues/21329",
    "id": 824197588,
    "node_id": "MDEyOklzc3VlQ29tbWVudDgyNDE5NzU4OA==",
    "user": {
      "login": "achow101",
      "id": 3782274,
      "node_id": "MDQ6VXNlcjM3ODIyNzQ=",
      "avatar_url": "https://avatars.githubusercontent.com/u/3782274?v=4",
      "gravatar_id": "",
      "url": "https://api.github.com/users/achow101",
      "html_url": "https://github.com/achow101",
      "followers_url": "https://api.github.com/users/achow101/followers",
      "following_url": "https://api.github.com/users/achow101/following{/other_user}",
      "gists_url": "https://api.github.com/users/achow101/gists{/gist_id}",
      "starred_url": "https://api.github.com/users/achow101/starred{/owner}{/repo}",
      "subscriptions_url": "https://api.github.com/users/achow101/subscriptions",
      "organizations_url": "https://api.github.com/users/achow101/orgs",
      "repos_url": "https://api.github.com/users/achow101/repos",
      "events_url": "https://api.github.com/users/achow101/events{/privacy}",
      "received_events_url": "https://api.github.com/users/achow101/received_events",
      "type": "User",
      "site_admin": false
    },
    "created_at": "2021-04-21T16:31:45Z",
    "updated_at": "2021-04-21T16:31:45Z",
    "author_association": "MEMBER",
    "body_html": "<blockquote>\n<p dir=\"auto\">With that said, I don't like the direction in which <code class=\"notranslate\">DescriptorImpl::ToStringHelper</code> and <code class=\"notranslate\">DescriptorScriptPubKeyMan::TopUp</code> is going. The code becomes more and more complicated and there are untapped opportunities for simplification.</p>\n</blockquote>\n<p dir=\"auto\">What direction do you think it should be going in?</p>",
    "body_text": "With that said, I don't like the direction in which DescriptorImpl::ToStringHelper and DescriptorScriptPubKeyMan::TopUp is going. The code becomes more and more complicated and there are untapped opportunities for simplification.\n\nWhat direction do you think it should be going in?",
    "body": "> With that said, I don't like the direction in which `DescriptorImpl::ToStringHelper` and `DescriptorScriptPubKeyMan::TopUp` is going. The code becomes more and more complicated and there are untapped opportunities for simplification.\r\n\r\nWhat direction do you think it should be going in?",
    "reactions": {
      "url": "https://api.github.com/repos/bitcoin/bitcoin/issues/comments/824197588/reactions",
      "total_count": 0,
      "+1": 0,
      "-1": 0,
      "laugh": 0,
      "hooray": 0,
      "confused": 0,
      "heart": 0,
      "rocket": 0,
      "eyes": 0
    },
    "performed_via_github_app": null
  },
  {
    "url": "https://api.github.com/repos/bitcoin/bitcoin/issues/comments/824610596",
    "html_url": "https://github.com/bitcoin/bitcoin/pull/21329#issuecomment-824610596",
    "issue_url": "https://api.github.com/repos/bitcoin/bitcoin/issues/21329",
    "id": 824610596,
    "node_id": "MDEyOklzc3VlQ29tbWVudDgyNDYxMDU5Ng==",
    "user": {
      "login": "S3RK",
      "id": 1466284,
      "node_id": "MDQ6VXNlcjE0NjYyODQ=",
      "avatar_url": "https://avatars.githubusercontent.com/u/1466284?v=4",
      "gravatar_id": "",
      "url": "https://api.github.com/users/S3RK",
      "html_url": "https://github.com/S3RK",
      "followers_url": "https://api.github.com/users/S3RK/followers",
      "following_url": "https://api.github.com/users/S3RK/following{/other_user}",
      "gists_url": "https://api.github.com/users/S3RK/gists{/gist_id}",
      "starred_url": "https://api.github.com/users/S3RK/starred{/owner}{/repo}",
      "subscriptions_url": "https://api.github.com/users/S3RK/subscriptions",
      "organizations_url": "https://api.github.com/users/S3RK/orgs",
      "repos_url": "https://api.github.com/users/S3RK/repos",
      "events_url": "https://api.github.com/users/S3RK/events{/privacy}",
      "received_events_url": "https://api.github.com/users/S3RK/received_events",
      "type": "User",
      "site_admin": false
    },
    "created_at": "2021-04-22T07:30:02Z",
    "updated_at": "2021-04-22T07:30:02Z",
    "author_association": "CONTRIBUTOR",
    "body_html": "<blockquote>\n<p dir=\"auto\">What direction do you think it should be going in?</p>\n</blockquote>\n<p dir=\"auto\">Thanks for asking. I think we need to try to simplify the code for readability and comprehension. Some rough ideas:</p>\n<ol dir=\"auto\">\n<li>for <code class=\"notranslate\">ToStringHelper</code> we can a) avoid multiple flags controlling the control flow b) shift non-general code to child classes (addr, raw, multisig).</li>\n</ol>\n<p dir=\"auto\">To be more specific for this PR: I think it's better to have <code class=\"notranslate\">ToNormalizedString</code> reimplement some logic and not call <code class=\"notranslate\">ToStringHelper</code> at all. Both functions would be easier to reason about. We also don't need to support normalized private descriptors case, no code actually uses this.</p>\n<ol start=\"2\" dir=\"auto\">\n<li>for <code class=\"notranslate\">DescriptorScriptPubKeyMan::TopUp</code> we can keep the code on the same/constant level of abstraction  by better encapsulating cache structure. One option is to introduce something like <code class=\"notranslate\">DescriptorCache::CopyFrom(DescriptorCache)</code> and <code class=\"notranslate\">WalletBatch::WriteCache(DescriptorCache)</code>.</li>\n</ol>",
    "body_text": "What direction do you think it should be going in?\n\nThanks for asking. I think we need to try to simplify the code for readability and comprehension. Some rough ideas:\n\nfor ToStringHelper we can a) avoid multiple flags controlling the control flow b) shift non-general code to child classes (addr, raw, multisig).\n\nTo be more specific for this PR: I think it's better to have ToNormalizedString reimplement some logic and not call ToStringHelper at all. Both functions would be easier to reason about. We also don't need to support normalized private descriptors case, no code actually uses this.\n\nfor DescriptorScriptPubKeyMan::TopUp we can keep the code on the same/constant level of abstraction  by better encapsulating cache structure. One option is to introduce something like DescriptorCache::CopyFrom(DescriptorCache) and WalletBatch::WriteCache(DescriptorCache).",
    "body": "> What direction do you think it should be going in?\r\n\r\nThanks for asking. I think we need to try to simplify the code for readability and comprehension. Some rough ideas:\r\n\r\n1) for `ToStringHelper` we can a) avoid multiple flags controlling the control flow b) shift non-general code to child classes (addr, raw, multisig). \r\n\r\nTo be more specific for this PR: I think it's better to have `ToNormalizedString` reimplement some logic and not call `ToStringHelper` at all. Both functions would be easier to reason about. We also don't need to support normalized private descriptors case, no code actually uses this.\r\n\r\n2) for `DescriptorScriptPubKeyMan::TopUp` we can keep the code on the same/constant level of abstraction  by better encapsulating cache structure. One option is to introduce something like `DescriptorCache::CopyFrom(DescriptorCache)` and `WalletBatch::WriteCache(DescriptorCache)`.",
    "reactions": {
      "url": "https://api.github.com/repos/bitcoin/bitcoin/issues/comments/824610596/reactions",
      "total_count": 0,
      "+1": 0,
      "-1": 0,
      "laugh": 0,
      "hooray": 0,
      "confused": 0,
      "heart": 0,
      "rocket": 0,
      "eyes": 0
    },
    "performed_via_github_app": null
  },
  {
    "url": "https://api.github.com/repos/bitcoin/bitcoin/issues/comments/825124865",
    "html_url": "https://github.com/bitcoin/bitcoin/pull/21329#issuecomment-825124865",
    "issue_url": "https://api.github.com/repos/bitcoin/bitcoin/issues/21329",
    "id": 825124865,
    "node_id": "MDEyOklzc3VlQ29tbWVudDgyNTEyNDg2NQ==",
    "user": {
      "login": "achow101",
      "id": 3782274,
      "node_id": "MDQ6VXNlcjM3ODIyNzQ=",
      "avatar_url": "https://avatars.githubusercontent.com/u/3782274?v=4",
      "gravatar_id": "",
      "url": "https://api.github.com/users/achow101",
      "html_url": "https://github.com/achow101",
      "followers_url": "https://api.github.com/users/achow101/followers",
      "following_url": "https://api.github.com/users/achow101/following{/other_user}",
      "gists_url": "https://api.github.com/users/achow101/gists{/gist_id}",
      "starred_url": "https://api.github.com/users/achow101/starred{/owner}{/repo}",
      "subscriptions_url": "https://api.github.com/users/achow101/subscriptions",
      "organizations_url": "https://api.github.com/users/achow101/orgs",
      "repos_url": "https://api.github.com/users/achow101/repos",
      "events_url": "https://api.github.com/users/achow101/events{/privacy}",
      "received_events_url": "https://api.github.com/users/achow101/received_events",
      "type": "User",
      "site_admin": false
    },
    "created_at": "2021-04-22T19:26:21Z",
    "updated_at": "2021-04-22T19:26:21Z",
    "author_association": "MEMBER",
    "body_html": "<blockquote>\n<p dir=\"auto\">To be more specific for this PR: I think it's better to have <code class=\"notranslate\">ToNormalizedString</code> reimplement some logic and not call <code class=\"notranslate\">ToStringHelper</code> at all. Both functions would be easier to reason about. We also don't need to support normalized private descriptors case, no code actually uses this.</p>\n</blockquote>\n<p dir=\"auto\">I kind of disagree. All of the <code class=\"notranslate\">To*String</code> functions do roughly the same thing. The construction of all of the non-key related parts are all the same and it doesn't make sense to me to be duplicating that. The only parts that are different are the key things, which is why <code class=\"notranslate\">ToStringHelper</code> has options in order to determine which key function to use. I think that instead of using bools, it would be better to use an enum, so I have implemented it that way.</p>\n<blockquote>\n<p dir=\"auto\">for <code class=\"notranslate\">DescriptorScriptPubKeyMan::TopUp</code> we can keep the code on the same/constant level of abstraction  by better encapsulating cache structure. One option is to introduce something like <code class=\"notranslate\">DescriptorCache::CopyFrom(DescriptorCache)</code> and <code class=\"notranslate\">WalletBatch::WriteCache(DescriptorCache)</code>.</p>\n</blockquote>\n<p dir=\"auto\">I've added <code class=\"notranslate\"> DescriptorCache::MergeAndDiff</code> which merges another <code class=\"notranslate\">DescriptorCache</code> with the current <code class=\"notranslate\">DescriptorCache</code> and returns another <code class=\"notranslate\">DescriptorCache</code> containing a copy of the new items. I've also added <code class=\"notranslate\">WalletBatch::WriteDescriptorCache</code> which takes a <code class=\"notranslate\">DescriptorCache</code> and writes all of the items. This cleans up <code class=\"notranslate\">TopUp</code> and deduplicates some code.</p>",
    "body_text": "To be more specific for this PR: I think it's better to have ToNormalizedString reimplement some logic and not call ToStringHelper at all. Both functions would be easier to reason about. We also don't need to support normalized private descriptors case, no code actually uses this.\n\nI kind of disagree. All of the To*String functions do roughly the same thing. The construction of all of the non-key related parts are all the same and it doesn't make sense to me to be duplicating that. The only parts that are different are the key things, which is why ToStringHelper has options in order to determine which key function to use. I think that instead of using bools, it would be better to use an enum, so I have implemented it that way.\n\nfor DescriptorScriptPubKeyMan::TopUp we can keep the code on the same/constant level of abstraction  by better encapsulating cache structure. One option is to introduce something like DescriptorCache::CopyFrom(DescriptorCache) and WalletBatch::WriteCache(DescriptorCache).\n\nI've added  DescriptorCache::MergeAndDiff which merges another DescriptorCache with the current DescriptorCache and returns another DescriptorCache containing a copy of the new items. I've also added WalletBatch::WriteDescriptorCache which takes a DescriptorCache and writes all of the items. This cleans up TopUp and deduplicates some code.",
    "body": "> To be more specific for this PR: I think it's better to have `ToNormalizedString` reimplement some logic and not call `ToStringHelper` at all. Both functions would be easier to reason about. We also don't need to support normalized private descriptors case, no code actually uses this.\r\n\r\nI kind of disagree. All of the `To*String` functions do roughly the same thing. The construction of all of the non-key related parts are all the same and it doesn't make sense to me to be duplicating that. The only parts that are different are the key things, which is why `ToStringHelper` has options in order to determine which key function to use. I think that instead of using bools, it would be better to use an enum, so I have implemented it that way.\r\n\r\n> for `DescriptorScriptPubKeyMan::TopUp` we can keep the code on the same/constant level of abstraction  by better encapsulating cache structure. One option is to introduce something like `DescriptorCache::CopyFrom(DescriptorCache)` and `WalletBatch::WriteCache(DescriptorCache)`.\r\n\r\nI've added ` DescriptorCache::MergeAndDiff` which merges another `DescriptorCache` with the current `DescriptorCache` and returns another `DescriptorCache` containing a copy of the new items. I've also added `WalletBatch::WriteDescriptorCache` which takes a `DescriptorCache` and writes all of the items. This cleans up `TopUp` and deduplicates some code.",
    "reactions": {
      "url": "https://api.github.com/repos/bitcoin/bitcoin/issues/comments/825124865/reactions",
      "total_count": 1,
      "+1": 1,
      "-1": 0,
      "laugh": 0,
      "hooray": 0,
      "confused": 0,
      "heart": 0,
      "rocket": 0,
      "eyes": 0
    },
    "performed_via_github_app": null
  },
  {
    "url": "https://api.github.com/repos/bitcoin/bitcoin/issues/comments/826562621",
    "html_url": "https://github.com/bitcoin/bitcoin/pull/21329#issuecomment-826562621",
    "issue_url": "https://api.github.com/repos/bitcoin/bitcoin/issues/21329",
    "id": 826562621,
    "node_id": "MDEyOklzc3VlQ29tbWVudDgyNjU2MjYyMQ==",
    "user": {
      "login": "S3RK",
      "id": 1466284,
      "node_id": "MDQ6VXNlcjE0NjYyODQ=",
      "avatar_url": "https://avatars.githubusercontent.com/u/1466284?v=4",
      "gravatar_id": "",
      "url": "https://api.github.com/users/S3RK",
      "html_url": "https://github.com/S3RK",
      "followers_url": "https://api.github.com/users/S3RK/followers",
      "following_url": "https://api.github.com/users/S3RK/following{/other_user}",
      "gists_url": "https://api.github.com/users/S3RK/gists{/gist_id}",
      "starred_url": "https://api.github.com/users/S3RK/starred{/owner}{/repo}",
      "subscriptions_url": "https://api.github.com/users/S3RK/subscriptions",
      "organizations_url": "https://api.github.com/users/S3RK/orgs",
      "repos_url": "https://api.github.com/users/S3RK/repos",
      "events_url": "https://api.github.com/users/S3RK/events{/privacy}",
      "received_events_url": "https://api.github.com/users/S3RK/received_events",
      "type": "User",
      "site_admin": false
    },
    "created_at": "2021-04-26T07:00:03Z",
    "updated_at": "2021-04-26T07:00:03Z",
    "author_association": "CONTRIBUTOR",
    "body_html": "<p dir=\"auto\">utACK <a class=\"commit-link\" data-hovercard-type=\"commit\" data-hovercard-url=\"https://github.com/bitcoin/bitcoin/commit/e668b9e2bb02217afe032fc344117a5761a83fba/hovercard\" href=\"https://github.com/bitcoin/bitcoin/commit/e668b9e2bb02217afe032fc344117a5761a83fba\"><tt>e668b9e</tt></a>. Thanks for incorporating my suggestions.</p>",
    "body_text": "utACK e668b9e. Thanks for incorporating my suggestions.",
    "body": "utACK e668b9e. Thanks for incorporating my suggestions. ",
    "reactions": {
      "url": "https://api.github.com/repos/bitcoin/bitcoin/issues/comments/826562621/reactions",
      "total_count": 0,
      "+1": 0,
      "-1": 0,
      "laugh": 0,
      "hooray": 0,
      "confused": 0,
      "heart": 0,
      "rocket": 0,
      "eyes": 0
    },
    "performed_via_github_app": null
  },
  {
    "url": "https://api.github.com/repos/bitcoin/bitcoin/issues/comments/869234463",
    "html_url": "https://github.com/bitcoin/bitcoin/pull/21329#issuecomment-869234463",
    "issue_url": "https://api.github.com/repos/bitcoin/bitcoin/issues/21329",
    "id": 869234463,
    "node_id": "MDEyOklzc3VlQ29tbWVudDg2OTIzNDQ2Mw==",
    "user": {
      "login": "fjahr",
      "id": 1322187,
      "node_id": "MDQ6VXNlcjEzMjIxODc=",
      "avatar_url": "https://avatars.githubusercontent.com/u/1322187?v=4",
      "gravatar_id": "",
      "url": "https://api.github.com/users/fjahr",
      "html_url": "https://github.com/fjahr",
      "followers_url": "https://api.github.com/users/fjahr/followers",
      "following_url": "https://api.github.com/users/fjahr/following{/other_user}",
      "gists_url": "https://api.github.com/users/fjahr/gists{/gist_id}",
      "starred_url": "https://api.github.com/users/fjahr/starred{/owner}{/repo}",
      "subscriptions_url": "https://api.github.com/users/fjahr/subscriptions",
      "organizations_url": "https://api.github.com/users/fjahr/orgs",
      "repos_url": "https://api.github.com/users/fjahr/repos",
      "events_url": "https://api.github.com/users/fjahr/events{/privacy}",
      "received_events_url": "https://api.github.com/users/fjahr/received_events",
      "type": "User",
      "site_admin": false
    },
    "created_at": "2021-06-27T22:48:22Z",
    "updated_at": "2021-06-27T22:48:22Z",
    "author_association": "CONTRIBUTOR",
    "body_html": "<p dir=\"auto\">tACK <a class=\"commit-link\" data-hovercard-type=\"commit\" data-hovercard-url=\"https://github.com/bitcoin/bitcoin/commit/e6cf0ed92de31a5ac35a271b0da8f0a8364d1175/hovercard\" href=\"https://github.com/bitcoin/bitcoin/commit/e6cf0ed92de31a5ac35a271b0da8f0a8364d1175\"><tt>e6cf0ed</tt></a></p>\n<p dir=\"auto\">Reviewed code, light manual testing with restarts to ensure persistence works (could have been covered by a test case as well).</p>\n<p dir=\"auto\">nit: in <a class=\"commit-link\" data-hovercard-type=\"commit\" data-hovercard-url=\"https://github.com/bitcoin/bitcoin/commit/d87b544b834077f102724415e0fada6ee8b2def2/hovercard\" href=\"https://github.com/bitcoin/bitcoin/commit/d87b544b834077f102724415e0fada6ee8b2def2\"><tt>d87b544</tt></a> there is a typo in commit description: \"hardenex\"</p>",
    "body_text": "tACK e6cf0ed\nReviewed code, light manual testing with restarts to ensure persistence works (could have been covered by a test case as well).\nnit: in d87b544 there is a typo in commit description: \"hardenex\"",
    "body": "tACK e6cf0ed92de31a5ac35a271b0da8f0a8364d1175\r\n\r\nReviewed code, light manual testing with restarts to ensure persistence works (could have been covered by a test case as well).\r\n\r\nnit: in d87b544b834077f102724415e0fada6ee8b2def2 there is a typo in commit description: \"hardenex\"",
    "reactions": {
      "url": "https://api.github.com/repos/bitcoin/bitcoin/issues/comments/869234463/reactions",
      "total_count": 0,
      "+1": 0,
      "-1": 0,
      "laugh": 0,
      "hooray": 0,
      "confused": 0,
      "heart": 0,
      "rocket": 0,
      "eyes": 0
    },
    "performed_via_github_app": null
  },
  {
    "url": "https://api.github.com/repos/bitcoin/bitcoin/issues/comments/870796836",
    "html_url": "https://github.com/bitcoin/bitcoin/pull/21329#issuecomment-870796836",
    "issue_url": "https://api.github.com/repos/bitcoin/bitcoin/issues/21329",
    "id": 870796836,
    "node_id": "MDEyOklzc3VlQ29tbWVudDg3MDc5NjgzNg==",
    "user": {
      "login": "achow101",
      "id": 3782274,
      "node_id": "MDQ6VXNlcjM3ODIyNzQ=",
      "avatar_url": "https://avatars.githubusercontent.com/u/3782274?v=4",
      "gravatar_id": "",
      "url": "https://api.github.com/users/achow101",
      "html_url": "https://github.com/achow101",
      "followers_url": "https://api.github.com/users/achow101/followers",
      "following_url": "https://api.github.com/users/achow101/following{/other_user}",
      "gists_url": "https://api.github.com/users/achow101/gists{/gist_id}",
      "starred_url": "https://api.github.com/users/achow101/starred{/owner}{/repo}",
      "subscriptions_url": "https://api.github.com/users/achow101/subscriptions",
      "organizations_url": "https://api.github.com/users/achow101/orgs",
      "repos_url": "https://api.github.com/users/achow101/repos",
      "events_url": "https://api.github.com/users/achow101/events{/privacy}",
      "received_events_url": "https://api.github.com/users/achow101/received_events",
      "type": "User",
      "site_admin": false
    },
    "created_at": "2021-06-29T17:51:58Z",
    "updated_at": "2021-06-29T17:51:58Z",
    "author_association": "MEMBER",
    "body_html": "<p dir=\"auto\">I will implement the suggestions if I have to retouch.</p>",
    "body_text": "I will implement the suggestions if I have to retouch.",
    "body": "I will implement the suggestions if I have to retouch.",
    "reactions": {
      "url": "https://api.github.com/repos/bitcoin/bitcoin/issues/comments/870796836/reactions",
      "total_count": 0,
      "+1": 0,
      "-1": 0,
      "laugh": 0,
      "hooray": 0,
      "confused": 0,
      "heart": 0,
      "rocket": 0,
      "eyes": 0
    },
    "performed_via_github_app": null
  },
  {
    "url": "https://api.github.com/repos/bitcoin/bitcoin/issues/comments/871161449",
    "html_url": "https://github.com/bitcoin/bitcoin/pull/21329#issuecomment-871161449",
    "issue_url": "https://api.github.com/repos/bitcoin/bitcoin/issues/21329",
    "id": 871161449,
    "node_id": "MDEyOklzc3VlQ29tbWVudDg3MTE2MTQ0OQ==",
    "user": {
      "login": "S3RK",
      "id": 1466284,
      "node_id": "MDQ6VXNlcjE0NjYyODQ=",
      "avatar_url": "https://avatars.githubusercontent.com/u/1466284?v=4",
      "gravatar_id": "",
      "url": "https://api.github.com/users/S3RK",
      "html_url": "https://github.com/S3RK",
      "followers_url": "https://api.github.com/users/S3RK/followers",
      "following_url": "https://api.github.com/users/S3RK/following{/other_user}",
      "gists_url": "https://api.github.com/users/S3RK/gists{/gist_id}",
      "starred_url": "https://api.github.com/users/S3RK/starred{/owner}{/repo}",
      "subscriptions_url": "https://api.github.com/users/S3RK/subscriptions",
      "organizations_url": "https://api.github.com/users/S3RK/orgs",
      "repos_url": "https://api.github.com/users/S3RK/repos",
      "events_url": "https://api.github.com/users/S3RK/events{/privacy}",
      "received_events_url": "https://api.github.com/users/S3RK/received_events",
      "type": "User",
      "site_admin": false
    },
    "created_at": "2021-06-30T07:23:54Z",
    "updated_at": "2021-06-30T07:23:54Z",
    "author_association": "CONTRIBUTOR",
    "body_html": "<p dir=\"auto\">reACK <a class=\"commit-link\" data-hovercard-type=\"commit\" data-hovercard-url=\"https://github.com/bitcoin/bitcoin/commit/e6cf0ed92de31a5ac35a271b0da8f0a8364d1175/hovercard\" href=\"https://github.com/bitcoin/bitcoin/commit/e6cf0ed92de31a5ac35a271b0da8f0a8364d1175\"><tt>e6cf0ed</tt></a></p>\n<p dir=\"auto\">Changes from last review: 1) <code class=\"notranslate\">PubkeyProvider::GetPubKey</code> became const 2) necessary changes for taproot descriptors</p>\n<p dir=\"auto\">Happy to reACK again if you want to incorporate jonatack's readability suggestions</p>",
    "body_text": "reACK e6cf0ed\nChanges from last review: 1) PubkeyProvider::GetPubKey became const 2) necessary changes for taproot descriptors\nHappy to reACK again if you want to incorporate jonatack's readability suggestions",
    "body": "reACK e6cf0ed\r\n\r\nChanges from last review: 1) `PubkeyProvider::GetPubKey` became const 2) necessary changes for taproot descriptors\r\n\r\nHappy to reACK again if you want to incorporate jonatack's readability suggestions",
    "reactions": {
      "url": "https://api.github.com/repos/bitcoin/bitcoin/issues/comments/871161449/reactions",
      "total_count": 0,
      "+1": 0,
      "-1": 0,
      "laugh": 0,
      "hooray": 0,
      "confused": 0,
      "heart": 0,
      "rocket": 0,
      "eyes": 0
    },
    "performed_via_github_app": null
  },
  {
    "url": "https://api.github.com/repos/bitcoin/bitcoin/issues/comments/871193416",
    "html_url": "https://github.com/bitcoin/bitcoin/pull/21329#issuecomment-871193416",
    "issue_url": "https://api.github.com/repos/bitcoin/bitcoin/issues/21329",
    "id": 871193416,
    "node_id": "MDEyOklzc3VlQ29tbWVudDg3MTE5MzQxNg==",
    "user": {
      "login": "fanquake",
      "id": 863730,
      "node_id": "MDQ6VXNlcjg2MzczMA==",
      "avatar_url": "https://avatars.githubusercontent.com/u/863730?v=4",
      "gravatar_id": "",
      "url": "https://api.github.com/users/fanquake",
      "html_url": "https://github.com/fanquake",
      "followers_url": "https://api.github.com/users/fanquake/followers",
      "following_url": "https://api.github.com/users/fanquake/following{/other_user}",
      "gists_url": "https://api.github.com/users/fanquake/gists{/gist_id}",
      "starred_url": "https://api.github.com/users/fanquake/starred{/owner}{/repo}",
      "subscriptions_url": "https://api.github.com/users/fanquake/subscriptions",
      "organizations_url": "https://api.github.com/users/fanquake/orgs",
      "repos_url": "https://api.github.com/users/fanquake/repos",
      "events_url": "https://api.github.com/users/fanquake/events{/privacy}",
      "received_events_url": "https://api.github.com/users/fanquake/received_events",
      "type": "User",
      "site_admin": false
    },
    "created_at": "2021-06-30T08:15:04Z",
    "updated_at": "2021-06-30T08:15:04Z",
    "author_association": "MEMBER",
    "body_html": "<p dir=\"auto\"><a class=\"user-mention notranslate\" data-hovercard-type=\"user\" data-hovercard-url=\"/users/meshcollider/hovercard\" data-octo-click=\"hovercard-link-click\" data-octo-dimensions=\"link_type:self\" href=\"https://github.com/meshcollider\">@meshcollider</a></p>",
    "body_text": "@meshcollider",
    "body": "@meshcollider ",
    "reactions": {
      "url": "https://api.github.com/repos/bitcoin/bitcoin/issues/comments/871193416/reactions",
      "total_count": 1,
      "+1": 1,
      "-1": 0,
      "laugh": 0,
      "hooray": 0,
      "confused": 0,
      "heart": 0,
      "rocket": 0,
      "eyes": 0
    },
    "performed_via_github_app": null
  },
  {
    "url": "https://api.github.com/repos/bitcoin/bitcoin/issues/comments/871754641",
    "html_url": "https://github.com/bitcoin/bitcoin/pull/21329#issuecomment-871754641",
    "issue_url": "https://api.github.com/repos/bitcoin/bitcoin/issues/21329",
    "id": 871754641,
    "node_id": "MDEyOklzc3VlQ29tbWVudDg3MTc1NDY0MQ==",
    "user": {
      "login": "meshcollider",
      "id": 3211283,
      "node_id": "MDQ6VXNlcjMyMTEyODM=",
      "avatar_url": "https://avatars.githubusercontent.com/u/3211283?v=4",
      "gravatar_id": "",
      "url": "https://api.github.com/users/meshcollider",
      "html_url": "https://github.com/meshcollider",
      "followers_url": "https://api.github.com/users/meshcollider/followers",
      "following_url": "https://api.github.com/users/meshcollider/following{/other_user}",
      "gists_url": "https://api.github.com/users/meshcollider/gists{/gist_id}",
      "starred_url": "https://api.github.com/users/meshcollider/starred{/owner}{/repo}",
      "subscriptions_url": "https://api.github.com/users/meshcollider/subscriptions",
      "organizations_url": "https://api.github.com/users/meshcollider/orgs",
      "repos_url": "https://api.github.com/users/meshcollider/repos",
      "events_url": "https://api.github.com/users/meshcollider/events{/privacy}",
      "received_events_url": "https://api.github.com/users/meshcollider/received_events",
      "type": "User",
      "site_admin": false
    },
    "created_at": "2021-06-30T21:59:45Z",
    "updated_at": "2021-06-30T21:59:45Z",
    "author_association": "CONTRIBUTOR",
    "body_html": "<p dir=\"auto\">Nits can be left for follow-up if needed, lets just get this in</p>",
    "body_text": "Nits can be left for follow-up if needed, lets just get this in",
    "body": "Nits can be left for follow-up if needed, lets just get this in",
    "reactions": {
      "url": "https://api.github.com/repos/bitcoin/bitcoin/issues/comments/871754641/reactions",
      "total_count": 0,
      "+1": 0,
      "-1": 0,
      "laugh": 0,
      "hooray": 0,
      "confused": 0,
      "heart": 0,
      "rocket": 0,
      "eyes": 0
    },
    "performed_via_github_app": null
  },
  {
    "url": "https://api.github.com/repos/bitcoin/bitcoin/issues/comments/871761012",
    "html_url": "https://github.com/bitcoin/bitcoin/pull/21329#issuecomment-871761012",
    "issue_url": "https://api.github.com/repos/bitcoin/bitcoin/issues/21329",
    "id": 871761012,
    "node_id": "MDEyOklzc3VlQ29tbWVudDg3MTc2MTAxMg==",
    "user": {
      "login": "DrahtBot",
      "id": 39886733,
      "node_id": "MDQ6VXNlcjM5ODg2NzMz",
      "avatar_url": "https://avatars.githubusercontent.com/u/39886733?v=4",
      "gravatar_id": "",
      "url": "https://api.github.com/users/DrahtBot",
      "html_url": "https://github.com/DrahtBot",
      "followers_url": "https://api.github.com/users/DrahtBot/followers",
      "following_url": "https://api.github.com/users/DrahtBot/following{/other_user}",
      "gists_url": "https://api.github.com/users/DrahtBot/gists{/gist_id}",
      "starred_url": "https://api.github.com/users/DrahtBot/starred{/owner}{/repo}",
      "subscriptions_url": "https://api.github.com/users/DrahtBot/subscriptions",
      "organizations_url": "https://api.github.com/users/DrahtBot/orgs",
      "repos_url": "https://api.github.com/users/DrahtBot/repos",
      "events_url": "https://api.github.com/users/DrahtBot/events{/privacy}",
      "received_events_url": "https://api.github.com/users/DrahtBot/received_events",
      "type": "User",
      "site_admin": false
    },
    "created_at": "2021-06-30T22:12:44Z",
    "updated_at": "2021-06-30T22:12:44Z",
    "author_association": "CONTRIBUTOR",
    "body_html": "\n<p dir=\"auto\">🐙 This pull request conflicts with the target branch and <a href=\"https://github.com/bitcoin/bitcoin/blob/master/CONTRIBUTING.md#rebasing-changes\">needs rebase</a>.</p>\n<p dir=\"auto\"><sub>Want to unsubscribe from rebase notifications on this pull request? Just convert this pull request to a \"draft\".</sub></p>",
    "body_text": "🐙 This pull request conflicts with the target branch and needs rebase.\nWant to unsubscribe from rebase notifications on this pull request? Just convert this pull request to a \"draft\".",
    "body": "<!--cf906140f33d8803c4a75a2196329ecb-->\n🐙 This pull request conflicts with the target branch and [needs rebase](https://github.com/bitcoin/bitcoin/blob/master/CONTRIBUTING.md#rebasing-changes).\n\n<sub>Want to unsubscribe from rebase notifications on this pull request? Just convert this pull request to a \"draft\".</sub>",
    "reactions": {
      "url": "https://api.github.com/repos/bitcoin/bitcoin/issues/comments/871761012/reactions",
      "total_count": 0,
      "+1": 0,
      "-1": 0,
      "laugh": 0,
      "hooray": 0,
      "confused": 0,
      "heart": 0,
      "rocket": 0,
      "eyes": 0
    },
    "performed_via_github_app": null
  },
  {
    "url": "https://api.github.com/repos/bitcoin/bitcoin/issues/comments/871769093",
    "html_url": "https://github.com/bitcoin/bitcoin/pull/21329#issuecomment-871769093",
    "issue_url": "https://api.github.com/repos/bitcoin/bitcoin/issues/21329",
    "id": 871769093,
    "node_id": "MDEyOklzc3VlQ29tbWVudDg3MTc2OTA5Mw==",
    "user": {
      "login": "achow101",
      "id": 3782274,
      "node_id": "MDQ6VXNlcjM3ODIyNzQ=",
      "avatar_url": "https://avatars.githubusercontent.com/u/3782274?v=4",
      "gravatar_id": "",
      "url": "https://api.github.com/users/achow101",
      "html_url": "https://github.com/achow101",
      "followers_url": "https://api.github.com/users/achow101/followers",
      "following_url": "https://api.github.com/users/achow101/following{/other_user}",
      "gists_url": "https://api.github.com/users/achow101/gists{/gist_id}",
      "starred_url": "https://api.github.com/users/achow101/starred{/owner}{/repo}",
      "subscriptions_url": "https://api.github.com/users/achow101/subscriptions",
      "organizations_url": "https://api.github.com/users/achow101/orgs",
      "repos_url": "https://api.github.com/users/achow101/repos",
      "events_url": "https://api.github.com/users/achow101/events{/privacy}",
      "received_events_url": "https://api.github.com/users/achow101/received_events",
      "type": "User",
      "site_admin": false
    },
    "created_at": "2021-06-30T22:31:22Z",
    "updated_at": "2021-06-30T22:31:22Z",
    "author_association": "MEMBER",
    "body_html": "<p dir=\"auto\">This was merged, but github isn't detecting it.</p>",
    "body_text": "This was merged, but github isn't detecting it.",
    "body": "This was merged, but github isn't detecting it.",
    "reactions": {
      "url": "https://api.github.com/repos/bitcoin/bitcoin/issues/comments/871769093/reactions",
      "total_count": 1,
      "+1": 0,
      "-1": 0,
      "laugh": 0,
      "hooray": 1,
      "confused": 0,
      "heart": 0,
      "rocket": 0,
      "eyes": 0
    },
    "performed_via_github_app": null
  },
  {
    "url": "https://api.github.com/repos/bitcoin/bitcoin/issues/comments/871770444",
    "html_url": "https://github.com/bitcoin/bitcoin/pull/21329#issuecomment-871770444",
    "issue_url": "https://api.github.com/repos/bitcoin/bitcoin/issues/21329",
    "id": 871770444,
    "node_id": "MDEyOklzc3VlQ29tbWVudDg3MTc3MDQ0NA==",
    "user": {
      "login": "jonatack",
      "id": 2415484,
      "node_id": "MDQ6VXNlcjI0MTU0ODQ=",
      "avatar_url": "https://avatars.githubusercontent.com/u/2415484?v=4",
      "gravatar_id": "",
      "url": "https://api.github.com/users/jonatack",
      "html_url": "https://github.com/jonatack",
      "followers_url": "https://api.github.com/users/jonatack/followers",
      "following_url": "https://api.github.com/users/jonatack/following{/other_user}",
      "gists_url": "https://api.github.com/users/jonatack/gists{/gist_id}",
      "starred_url": "https://api.github.com/users/jonatack/starred{/owner}{/repo}",
      "subscriptions_url": "https://api.github.com/users/jonatack/subscriptions",
      "organizations_url": "https://api.github.com/users/jonatack/orgs",
      "repos_url": "https://api.github.com/users/jonatack/repos",
      "events_url": "https://api.github.com/users/jonatack/events{/privacy}",
      "received_events_url": "https://api.github.com/users/jonatack/received_events",
      "type": "User",
      "site_admin": false
    },
    "created_at": "2021-06-30T22:34:40Z",
    "updated_at": "2021-06-30T22:34:40Z",
    "author_association": "CONTRIBUTOR",
    "body_html": "<p dir=\"auto\">There have been several of these, I think this is the third one in as many days.</p>",
    "body_text": "There have been several of these, I think this is the third one in as many days.",
    "body": "There have been several of these, I think this is the third one in as many days.",
    "reactions": {
      "url": "https://api.github.com/repos/bitcoin/bitcoin/issues/comments/871770444/reactions",
      "total_count": 0,
      "+1": 0,
      "-1": 0,
      "laugh": 0,
      "hooray": 0,
      "confused": 0,
      "heart": 0,
      "rocket": 0,
      "eyes": 0
    },
    "performed_via_github_app": null
  }
]
