[
  {
    "url": "https://api.github.com/repos/bitcoin/bitcoin/issues/comments/17421128",
    "html_url": "https://github.com/bitcoin/bitcoin/issues/2597#issuecomment-17421128",
    "issue_url": "https://api.github.com/repos/bitcoin/bitcoin/issues/2597",
    "id": 17421128,
    "node_id": "MDEyOklzc3VlQ29tbWVudDE3NDIxMTI4",
    "user": {
      "login": "sipa",
      "id": 548488,
      "node_id": "MDQ6VXNlcjU0ODQ4OA==",
      "avatar_url": "https://avatars.githubusercontent.com/u/548488?v=4",
      "gravatar_id": "",
      "url": "https://api.github.com/users/sipa",
      "html_url": "https://github.com/sipa",
      "followers_url": "https://api.github.com/users/sipa/followers",
      "following_url": "https://api.github.com/users/sipa/following{/other_user}",
      "gists_url": "https://api.github.com/users/sipa/gists{/gist_id}",
      "starred_url": "https://api.github.com/users/sipa/starred{/owner}{/repo}",
      "subscriptions_url": "https://api.github.com/users/sipa/subscriptions",
      "organizations_url": "https://api.github.com/users/sipa/orgs",
      "repos_url": "https://api.github.com/users/sipa/repos",
      "events_url": "https://api.github.com/users/sipa/events{/privacy}",
      "received_events_url": "https://api.github.com/users/sipa/received_events",
      "type": "User",
      "site_admin": false
    },
    "created_at": "2013-05-03T22:13:48Z",
    "updated_at": "2013-05-03T22:13:48Z",
    "author_association": "MEMBER",
    "body_html": "<p dir=\"auto\">Should be fixed by <a class=\"issue-link js-issue-link\" data-error-text=\"Failed to load title\" data-id=\"13815685\" data-permission-text=\"Title is private\" data-url=\"https://github.com/bitcoin/bitcoin/issues/2599\" data-hovercard-type=\"pull_request\" data-hovercard-url=\"/bitcoin/bitcoin/pull/2599/hovercard\" href=\"https://github.com/bitcoin/bitcoin/pull/2599\">#2599</a></p>",
    "body_text": "Should be fixed by #2599",
    "body": "Should be fixed by #2599 \n",
    "reactions": {
      "url": "https://api.github.com/repos/bitcoin/bitcoin/issues/comments/17421128/reactions",
      "total_count": 0,
      "+1": 0,
      "-1": 0,
      "laugh": 0,
      "hooray": 0,
      "confused": 0,
      "heart": 0,
      "rocket": 0,
      "eyes": 0
    },
    "performed_via_github_app": null
  }
]
