[
  {
    "url": "https://api.github.com/repos/bitcoin/bitcoin/issues/comments/72342858",
    "html_url": "https://github.com/bitcoin/bitcoin/pull/5731#issuecomment-72342858",
    "issue_url": "https://api.github.com/repos/bitcoin/bitcoin/issues/5731",
    "id": 72342858,
    "node_id": "MDEyOklzc3VlQ29tbWVudDcyMzQyODU4",
    "user": {
      "login": "jgarzik",
      "id": 494411,
      "node_id": "MDQ6VXNlcjQ5NDQxMQ==",
      "avatar_url": "https://avatars.githubusercontent.com/u/494411?v=4",
      "gravatar_id": "",
      "url": "https://api.github.com/users/jgarzik",
      "html_url": "https://github.com/jgarzik",
      "followers_url": "https://api.github.com/users/jgarzik/followers",
      "following_url": "https://api.github.com/users/jgarzik/following{/other_user}",
      "gists_url": "https://api.github.com/users/jgarzik/gists{/gist_id}",
      "starred_url": "https://api.github.com/users/jgarzik/starred{/owner}{/repo}",
      "subscriptions_url": "https://api.github.com/users/jgarzik/subscriptions",
      "organizations_url": "https://api.github.com/users/jgarzik/orgs",
      "repos_url": "https://api.github.com/users/jgarzik/repos",
      "events_url": "https://api.github.com/users/jgarzik/events{/privacy}",
      "received_events_url": "https://api.github.com/users/jgarzik/received_events",
      "type": "User",
      "site_admin": false
    },
    "created_at": "2015-01-31T23:39:17Z",
    "updated_at": "2015-01-31T23:39:17Z",
    "author_association": "CONTRIBUTOR",
    "body_html": "<p dir=\"auto\">One complaint -- \"remove sig_canonical.json and sig_noncanonical.json\" commit description does not say <em>why</em> it is being removed.  Needs more explanation.</p>\n<p dir=\"auto\">Everything else:  ut ACK</p>",
    "body_text": "One complaint -- \"remove sig_canonical.json and sig_noncanonical.json\" commit description does not say why it is being removed.  Needs more explanation.\nEverything else:  ut ACK",
    "body": "One complaint -- \"remove sig_canonical.json and sig_noncanonical.json\" commit description does not say _why_ it is being removed.  Needs more explanation.\n\nEverything else:  ut ACK\n",
    "reactions": {
      "url": "https://api.github.com/repos/bitcoin/bitcoin/issues/comments/72342858/reactions",
      "total_count": 0,
      "+1": 0,
      "-1": 0,
      "laugh": 0,
      "hooray": 0,
      "confused": 0,
      "heart": 0,
      "rocket": 0,
      "eyes": 0
    },
    "performed_via_github_app": null
  },
  {
    "url": "https://api.github.com/repos/bitcoin/bitcoin/issues/comments/72385337",
    "html_url": "https://github.com/bitcoin/bitcoin/pull/5731#issuecomment-72385337",
    "issue_url": "https://api.github.com/repos/bitcoin/bitcoin/issues/5731",
    "id": 72385337,
    "node_id": "MDEyOklzc3VlQ29tbWVudDcyMzg1MzM3",
    "user": {
      "login": "laanwj",
      "id": 126646,
      "node_id": "MDQ6VXNlcjEyNjY0Ng==",
      "avatar_url": "https://avatars.githubusercontent.com/u/126646?v=4",
      "gravatar_id": "",
      "url": "https://api.github.com/users/laanwj",
      "html_url": "https://github.com/laanwj",
      "followers_url": "https://api.github.com/users/laanwj/followers",
      "following_url": "https://api.github.com/users/laanwj/following{/other_user}",
      "gists_url": "https://api.github.com/users/laanwj/gists{/gist_id}",
      "starred_url": "https://api.github.com/users/laanwj/starred{/owner}{/repo}",
      "subscriptions_url": "https://api.github.com/users/laanwj/subscriptions",
      "organizations_url": "https://api.github.com/users/laanwj/orgs",
      "repos_url": "https://api.github.com/users/laanwj/repos",
      "events_url": "https://api.github.com/users/laanwj/events{/privacy}",
      "received_events_url": "https://api.github.com/users/laanwj/received_events",
      "type": "User",
      "site_admin": false
    },
    "created_at": "2015-02-01T21:32:07Z",
    "updated_at": "2015-02-01T21:32:07Z",
    "author_association": "MEMBER",
    "body_html": "<p dir=\"auto\"><a class=\"user-mention notranslate\" data-hovercard-type=\"user\" data-hovercard-url=\"/users/jgarzik/hovercard\" data-octo-click=\"hovercard-link-click\" data-octo-dimensions=\"link_type:self\" href=\"https://github.com/jgarzik\">@jgarzik</a> see <a class=\"issue-link js-issue-link\" data-error-text=\"Failed to load title\" data-id=\"52155908\" data-permission-text=\"Title is private\" data-url=\"https://github.com/bitcoin/bitcoin/issues/5491\" data-hovercard-type=\"pull_request\" data-hovercard-url=\"/bitcoin/bitcoin/pull/5491/hovercard\" href=\"https://github.com/bitcoin/bitcoin/pull/5491\">#5491</a> for the discussion/explanation about that</p>",
    "body_text": "@jgarzik see #5491 for the discussion/explanation about that",
    "body": "@jgarzik see #5491 for the discussion/explanation about that\n",
    "reactions": {
      "url": "https://api.github.com/repos/bitcoin/bitcoin/issues/comments/72385337/reactions",
      "total_count": 0,
      "+1": 0,
      "-1": 0,
      "laugh": 0,
      "hooray": 0,
      "confused": 0,
      "heart": 0,
      "rocket": 0,
      "eyes": 0
    },
    "performed_via_github_app": null
  },
  {
    "url": "https://api.github.com/repos/bitcoin/bitcoin/issues/comments/72437759",
    "html_url": "https://github.com/bitcoin/bitcoin/pull/5731#issuecomment-72437759",
    "issue_url": "https://api.github.com/repos/bitcoin/bitcoin/issues/5731",
    "id": 72437759,
    "node_id": "MDEyOklzc3VlQ29tbWVudDcyNDM3NzU5",
    "user": {
      "login": "laanwj",
      "id": 126646,
      "node_id": "MDQ6VXNlcjEyNjY0Ng==",
      "avatar_url": "https://avatars.githubusercontent.com/u/126646?v=4",
      "gravatar_id": "",
      "url": "https://api.github.com/users/laanwj",
      "html_url": "https://github.com/laanwj",
      "followers_url": "https://api.github.com/users/laanwj/followers",
      "following_url": "https://api.github.com/users/laanwj/following{/other_user}",
      "gists_url": "https://api.github.com/users/laanwj/gists{/gist_id}",
      "starred_url": "https://api.github.com/users/laanwj/starred{/owner}{/repo}",
      "subscriptions_url": "https://api.github.com/users/laanwj/subscriptions",
      "organizations_url": "https://api.github.com/users/laanwj/orgs",
      "repos_url": "https://api.github.com/users/laanwj/repos",
      "events_url": "https://api.github.com/users/laanwj/events{/privacy}",
      "received_events_url": "https://api.github.com/users/laanwj/received_events",
      "type": "User",
      "site_admin": false
    },
    "created_at": "2015-02-02T10:49:16Z",
    "updated_at": "2015-02-02T10:53:01Z",
    "author_association": "MEMBER",
    "body_html": "<p dir=\"auto\">Binary analysis:</p>\n<table role=\"table\">\n<thead>\n<tr>\n<th align=\"left\">Commit</th>\n<th align=\"left\">Description</th>\n<th align=\"left\">bitcoind hash</th>\n</tr>\n</thead>\n<tbody>\n<tr>\n<td align=\"left\"><a class=\"commit-link\" data-hovercard-type=\"commit\" data-hovercard-url=\"https://github.com/bitcoin/bitcoin/commit/6af674ecdc99db2eb741b8dc79e44bd0202e3855/hovercard\" href=\"https://github.com/bitcoin/bitcoin/commit/6af674ecdc99db2eb741b8dc79e44bd0202e3855\"><tt>6af674e</tt></a></td>\n<td align=\"left\">(parent)</td>\n<td align=\"left\">27eea9941bd3ebb9e8488331169f68e67008dbee95ea41f07fe6a45c305c5acf</td>\n</tr>\n<tr>\n<td align=\"left\"><a class=\"commit-link\" data-hovercard-type=\"commit\" data-hovercard-url=\"https://github.com/bitcoin/bitcoin/commit/86731603d48de65960a7f2cd4da60e7ae1760813/hovercard\" href=\"https://github.com/bitcoin/bitcoin/commit/86731603d48de65960a7f2cd4da60e7ae1760813\"><tt>8673160</tt></a></td>\n<td align=\"left\">Remove bootstrap.md</td>\n<td align=\"left\">27eea9941bd3ebb9e8488331169f68e67008dbee95ea41f07fe6a45c305c5acf</td>\n</tr>\n<tr>\n<td align=\"left\"><a class=\"commit-link\" data-hovercard-type=\"commit\" data-hovercard-url=\"https://github.com/bitcoin/bitcoin/commit/d6bed1514c2e72ea2006942c23c31e3f518d4a77/hovercard\" href=\"https://github.com/bitcoin/bitcoin/commit/d6bed1514c2e72ea2006942c23c31e3f518d4a77\"><tt>d6bed15</tt></a></td>\n<td align=\"left\">remove sig_canonical.json and sig_noncanonical.json</td>\n<td align=\"left\">...</td>\n</tr>\n<tr>\n<td align=\"left\"><a class=\"commit-link\" data-hovercard-type=\"commit\" data-hovercard-url=\"https://github.com/bitcoin/bitcoin/commit/bfc29dcdc5c2a75a82d6f5034c547a8f4ac94379/hovercard\" href=\"https://github.com/bitcoin/bitcoin/commit/bfc29dcdc5c2a75a82d6f5034c547a8f4ac94379\"><tt>bfc29dc</tt></a></td>\n<td align=\"left\">Improve gitian build guide</td>\n<td align=\"left\">27eea9941bd3ebb9e8488331169f68e67008dbee95ea41f07fe6a45c305c5acf</td>\n</tr>\n<tr>\n<td align=\"left\"><a class=\"commit-link\" data-hovercard-type=\"commit\" data-hovercard-url=\"https://github.com/bitcoin/bitcoin/commit/91a9fe094b3f0091f40ccdb19581b90e86888ff0/hovercard\" href=\"https://github.com/bitcoin/bitcoin/commit/91a9fe094b3f0091f40ccdb19581b90e86888ff0\"><tt>91a9fe0</tt></a></td>\n<td align=\"left\">Fix typo - sentence starts with capital letter</td>\n<td align=\"left\">0e1f1998034de1912e2256c0a945cd9e36a5bf5fbb4c887f15412b9af4a648d9</td>\n</tr>\n<tr>\n<td align=\"left\">3800135</td>\n<td align=\"left\">Fix typo</td>\n<td align=\"left\">0e1f1998034de1912e2256c0a945cd9e36a5bf5fbb4c887f15412b9af4a648d9</td>\n</tr>\n<tr>\n<td align=\"left\"><a class=\"commit-link\" data-hovercard-type=\"commit\" data-hovercard-url=\"https://github.com/bitcoin/bitcoin/commit/5262fde0ecd19f1febbfcd488f2be41c5dffd047/hovercard\" href=\"https://github.com/bitcoin/bitcoin/commit/5262fde0ecd19f1febbfcd488f2be41c5dffd047\"><tt>5262fde</tt></a></td>\n<td align=\"left\">Remove whitespaces before double colon in errors and logs</td>\n<td align=\"left\">e745d081926784c9a83ac2a60c3edeba675f8560bb028f0b16e1850d515f5f04</td>\n</tr>\n<tr>\n<td align=\"left\"><a class=\"commit-link\" data-hovercard-type=\"commit\" data-hovercard-url=\"https://github.com/bitcoin/bitcoin/commit/bd2b73bb9b416139a0fbaf6eb2131356a59184a6/hovercard\" href=\"https://github.com/bitcoin/bitcoin/commit/bd2b73bb9b416139a0fbaf6eb2131356a59184a6\"><tt>bd2b73b</tt></a></td>\n<td align=\"left\">TRIVIAL: fix misleading comment</td>\n<td align=\"left\">...</td>\n</tr>\n<tr>\n<td align=\"left\"><a class=\"commit-link\" data-hovercard-type=\"commit\" data-hovercard-url=\"https://github.com/bitcoin/bitcoin/commit/5a809ef0f009bb6c412b5bf5f846feecfb133d70/hovercard\" href=\"https://github.com/bitcoin/bitcoin/commit/5a809ef0f009bb6c412b5bf5f846feecfb133d70\"><tt>5a809ef</tt></a></td>\n<td align=\"left\">depends: fix typos</td>\n<td align=\"left\">...</td>\n</tr>\n<tr>\n<td align=\"left\"><a class=\"commit-link\" data-hovercard-type=\"commit\" data-hovercard-url=\"https://github.com/bitcoin/bitcoin/commit/faf0af49f57f3b6f7161ecd5ddc80f2a629efc68/hovercard\" href=\"https://github.com/bitcoin/bitcoin/commit/faf0af49f57f3b6f7161ecd5ddc80f2a629efc68\"><tt>faf0af4</tt></a></td>\n<td align=\"left\">Suggest --disable-wallet when libdb_cxx headers are missing</td>\n<td align=\"left\">...</td>\n</tr>\n<tr>\n<td align=\"left\"><a class=\"commit-link\" data-hovercard-type=\"commit\" data-hovercard-url=\"https://github.com/bitcoin/bitcoin/commit/34c61813a401be8f65ebadcc6fe2b82c1a83b28b/hovercard\" href=\"https://github.com/bitcoin/bitcoin/commit/34c61813a401be8f65ebadcc6fe2b82c1a83b28b\"><tt>34c6181</tt></a></td>\n<td align=\"left\">Fix README link from util.sh -&gt; util.py</td>\n<td align=\"left\">...</td>\n</tr>\n<tr>\n<td align=\"left\"><a class=\"commit-link\" data-hovercard-type=\"commit\" data-hovercard-url=\"https://github.com/bitcoin/bitcoin/commit/1fa89a54e8c207564ea7acd262e6389174feaed9/hovercard\" href=\"https://github.com/bitcoin/bitcoin/commit/1fa89a54e8c207564ea7acd262e6389174feaed9\"><tt>1fa89a5</tt></a></td>\n<td align=\"left\">fix <em>code</em> snippet in gitian-building.md</td>\n<td align=\"left\">...</td>\n</tr>\n<tr>\n<td align=\"left\"><a class=\"commit-link\" data-hovercard-type=\"commit\" data-hovercard-url=\"https://github.com/bitcoin/bitcoin/commit/ee932025c1a318943a6b101be9fe7a4a2e10648c/hovercard\" href=\"https://github.com/bitcoin/bitcoin/commit/ee932025c1a318943a6b101be9fe7a4a2e10648c\"><tt>ee93202</tt></a></td>\n<td align=\"left\">Changed pronouns for correctness and inclusivity</td>\n<td align=\"left\">e745d081926784c9a83ac2a60c3edeba675f8560bb028f0b16e1850d515f5f04</td>\n</tr>\n</tbody>\n</table>\n<p dir=\"auto\">Concluding from this, binary changes happened in</p>\n<ul dir=\"auto\">\n<li><a class=\"commit-link\" data-hovercard-type=\"commit\" data-hovercard-url=\"https://github.com/bitcoin/bitcoin/commit/91a9fe094b3f0091f40ccdb19581b90e86888ff0/hovercard\" href=\"https://github.com/bitcoin/bitcoin/commit/91a9fe094b3f0091f40ccdb19581b90e86888ff0\"><tt>91a9fe0</tt></a>: One-byte change in string table in rpcwallet.o <code class=\"notranslate\">2e204966 206e6f74 2070726f 76696465  . If not provide</code> to <code class=\"notranslate\">2e206966 206e6f74 2070726f 76696465  . if not provide</code> (ACK)</li>\n<li><a class=\"commit-link\" data-hovercard-type=\"commit\" data-hovercard-url=\"https://github.com/bitcoin/bitcoin/commit/5262fde0ecd19f1febbfcd488f2be41c5dffd047/hovercard\" href=\"https://github.com/bitcoin/bitcoin/commit/5262fde0ecd19f1febbfcd488f2be41c5dffd047\"><tt>5262fde</tt></a>:</li>\n</ul>\n<div class=\"snippet-clipboard-content notranslate position-relative overflow-auto\" data-snippet-clipboard-copy-content=\" .../src/libbitcoin_common_a-chainparams.o          | Bin 546336 -&gt; 546336 bytes\n .../src/libbitcoin_common_a-core_read.o            | Bin 662552 -&gt; 662552 bytes\n .../src/libbitcoin_common_a-keystore.o             | Bin 400744 -&gt; 400744 bytes\n .../src/libbitcoin_common_a-protocol.o             | Bin 83600 -&gt; 83600 bytes\n .../src/libbitcoin_server_a-alert.o                | Bin 1439800 -&gt; 1439800 bytes\n .../src/libbitcoin_server_a-init.o                 | Bin 5660920 -&gt; 5660920 bytes\n .../src/libbitcoin_server_a-main.o                 | Bin 9025208 -&gt; 9025048 bytes\n .../src/libbitcoin_server_a-miner.o                | Bin 1262288 -&gt; 1262288 bytes\n .../src/libbitcoin_server_a-net.o                  | Bin 5019160 -&gt; 5019128 bytes\n .../src/libbitcoin_server_a-pow.o                  | Bin 77768 -&gt; 77768 bytes\n .../src/libbitcoin_server_a-rpcmining.o            | Bin 1753176 -&gt; 1753176 bytes\n .../src/libbitcoin_server_a-rpcrawtransaction.o    | Bin 2656296 -&gt; 2656296 bytes\n .../src/libbitcoin_server_a-txdb.o                 | Bin 762384 -&gt; 762384 bytes\n .../src/libbitcoin_server_a-txmempool.o            | Bin 1517992 -&gt; 1517992 bytes\n .../src/libbitcoin_wallet_a-db.o                   | Bin 531440 -&gt; 531440 bytes\n .../src/libbitcoin_wallet_a-rpcwallet.o            | Bin 3074120 -&gt; 3074120 bytes\n .../src/libbitcoin_wallet_a-wallet.o               | Bin 5892408 -&gt; 5892408 bytes\n .../src/libbitcoin_wallet_a-walletdb.o             | Bin 3362264 -&gt; 3362264 bytes\n .../primitives/libbitcoin_common_a-transaction.o   | Bin 293376 -&gt; 293376 bytes\n .../src/script/libbitcoin_common_a-interpreter.o   | Bin 336824 -&gt; 336824 bytes\n .../src/script/libbitcoin_common_a-sign.o          | Bin 419264 -&gt; 419264 bytes\n .../src/script/libbitcoin_common_a-standard.o      | Bin 482480 -&gt; 482480 bytes\"><pre class=\"notranslate\"><code class=\"notranslate\"> .../src/libbitcoin_common_a-chainparams.o          | Bin 546336 -&gt; 546336 bytes\n .../src/libbitcoin_common_a-core_read.o            | Bin 662552 -&gt; 662552 bytes\n .../src/libbitcoin_common_a-keystore.o             | Bin 400744 -&gt; 400744 bytes\n .../src/libbitcoin_common_a-protocol.o             | Bin 83600 -&gt; 83600 bytes\n .../src/libbitcoin_server_a-alert.o                | Bin 1439800 -&gt; 1439800 bytes\n .../src/libbitcoin_server_a-init.o                 | Bin 5660920 -&gt; 5660920 bytes\n .../src/libbitcoin_server_a-main.o                 | Bin 9025208 -&gt; 9025048 bytes\n .../src/libbitcoin_server_a-miner.o                | Bin 1262288 -&gt; 1262288 bytes\n .../src/libbitcoin_server_a-net.o                  | Bin 5019160 -&gt; 5019128 bytes\n .../src/libbitcoin_server_a-pow.o                  | Bin 77768 -&gt; 77768 bytes\n .../src/libbitcoin_server_a-rpcmining.o            | Bin 1753176 -&gt; 1753176 bytes\n .../src/libbitcoin_server_a-rpcrawtransaction.o    | Bin 2656296 -&gt; 2656296 bytes\n .../src/libbitcoin_server_a-txdb.o                 | Bin 762384 -&gt; 762384 bytes\n .../src/libbitcoin_server_a-txmempool.o            | Bin 1517992 -&gt; 1517992 bytes\n .../src/libbitcoin_wallet_a-db.o                   | Bin 531440 -&gt; 531440 bytes\n .../src/libbitcoin_wallet_a-rpcwallet.o            | Bin 3074120 -&gt; 3074120 bytes\n .../src/libbitcoin_wallet_a-wallet.o               | Bin 5892408 -&gt; 5892408 bytes\n .../src/libbitcoin_wallet_a-walletdb.o             | Bin 3362264 -&gt; 3362264 bytes\n .../primitives/libbitcoin_common_a-transaction.o   | Bin 293376 -&gt; 293376 bytes\n .../src/script/libbitcoin_common_a-interpreter.o   | Bin 336824 -&gt; 336824 bytes\n .../src/script/libbitcoin_common_a-sign.o          | Bin 419264 -&gt; 419264 bytes\n .../src/script/libbitcoin_common_a-standard.o      | Bin 482480 -&gt; 482480 bytes\n</code></pre></div>\n<p dir=\"auto\">I verified all these changes are in .data sections, no code changes, but had no time to investigate deeper exactly what data is affected.<br>\nCoupled with review of the source code diff to confirm these are just message changes -&gt; ACK.</p>",
    "body_text": "Binary analysis:\n\n\n\nCommit\nDescription\nbitcoind hash\n\n\n\n\n6af674e\n(parent)\n27eea9941bd3ebb9e8488331169f68e67008dbee95ea41f07fe6a45c305c5acf\n\n\n8673160\nRemove bootstrap.md\n27eea9941bd3ebb9e8488331169f68e67008dbee95ea41f07fe6a45c305c5acf\n\n\nd6bed15\nremove sig_canonical.json and sig_noncanonical.json\n...\n\n\nbfc29dc\nImprove gitian build guide\n27eea9941bd3ebb9e8488331169f68e67008dbee95ea41f07fe6a45c305c5acf\n\n\n91a9fe0\nFix typo - sentence starts with capital letter\n0e1f1998034de1912e2256c0a945cd9e36a5bf5fbb4c887f15412b9af4a648d9\n\n\n3800135\nFix typo\n0e1f1998034de1912e2256c0a945cd9e36a5bf5fbb4c887f15412b9af4a648d9\n\n\n5262fde\nRemove whitespaces before double colon in errors and logs\ne745d081926784c9a83ac2a60c3edeba675f8560bb028f0b16e1850d515f5f04\n\n\nbd2b73b\nTRIVIAL: fix misleading comment\n...\n\n\n5a809ef\ndepends: fix typos\n...\n\n\nfaf0af4\nSuggest --disable-wallet when libdb_cxx headers are missing\n...\n\n\n34c6181\nFix README link from util.sh -> util.py\n...\n\n\n1fa89a5\nfix code snippet in gitian-building.md\n...\n\n\nee93202\nChanged pronouns for correctness and inclusivity\ne745d081926784c9a83ac2a60c3edeba675f8560bb028f0b16e1850d515f5f04\n\n\n\nConcluding from this, binary changes happened in\n\n91a9fe0: One-byte change in string table in rpcwallet.o 2e204966 206e6f74 2070726f 76696465  . If not provide to 2e206966 206e6f74 2070726f 76696465  . if not provide (ACK)\n5262fde:\n\n .../src/libbitcoin_common_a-chainparams.o          | Bin 546336 -> 546336 bytes\n .../src/libbitcoin_common_a-core_read.o            | Bin 662552 -> 662552 bytes\n .../src/libbitcoin_common_a-keystore.o             | Bin 400744 -> 400744 bytes\n .../src/libbitcoin_common_a-protocol.o             | Bin 83600 -> 83600 bytes\n .../src/libbitcoin_server_a-alert.o                | Bin 1439800 -> 1439800 bytes\n .../src/libbitcoin_server_a-init.o                 | Bin 5660920 -> 5660920 bytes\n .../src/libbitcoin_server_a-main.o                 | Bin 9025208 -> 9025048 bytes\n .../src/libbitcoin_server_a-miner.o                | Bin 1262288 -> 1262288 bytes\n .../src/libbitcoin_server_a-net.o                  | Bin 5019160 -> 5019128 bytes\n .../src/libbitcoin_server_a-pow.o                  | Bin 77768 -> 77768 bytes\n .../src/libbitcoin_server_a-rpcmining.o            | Bin 1753176 -> 1753176 bytes\n .../src/libbitcoin_server_a-rpcrawtransaction.o    | Bin 2656296 -> 2656296 bytes\n .../src/libbitcoin_server_a-txdb.o                 | Bin 762384 -> 762384 bytes\n .../src/libbitcoin_server_a-txmempool.o            | Bin 1517992 -> 1517992 bytes\n .../src/libbitcoin_wallet_a-db.o                   | Bin 531440 -> 531440 bytes\n .../src/libbitcoin_wallet_a-rpcwallet.o            | Bin 3074120 -> 3074120 bytes\n .../src/libbitcoin_wallet_a-wallet.o               | Bin 5892408 -> 5892408 bytes\n .../src/libbitcoin_wallet_a-walletdb.o             | Bin 3362264 -> 3362264 bytes\n .../primitives/libbitcoin_common_a-transaction.o   | Bin 293376 -> 293376 bytes\n .../src/script/libbitcoin_common_a-interpreter.o   | Bin 336824 -> 336824 bytes\n .../src/script/libbitcoin_common_a-sign.o          | Bin 419264 -> 419264 bytes\n .../src/script/libbitcoin_common_a-standard.o      | Bin 482480 -> 482480 bytes\n\nI verified all these changes are in .data sections, no code changes, but had no time to investigate deeper exactly what data is affected.\nCoupled with review of the source code diff to confirm these are just message changes -> ACK.",
    "body": "Binary analysis:\n\n| Commit | Description | bitcoind hash |\n| :-- | :-- | :-- |\n| 6af674e | (parent) | 27eea9941bd3ebb9e8488331169f68e67008dbee95ea41f07fe6a45c305c5acf |\n| 8673160 | Remove bootstrap.md | 27eea9941bd3ebb9e8488331169f68e67008dbee95ea41f07fe6a45c305c5acf |\n| d6bed15 | remove sig_canonical.json and sig_noncanonical.json | ... |\n| bfc29dc | Improve gitian build guide | 27eea9941bd3ebb9e8488331169f68e67008dbee95ea41f07fe6a45c305c5acf |\n| 91a9fe0 | Fix typo - sentence starts with capital letter | 0e1f1998034de1912e2256c0a945cd9e36a5bf5fbb4c887f15412b9af4a648d9 |\n| 3800135 | Fix typo | 0e1f1998034de1912e2256c0a945cd9e36a5bf5fbb4c887f15412b9af4a648d9 |\n| 5262fde | Remove whitespaces before double colon in errors and logs | e745d081926784c9a83ac2a60c3edeba675f8560bb028f0b16e1850d515f5f04 |\n| bd2b73b | TRIVIAL: fix misleading comment | ... |\n| 5a809ef | depends: fix typos | ... |\n| faf0af4 | Suggest --disable-wallet when libdb_cxx headers are missing | ... |\n| 34c6181 | Fix README link from util.sh -> util.py | ... |\n| 1fa89a5 | fix _code_ snippet in gitian-building.md | ... |\n| ee93202 | Changed pronouns for correctness and inclusivity | e745d081926784c9a83ac2a60c3edeba675f8560bb028f0b16e1850d515f5f04 |\n\nConcluding from this, binary changes happened in \n- 91a9fe0: One-byte change in string table in rpcwallet.o `2e204966 206e6f74 2070726f 76696465  . If not provide` to `2e206966 206e6f74 2070726f 76696465  . if not provide` (ACK)\n- 5262fde: \n\n```\n .../src/libbitcoin_common_a-chainparams.o          | Bin 546336 -> 546336 bytes\n .../src/libbitcoin_common_a-core_read.o            | Bin 662552 -> 662552 bytes\n .../src/libbitcoin_common_a-keystore.o             | Bin 400744 -> 400744 bytes\n .../src/libbitcoin_common_a-protocol.o             | Bin 83600 -> 83600 bytes\n .../src/libbitcoin_server_a-alert.o                | Bin 1439800 -> 1439800 bytes\n .../src/libbitcoin_server_a-init.o                 | Bin 5660920 -> 5660920 bytes\n .../src/libbitcoin_server_a-main.o                 | Bin 9025208 -> 9025048 bytes\n .../src/libbitcoin_server_a-miner.o                | Bin 1262288 -> 1262288 bytes\n .../src/libbitcoin_server_a-net.o                  | Bin 5019160 -> 5019128 bytes\n .../src/libbitcoin_server_a-pow.o                  | Bin 77768 -> 77768 bytes\n .../src/libbitcoin_server_a-rpcmining.o            | Bin 1753176 -> 1753176 bytes\n .../src/libbitcoin_server_a-rpcrawtransaction.o    | Bin 2656296 -> 2656296 bytes\n .../src/libbitcoin_server_a-txdb.o                 | Bin 762384 -> 762384 bytes\n .../src/libbitcoin_server_a-txmempool.o            | Bin 1517992 -> 1517992 bytes\n .../src/libbitcoin_wallet_a-db.o                   | Bin 531440 -> 531440 bytes\n .../src/libbitcoin_wallet_a-rpcwallet.o            | Bin 3074120 -> 3074120 bytes\n .../src/libbitcoin_wallet_a-wallet.o               | Bin 5892408 -> 5892408 bytes\n .../src/libbitcoin_wallet_a-walletdb.o             | Bin 3362264 -> 3362264 bytes\n .../primitives/libbitcoin_common_a-transaction.o   | Bin 293376 -> 293376 bytes\n .../src/script/libbitcoin_common_a-interpreter.o   | Bin 336824 -> 336824 bytes\n .../src/script/libbitcoin_common_a-sign.o          | Bin 419264 -> 419264 bytes\n .../src/script/libbitcoin_common_a-standard.o      | Bin 482480 -> 482480 bytes\n```\n\nI verified all these changes are in .data sections, no code changes, but had no time to investigate deeper exactly what data is affected.\nCoupled with review of the source code diff to confirm these are just message changes -> ACK.\n",
    "reactions": {
      "url": "https://api.github.com/repos/bitcoin/bitcoin/issues/comments/72437759/reactions",
      "total_count": 0,
      "+1": 0,
      "-1": 0,
      "laugh": 0,
      "hooray": 0,
      "confused": 0,
      "heart": 0,
      "rocket": 0,
      "eyes": 0
    },
    "performed_via_github_app": null
  },
  {
    "url": "https://api.github.com/repos/bitcoin/bitcoin/issues/comments/72441531",
    "html_url": "https://github.com/bitcoin/bitcoin/pull/5731#issuecomment-72441531",
    "issue_url": "https://api.github.com/repos/bitcoin/bitcoin/issues/5731",
    "id": 72441531,
    "node_id": "MDEyOklzc3VlQ29tbWVudDcyNDQxNTMx",
    "user": {
      "login": "luke-jr",
      "id": 1095675,
      "node_id": "MDQ6VXNlcjEwOTU2NzU=",
      "avatar_url": "https://avatars.githubusercontent.com/u/1095675?v=4",
      "gravatar_id": "",
      "url": "https://api.github.com/users/luke-jr",
      "html_url": "https://github.com/luke-jr",
      "followers_url": "https://api.github.com/users/luke-jr/followers",
      "following_url": "https://api.github.com/users/luke-jr/following{/other_user}",
      "gists_url": "https://api.github.com/users/luke-jr/gists{/gist_id}",
      "starred_url": "https://api.github.com/users/luke-jr/starred{/owner}{/repo}",
      "subscriptions_url": "https://api.github.com/users/luke-jr/subscriptions",
      "organizations_url": "https://api.github.com/users/luke-jr/orgs",
      "repos_url": "https://api.github.com/users/luke-jr/repos",
      "events_url": "https://api.github.com/users/luke-jr/events{/privacy}",
      "received_events_url": "https://api.github.com/users/luke-jr/received_events",
      "type": "User",
      "site_admin": false
    },
    "created_at": "2015-02-02T11:21:35Z",
    "updated_at": "2015-02-02T11:21:35Z",
    "author_association": "MEMBER",
    "body_html": "<p dir=\"auto\">This was missing the final resolution of <a class=\"issue-link js-issue-link\" data-error-text=\"Failed to load title\" data-id=\"56138513\" data-permission-text=\"Title is private\" data-url=\"https://github.com/bitcoin/bitcoin/issues/5730\" data-hovercard-type=\"pull_request\" data-hovercard-url=\"/bitcoin/bitcoin/pull/5730/hovercard\" href=\"https://github.com/bitcoin/bitcoin/pull/5730\">#5730</a></p>",
    "body_text": "This was missing the final resolution of #5730",
    "body": "This was missing the final resolution of #5730\n",
    "reactions": {
      "url": "https://api.github.com/repos/bitcoin/bitcoin/issues/comments/72441531/reactions",
      "total_count": 0,
      "+1": 0,
      "-1": 0,
      "laugh": 0,
      "hooray": 0,
      "confused": 0,
      "heart": 0,
      "rocket": 0,
      "eyes": 0
    },
    "performed_via_github_app": null
  },
  {
    "url": "https://api.github.com/repos/bitcoin/bitcoin/issues/comments/72442791",
    "html_url": "https://github.com/bitcoin/bitcoin/pull/5731#issuecomment-72442791",
    "issue_url": "https://api.github.com/repos/bitcoin/bitcoin/issues/5731",
    "id": 72442791,
    "node_id": "MDEyOklzc3VlQ29tbWVudDcyNDQyNzkx",
    "user": {
      "login": "laanwj",
      "id": 126646,
      "node_id": "MDQ6VXNlcjEyNjY0Ng==",
      "avatar_url": "https://avatars.githubusercontent.com/u/126646?v=4",
      "gravatar_id": "",
      "url": "https://api.github.com/users/laanwj",
      "html_url": "https://github.com/laanwj",
      "followers_url": "https://api.github.com/users/laanwj/followers",
      "following_url": "https://api.github.com/users/laanwj/following{/other_user}",
      "gists_url": "https://api.github.com/users/laanwj/gists{/gist_id}",
      "starred_url": "https://api.github.com/users/laanwj/starred{/owner}{/repo}",
      "subscriptions_url": "https://api.github.com/users/laanwj/subscriptions",
      "organizations_url": "https://api.github.com/users/laanwj/orgs",
      "repos_url": "https://api.github.com/users/laanwj/repos",
      "events_url": "https://api.github.com/users/laanwj/events{/privacy}",
      "received_events_url": "https://api.github.com/users/laanwj/received_events",
      "type": "User",
      "site_admin": false
    },
    "created_at": "2015-02-02T11:34:16Z",
    "updated_at": "2015-02-02T11:34:16Z",
    "author_association": "MEMBER",
    "body_html": "<p dir=\"auto\">Let's leave that for next trivial merge.</p>",
    "body_text": "Let's leave that for next trivial merge.",
    "body": "Let's leave that for next trivial merge.\n",
    "reactions": {
      "url": "https://api.github.com/repos/bitcoin/bitcoin/issues/comments/72442791/reactions",
      "total_count": 0,
      "+1": 0,
      "-1": 0,
      "laugh": 0,
      "hooray": 0,
      "confused": 0,
      "heart": 0,
      "rocket": 0,
      "eyes": 0
    },
    "performed_via_github_app": null
  },
  {
    "url": "https://api.github.com/repos/bitcoin/bitcoin/issues/comments/72468940",
    "html_url": "https://github.com/bitcoin/bitcoin/pull/5731#issuecomment-72468940",
    "issue_url": "https://api.github.com/repos/bitcoin/bitcoin/issues/5731",
    "id": 72468940,
    "node_id": "MDEyOklzc3VlQ29tbWVudDcyNDY4OTQw",
    "user": {
      "login": "theuni",
      "id": 417043,
      "node_id": "MDQ6VXNlcjQxNzA0Mw==",
      "avatar_url": "https://avatars.githubusercontent.com/u/417043?v=4",
      "gravatar_id": "",
      "url": "https://api.github.com/users/theuni",
      "html_url": "https://github.com/theuni",
      "followers_url": "https://api.github.com/users/theuni/followers",
      "following_url": "https://api.github.com/users/theuni/following{/other_user}",
      "gists_url": "https://api.github.com/users/theuni/gists{/gist_id}",
      "starred_url": "https://api.github.com/users/theuni/starred{/owner}{/repo}",
      "subscriptions_url": "https://api.github.com/users/theuni/subscriptions",
      "organizations_url": "https://api.github.com/users/theuni/orgs",
      "repos_url": "https://api.github.com/users/theuni/repos",
      "events_url": "https://api.github.com/users/theuni/events{/privacy}",
      "received_events_url": "https://api.github.com/users/theuni/received_events",
      "type": "User",
      "site_admin": false
    },
    "created_at": "2015-02-02T14:49:24Z",
    "updated_at": "2015-02-02T14:49:24Z",
    "author_association": "MEMBER",
    "body_html": "<p dir=\"auto\"><a class=\"user-mention notranslate\" data-hovercard-type=\"user\" data-hovercard-url=\"/users/jgarzik/hovercard\" data-octo-click=\"hovercard-link-click\" data-octo-dimensions=\"link_type:self\" href=\"https://github.com/jgarzik\">@jgarzik</a>: I think that's actually a point worth addressing in the workflow. Ideally all changes would be explained, but often they depend on the original PR. For the next merge, I'll look into grabbing the PR description, since it won't necessarily be coming from the bitcoin repo.</p>\n<p dir=\"auto\"><a class=\"user-mention notranslate\" data-hovercard-type=\"user\" data-hovercard-url=\"/users/laanwj/hovercard\" data-octo-click=\"hovercard-link-click\" data-octo-dimensions=\"link_type:self\" href=\"https://github.com/laanwj\">@laanwj</a> Thanks for the thorough review.</p>",
    "body_text": "@jgarzik: I think that's actually a point worth addressing in the workflow. Ideally all changes would be explained, but often they depend on the original PR. For the next merge, I'll look into grabbing the PR description, since it won't necessarily be coming from the bitcoin repo.\n@laanwj Thanks for the thorough review.",
    "body": "@jgarzik: I think that's actually a point worth addressing in the workflow. Ideally all changes would be explained, but often they depend on the original PR. For the next merge, I'll look into grabbing the PR description, since it won't necessarily be coming from the bitcoin repo.\n\n@laanwj Thanks for the thorough review.\n",
    "reactions": {
      "url": "https://api.github.com/repos/bitcoin/bitcoin/issues/comments/72468940/reactions",
      "total_count": 0,
      "+1": 0,
      "-1": 0,
      "laugh": 0,
      "hooray": 0,
      "confused": 0,
      "heart": 0,
      "rocket": 0,
      "eyes": 0
    },
    "performed_via_github_app": null
  },
  {
    "url": "https://api.github.com/repos/bitcoin/bitcoin/issues/comments/72469620",
    "html_url": "https://github.com/bitcoin/bitcoin/pull/5731#issuecomment-72469620",
    "issue_url": "https://api.github.com/repos/bitcoin/bitcoin/issues/5731",
    "id": 72469620,
    "node_id": "MDEyOklzc3VlQ29tbWVudDcyNDY5NjIw",
    "user": {
      "login": "jgarzik",
      "id": 494411,
      "node_id": "MDQ6VXNlcjQ5NDQxMQ==",
      "avatar_url": "https://avatars.githubusercontent.com/u/494411?v=4",
      "gravatar_id": "",
      "url": "https://api.github.com/users/jgarzik",
      "html_url": "https://github.com/jgarzik",
      "followers_url": "https://api.github.com/users/jgarzik/followers",
      "following_url": "https://api.github.com/users/jgarzik/following{/other_user}",
      "gists_url": "https://api.github.com/users/jgarzik/gists{/gist_id}",
      "starred_url": "https://api.github.com/users/jgarzik/starred{/owner}{/repo}",
      "subscriptions_url": "https://api.github.com/users/jgarzik/subscriptions",
      "organizations_url": "https://api.github.com/users/jgarzik/orgs",
      "repos_url": "https://api.github.com/users/jgarzik/repos",
      "events_url": "https://api.github.com/users/jgarzik/events{/privacy}",
      "received_events_url": "https://api.github.com/users/jgarzik/received_events",
      "type": "User",
      "site_admin": false
    },
    "created_at": "2015-02-02T14:53:36Z",
    "updated_at": "2015-02-02T14:53:36Z",
    "author_association": "CONTRIBUTOR",
    "body_html": "<p dir=\"auto\"><a class=\"user-mention notranslate\" data-hovercard-type=\"user\" data-hovercard-url=\"/users/theuni/hovercard\" data-octo-click=\"hovercard-link-click\" data-octo-dimensions=\"link_type:self\" href=\"https://github.com/theuni\">@theuni</a> As <a class=\"user-mention notranslate\" data-hovercard-type=\"user\" data-hovercard-url=\"/users/gmaxwell/hovercard\" data-octo-click=\"hovercard-link-click\" data-octo-dimensions=\"link_type:self\" href=\"https://github.com/gmaxwell\">@gmaxwell</a> and I have pointed out in the past, what matters is what <em>goes into the git repo</em> and appears in the git history.</p>\n<p dir=\"auto\">Forcing people to perform research just to figure the \"why\" of a commit is a sign of a broken commit description (and broken process).</p>\n<p dir=\"auto\">The trivial tree should not be dropping crucial information.</p>",
    "body_text": "@theuni As @gmaxwell and I have pointed out in the past, what matters is what goes into the git repo and appears in the git history.\nForcing people to perform research just to figure the \"why\" of a commit is a sign of a broken commit description (and broken process).\nThe trivial tree should not be dropping crucial information.",
    "body": "@theuni As @gmaxwell and I have pointed out in the past, what matters is what _goes into the git repo_ and appears in the git history.\n\nForcing people to perform research just to figure the \"why\" of a commit is a sign of a broken commit description (and broken process).\n\nThe trivial tree should not be dropping crucial information.\n",
    "reactions": {
      "url": "https://api.github.com/repos/bitcoin/bitcoin/issues/comments/72469620/reactions",
      "total_count": 0,
      "+1": 0,
      "-1": 0,
      "laugh": 0,
      "hooray": 0,
      "confused": 0,
      "heart": 0,
      "rocket": 0,
      "eyes": 0
    },
    "performed_via_github_app": null
  },
  {
    "url": "https://api.github.com/repos/bitcoin/bitcoin/issues/comments/72470277",
    "html_url": "https://github.com/bitcoin/bitcoin/pull/5731#issuecomment-72470277",
    "issue_url": "https://api.github.com/repos/bitcoin/bitcoin/issues/5731",
    "id": 72470277,
    "node_id": "MDEyOklzc3VlQ29tbWVudDcyNDcwMjc3",
    "user": {
      "login": "theuni",
      "id": 417043,
      "node_id": "MDQ6VXNlcjQxNzA0Mw==",
      "avatar_url": "https://avatars.githubusercontent.com/u/417043?v=4",
      "gravatar_id": "",
      "url": "https://api.github.com/users/theuni",
      "html_url": "https://github.com/theuni",
      "followers_url": "https://api.github.com/users/theuni/followers",
      "following_url": "https://api.github.com/users/theuni/following{/other_user}",
      "gists_url": "https://api.github.com/users/theuni/gists{/gist_id}",
      "starred_url": "https://api.github.com/users/theuni/starred{/owner}{/repo}",
      "subscriptions_url": "https://api.github.com/users/theuni/subscriptions",
      "organizations_url": "https://api.github.com/users/theuni/orgs",
      "repos_url": "https://api.github.com/users/theuni/repos",
      "events_url": "https://api.github.com/users/theuni/events{/privacy}",
      "received_events_url": "https://api.github.com/users/theuni/received_events",
      "type": "User",
      "site_admin": false
    },
    "created_at": "2015-02-02T14:57:20Z",
    "updated_at": "2015-02-02T14:57:20Z",
    "author_association": "MEMBER",
    "body_html": "<p dir=\"auto\"><a class=\"user-mention notranslate\" data-hovercard-type=\"user\" data-hovercard-url=\"/users/jgarzik/hovercard\" data-octo-click=\"hovercard-link-click\" data-octo-dimensions=\"link_type:self\" href=\"https://github.com/jgarzik\">@jgarzik</a> Sorry if I wasn't clear. By \"grabbing the PR description\", i meant adding it to the commit message so that nothing is lost when going upstream. I agree with you entirely.</p>",
    "body_text": "@jgarzik Sorry if I wasn't clear. By \"grabbing the PR description\", i meant adding it to the commit message so that nothing is lost when going upstream. I agree with you entirely.",
    "body": "@jgarzik Sorry if I wasn't clear. By \"grabbing the PR description\", i meant adding it to the commit message so that nothing is lost when going upstream. I agree with you entirely.\n",
    "reactions": {
      "url": "https://api.github.com/repos/bitcoin/bitcoin/issues/comments/72470277/reactions",
      "total_count": 0,
      "+1": 0,
      "-1": 0,
      "laugh": 0,
      "hooray": 0,
      "confused": 0,
      "heart": 0,
      "rocket": 0,
      "eyes": 0
    },
    "performed_via_github_app": null
  },
  {
    "url": "https://api.github.com/repos/bitcoin/bitcoin/issues/comments/72491944",
    "html_url": "https://github.com/bitcoin/bitcoin/pull/5731#issuecomment-72491944",
    "issue_url": "https://api.github.com/repos/bitcoin/bitcoin/issues/5731",
    "id": 72491944,
    "node_id": "MDEyOklzc3VlQ29tbWVudDcyNDkxOTQ0",
    "user": {
      "login": "laanwj",
      "id": 126646,
      "node_id": "MDQ6VXNlcjEyNjY0Ng==",
      "avatar_url": "https://avatars.githubusercontent.com/u/126646?v=4",
      "gravatar_id": "",
      "url": "https://api.github.com/users/laanwj",
      "html_url": "https://github.com/laanwj",
      "followers_url": "https://api.github.com/users/laanwj/followers",
      "following_url": "https://api.github.com/users/laanwj/following{/other_user}",
      "gists_url": "https://api.github.com/users/laanwj/gists{/gist_id}",
      "starred_url": "https://api.github.com/users/laanwj/starred{/owner}{/repo}",
      "subscriptions_url": "https://api.github.com/users/laanwj/subscriptions",
      "organizations_url": "https://api.github.com/users/laanwj/orgs",
      "repos_url": "https://api.github.com/users/laanwj/repos",
      "events_url": "https://api.github.com/users/laanwj/events{/privacy}",
      "received_events_url": "https://api.github.com/users/laanwj/received_events",
      "type": "User",
      "site_admin": false
    },
    "created_at": "2015-02-02T16:53:12Z",
    "updated_at": "2015-02-02T16:53:12Z",
    "author_association": "MEMBER",
    "body_html": "<p dir=\"auto\">Indeed, adding a link to the original pull request to the commit descriptions would make sense. I also do this when backporting to a branch.</p>",
    "body_text": "Indeed, adding a link to the original pull request to the commit descriptions would make sense. I also do this when backporting to a branch.",
    "body": "Indeed, adding a link to the original pull request to the commit descriptions would make sense. I also do this when backporting to a branch.\n",
    "reactions": {
      "url": "https://api.github.com/repos/bitcoin/bitcoin/issues/comments/72491944/reactions",
      "total_count": 0,
      "+1": 0,
      "-1": 0,
      "laugh": 0,
      "hooray": 0,
      "confused": 0,
      "heart": 0,
      "rocket": 0,
      "eyes": 0
    },
    "performed_via_github_app": null
  },
  {
    "url": "https://api.github.com/repos/bitcoin/bitcoin/issues/comments/72494289",
    "html_url": "https://github.com/bitcoin/bitcoin/pull/5731#issuecomment-72494289",
    "issue_url": "https://api.github.com/repos/bitcoin/bitcoin/issues/5731",
    "id": 72494289,
    "node_id": "MDEyOklzc3VlQ29tbWVudDcyNDk0Mjg5",
    "user": {
      "login": "luke-jr",
      "id": 1095675,
      "node_id": "MDQ6VXNlcjEwOTU2NzU=",
      "avatar_url": "https://avatars.githubusercontent.com/u/1095675?v=4",
      "gravatar_id": "",
      "url": "https://api.github.com/users/luke-jr",
      "html_url": "https://github.com/luke-jr",
      "followers_url": "https://api.github.com/users/luke-jr/followers",
      "following_url": "https://api.github.com/users/luke-jr/following{/other_user}",
      "gists_url": "https://api.github.com/users/luke-jr/gists{/gist_id}",
      "starred_url": "https://api.github.com/users/luke-jr/starred{/owner}{/repo}",
      "subscriptions_url": "https://api.github.com/users/luke-jr/subscriptions",
      "organizations_url": "https://api.github.com/users/luke-jr/orgs",
      "repos_url": "https://api.github.com/users/luke-jr/repos",
      "events_url": "https://api.github.com/users/luke-jr/events{/privacy}",
      "received_events_url": "https://api.github.com/users/luke-jr/received_events",
      "type": "User",
      "site_admin": false
    },
    "created_at": "2015-02-02T17:04:54Z",
    "updated_at": "2015-02-02T17:04:54Z",
    "author_association": "MEMBER",
    "body_html": "<p dir=\"auto\">s/link/description/</p>\n<p dir=\"auto\">Can't assume GitHub will always be here.</p>",
    "body_text": "s/link/description/\nCan't assume GitHub will always be here.",
    "body": "s/link/description/\n\nCan't assume GitHub will always be here.\n",
    "reactions": {
      "url": "https://api.github.com/repos/bitcoin/bitcoin/issues/comments/72494289/reactions",
      "total_count": 0,
      "+1": 0,
      "-1": 0,
      "laugh": 0,
      "hooray": 0,
      "confused": 0,
      "heart": 0,
      "rocket": 0,
      "eyes": 0
    },
    "performed_via_github_app": null
  },
  {
    "url": "https://api.github.com/repos/bitcoin/bitcoin/issues/comments/72494417",
    "html_url": "https://github.com/bitcoin/bitcoin/pull/5731#issuecomment-72494417",
    "issue_url": "https://api.github.com/repos/bitcoin/bitcoin/issues/5731",
    "id": 72494417,
    "node_id": "MDEyOklzc3VlQ29tbWVudDcyNDk0NDE3",
    "user": {
      "login": "theuni",
      "id": 417043,
      "node_id": "MDQ6VXNlcjQxNzA0Mw==",
      "avatar_url": "https://avatars.githubusercontent.com/u/417043?v=4",
      "gravatar_id": "",
      "url": "https://api.github.com/users/theuni",
      "html_url": "https://github.com/theuni",
      "followers_url": "https://api.github.com/users/theuni/followers",
      "following_url": "https://api.github.com/users/theuni/following{/other_user}",
      "gists_url": "https://api.github.com/users/theuni/gists{/gist_id}",
      "starred_url": "https://api.github.com/users/theuni/starred{/owner}{/repo}",
      "subscriptions_url": "https://api.github.com/users/theuni/subscriptions",
      "organizations_url": "https://api.github.com/users/theuni/orgs",
      "repos_url": "https://api.github.com/users/theuni/repos",
      "events_url": "https://api.github.com/users/theuni/events{/privacy}",
      "received_events_url": "https://api.github.com/users/theuni/received_events",
      "type": "User",
      "site_admin": false
    },
    "created_at": "2015-02-02T17:05:31Z",
    "updated_at": "2015-02-02T17:10:19Z",
    "author_association": "MEMBER",
    "body_html": "<p dir=\"auto\">Discussed this quickly on IRC. The issue is that I didn't demand a better commit message that can stand on its own for 'git log' purposes. Noted.</p>\n<p dir=\"auto\">Edit: and obviously the PR link is a good idea regardless. I'll be doing that from now on as well.</p>",
    "body_text": "Discussed this quickly on IRC. The issue is that I didn't demand a better commit message that can stand on its own for 'git log' purposes. Noted.\nEdit: and obviously the PR link is a good idea regardless. I'll be doing that from now on as well.",
    "body": "Discussed this quickly on IRC. The issue is that I didn't demand a better commit message that can stand on its own for 'git log' purposes. Noted.\n\nEdit: and obviously the PR link is a good idea regardless. I'll be doing that from now on as well.\n",
    "reactions": {
      "url": "https://api.github.com/repos/bitcoin/bitcoin/issues/comments/72494417/reactions",
      "total_count": 0,
      "+1": 0,
      "-1": 0,
      "laugh": 0,
      "hooray": 0,
      "confused": 0,
      "heart": 0,
      "rocket": 0,
      "eyes": 0
    },
    "performed_via_github_app": null
  },
  {
    "url": "https://api.github.com/repos/bitcoin/bitcoin/issues/comments/72515627",
    "html_url": "https://github.com/bitcoin/bitcoin/pull/5731#issuecomment-72515627",
    "issue_url": "https://api.github.com/repos/bitcoin/bitcoin/issues/5731",
    "id": 72515627,
    "node_id": "MDEyOklzc3VlQ29tbWVudDcyNTE1NjI3",
    "user": {
      "login": "laanwj",
      "id": 126646,
      "node_id": "MDQ6VXNlcjEyNjY0Ng==",
      "avatar_url": "https://avatars.githubusercontent.com/u/126646?v=4",
      "gravatar_id": "",
      "url": "https://api.github.com/users/laanwj",
      "html_url": "https://github.com/laanwj",
      "followers_url": "https://api.github.com/users/laanwj/followers",
      "following_url": "https://api.github.com/users/laanwj/following{/other_user}",
      "gists_url": "https://api.github.com/users/laanwj/gists{/gist_id}",
      "starred_url": "https://api.github.com/users/laanwj/starred{/owner}{/repo}",
      "subscriptions_url": "https://api.github.com/users/laanwj/subscriptions",
      "organizations_url": "https://api.github.com/users/laanwj/orgs",
      "repos_url": "https://api.github.com/users/laanwj/repos",
      "events_url": "https://api.github.com/users/laanwj/events{/privacy}",
      "received_events_url": "https://api.github.com/users/laanwj/received_events",
      "type": "User",
      "site_admin": false
    },
    "created_at": "2015-02-02T19:00:09Z",
    "updated_at": "2015-02-02T19:00:49Z",
    "author_association": "MEMBER",
    "body_html": "<p dir=\"auto\"><a class=\"user-mention notranslate\" data-hovercard-type=\"user\" data-hovercard-url=\"/users/luke-jr/hovercard\" data-octo-click=\"hovercard-link-click\" data-octo-dimensions=\"link_type:self\" href=\"https://github.com/luke-jr\">@luke-jr</a> If that's what you're afraid of, we have a mirror of all gh metadata (including issues and all discussions) for this repository here, thanks to <a class=\"user-mention notranslate\" data-hovercard-type=\"user\" data-hovercard-url=\"/users/zw/hovercard\" data-octo-click=\"hovercard-link-click\" data-octo-dimensions=\"link_type:self\" href=\"https://github.com/zw\">@zw</a>: <a href=\"https://github.com/zw/bitcoin-gh-meta\">https://github.com/zw/bitcoin-gh-meta</a>  By keeping a local clone of that repository, we can keep everything backed up.</p>",
    "body_text": "@luke-jr If that's what you're afraid of, we have a mirror of all gh metadata (including issues and all discussions) for this repository here, thanks to @zw: https://github.com/zw/bitcoin-gh-meta  By keeping a local clone of that repository, we can keep everything backed up.",
    "body": "@luke-jr If that's what you're afraid of, we have a mirror of all gh metadata (including issues and all discussions) for this repository here, thanks to @zw: https://github.com/zw/bitcoin-gh-meta  By keeping a local clone of that repository, we can keep everything backed up.\n",
    "reactions": {
      "url": "https://api.github.com/repos/bitcoin/bitcoin/issues/comments/72515627/reactions",
      "total_count": 0,
      "+1": 0,
      "-1": 0,
      "laugh": 0,
      "hooray": 0,
      "confused": 0,
      "heart": 0,
      "rocket": 0,
      "eyes": 0
    },
    "performed_via_github_app": null
  }
]
