[
  {
    "url": "https://api.github.com/repos/bitcoin/bitcoin/issues/comments/7589483",
    "html_url": "https://github.com/bitcoin/bitcoin/issues/1662#issuecomment-7589483",
    "issue_url": "https://api.github.com/repos/bitcoin/bitcoin/issues/1662",
    "id": 7589483,
    "node_id": "MDEyOklzc3VlQ29tbWVudDc1ODk0ODM=",
    "user": {
      "login": "vcaxx",
      "id": 1032603,
      "node_id": "MDQ6VXNlcjEwMzI2MDM=",
      "avatar_url": "https://avatars.githubusercontent.com/u/1032603?v=4",
      "gravatar_id": "",
      "url": "https://api.github.com/users/vcaxx",
      "html_url": "https://github.com/vcaxx",
      "followers_url": "https://api.github.com/users/vcaxx/followers",
      "following_url": "https://api.github.com/users/vcaxx/following{/other_user}",
      "gists_url": "https://api.github.com/users/vcaxx/gists{/gist_id}",
      "starred_url": "https://api.github.com/users/vcaxx/starred{/owner}{/repo}",
      "subscriptions_url": "https://api.github.com/users/vcaxx/subscriptions",
      "organizations_url": "https://api.github.com/users/vcaxx/orgs",
      "repos_url": "https://api.github.com/users/vcaxx/repos",
      "events_url": "https://api.github.com/users/vcaxx/events{/privacy}",
      "received_events_url": "https://api.github.com/users/vcaxx/received_events",
      "type": "User",
      "site_admin": false
    },
    "created_at": "2012-08-08T16:42:45Z",
    "updated_at": "2012-08-08T16:42:45Z",
    "author_association": "NONE",
    "body_html": "<p dir=\"auto\">An update, which I think is related.</p>\n<p dir=\"auto\">gettransactions accountName returns only 'receive' transactions. To get 'send' transactions one must use the default ' ' (no name) account. This also includes 'generate' transactions that actually go to a specific account.</p>",
    "body_text": "An update, which I think is related.\ngettransactions accountName returns only 'receive' transactions. To get 'send' transactions one must use the default ' ' (no name) account. This also includes 'generate' transactions that actually go to a specific account.",
    "body": "An update, which I think is related.\n\ngettransactions accountName returns only 'receive' transactions. To get 'send' transactions one must use the default ' ' (no name) account. This also includes 'generate' transactions that actually go to a specific account.\n",
    "reactions": {
      "url": "https://api.github.com/repos/bitcoin/bitcoin/issues/comments/7589483/reactions",
      "total_count": 0,
      "+1": 0,
      "-1": 0,
      "laugh": 0,
      "hooray": 0,
      "confused": 0,
      "heart": 0,
      "rocket": 0,
      "eyes": 0
    },
    "performed_via_github_app": null
  },
  {
    "url": "https://api.github.com/repos/bitcoin/bitcoin/issues/comments/7593285",
    "html_url": "https://github.com/bitcoin/bitcoin/issues/1662#issuecomment-7593285",
    "issue_url": "https://api.github.com/repos/bitcoin/bitcoin/issues/1662",
    "id": 7593285,
    "node_id": "MDEyOklzc3VlQ29tbWVudDc1OTMyODU=",
    "user": {
      "login": "sipa",
      "id": 548488,
      "node_id": "MDQ6VXNlcjU0ODQ4OA==",
      "avatar_url": "https://avatars.githubusercontent.com/u/548488?v=4",
      "gravatar_id": "",
      "url": "https://api.github.com/users/sipa",
      "html_url": "https://github.com/sipa",
      "followers_url": "https://api.github.com/users/sipa/followers",
      "following_url": "https://api.github.com/users/sipa/following{/other_user}",
      "gists_url": "https://api.github.com/users/sipa/gists{/gist_id}",
      "starred_url": "https://api.github.com/users/sipa/starred{/owner}{/repo}",
      "subscriptions_url": "https://api.github.com/users/sipa/subscriptions",
      "organizations_url": "https://api.github.com/users/sipa/orgs",
      "repos_url": "https://api.github.com/users/sipa/repos",
      "events_url": "https://api.github.com/users/sipa/events{/privacy}",
      "received_events_url": "https://api.github.com/users/sipa/received_events",
      "type": "User",
      "site_admin": false
    },
    "created_at": "2012-08-08T18:47:47Z",
    "updated_at": "2012-08-08T18:47:47Z",
    "author_association": "MEMBER",
    "body_html": "<p dir=\"auto\">By default, all sent transactions take their credit from the \"\" account. If you want them to take their balance from another account, use the sendfrom RPC command.</p>\n<p dir=\"auto\">Note that accounts have almost nothing to do with addresses or the actual coin selection. They are just virtual balances kept, for example if you have several users.</p>",
    "body_text": "By default, all sent transactions take their credit from the \"\" account. If you want them to take their balance from another account, use the sendfrom RPC command.\nNote that accounts have almost nothing to do with addresses or the actual coin selection. They are just virtual balances kept, for example if you have several users.",
    "body": "By default, all sent transactions take their credit from the \"\" account. If you want them to take their balance from another account, use the sendfrom RPC command.\n\nNote that accounts have almost nothing to do with addresses or the actual coin selection. They are just virtual balances kept, for example if you have several users.\n",
    "reactions": {
      "url": "https://api.github.com/repos/bitcoin/bitcoin/issues/comments/7593285/reactions",
      "total_count": 0,
      "+1": 0,
      "-1": 0,
      "laugh": 0,
      "hooray": 0,
      "confused": 0,
      "heart": 0,
      "rocket": 0,
      "eyes": 0
    },
    "performed_via_github_app": null
  },
  {
    "url": "https://api.github.com/repos/bitcoin/bitcoin/issues/comments/7594371",
    "html_url": "https://github.com/bitcoin/bitcoin/issues/1662#issuecomment-7594371",
    "issue_url": "https://api.github.com/repos/bitcoin/bitcoin/issues/1662",
    "id": 7594371,
    "node_id": "MDEyOklzc3VlQ29tbWVudDc1OTQzNzE=",
    "user": {
      "login": "vcaxx",
      "id": 1032603,
      "node_id": "MDQ6VXNlcjEwMzI2MDM=",
      "avatar_url": "https://avatars.githubusercontent.com/u/1032603?v=4",
      "gravatar_id": "",
      "url": "https://api.github.com/users/vcaxx",
      "html_url": "https://github.com/vcaxx",
      "followers_url": "https://api.github.com/users/vcaxx/followers",
      "following_url": "https://api.github.com/users/vcaxx/following{/other_user}",
      "gists_url": "https://api.github.com/users/vcaxx/gists{/gist_id}",
      "starred_url": "https://api.github.com/users/vcaxx/starred{/owner}{/repo}",
      "subscriptions_url": "https://api.github.com/users/vcaxx/subscriptions",
      "organizations_url": "https://api.github.com/users/vcaxx/orgs",
      "repos_url": "https://api.github.com/users/vcaxx/repos",
      "events_url": "https://api.github.com/users/vcaxx/events{/privacy}",
      "received_events_url": "https://api.github.com/users/vcaxx/received_events",
      "type": "User",
      "site_admin": false
    },
    "created_at": "2012-08-08T19:21:28Z",
    "updated_at": "2012-08-08T19:24:27Z",
    "author_association": "NONE",
    "body_html": "<p dir=\"auto\">OK, I can agree with logic that gettransactions accName return only transactions explicitly bound, by client, to that account, as accounts are virtual.<br>\nBut still getbalance accName does not return actual balance. Or in better wording: The default setting of the client (sends by default from \"\" acc) will make balances per account misleading at least.</p>\n<p dir=\"auto\">eg. if I had received 250BTC on 2 accounts, spent 450, and now the getbalance returns 50, getbalance acc1 returns 250 as well as getbalance acc2 - As a normal user I would think that something is broken...</p>\n<p dir=\"auto\">If calculating balance from addresses bound to the account is not planned, than I think getbalance should only return total balance and the per account option should be disabled or moved to another command as they don't provide the same functionality.</p>",
    "body_text": "OK, I can agree with logic that gettransactions accName return only transactions explicitly bound, by client, to that account, as accounts are virtual.\nBut still getbalance accName does not return actual balance. Or in better wording: The default setting of the client (sends by default from \"\" acc) will make balances per account misleading at least.\neg. if I had received 250BTC on 2 accounts, spent 450, and now the getbalance returns 50, getbalance acc1 returns 250 as well as getbalance acc2 - As a normal user I would think that something is broken...\nIf calculating balance from addresses bound to the account is not planned, than I think getbalance should only return total balance and the per account option should be disabled or moved to another command as they don't provide the same functionality.",
    "body": "OK, I can agree with logic that gettransactions accName return only transactions explicitly bound, by client, to that account, as accounts are virtual.\nBut still getbalance accName does not return actual balance. Or in better wording: The default setting of the client (sends by default from \"\" acc) will make balances per account misleading at least. \n\neg. if I had received 250BTC on 2 accounts, spent 450, and now the getbalance returns 50, getbalance acc1 returns 250 as well as getbalance acc2 - As a normal user I would think that something is broken...\n\nIf calculating balance from addresses bound to the account is not planned, than I think getbalance should only return total balance and the per account option should be disabled or moved to another command as they don't provide the same functionality.\n",
    "reactions": {
      "url": "https://api.github.com/repos/bitcoin/bitcoin/issues/comments/7594371/reactions",
      "total_count": 0,
      "+1": 0,
      "-1": 0,
      "laugh": 0,
      "hooray": 0,
      "confused": 0,
      "heart": 0,
      "rocket": 0,
      "eyes": 0
    },
    "performed_via_github_app": null
  },
  {
    "url": "https://api.github.com/repos/bitcoin/bitcoin/issues/comments/7594417",
    "html_url": "https://github.com/bitcoin/bitcoin/issues/1662#issuecomment-7594417",
    "issue_url": "https://api.github.com/repos/bitcoin/bitcoin/issues/1662",
    "id": 7594417,
    "node_id": "MDEyOklzc3VlQ29tbWVudDc1OTQ0MTc=",
    "user": {
      "login": "luke-jr",
      "id": 1095675,
      "node_id": "MDQ6VXNlcjEwOTU2NzU=",
      "avatar_url": "https://avatars.githubusercontent.com/u/1095675?v=4",
      "gravatar_id": "",
      "url": "https://api.github.com/users/luke-jr",
      "html_url": "https://github.com/luke-jr",
      "followers_url": "https://api.github.com/users/luke-jr/followers",
      "following_url": "https://api.github.com/users/luke-jr/following{/other_user}",
      "gists_url": "https://api.github.com/users/luke-jr/gists{/gist_id}",
      "starred_url": "https://api.github.com/users/luke-jr/starred{/owner}{/repo}",
      "subscriptions_url": "https://api.github.com/users/luke-jr/subscriptions",
      "organizations_url": "https://api.github.com/users/luke-jr/orgs",
      "repos_url": "https://api.github.com/users/luke-jr/repos",
      "events_url": "https://api.github.com/users/luke-jr/events{/privacy}",
      "received_events_url": "https://api.github.com/users/luke-jr/received_events",
      "type": "User",
      "site_admin": false
    },
    "created_at": "2012-08-08T19:23:09Z",
    "updated_at": "2012-08-08T19:23:09Z",
    "author_association": "MEMBER",
    "body_html": "<p dir=\"auto\">Then we need better documentation I guess. Get the balance of \"\"</p>",
    "body_text": "Then we need better documentation I guess. Get the balance of \"\"",
    "body": "Then we need better documentation I guess. Get the balance of \"\"\n",
    "reactions": {
      "url": "https://api.github.com/repos/bitcoin/bitcoin/issues/comments/7594417/reactions",
      "total_count": 0,
      "+1": 0,
      "-1": 0,
      "laugh": 0,
      "hooray": 0,
      "confused": 0,
      "heart": 0,
      "rocket": 0,
      "eyes": 0
    },
    "performed_via_github_app": null
  },
  {
    "url": "https://api.github.com/repos/bitcoin/bitcoin/issues/comments/8757577",
    "html_url": "https://github.com/bitcoin/bitcoin/issues/1662#issuecomment-8757577",
    "issue_url": "https://api.github.com/repos/bitcoin/bitcoin/issues/1662",
    "id": 8757577,
    "node_id": "MDEyOklzc3VlQ29tbWVudDg3NTc1Nzc=",
    "user": {
      "login": "laanwj",
      "id": 126646,
      "node_id": "MDQ6VXNlcjEyNjY0Ng==",
      "avatar_url": "https://avatars.githubusercontent.com/u/126646?v=4",
      "gravatar_id": "",
      "url": "https://api.github.com/users/laanwj",
      "html_url": "https://github.com/laanwj",
      "followers_url": "https://api.github.com/users/laanwj/followers",
      "following_url": "https://api.github.com/users/laanwj/following{/other_user}",
      "gists_url": "https://api.github.com/users/laanwj/gists{/gist_id}",
      "starred_url": "https://api.github.com/users/laanwj/starred{/owner}{/repo}",
      "subscriptions_url": "https://api.github.com/users/laanwj/subscriptions",
      "organizations_url": "https://api.github.com/users/laanwj/orgs",
      "repos_url": "https://api.github.com/users/laanwj/repos",
      "events_url": "https://api.github.com/users/laanwj/events{/privacy}",
      "received_events_url": "https://api.github.com/users/laanwj/received_events",
      "type": "User",
      "site_admin": false
    },
    "created_at": "2012-09-21T07:54:41Z",
    "updated_at": "2012-09-21T07:54:41Z",
    "author_association": "MEMBER",
    "body_html": "<p dir=\"auto\">I agree that a better separation / isolation of the \"account\" system would be nice. It is confusing and error-prone that the command set used for the entire wallet, and that for the individual accounts overlaps.</p>\n<p dir=\"auto\">I also think that the account system can be deprecated completely when we have full multi-wallet support (and expose it on JSON-RPC, for example by distinguishing the wallet used based on HTTP username). Otherwise it will become very complex, with two levels of nesting.</p>\n<p dir=\"auto\">Then again; many clients rely on the current behavior. Changing it will require multiple deprecation steps over a long time. Maybe something for the \"1.0.0\" roadmap.</p>",
    "body_text": "I agree that a better separation / isolation of the \"account\" system would be nice. It is confusing and error-prone that the command set used for the entire wallet, and that for the individual accounts overlaps.\nI also think that the account system can be deprecated completely when we have full multi-wallet support (and expose it on JSON-RPC, for example by distinguishing the wallet used based on HTTP username). Otherwise it will become very complex, with two levels of nesting.\nThen again; many clients rely on the current behavior. Changing it will require multiple deprecation steps over a long time. Maybe something for the \"1.0.0\" roadmap.",
    "body": "I agree that a better separation / isolation of the \"account\" system would be nice. It is confusing and error-prone that the command set used for the entire wallet, and that for the individual accounts overlaps.\n\nI also think that the account system can be deprecated completely when we have full multi-wallet support (and expose it on JSON-RPC, for example by distinguishing the wallet used based on HTTP username). Otherwise it will become very complex, with two levels of nesting.\n\nThen again; many clients rely on the current behavior. Changing it will require multiple deprecation steps over a long time. Maybe something for the \"1.0.0\" roadmap.\n",
    "reactions": {
      "url": "https://api.github.com/repos/bitcoin/bitcoin/issues/comments/8757577/reactions",
      "total_count": 0,
      "+1": 0,
      "-1": 0,
      "laugh": 0,
      "hooray": 0,
      "confused": 0,
      "heart": 0,
      "rocket": 0,
      "eyes": 0
    },
    "performed_via_github_app": null
  }
]
