{
  "url": "https://api.github.com/repos/bitcoin/bitcoin/issues/29217",
  "repository_url": "https://api.github.com/repos/bitcoin/bitcoin",
  "labels_url": "https://api.github.com/repos/bitcoin/bitcoin/issues/29217/labels{/name}",
  "comments_url": "https://api.github.com/repos/bitcoin/bitcoin/issues/29217/comments",
  "events_url": "https://api.github.com/repos/bitcoin/bitcoin/issues/29217/events",
  "html_url": "https://github.com/bitcoin/bitcoin/issues/29217",
  "id": 2074096446,
  "node_id": "I_kwDOABII5857oDM-",
  "number": 29217,
  "title": "Enable `maxfeerate` and `maxburnamount` as startup config options.",
  "user": {
    "login": "ismaelsadeeq",
    "id": 48946461,
    "node_id": "MDQ6VXNlcjQ4OTQ2NDYx",
    "avatar_url": "https://avatars.githubusercontent.com/u/48946461?v=4",
    "gravatar_id": "",
    "url": "https://api.github.com/users/ismaelsadeeq",
    "html_url": "https://github.com/ismaelsadeeq",
    "followers_url": "https://api.github.com/users/ismaelsadeeq/followers",
    "following_url": "https://api.github.com/users/ismaelsadeeq/following{/other_user}",
    "gists_url": "https://api.github.com/users/ismaelsadeeq/gists{/gist_id}",
    "starred_url": "https://api.github.com/users/ismaelsadeeq/starred{/owner}{/repo}",
    "subscriptions_url": "https://api.github.com/users/ismaelsadeeq/subscriptions",
    "organizations_url": "https://api.github.com/users/ismaelsadeeq/orgs",
    "repos_url": "https://api.github.com/users/ismaelsadeeq/repos",
    "events_url": "https://api.github.com/users/ismaelsadeeq/events{/privacy}",
    "received_events_url": "https://api.github.com/users/ismaelsadeeq/received_events",
    "type": "User",
    "site_admin": false
  },
  "labels": [
    {
      "id": 64583,
      "node_id": "MDU6TGFiZWw2NDU4Mw==",
      "url": "https://api.github.com/repos/bitcoin/bitcoin/labels/Feature",
      "name": "Feature",
      "color": "7cf575",
      "default": false,
      "description": null
    }
  ],
  "state": "closed",
  "locked": false,
  "assignee": null,
  "assignees": [

  ],
  "milestone": null,
  "comments": 2,
  "created_at": "2024-01-10T10:48:10Z",
  "updated_at": "2024-01-19T16:11:17Z",
  "closed_at": "2024-01-19T16:11:17Z",
  "author_association": "MEMBER",
  "active_lock_reason": null,
  "body_html": "<h3 dir=\"auto\">Please describe the feature you'd like to see added.</h3>\n<p dir=\"auto\"><code class=\"notranslate\">maxfeerate</code> is a sanity check optional parameter used by clients to ensure transactions submitted to the mempool and relayed to the network by a node with<code class=\"notranslate\">sendrawtransaction</code>, <code class=\"notranslate\">testmempoolaccept</code> and now possibly <code class=\"notranslate\">submitpackage</code> <a class=\"issue-link js-issue-link\" data-error-text=\"Failed to load title\" data-id=\"2012991870\" data-permission-text=\"Title is private\" data-url=\"https://github.com/bitcoin/bitcoin/issues/28950\" data-hovercard-type=\"pull_request\" data-hovercard-url=\"/bitcoin/bitcoin/pull/28950/hovercard\" href=\"https://github.com/bitcoin/bitcoin/pull/28950\">#28950</a> does not exceed the <code class=\"notranslate\">maxfeerate</code> value.<br>\nNode will reject transactions whose fee rate is higher than <code class=\"notranslate\">maxfeerate</code>.</p>\n<p dir=\"auto\"><code class=\"notranslate\">maxburnamount</code> is also a sanity check optional parameter used by <code class=\"notranslate\">sendrawtransaction</code> now possibly <code class=\"notranslate\">submitpackage</code> <a class=\"issue-link js-issue-link\" data-error-text=\"Failed to load title\" data-id=\"2012991870\" data-permission-text=\"Title is private\" data-url=\"https://github.com/bitcoin/bitcoin/issues/28950\" data-hovercard-type=\"pull_request\" data-hovercard-url=\"/bitcoin/bitcoin/pull/28950/hovercard\" href=\"https://github.com/bitcoin/bitcoin/pull/28950\">#28950</a> to reject all transactions with <code class=\"notranslate\">OP_RETURN</code> outputs greater than the <code class=\"notranslate\">maxburnamount</code>.</p>\n<hr>\n<p dir=\"auto\">Should we enable passing <code class=\"notranslate\">maxburnamount</code> and <code class=\"notranslate\">maxfeerate</code>  as startup-config options to be used by those RPC calls instead?</p>\n<h3 dir=\"auto\">Is your feature related to a problem, if so please describe it.</h3>\n<p dir=\"auto\">Requested here <a class=\"issue-link js-issue-link\" data-error-text=\"Failed to load title\" data-id=\"2012991870\" data-permission-text=\"Title is private\" data-url=\"https://github.com/bitcoin/bitcoin/issues/28950\" data-hovercard-type=\"pull_request\" data-hovercard-url=\"/bitcoin/bitcoin/pull/28950/hovercard?comment_id=1444456650&amp;comment_type=review_comment\" href=\"https://github.com/bitcoin/bitcoin/pull/28950#discussion_r1444456650\">#28950 (comment)</a></p>\n<h3 dir=\"auto\">Describe the solution you'd like</h3>\n<p dir=\"auto\">Add startup config options <code class=\"notranslate\">maxfeerate</code>, and <code class=\"notranslate\">maxburnamount</code> as a sanity check for transactions entering the mempool and relayed to the network.</p>\n<h3 dir=\"auto\">Describe any alternatives you've considered</h3>\n<p dir=\"auto\"><em>No response</em></p>\n<h3 dir=\"auto\">Please leave any additional context</h3>\n<p dir=\"auto\"><em>No response</em></p>",
  "body_text": "Please describe the feature you'd like to see added.\nmaxfeerate is a sanity check optional parameter used by clients to ensure transactions submitted to the mempool and relayed to the network by a node withsendrawtransaction, testmempoolaccept and now possibly submitpackage #28950 does not exceed the maxfeerate value.\nNode will reject transactions whose fee rate is higher than maxfeerate.\nmaxburnamount is also a sanity check optional parameter used by sendrawtransaction now possibly submitpackage #28950 to reject all transactions with OP_RETURN outputs greater than the maxburnamount.\n\nShould we enable passing maxburnamount and maxfeerate  as startup-config options to be used by those RPC calls instead?\nIs your feature related to a problem, if so please describe it.\nRequested here #28950 (comment)\nDescribe the solution you'd like\nAdd startup config options maxfeerate, and maxburnamount as a sanity check for transactions entering the mempool and relayed to the network.\nDescribe any alternatives you've considered\nNo response\nPlease leave any additional context\nNo response",
  "body": "### Please describe the feature you'd like to see added.\n\n`maxfeerate` is a sanity check optional parameter used by clients to ensure transactions submitted to the mempool and relayed to the network by a node with`sendrawtransaction`, `testmempoolaccept` and now possibly `submitpackage` #28950 does not exceed the `maxfeerate` value. \r\nNode will reject transactions whose fee rate is higher than `maxfeerate`. \r\n\r\n`maxburnamount` is also a sanity check optional parameter used by `sendrawtransaction` now possibly `submitpackage` #28950 to reject all transactions with `OP_RETURN` outputs greater than the `maxburnamount`. \r\n\r\n---\r\nShould we enable passing `maxburnamount` and `maxfeerate`  as startup-config options to be used by those RPC calls instead?\n\n### Is your feature related to a problem, if so please describe it.\n\nRequested here https://github.com/bitcoin/bitcoin/pull/28950#discussion_r1444456650\n\n### Describe the solution you'd like\n\nAdd startup config options `maxfeerate`, and `maxburnamount` as a sanity check for transactions entering the mempool and relayed to the network.\n\n### Describe any alternatives you've considered\n\n_No response_\n\n### Please leave any additional context\n\n_No response_",
  "closed_by": {
    "login": "ismaelsadeeq",
    "id": 48946461,
    "node_id": "MDQ6VXNlcjQ4OTQ2NDYx",
    "avatar_url": "https://avatars.githubusercontent.com/u/48946461?v=4",
    "gravatar_id": "",
    "url": "https://api.github.com/users/ismaelsadeeq",
    "html_url": "https://github.com/ismaelsadeeq",
    "followers_url": "https://api.github.com/users/ismaelsadeeq/followers",
    "following_url": "https://api.github.com/users/ismaelsadeeq/following{/other_user}",
    "gists_url": "https://api.github.com/users/ismaelsadeeq/gists{/gist_id}",
    "starred_url": "https://api.github.com/users/ismaelsadeeq/starred{/owner}{/repo}",
    "subscriptions_url": "https://api.github.com/users/ismaelsadeeq/subscriptions",
    "organizations_url": "https://api.github.com/users/ismaelsadeeq/orgs",
    "repos_url": "https://api.github.com/users/ismaelsadeeq/repos",
    "events_url": "https://api.github.com/users/ismaelsadeeq/events{/privacy}",
    "received_events_url": "https://api.github.com/users/ismaelsadeeq/received_events",
    "type": "User",
    "site_admin": false
  },
  "reactions": {
    "url": "https://api.github.com/repos/bitcoin/bitcoin/issues/29217/reactions",
    "total_count": 0,
    "+1": 0,
    "-1": 0,
    "laugh": 0,
    "hooray": 0,
    "confused": 0,
    "heart": 0,
    "rocket": 0,
    "eyes": 0
  },
  "timeline_url": "https://api.github.com/repos/bitcoin/bitcoin/issues/29217/timeline",
  "performed_via_github_app": null,
  "state_reason": "completed"
}
