[
  {
    "url": "https://api.github.com/repos/bitcoin/bitcoin/issues/comments/435233732",
    "html_url": "https://github.com/bitcoin/bitcoin/pull/14543#issuecomment-435233732",
    "issue_url": "https://api.github.com/repos/bitcoin/bitcoin/issues/14543",
    "id": 435233732,
    "node_id": "MDEyOklzc3VlQ29tbWVudDQzNTIzMzczMg==",
    "user": {
      "login": "DrahtBot",
      "id": 39886733,
      "node_id": "MDQ6VXNlcjM5ODg2NzMz",
      "avatar_url": "https://avatars.githubusercontent.com/u/39886733?v=4",
      "gravatar_id": "",
      "url": "https://api.github.com/users/DrahtBot",
      "html_url": "https://github.com/DrahtBot",
      "followers_url": "https://api.github.com/users/DrahtBot/followers",
      "following_url": "https://api.github.com/users/DrahtBot/following{/other_user}",
      "gists_url": "https://api.github.com/users/DrahtBot/gists{/gist_id}",
      "starred_url": "https://api.github.com/users/DrahtBot/starred{/owner}{/repo}",
      "subscriptions_url": "https://api.github.com/users/DrahtBot/subscriptions",
      "organizations_url": "https://api.github.com/users/DrahtBot/orgs",
      "repos_url": "https://api.github.com/users/DrahtBot/repos",
      "events_url": "https://api.github.com/users/DrahtBot/events{/privacy}",
      "received_events_url": "https://api.github.com/users/DrahtBot/received_events",
      "type": "User",
      "site_admin": false
    },
    "created_at": "2018-11-02T00:40:27Z",
    "updated_at": "2018-12-21T03:11:20Z",
    "author_association": "CONTRIBUTOR",
    "body_html": "\n<p dir=\"auto\">The following sections might be updated with supplementary metadata relevant to reviewers and maintainers.</p>\n\n<h3 dir=\"auto\">Conflicts</h3>\n<p dir=\"auto\">No conflicts as of last run.</p>",
    "body_text": "The following sections might be updated with supplementary metadata relevant to reviewers and maintainers.\n\nConflicts\nNo conflicts as of last run.",
    "body": "<!--e57a25ab6845829454e8d69fc972939a-->\n\nThe following sections might be updated with supplementary metadata relevant to reviewers and maintainers.\n\n<!--174a7506f384e20aa4161008e828411d-->\n### Conflicts\nNo conflicts as of last run.",
    "reactions": {
      "url": "https://api.github.com/repos/bitcoin/bitcoin/issues/comments/435233732/reactions",
      "total_count": 0,
      "+1": 0,
      "-1": 0,
      "laugh": 0,
      "hooray": 0,
      "confused": 0,
      "heart": 0,
      "rocket": 0,
      "eyes": 0
    },
    "performed_via_github_app": null
  },
  {
    "url": "https://api.github.com/repos/bitcoin/bitcoin/issues/comments/462780939",
    "html_url": "https://github.com/bitcoin/bitcoin/pull/14543#issuecomment-462780939",
    "issue_url": "https://api.github.com/repos/bitcoin/bitcoin/issues/14543",
    "id": 462780939,
    "node_id": "MDEyOklzc3VlQ29tbWVudDQ2Mjc4MDkzOQ==",
    "user": {
      "login": "laanwj",
      "id": 126646,
      "node_id": "MDQ6VXNlcjEyNjY0Ng==",
      "avatar_url": "https://avatars.githubusercontent.com/u/126646?v=4",
      "gravatar_id": "",
      "url": "https://api.github.com/users/laanwj",
      "html_url": "https://github.com/laanwj",
      "followers_url": "https://api.github.com/users/laanwj/followers",
      "following_url": "https://api.github.com/users/laanwj/following{/other_user}",
      "gists_url": "https://api.github.com/users/laanwj/gists{/gist_id}",
      "starred_url": "https://api.github.com/users/laanwj/starred{/owner}{/repo}",
      "subscriptions_url": "https://api.github.com/users/laanwj/subscriptions",
      "organizations_url": "https://api.github.com/users/laanwj/orgs",
      "repos_url": "https://api.github.com/users/laanwj/repos",
      "events_url": "https://api.github.com/users/laanwj/events{/privacy}",
      "received_events_url": "https://api.github.com/users/laanwj/received_events",
      "type": "User",
      "site_admin": false
    },
    "created_at": "2019-02-12T14:30:51Z",
    "updated_at": "2019-02-12T14:30:51Z",
    "author_association": "MEMBER",
    "body_html": "<p dir=\"auto\">utACK <a class=\"commit-link\" data-hovercard-type=\"commit\" data-hovercard-url=\"https://github.com/bitcoin/bitcoin/commit/1cdb9bb51fa9f6396c8a684b3340b32b29d626e5/hovercard\" href=\"https://github.com/bitcoin/bitcoin/commit/1cdb9bb51fa9f6396c8a684b3340b32b29d626e5\"><tt>1cdb9bb</tt></a></p>",
    "body_text": "utACK 1cdb9bb",
    "body": "utACK 1cdb9bb51fa9f6396c8a684b3340b32b29d626e5",
    "reactions": {
      "url": "https://api.github.com/repos/bitcoin/bitcoin/issues/comments/462780939/reactions",
      "total_count": 0,
      "+1": 0,
      "-1": 0,
      "laugh": 0,
      "hooray": 0,
      "confused": 0,
      "heart": 0,
      "rocket": 0,
      "eyes": 0
    },
    "performed_via_github_app": null
  }
]
