[
  {
    "url": "https://api.github.com/repos/bitcoin/bitcoin/issues/comments/385689657",
    "html_url": "https://github.com/bitcoin/bitcoin/pull/13134#issuecomment-385689657",
    "issue_url": "https://api.github.com/repos/bitcoin/bitcoin/issues/13134",
    "id": 385689657,
    "node_id": "MDEyOklzc3VlQ29tbWVudDM4NTY4OTY1Nw==",
    "user": {
      "login": "sdaftuar",
      "id": 7463573,
      "node_id": "MDQ6VXNlcjc0NjM1NzM=",
      "avatar_url": "https://avatars.githubusercontent.com/u/7463573?v=4",
      "gravatar_id": "",
      "url": "https://api.github.com/users/sdaftuar",
      "html_url": "https://github.com/sdaftuar",
      "followers_url": "https://api.github.com/users/sdaftuar/followers",
      "following_url": "https://api.github.com/users/sdaftuar/following{/other_user}",
      "gists_url": "https://api.github.com/users/sdaftuar/gists{/gist_id}",
      "starred_url": "https://api.github.com/users/sdaftuar/starred{/owner}{/repo}",
      "subscriptions_url": "https://api.github.com/users/sdaftuar/subscriptions",
      "organizations_url": "https://api.github.com/users/sdaftuar/orgs",
      "repos_url": "https://api.github.com/users/sdaftuar/repos",
      "events_url": "https://api.github.com/users/sdaftuar/events{/privacy}",
      "received_events_url": "https://api.github.com/users/sdaftuar/received_events",
      "type": "User",
      "site_admin": false
    },
    "created_at": "2018-05-01T14:49:54Z",
    "updated_at": "2018-05-01T14:49:54Z",
    "author_association": "MEMBER",
    "body_html": "<p dir=\"auto\">Concept ACK</p>",
    "body_text": "Concept ACK",
    "body": "Concept ACK",
    "reactions": {
      "url": "https://api.github.com/repos/bitcoin/bitcoin/issues/comments/385689657/reactions",
      "total_count": 0,
      "+1": 0,
      "-1": 0,
      "laugh": 0,
      "hooray": 0,
      "confused": 0,
      "heart": 0,
      "rocket": 0,
      "eyes": 0
    },
    "performed_via_github_app": null
  },
  {
    "url": "https://api.github.com/repos/bitcoin/bitcoin/issues/comments/385744738",
    "html_url": "https://github.com/bitcoin/bitcoin/pull/13134#issuecomment-385744738",
    "issue_url": "https://api.github.com/repos/bitcoin/bitcoin/issues/13134",
    "id": 385744738,
    "node_id": "MDEyOklzc3VlQ29tbWVudDM4NTc0NDczOA==",
    "user": {
      "login": "gmaxwell",
      "id": 858454,
      "node_id": "MDQ6VXNlcjg1ODQ1NA==",
      "avatar_url": "https://avatars.githubusercontent.com/u/858454?v=4",
      "gravatar_id": "",
      "url": "https://api.github.com/users/gmaxwell",
      "html_url": "https://github.com/gmaxwell",
      "followers_url": "https://api.github.com/users/gmaxwell/followers",
      "following_url": "https://api.github.com/users/gmaxwell/following{/other_user}",
      "gists_url": "https://api.github.com/users/gmaxwell/gists{/gist_id}",
      "starred_url": "https://api.github.com/users/gmaxwell/starred{/owner}{/repo}",
      "subscriptions_url": "https://api.github.com/users/gmaxwell/subscriptions",
      "organizations_url": "https://api.github.com/users/gmaxwell/orgs",
      "repos_url": "https://api.github.com/users/gmaxwell/repos",
      "events_url": "https://api.github.com/users/gmaxwell/events{/privacy}",
      "received_events_url": "https://api.github.com/users/gmaxwell/received_events",
      "type": "User",
      "site_admin": false
    },
    "created_at": "2018-05-01T18:12:20Z",
    "updated_at": "2018-05-01T18:12:20Z",
    "author_association": "CONTRIBUTOR",
    "body_html": "<p dir=\"auto\">Concept ACK</p>",
    "body_text": "Concept ACK",
    "body": "Concept ACK",
    "reactions": {
      "url": "https://api.github.com/repos/bitcoin/bitcoin/issues/comments/385744738/reactions",
      "total_count": 0,
      "+1": 0,
      "-1": 0,
      "laugh": 0,
      "hooray": 0,
      "confused": 0,
      "heart": 0,
      "rocket": 0,
      "eyes": 0
    },
    "performed_via_github_app": null
  },
  {
    "url": "https://api.github.com/repos/bitcoin/bitcoin/issues/comments/385849651",
    "html_url": "https://github.com/bitcoin/bitcoin/pull/13134#issuecomment-385849651",
    "issue_url": "https://api.github.com/repos/bitcoin/bitcoin/issues/13134",
    "id": 385849651,
    "node_id": "MDEyOklzc3VlQ29tbWVudDM4NTg0OTY1MQ==",
    "user": {
      "login": "sipa",
      "id": 548488,
      "node_id": "MDQ6VXNlcjU0ODQ4OA==",
      "avatar_url": "https://avatars.githubusercontent.com/u/548488?v=4",
      "gravatar_id": "",
      "url": "https://api.github.com/users/sipa",
      "html_url": "https://github.com/sipa",
      "followers_url": "https://api.github.com/users/sipa/followers",
      "following_url": "https://api.github.com/users/sipa/following{/other_user}",
      "gists_url": "https://api.github.com/users/sipa/gists{/gist_id}",
      "starred_url": "https://api.github.com/users/sipa/starred{/owner}{/repo}",
      "subscriptions_url": "https://api.github.com/users/sipa/subscriptions",
      "organizations_url": "https://api.github.com/users/sipa/orgs",
      "repos_url": "https://api.github.com/users/sipa/repos",
      "events_url": "https://api.github.com/users/sipa/events{/privacy}",
      "received_events_url": "https://api.github.com/users/sipa/received_events",
      "type": "User",
      "site_admin": false
    },
    "created_at": "2018-05-02T02:48:28Z",
    "updated_at": "2018-05-02T02:48:28Z",
    "author_association": "MEMBER",
    "body_html": "<p dir=\"auto\">Concept ACK</p>",
    "body_text": "Concept ACK",
    "body": "Concept ACK",
    "reactions": {
      "url": "https://api.github.com/repos/bitcoin/bitcoin/issues/comments/385849651/reactions",
      "total_count": 0,
      "+1": 0,
      "-1": 0,
      "laugh": 0,
      "hooray": 0,
      "confused": 0,
      "heart": 0,
      "rocket": 0,
      "eyes": 0
    },
    "performed_via_github_app": null
  },
  {
    "url": "https://api.github.com/repos/bitcoin/bitcoin/issues/comments/385881926",
    "html_url": "https://github.com/bitcoin/bitcoin/pull/13134#issuecomment-385881926",
    "issue_url": "https://api.github.com/repos/bitcoin/bitcoin/issues/13134",
    "id": 385881926,
    "node_id": "MDEyOklzc3VlQ29tbWVudDM4NTg4MTkyNg==",
    "user": {
      "login": "jonasschnelli",
      "id": 178464,
      "node_id": "MDQ6VXNlcjE3ODQ2NA==",
      "avatar_url": "https://avatars.githubusercontent.com/u/178464?v=4",
      "gravatar_id": "",
      "url": "https://api.github.com/users/jonasschnelli",
      "html_url": "https://github.com/jonasschnelli",
      "followers_url": "https://api.github.com/users/jonasschnelli/followers",
      "following_url": "https://api.github.com/users/jonasschnelli/following{/other_user}",
      "gists_url": "https://api.github.com/users/jonasschnelli/gists{/gist_id}",
      "starred_url": "https://api.github.com/users/jonasschnelli/starred{/owner}{/repo}",
      "subscriptions_url": "https://api.github.com/users/jonasschnelli/subscriptions",
      "organizations_url": "https://api.github.com/users/jonasschnelli/orgs",
      "repos_url": "https://api.github.com/users/jonasschnelli/repos",
      "events_url": "https://api.github.com/users/jonasschnelli/events{/privacy}",
      "received_events_url": "https://api.github.com/users/jonasschnelli/received_events",
      "type": "User",
      "site_admin": false
    },
    "created_at": "2018-05-02T06:55:54Z",
    "updated_at": "2018-05-02T06:55:54Z",
    "author_association": "CONTRIBUTOR",
    "body_html": "<p dir=\"auto\">utACK ca4d71559c9d0f4a5a9a1dec105bff827b530a00 (after squashing the squashme)</p>",
    "body_text": "utACK ca4d71559c9d0f4a5a9a1dec105bff827b530a00 (after squashing the squashme)",
    "body": "utACK ca4d71559c9d0f4a5a9a1dec105bff827b530a00 (after squashing the squashme)",
    "reactions": {
      "url": "https://api.github.com/repos/bitcoin/bitcoin/issues/comments/385881926/reactions",
      "total_count": 0,
      "+1": 0,
      "-1": 0,
      "laugh": 0,
      "hooray": 0,
      "confused": 0,
      "heart": 0,
      "rocket": 0,
      "eyes": 0
    },
    "performed_via_github_app": null
  },
  {
    "url": "https://api.github.com/repos/bitcoin/bitcoin/issues/comments/386282435",
    "html_url": "https://github.com/bitcoin/bitcoin/pull/13134#issuecomment-386282435",
    "issue_url": "https://api.github.com/repos/bitcoin/bitcoin/issues/13134",
    "id": 386282435,
    "node_id": "MDEyOklzc3VlQ29tbWVudDM4NjI4MjQzNQ==",
    "user": {
      "login": "laanwj",
      "id": 126646,
      "node_id": "MDQ6VXNlcjEyNjY0Ng==",
      "avatar_url": "https://avatars.githubusercontent.com/u/126646?v=4",
      "gravatar_id": "",
      "url": "https://api.github.com/users/laanwj",
      "html_url": "https://github.com/laanwj",
      "followers_url": "https://api.github.com/users/laanwj/followers",
      "following_url": "https://api.github.com/users/laanwj/following{/other_user}",
      "gists_url": "https://api.github.com/users/laanwj/gists{/gist_id}",
      "starred_url": "https://api.github.com/users/laanwj/starred{/owner}{/repo}",
      "subscriptions_url": "https://api.github.com/users/laanwj/subscriptions",
      "organizations_url": "https://api.github.com/users/laanwj/orgs",
      "repos_url": "https://api.github.com/users/laanwj/repos",
      "events_url": "https://api.github.com/users/laanwj/events{/privacy}",
      "received_events_url": "https://api.github.com/users/laanwj/received_events",
      "type": "User",
      "site_admin": false
    },
    "created_at": "2018-05-03T12:42:59Z",
    "updated_at": "2018-05-03T12:42:59Z",
    "author_association": "MEMBER",
    "body_html": "<p dir=\"auto\">Squashed ca4d715 → 39d4d10</p>",
    "body_text": "Squashed ca4d715 → 39d4d10",
    "body": "Squashed ca4d715 → 39d4d10",
    "reactions": {
      "url": "https://api.github.com/repos/bitcoin/bitcoin/issues/comments/386282435/reactions",
      "total_count": 0,
      "+1": 0,
      "-1": 0,
      "laugh": 0,
      "hooray": 0,
      "confused": 0,
      "heart": 0,
      "rocket": 0,
      "eyes": 0
    },
    "performed_via_github_app": null
  },
  {
    "url": "https://api.github.com/repos/bitcoin/bitcoin/issues/comments/386309145",
    "html_url": "https://github.com/bitcoin/bitcoin/pull/13134#issuecomment-386309145",
    "issue_url": "https://api.github.com/repos/bitcoin/bitcoin/issues/13134",
    "id": 386309145,
    "node_id": "MDEyOklzc3VlQ29tbWVudDM4NjMwOTE0NQ==",
    "user": {
      "login": "morcos",
      "id": 4360349,
      "node_id": "MDQ6VXNlcjQzNjAzNDk=",
      "avatar_url": "https://avatars.githubusercontent.com/u/4360349?v=4",
      "gravatar_id": "",
      "url": "https://api.github.com/users/morcos",
      "html_url": "https://github.com/morcos",
      "followers_url": "https://api.github.com/users/morcos/followers",
      "following_url": "https://api.github.com/users/morcos/following{/other_user}",
      "gists_url": "https://api.github.com/users/morcos/gists{/gist_id}",
      "starred_url": "https://api.github.com/users/morcos/starred{/owner}{/repo}",
      "subscriptions_url": "https://api.github.com/users/morcos/subscriptions",
      "organizations_url": "https://api.github.com/users/morcos/orgs",
      "repos_url": "https://api.github.com/users/morcos/repos",
      "events_url": "https://api.github.com/users/morcos/events{/privacy}",
      "received_events_url": "https://api.github.com/users/morcos/received_events",
      "type": "User",
      "site_admin": false
    },
    "created_at": "2018-05-03T14:11:26Z",
    "updated_at": "2018-05-03T14:11:26Z",
    "author_association": "MEMBER",
    "body_html": "<p dir=\"auto\">Concept ACK</p>",
    "body_text": "Concept ACK",
    "body": "Concept ACK",
    "reactions": {
      "url": "https://api.github.com/repos/bitcoin/bitcoin/issues/comments/386309145/reactions",
      "total_count": 0,
      "+1": 0,
      "-1": 0,
      "laugh": 0,
      "hooray": 0,
      "confused": 0,
      "heart": 0,
      "rocket": 0,
      "eyes": 0
    },
    "performed_via_github_app": null
  },
  {
    "url": "https://api.github.com/repos/bitcoin/bitcoin/issues/comments/386351187",
    "html_url": "https://github.com/bitcoin/bitcoin/pull/13134#issuecomment-386351187",
    "issue_url": "https://api.github.com/repos/bitcoin/bitcoin/issues/13134",
    "id": 386351187,
    "node_id": "MDEyOklzc3VlQ29tbWVudDM4NjM1MTE4Nw==",
    "user": {
      "login": "maflcko",
      "id": 6399679,
      "node_id": "MDQ6VXNlcjYzOTk2Nzk=",
      "avatar_url": "https://avatars.githubusercontent.com/u/6399679?v=4",
      "gravatar_id": "",
      "url": "https://api.github.com/users/maflcko",
      "html_url": "https://github.com/maflcko",
      "followers_url": "https://api.github.com/users/maflcko/followers",
      "following_url": "https://api.github.com/users/maflcko/following{/other_user}",
      "gists_url": "https://api.github.com/users/maflcko/gists{/gist_id}",
      "starred_url": "https://api.github.com/users/maflcko/starred{/owner}{/repo}",
      "subscriptions_url": "https://api.github.com/users/maflcko/subscriptions",
      "organizations_url": "https://api.github.com/users/maflcko/orgs",
      "repos_url": "https://api.github.com/users/maflcko/repos",
      "events_url": "https://api.github.com/users/maflcko/events{/privacy}",
      "received_events_url": "https://api.github.com/users/maflcko/received_events",
      "type": "User",
      "site_admin": false
    },
    "created_at": "2018-05-03T16:15:48Z",
    "updated_at": "2018-05-03T16:15:48Z",
    "author_association": "MEMBER",
    "body_html": "<p dir=\"auto\">Agree that mentioning bip61 in the option name makes sense.</p>",
    "body_text": "Agree that mentioning bip61 in the option name makes sense.",
    "body": "Agree that mentioning bip61 in the option name makes sense.",
    "reactions": {
      "url": "https://api.github.com/repos/bitcoin/bitcoin/issues/comments/386351187/reactions",
      "total_count": 0,
      "+1": 0,
      "-1": 0,
      "laugh": 0,
      "hooray": 0,
      "confused": 0,
      "heart": 0,
      "rocket": 0,
      "eyes": 0
    },
    "performed_via_github_app": null
  },
  {
    "url": "https://api.github.com/repos/bitcoin/bitcoin/issues/comments/386541851",
    "html_url": "https://github.com/bitcoin/bitcoin/pull/13134#issuecomment-386541851",
    "issue_url": "https://api.github.com/repos/bitcoin/bitcoin/issues/13134",
    "id": 386541851,
    "node_id": "MDEyOklzc3VlQ29tbWVudDM4NjU0MTg1MQ==",
    "user": {
      "login": "laanwj",
      "id": 126646,
      "node_id": "MDQ6VXNlcjEyNjY0Ng==",
      "avatar_url": "https://avatars.githubusercontent.com/u/126646?v=4",
      "gravatar_id": "",
      "url": "https://api.github.com/users/laanwj",
      "html_url": "https://github.com/laanwj",
      "followers_url": "https://api.github.com/users/laanwj/followers",
      "following_url": "https://api.github.com/users/laanwj/following{/other_user}",
      "gists_url": "https://api.github.com/users/laanwj/gists{/gist_id}",
      "starred_url": "https://api.github.com/users/laanwj/starred{/owner}{/repo}",
      "subscriptions_url": "https://api.github.com/users/laanwj/subscriptions",
      "organizations_url": "https://api.github.com/users/laanwj/orgs",
      "repos_url": "https://api.github.com/users/laanwj/repos",
      "events_url": "https://api.github.com/users/laanwj/events{/privacy}",
      "received_events_url": "https://api.github.com/users/laanwj/received_events",
      "type": "User",
      "site_admin": false
    },
    "created_at": "2018-05-04T08:54:39Z",
    "updated_at": "2018-05-04T09:03:22Z",
    "author_association": "MEMBER",
    "body_html": "<blockquote>\n<p dir=\"auto\">I think -enablebip61 is a better argument name than -peersendreject, which I think could be a little ambiguous/confusing.</p>\n</blockquote>\n<p dir=\"auto\">As you might have guessed from the variable name I used that name at first, but thought this name was more direct/clear. But I'm ok with changing it to that.</p>\n<p dir=\"auto\">One of the reasons for switching it around was that <code class=\"notranslate\">-peerbloomfilters</code> was already a thing and I was trying to keep it consistent. Probably we should have used the BIP38 name there as well - even worse, it isnt' even mentioned in the description!</p>\n<blockquote>\n<p dir=\"auto\">Should this option also disable logging of received REJECT messages in ProcessMessage() (to shut down the possibility of peers spamming our debug log with REJECT messages).</p>\n</blockquote>\n<p dir=\"auto\">I think that's an orthogonal concern. One might want their node to be silent but still listen to other's reject messages.<br>\nAlso: The messages are not enabled unless the very noisy ::NET category (which logs multiple things for every packet!) is already enabled. So I don't think this makes log flooding a worse threat in practice. Might be something to keep in mind for <a class=\"issue-link js-issue-link\" data-error-text=\"Failed to load title\" data-id=\"289699693\" data-permission-text=\"Title is private\" data-url=\"https://github.com/bitcoin/bitcoin/issues/12219\" data-hovercard-type=\"issue\" data-hovercard-url=\"/bitcoin/bitcoin/issues/12219/hovercard\" href=\"https://github.com/bitcoin/bitcoin/issues/12219\">#12219</a> though.</p>",
    "body_text": "I think -enablebip61 is a better argument name than -peersendreject, which I think could be a little ambiguous/confusing.\n\nAs you might have guessed from the variable name I used that name at first, but thought this name was more direct/clear. But I'm ok with changing it to that.\nOne of the reasons for switching it around was that -peerbloomfilters was already a thing and I was trying to keep it consistent. Probably we should have used the BIP38 name there as well - even worse, it isnt' even mentioned in the description!\n\nShould this option also disable logging of received REJECT messages in ProcessMessage() (to shut down the possibility of peers spamming our debug log with REJECT messages).\n\nI think that's an orthogonal concern. One might want their node to be silent but still listen to other's reject messages.\nAlso: The messages are not enabled unless the very noisy ::NET category (which logs multiple things for every packet!) is already enabled. So I don't think this makes log flooding a worse threat in practice. Might be something to keep in mind for #12219 though.",
    "body": "> I think -enablebip61 is a better argument name than -peersendreject, which I think could be a little ambiguous/confusing.\r\n\r\nAs you might have guessed from the variable name I used that name at first, but thought this name was more direct/clear. But I'm ok with changing it to that.\r\n\r\nOne of the reasons for switching it around was that `-peerbloomfilters` was already a thing and I was trying to keep it consistent. Probably we should have used the BIP38 name there as well - even worse, it isnt' even mentioned in the description!\r\n\r\n> Should this option also disable logging of received REJECT messages in ProcessMessage() (to shut down the possibility of peers spamming our debug log with REJECT messages).\r\n\r\nI think that's an orthogonal concern. One might want their node to be silent but still listen to other's reject messages. \r\nAlso: The messages are not enabled unless the very noisy ::NET category (which logs multiple things for every packet!) is already enabled. So I don't think this makes log flooding a worse threat in practice. Might be something to keep in mind for #12219 though.\r\n",
    "reactions": {
      "url": "https://api.github.com/repos/bitcoin/bitcoin/issues/comments/386541851/reactions",
      "total_count": 0,
      "+1": 0,
      "-1": 0,
      "laugh": 0,
      "hooray": 0,
      "confused": 0,
      "heart": 0,
      "rocket": 0,
      "eyes": 0
    },
    "performed_via_github_app": null
  },
  {
    "url": "https://api.github.com/repos/bitcoin/bitcoin/issues/comments/387835898",
    "html_url": "https://github.com/bitcoin/bitcoin/pull/13134#issuecomment-387835898",
    "issue_url": "https://api.github.com/repos/bitcoin/bitcoin/issues/13134",
    "id": 387835898,
    "node_id": "MDEyOklzc3VlQ29tbWVudDM4NzgzNTg5OA==",
    "user": {
      "login": "maflcko",
      "id": 6399679,
      "node_id": "MDQ6VXNlcjYzOTk2Nzk=",
      "avatar_url": "https://avatars.githubusercontent.com/u/6399679?v=4",
      "gravatar_id": "",
      "url": "https://api.github.com/users/maflcko",
      "html_url": "https://github.com/maflcko",
      "followers_url": "https://api.github.com/users/maflcko/followers",
      "following_url": "https://api.github.com/users/maflcko/following{/other_user}",
      "gists_url": "https://api.github.com/users/maflcko/gists{/gist_id}",
      "starred_url": "https://api.github.com/users/maflcko/starred{/owner}{/repo}",
      "subscriptions_url": "https://api.github.com/users/maflcko/subscriptions",
      "organizations_url": "https://api.github.com/users/maflcko/orgs",
      "repos_url": "https://api.github.com/users/maflcko/repos",
      "events_url": "https://api.github.com/users/maflcko/events{/privacy}",
      "received_events_url": "https://api.github.com/users/maflcko/received_events",
      "type": "User",
      "site_admin": false
    },
    "created_at": "2018-05-09T18:39:47Z",
    "updated_at": "2018-05-09T19:10:39Z",
    "author_association": "MEMBER",
    "body_html": "<p dir=\"auto\">Needs rebase <strike>if still relevant</strike></p>",
    "body_text": "Needs rebase if still relevant",
    "body": "Needs rebase <strike>if still relevant</strike>",
    "reactions": {
      "url": "https://api.github.com/repos/bitcoin/bitcoin/issues/comments/387835898/reactions",
      "total_count": 0,
      "+1": 0,
      "-1": 0,
      "laugh": 0,
      "hooray": 0,
      "confused": 0,
      "heart": 0,
      "rocket": 0,
      "eyes": 0
    },
    "performed_via_github_app": null
  },
  {
    "url": "https://api.github.com/repos/bitcoin/bitcoin/issues/comments/387843676",
    "html_url": "https://github.com/bitcoin/bitcoin/pull/13134#issuecomment-387843676",
    "issue_url": "https://api.github.com/repos/bitcoin/bitcoin/issues/13134",
    "id": 387843676,
    "node_id": "MDEyOklzc3VlQ29tbWVudDM4Nzg0MzY3Ng==",
    "user": {
      "login": "laanwj",
      "id": 126646,
      "node_id": "MDQ6VXNlcjEyNjY0Ng==",
      "avatar_url": "https://avatars.githubusercontent.com/u/126646?v=4",
      "gravatar_id": "",
      "url": "https://api.github.com/users/laanwj",
      "html_url": "https://github.com/laanwj",
      "followers_url": "https://api.github.com/users/laanwj/followers",
      "following_url": "https://api.github.com/users/laanwj/following{/other_user}",
      "gists_url": "https://api.github.com/users/laanwj/gists{/gist_id}",
      "starred_url": "https://api.github.com/users/laanwj/starred{/owner}{/repo}",
      "subscriptions_url": "https://api.github.com/users/laanwj/subscriptions",
      "organizations_url": "https://api.github.com/users/laanwj/orgs",
      "repos_url": "https://api.github.com/users/laanwj/repos",
      "events_url": "https://api.github.com/users/laanwj/events{/privacy}",
      "received_events_url": "https://api.github.com/users/laanwj/received_events",
      "type": "User",
      "site_admin": false
    },
    "created_at": "2018-05-09T19:07:13Z",
    "updated_at": "2018-05-09T19:07:13Z",
    "author_association": "MEMBER",
    "body_html": "<p dir=\"auto\">Why would this already not be relevant now?</p>",
    "body_text": "Why would this already not be relevant now?",
    "body": "Why would this already not be relevant now?",
    "reactions": {
      "url": "https://api.github.com/repos/bitcoin/bitcoin/issues/comments/387843676/reactions",
      "total_count": 0,
      "+1": 0,
      "-1": 0,
      "laugh": 0,
      "hooray": 0,
      "confused": 0,
      "heart": 0,
      "rocket": 0,
      "eyes": 0
    },
    "performed_via_github_app": null
  },
  {
    "url": "https://api.github.com/repos/bitcoin/bitcoin/issues/comments/387844088",
    "html_url": "https://github.com/bitcoin/bitcoin/pull/13134#issuecomment-387844088",
    "issue_url": "https://api.github.com/repos/bitcoin/bitcoin/issues/13134",
    "id": 387844088,
    "node_id": "MDEyOklzc3VlQ29tbWVudDM4Nzg0NDA4OA==",
    "user": {
      "login": "maflcko",
      "id": 6399679,
      "node_id": "MDQ6VXNlcjYzOTk2Nzk=",
      "avatar_url": "https://avatars.githubusercontent.com/u/6399679?v=4",
      "gravatar_id": "",
      "url": "https://api.github.com/users/maflcko",
      "html_url": "https://github.com/maflcko",
      "followers_url": "https://api.github.com/users/maflcko/followers",
      "following_url": "https://api.github.com/users/maflcko/following{/other_user}",
      "gists_url": "https://api.github.com/users/maflcko/gists{/gist_id}",
      "starred_url": "https://api.github.com/users/maflcko/starred{/owner}{/repo}",
      "subscriptions_url": "https://api.github.com/users/maflcko/subscriptions",
      "organizations_url": "https://api.github.com/users/maflcko/orgs",
      "repos_url": "https://api.github.com/users/maflcko/repos",
      "events_url": "https://api.github.com/users/maflcko/events{/privacy}",
      "received_events_url": "https://api.github.com/users/maflcko/received_events",
      "type": "User",
      "site_admin": false
    },
    "created_at": "2018-05-09T19:08:43Z",
    "updated_at": "2018-05-09T19:08:43Z",
    "author_association": "MEMBER",
    "body_html": "<p dir=\"auto\">Sorry, this is an automated template reply :)</p>",
    "body_text": "Sorry, this is an automated template reply :)",
    "body": "Sorry, this is an automated template reply :)",
    "reactions": {
      "url": "https://api.github.com/repos/bitcoin/bitcoin/issues/comments/387844088/reactions",
      "total_count": 0,
      "+1": 0,
      "-1": 0,
      "laugh": 0,
      "hooray": 0,
      "confused": 0,
      "heart": 0,
      "rocket": 0,
      "eyes": 0
    },
    "performed_via_github_app": null
  },
  {
    "url": "https://api.github.com/repos/bitcoin/bitcoin/issues/comments/387849449",
    "html_url": "https://github.com/bitcoin/bitcoin/pull/13134#issuecomment-387849449",
    "issue_url": "https://api.github.com/repos/bitcoin/bitcoin/issues/13134",
    "id": 387849449,
    "node_id": "MDEyOklzc3VlQ29tbWVudDM4Nzg0OTQ0OQ==",
    "user": {
      "login": "laanwj",
      "id": 126646,
      "node_id": "MDQ6VXNlcjEyNjY0Ng==",
      "avatar_url": "https://avatars.githubusercontent.com/u/126646?v=4",
      "gravatar_id": "",
      "url": "https://api.github.com/users/laanwj",
      "html_url": "https://github.com/laanwj",
      "followers_url": "https://api.github.com/users/laanwj/followers",
      "following_url": "https://api.github.com/users/laanwj/following{/other_user}",
      "gists_url": "https://api.github.com/users/laanwj/gists{/gist_id}",
      "starred_url": "https://api.github.com/users/laanwj/starred{/owner}{/repo}",
      "subscriptions_url": "https://api.github.com/users/laanwj/subscriptions",
      "organizations_url": "https://api.github.com/users/laanwj/orgs",
      "repos_url": "https://api.github.com/users/laanwj/repos",
      "events_url": "https://api.github.com/users/laanwj/events{/privacy}",
      "received_events_url": "https://api.github.com/users/laanwj/received_events",
      "type": "User",
      "site_admin": false
    },
    "created_at": "2018-05-09T19:29:19Z",
    "updated_at": "2018-05-09T19:29:19Z",
    "author_association": "MEMBER",
    "body_html": "<p dir=\"auto\">Rebased and renamed the option.</p>",
    "body_text": "Rebased and renamed the option.",
    "body": "Rebased and renamed the option.",
    "reactions": {
      "url": "https://api.github.com/repos/bitcoin/bitcoin/issues/comments/387849449/reactions",
      "total_count": 0,
      "+1": 0,
      "-1": 0,
      "laugh": 0,
      "hooray": 0,
      "confused": 0,
      "heart": 0,
      "rocket": 0,
      "eyes": 0
    },
    "performed_via_github_app": null
  },
  {
    "url": "https://api.github.com/repos/bitcoin/bitcoin/issues/comments/387858365",
    "html_url": "https://github.com/bitcoin/bitcoin/pull/13134#issuecomment-387858365",
    "issue_url": "https://api.github.com/repos/bitcoin/bitcoin/issues/13134",
    "id": 387858365,
    "node_id": "MDEyOklzc3VlQ29tbWVudDM4Nzg1ODM2NQ==",
    "user": {
      "login": "jnewbery",
      "id": 1063656,
      "node_id": "MDQ6VXNlcjEwNjM2NTY=",
      "avatar_url": "https://avatars.githubusercontent.com/u/1063656?v=4",
      "gravatar_id": "",
      "url": "https://api.github.com/users/jnewbery",
      "html_url": "https://github.com/jnewbery",
      "followers_url": "https://api.github.com/users/jnewbery/followers",
      "following_url": "https://api.github.com/users/jnewbery/following{/other_user}",
      "gists_url": "https://api.github.com/users/jnewbery/gists{/gist_id}",
      "starred_url": "https://api.github.com/users/jnewbery/starred{/owner}{/repo}",
      "subscriptions_url": "https://api.github.com/users/jnewbery/subscriptions",
      "organizations_url": "https://api.github.com/users/jnewbery/orgs",
      "repos_url": "https://api.github.com/users/jnewbery/repos",
      "events_url": "https://api.github.com/users/jnewbery/events{/privacy}",
      "received_events_url": "https://api.github.com/users/jnewbery/received_events",
      "type": "User",
      "site_admin": false
    },
    "created_at": "2018-05-09T20:02:36Z",
    "updated_at": "2018-05-09T20:02:36Z",
    "author_association": "CONTRIBUTOR",
    "body_html": "<p dir=\"auto\">Strange. p2p_invalid_tx.py fails in one job in Travis, on the updated line:</p>\n<div class=\"snippet-clipboard-content notranslate position-relative overflow-auto\" data-snippet-clipboard-copy-content=\"        node.p2p.send_txs_and_test([tx1], node, success=False, expect_disconnect=True, reject_code=REJECT_INVALID)\"><pre class=\"notranslate\"><code class=\"notranslate\">        node.p2p.send_txs_and_test([tx1], node, success=False, expect_disconnect=True, reject_code=REJECT_INVALID)\n</code></pre></div>\n<p dir=\"auto\">I can't reproduce this locally.</p>",
    "body_text": "Strange. p2p_invalid_tx.py fails in one job in Travis, on the updated line:\n        node.p2p.send_txs_and_test([tx1], node, success=False, expect_disconnect=True, reject_code=REJECT_INVALID)\n\nI can't reproduce this locally.",
    "body": "Strange. p2p_invalid_tx.py fails in one job in Travis, on the updated line:\r\n\r\n```\r\n        node.p2p.send_txs_and_test([tx1], node, success=False, expect_disconnect=True, reject_code=REJECT_INVALID)\r\n```\r\n\r\nI can't reproduce this locally.",
    "reactions": {
      "url": "https://api.github.com/repos/bitcoin/bitcoin/issues/comments/387858365/reactions",
      "total_count": 0,
      "+1": 0,
      "-1": 0,
      "laugh": 0,
      "hooray": 0,
      "confused": 0,
      "heart": 0,
      "rocket": 0,
      "eyes": 0
    },
    "performed_via_github_app": null
  },
  {
    "url": "https://api.github.com/repos/bitcoin/bitcoin/issues/comments/387951698",
    "html_url": "https://github.com/bitcoin/bitcoin/pull/13134#issuecomment-387951698",
    "issue_url": "https://api.github.com/repos/bitcoin/bitcoin/issues/13134",
    "id": 387951698,
    "node_id": "MDEyOklzc3VlQ29tbWVudDM4Nzk1MTY5OA==",
    "user": {
      "login": "laanwj",
      "id": 126646,
      "node_id": "MDQ6VXNlcjEyNjY0Ng==",
      "avatar_url": "https://avatars.githubusercontent.com/u/126646?v=4",
      "gravatar_id": "",
      "url": "https://api.github.com/users/laanwj",
      "html_url": "https://github.com/laanwj",
      "followers_url": "https://api.github.com/users/laanwj/followers",
      "following_url": "https://api.github.com/users/laanwj/following{/other_user}",
      "gists_url": "https://api.github.com/users/laanwj/gists{/gist_id}",
      "starred_url": "https://api.github.com/users/laanwj/starred{/owner}{/repo}",
      "subscriptions_url": "https://api.github.com/users/laanwj/subscriptions",
      "organizations_url": "https://api.github.com/users/laanwj/orgs",
      "repos_url": "https://api.github.com/users/laanwj/repos",
      "events_url": "https://api.github.com/users/laanwj/events{/privacy}",
      "received_events_url": "https://api.github.com/users/laanwj/received_events",
      "type": "User",
      "site_admin": false
    },
    "created_at": "2018-05-10T04:54:22Z",
    "updated_at": "2018-05-10T05:07:04Z",
    "author_association": "MEMBER",
    "body_html": "<p dir=\"auto\">Right - and that's not even with changed <code class=\"notranslate\">-enablebip61</code> setting, but the default one</p>\n<div class=\"snippet-clipboard-content notranslate position-relative overflow-auto\" data-snippet-clipboard-copy-content=\"2018-05-09T19:56:46.996000Z TestFramework (INFO): Test a transaction that is rejected\n2018-05-09T19:57:47.063000Z TestFramework.utils (ERROR): wait_until() failed. Predicate: (['            wait_until(lambda: self.reject_code_received == reject_code, lock=mininode_lock)\\n'], 592)\"><pre class=\"notranslate\"><code class=\"notranslate\">2018-05-09T19:56:46.996000Z TestFramework (INFO): Test a transaction that is rejected\n2018-05-09T19:57:47.063000Z TestFramework.utils (ERROR): wait_until() failed. Predicate: (['            wait_until(lambda: self.reject_code_received == reject_code, lock=mininode_lock)\\n'], 592)\n</code></pre></div>\n<p dir=\"auto\">If it gets to that <code class=\"notranslate\">wait_until</code>, the node will have closed the connection, but without sending a reject message.<br>\nThis could be a rare race condition between sending a message and closing the connection? I would be extremely surprised if it was introduced by this PR.<br>\nCan't reproduce it locally either, will restart the job.</p>",
    "body_text": "Right - and that's not even with changed -enablebip61 setting, but the default one\n2018-05-09T19:56:46.996000Z TestFramework (INFO): Test a transaction that is rejected\n2018-05-09T19:57:47.063000Z TestFramework.utils (ERROR): wait_until() failed. Predicate: (['            wait_until(lambda: self.reject_code_received == reject_code, lock=mininode_lock)\\n'], 592)\n\nIf it gets to that wait_until, the node will have closed the connection, but without sending a reject message.\nThis could be a rare race condition between sending a message and closing the connection? I would be extremely surprised if it was introduced by this PR.\nCan't reproduce it locally either, will restart the job.",
    "body": "Right - and that's not even with changed `-enablebip61` setting, but the default one\r\n```\r\n2018-05-09T19:56:46.996000Z TestFramework (INFO): Test a transaction that is rejected\r\n2018-05-09T19:57:47.063000Z TestFramework.utils (ERROR): wait_until() failed. Predicate: (['            wait_until(lambda: self.reject_code_received == reject_code, lock=mininode_lock)\\n'], 592)\r\n```\r\nIf it gets to that `wait_until`, the node will have closed the connection, but without sending a reject message.\r\nThis could be a rare race condition between sending a message and closing the connection? I would be extremely surprised if it was introduced by this PR.\r\nCan't reproduce it locally either, will restart the job.\r\n",
    "reactions": {
      "url": "https://api.github.com/repos/bitcoin/bitcoin/issues/comments/387951698/reactions",
      "total_count": 0,
      "+1": 0,
      "-1": 0,
      "laugh": 0,
      "hooray": 0,
      "confused": 0,
      "heart": 0,
      "rocket": 0,
      "eyes": 0
    },
    "performed_via_github_app": null
  },
  {
    "url": "https://api.github.com/repos/bitcoin/bitcoin/issues/comments/387956672",
    "html_url": "https://github.com/bitcoin/bitcoin/pull/13134#issuecomment-387956672",
    "issue_url": "https://api.github.com/repos/bitcoin/bitcoin/issues/13134",
    "id": 387956672,
    "node_id": "MDEyOklzc3VlQ29tbWVudDM4Nzk1NjY3Mg==",
    "user": {
      "login": "laanwj",
      "id": 126646,
      "node_id": "MDQ6VXNlcjEyNjY0Ng==",
      "avatar_url": "https://avatars.githubusercontent.com/u/126646?v=4",
      "gravatar_id": "",
      "url": "https://api.github.com/users/laanwj",
      "html_url": "https://github.com/laanwj",
      "followers_url": "https://api.github.com/users/laanwj/followers",
      "following_url": "https://api.github.com/users/laanwj/following{/other_user}",
      "gists_url": "https://api.github.com/users/laanwj/gists{/gist_id}",
      "starred_url": "https://api.github.com/users/laanwj/starred{/owner}{/repo}",
      "subscriptions_url": "https://api.github.com/users/laanwj/subscriptions",
      "organizations_url": "https://api.github.com/users/laanwj/orgs",
      "repos_url": "https://api.github.com/users/laanwj/repos",
      "events_url": "https://api.github.com/users/laanwj/events{/privacy}",
      "received_events_url": "https://api.github.com/users/laanwj/received_events",
      "type": "User",
      "site_admin": false
    },
    "created_at": "2018-05-10T05:34:01Z",
    "updated_at": "2018-05-10T05:34:01Z",
    "author_association": "MEMBER",
    "body_html": "<p dir=\"auto\">I'd missed <a class=\"user-mention notranslate\" data-hovercard-type=\"user\" data-hovercard-url=\"/users/MarcoFalke/hovercard\" data-octo-click=\"hovercard-link-click\" data-octo-dimensions=\"link_type:self\" href=\"https://github.com/MarcoFalke\">@MarcoFalke</a> 's comment about testing reject reason, patched and squashed:<br>\n47d858ddfc481df811fb9c67a5c105c3dcbdfa10 →  56d8a5b0b58afc978bf47d7f18164d0362a433b0</p>",
    "body_text": "I'd missed @MarcoFalke 's comment about testing reject reason, patched and squashed:\n47d858ddfc481df811fb9c67a5c105c3dcbdfa10 →  56d8a5b0b58afc978bf47d7f18164d0362a433b0",
    "body": "I'd missed @MarcoFalke 's comment about testing reject reason, patched and squashed:\r\n47d858ddfc481df811fb9c67a5c105c3dcbdfa10 →  56d8a5b0b58afc978bf47d7f18164d0362a433b0",
    "reactions": {
      "url": "https://api.github.com/repos/bitcoin/bitcoin/issues/comments/387956672/reactions",
      "total_count": 0,
      "+1": 0,
      "-1": 0,
      "laugh": 0,
      "hooray": 0,
      "confused": 0,
      "heart": 0,
      "rocket": 0,
      "eyes": 0
    },
    "performed_via_github_app": null
  },
  {
    "url": "https://api.github.com/repos/bitcoin/bitcoin/issues/comments/388071661",
    "html_url": "https://github.com/bitcoin/bitcoin/pull/13134#issuecomment-388071661",
    "issue_url": "https://api.github.com/repos/bitcoin/bitcoin/issues/13134",
    "id": 388071661,
    "node_id": "MDEyOklzc3VlQ29tbWVudDM4ODA3MTY2MQ==",
    "user": {
      "login": "maflcko",
      "id": 6399679,
      "node_id": "MDQ6VXNlcjYzOTk2Nzk=",
      "avatar_url": "https://avatars.githubusercontent.com/u/6399679?v=4",
      "gravatar_id": "",
      "url": "https://api.github.com/users/maflcko",
      "html_url": "https://github.com/maflcko",
      "followers_url": "https://api.github.com/users/maflcko/followers",
      "following_url": "https://api.github.com/users/maflcko/following{/other_user}",
      "gists_url": "https://api.github.com/users/maflcko/gists{/gist_id}",
      "starred_url": "https://api.github.com/users/maflcko/starred{/owner}{/repo}",
      "subscriptions_url": "https://api.github.com/users/maflcko/subscriptions",
      "organizations_url": "https://api.github.com/users/maflcko/orgs",
      "repos_url": "https://api.github.com/users/maflcko/repos",
      "events_url": "https://api.github.com/users/maflcko/events{/privacy}",
      "received_events_url": "https://api.github.com/users/maflcko/received_events",
      "type": "User",
      "site_admin": false
    },
    "created_at": "2018-05-10T14:32:48Z",
    "updated_at": "2018-05-10T14:32:48Z",
    "author_association": "MEMBER",
    "body_html": "<p dir=\"auto\">Yes, the travis failure is unrelated. I will open an issue when I see this again.</p>",
    "body_text": "Yes, the travis failure is unrelated. I will open an issue when I see this again.",
    "body": "Yes, the travis failure is unrelated. I will open an issue when I see this again.",
    "reactions": {
      "url": "https://api.github.com/repos/bitcoin/bitcoin/issues/comments/388071661/reactions",
      "total_count": 0,
      "+1": 0,
      "-1": 0,
      "laugh": 0,
      "hooray": 0,
      "confused": 0,
      "heart": 0,
      "rocket": 0,
      "eyes": 0
    },
    "performed_via_github_app": null
  },
  {
    "url": "https://api.github.com/repos/bitcoin/bitcoin/issues/comments/388073262",
    "html_url": "https://github.com/bitcoin/bitcoin/pull/13134#issuecomment-388073262",
    "issue_url": "https://api.github.com/repos/bitcoin/bitcoin/issues/13134",
    "id": 388073262,
    "node_id": "MDEyOklzc3VlQ29tbWVudDM4ODA3MzI2Mg==",
    "user": {
      "login": "maflcko",
      "id": 6399679,
      "node_id": "MDQ6VXNlcjYzOTk2Nzk=",
      "avatar_url": "https://avatars.githubusercontent.com/u/6399679?v=4",
      "gravatar_id": "",
      "url": "https://api.github.com/users/maflcko",
      "html_url": "https://github.com/maflcko",
      "followers_url": "https://api.github.com/users/maflcko/followers",
      "following_url": "https://api.github.com/users/maflcko/following{/other_user}",
      "gists_url": "https://api.github.com/users/maflcko/gists{/gist_id}",
      "starred_url": "https://api.github.com/users/maflcko/starred{/owner}{/repo}",
      "subscriptions_url": "https://api.github.com/users/maflcko/subscriptions",
      "organizations_url": "https://api.github.com/users/maflcko/orgs",
      "repos_url": "https://api.github.com/users/maflcko/repos",
      "events_url": "https://api.github.com/users/maflcko/events{/privacy}",
      "received_events_url": "https://api.github.com/users/maflcko/received_events",
      "type": "User",
      "site_admin": false
    },
    "created_at": "2018-05-10T14:38:12Z",
    "updated_at": "2018-05-10T14:38:12Z",
    "author_association": "MEMBER",
    "body_html": "<p dir=\"auto\">re-utACK 56d8a5b0b58afc978bf47d7f18164d0362a433b0 (Only change is rebase and test fixup as well as a change to the option name)</p>",
    "body_text": "re-utACK 56d8a5b0b58afc978bf47d7f18164d0362a433b0 (Only change is rebase and test fixup as well as a change to the option name)",
    "body": "re-utACK 56d8a5b0b58afc978bf47d7f18164d0362a433b0 (Only change is rebase and test fixup as well as a change to the option name)",
    "reactions": {
      "url": "https://api.github.com/repos/bitcoin/bitcoin/issues/comments/388073262/reactions",
      "total_count": 0,
      "+1": 0,
      "-1": 0,
      "laugh": 0,
      "hooray": 0,
      "confused": 0,
      "heart": 0,
      "rocket": 0,
      "eyes": 0
    },
    "performed_via_github_app": null
  },
  {
    "url": "https://api.github.com/repos/bitcoin/bitcoin/issues/comments/388646970",
    "html_url": "https://github.com/bitcoin/bitcoin/pull/13134#issuecomment-388646970",
    "issue_url": "https://api.github.com/repos/bitcoin/bitcoin/issues/13134",
    "id": 388646970,
    "node_id": "MDEyOklzc3VlQ29tbWVudDM4ODY0Njk3MA==",
    "user": {
      "login": "maflcko",
      "id": 6399679,
      "node_id": "MDQ6VXNlcjYzOTk2Nzk=",
      "avatar_url": "https://avatars.githubusercontent.com/u/6399679?v=4",
      "gravatar_id": "",
      "url": "https://api.github.com/users/maflcko",
      "html_url": "https://github.com/maflcko",
      "followers_url": "https://api.github.com/users/maflcko/followers",
      "following_url": "https://api.github.com/users/maflcko/following{/other_user}",
      "gists_url": "https://api.github.com/users/maflcko/gists{/gist_id}",
      "starred_url": "https://api.github.com/users/maflcko/starred{/owner}{/repo}",
      "subscriptions_url": "https://api.github.com/users/maflcko/subscriptions",
      "organizations_url": "https://api.github.com/users/maflcko/orgs",
      "repos_url": "https://api.github.com/users/maflcko/repos",
      "events_url": "https://api.github.com/users/maflcko/events{/privacy}",
      "received_events_url": "https://api.github.com/users/maflcko/received_events",
      "type": "User",
      "site_admin": false
    },
    "created_at": "2018-05-13T18:37:55Z",
    "updated_at": "2018-05-13T18:37:55Z",
    "author_association": "MEMBER",
    "body_html": "<p dir=\"auto\">Needs rebase due to merge conflict in tests</p>",
    "body_text": "Needs rebase due to merge conflict in tests",
    "body": "Needs rebase due to merge conflict in tests",
    "reactions": {
      "url": "https://api.github.com/repos/bitcoin/bitcoin/issues/comments/388646970/reactions",
      "total_count": 0,
      "+1": 0,
      "-1": 0,
      "laugh": 0,
      "hooray": 0,
      "confused": 0,
      "heart": 0,
      "rocket": 0,
      "eyes": 0
    },
    "performed_via_github_app": null
  },
  {
    "url": "https://api.github.com/repos/bitcoin/bitcoin/issues/comments/388648680",
    "html_url": "https://github.com/bitcoin/bitcoin/pull/13134#issuecomment-388648680",
    "issue_url": "https://api.github.com/repos/bitcoin/bitcoin/issues/13134",
    "id": 388648680,
    "node_id": "MDEyOklzc3VlQ29tbWVudDM4ODY0ODY4MA==",
    "user": {
      "login": "laanwj",
      "id": 126646,
      "node_id": "MDQ6VXNlcjEyNjY0Ng==",
      "avatar_url": "https://avatars.githubusercontent.com/u/126646?v=4",
      "gravatar_id": "",
      "url": "https://api.github.com/users/laanwj",
      "html_url": "https://github.com/laanwj",
      "followers_url": "https://api.github.com/users/laanwj/followers",
      "following_url": "https://api.github.com/users/laanwj/following{/other_user}",
      "gists_url": "https://api.github.com/users/laanwj/gists{/gist_id}",
      "starred_url": "https://api.github.com/users/laanwj/starred{/owner}{/repo}",
      "subscriptions_url": "https://api.github.com/users/laanwj/subscriptions",
      "organizations_url": "https://api.github.com/users/laanwj/orgs",
      "repos_url": "https://api.github.com/users/laanwj/repos",
      "events_url": "https://api.github.com/users/laanwj/events{/privacy}",
      "received_events_url": "https://api.github.com/users/laanwj/received_events",
      "type": "User",
      "site_admin": false
    },
    "created_at": "2018-05-13T19:06:20Z",
    "updated_at": "2018-05-13T19:06:20Z",
    "author_association": "MEMBER",
    "body_html": "<p dir=\"auto\">Rebased 56d8a5b0b58afc978bf47d7f18164d0362a433b0 → <a class=\"commit-link\" data-hovercard-type=\"commit\" data-hovercard-url=\"https://github.com/bitcoin/bitcoin/commit/87fe292d897e09e176ac7e254144466c319cc9ac/hovercard\" href=\"https://github.com/bitcoin/bitcoin/commit/87fe292d897e09e176ac7e254144466c319cc9ac\"><tt>87fe292</tt></a></p>",
    "body_text": "Rebased 56d8a5b0b58afc978bf47d7f18164d0362a433b0 → 87fe292",
    "body": "Rebased 56d8a5b0b58afc978bf47d7f18164d0362a433b0 → 87fe292d897e09e176ac7e254144466c319cc9ac",
    "reactions": {
      "url": "https://api.github.com/repos/bitcoin/bitcoin/issues/comments/388648680/reactions",
      "total_count": 0,
      "+1": 0,
      "-1": 0,
      "laugh": 0,
      "hooray": 0,
      "confused": 0,
      "heart": 0,
      "rocket": 0,
      "eyes": 0
    },
    "performed_via_github_app": null
  },
  {
    "url": "https://api.github.com/repos/bitcoin/bitcoin/issues/comments/389211132",
    "html_url": "https://github.com/bitcoin/bitcoin/pull/13134#issuecomment-389211132",
    "issue_url": "https://api.github.com/repos/bitcoin/bitcoin/issues/13134",
    "id": 389211132,
    "node_id": "MDEyOklzc3VlQ29tbWVudDM4OTIxMTEzMg==",
    "user": {
      "login": "maflcko",
      "id": 6399679,
      "node_id": "MDQ6VXNlcjYzOTk2Nzk=",
      "avatar_url": "https://avatars.githubusercontent.com/u/6399679?v=4",
      "gravatar_id": "",
      "url": "https://api.github.com/users/maflcko",
      "html_url": "https://github.com/maflcko",
      "followers_url": "https://api.github.com/users/maflcko/followers",
      "following_url": "https://api.github.com/users/maflcko/following{/other_user}",
      "gists_url": "https://api.github.com/users/maflcko/gists{/gist_id}",
      "starred_url": "https://api.github.com/users/maflcko/starred{/owner}{/repo}",
      "subscriptions_url": "https://api.github.com/users/maflcko/subscriptions",
      "organizations_url": "https://api.github.com/users/maflcko/orgs",
      "repos_url": "https://api.github.com/users/maflcko/repos",
      "events_url": "https://api.github.com/users/maflcko/events{/privacy}",
      "received_events_url": "https://api.github.com/users/maflcko/received_events",
      "type": "User",
      "site_admin": false
    },
    "created_at": "2018-05-15T15:33:20Z",
    "updated_at": "2018-05-15T15:33:20Z",
    "author_association": "MEMBER",
    "body_html": "<p dir=\"auto\">re-utACK <a class=\"commit-link\" data-hovercard-type=\"commit\" data-hovercard-url=\"https://github.com/bitcoin/bitcoin/commit/87fe292d897e09e176ac7e254144466c319cc9ac/hovercard\" href=\"https://github.com/bitcoin/bitcoin/commit/87fe292d897e09e176ac7e254144466c319cc9ac\"><tt>87fe292</tt></a> (no changes other than rebase)</p>",
    "body_text": "re-utACK 87fe292 (no changes other than rebase)",
    "body": "re-utACK 87fe292 (no changes other than rebase)",
    "reactions": {
      "url": "https://api.github.com/repos/bitcoin/bitcoin/issues/comments/389211132/reactions",
      "total_count": 0,
      "+1": 0,
      "-1": 0,
      "laugh": 0,
      "hooray": 0,
      "confused": 0,
      "heart": 0,
      "rocket": 0,
      "eyes": 0
    },
    "performed_via_github_app": null
  },
  {
    "url": "https://api.github.com/repos/bitcoin/bitcoin/issues/comments/389617466",
    "html_url": "https://github.com/bitcoin/bitcoin/pull/13134#issuecomment-389617466",
    "issue_url": "https://api.github.com/repos/bitcoin/bitcoin/issues/13134",
    "id": 389617466,
    "node_id": "MDEyOklzc3VlQ29tbWVudDM4OTYxNzQ2Ng==",
    "user": {
      "login": "jnewbery",
      "id": 1063656,
      "node_id": "MDQ6VXNlcjEwNjM2NTY=",
      "avatar_url": "https://avatars.githubusercontent.com/u/1063656?v=4",
      "gravatar_id": "",
      "url": "https://api.github.com/users/jnewbery",
      "html_url": "https://github.com/jnewbery",
      "followers_url": "https://api.github.com/users/jnewbery/followers",
      "following_url": "https://api.github.com/users/jnewbery/following{/other_user}",
      "gists_url": "https://api.github.com/users/jnewbery/gists{/gist_id}",
      "starred_url": "https://api.github.com/users/jnewbery/starred{/owner}{/repo}",
      "subscriptions_url": "https://api.github.com/users/jnewbery/subscriptions",
      "organizations_url": "https://api.github.com/users/jnewbery/orgs",
      "repos_url": "https://api.github.com/users/jnewbery/repos",
      "events_url": "https://api.github.com/users/jnewbery/events{/privacy}",
      "received_events_url": "https://api.github.com/users/jnewbery/received_events",
      "type": "User",
      "site_admin": false
    },
    "created_at": "2018-05-16T18:21:25Z",
    "updated_at": "2018-05-16T18:21:25Z",
    "author_association": "CONTRIBUTOR",
    "body_html": "<p dir=\"auto\">utACK <a class=\"commit-link\" data-hovercard-type=\"commit\" data-hovercard-url=\"https://github.com/bitcoin/bitcoin/commit/87fe292d897e09e176ac7e254144466c319cc9ac/hovercard\" href=\"https://github.com/bitcoin/bitcoin/commit/87fe292d897e09e176ac7e254144466c319cc9ac\"><tt>87fe292</tt></a></p>",
    "body_text": "utACK 87fe292",
    "body": "utACK 87fe292d897e09e176ac7e254144466c319cc9ac",
    "reactions": {
      "url": "https://api.github.com/repos/bitcoin/bitcoin/issues/comments/389617466/reactions",
      "total_count": 0,
      "+1": 0,
      "-1": 0,
      "laugh": 0,
      "hooray": 0,
      "confused": 0,
      "heart": 0,
      "rocket": 0,
      "eyes": 0
    },
    "performed_via_github_app": null
  },
  {
    "url": "https://api.github.com/repos/bitcoin/bitcoin/issues/comments/391483873",
    "html_url": "https://github.com/bitcoin/bitcoin/pull/13134#issuecomment-391483873",
    "issue_url": "https://api.github.com/repos/bitcoin/bitcoin/issues/13134",
    "id": 391483873,
    "node_id": "MDEyOklzc3VlQ29tbWVudDM5MTQ4Mzg3Mw==",
    "user": {
      "login": "maflcko",
      "id": 6399679,
      "node_id": "MDQ6VXNlcjYzOTk2Nzk=",
      "avatar_url": "https://avatars.githubusercontent.com/u/6399679?v=4",
      "gravatar_id": "",
      "url": "https://api.github.com/users/maflcko",
      "html_url": "https://github.com/maflcko",
      "followers_url": "https://api.github.com/users/maflcko/followers",
      "following_url": "https://api.github.com/users/maflcko/following{/other_user}",
      "gists_url": "https://api.github.com/users/maflcko/gists{/gist_id}",
      "starred_url": "https://api.github.com/users/maflcko/starred{/owner}{/repo}",
      "subscriptions_url": "https://api.github.com/users/maflcko/subscriptions",
      "organizations_url": "https://api.github.com/users/maflcko/orgs",
      "repos_url": "https://api.github.com/users/maflcko/repos",
      "events_url": "https://api.github.com/users/maflcko/events{/privacy}",
      "received_events_url": "https://api.github.com/users/maflcko/received_events",
      "type": "User",
      "site_admin": false
    },
    "created_at": "2018-05-23T20:23:00Z",
    "updated_at": "2018-05-23T20:23:00Z",
    "author_association": "MEMBER",
    "body_html": "<p dir=\"auto\"><a class=\"user-mention notranslate\" data-hovercard-type=\"user\" data-hovercard-url=\"/users/jonasschnelli/hovercard\" data-octo-click=\"hovercard-link-click\" data-octo-dimensions=\"link_type:self\" href=\"https://github.com/jonasschnelli\">@jonasschnelli</a> <a class=\"user-mention notranslate\" data-hovercard-type=\"user\" data-hovercard-url=\"/users/sdaftuar/hovercard\" data-octo-click=\"hovercard-link-click\" data-octo-dimensions=\"link_type:self\" href=\"https://github.com/sdaftuar\">@sdaftuar</a> Mind to re-ACK?</p>",
    "body_text": "@jonasschnelli @sdaftuar Mind to re-ACK?",
    "body": "@jonasschnelli @sdaftuar Mind to re-ACK?",
    "reactions": {
      "url": "https://api.github.com/repos/bitcoin/bitcoin/issues/comments/391483873/reactions",
      "total_count": 0,
      "+1": 0,
      "-1": 0,
      "laugh": 0,
      "hooray": 0,
      "confused": 0,
      "heart": 0,
      "rocket": 0,
      "eyes": 0
    },
    "performed_via_github_app": null
  },
  {
    "url": "https://api.github.com/repos/bitcoin/bitcoin/issues/comments/391531223",
    "html_url": "https://github.com/bitcoin/bitcoin/pull/13134#issuecomment-391531223",
    "issue_url": "https://api.github.com/repos/bitcoin/bitcoin/issues/13134",
    "id": 391531223,
    "node_id": "MDEyOklzc3VlQ29tbWVudDM5MTUzMTIyMw==",
    "user": {
      "login": "sipa",
      "id": 548488,
      "node_id": "MDQ6VXNlcjU0ODQ4OA==",
      "avatar_url": "https://avatars.githubusercontent.com/u/548488?v=4",
      "gravatar_id": "",
      "url": "https://api.github.com/users/sipa",
      "html_url": "https://github.com/sipa",
      "followers_url": "https://api.github.com/users/sipa/followers",
      "following_url": "https://api.github.com/users/sipa/following{/other_user}",
      "gists_url": "https://api.github.com/users/sipa/gists{/gist_id}",
      "starred_url": "https://api.github.com/users/sipa/starred{/owner}{/repo}",
      "subscriptions_url": "https://api.github.com/users/sipa/subscriptions",
      "organizations_url": "https://api.github.com/users/sipa/orgs",
      "repos_url": "https://api.github.com/users/sipa/repos",
      "events_url": "https://api.github.com/users/sipa/events{/privacy}",
      "received_events_url": "https://api.github.com/users/sipa/received_events",
      "type": "User",
      "site_admin": false
    },
    "created_at": "2018-05-23T23:22:01Z",
    "updated_at": "2018-05-23T23:22:01Z",
    "author_association": "MEMBER",
    "body_html": "<p dir=\"auto\">utACK <a class=\"commit-link\" data-hovercard-type=\"commit\" data-hovercard-url=\"https://github.com/bitcoin/bitcoin/commit/87fe292d897e09e176ac7e254144466c319cc9ac/hovercard\" href=\"https://github.com/bitcoin/bitcoin/commit/87fe292d897e09e176ac7e254144466c319cc9ac\"><tt>87fe292</tt></a></p>",
    "body_text": "utACK 87fe292",
    "body": "utACK 87fe292d897e09e176ac7e254144466c319cc9ac",
    "reactions": {
      "url": "https://api.github.com/repos/bitcoin/bitcoin/issues/comments/391531223/reactions",
      "total_count": 0,
      "+1": 0,
      "-1": 0,
      "laugh": 0,
      "hooray": 0,
      "confused": 0,
      "heart": 0,
      "rocket": 0,
      "eyes": 0
    },
    "performed_via_github_app": null
  }
]
