[
  {
    "url": "https://api.github.com/repos/bitcoin/bitcoin/issues/comments/1401743539",
    "html_url": "https://github.com/bitcoin/bitcoin/pull/26960#issuecomment-1401743539",
    "issue_url": "https://api.github.com/repos/bitcoin/bitcoin/issues/26960",
    "id": 1401743539,
    "node_id": "IC_kwDOABII585TjOiz",
    "user": {
      "login": "DrahtBot",
      "id": 39886733,
      "node_id": "MDQ6VXNlcjM5ODg2NzMz",
      "avatar_url": "https://avatars.githubusercontent.com/u/39886733?v=4",
      "gravatar_id": "",
      "url": "https://api.github.com/users/DrahtBot",
      "html_url": "https://github.com/DrahtBot",
      "followers_url": "https://api.github.com/users/DrahtBot/followers",
      "following_url": "https://api.github.com/users/DrahtBot/following{/other_user}",
      "gists_url": "https://api.github.com/users/DrahtBot/gists{/gist_id}",
      "starred_url": "https://api.github.com/users/DrahtBot/starred{/owner}{/repo}",
      "subscriptions_url": "https://api.github.com/users/DrahtBot/subscriptions",
      "organizations_url": "https://api.github.com/users/DrahtBot/orgs",
      "repos_url": "https://api.github.com/users/DrahtBot/repos",
      "events_url": "https://api.github.com/users/DrahtBot/events{/privacy}",
      "received_events_url": "https://api.github.com/users/DrahtBot/received_events",
      "type": "User",
      "site_admin": false
    },
    "created_at": "2023-01-24T11:04:15Z",
    "updated_at": "2023-01-25T16:05:11Z",
    "author_association": "CONTRIBUTOR",
    "body_html": "\n<p dir=\"auto\">The following sections might be updated with supplementary metadata relevant to reviewers and maintainers.</p>\n\n<h3 dir=\"auto\">Reviews</h3>\n<p dir=\"auto\">See <a href=\"https://github.com/bitcoin/bitcoin/blob/master/CONTRIBUTING.md#code-review\">the guideline</a> for information on the review process.</p>\n<table role=\"table\">\n<thead>\n<tr>\n<th>Type</th>\n<th>Reviewers</th>\n</tr>\n</thead>\n<tbody>\n<tr>\n<td>ACK</td>\n<td><a href=\"https://github.com/bitcoin/bitcoin/pull/26960#pullrequestreview-1269237712\" data-hovercard-type=\"pull_request\" data-hovercard-url=\"/bitcoin/bitcoin/pull/26960/hovercard\">stickies-v</a>, <a href=\"https://github.com/bitcoin/bitcoin/pull/26960#pullrequestreview-1269246190\" data-hovercard-type=\"pull_request\" data-hovercard-url=\"/bitcoin/bitcoin/pull/26960/hovercard\">aureleoules</a>, <a href=\"https://github.com/bitcoin/bitcoin/pull/26960#pullrequestreview-1269644492\" data-hovercard-type=\"pull_request\" data-hovercard-url=\"/bitcoin/bitcoin/pull/26960/hovercard\">theStack</a></td>\n</tr>\n</tbody>\n</table>\n<p dir=\"auto\">If your review is incorrectly listed, please react with 👎 to this comment and the bot will ignore it on the next update.</p>\n\n<h3 dir=\"auto\">Conflicts</h3>\n<p dir=\"auto\">Reviewers, this pull request conflicts with the following ones:</p>\n<ul dir=\"auto\">\n<li><a href=\"https://github.com/bitcoin/bitcoin/pull/26763\" data-hovercard-type=\"pull_request\" data-hovercard-url=\"/bitcoin/bitcoin/pull/26763/hovercard\">#26763</a> (ci: Treat IWYU violations as errors by hebasto)</li>\n</ul>\n<p dir=\"auto\">If you consider this pull request important, please also help to review the conflicting pull requests. Ideally, start with the one that should be merged first.</p>",
    "body_text": "The following sections might be updated with supplementary metadata relevant to reviewers and maintainers.\n\nReviews\nSee the guideline for information on the review process.\n\n\n\nType\nReviewers\n\n\n\n\nACK\nstickies-v, aureleoules, theStack\n\n\n\nIf your review is incorrectly listed, please react with 👎 to this comment and the bot will ignore it on the next update.\n\nConflicts\nReviewers, this pull request conflicts with the following ones:\n\n#26763 (ci: Treat IWYU violations as errors by hebasto)\n\nIf you consider this pull request important, please also help to review the conflicting pull requests. Ideally, start with the one that should be merged first.",
    "body": "<!--e57a25ab6845829454e8d69fc972939a-->\n\nThe following sections might be updated with supplementary metadata relevant to reviewers and maintainers.\n\n<!--021abf342d371248e50ceaed478a90ca-->\n### Reviews\nSee [the guideline](https://github.com/bitcoin/bitcoin/blob/master/CONTRIBUTING.md#code-review) for information on the review process.\n| Type | Reviewers |\n| ---- | --------- |\n| ACK | [stickies-v](https://github.com/bitcoin/bitcoin/pull/26960#pullrequestreview-1269237712), [aureleoules](https://github.com/bitcoin/bitcoin/pull/26960#pullrequestreview-1269246190), [theStack](https://github.com/bitcoin/bitcoin/pull/26960#pullrequestreview-1269644492) |\n\nIf your review is incorrectly listed, please react with 👎 to this comment and the bot will ignore it on the next update.\n<!--174a7506f384e20aa4161008e828411d-->\n### Conflicts\nReviewers, this pull request conflicts with the following ones:\n\n* [#26763](https://github.com/bitcoin/bitcoin/pull/26763) (ci: Treat IWYU violations as errors by hebasto)\n\nIf you consider this pull request important, please also help to review the conflicting pull requests. Ideally, start with the one that should be merged first.\n",
    "reactions": {
      "url": "https://api.github.com/repos/bitcoin/bitcoin/issues/comments/1401743539/reactions",
      "total_count": 0,
      "+1": 0,
      "-1": 0,
      "laugh": 0,
      "hooray": 0,
      "confused": 0,
      "heart": 0,
      "rocket": 0,
      "eyes": 0
    },
    "performed_via_github_app": null
  },
  {
    "url": "https://api.github.com/repos/bitcoin/bitcoin/issues/comments/1403439746",
    "html_url": "https://github.com/bitcoin/bitcoin/pull/26960#issuecomment-1403439746",
    "issue_url": "https://api.github.com/repos/bitcoin/bitcoin/issues/26960",
    "id": 1403439746,
    "node_id": "IC_kwDOABII585TpsqC",
    "user": {
      "login": "stickies-v",
      "id": 69010457,
      "node_id": "MDQ6VXNlcjY5MDEwNDU3",
      "avatar_url": "https://avatars.githubusercontent.com/u/69010457?v=4",
      "gravatar_id": "",
      "url": "https://api.github.com/users/stickies-v",
      "html_url": "https://github.com/stickies-v",
      "followers_url": "https://api.github.com/users/stickies-v/followers",
      "following_url": "https://api.github.com/users/stickies-v/following{/other_user}",
      "gists_url": "https://api.github.com/users/stickies-v/gists{/gist_id}",
      "starred_url": "https://api.github.com/users/stickies-v/starred{/owner}{/repo}",
      "subscriptions_url": "https://api.github.com/users/stickies-v/subscriptions",
      "organizations_url": "https://api.github.com/users/stickies-v/orgs",
      "repos_url": "https://api.github.com/users/stickies-v/repos",
      "events_url": "https://api.github.com/users/stickies-v/events{/privacy}",
      "received_events_url": "https://api.github.com/users/stickies-v/received_events",
      "type": "User",
      "site_admin": false
    },
    "created_at": "2023-01-25T11:05:48Z",
    "updated_at": "2023-01-25T11:05:48Z",
    "author_association": "CONTRIBUTOR",
    "body_html": "<p dir=\"auto\">Concept ACK</p>",
    "body_text": "Concept ACK",
    "body": "Concept ACK",
    "reactions": {
      "url": "https://api.github.com/repos/bitcoin/bitcoin/issues/comments/1403439746/reactions",
      "total_count": 0,
      "+1": 0,
      "-1": 0,
      "laugh": 0,
      "hooray": 0,
      "confused": 0,
      "heart": 0,
      "rocket": 0,
      "eyes": 0
    },
    "performed_via_github_app": null
  },
  {
    "url": "https://api.github.com/repos/bitcoin/bitcoin/issues/comments/1403528572",
    "html_url": "https://github.com/bitcoin/bitcoin/pull/26960#issuecomment-1403528572",
    "issue_url": "https://api.github.com/repos/bitcoin/bitcoin/issues/26960",
    "id": 1403528572,
    "node_id": "IC_kwDOABII585TqCV8",
    "user": {
      "login": "maflcko",
      "id": 6399679,
      "node_id": "MDQ6VXNlcjYzOTk2Nzk=",
      "avatar_url": "https://avatars.githubusercontent.com/u/6399679?v=4",
      "gravatar_id": "",
      "url": "https://api.github.com/users/maflcko",
      "html_url": "https://github.com/maflcko",
      "followers_url": "https://api.github.com/users/maflcko/followers",
      "following_url": "https://api.github.com/users/maflcko/following{/other_user}",
      "gists_url": "https://api.github.com/users/maflcko/gists{/gist_id}",
      "starred_url": "https://api.github.com/users/maflcko/starred{/owner}{/repo}",
      "subscriptions_url": "https://api.github.com/users/maflcko/subscriptions",
      "organizations_url": "https://api.github.com/users/maflcko/orgs",
      "repos_url": "https://api.github.com/users/maflcko/repos",
      "events_url": "https://api.github.com/users/maflcko/events{/privacy}",
      "received_events_url": "https://api.github.com/users/maflcko/received_events",
      "type": "User",
      "site_admin": false
    },
    "created_at": "2023-01-25T12:24:36Z",
    "updated_at": "2023-01-25T12:24:36Z",
    "author_association": "MEMBER",
    "body_html": "<p dir=\"auto\">Yeah, it might be fine, but I'd prefer to wait for C++23 consteval. Otherwise there seems to be the risk that an <code class=\"notranslate\">Assert</code> will eat linear time at runtime in the length of the message, even if the assert is not hit.</p>",
    "body_text": "Yeah, it might be fine, but I'd prefer to wait for C++23 consteval. Otherwise there seems to be the risk that an Assert will eat linear time at runtime in the length of the message, even if the assert is not hit.",
    "body": "Yeah, it might be fine, but I'd prefer to wait for C++23 consteval. Otherwise there seems to be the risk that an `Assert` will eat linear time at runtime in the length of the message, even if the assert is not hit.",
    "reactions": {
      "url": "https://api.github.com/repos/bitcoin/bitcoin/issues/comments/1403528572/reactions",
      "total_count": 0,
      "+1": 0,
      "-1": 0,
      "laugh": 0,
      "hooray": 0,
      "confused": 0,
      "heart": 0,
      "rocket": 0,
      "eyes": 0
    },
    "performed_via_github_app": null
  },
  {
    "url": "https://api.github.com/repos/bitcoin/bitcoin/issues/comments/1403565628",
    "html_url": "https://github.com/bitcoin/bitcoin/pull/26960#issuecomment-1403565628",
    "issue_url": "https://api.github.com/repos/bitcoin/bitcoin/issues/26960",
    "id": 1403565628,
    "node_id": "IC_kwDOABII585TqLY8",
    "user": {
      "login": "stickies-v",
      "id": 69010457,
      "node_id": "MDQ6VXNlcjY5MDEwNDU3",
      "avatar_url": "https://avatars.githubusercontent.com/u/69010457?v=4",
      "gravatar_id": "",
      "url": "https://api.github.com/users/stickies-v",
      "html_url": "https://github.com/stickies-v",
      "followers_url": "https://api.github.com/users/stickies-v/followers",
      "following_url": "https://api.github.com/users/stickies-v/following{/other_user}",
      "gists_url": "https://api.github.com/users/stickies-v/gists{/gist_id}",
      "starred_url": "https://api.github.com/users/stickies-v/starred{/owner}{/repo}",
      "subscriptions_url": "https://api.github.com/users/stickies-v/subscriptions",
      "organizations_url": "https://api.github.com/users/stickies-v/orgs",
      "repos_url": "https://api.github.com/users/stickies-v/repos",
      "events_url": "https://api.github.com/users/stickies-v/events{/privacy}",
      "received_events_url": "https://api.github.com/users/stickies-v/received_events",
      "type": "User",
      "site_admin": false
    },
    "created_at": "2023-01-25T12:56:07Z",
    "updated_at": "2023-01-25T12:56:07Z",
    "author_association": "CONTRIBUTOR",
    "body_html": "<blockquote>\n<p dir=\"auto\">Yeah, it might be fine, but I'd prefer to wait for C++23 consteval. Otherwise there seems to be the risk that an <code class=\"notranslate\">Assert</code> will eat linear time at runtime in the length of the message, even if the assert is not hit.</p>\n</blockquote>\n<p dir=\"auto\">If I understand correctly: because if we start using these helpers to take <code class=\"notranslate\">string_view</code>, they'd have to calculate the length of the array at run-time every time <code class=\"notranslate\">Assert</code>/<code class=\"notranslate\">Assume</code> functions are called, and since those are called quite a lot and most of the time we expect them not to fail (i.e. the <code class=\"notranslate\">string_view</code>s go completely unused), that would be a waste. With <code class=\"notranslate\">consteval</code> (I <a href=\"https://en.cppreference.com/w/cpp/language/consteval\" rel=\"nofollow\">think</a> it's since C++20 already?) that run-time complexity would be avoided since everything is inlined and calculated at compile-time.</p>\n<p dir=\"auto\">If so, nit: worth adding a little <code class=\"notranslate\">// TODO</code> comment to document that with C++20 we can use <code class=\"notranslate\">consteval</code> and <code class=\"notranslate\">string_view</code>? Personally, I find those quite helpful.</p>",
    "body_text": "Yeah, it might be fine, but I'd prefer to wait for C++23 consteval. Otherwise there seems to be the risk that an Assert will eat linear time at runtime in the length of the message, even if the assert is not hit.\n\nIf I understand correctly: because if we start using these helpers to take string_view, they'd have to calculate the length of the array at run-time every time Assert/Assume functions are called, and since those are called quite a lot and most of the time we expect them not to fail (i.e. the string_views go completely unused), that would be a waste. With consteval (I think it's since C++20 already?) that run-time complexity would be avoided since everything is inlined and calculated at compile-time.\nIf so, nit: worth adding a little // TODO comment to document that with C++20 we can use consteval and string_view? Personally, I find those quite helpful.",
    "body": "> Yeah, it might be fine, but I'd prefer to wait for C++23 consteval. Otherwise there seems to be the risk that an `Assert` will eat linear time at runtime in the length of the message, even if the assert is not hit.\r\n\r\nIf I understand correctly: because if we start using these helpers to take `string_view`, they'd have to calculate the length of the array at run-time every time `Assert`/`Assume` functions are called, and since those are called quite a lot and most of the time we expect them not to fail (i.e. the `string_view`s go completely unused), that would be a waste. With `consteval` (I [think](https://en.cppreference.com/w/cpp/language/consteval) it's since C++20 already?) that run-time complexity would be avoided since everything is inlined and calculated at compile-time. \r\n\r\nIf so, nit: worth adding a little `// TODO` comment to document that with C++20 we can use `consteval` and `string_view`? Personally, I find those quite helpful.",
    "reactions": {
      "url": "https://api.github.com/repos/bitcoin/bitcoin/issues/comments/1403565628/reactions",
      "total_count": 0,
      "+1": 0,
      "-1": 0,
      "laugh": 0,
      "hooray": 0,
      "confused": 0,
      "heart": 0,
      "rocket": 0,
      "eyes": 0
    },
    "performed_via_github_app": null
  },
  {
    "url": "https://api.github.com/repos/bitcoin/bitcoin/issues/comments/1403633984",
    "html_url": "https://github.com/bitcoin/bitcoin/pull/26960#issuecomment-1403633984",
    "issue_url": "https://api.github.com/repos/bitcoin/bitcoin/issues/26960",
    "id": 1403633984,
    "node_id": "IC_kwDOABII585TqcFA",
    "user": {
      "login": "maflcko",
      "id": 6399679,
      "node_id": "MDQ6VXNlcjYzOTk2Nzk=",
      "avatar_url": "https://avatars.githubusercontent.com/u/6399679?v=4",
      "gravatar_id": "",
      "url": "https://api.github.com/users/maflcko",
      "html_url": "https://github.com/maflcko",
      "followers_url": "https://api.github.com/users/maflcko/followers",
      "following_url": "https://api.github.com/users/maflcko/following{/other_user}",
      "gists_url": "https://api.github.com/users/maflcko/gists{/gist_id}",
      "starred_url": "https://api.github.com/users/maflcko/starred{/owner}{/repo}",
      "subscriptions_url": "https://api.github.com/users/maflcko/subscriptions",
      "organizations_url": "https://api.github.com/users/maflcko/orgs",
      "repos_url": "https://api.github.com/users/maflcko/repos",
      "events_url": "https://api.github.com/users/maflcko/events{/privacy}",
      "received_events_url": "https://api.github.com/users/maflcko/received_events",
      "type": "User",
      "site_admin": false
    },
    "created_at": "2023-01-25T13:37:14Z",
    "updated_at": "2023-01-25T13:37:14Z",
    "author_association": "MEMBER",
    "body_html": "<p dir=\"auto\">Thanks, done in <a class=\"issue-link js-issue-link\" data-error-text=\"Failed to load title\" data-id=\"1036442681\" data-permission-text=\"Title is private\" data-url=\"https://github.com/bitcoin/bitcoin/issues/23363\" data-hovercard-type=\"issue\" data-hovercard-url=\"/bitcoin/bitcoin/issues/23363/hovercard?comment_id=1403633494&amp;comment_type=issue_comment\" href=\"https://github.com/bitcoin/bitcoin/issues/23363#issuecomment-1403633494\">#23363 (comment)</a></p>",
    "body_text": "Thanks, done in #23363 (comment)",
    "body": "Thanks, done in https://github.com/bitcoin/bitcoin/issues/23363#issuecomment-1403633494",
    "reactions": {
      "url": "https://api.github.com/repos/bitcoin/bitcoin/issues/comments/1403633984/reactions",
      "total_count": 1,
      "+1": 1,
      "-1": 0,
      "laugh": 0,
      "hooray": 0,
      "confused": 0,
      "heart": 0,
      "rocket": 0,
      "eyes": 0
    },
    "performed_via_github_app": null
  },
  {
    "url": "https://api.github.com/repos/bitcoin/bitcoin/issues/comments/1856761834",
    "html_url": "https://github.com/bitcoin/bitcoin/pull/26960#issuecomment-1856761834",
    "issue_url": "https://api.github.com/repos/bitcoin/bitcoin/issues/26960",
    "id": 1856761834,
    "node_id": "IC_kwDOABII585uq-_q",
    "user": {
      "login": "maflcko",
      "id": 6399679,
      "node_id": "MDQ6VXNlcjYzOTk2Nzk=",
      "avatar_url": "https://avatars.githubusercontent.com/u/6399679?v=4",
      "gravatar_id": "",
      "url": "https://api.github.com/users/maflcko",
      "html_url": "https://github.com/maflcko",
      "followers_url": "https://api.github.com/users/maflcko/followers",
      "following_url": "https://api.github.com/users/maflcko/following{/other_user}",
      "gists_url": "https://api.github.com/users/maflcko/gists{/gist_id}",
      "starred_url": "https://api.github.com/users/maflcko/starred{/owner}{/repo}",
      "subscriptions_url": "https://api.github.com/users/maflcko/subscriptions",
      "organizations_url": "https://api.github.com/users/maflcko/orgs",
      "repos_url": "https://api.github.com/users/maflcko/repos",
      "events_url": "https://api.github.com/users/maflcko/events{/privacy}",
      "received_events_url": "https://api.github.com/users/maflcko/received_events",
      "type": "User",
      "site_admin": false
    },
    "created_at": "2023-12-14T22:08:53Z",
    "updated_at": "2023-12-14T22:08:53Z",
    "author_association": "MEMBER",
    "body_html": "<blockquote>\n<p dir=\"auto\">If so, nit: worth adding a little <code class=\"notranslate\">// TODO</code> comment to document that with C++20 we can use <code class=\"notranslate\">consteval</code> and <code class=\"notranslate\">string_view</code>? Personally, I find those quite helpful.</p>\n</blockquote>\n<p dir=\"auto\">I tried this and it seems to compile, but I don't think it is worth it:</p>\n<div class=\"highlight highlight-source-diff notranslate position-relative overflow-auto\" dir=\"auto\" data-snippet-clipboard-copy-content=\"diff --git a/src/util/check.h b/src/util/check.h\nindex a02a1de8dc..f15117daef 100644\n--- a/src/util/check.h\n+++ b/src/util/check.h\n@@ -21,9 +21,11 @@ public:\n     NonFatalCheckError(std::string_view msg, std::string_view file, int line, std::string_view func);\n };\n \n+consteval std::string_view inline_String_View(const char* sv) { return std::string_view{sv}; }\n+\n /** Helper for CHECK_NONFATAL() */\n template &lt;typename T&gt;\n-T&amp;&amp; inline_check_non_fatal(LIFETIMEBOUND T&amp;&amp; val, const char* file, int line, const char* func, const char* assertion)\n+T&amp;&amp; inline_check_non_fatal(LIFETIMEBOUND T&amp;&amp; val, std::string_view file, int line, std::string_view func, std::string_view assertion)\n {\n     if (!val) {\n         throw NonFatalCheckError{assertion, file, line, func};\n@@ -40,7 +42,7 @@ void assertion_fail(std::string_view file, int line, std::string_view func, std:\n \n /** Helper for Assert()/Assume() */\n template &lt;bool IS_ASSERT, typename T&gt;\n-T&amp;&amp; inline_assertion_check(LIFETIMEBOUND T&amp;&amp; val, [[maybe_unused]] const char* file, [[maybe_unused]] int line, [[maybe_unused]] const char* func, [[maybe_unused]] const char* assertion)\n+T&amp;&amp; inline_assertion_check(LIFETIMEBOUND T&amp;&amp; val, [[maybe_unused]] std::string_view file, [[maybe_unused]] int line, [[maybe_unused]] std::string_view func, [[maybe_unused]] std::string_view assertion)\n {\n     if constexpr (IS_ASSERT\n #ifdef ABORT_ON_FAILED_ASSUME\n@@ -74,7 +76,7 @@ T&amp;&amp; inline_assertion_check(LIFETIMEBOUND T&amp;&amp; val, [[maybe_unused]] const char* f\n     inline_check_non_fatal(condition, __FILE__, __LINE__, __func__, #condition)\n \n /** Identity function. Abort if the value compares equal to zero */\n-#define Assert(val) inline_assertion_check&lt;true&gt;(val, __FILE__, __LINE__, __func__, #val)\n+#define Assert(val) inline_assertion_check&lt;true&gt;(val, inline_String_View(__FILE__), __LINE__, __func__, #val)\n \n /**\n  * Assume is the identity function.\"><pre class=\"notranslate\"><span class=\"pl-c1\">diff --git a/src/util/check.h b/src/util/check.h</span>\nindex a02a1de8dc..f15117daef 100644\n<span class=\"pl-md\">--- a/src/util/check.h</span>\n<span class=\"pl-mi1\">+++ b/src/util/check.h</span>\n<span class=\"pl-mdr\">@@ -21,9 +21,11 @@</span> public:\n     NonFatalCheckError(std::string_view msg, std::string_view file, int line, std::string_view func);\n };\n \n<span class=\"pl-mi1\"><span class=\"pl-mi1\">+</span>consteval std::string_view inline_String_View(const char* sv) { return std::string_view{sv}; }</span>\n<span class=\"pl-mi1\"><span class=\"pl-mi1\">+</span></span>\n /** Helper for CHECK_NONFATAL() */\n template &lt;typename T&gt;\n<span class=\"pl-md\"><span class=\"pl-md\">-</span>T&amp;&amp; inline_check_non_fatal(LIFETIMEBOUND T&amp;&amp; val, const char* file, int line, const char* func, const char* assertion)</span>\n<span class=\"pl-mi1\"><span class=\"pl-mi1\">+</span>T&amp;&amp; inline_check_non_fatal(LIFETIMEBOUND T&amp;&amp; val, std::string_view file, int line, std::string_view func, std::string_view assertion)</span>\n {\n     if (!val) {\n         throw NonFatalCheckError{assertion, file, line, func};\n<span class=\"pl-mdr\">@@ -40,7 +42,7 @@</span> void assertion_fail(std::string_view file, int line, std::string_view func, std:\n \n /** Helper for Assert()/Assume() */\n template &lt;bool IS_ASSERT, typename T&gt;\n<span class=\"pl-md\"><span class=\"pl-md\">-</span>T&amp;&amp; inline_assertion_check(LIFETIMEBOUND T&amp;&amp; val, [[maybe_unused]] const char* file, [[maybe_unused]] int line, [[maybe_unused]] const char* func, [[maybe_unused]] const char* assertion)</span>\n<span class=\"pl-mi1\"><span class=\"pl-mi1\">+</span>T&amp;&amp; inline_assertion_check(LIFETIMEBOUND T&amp;&amp; val, [[maybe_unused]] std::string_view file, [[maybe_unused]] int line, [[maybe_unused]] std::string_view func, [[maybe_unused]] std::string_view assertion)</span>\n {\n     if constexpr (IS_ASSERT\n #ifdef ABORT_ON_FAILED_ASSUME\n<span class=\"pl-mdr\">@@ -74,7 +76,7 @@</span> T&amp;&amp; inline_assertion_check(LIFETIMEBOUND T&amp;&amp; val, [[maybe_unused]] const char* f\n     inline_check_non_fatal(condition, __FILE__, __LINE__, __func__, #condition)\n \n /** Identity function. Abort if the value compares equal to zero */\n<span class=\"pl-md\"><span class=\"pl-md\">-</span>#define Assert(val) inline_assertion_check&lt;true&gt;(val, __FILE__, __LINE__, __func__, #val)</span>\n<span class=\"pl-mi1\"><span class=\"pl-mi1\">+</span>#define Assert(val) inline_assertion_check&lt;true&gt;(val, inline_String_View(__FILE__), __LINE__, __func__, #val)</span>\n \n /**\n  * Assume is the identity function.</pre></div>\n<p dir=\"auto\">Seems better to just remove the helper functions and macros and use a plain C++20 function, which would also make the compiler warning more useful, see <a class=\"issue-link js-issue-link\" data-error-text=\"Failed to load title\" data-id=\"2026366709\" data-permission-text=\"Title is private\" data-url=\"https://github.com/bitcoin/bitcoin/issues/28999\" data-hovercard-type=\"pull_request\" data-hovercard-url=\"/bitcoin/bitcoin/pull/28999/hovercard?comment_id=1851949647&amp;comment_type=issue_comment\" href=\"https://github.com/bitcoin/bitcoin/pull/28999#issuecomment-1851949647\">#28999 (comment)</a></p>",
    "body_text": "If so, nit: worth adding a little // TODO comment to document that with C++20 we can use consteval and string_view? Personally, I find those quite helpful.\n\nI tried this and it seems to compile, but I don't think it is worth it:\ndiff --git a/src/util/check.h b/src/util/check.h\nindex a02a1de8dc..f15117daef 100644\n--- a/src/util/check.h\n+++ b/src/util/check.h\n@@ -21,9 +21,11 @@ public:\n     NonFatalCheckError(std::string_view msg, std::string_view file, int line, std::string_view func);\n };\n \n+consteval std::string_view inline_String_View(const char* sv) { return std::string_view{sv}; }\n+\n /** Helper for CHECK_NONFATAL() */\n template <typename T>\n-T&& inline_check_non_fatal(LIFETIMEBOUND T&& val, const char* file, int line, const char* func, const char* assertion)\n+T&& inline_check_non_fatal(LIFETIMEBOUND T&& val, std::string_view file, int line, std::string_view func, std::string_view assertion)\n {\n     if (!val) {\n         throw NonFatalCheckError{assertion, file, line, func};\n@@ -40,7 +42,7 @@ void assertion_fail(std::string_view file, int line, std::string_view func, std:\n \n /** Helper for Assert()/Assume() */\n template <bool IS_ASSERT, typename T>\n-T&& inline_assertion_check(LIFETIMEBOUND T&& val, [[maybe_unused]] const char* file, [[maybe_unused]] int line, [[maybe_unused]] const char* func, [[maybe_unused]] const char* assertion)\n+T&& inline_assertion_check(LIFETIMEBOUND T&& val, [[maybe_unused]] std::string_view file, [[maybe_unused]] int line, [[maybe_unused]] std::string_view func, [[maybe_unused]] std::string_view assertion)\n {\n     if constexpr (IS_ASSERT\n #ifdef ABORT_ON_FAILED_ASSUME\n@@ -74,7 +76,7 @@ T&& inline_assertion_check(LIFETIMEBOUND T&& val, [[maybe_unused]] const char* f\n     inline_check_non_fatal(condition, __FILE__, __LINE__, __func__, #condition)\n \n /** Identity function. Abort if the value compares equal to zero */\n-#define Assert(val) inline_assertion_check<true>(val, __FILE__, __LINE__, __func__, #val)\n+#define Assert(val) inline_assertion_check<true>(val, inline_String_View(__FILE__), __LINE__, __func__, #val)\n \n /**\n  * Assume is the identity function.\nSeems better to just remove the helper functions and macros and use a plain C++20 function, which would also make the compiler warning more useful, see #28999 (comment)",
    "body": "> If so, nit: worth adding a little `// TODO` comment to document that with C++20 we can use `consteval` and `string_view`? Personally, I find those quite helpful.\r\n\r\nI tried this and it seems to compile, but I don't think it is worth it:\r\n\r\n```diff\r\ndiff --git a/src/util/check.h b/src/util/check.h\r\nindex a02a1de8dc..f15117daef 100644\r\n--- a/src/util/check.h\r\n+++ b/src/util/check.h\r\n@@ -21,9 +21,11 @@ public:\r\n     NonFatalCheckError(std::string_view msg, std::string_view file, int line, std::string_view func);\r\n };\r\n \r\n+consteval std::string_view inline_String_View(const char* sv) { return std::string_view{sv}; }\r\n+\r\n /** Helper for CHECK_NONFATAL() */\r\n template <typename T>\r\n-T&& inline_check_non_fatal(LIFETIMEBOUND T&& val, const char* file, int line, const char* func, const char* assertion)\r\n+T&& inline_check_non_fatal(LIFETIMEBOUND T&& val, std::string_view file, int line, std::string_view func, std::string_view assertion)\r\n {\r\n     if (!val) {\r\n         throw NonFatalCheckError{assertion, file, line, func};\r\n@@ -40,7 +42,7 @@ void assertion_fail(std::string_view file, int line, std::string_view func, std:\r\n \r\n /** Helper for Assert()/Assume() */\r\n template <bool IS_ASSERT, typename T>\r\n-T&& inline_assertion_check(LIFETIMEBOUND T&& val, [[maybe_unused]] const char* file, [[maybe_unused]] int line, [[maybe_unused]] const char* func, [[maybe_unused]] const char* assertion)\r\n+T&& inline_assertion_check(LIFETIMEBOUND T&& val, [[maybe_unused]] std::string_view file, [[maybe_unused]] int line, [[maybe_unused]] std::string_view func, [[maybe_unused]] std::string_view assertion)\r\n {\r\n     if constexpr (IS_ASSERT\r\n #ifdef ABORT_ON_FAILED_ASSUME\r\n@@ -74,7 +76,7 @@ T&& inline_assertion_check(LIFETIMEBOUND T&& val, [[maybe_unused]] const char* f\r\n     inline_check_non_fatal(condition, __FILE__, __LINE__, __func__, #condition)\r\n \r\n /** Identity function. Abort if the value compares equal to zero */\r\n-#define Assert(val) inline_assertion_check<true>(val, __FILE__, __LINE__, __func__, #val)\r\n+#define Assert(val) inline_assertion_check<true>(val, inline_String_View(__FILE__), __LINE__, __func__, #val)\r\n \r\n /**\r\n  * Assume is the identity function.\r\n```\r\n\r\nSeems better to just remove the helper functions and macros and use a plain C++20 function, which would also make the compiler warning more useful, see https://github.com/bitcoin/bitcoin/pull/28999#issuecomment-1851949647",
    "reactions": {
      "url": "https://api.github.com/repos/bitcoin/bitcoin/issues/comments/1856761834/reactions",
      "total_count": 2,
      "+1": 2,
      "-1": 0,
      "laugh": 0,
      "hooray": 0,
      "confused": 0,
      "heart": 0,
      "rocket": 0,
      "eyes": 0
    },
    "performed_via_github_app": null
  }
]
