{
  "url": "https://api.github.com/repos/bitcoin/bitcoin/issues/10232",
  "repository_url": "https://api.github.com/repos/bitcoin/bitcoin",
  "labels_url": "https://api.github.com/repos/bitcoin/bitcoin/issues/10232/labels{/name}",
  "comments_url": "https://api.github.com/repos/bitcoin/bitcoin/issues/10232/comments",
  "events_url": "https://api.github.com/repos/bitcoin/bitcoin/issues/10232/events",
  "html_url": "https://github.com/bitcoin/bitcoin/pull/10232",
  "id": 222800671,
  "node_id": "MDExOlB1bGxSZXF1ZXN0MTE2NTkyNzE2",
  "number": 10232,
  "title": "[0.14] release-notes: Accurately explain getblocktemplate improvements",
  "user": {
    "login": "luke-jr",
    "id": 1095675,
    "node_id": "MDQ6VXNlcjEwOTU2NzU=",
    "avatar_url": "https://avatars.githubusercontent.com/u/1095675?v=4",
    "gravatar_id": "",
    "url": "https://api.github.com/users/luke-jr",
    "html_url": "https://github.com/luke-jr",
    "followers_url": "https://api.github.com/users/luke-jr/followers",
    "following_url": "https://api.github.com/users/luke-jr/following{/other_user}",
    "gists_url": "https://api.github.com/users/luke-jr/gists{/gist_id}",
    "starred_url": "https://api.github.com/users/luke-jr/starred{/owner}{/repo}",
    "subscriptions_url": "https://api.github.com/users/luke-jr/subscriptions",
    "organizations_url": "https://api.github.com/users/luke-jr/orgs",
    "repos_url": "https://api.github.com/users/luke-jr/repos",
    "events_url": "https://api.github.com/users/luke-jr/events{/privacy}",
    "received_events_url": "https://api.github.com/users/luke-jr/received_events",
    "type": "User",
    "site_admin": false
  },
  "labels": [
    {
      "id": 148216,
      "node_id": "MDU6TGFiZWwxNDgyMTY=",
      "url": "https://api.github.com/repos/bitcoin/bitcoin/labels/Docs",
      "name": "Docs",
      "color": "02d7e1",
      "default": false,
      "description": null
    }
  ],
  "state": "closed",
  "locked": true,
  "assignee": null,
  "assignees": [

  ],
  "milestone": {
    "url": "https://api.github.com/repos/bitcoin/bitcoin/milestones/27",
    "html_url": "https://github.com/bitcoin/bitcoin/milestone/27",
    "labels_url": "https://api.github.com/repos/bitcoin/bitcoin/milestones/27/labels",
    "id": 2337607,
    "node_id": "MDk6TWlsZXN0b25lMjMzNzYwNw==",
    "number": 27,
    "title": "0.14.1",
    "description": "",
    "creator": {
      "login": "fanquake",
      "id": 863730,
      "node_id": "MDQ6VXNlcjg2MzczMA==",
      "avatar_url": "https://avatars.githubusercontent.com/u/863730?v=4",
      "gravatar_id": "",
      "url": "https://api.github.com/users/fanquake",
      "html_url": "https://github.com/fanquake",
      "followers_url": "https://api.github.com/users/fanquake/followers",
      "following_url": "https://api.github.com/users/fanquake/following{/other_user}",
      "gists_url": "https://api.github.com/users/fanquake/gists{/gist_id}",
      "starred_url": "https://api.github.com/users/fanquake/starred{/owner}{/repo}",
      "subscriptions_url": "https://api.github.com/users/fanquake/subscriptions",
      "organizations_url": "https://api.github.com/users/fanquake/orgs",
      "repos_url": "https://api.github.com/users/fanquake/repos",
      "events_url": "https://api.github.com/users/fanquake/events{/privacy}",
      "received_events_url": "https://api.github.com/users/fanquake/received_events",
      "type": "User",
      "site_admin": false
    },
    "open_issues": 0,
    "closed_issues": 26,
    "state": "closed",
    "created_at": "2017-02-21T12:32:10Z",
    "updated_at": "2017-04-23T13:06:49Z",
    "due_on": null,
    "closed_at": "2017-04-23T13:06:49Z"
  },
  "comments": 2,
  "created_at": "2017-04-19T16:46:12Z",
  "updated_at": "2021-09-08T11:25:17Z",
  "closed_at": "2017-04-20T09:28:45Z",
  "author_association": "MEMBER",
  "active_lock_reason": "resolved",
  "draft": false,
  "pull_request": {
    "url": "https://api.github.com/repos/bitcoin/bitcoin/pulls/10232",
    "html_url": "https://github.com/bitcoin/bitcoin/pull/10232",
    "diff_url": "https://github.com/bitcoin/bitcoin/pull/10232.diff",
    "patch_url": "https://github.com/bitcoin/bitcoin/pull/10232.patch",
    "merged_at": "2017-04-20T09:28:45Z"
  },
  "body_html": "",
  "body_text": "",
  "body": "",
  "closed_by": {
    "login": "laanwj",
    "id": 126646,
    "node_id": "MDQ6VXNlcjEyNjY0Ng==",
    "avatar_url": "https://avatars.githubusercontent.com/u/126646?v=4",
    "gravatar_id": "",
    "url": "https://api.github.com/users/laanwj",
    "html_url": "https://github.com/laanwj",
    "followers_url": "https://api.github.com/users/laanwj/followers",
    "following_url": "https://api.github.com/users/laanwj/following{/other_user}",
    "gists_url": "https://api.github.com/users/laanwj/gists{/gist_id}",
    "starred_url": "https://api.github.com/users/laanwj/starred{/owner}{/repo}",
    "subscriptions_url": "https://api.github.com/users/laanwj/subscriptions",
    "organizations_url": "https://api.github.com/users/laanwj/orgs",
    "repos_url": "https://api.github.com/users/laanwj/repos",
    "events_url": "https://api.github.com/users/laanwj/events{/privacy}",
    "received_events_url": "https://api.github.com/users/laanwj/received_events",
    "type": "User",
    "site_admin": false
  },
  "reactions": {
    "url": "https://api.github.com/repos/bitcoin/bitcoin/issues/10232/reactions",
    "total_count": 0,
    "+1": 0,
    "-1": 0,
    "laugh": 0,
    "hooray": 0,
    "confused": 0,
    "heart": 0,
    "rocket": 0,
    "eyes": 0
  },
  "timeline_url": "https://api.github.com/repos/bitcoin/bitcoin/issues/10232/timeline",
  "performed_via_github_app": null,
  "state_reason": null
}
