[
  {
    "url": "https://api.github.com/repos/bitcoin/bitcoin/issues/comments/17095617",
    "html_url": "https://github.com/bitcoin/bitcoin/pull/2564#issuecomment-17095617",
    "issue_url": "https://api.github.com/repos/bitcoin/bitcoin/issues/2564",
    "id": 17095617,
    "node_id": "MDEyOklzc3VlQ29tbWVudDE3MDk1NjE3",
    "user": {
      "login": "BitcoinPullTester",
      "id": 2110907,
      "node_id": "MDQ6VXNlcjIxMTA5MDc=",
      "avatar_url": "https://avatars.githubusercontent.com/u/2110907?v=4",
      "gravatar_id": "",
      "url": "https://api.github.com/users/BitcoinPullTester",
      "html_url": "https://github.com/BitcoinPullTester",
      "followers_url": "https://api.github.com/users/BitcoinPullTester/followers",
      "following_url": "https://api.github.com/users/BitcoinPullTester/following{/other_user}",
      "gists_url": "https://api.github.com/users/BitcoinPullTester/gists{/gist_id}",
      "starred_url": "https://api.github.com/users/BitcoinPullTester/starred{/owner}{/repo}",
      "subscriptions_url": "https://api.github.com/users/BitcoinPullTester/subscriptions",
      "organizations_url": "https://api.github.com/users/BitcoinPullTester/orgs",
      "repos_url": "https://api.github.com/users/BitcoinPullTester/repos",
      "events_url": "https://api.github.com/users/BitcoinPullTester/events{/privacy}",
      "received_events_url": "https://api.github.com/users/BitcoinPullTester/received_events",
      "type": "User",
      "site_admin": false
    },
    "created_at": "2013-04-26T19:32:31Z",
    "updated_at": "2013-04-26T19:32:31Z",
    "author_association": "NONE",
    "body_html": "<p dir=\"auto\">Automatic sanity-testing: PASSED, see <a href=\"http://jenkins.bluematt.me/pull-tester/46fd626b21a1273a37c78749aebce1d3e3de5aee\" rel=\"nofollow\">http://jenkins.bluematt.me/pull-tester/46fd626b21a1273a37c78749aebce1d3e3de5aee</a> for binaries and test log.<br>\nThis test script verifies pulls every time they are updated. It, however, dies sometimes and fails to test properly.  If you are waiting on a test, please check timestamps to verify that the test.log is moving at <a href=\"http://jenkins.bluematt.me/pull-tester/current/\" rel=\"nofollow\">http://jenkins.bluematt.me/pull-tester/current/</a><br>\nContact BlueMatt on freenode if something looks broken.</p>",
    "body_text": "Automatic sanity-testing: PASSED, see http://jenkins.bluematt.me/pull-tester/46fd626b21a1273a37c78749aebce1d3e3de5aee for binaries and test log.\nThis test script verifies pulls every time they are updated. It, however, dies sometimes and fails to test properly.  If you are waiting on a test, please check timestamps to verify that the test.log is moving at http://jenkins.bluematt.me/pull-tester/current/\nContact BlueMatt on freenode if something looks broken.",
    "body": "Automatic sanity-testing: PASSED, see http://jenkins.bluematt.me/pull-tester/46fd626b21a1273a37c78749aebce1d3e3de5aee for binaries and test log.\nThis test script verifies pulls every time they are updated. It, however, dies sometimes and fails to test properly.  If you are waiting on a test, please check timestamps to verify that the test.log is moving at http://jenkins.bluematt.me/pull-tester/current/\nContact BlueMatt on freenode if something looks broken.\n",
    "reactions": {
      "url": "https://api.github.com/repos/bitcoin/bitcoin/issues/comments/17095617/reactions",
      "total_count": 0,
      "+1": 0,
      "-1": 0,
      "laugh": 0,
      "hooray": 0,
      "confused": 0,
      "heart": 0,
      "rocket": 0,
      "eyes": 0
    },
    "performed_via_github_app": null
  }
]
