{
  "url": "https://api.github.com/repos/bitcoin/bitcoin/issues/11242",
  "repository_url": "https://api.github.com/repos/bitcoin/bitcoin",
  "labels_url": "https://api.github.com/repos/bitcoin/bitcoin/issues/11242/labels{/name}",
  "comments_url": "https://api.github.com/repos/bitcoin/bitcoin/issues/11242/comments",
  "events_url": "https://api.github.com/repos/bitcoin/bitcoin/issues/11242/events",
  "html_url": "https://github.com/bitcoin/bitcoin/issues/11242",
  "id": 255372388,
  "node_id": "MDU6SXNzdWUyNTUzNzIzODg=",
  "number": 11242,
  "title": "verifytxoutproof can return witnesses but cannot verify them",
  "user": {
    "login": "TheBlueMatt",
    "id": 649246,
    "node_id": "MDQ6VXNlcjY0OTI0Ng==",
    "avatar_url": "https://avatars.githubusercontent.com/u/649246?v=4",
    "gravatar_id": "",
    "url": "https://api.github.com/users/TheBlueMatt",
    "html_url": "https://github.com/TheBlueMatt",
    "followers_url": "https://api.github.com/users/TheBlueMatt/followers",
    "following_url": "https://api.github.com/users/TheBlueMatt/following{/other_user}",
    "gists_url": "https://api.github.com/users/TheBlueMatt/gists{/gist_id}",
    "starred_url": "https://api.github.com/users/TheBlueMatt/starred{/owner}{/repo}",
    "subscriptions_url": "https://api.github.com/users/TheBlueMatt/subscriptions",
    "organizations_url": "https://api.github.com/users/TheBlueMatt/orgs",
    "repos_url": "https://api.github.com/users/TheBlueMatt/repos",
    "events_url": "https://api.github.com/users/TheBlueMatt/events{/privacy}",
    "received_events_url": "https://api.github.com/users/TheBlueMatt/received_events",
    "type": "User",
    "site_admin": false
  },
  "labels": [
    {
      "id": 98279177,
      "node_id": "MDU6TGFiZWw5ODI3OTE3Nw==",
      "url": "https://api.github.com/repos/bitcoin/bitcoin/labels/RPC/REST/ZMQ",
      "name": "RPC/REST/ZMQ",
      "color": "0052cc",
      "default": false,
      "description": null
    }
  ],
  "state": "closed",
  "locked": true,
  "assignee": null,
  "assignees": [

  ],
  "milestone": null,
  "comments": 3,
  "created_at": "2017-09-05T18:47:48Z",
  "updated_at": "2024-04-26T12:45:06Z",
  "closed_at": "2023-04-27T14:11:53Z",
  "author_association": "CONTRIBUTOR",
  "active_lock_reason": null,
  "body_html": "<p dir=\"auto\">This is very unexpected and could result in some applications being confused. We should likely provide an option to generatetxoutproof to also provide a witness SPV proof, and remove the witness in verifytxoutproof unless the witness proof is present.</p>",
  "body_text": "This is very unexpected and could result in some applications being confused. We should likely provide an option to generatetxoutproof to also provide a witness SPV proof, and remove the witness in verifytxoutproof unless the witness proof is present.",
  "body": "This is very unexpected and could result in some applications being confused. We should likely provide an option to generatetxoutproof to also provide a witness SPV proof, and remove the witness in verifytxoutproof unless the witness proof is present.",
  "closed_by": {
    "login": "pinheadmz",
    "id": 2084648,
    "node_id": "MDQ6VXNlcjIwODQ2NDg=",
    "avatar_url": "https://avatars.githubusercontent.com/u/2084648?v=4",
    "gravatar_id": "",
    "url": "https://api.github.com/users/pinheadmz",
    "html_url": "https://github.com/pinheadmz",
    "followers_url": "https://api.github.com/users/pinheadmz/followers",
    "following_url": "https://api.github.com/users/pinheadmz/following{/other_user}",
    "gists_url": "https://api.github.com/users/pinheadmz/gists{/gist_id}",
    "starred_url": "https://api.github.com/users/pinheadmz/starred{/owner}{/repo}",
    "subscriptions_url": "https://api.github.com/users/pinheadmz/subscriptions",
    "organizations_url": "https://api.github.com/users/pinheadmz/orgs",
    "repos_url": "https://api.github.com/users/pinheadmz/repos",
    "events_url": "https://api.github.com/users/pinheadmz/events{/privacy}",
    "received_events_url": "https://api.github.com/users/pinheadmz/received_events",
    "type": "User",
    "site_admin": false
  },
  "reactions": {
    "url": "https://api.github.com/repos/bitcoin/bitcoin/issues/11242/reactions",
    "total_count": 0,
    "+1": 0,
    "-1": 0,
    "laugh": 0,
    "hooray": 0,
    "confused": 0,
    "heart": 0,
    "rocket": 0,
    "eyes": 0
  },
  "timeline_url": "https://api.github.com/repos/bitcoin/bitcoin/issues/11242/timeline",
  "performed_via_github_app": null,
  "state_reason": "completed"
}
