{
  "url": "https://api.github.com/repos/bitcoin/bitcoin/issues/2875",
  "repository_url": "https://api.github.com/repos/bitcoin/bitcoin",
  "labels_url": "https://api.github.com/repos/bitcoin/bitcoin/issues/2875/labels{/name}",
  "comments_url": "https://api.github.com/repos/bitcoin/bitcoin/issues/2875/comments",
  "events_url": "https://api.github.com/repos/bitcoin/bitcoin/issues/2875/events",
  "html_url": "https://github.com/bitcoin/bitcoin/pull/2875",
  "id": 17597405,
  "node_id": "MDExOlB1bGxSZXF1ZXN0NzM3MDY3MA==",
  "number": 2875,
  "title": "RPC command \"eraseprivkey\" for removing a specified private key",
  "user": {
    "login": "meighti",
    "id": 2981948,
    "node_id": "MDQ6VXNlcjI5ODE5NDg=",
    "avatar_url": "https://avatars.githubusercontent.com/u/2981948?v=4",
    "gravatar_id": "",
    "url": "https://api.github.com/users/meighti",
    "html_url": "https://github.com/meighti",
    "followers_url": "https://api.github.com/users/meighti/followers",
    "following_url": "https://api.github.com/users/meighti/following{/other_user}",
    "gists_url": "https://api.github.com/users/meighti/gists{/gist_id}",
    "starred_url": "https://api.github.com/users/meighti/starred{/owner}{/repo}",
    "subscriptions_url": "https://api.github.com/users/meighti/subscriptions",
    "organizations_url": "https://api.github.com/users/meighti/orgs",
    "repos_url": "https://api.github.com/users/meighti/repos",
    "events_url": "https://api.github.com/users/meighti/events{/privacy}",
    "received_events_url": "https://api.github.com/users/meighti/received_events",
    "type": "User",
    "site_admin": false
  },
  "labels": [

  ],
  "state": "closed",
  "locked": true,
  "assignee": null,
  "assignees": [

  ],
  "milestone": null,
  "comments": 3,
  "created_at": "2013-08-03T17:06:37Z",
  "updated_at": "2021-09-08T10:23:43Z",
  "closed_at": "2013-08-05T16:04:14Z",
  "author_association": "NONE",
  "active_lock_reason": "resolved",
  "draft": false,
  "pull_request": {
    "url": "https://api.github.com/repos/bitcoin/bitcoin/pulls/2875",
    "html_url": "https://github.com/bitcoin/bitcoin/pull/2875",
    "diff_url": "https://github.com/bitcoin/bitcoin/pull/2875.diff",
    "patch_url": "https://github.com/bitcoin/bitcoin/pull/2875.patch",
    "merged_at": null
  },
  "body_html": "<ul dir=\"auto\">\n<li>Now you can instantly remove a specified private key</li>\n<li>No need to rescan for wallet transaction in case you use \"importprivkey\", just enter:<br>\nimportprivkey  [label] false<br>\nand you would have your wallet ready again in 1 second</li>\n<li>If wallet is encrypted, it would be necessary to use walletpassphrase in advance (as it's same rule for importprivkey)</li>\n<li>If watch-only pulls get merged, it would hopefully help to add 'sweep<br>\nprivate key' functionality (like Armory Bitcoin client)</li>\n</ul>",
  "body_text": "Now you can instantly remove a specified private key\nNo need to rescan for wallet transaction in case you use \"importprivkey\", just enter:\nimportprivkey  [label] false\nand you would have your wallet ready again in 1 second\nIf wallet is encrypted, it would be necessary to use walletpassphrase in advance (as it's same rule for importprivkey)\nIf watch-only pulls get merged, it would hopefully help to add 'sweep\nprivate key' functionality (like Armory Bitcoin client)",
  "body": "- Now you can instantly remove a specified private key\n- No need to rescan for wallet transaction in case you use \"importprivkey\", just enter:\n  importprivkey <bitcoinprivkey> [label] false\n  and you would have your wallet ready again in 1 second\n- If wallet is encrypted, it would be necessary to use walletpassphrase in advance (as it's same rule for importprivkey)\n- If watch-only pulls get merged, it would hopefully help to add 'sweep\n  private key' functionality (like Armory Bitcoin client)\n",
  "closed_by": {
    "login": "jgarzik",
    "id": 494411,
    "node_id": "MDQ6VXNlcjQ5NDQxMQ==",
    "avatar_url": "https://avatars.githubusercontent.com/u/494411?v=4",
    "gravatar_id": "",
    "url": "https://api.github.com/users/jgarzik",
    "html_url": "https://github.com/jgarzik",
    "followers_url": "https://api.github.com/users/jgarzik/followers",
    "following_url": "https://api.github.com/users/jgarzik/following{/other_user}",
    "gists_url": "https://api.github.com/users/jgarzik/gists{/gist_id}",
    "starred_url": "https://api.github.com/users/jgarzik/starred{/owner}{/repo}",
    "subscriptions_url": "https://api.github.com/users/jgarzik/subscriptions",
    "organizations_url": "https://api.github.com/users/jgarzik/orgs",
    "repos_url": "https://api.github.com/users/jgarzik/repos",
    "events_url": "https://api.github.com/users/jgarzik/events{/privacy}",
    "received_events_url": "https://api.github.com/users/jgarzik/received_events",
    "type": "User",
    "site_admin": false
  },
  "reactions": {
    "url": "https://api.github.com/repos/bitcoin/bitcoin/issues/2875/reactions",
    "total_count": 0,
    "+1": 0,
    "-1": 0,
    "laugh": 0,
    "hooray": 0,
    "confused": 0,
    "heart": 0,
    "rocket": 0,
    "eyes": 0
  },
  "timeline_url": "https://api.github.com/repos/bitcoin/bitcoin/issues/2875/timeline",
  "performed_via_github_app": null,
  "state_reason": null
}
