{
  "url": "https://api.github.com/repos/bitcoin/bitcoin/issues/3742",
  "repository_url": "https://api.github.com/repos/bitcoin/bitcoin",
  "labels_url": "https://api.github.com/repos/bitcoin/bitcoin/issues/3742/labels{/name}",
  "comments_url": "https://api.github.com/repos/bitcoin/bitcoin/issues/3742/comments",
  "events_url": "https://api.github.com/repos/bitcoin/bitcoin/issues/3742/events",
  "html_url": "https://github.com/bitcoin/bitcoin/pull/3742",
  "id": 28226597,
  "node_id": "MDExOlB1bGxSZXF1ZXN0MTI4OTA2ODI=",
  "number": 3742,
  "title": "gitian: Make protobuf win32 intermediate output deterministic",
  "user": {
    "login": "laanwj",
    "id": 126646,
    "node_id": "MDQ6VXNlcjEyNjY0Ng==",
    "avatar_url": "https://avatars.githubusercontent.com/u/126646?v=4",
    "gravatar_id": "",
    "url": "https://api.github.com/users/laanwj",
    "html_url": "https://github.com/laanwj",
    "followers_url": "https://api.github.com/users/laanwj/followers",
    "following_url": "https://api.github.com/users/laanwj/following{/other_user}",
    "gists_url": "https://api.github.com/users/laanwj/gists{/gist_id}",
    "starred_url": "https://api.github.com/users/laanwj/starred{/owner}{/repo}",
    "subscriptions_url": "https://api.github.com/users/laanwj/subscriptions",
    "organizations_url": "https://api.github.com/users/laanwj/orgs",
    "repos_url": "https://api.github.com/users/laanwj/repos",
    "events_url": "https://api.github.com/users/laanwj/events{/privacy}",
    "received_events_url": "https://api.github.com/users/laanwj/received_events",
    "type": "User",
    "site_admin": false
  },
  "labels": [

  ],
  "state": "closed",
  "locked": true,
  "assignee": null,
  "assignees": [

  ],
  "milestone": null,
  "comments": 3,
  "created_at": "2014-02-25T06:58:51Z",
  "updated_at": "2021-09-08T10:31:21Z",
  "closed_at": "2014-02-25T16:34:45Z",
  "author_association": "MEMBER",
  "active_lock_reason": "resolved",
  "draft": false,
  "pull_request": {
    "url": "https://api.github.com/repos/bitcoin/bitcoin/pulls/3742",
    "html_url": "https://github.com/bitcoin/bitcoin/pull/3742",
    "diff_url": "https://github.com/bitcoin/bitcoin/pull/3742.diff",
    "patch_url": "https://github.com/bitcoin/bitcoin/pull/3742.patch",
    "merged_at": "2014-02-25T16:34:45Z"
  },
  "body_html": "<p dir=\"auto\">While building protobuf in different environments we noticed that the host tool protoc was slightly different between builds (a symbol table sorting issue).<br>\nAdd a deterministic seed for gcc as well as disable zlib support just in case.</p>\n<p dir=\"auto\">Exected output is now:</p>\n<div class=\"snippet-clipboard-content notranslate position-relative overflow-auto\" data-snippet-clipboard-copy-content=\"e2e403e1a08869c7eed4d4293bce13d51ec6a63592918b90ae215a0eceb44cb4 protobuf-win32-2.5.0-gitian-r4.zip\na0999037e8b0ef9ade13efd88fee261ba401f5ca910068b7e0cd3262ba667db0 protobuf-win64-2.5.0-gitian-r4.zip\"><pre class=\"notranslate\"><code class=\"notranslate\">e2e403e1a08869c7eed4d4293bce13d51ec6a63592918b90ae215a0eceb44cb4 protobuf-win32-2.5.0-gitian-r4.zip\na0999037e8b0ef9ade13efd88fee261ba401f5ca910068b7e0cd3262ba667db0 protobuf-win64-2.5.0-gitian-r4.zip\n</code></pre></div>\n<p dir=\"auto\">No effect on final executables so no version bump.</p>",
  "body_text": "While building protobuf in different environments we noticed that the host tool protoc was slightly different between builds (a symbol table sorting issue).\nAdd a deterministic seed for gcc as well as disable zlib support just in case.\nExected output is now:\ne2e403e1a08869c7eed4d4293bce13d51ec6a63592918b90ae215a0eceb44cb4 protobuf-win32-2.5.0-gitian-r4.zip\na0999037e8b0ef9ade13efd88fee261ba401f5ca910068b7e0cd3262ba667db0 protobuf-win64-2.5.0-gitian-r4.zip\n\nNo effect on final executables so no version bump.",
  "body": "While building protobuf in different environments we noticed that the host tool protoc was slightly different between builds (a symbol table sorting issue).\nAdd a deterministic seed for gcc as well as disable zlib support just in case.\n\nExected output is now:\n\n```\ne2e403e1a08869c7eed4d4293bce13d51ec6a63592918b90ae215a0eceb44cb4 protobuf-win32-2.5.0-gitian-r4.zip\na0999037e8b0ef9ade13efd88fee261ba401f5ca910068b7e0cd3262ba667db0 protobuf-win64-2.5.0-gitian-r4.zip\n```\n\nNo effect on final executables so no version bump.\n",
  "closed_by": {
    "login": "gavinandresen",
    "id": 331997,
    "node_id": "MDQ6VXNlcjMzMTk5Nw==",
    "avatar_url": "https://avatars.githubusercontent.com/u/331997?v=4",
    "gravatar_id": "",
    "url": "https://api.github.com/users/gavinandresen",
    "html_url": "https://github.com/gavinandresen",
    "followers_url": "https://api.github.com/users/gavinandresen/followers",
    "following_url": "https://api.github.com/users/gavinandresen/following{/other_user}",
    "gists_url": "https://api.github.com/users/gavinandresen/gists{/gist_id}",
    "starred_url": "https://api.github.com/users/gavinandresen/starred{/owner}{/repo}",
    "subscriptions_url": "https://api.github.com/users/gavinandresen/subscriptions",
    "organizations_url": "https://api.github.com/users/gavinandresen/orgs",
    "repos_url": "https://api.github.com/users/gavinandresen/repos",
    "events_url": "https://api.github.com/users/gavinandresen/events{/privacy}",
    "received_events_url": "https://api.github.com/users/gavinandresen/received_events",
    "type": "User",
    "site_admin": false
  },
  "reactions": {
    "url": "https://api.github.com/repos/bitcoin/bitcoin/issues/3742/reactions",
    "total_count": 0,
    "+1": 0,
    "-1": 0,
    "laugh": 0,
    "hooray": 0,
    "confused": 0,
    "heart": 0,
    "rocket": 0,
    "eyes": 0
  },
  "timeline_url": "https://api.github.com/repos/bitcoin/bitcoin/issues/3742/timeline",
  "performed_via_github_app": null,
  "state_reason": null
}
