[
  {
    "url": "https://api.github.com/repos/bitcoin/bitcoin/issues/comments/496928841",
    "html_url": "https://github.com/bitcoin/bitcoin/pull/16117#issuecomment-496928841",
    "issue_url": "https://api.github.com/repos/bitcoin/bitcoin/issues/16117",
    "id": 496928841,
    "node_id": "MDEyOklzc3VlQ29tbWVudDQ5NjkyODg0MQ==",
    "user": {
      "login": "maflcko",
      "id": 6399679,
      "node_id": "MDQ6VXNlcjYzOTk2Nzk=",
      "avatar_url": "https://avatars.githubusercontent.com/u/6399679?v=4",
      "gravatar_id": "",
      "url": "https://api.github.com/users/maflcko",
      "html_url": "https://github.com/maflcko",
      "followers_url": "https://api.github.com/users/maflcko/followers",
      "following_url": "https://api.github.com/users/maflcko/following{/other_user}",
      "gists_url": "https://api.github.com/users/maflcko/gists{/gist_id}",
      "starred_url": "https://api.github.com/users/maflcko/starred{/owner}{/repo}",
      "subscriptions_url": "https://api.github.com/users/maflcko/subscriptions",
      "organizations_url": "https://api.github.com/users/maflcko/orgs",
      "repos_url": "https://api.github.com/users/maflcko/repos",
      "events_url": "https://api.github.com/users/maflcko/events{/privacy}",
      "received_events_url": "https://api.github.com/users/maflcko/received_events",
      "type": "User",
      "site_admin": false
    },
    "created_at": "2019-05-29T13:08:03Z",
    "updated_at": "2019-05-29T13:08:03Z",
    "author_association": "MEMBER",
    "body_html": "<p dir=\"auto\">Removed unused configure checks</p>",
    "body_text": "Removed unused configure checks",
    "body": "Removed unused configure checks",
    "reactions": {
      "url": "https://api.github.com/repos/bitcoin/bitcoin/issues/comments/496928841/reactions",
      "total_count": 0,
      "+1": 0,
      "-1": 0,
      "laugh": 0,
      "hooray": 0,
      "confused": 0,
      "heart": 0,
      "rocket": 0,
      "eyes": 0
    },
    "performed_via_github_app": null
  },
  {
    "url": "https://api.github.com/repos/bitcoin/bitcoin/issues/comments/497005317",
    "html_url": "https://github.com/bitcoin/bitcoin/pull/16117#issuecomment-497005317",
    "issue_url": "https://api.github.com/repos/bitcoin/bitcoin/issues/16117",
    "id": 497005317,
    "node_id": "MDEyOklzc3VlQ29tbWVudDQ5NzAwNTMxNw==",
    "user": {
      "login": "sipa",
      "id": 548488,
      "node_id": "MDQ6VXNlcjU0ODQ4OA==",
      "avatar_url": "https://avatars.githubusercontent.com/u/548488?v=4",
      "gravatar_id": "",
      "url": "https://api.github.com/users/sipa",
      "html_url": "https://github.com/sipa",
      "followers_url": "https://api.github.com/users/sipa/followers",
      "following_url": "https://api.github.com/users/sipa/following{/other_user}",
      "gists_url": "https://api.github.com/users/sipa/gists{/gist_id}",
      "starred_url": "https://api.github.com/users/sipa/starred{/owner}{/repo}",
      "subscriptions_url": "https://api.github.com/users/sipa/subscriptions",
      "organizations_url": "https://api.github.com/users/sipa/orgs",
      "repos_url": "https://api.github.com/users/sipa/repos",
      "events_url": "https://api.github.com/users/sipa/events{/privacy}",
      "received_events_url": "https://api.github.com/users/sipa/received_events",
      "type": "User",
      "site_admin": false
    },
    "created_at": "2019-05-29T16:14:28Z",
    "updated_at": "2019-05-29T19:18:27Z",
    "author_association": "MEMBER",
    "body_html": "<p dir=\"auto\">Are the std:: versions compatible with our use of boost threadgroup interrupts?</p>\n<p dir=\"auto\">EDIT: ping <a class=\"user-mention notranslate\" data-hovercard-type=\"user\" data-hovercard-url=\"/users/theuni/hovercard\" data-octo-click=\"hovercard-link-click\" data-octo-dimensions=\"link_type:self\" href=\"https://github.com/theuni\">@theuni</a></p>",
    "body_text": "Are the std:: versions compatible with our use of boost threadgroup interrupts?\nEDIT: ping @theuni",
    "body": "Are the std:: versions compatible with our use of boost threadgroup interrupts?\r\n\r\nEDIT: ping @theuni",
    "reactions": {
      "url": "https://api.github.com/repos/bitcoin/bitcoin/issues/comments/497005317/reactions",
      "total_count": 0,
      "+1": 0,
      "-1": 0,
      "laugh": 0,
      "hooray": 0,
      "confused": 0,
      "heart": 0,
      "rocket": 0,
      "eyes": 0
    },
    "performed_via_github_app": null
  },
  {
    "url": "https://api.github.com/repos/bitcoin/bitcoin/issues/comments/497027698",
    "html_url": "https://github.com/bitcoin/bitcoin/pull/16117#issuecomment-497027698",
    "issue_url": "https://api.github.com/repos/bitcoin/bitcoin/issues/16117",
    "id": 497027698,
    "node_id": "MDEyOklzc3VlQ29tbWVudDQ5NzAyNzY5OA==",
    "user": {
      "login": "DrahtBot",
      "id": 39886733,
      "node_id": "MDQ6VXNlcjM5ODg2NzMz",
      "avatar_url": "https://avatars.githubusercontent.com/u/39886733?v=4",
      "gravatar_id": "",
      "url": "https://api.github.com/users/DrahtBot",
      "html_url": "https://github.com/DrahtBot",
      "followers_url": "https://api.github.com/users/DrahtBot/followers",
      "following_url": "https://api.github.com/users/DrahtBot/following{/other_user}",
      "gists_url": "https://api.github.com/users/DrahtBot/gists{/gist_id}",
      "starred_url": "https://api.github.com/users/DrahtBot/starred{/owner}{/repo}",
      "subscriptions_url": "https://api.github.com/users/DrahtBot/subscriptions",
      "organizations_url": "https://api.github.com/users/DrahtBot/orgs",
      "repos_url": "https://api.github.com/users/DrahtBot/repos",
      "events_url": "https://api.github.com/users/DrahtBot/events{/privacy}",
      "received_events_url": "https://api.github.com/users/DrahtBot/received_events",
      "type": "User",
      "site_admin": false
    },
    "created_at": "2019-05-29T17:13:28Z",
    "updated_at": "2020-03-05T11:56:22Z",
    "author_association": "CONTRIBUTOR",
    "body_html": "\n<p dir=\"auto\">The following sections might be updated with supplementary metadata relevant to reviewers and maintainers.</p>\n\n<h3 dir=\"auto\">Conflicts</h3>\n<p dir=\"auto\">Reviewers, this pull request conflicts with the following ones:</p>\n<ul dir=\"auto\">\n<li><a class=\"issue-link js-issue-link\" data-error-text=\"Failed to load title\" data-id=\"575944916\" data-permission-text=\"Title is private\" data-url=\"https://github.com/bitcoin/bitcoin/issues/18264\" data-hovercard-type=\"pull_request\" data-hovercard-url=\"/bitcoin/bitcoin/pull/18264/hovercard\" href=\"https://github.com/bitcoin/bitcoin/pull/18264\">#18264</a> ([WIP] build: Remove Boost Chrono by fanquake)</li>\n<li><a class=\"issue-link js-issue-link\" data-error-text=\"Failed to load title\" data-id=\"573482164\" data-permission-text=\"Title is private\" data-url=\"https://github.com/bitcoin/bitcoin/issues/18234\" data-hovercard-type=\"pull_request\" data-hovercard-url=\"/bitcoin/bitcoin/pull/18234/hovercard\" href=\"https://github.com/bitcoin/bitcoin/pull/18234\">#18234</a> (refactor: Replace boost::mutex,condition_var,chrono with std equivalents in scheduler by ajtowns)</li>\n<li><a class=\"issue-link js-issue-link\" data-error-text=\"Failed to load title\" data-id=\"565526470\" data-permission-text=\"Title is private\" data-url=\"https://github.com/bitcoin/bitcoin/issues/18149\" data-hovercard-type=\"pull_request\" data-hovercard-url=\"/bitcoin/bitcoin/pull/18149/hovercard\" href=\"https://github.com/bitcoin/bitcoin/pull/18149\">#18149</a> (build: add --enable-isystem and change --enable-werror to enable -Werror by vasild)</li>\n<li><a class=\"issue-link js-issue-link\" data-error-text=\"Failed to load title\" data-id=\"555856402\" data-permission-text=\"Title is private\" data-url=\"https://github.com/bitcoin/bitcoin/issues/18011\" data-hovercard-type=\"pull_request\" data-hovercard-url=\"/bitcoin/bitcoin/pull/18011/hovercard\" href=\"https://github.com/bitcoin/bitcoin/pull/18011\">#18011</a> (Replace current benchmarking framework with nanobench by martinus)</li>\n<li><a class=\"issue-link js-issue-link\" data-error-text=\"Failed to load title\" data-id=\"396207112\" data-permission-text=\"Title is private\" data-url=\"https://github.com/bitcoin/bitcoin/issues/15112\" data-hovercard-type=\"pull_request\" data-hovercard-url=\"/bitcoin/bitcoin/pull/15112/hovercard\" href=\"https://github.com/bitcoin/bitcoin/pull/15112\">#15112</a> (build: Optionally enable -Wzero-as-null-pointer-constant by Empact)</li>\n<li><a class=\"issue-link js-issue-link\" data-error-text=\"Failed to load title\" data-id=\"389608803\" data-permission-text=\"Title is private\" data-url=\"https://github.com/bitcoin/bitcoin/issues/14920\" data-hovercard-type=\"pull_request\" data-hovercard-url=\"/bitcoin/bitcoin/pull/14920/hovercard\" href=\"https://github.com/bitcoin/bitcoin/pull/14920\">#14920</a> (Build: enable -Wdocumentation via isystem by Empact)</li>\n</ul>\n<p dir=\"auto\">If you consider this pull request important, please also help to review the conflicting pull requests. Ideally, start with the one that should be merged first.</p>",
    "body_text": "The following sections might be updated with supplementary metadata relevant to reviewers and maintainers.\n\nConflicts\nReviewers, this pull request conflicts with the following ones:\n\n#18264 ([WIP] build: Remove Boost Chrono by fanquake)\n#18234 (refactor: Replace boost::mutex,condition_var,chrono with std equivalents in scheduler by ajtowns)\n#18149 (build: add --enable-isystem and change --enable-werror to enable -Werror by vasild)\n#18011 (Replace current benchmarking framework with nanobench by martinus)\n#15112 (build: Optionally enable -Wzero-as-null-pointer-constant by Empact)\n#14920 (Build: enable -Wdocumentation via isystem by Empact)\n\nIf you consider this pull request important, please also help to review the conflicting pull requests. Ideally, start with the one that should be merged first.",
    "body": "<!--e57a25ab6845829454e8d69fc972939a-->\n\nThe following sections might be updated with supplementary metadata relevant to reviewers and maintainers.\n\n<!--174a7506f384e20aa4161008e828411d-->\n### Conflicts\nReviewers, this pull request conflicts with the following ones:\n\n* #18264 ([WIP] build: Remove Boost Chrono by fanquake)\n* #18234 (refactor: Replace boost::mutex,condition_var,chrono with std equivalents in scheduler by ajtowns)\n* #18149 (build: add --enable-isystem and change --enable-werror to enable -Werror by vasild)\n* #18011 (Replace current benchmarking framework with nanobench by martinus)\n* #15112 (build: Optionally enable -Wzero-as-null-pointer-constant by Empact)\n* #14920 (Build: enable -Wdocumentation via isystem by Empact)\n\nIf you consider this pull request important, please also help to review the conflicting pull requests. Ideally, start with the one that should be merged first.",
    "reactions": {
      "url": "https://api.github.com/repos/bitcoin/bitcoin/issues/comments/497027698/reactions",
      "total_count": 0,
      "+1": 0,
      "-1": 0,
      "laugh": 0,
      "hooray": 0,
      "confused": 0,
      "heart": 0,
      "rocket": 0,
      "eyes": 0
    },
    "performed_via_github_app": null
  },
  {
    "url": "https://api.github.com/repos/bitcoin/bitcoin/issues/comments/497234237",
    "html_url": "https://github.com/bitcoin/bitcoin/pull/16117#issuecomment-497234237",
    "issue_url": "https://api.github.com/repos/bitcoin/bitcoin/issues/16117",
    "id": 497234237,
    "node_id": "MDEyOklzc3VlQ29tbWVudDQ5NzIzNDIzNw==",
    "user": {
      "login": "laanwj",
      "id": 126646,
      "node_id": "MDQ6VXNlcjEyNjY0Ng==",
      "avatar_url": "https://avatars.githubusercontent.com/u/126646?v=4",
      "gravatar_id": "",
      "url": "https://api.github.com/users/laanwj",
      "html_url": "https://github.com/laanwj",
      "followers_url": "https://api.github.com/users/laanwj/followers",
      "following_url": "https://api.github.com/users/laanwj/following{/other_user}",
      "gists_url": "https://api.github.com/users/laanwj/gists{/gist_id}",
      "starred_url": "https://api.github.com/users/laanwj/starred{/owner}{/repo}",
      "subscriptions_url": "https://api.github.com/users/laanwj/subscriptions",
      "organizations_url": "https://api.github.com/users/laanwj/orgs",
      "repos_url": "https://api.github.com/users/laanwj/repos",
      "events_url": "https://api.github.com/users/laanwj/events{/privacy}",
      "received_events_url": "https://api.github.com/users/laanwj/received_events",
      "type": "User",
      "site_admin": false
    },
    "created_at": "2019-05-30T07:27:59Z",
    "updated_at": "2019-05-30T09:45:53Z",
    "author_association": "MEMBER",
    "body_html": "<blockquote>\n<p dir=\"auto\">Are the std:: versions compatible with our use of boost threadgroup interrupts?</p>\n</blockquote>\n<p dir=\"auto\">Oh crap I knew there was a reason we hadn't got rid of the boost::sleep madness yet 😢</p>\n<p dir=\"auto\">I don't think the <code class=\"notranslate\">std::</code> sleep allows any way to interrupt it, at all?</p>\n<p dir=\"auto\">I think the non-boost approach would be to have them timed-wait on a condition variable.</p>",
    "body_text": "Are the std:: versions compatible with our use of boost threadgroup interrupts?\n\nOh crap I knew there was a reason we hadn't got rid of the boost::sleep madness yet 😢\nI don't think the std:: sleep allows any way to interrupt it, at all?\nI think the non-boost approach would be to have them timed-wait on a condition variable.",
    "body": "> Are the std:: versions compatible with our use of boost threadgroup interrupts?\r\n\r\nOh crap I knew there was a reason we hadn't got rid of the boost::sleep madness yet :cry: \r\n\r\nI don't think the `std::` sleep allows any way to interrupt it, at all?\r\n\r\nI think the non-boost approach would be to have them timed-wait on a condition variable.\r\n",
    "reactions": {
      "url": "https://api.github.com/repos/bitcoin/bitcoin/issues/comments/497234237/reactions",
      "total_count": 0,
      "+1": 0,
      "-1": 0,
      "laugh": 0,
      "hooray": 0,
      "confused": 0,
      "heart": 0,
      "rocket": 0,
      "eyes": 0
    },
    "performed_via_github_app": null
  },
  {
    "url": "https://api.github.com/repos/bitcoin/bitcoin/issues/comments/497329377",
    "html_url": "https://github.com/bitcoin/bitcoin/pull/16117#issuecomment-497329377",
    "issue_url": "https://api.github.com/repos/bitcoin/bitcoin/issues/16117",
    "id": 497329377,
    "node_id": "MDEyOklzc3VlQ29tbWVudDQ5NzMyOTM3Nw==",
    "user": {
      "login": "practicalswift",
      "id": 7826565,
      "node_id": "MDQ6VXNlcjc4MjY1NjU=",
      "avatar_url": "https://avatars.githubusercontent.com/u/7826565?v=4",
      "gravatar_id": "",
      "url": "https://api.github.com/users/practicalswift",
      "html_url": "https://github.com/practicalswift",
      "followers_url": "https://api.github.com/users/practicalswift/followers",
      "following_url": "https://api.github.com/users/practicalswift/following{/other_user}",
      "gists_url": "https://api.github.com/users/practicalswift/gists{/gist_id}",
      "starred_url": "https://api.github.com/users/practicalswift/starred{/owner}{/repo}",
      "subscriptions_url": "https://api.github.com/users/practicalswift/subscriptions",
      "organizations_url": "https://api.github.com/users/practicalswift/orgs",
      "repos_url": "https://api.github.com/users/practicalswift/repos",
      "events_url": "https://api.github.com/users/practicalswift/events{/privacy}",
      "received_events_url": "https://api.github.com/users/practicalswift/received_events",
      "type": "User",
      "site_admin": false
    },
    "created_at": "2019-05-30T13:29:16Z",
    "updated_at": "2019-05-30T21:42:01Z",
    "author_association": "CONTRIBUTOR",
    "body_html": "<blockquote>\n<p dir=\"auto\">Hopefully that has no observable effects other than improved code clarity, faster compilation and faster run time.</p>\n</blockquote>\n<p dir=\"auto\">There is a very observable effect of this PR on 32-bit systems:</p>\n<p dir=\"auto\">Prior to this PR <code class=\"notranslate\">bitcoind</code> would shut down with an assertion failure when the 32-bit <code class=\"notranslate\">time_t</code> overflow occurs.</p>\n<p dir=\"auto\">After this PR <code class=\"notranslate\">bitcoind</code> will keep running but with negative time returned from these functions :-)</p>",
    "body_text": "Hopefully that has no observable effects other than improved code clarity, faster compilation and faster run time.\n\nThere is a very observable effect of this PR on 32-bit systems:\nPrior to this PR bitcoind would shut down with an assertion failure when the 32-bit time_t overflow occurs.\nAfter this PR bitcoind will keep running but with negative time returned from these functions :-)",
    "body": "> Hopefully that has no observable effects other than improved code clarity, faster compilation and faster run time.\r\n\r\nThere is a very observable effect of this PR on 32-bit systems:\r\n\r\nPrior to this PR `bitcoind` would shut down with an assertion failure when the 32-bit `time_t` overflow occurs.\r\n\r\nAfter this PR `bitcoind` will keep running but with negative time returned from these functions :-)",
    "reactions": {
      "url": "https://api.github.com/repos/bitcoin/bitcoin/issues/comments/497329377/reactions",
      "total_count": 0,
      "+1": 0,
      "-1": 0,
      "laugh": 0,
      "hooray": 0,
      "confused": 0,
      "heart": 0,
      "rocket": 0,
      "eyes": 0
    },
    "performed_via_github_app": null
  },
  {
    "url": "https://api.github.com/repos/bitcoin/bitcoin/issues/comments/497333247",
    "html_url": "https://github.com/bitcoin/bitcoin/pull/16117#issuecomment-497333247",
    "issue_url": "https://api.github.com/repos/bitcoin/bitcoin/issues/16117",
    "id": 497333247,
    "node_id": "MDEyOklzc3VlQ29tbWVudDQ5NzMzMzI0Nw==",
    "user": {
      "login": "practicalswift",
      "id": 7826565,
      "node_id": "MDQ6VXNlcjc4MjY1NjU=",
      "avatar_url": "https://avatars.githubusercontent.com/u/7826565?v=4",
      "gravatar_id": "",
      "url": "https://api.github.com/users/practicalswift",
      "html_url": "https://github.com/practicalswift",
      "followers_url": "https://api.github.com/users/practicalswift/followers",
      "following_url": "https://api.github.com/users/practicalswift/following{/other_user}",
      "gists_url": "https://api.github.com/users/practicalswift/gists{/gist_id}",
      "starred_url": "https://api.github.com/users/practicalswift/starred{/owner}{/repo}",
      "subscriptions_url": "https://api.github.com/users/practicalswift/subscriptions",
      "organizations_url": "https://api.github.com/users/practicalswift/orgs",
      "repos_url": "https://api.github.com/users/practicalswift/repos",
      "events_url": "https://api.github.com/users/practicalswift/events{/privacy}",
      "received_events_url": "https://api.github.com/users/practicalswift/received_events",
      "type": "User",
      "site_admin": false
    },
    "created_at": "2019-05-30T13:41:47Z",
    "updated_at": "2019-05-30T21:42:09Z",
    "author_association": "CONTRIBUTOR",
    "body_html": "<p dir=\"auto\">Perhaps we should add a test making sure <code class=\"notranslate\">bitcoind</code> on 32-bit systems behave the way we want it to -- which I assume is immediate shutdown? -- at time of the 32-bit <code class=\"notranslate\">time_t</code> overflow event.</p>\n<p dir=\"auto\">Related: <a href=\"16096\">RFC: Improving testing under the remaining supported 32 bit platforms</a></p>",
    "body_text": "Perhaps we should add a test making sure bitcoind on 32-bit systems behave the way we want it to -- which I assume is immediate shutdown? -- at time of the 32-bit time_t overflow event.\nRelated: RFC: Improving testing under the remaining supported 32 bit platforms",
    "body": "Perhaps we should add a test making sure `bitcoind` on 32-bit systems behave the way we want it to -- which I assume is immediate shutdown? -- at time of the 32-bit `time_t` overflow event.\r\n\r\nRelated: [RFC: Improving testing under the remaining supported 32 bit platforms](16096) ",
    "reactions": {
      "url": "https://api.github.com/repos/bitcoin/bitcoin/issues/comments/497333247/reactions",
      "total_count": 0,
      "+1": 0,
      "-1": 0,
      "laugh": 0,
      "hooray": 0,
      "confused": 0,
      "heart": 0,
      "rocket": 0,
      "eyes": 0
    },
    "performed_via_github_app": null
  },
  {
    "url": "https://api.github.com/repos/bitcoin/bitcoin/issues/comments/497367867",
    "html_url": "https://github.com/bitcoin/bitcoin/pull/16117#issuecomment-497367867",
    "issue_url": "https://api.github.com/repos/bitcoin/bitcoin/issues/16117",
    "id": 497367867,
    "node_id": "MDEyOklzc3VlQ29tbWVudDQ5NzM2Nzg2Nw==",
    "user": {
      "login": "laanwj",
      "id": 126646,
      "node_id": "MDQ6VXNlcjEyNjY0Ng==",
      "avatar_url": "https://avatars.githubusercontent.com/u/126646?v=4",
      "gravatar_id": "",
      "url": "https://api.github.com/users/laanwj",
      "html_url": "https://github.com/laanwj",
      "followers_url": "https://api.github.com/users/laanwj/followers",
      "following_url": "https://api.github.com/users/laanwj/following{/other_user}",
      "gists_url": "https://api.github.com/users/laanwj/gists{/gist_id}",
      "starred_url": "https://api.github.com/users/laanwj/starred{/owner}{/repo}",
      "subscriptions_url": "https://api.github.com/users/laanwj/subscriptions",
      "organizations_url": "https://api.github.com/users/laanwj/orgs",
      "repos_url": "https://api.github.com/users/laanwj/repos",
      "events_url": "https://api.github.com/users/laanwj/events{/privacy}",
      "received_events_url": "https://api.github.com/users/laanwj/received_events",
      "type": "User",
      "site_admin": false
    },
    "created_at": "2019-05-30T15:18:44Z",
    "updated_at": "2019-05-30T18:59:01Z",
    "author_association": "MEMBER",
    "body_html": "<p dir=\"auto\">How do other programs handle this? I though Linux switched to 64 bit timer values on 32-bit systems internally a while ago (and Linux is the only 32 bit platform supported), but I see on ARM <code class=\"notranslate\">time_t</code> is still 32 bit.</p>\n<p dir=\"auto\">I mean it must be possible to handle time correctly on 32-bit systems post-2038—right?</p>\n<p dir=\"auto\">Edit: no, apparently this is not possible?!? Threads from 2015 made my hopeful: <a href=\"https://lwn.net/Articles/643234/\" rel=\"nofollow\">https://lwn.net/Articles/643234/</a> but I don't think this was actually addressed yet, I think.</p>",
    "body_text": "How do other programs handle this? I though Linux switched to 64 bit timer values on 32-bit systems internally a while ago (and Linux is the only 32 bit platform supported), but I see on ARM time_t is still 32 bit.\nI mean it must be possible to handle time correctly on 32-bit systems post-2038—right?\nEdit: no, apparently this is not possible?!? Threads from 2015 made my hopeful: https://lwn.net/Articles/643234/ but I don't think this was actually addressed yet, I think.",
    "body": "How do other programs handle this? I though Linux switched to 64 bit timer values on 32-bit systems internally a while ago (and Linux is the only 32 bit platform supported), but I see on ARM `time_t` is still 32 bit.\r\n\r\nI mean it must be possible to handle time correctly on 32-bit systems post-2038—right?\r\n\r\nEdit: no, apparently this is not possible?!? Threads from 2015 made my hopeful: https://lwn.net/Articles/643234/ but I don't think this was actually addressed yet, I think.\r\n",
    "reactions": {
      "url": "https://api.github.com/repos/bitcoin/bitcoin/issues/comments/497367867/reactions",
      "total_count": 0,
      "+1": 0,
      "-1": 0,
      "laugh": 0,
      "hooray": 0,
      "confused": 0,
      "heart": 0,
      "rocket": 0,
      "eyes": 0
    },
    "performed_via_github_app": null
  },
  {
    "url": "https://api.github.com/repos/bitcoin/bitcoin/issues/comments/497518716",
    "html_url": "https://github.com/bitcoin/bitcoin/pull/16117#issuecomment-497518716",
    "issue_url": "https://api.github.com/repos/bitcoin/bitcoin/issues/16117",
    "id": 497518716,
    "node_id": "MDEyOklzc3VlQ29tbWVudDQ5NzUxODcxNg==",
    "user": {
      "login": "maflcko",
      "id": 6399679,
      "node_id": "MDQ6VXNlcjYzOTk2Nzk=",
      "avatar_url": "https://avatars.githubusercontent.com/u/6399679?v=4",
      "gravatar_id": "",
      "url": "https://api.github.com/users/maflcko",
      "html_url": "https://github.com/maflcko",
      "followers_url": "https://api.github.com/users/maflcko/followers",
      "following_url": "https://api.github.com/users/maflcko/following{/other_user}",
      "gists_url": "https://api.github.com/users/maflcko/gists{/gist_id}",
      "starred_url": "https://api.github.com/users/maflcko/starred{/owner}{/repo}",
      "subscriptions_url": "https://api.github.com/users/maflcko/subscriptions",
      "organizations_url": "https://api.github.com/users/maflcko/orgs",
      "repos_url": "https://api.github.com/users/maflcko/repos",
      "events_url": "https://api.github.com/users/maflcko/events{/privacy}",
      "received_events_url": "https://api.github.com/users/maflcko/received_events",
      "type": "User",
      "site_admin": false
    },
    "created_at": "2019-05-30T23:15:49Z",
    "updated_at": "2019-05-31T00:11:08Z",
    "author_association": "MEMBER",
    "body_html": "<blockquote>\n<p dir=\"auto\">After this PR bitcoind will keep running but with negative time returned from these functions :-)</p>\n</blockquote>\n<p dir=\"auto\">Can you please explain a bit more why this happens. Be reminded that the predefined <code class=\"notranslate\">std::chrono::duration</code>s use an underlying integer type that is large enough (for year 2038 to be of no problem).</p>",
    "body_text": "After this PR bitcoind will keep running but with negative time returned from these functions :-)\n\nCan you please explain a bit more why this happens. Be reminded that the predefined std::chrono::durations use an underlying integer type that is large enough (for year 2038 to be of no problem).",
    "body": "> After this PR bitcoind will keep running but with negative time returned from these functions :-)\r\n\r\nCan you please explain a bit more why this happens. Be reminded that the predefined `std::chrono::duration`s use an underlying integer type that is large enough (for year 2038 to be of no problem).",
    "reactions": {
      "url": "https://api.github.com/repos/bitcoin/bitcoin/issues/comments/497518716/reactions",
      "total_count": 0,
      "+1": 0,
      "-1": 0,
      "laugh": 0,
      "hooray": 0,
      "confused": 0,
      "heart": 0,
      "rocket": 0,
      "eyes": 0
    },
    "performed_via_github_app": null
  },
  {
    "url": "https://api.github.com/repos/bitcoin/bitcoin/issues/comments/499380260",
    "html_url": "https://github.com/bitcoin/bitcoin/pull/16117#issuecomment-499380260",
    "issue_url": "https://api.github.com/repos/bitcoin/bitcoin/issues/16117",
    "id": 499380260,
    "node_id": "MDEyOklzc3VlQ29tbWVudDQ5OTM4MDI2MA==",
    "user": {
      "login": "practicalswift",
      "id": 7826565,
      "node_id": "MDQ6VXNlcjc4MjY1NjU=",
      "avatar_url": "https://avatars.githubusercontent.com/u/7826565?v=4",
      "gravatar_id": "",
      "url": "https://api.github.com/users/practicalswift",
      "html_url": "https://github.com/practicalswift",
      "followers_url": "https://api.github.com/users/practicalswift/followers",
      "following_url": "https://api.github.com/users/practicalswift/following{/other_user}",
      "gists_url": "https://api.github.com/users/practicalswift/gists{/gist_id}",
      "starred_url": "https://api.github.com/users/practicalswift/starred{/owner}{/repo}",
      "subscriptions_url": "https://api.github.com/users/practicalswift/subscriptions",
      "organizations_url": "https://api.github.com/users/practicalswift/orgs",
      "repos_url": "https://api.github.com/users/practicalswift/repos",
      "events_url": "https://api.github.com/users/practicalswift/events{/privacy}",
      "received_events_url": "https://api.github.com/users/practicalswift/received_events",
      "type": "User",
      "site_admin": false
    },
    "created_at": "2019-06-06T07:23:35Z",
    "updated_at": "2019-06-06T07:25:09Z",
    "author_association": "CONTRIBUTOR",
    "body_html": "<blockquote>\n<blockquote>\n<p dir=\"auto\">After this PR bitcoind will keep running but with negative time returned from these functions :-)</p>\n</blockquote>\n<p dir=\"auto\">Can you please explain a bit more why this happens. Be reminded that the predefined <code class=\"notranslate\">std::chrono::duration</code>s use an underlying integer type that is large enough (for year 2038 to be of no problem).</p>\n</blockquote>\n<p dir=\"auto\">As long as the syscall used returns 32-bit time (since epoch) on 32-bit systems this cannot be solved no matter what integer types are used to abstract time in the standard library, right? :-)</p>",
    "body_text": "After this PR bitcoind will keep running but with negative time returned from these functions :-)\n\nCan you please explain a bit more why this happens. Be reminded that the predefined std::chrono::durations use an underlying integer type that is large enough (for year 2038 to be of no problem).\n\nAs long as the syscall used returns 32-bit time (since epoch) on 32-bit systems this cannot be solved no matter what integer types are used to abstract time in the standard library, right? :-)",
    "body": "> > After this PR bitcoind will keep running but with negative time returned from these functions :-)\r\n> \r\n> Can you please explain a bit more why this happens. Be reminded that the predefined `std::chrono::duration`s use an underlying integer type that is large enough (for year 2038 to be of no problem).\r\n\r\nAs long as the syscall used returns 32-bit time (since epoch) on 32-bit systems this cannot be solved no matter what integer types are used to abstract time in the standard library, right? :-)",
    "reactions": {
      "url": "https://api.github.com/repos/bitcoin/bitcoin/issues/comments/499380260/reactions",
      "total_count": 0,
      "+1": 0,
      "-1": 0,
      "laugh": 0,
      "hooray": 0,
      "confused": 0,
      "heart": 0,
      "rocket": 0,
      "eyes": 0
    },
    "performed_via_github_app": null
  },
  {
    "url": "https://api.github.com/repos/bitcoin/bitcoin/issues/comments/500317864",
    "html_url": "https://github.com/bitcoin/bitcoin/pull/16117#issuecomment-500317864",
    "issue_url": "https://api.github.com/repos/bitcoin/bitcoin/issues/16117",
    "id": 500317864,
    "node_id": "MDEyOklzc3VlQ29tbWVudDUwMDMxNzg2NA==",
    "user": {
      "login": "maflcko",
      "id": 6399679,
      "node_id": "MDQ6VXNlcjYzOTk2Nzk=",
      "avatar_url": "https://avatars.githubusercontent.com/u/6399679?v=4",
      "gravatar_id": "",
      "url": "https://api.github.com/users/maflcko",
      "html_url": "https://github.com/maflcko",
      "followers_url": "https://api.github.com/users/maflcko/followers",
      "following_url": "https://api.github.com/users/maflcko/following{/other_user}",
      "gists_url": "https://api.github.com/users/maflcko/gists{/gist_id}",
      "starred_url": "https://api.github.com/users/maflcko/starred{/owner}{/repo}",
      "subscriptions_url": "https://api.github.com/users/maflcko/subscriptions",
      "organizations_url": "https://api.github.com/users/maflcko/orgs",
      "repos_url": "https://api.github.com/users/maflcko/repos",
      "events_url": "https://api.github.com/users/maflcko/events{/privacy}",
      "received_events_url": "https://api.github.com/users/maflcko/received_events",
      "type": "User",
      "site_admin": false
    },
    "created_at": "2019-06-10T07:19:34Z",
    "updated_at": "2019-06-10T07:19:34Z",
    "author_association": "MEMBER",
    "body_html": "<p dir=\"auto\">Yeah, and the you can't run the underlying system anyway. There is no need to try to figure out how to make Bitcoin Core work on a broken system.</p>",
    "body_text": "Yeah, and the you can't run the underlying system anyway. There is no need to try to figure out how to make Bitcoin Core work on a broken system.",
    "body": "Yeah, and the you can't run the underlying system anyway. There is no need to try to figure out how to make Bitcoin Core work on a broken system.",
    "reactions": {
      "url": "https://api.github.com/repos/bitcoin/bitcoin/issues/comments/500317864/reactions",
      "total_count": 0,
      "+1": 0,
      "-1": 0,
      "laugh": 0,
      "hooray": 0,
      "confused": 0,
      "heart": 0,
      "rocket": 0,
      "eyes": 0
    },
    "performed_via_github_app": null
  },
  {
    "url": "https://api.github.com/repos/bitcoin/bitcoin/issues/comments/500394010",
    "html_url": "https://github.com/bitcoin/bitcoin/pull/16117#issuecomment-500394010",
    "issue_url": "https://api.github.com/repos/bitcoin/bitcoin/issues/16117",
    "id": 500394010,
    "node_id": "MDEyOklzc3VlQ29tbWVudDUwMDM5NDAxMA==",
    "user": {
      "login": "practicalswift",
      "id": 7826565,
      "node_id": "MDQ6VXNlcjc4MjY1NjU=",
      "avatar_url": "https://avatars.githubusercontent.com/u/7826565?v=4",
      "gravatar_id": "",
      "url": "https://api.github.com/users/practicalswift",
      "html_url": "https://github.com/practicalswift",
      "followers_url": "https://api.github.com/users/practicalswift/followers",
      "following_url": "https://api.github.com/users/practicalswift/following{/other_user}",
      "gists_url": "https://api.github.com/users/practicalswift/gists{/gist_id}",
      "starred_url": "https://api.github.com/users/practicalswift/starred{/owner}{/repo}",
      "subscriptions_url": "https://api.github.com/users/practicalswift/subscriptions",
      "organizations_url": "https://api.github.com/users/practicalswift/orgs",
      "repos_url": "https://api.github.com/users/practicalswift/repos",
      "events_url": "https://api.github.com/users/practicalswift/events{/privacy}",
      "received_events_url": "https://api.github.com/users/practicalswift/received_events",
      "type": "User",
      "site_admin": false
    },
    "created_at": "2019-06-10T12:10:55Z",
    "updated_at": "2019-06-10T12:10:55Z",
    "author_association": "CONTRIBUTOR",
    "body_html": "<p dir=\"auto\"><a class=\"user-mention notranslate\" data-hovercard-type=\"user\" data-hovercard-url=\"/users/MarcoFalke/hovercard\" data-octo-click=\"hovercard-link-click\" data-octo-dimensions=\"link_type:self\" href=\"https://github.com/MarcoFalke\">@MarcoFalke</a> Perhaps we should start thinking about a deprecation plan for 32-bit systems (see <a class=\"issue-link js-issue-link\" data-error-text=\"Failed to load title\" data-id=\"448584792\" data-permission-text=\"Title is private\" data-url=\"https://github.com/bitcoin/bitcoin/issues/16096\" data-hovercard-type=\"issue\" data-hovercard-url=\"/bitcoin/bitcoin/issues/16096/hovercard\" href=\"https://github.com/bitcoin/bitcoin/issues/16096\">#16096</a>)? Even if this is 19 years away software tends to live longer than originally anticipated :-)</p>",
    "body_text": "@MarcoFalke Perhaps we should start thinking about a deprecation plan for 32-bit systems (see #16096)? Even if this is 19 years away software tends to live longer than originally anticipated :-)",
    "body": "@MarcoFalke Perhaps we should start thinking about a deprecation plan for 32-bit systems (see #16096)? Even if this is 19 years away software tends to live longer than originally anticipated :-)",
    "reactions": {
      "url": "https://api.github.com/repos/bitcoin/bitcoin/issues/comments/500394010/reactions",
      "total_count": 0,
      "+1": 0,
      "-1": 0,
      "laugh": 0,
      "hooray": 0,
      "confused": 0,
      "heart": 0,
      "rocket": 0,
      "eyes": 0
    },
    "performed_via_github_app": null
  },
  {
    "url": "https://api.github.com/repos/bitcoin/bitcoin/issues/comments/589782024",
    "html_url": "https://github.com/bitcoin/bitcoin/pull/16117#issuecomment-589782024",
    "issue_url": "https://api.github.com/repos/bitcoin/bitcoin/issues/16117",
    "id": 589782024,
    "node_id": "MDEyOklzc3VlQ29tbWVudDU4OTc4MjAyNA==",
    "user": {
      "login": "maflcko",
      "id": 6399679,
      "node_id": "MDQ6VXNlcjYzOTk2Nzk=",
      "avatar_url": "https://avatars.githubusercontent.com/u/6399679?v=4",
      "gravatar_id": "",
      "url": "https://api.github.com/users/maflcko",
      "html_url": "https://github.com/maflcko",
      "followers_url": "https://api.github.com/users/maflcko/followers",
      "following_url": "https://api.github.com/users/maflcko/following{/other_user}",
      "gists_url": "https://api.github.com/users/maflcko/gists{/gist_id}",
      "starred_url": "https://api.github.com/users/maflcko/starred{/owner}{/repo}",
      "subscriptions_url": "https://api.github.com/users/maflcko/subscriptions",
      "organizations_url": "https://api.github.com/users/maflcko/orgs",
      "repos_url": "https://api.github.com/users/maflcko/repos",
      "events_url": "https://api.github.com/users/maflcko/events{/privacy}",
      "received_events_url": "https://api.github.com/users/maflcko/received_events",
      "type": "User",
      "site_admin": false
    },
    "created_at": "2020-02-21T18:42:46Z",
    "updated_at": "2020-02-21T18:42:46Z",
    "author_association": "MEMBER",
    "body_html": "<p dir=\"auto\">I've removed the changes on the time getters, so that this doesn't drift off into a discussion about the y2038 problem</p>",
    "body_text": "I've removed the changes on the time getters, so that this doesn't drift off into a discussion about the y2038 problem",
    "body": "I've removed the changes on the time getters, so that this doesn't drift off into a discussion about the y2038 problem",
    "reactions": {
      "url": "https://api.github.com/repos/bitcoin/bitcoin/issues/comments/589782024/reactions",
      "total_count": 0,
      "+1": 0,
      "-1": 0,
      "laugh": 0,
      "hooray": 0,
      "confused": 0,
      "heart": 0,
      "rocket": 0,
      "eyes": 0
    },
    "performed_via_github_app": null
  },
  {
    "url": "https://api.github.com/repos/bitcoin/bitcoin/issues/comments/590047199",
    "html_url": "https://github.com/bitcoin/bitcoin/pull/16117#issuecomment-590047199",
    "issue_url": "https://api.github.com/repos/bitcoin/bitcoin/issues/16117",
    "id": 590047199,
    "node_id": "MDEyOklzc3VlQ29tbWVudDU5MDA0NzE5OQ==",
    "user": {
      "login": "practicalswift",
      "id": 7826565,
      "node_id": "MDQ6VXNlcjc4MjY1NjU=",
      "avatar_url": "https://avatars.githubusercontent.com/u/7826565?v=4",
      "gravatar_id": "",
      "url": "https://api.github.com/users/practicalswift",
      "html_url": "https://github.com/practicalswift",
      "followers_url": "https://api.github.com/users/practicalswift/followers",
      "following_url": "https://api.github.com/users/practicalswift/following{/other_user}",
      "gists_url": "https://api.github.com/users/practicalswift/gists{/gist_id}",
      "starred_url": "https://api.github.com/users/practicalswift/starred{/owner}{/repo}",
      "subscriptions_url": "https://api.github.com/users/practicalswift/subscriptions",
      "organizations_url": "https://api.github.com/users/practicalswift/orgs",
      "repos_url": "https://api.github.com/users/practicalswift/repos",
      "events_url": "https://api.github.com/users/practicalswift/events{/privacy}",
      "received_events_url": "https://api.github.com/users/practicalswift/received_events",
      "type": "User",
      "site_admin": false
    },
    "created_at": "2020-02-23T09:01:33Z",
    "updated_at": "2020-02-23T09:01:33Z",
    "author_association": "CONTRIBUTOR",
    "body_html": "<p dir=\"auto\">ACK <a class=\"commit-link\" data-hovercard-type=\"commit\" data-hovercard-url=\"https://github.com/bitcoin/bitcoin/commit/fae86c38bca5c960462e53975314a0749db5d17d/hovercard\" href=\"https://github.com/bitcoin/bitcoin/commit/fae86c38bca5c960462e53975314a0749db5d17d\"><tt>fae86c3</tt></a> -- patch looks correct</p>",
    "body_text": "ACK fae86c3 -- patch looks correct",
    "body": "ACK fae86c38bca5c960462e53975314a0749db5d17d -- patch looks correct",
    "reactions": {
      "url": "https://api.github.com/repos/bitcoin/bitcoin/issues/comments/590047199/reactions",
      "total_count": 0,
      "+1": 0,
      "-1": 0,
      "laugh": 0,
      "hooray": 0,
      "confused": 0,
      "heart": 0,
      "rocket": 0,
      "eyes": 0
    },
    "performed_via_github_app": null
  },
  {
    "url": "https://api.github.com/repos/bitcoin/bitcoin/issues/comments/594345995",
    "html_url": "https://github.com/bitcoin/bitcoin/pull/16117#issuecomment-594345995",
    "issue_url": "https://api.github.com/repos/bitcoin/bitcoin/issues/16117",
    "id": 594345995,
    "node_id": "MDEyOklzc3VlQ29tbWVudDU5NDM0NTk5NQ==",
    "user": {
      "login": "sipa",
      "id": 548488,
      "node_id": "MDQ6VXNlcjU0ODQ4OA==",
      "avatar_url": "https://avatars.githubusercontent.com/u/548488?v=4",
      "gravatar_id": "",
      "url": "https://api.github.com/users/sipa",
      "html_url": "https://github.com/sipa",
      "followers_url": "https://api.github.com/users/sipa/followers",
      "following_url": "https://api.github.com/users/sipa/following{/other_user}",
      "gists_url": "https://api.github.com/users/sipa/gists{/gist_id}",
      "starred_url": "https://api.github.com/users/sipa/starred{/owner}{/repo}",
      "subscriptions_url": "https://api.github.com/users/sipa/subscriptions",
      "organizations_url": "https://api.github.com/users/sipa/orgs",
      "repos_url": "https://api.github.com/users/sipa/repos",
      "events_url": "https://api.github.com/users/sipa/events{/privacy}",
      "received_events_url": "https://api.github.com/users/sipa/received_events",
      "type": "User",
      "site_admin": false
    },
    "created_at": "2020-03-04T06:12:07Z",
    "updated_at": "2020-03-04T06:12:07Z",
    "author_association": "MEMBER",
    "body_html": "<p dir=\"auto\">Concept and code review ACK <a class=\"commit-link\" data-hovercard-type=\"commit\" data-hovercard-url=\"https://github.com/bitcoin/bitcoin/commit/fae86c38bca5c960462e53975314a0749db5d17d/hovercard\" href=\"https://github.com/bitcoin/bitcoin/commit/fae86c38bca5c960462e53975314a0749db5d17d\"><tt>fae86c3</tt></a></p>",
    "body_text": "Concept and code review ACK fae86c3",
    "body": "Concept and code review ACK fae86c38bca5c960462e53975314a0749db5d17d",
    "reactions": {
      "url": "https://api.github.com/repos/bitcoin/bitcoin/issues/comments/594345995/reactions",
      "total_count": 0,
      "+1": 0,
      "-1": 0,
      "laugh": 0,
      "hooray": 0,
      "confused": 0,
      "heart": 0,
      "rocket": 0,
      "eyes": 0
    },
    "performed_via_github_app": null
  },
  {
    "url": "https://api.github.com/repos/bitcoin/bitcoin/issues/comments/595633802",
    "html_url": "https://github.com/bitcoin/bitcoin/pull/16117#issuecomment-595633802",
    "issue_url": "https://api.github.com/repos/bitcoin/bitcoin/issues/16117",
    "id": 595633802,
    "node_id": "MDEyOklzc3VlQ29tbWVudDU5NTYzMzgwMg==",
    "user": {
      "login": "ajtowns",
      "id": 127186,
      "node_id": "MDQ6VXNlcjEyNzE4Ng==",
      "avatar_url": "https://avatars.githubusercontent.com/u/127186?v=4",
      "gravatar_id": "",
      "url": "https://api.github.com/users/ajtowns",
      "html_url": "https://github.com/ajtowns",
      "followers_url": "https://api.github.com/users/ajtowns/followers",
      "following_url": "https://api.github.com/users/ajtowns/following{/other_user}",
      "gists_url": "https://api.github.com/users/ajtowns/gists{/gist_id}",
      "starred_url": "https://api.github.com/users/ajtowns/starred{/owner}{/repo}",
      "subscriptions_url": "https://api.github.com/users/ajtowns/subscriptions",
      "organizations_url": "https://api.github.com/users/ajtowns/orgs",
      "repos_url": "https://api.github.com/users/ajtowns/repos",
      "events_url": "https://api.github.com/users/ajtowns/events{/privacy}",
      "received_events_url": "https://api.github.com/users/ajtowns/received_events",
      "type": "User",
      "site_admin": false
    },
    "created_at": "2020-03-06T07:15:31Z",
    "updated_at": "2020-03-06T07:15:31Z",
    "author_association": "CONTRIBUTOR",
    "body_html": "<p dir=\"auto\">ACK <a class=\"commit-link\" data-hovercard-type=\"commit\" data-hovercard-url=\"https://github.com/bitcoin/bitcoin/commit/fae86c38bca5c960462e53975314a0749db5d17d/hovercard\" href=\"https://github.com/bitcoin/bitcoin/commit/fae86c38bca5c960462e53975314a0749db5d17d\"><tt>fae86c3</tt></a> quick code review</p>",
    "body_text": "ACK fae86c3 quick code review",
    "body": "ACK fae86c38bca5c960462e53975314a0749db5d17d quick code review",
    "reactions": {
      "url": "https://api.github.com/repos/bitcoin/bitcoin/issues/comments/595633802/reactions",
      "total_count": 0,
      "+1": 0,
      "-1": 0,
      "laugh": 0,
      "hooray": 0,
      "confused": 0,
      "heart": 0,
      "rocket": 0,
      "eyes": 0
    },
    "performed_via_github_app": null
  },
  {
    "url": "https://api.github.com/repos/bitcoin/bitcoin/issues/comments/595908179",
    "html_url": "https://github.com/bitcoin/bitcoin/pull/16117#issuecomment-595908179",
    "issue_url": "https://api.github.com/repos/bitcoin/bitcoin/issues/16117",
    "id": 595908179,
    "node_id": "MDEyOklzc3VlQ29tbWVudDU5NTkwODE3OQ==",
    "user": {
      "login": "laanwj",
      "id": 126646,
      "node_id": "MDQ6VXNlcjEyNjY0Ng==",
      "avatar_url": "https://avatars.githubusercontent.com/u/126646?v=4",
      "gravatar_id": "",
      "url": "https://api.github.com/users/laanwj",
      "html_url": "https://github.com/laanwj",
      "followers_url": "https://api.github.com/users/laanwj/followers",
      "following_url": "https://api.github.com/users/laanwj/following{/other_user}",
      "gists_url": "https://api.github.com/users/laanwj/gists{/gist_id}",
      "starred_url": "https://api.github.com/users/laanwj/starred{/owner}{/repo}",
      "subscriptions_url": "https://api.github.com/users/laanwj/subscriptions",
      "organizations_url": "https://api.github.com/users/laanwj/orgs",
      "repos_url": "https://api.github.com/users/laanwj/repos",
      "events_url": "https://api.github.com/users/laanwj/events{/privacy}",
      "received_events_url": "https://api.github.com/users/laanwj/received_events",
      "type": "User",
      "site_admin": false
    },
    "created_at": "2020-03-06T18:50:45Z",
    "updated_at": "2020-03-06T18:50:45Z",
    "author_association": "MEMBER",
    "body_html": "<p dir=\"auto\">Postmortem ACK.</p>",
    "body_text": "Postmortem ACK.",
    "body": "Postmortem ACK.",
    "reactions": {
      "url": "https://api.github.com/repos/bitcoin/bitcoin/issues/comments/595908179/reactions",
      "total_count": 0,
      "+1": 0,
      "-1": 0,
      "laugh": 0,
      "hooray": 0,
      "confused": 0,
      "heart": 0,
      "rocket": 0,
      "eyes": 0
    },
    "performed_via_github_app": null
  }
]
