{
  "url": "https://api.github.com/repos/bitcoin/bitcoin/issues/19741",
  "repository_url": "https://api.github.com/repos/bitcoin/bitcoin",
  "labels_url": "https://api.github.com/repos/bitcoin/bitcoin/issues/19741/labels{/name}",
  "comments_url": "https://api.github.com/repos/bitcoin/bitcoin/issues/19741/comments",
  "events_url": "https://api.github.com/repos/bitcoin/bitcoin/issues/19741/events",
  "html_url": "https://github.com/bitcoin/bitcoin/issues/19741",
  "id": 679913528,
  "node_id": "MDU6SXNzdWU2Nzk5MTM1Mjg=",
  "number": 19741,
  "title": ".",
  "user": {
    "login": "doianmai2020",
    "id": 69721895,
    "node_id": "MDQ6VXNlcjY5NzIxODk1",
    "avatar_url": "https://avatars.githubusercontent.com/u/69721895?v=4",
    "gravatar_id": "",
    "url": "https://api.github.com/users/doianmai2020",
    "html_url": "https://github.com/doianmai2020",
    "followers_url": "https://api.github.com/users/doianmai2020/followers",
    "following_url": "https://api.github.com/users/doianmai2020/following{/other_user}",
    "gists_url": "https://api.github.com/users/doianmai2020/gists{/gist_id}",
    "starred_url": "https://api.github.com/users/doianmai2020/starred{/owner}{/repo}",
    "subscriptions_url": "https://api.github.com/users/doianmai2020/subscriptions",
    "organizations_url": "https://api.github.com/users/doianmai2020/orgs",
    "repos_url": "https://api.github.com/users/doianmai2020/repos",
    "events_url": "https://api.github.com/users/doianmai2020/events{/privacy}",
    "received_events_url": "https://api.github.com/users/doianmai2020/received_events",
    "type": "User",
    "site_admin": false
  },
  "labels": [

  ],
  "state": "closed",
  "locked": true,
  "assignee": null,
  "assignees": [

  ],
  "milestone": null,
  "comments": 0,
  "created_at": "2020-08-17T03:54:00Z",
  "updated_at": "2020-08-31T03:25:37Z",
  "closed_at": "2020-08-17T04:10:34Z",
  "author_association": "NONE",
  "active_lock_reason": null,
  "body_html": "",
  "body_text": "",
  "body": "",
  "closed_by": {
    "login": "fanquake",
    "id": 863730,
    "node_id": "MDQ6VXNlcjg2MzczMA==",
    "avatar_url": "https://avatars.githubusercontent.com/u/863730?v=4",
    "gravatar_id": "",
    "url": "https://api.github.com/users/fanquake",
    "html_url": "https://github.com/fanquake",
    "followers_url": "https://api.github.com/users/fanquake/followers",
    "following_url": "https://api.github.com/users/fanquake/following{/other_user}",
    "gists_url": "https://api.github.com/users/fanquake/gists{/gist_id}",
    "starred_url": "https://api.github.com/users/fanquake/starred{/owner}{/repo}",
    "subscriptions_url": "https://api.github.com/users/fanquake/subscriptions",
    "organizations_url": "https://api.github.com/users/fanquake/orgs",
    "repos_url": "https://api.github.com/users/fanquake/repos",
    "events_url": "https://api.github.com/users/fanquake/events{/privacy}",
    "received_events_url": "https://api.github.com/users/fanquake/received_events",
    "type": "User",
    "site_admin": false
  },
  "reactions": {
    "url": "https://api.github.com/repos/bitcoin/bitcoin/issues/19741/reactions",
    "total_count": 0,
    "+1": 0,
    "-1": 0,
    "laugh": 0,
    "hooray": 0,
    "confused": 0,
    "heart": 0,
    "rocket": 0,
    "eyes": 0
  },
  "timeline_url": "https://api.github.com/repos/bitcoin/bitcoin/issues/19741/timeline",
  "performed_via_github_app": null,
  "state_reason": "completed"
}
