[
  {
    "url": "https://api.github.com/repos/bitcoin/bitcoin/issues/comments/1826392799",
    "html_url": "https://github.com/bitcoin/bitcoin/pull/28938#issuecomment-1826392799",
    "issue_url": "https://api.github.com/repos/bitcoin/bitcoin/issues/28938",
    "id": 1826392799,
    "node_id": "IC_kwDOABII585s3Irf",
    "user": {
      "login": "DrahtBot",
      "id": 39886733,
      "node_id": "MDQ6VXNlcjM5ODg2NzMz",
      "avatar_url": "https://avatars.githubusercontent.com/u/39886733?v=4",
      "gravatar_id": "",
      "url": "https://api.github.com/users/DrahtBot",
      "html_url": "https://github.com/DrahtBot",
      "followers_url": "https://api.github.com/users/DrahtBot/followers",
      "following_url": "https://api.github.com/users/DrahtBot/following{/other_user}",
      "gists_url": "https://api.github.com/users/DrahtBot/gists{/gist_id}",
      "starred_url": "https://api.github.com/users/DrahtBot/starred{/owner}{/repo}",
      "subscriptions_url": "https://api.github.com/users/DrahtBot/subscriptions",
      "organizations_url": "https://api.github.com/users/DrahtBot/orgs",
      "repos_url": "https://api.github.com/users/DrahtBot/repos",
      "events_url": "https://api.github.com/users/DrahtBot/events{/privacy}",
      "received_events_url": "https://api.github.com/users/DrahtBot/received_events",
      "type": "User",
      "site_admin": false
    },
    "created_at": "2023-11-25T18:25:59Z",
    "updated_at": "2023-11-30T15:05:29Z",
    "author_association": "CONTRIBUTOR",
    "body_html": "\n<p dir=\"auto\">The following sections might be updated with supplementary metadata relevant to reviewers and maintainers.</p>\n\n<h3 dir=\"auto\">Code Coverage</h3>\n<p dir=\"auto\">For detailed information about the code coverage, see the <a href=\"https://corecheck.dev/bitcoin/bitcoin/pulls/28938\" rel=\"nofollow\">test coverage report</a>.</p>\n\n<h3 dir=\"auto\">Reviews</h3>\n<p dir=\"auto\">See <a href=\"https://github.com/bitcoin/bitcoin/blob/master/CONTRIBUTING.md#code-review\">the guideline</a> for information on the review process.</p>\n<table role=\"table\">\n<thead>\n<tr>\n<th>Type</th>\n<th>Reviewers</th>\n</tr>\n</thead>\n<tbody>\n<tr>\n<td>ACK</td>\n<td><a href=\"https://github.com/bitcoin/bitcoin/pull/28938#pullrequestreview-1757694045\" data-hovercard-type=\"pull_request\" data-hovercard-url=\"/bitcoin/bitcoin/pull/28938/hovercard\">fanquake</a></td>\n</tr>\n</tbody>\n</table>\n<p dir=\"auto\">If your review is incorrectly listed, please react with 👎 to this comment and the bot will ignore it on the next update.</p>",
    "body_text": "The following sections might be updated with supplementary metadata relevant to reviewers and maintainers.\n\nCode Coverage\nFor detailed information about the code coverage, see the test coverage report.\n\nReviews\nSee the guideline for information on the review process.\n\n\n\nType\nReviewers\n\n\n\n\nACK\nfanquake\n\n\n\nIf your review is incorrectly listed, please react with 👎 to this comment and the bot will ignore it on the next update.",
    "body": "<!--e57a25ab6845829454e8d69fc972939a-->\n\nThe following sections might be updated with supplementary metadata relevant to reviewers and maintainers.\n\n<!--006a51241073e994b41acfe9ec718e94-->\n### Code Coverage\nFor detailed information about the code coverage, see the [test coverage report](https://corecheck.dev/bitcoin/bitcoin/pulls/28938).\n<!--021abf342d371248e50ceaed478a90ca-->\n### Reviews\nSee [the guideline](https://github.com/bitcoin/bitcoin/blob/master/CONTRIBUTING.md#code-review) for information on the review process.\n| Type | Reviewers |\n| ---- | --------- |\n| ACK | [fanquake](https://github.com/bitcoin/bitcoin/pull/28938#pullrequestreview-1757694045) |\n\nIf your review is incorrectly listed, please react with 👎 to this comment and the bot will ignore it on the next update.\n",
    "reactions": {
      "url": "https://api.github.com/repos/bitcoin/bitcoin/issues/comments/1826392799/reactions",
      "total_count": 0,
      "+1": 0,
      "-1": 0,
      "laugh": 0,
      "hooray": 0,
      "confused": 0,
      "heart": 0,
      "rocket": 0,
      "eyes": 0
    },
    "performed_via_github_app": null
  }
]
