[
  {
    "url": "https://api.github.com/repos/bitcoin/bitcoin/issues/comments/459854112",
    "html_url": "https://github.com/bitcoin/bitcoin/pull/15321#issuecomment-459854112",
    "issue_url": "https://api.github.com/repos/bitcoin/bitcoin/issues/15321",
    "id": 459854112,
    "node_id": "MDEyOklzc3VlQ29tbWVudDQ1OTg1NDExMg==",
    "user": {
      "login": "practicalswift",
      "id": 7826565,
      "node_id": "MDQ6VXNlcjc4MjY1NjU=",
      "avatar_url": "https://avatars.githubusercontent.com/u/7826565?v=4",
      "gravatar_id": "",
      "url": "https://api.github.com/users/practicalswift",
      "html_url": "https://github.com/practicalswift",
      "followers_url": "https://api.github.com/users/practicalswift/followers",
      "following_url": "https://api.github.com/users/practicalswift/following{/other_user}",
      "gists_url": "https://api.github.com/users/practicalswift/gists{/gist_id}",
      "starred_url": "https://api.github.com/users/practicalswift/starred{/owner}{/repo}",
      "subscriptions_url": "https://api.github.com/users/practicalswift/subscriptions",
      "organizations_url": "https://api.github.com/users/practicalswift/orgs",
      "repos_url": "https://api.github.com/users/practicalswift/repos",
      "events_url": "https://api.github.com/users/practicalswift/events{/privacy}",
      "received_events_url": "https://api.github.com/users/practicalswift/received_events",
      "type": "User",
      "site_admin": false
    },
    "created_at": "2019-02-01T20:16:58Z",
    "updated_at": "2019-02-01T20:16:58Z",
    "author_association": "CONTRIBUTOR",
    "body_html": "<p dir=\"auto\">Concept ACK</p>\n<p dir=\"auto\">Thanks for adding this missing annotation.</p>",
    "body_text": "Concept ACK\nThanks for adding this missing annotation.",
    "body": "Concept ACK\r\n\r\nThanks for adding this missing annotation.",
    "reactions": {
      "url": "https://api.github.com/repos/bitcoin/bitcoin/issues/comments/459854112/reactions",
      "total_count": 0,
      "+1": 0,
      "-1": 0,
      "laugh": 0,
      "hooray": 0,
      "confused": 0,
      "heart": 0,
      "rocket": 0,
      "eyes": 0
    },
    "performed_via_github_app": null
  },
  {
    "url": "https://api.github.com/repos/bitcoin/bitcoin/issues/comments/460156720",
    "html_url": "https://github.com/bitcoin/bitcoin/pull/15321#issuecomment-460156720",
    "issue_url": "https://api.github.com/repos/bitcoin/bitcoin/issues/15321",
    "id": 460156720,
    "node_id": "MDEyOklzc3VlQ29tbWVudDQ2MDE1NjcyMA==",
    "user": {
      "login": "Empact",
      "id": 5470,
      "node_id": "MDQ6VXNlcjU0NzA=",
      "avatar_url": "https://avatars.githubusercontent.com/u/5470?v=4",
      "gravatar_id": "",
      "url": "https://api.github.com/users/Empact",
      "html_url": "https://github.com/Empact",
      "followers_url": "https://api.github.com/users/Empact/followers",
      "following_url": "https://api.github.com/users/Empact/following{/other_user}",
      "gists_url": "https://api.github.com/users/Empact/gists{/gist_id}",
      "starred_url": "https://api.github.com/users/Empact/starred{/owner}{/repo}",
      "subscriptions_url": "https://api.github.com/users/Empact/subscriptions",
      "organizations_url": "https://api.github.com/users/Empact/orgs",
      "repos_url": "https://api.github.com/users/Empact/repos",
      "events_url": "https://api.github.com/users/Empact/events{/privacy}",
      "received_events_url": "https://api.github.com/users/Empact/received_events",
      "type": "User",
      "site_admin": false
    },
    "created_at": "2019-02-04T07:47:46Z",
    "updated_at": "2019-02-04T07:47:46Z",
    "author_association": "MEMBER",
    "body_html": "<p dir=\"auto\">utACK <a class=\"commit-link\" data-hovercard-type=\"commit\" data-hovercard-url=\"https://github.com/bitcoin/bitcoin/commit/fa2a69fcb92c7f13c07f982c46df8a64e577dab9/hovercard\" href=\"https://github.com/bitcoin/bitcoin/commit/fa2a69fcb92c7f13c07f982c46df8a64e577dab9\"><tt>fa2a69f</tt></a></p>",
    "body_text": "utACK fa2a69f",
    "body": "utACK https://github.com/bitcoin/bitcoin/pull/15321/commits/fa2a69fcb92c7f13c07f982c46df8a64e577dab9",
    "reactions": {
      "url": "https://api.github.com/repos/bitcoin/bitcoin/issues/comments/460156720/reactions",
      "total_count": 0,
      "+1": 0,
      "-1": 0,
      "laugh": 0,
      "hooray": 0,
      "confused": 0,
      "heart": 0,
      "rocket": 0,
      "eyes": 0
    },
    "performed_via_github_app": null
  }
]
