{
  "url": "https://api.github.com/repos/bitcoin/bitcoin/issues/16231",
  "repository_url": "https://api.github.com/repos/bitcoin/bitcoin",
  "labels_url": "https://api.github.com/repos/bitcoin/bitcoin/issues/16231/labels{/name}",
  "comments_url": "https://api.github.com/repos/bitcoin/bitcoin/issues/16231/comments",
  "events_url": "https://api.github.com/repos/bitcoin/bitcoin/issues/16231/events",
  "html_url": "https://github.com/bitcoin/bitcoin/pull/16231",
  "id": 457479183,
  "node_id": "MDExOlB1bGxSZXF1ZXN0Mjg5Mjc5MzM1",
  "number": 16231,
  "title": "gui: Fix open wallet menu initialization order",
  "user": {
    "login": "promag",
    "id": 3534524,
    "node_id": "MDQ6VXNlcjM1MzQ1MjQ=",
    "avatar_url": "https://avatars.githubusercontent.com/u/3534524?v=4",
    "gravatar_id": "",
    "url": "https://api.github.com/users/promag",
    "html_url": "https://github.com/promag",
    "followers_url": "https://api.github.com/users/promag/followers",
    "following_url": "https://api.github.com/users/promag/following{/other_user}",
    "gists_url": "https://api.github.com/users/promag/gists{/gist_id}",
    "starred_url": "https://api.github.com/users/promag/starred{/owner}{/repo}",
    "subscriptions_url": "https://api.github.com/users/promag/subscriptions",
    "organizations_url": "https://api.github.com/users/promag/orgs",
    "repos_url": "https://api.github.com/users/promag/repos",
    "events_url": "https://api.github.com/users/promag/events{/privacy}",
    "received_events_url": "https://api.github.com/users/promag/received_events",
    "type": "User",
    "site_admin": false
  },
  "labels": [
    {
      "id": 135946,
      "node_id": "MDU6TGFiZWwxMzU5NDY=",
      "url": "https://api.github.com/repos/bitcoin/bitcoin/labels/GUI",
      "name": "GUI",
      "color": "02d7e1",
      "default": false,
      "description": null
    }
  ],
  "state": "closed",
  "locked": true,
  "assignee": null,
  "assignees": [

  ],
  "milestone": {
    "url": "https://api.github.com/repos/bitcoin/bitcoin/milestones/41",
    "html_url": "https://github.com/bitcoin/bitcoin/milestone/41",
    "labels_url": "https://api.github.com/repos/bitcoin/bitcoin/milestones/41/labels",
    "id": 4116760,
    "node_id": "MDk6TWlsZXN0b25lNDExNjc2MA==",
    "number": 41,
    "title": "0.18.1",
    "description": "",
    "creator": {
      "login": "maflcko",
      "id": 6399679,
      "node_id": "MDQ6VXNlcjYzOTk2Nzk=",
      "avatar_url": "https://avatars.githubusercontent.com/u/6399679?v=4",
      "gravatar_id": "",
      "url": "https://api.github.com/users/maflcko",
      "html_url": "https://github.com/maflcko",
      "followers_url": "https://api.github.com/users/maflcko/followers",
      "following_url": "https://api.github.com/users/maflcko/following{/other_user}",
      "gists_url": "https://api.github.com/users/maflcko/gists{/gist_id}",
      "starred_url": "https://api.github.com/users/maflcko/starred{/owner}{/repo}",
      "subscriptions_url": "https://api.github.com/users/maflcko/subscriptions",
      "organizations_url": "https://api.github.com/users/maflcko/orgs",
      "repos_url": "https://api.github.com/users/maflcko/repos",
      "events_url": "https://api.github.com/users/maflcko/events{/privacy}",
      "received_events_url": "https://api.github.com/users/maflcko/received_events",
      "type": "User",
      "site_admin": false
    },
    "open_issues": 0,
    "closed_issues": 31,
    "state": "closed",
    "created_at": "2019-03-06T20:02:25Z",
    "updated_at": "2019-08-15T02:03:54Z",
    "due_on": null,
    "closed_at": "2019-08-14T09:37:56Z"
  },
  "comments": 7,
  "created_at": "2019-06-18T13:22:11Z",
  "updated_at": "2021-12-16T14:52:45Z",
  "closed_at": "2019-06-23T10:58:47Z",
  "author_association": "MEMBER",
  "active_lock_reason": "resolved",
  "draft": false,
  "pull_request": {
    "url": "https://api.github.com/repos/bitcoin/bitcoin/pulls/16231",
    "html_url": "https://github.com/bitcoin/bitcoin/pull/16231",
    "diff_url": "https://github.com/bitcoin/bitcoin/pull/16231.diff",
    "patch_url": "https://github.com/bitcoin/bitcoin/pull/16231.patch",
    "merged_at": "2019-06-23T10:58:47Z"
  },
  "body_html": "<p dir=\"auto\"><span class=\"issue-keyword tooltipped tooltipped-se\" aria-label=\"This pull request closes issue #16230.\">Fixes</span> <a class=\"issue-link js-issue-link\" data-error-text=\"Failed to load title\" data-id=\"457381172\" data-permission-text=\"Title is private\" data-url=\"https://github.com/bitcoin/bitcoin/issues/16230\" data-hovercard-type=\"issue\" data-hovercard-url=\"/bitcoin/bitcoin/issues/16230/hovercard\" href=\"https://github.com/bitcoin/bitcoin/issues/16230\">#16230</a>, the menu must be created before connecting to aboutToShow signal.</p>",
  "body_text": "Fixes #16230, the menu must be created before connecting to aboutToShow signal.",
  "body": "Fixes #16230, the menu must be created before connecting to aboutToShow signal.",
  "closed_by": {
    "login": "fanquake",
    "id": 863730,
    "node_id": "MDQ6VXNlcjg2MzczMA==",
    "avatar_url": "https://avatars.githubusercontent.com/u/863730?v=4",
    "gravatar_id": "",
    "url": "https://api.github.com/users/fanquake",
    "html_url": "https://github.com/fanquake",
    "followers_url": "https://api.github.com/users/fanquake/followers",
    "following_url": "https://api.github.com/users/fanquake/following{/other_user}",
    "gists_url": "https://api.github.com/users/fanquake/gists{/gist_id}",
    "starred_url": "https://api.github.com/users/fanquake/starred{/owner}{/repo}",
    "subscriptions_url": "https://api.github.com/users/fanquake/subscriptions",
    "organizations_url": "https://api.github.com/users/fanquake/orgs",
    "repos_url": "https://api.github.com/users/fanquake/repos",
    "events_url": "https://api.github.com/users/fanquake/events{/privacy}",
    "received_events_url": "https://api.github.com/users/fanquake/received_events",
    "type": "User",
    "site_admin": false
  },
  "reactions": {
    "url": "https://api.github.com/repos/bitcoin/bitcoin/issues/16231/reactions",
    "total_count": 0,
    "+1": 0,
    "-1": 0,
    "laugh": 0,
    "hooray": 0,
    "confused": 0,
    "heart": 0,
    "rocket": 0,
    "eyes": 0
  },
  "timeline_url": "https://api.github.com/repos/bitcoin/bitcoin/issues/16231/timeline",
  "performed_via_github_app": null,
  "state_reason": null
}
