[
  {
    "url": "https://api.github.com/repos/bitcoin/bitcoin/issues/comments/284650801",
    "html_url": "https://github.com/bitcoin/bitcoin/issues/9934#issuecomment-284650801",
    "issue_url": "https://api.github.com/repos/bitcoin/bitcoin/issues/9934",
    "id": 284650801,
    "node_id": "MDEyOklzc3VlQ29tbWVudDI4NDY1MDgwMQ==",
    "user": {
      "login": "laanwj",
      "id": 126646,
      "node_id": "MDQ6VXNlcjEyNjY0Ng==",
      "avatar_url": "https://avatars.githubusercontent.com/u/126646?v=4",
      "gravatar_id": "",
      "url": "https://api.github.com/users/laanwj",
      "html_url": "https://github.com/laanwj",
      "followers_url": "https://api.github.com/users/laanwj/followers",
      "following_url": "https://api.github.com/users/laanwj/following{/other_user}",
      "gists_url": "https://api.github.com/users/laanwj/gists{/gist_id}",
      "starred_url": "https://api.github.com/users/laanwj/starred{/owner}{/repo}",
      "subscriptions_url": "https://api.github.com/users/laanwj/subscriptions",
      "organizations_url": "https://api.github.com/users/laanwj/orgs",
      "repos_url": "https://api.github.com/users/laanwj/repos",
      "events_url": "https://api.github.com/users/laanwj/events{/privacy}",
      "received_events_url": "https://api.github.com/users/laanwj/received_events",
      "type": "User",
      "site_admin": false
    },
    "created_at": "2017-03-07T08:08:55Z",
    "updated_at": "2017-03-07T08:15:49Z",
    "author_association": "MEMBER",
    "body_html": "<p dir=\"auto\">This is one of the reasons I'd be happier if it would stream the data over the socket, so that the client-side can handle it, instead of overwriting an arbitrary server-side file (which shouldn't even work with proper sandboxing).</p>\n<p dir=\"auto\">A quick fix would just be to disallow it overwriting files (possibly overridable with an argument though I'd prefer not).</p>",
    "body_text": "This is one of the reasons I'd be happier if it would stream the data over the socket, so that the client-side can handle it, instead of overwriting an arbitrary server-side file (which shouldn't even work with proper sandboxing).\nA quick fix would just be to disallow it overwriting files (possibly overridable with an argument though I'd prefer not).",
    "body": "This is one of the reasons I'd be happier if it would stream the data over the socket, so that the client-side can handle it, instead of overwriting an arbitrary server-side file (which shouldn't even work with proper sandboxing).\r\n\r\nA quick fix would just be to disallow it overwriting files (possibly overridable with an argument though I'd prefer not).",
    "reactions": {
      "url": "https://api.github.com/repos/bitcoin/bitcoin/issues/comments/284650801/reactions",
      "total_count": 0,
      "+1": 0,
      "-1": 0,
      "laugh": 0,
      "hooray": 0,
      "confused": 0,
      "heart": 0,
      "rocket": 0,
      "eyes": 0
    },
    "performed_via_github_app": null
  },
  {
    "url": "https://api.github.com/repos/bitcoin/bitcoin/issues/comments/284659828",
    "html_url": "https://github.com/bitcoin/bitcoin/issues/9934#issuecomment-284659828",
    "issue_url": "https://api.github.com/repos/bitcoin/bitcoin/issues/9934",
    "id": 284659828,
    "node_id": "MDEyOklzc3VlQ29tbWVudDI4NDY1OTgyOA==",
    "user": {
      "login": "laanwj",
      "id": 126646,
      "node_id": "MDQ6VXNlcjEyNjY0Ng==",
      "avatar_url": "https://avatars.githubusercontent.com/u/126646?v=4",
      "gravatar_id": "",
      "url": "https://api.github.com/users/laanwj",
      "html_url": "https://github.com/laanwj",
      "followers_url": "https://api.github.com/users/laanwj/followers",
      "following_url": "https://api.github.com/users/laanwj/following{/other_user}",
      "gists_url": "https://api.github.com/users/laanwj/gists{/gist_id}",
      "starred_url": "https://api.github.com/users/laanwj/starred{/owner}{/repo}",
      "subscriptions_url": "https://api.github.com/users/laanwj/subscriptions",
      "organizations_url": "https://api.github.com/users/laanwj/orgs",
      "repos_url": "https://api.github.com/users/laanwj/repos",
      "events_url": "https://api.github.com/users/laanwj/events{/privacy}",
      "received_events_url": "https://api.github.com/users/laanwj/received_events",
      "type": "User",
      "site_admin": false
    },
    "created_at": "2017-03-07T08:53:19Z",
    "updated_at": "2017-03-07T08:53:19Z",
    "author_association": "MEMBER",
    "body_html": "<p dir=\"auto\">See <a class=\"issue-link js-issue-link\" data-error-text=\"Failed to load title\" data-id=\"212367262\" data-permission-text=\"Title is private\" data-url=\"https://github.com/bitcoin/bitcoin/issues/9937\" data-hovercard-type=\"pull_request\" data-hovercard-url=\"/bitcoin/bitcoin/pull/9937/hovercard\" href=\"https://github.com/bitcoin/bitcoin/pull/9937\">#9937</a>.</p>",
    "body_text": "See #9937.",
    "body": "See #9937.",
    "reactions": {
      "url": "https://api.github.com/repos/bitcoin/bitcoin/issues/comments/284659828/reactions",
      "total_count": 0,
      "+1": 0,
      "-1": 0,
      "laugh": 0,
      "hooray": 0,
      "confused": 0,
      "heart": 0,
      "rocket": 0,
      "eyes": 0
    },
    "performed_via_github_app": null
  }
]
