{
  "url": "https://api.github.com/repos/bitcoin/bitcoin/issues/18056",
  "repository_url": "https://api.github.com/repos/bitcoin/bitcoin",
  "labels_url": "https://api.github.com/repos/bitcoin/bitcoin/issues/18056/labels{/name}",
  "comments_url": "https://api.github.com/repos/bitcoin/bitcoin/issues/18056/comments",
  "events_url": "https://api.github.com/repos/bitcoin/bitcoin/issues/18056/events",
  "html_url": "https://github.com/bitcoin/bitcoin/pull/18056",
  "id": 558751774,
  "node_id": "MDExOlB1bGxSZXF1ZXN0MzcwMDUxNDA3",
  "number": 18056,
  "title": "ci: Check for submodules",
  "user": {
    "login": "emilengler",
    "id": 12272949,
    "node_id": "MDQ6VXNlcjEyMjcyOTQ5",
    "avatar_url": "https://avatars.githubusercontent.com/u/12272949?v=4",
    "gravatar_id": "",
    "url": "https://api.github.com/users/emilengler",
    "html_url": "https://github.com/emilengler",
    "followers_url": "https://api.github.com/users/emilengler/followers",
    "following_url": "https://api.github.com/users/emilengler/following{/other_user}",
    "gists_url": "https://api.github.com/users/emilengler/gists{/gist_id}",
    "starred_url": "https://api.github.com/users/emilengler/starred{/owner}{/repo}",
    "subscriptions_url": "https://api.github.com/users/emilengler/subscriptions",
    "organizations_url": "https://api.github.com/users/emilengler/orgs",
    "repos_url": "https://api.github.com/users/emilengler/repos",
    "events_url": "https://api.github.com/users/emilengler/events{/privacy}",
    "received_events_url": "https://api.github.com/users/emilengler/received_events",
    "type": "User",
    "site_admin": false
  },
  "labels": [
    {
      "id": 62963516,
      "node_id": "MDU6TGFiZWw2Mjk2MzUxNg==",
      "url": "https://api.github.com/repos/bitcoin/bitcoin/labels/Tests",
      "name": "Tests",
      "color": "d4c5f9",
      "default": false,
      "description": null
    }
  ],
  "state": "closed",
  "locked": true,
  "assignee": null,
  "assignees": [

  ],
  "milestone": null,
  "comments": 10,
  "created_at": "2020-02-02T20:22:58Z",
  "updated_at": "2022-02-15T10:41:42Z",
  "closed_at": "2020-03-05T15:34:26Z",
  "author_association": "CONTRIBUTOR",
  "active_lock_reason": "resolved",
  "draft": false,
  "pull_request": {
    "url": "https://api.github.com/repos/bitcoin/bitcoin/pulls/18056",
    "html_url": "https://github.com/bitcoin/bitcoin/pull/18056",
    "diff_url": "https://github.com/bitcoin/bitcoin/pull/18056.diff",
    "patch_url": "https://github.com/bitcoin/bitcoin/pull/18056.patch",
    "merged_at": "2020-03-05T15:34:26Z"
  },
  "body_html": "<p dir=\"auto\">See <a class=\"issue-link js-issue-link\" data-error-text=\"Failed to load title\" data-id=\"556853383\" data-permission-text=\"Title is private\" data-url=\"https://github.com/bitcoin/bitcoin/issues/18019\" data-hovercard-type=\"issue\" data-hovercard-url=\"/bitcoin/bitcoin/issues/18019/hovercard\" href=\"https://github.com/bitcoin/bitcoin/issues/18019\">#18019</a>.<br>\nThe current solution looks like this (I also tested with multiple submodules):</p>\n<div class=\"snippet-clipboard-content notranslate position-relative overflow-auto\" data-snippet-clipboard-copy-content=\"These submodules were found, delete them:\n 355a5a310019659d9bf6818d2fd66fbb214dfed7 curl (curl-7_68_0-108-g355a5a310)\"><pre class=\"notranslate\"><code class=\"notranslate\">These submodules were found, delete them:\n 355a5a310019659d9bf6818d2fd66fbb214dfed7 curl (curl-7_68_0-108-g355a5a310)\n</code></pre></div>\n<p dir=\"auto\">The submodule example command was <code class=\"notranslate\">git submodule add https://github.com/curl/curl.git curl</code></p>",
  "body_text": "See #18019.\nThe current solution looks like this (I also tested with multiple submodules):\nThese submodules were found, delete them:\n 355a5a310019659d9bf6818d2fd66fbb214dfed7 curl (curl-7_68_0-108-g355a5a310)\n\nThe submodule example command was git submodule add https://github.com/curl/curl.git curl",
  "body": "See #18019.\r\nThe current solution looks like this (I also tested with multiple submodules):\r\n```\r\nThese submodules were found, delete them:\r\n 355a5a310019659d9bf6818d2fd66fbb214dfed7 curl (curl-7_68_0-108-g355a5a310)\r\n```\r\nThe submodule example command was `git submodule add https://github.com/curl/curl.git curl`",
  "closed_by": {
    "login": "laanwj",
    "id": 126646,
    "node_id": "MDQ6VXNlcjEyNjY0Ng==",
    "avatar_url": "https://avatars.githubusercontent.com/u/126646?v=4",
    "gravatar_id": "",
    "url": "https://api.github.com/users/laanwj",
    "html_url": "https://github.com/laanwj",
    "followers_url": "https://api.github.com/users/laanwj/followers",
    "following_url": "https://api.github.com/users/laanwj/following{/other_user}",
    "gists_url": "https://api.github.com/users/laanwj/gists{/gist_id}",
    "starred_url": "https://api.github.com/users/laanwj/starred{/owner}{/repo}",
    "subscriptions_url": "https://api.github.com/users/laanwj/subscriptions",
    "organizations_url": "https://api.github.com/users/laanwj/orgs",
    "repos_url": "https://api.github.com/users/laanwj/repos",
    "events_url": "https://api.github.com/users/laanwj/events{/privacy}",
    "received_events_url": "https://api.github.com/users/laanwj/received_events",
    "type": "User",
    "site_admin": false
  },
  "reactions": {
    "url": "https://api.github.com/repos/bitcoin/bitcoin/issues/18056/reactions",
    "total_count": 0,
    "+1": 0,
    "-1": 0,
    "laugh": 0,
    "hooray": 0,
    "confused": 0,
    "heart": 0,
    "rocket": 0,
    "eyes": 0
  },
  "timeline_url": "https://api.github.com/repos/bitcoin/bitcoin/issues/18056/timeline",
  "performed_via_github_app": null,
  "state_reason": null
}
