[
  {
    "url": "https://api.github.com/repos/bitcoin/bitcoin/issues/comments/4006879",
    "html_url": "https://github.com/bitcoin/bitcoin/issues/639#issuecomment-4006879",
    "issue_url": "https://api.github.com/repos/bitcoin/bitcoin/issues/639",
    "id": 4006879,
    "node_id": "MDEyOklzc3VlQ29tbWVudDQwMDY4Nzk=",
    "user": {
      "login": "TheBlueMatt",
      "id": 649246,
      "node_id": "MDQ6VXNlcjY0OTI0Ng==",
      "avatar_url": "https://avatars.githubusercontent.com/u/649246?v=4",
      "gravatar_id": "",
      "url": "https://api.github.com/users/TheBlueMatt",
      "html_url": "https://github.com/TheBlueMatt",
      "followers_url": "https://api.github.com/users/TheBlueMatt/followers",
      "following_url": "https://api.github.com/users/TheBlueMatt/following{/other_user}",
      "gists_url": "https://api.github.com/users/TheBlueMatt/gists{/gist_id}",
      "starred_url": "https://api.github.com/users/TheBlueMatt/starred{/owner}{/repo}",
      "subscriptions_url": "https://api.github.com/users/TheBlueMatt/subscriptions",
      "organizations_url": "https://api.github.com/users/TheBlueMatt/orgs",
      "repos_url": "https://api.github.com/users/TheBlueMatt/repos",
      "events_url": "https://api.github.com/users/TheBlueMatt/events{/privacy}",
      "received_events_url": "https://api.github.com/users/TheBlueMatt/received_events",
      "type": "User",
      "site_admin": false
    },
    "created_at": "2012-02-16T18:58:24Z",
    "updated_at": "2012-02-16T18:58:24Z",
    "author_association": "CONTRIBUTOR",
    "body_html": "<p dir=\"auto\">Can someone who was able to duplicate this issue test got HEAD and see if the problem persists?</p>",
    "body_text": "Can someone who was able to duplicate this issue test got HEAD and see if the problem persists?",
    "body": "Can someone who was able to duplicate this issue test got HEAD and see if the problem persists?\n",
    "reactions": {
      "url": "https://api.github.com/repos/bitcoin/bitcoin/issues/comments/4006879/reactions",
      "total_count": 0,
      "+1": 0,
      "-1": 0,
      "laugh": 0,
      "hooray": 0,
      "confused": 0,
      "heart": 0,
      "rocket": 0,
      "eyes": 0
    },
    "performed_via_github_app": null
  },
  {
    "url": "https://api.github.com/repos/bitcoin/bitcoin/issues/comments/4043699",
    "html_url": "https://github.com/bitcoin/bitcoin/issues/639#issuecomment-4043699",
    "issue_url": "https://api.github.com/repos/bitcoin/bitcoin/issues/639",
    "id": 4043699,
    "node_id": "MDEyOklzc3VlQ29tbWVudDQwNDM2OTk=",
    "user": {
      "login": "sipa",
      "id": 548488,
      "node_id": "MDQ6VXNlcjU0ODQ4OA==",
      "avatar_url": "https://avatars.githubusercontent.com/u/548488?v=4",
      "gravatar_id": "",
      "url": "https://api.github.com/users/sipa",
      "html_url": "https://github.com/sipa",
      "followers_url": "https://api.github.com/users/sipa/followers",
      "following_url": "https://api.github.com/users/sipa/following{/other_user}",
      "gists_url": "https://api.github.com/users/sipa/gists{/gist_id}",
      "starred_url": "https://api.github.com/users/sipa/starred{/owner}{/repo}",
      "subscriptions_url": "https://api.github.com/users/sipa/subscriptions",
      "organizations_url": "https://api.github.com/users/sipa/orgs",
      "repos_url": "https://api.github.com/users/sipa/repos",
      "events_url": "https://api.github.com/users/sipa/events{/privacy}",
      "received_events_url": "https://api.github.com/users/sipa/received_events",
      "type": "User",
      "site_admin": false
    },
    "created_at": "2012-02-19T17:58:30Z",
    "updated_at": "2012-02-19T17:58:30Z",
    "author_association": "MEMBER",
    "body_html": "<p dir=\"auto\">I verified the problem is fixed, though a confirmation from the original submitter would be nice.</p>",
    "body_text": "I verified the problem is fixed, though a confirmation from the original submitter would be nice.",
    "body": "I verified the problem is fixed, though a confirmation from the original submitter would be nice.\n",
    "reactions": {
      "url": "https://api.github.com/repos/bitcoin/bitcoin/issues/comments/4043699/reactions",
      "total_count": 0,
      "+1": 0,
      "-1": 0,
      "laugh": 0,
      "hooray": 0,
      "confused": 0,
      "heart": 0,
      "rocket": 0,
      "eyes": 0
    },
    "performed_via_github_app": null
  }
]
