{
  "url": "https://api.github.com/repos/bitcoin/bitcoin/issues/13136",
  "repository_url": "https://api.github.com/repos/bitcoin/bitcoin",
  "labels_url": "https://api.github.com/repos/bitcoin/bitcoin/issues/13136/labels{/name}",
  "comments_url": "https://api.github.com/repos/bitcoin/bitcoin/issues/13136/comments",
  "events_url": "https://api.github.com/repos/bitcoin/bitcoin/issues/13136/events",
  "html_url": "https://github.com/bitcoin/bitcoin/pull/13136",
  "id": 319226008,
  "node_id": "MDExOlB1bGxSZXF1ZXN0MTg1MTk5NDUx",
  "number": 13136,
  "title": "[tests] Fix flake8 warnings in several wallet functional tests",
  "user": {
    "login": "jnewbery",
    "id": 1063656,
    "node_id": "MDQ6VXNlcjEwNjM2NTY=",
    "avatar_url": "https://avatars.githubusercontent.com/u/1063656?v=4",
    "gravatar_id": "",
    "url": "https://api.github.com/users/jnewbery",
    "html_url": "https://github.com/jnewbery",
    "followers_url": "https://api.github.com/users/jnewbery/followers",
    "following_url": "https://api.github.com/users/jnewbery/following{/other_user}",
    "gists_url": "https://api.github.com/users/jnewbery/gists{/gist_id}",
    "starred_url": "https://api.github.com/users/jnewbery/starred{/owner}{/repo}",
    "subscriptions_url": "https://api.github.com/users/jnewbery/subscriptions",
    "organizations_url": "https://api.github.com/users/jnewbery/orgs",
    "repos_url": "https://api.github.com/users/jnewbery/repos",
    "events_url": "https://api.github.com/users/jnewbery/events{/privacy}",
    "received_events_url": "https://api.github.com/users/jnewbery/received_events",
    "type": "User",
    "site_admin": false
  },
  "labels": [

  ],
  "state": "closed",
  "locked": true,
  "assignee": null,
  "assignees": [

  ],
  "milestone": null,
  "comments": 4,
  "created_at": "2018-05-01T15:11:28Z",
  "updated_at": "2021-09-08T11:53:45Z",
  "closed_at": "2018-05-01T16:22:52Z",
  "author_association": "CONTRIBUTOR",
  "active_lock_reason": "resolved",
  "draft": false,
  "pull_request": {
    "url": "https://api.github.com/repos/bitcoin/bitcoin/pulls/13136",
    "html_url": "https://github.com/bitcoin/bitcoin/pull/13136",
    "diff_url": "https://github.com/bitcoin/bitcoin/pull/13136.diff",
    "patch_url": "https://github.com/bitcoin/bitcoin/pull/13136.patch",
    "merged_at": "2018-05-01T16:22:52Z"
  },
  "body_html": "<p dir=\"auto\">Fixes flake8 warnings in several wallet functional tests.</p>\n<p dir=\"auto\">Several wallet functional tests need rewrite to remove the accounts API (<a class=\"issue-link js-issue-link\" data-error-text=\"Failed to load title\" data-id=\"317774757\" data-permission-text=\"Title is private\" data-url=\"https://github.com/bitcoin/bitcoin/issues/13075\" data-hovercard-type=\"pull_request\" data-hovercard-url=\"/bitcoin/bitcoin/pull/13075/hovercard\" href=\"https://github.com/bitcoin/bitcoin/pull/13075\">#13075</a>). To prepare for that, I fixed all the flake8 warnings in those tests.</p>\n<p dir=\"auto\"><a class=\"issue-link js-issue-link\" data-error-text=\"Failed to load title\" data-id=\"317774757\" data-permission-text=\"Title is private\" data-url=\"https://github.com/bitcoin/bitcoin/issues/13075\" data-hovercard-type=\"pull_request\" data-hovercard-url=\"/bitcoin/bitcoin/pull/13075/hovercard\" href=\"https://github.com/bitcoin/bitcoin/pull/13075\">#13075</a> is blocked on a bitcoind bug. This PR is just the flake8 fixes so we're not completely blocked.</p>",
  "body_text": "Fixes flake8 warnings in several wallet functional tests.\nSeveral wallet functional tests need rewrite to remove the accounts API (#13075). To prepare for that, I fixed all the flake8 warnings in those tests.\n#13075 is blocked on a bitcoind bug. This PR is just the flake8 fixes so we're not completely blocked.",
  "body": "Fixes flake8 warnings in several wallet functional tests.\r\n\r\nSeveral wallet functional tests need rewrite to remove the accounts API (#13075). To prepare for that, I fixed all the flake8 warnings in those tests.\r\n\r\n#13075 is blocked on a bitcoind bug. This PR is just the flake8 fixes so we're not completely blocked.",
  "closed_by": {
    "login": "maflcko",
    "id": 6399679,
    "node_id": "MDQ6VXNlcjYzOTk2Nzk=",
    "avatar_url": "https://avatars.githubusercontent.com/u/6399679?v=4",
    "gravatar_id": "",
    "url": "https://api.github.com/users/maflcko",
    "html_url": "https://github.com/maflcko",
    "followers_url": "https://api.github.com/users/maflcko/followers",
    "following_url": "https://api.github.com/users/maflcko/following{/other_user}",
    "gists_url": "https://api.github.com/users/maflcko/gists{/gist_id}",
    "starred_url": "https://api.github.com/users/maflcko/starred{/owner}{/repo}",
    "subscriptions_url": "https://api.github.com/users/maflcko/subscriptions",
    "organizations_url": "https://api.github.com/users/maflcko/orgs",
    "repos_url": "https://api.github.com/users/maflcko/repos",
    "events_url": "https://api.github.com/users/maflcko/events{/privacy}",
    "received_events_url": "https://api.github.com/users/maflcko/received_events",
    "type": "User",
    "site_admin": false
  },
  "reactions": {
    "url": "https://api.github.com/repos/bitcoin/bitcoin/issues/13136/reactions",
    "total_count": 0,
    "+1": 0,
    "-1": 0,
    "laugh": 0,
    "hooray": 0,
    "confused": 0,
    "heart": 0,
    "rocket": 0,
    "eyes": 0
  },
  "timeline_url": "https://api.github.com/repos/bitcoin/bitcoin/issues/13136/timeline",
  "performed_via_github_app": null,
  "state_reason": null
}
