[
  {
    "url": "https://api.github.com/repos/bitcoin/bitcoin/issues/comments/254894592",
    "html_url": "https://github.com/bitcoin/bitcoin/pull/8975#issuecomment-254894592",
    "issue_url": "https://api.github.com/repos/bitcoin/bitcoin/issues/8975",
    "id": 254894592,
    "node_id": "MDEyOklzc3VlQ29tbWVudDI1NDg5NDU5Mg==",
    "user": {
      "login": "maflcko",
      "id": 6399679,
      "node_id": "MDQ6VXNlcjYzOTk2Nzk=",
      "avatar_url": "https://avatars.githubusercontent.com/u/6399679?v=4",
      "gravatar_id": "",
      "url": "https://api.github.com/users/maflcko",
      "html_url": "https://github.com/maflcko",
      "followers_url": "https://api.github.com/users/maflcko/followers",
      "following_url": "https://api.github.com/users/maflcko/following{/other_user}",
      "gists_url": "https://api.github.com/users/maflcko/gists{/gist_id}",
      "starred_url": "https://api.github.com/users/maflcko/starred{/owner}{/repo}",
      "subscriptions_url": "https://api.github.com/users/maflcko/subscriptions",
      "organizations_url": "https://api.github.com/users/maflcko/orgs",
      "repos_url": "https://api.github.com/users/maflcko/repos",
      "events_url": "https://api.github.com/users/maflcko/events{/privacy}",
      "received_events_url": "https://api.github.com/users/maflcko/received_events",
      "type": "User",
      "site_admin": false
    },
    "created_at": "2016-10-19T18:09:00Z",
    "updated_at": "2016-10-19T18:09:00Z",
    "author_association": "MEMBER",
    "body_html": "<p dir=\"auto\">utACK <a class=\"commit-link\" data-hovercard-type=\"commit\" data-hovercard-url=\"https://github.com/bitcoin/bitcoin/commit/6f2f639cdf12ee337dbb75ec5517bec841d4f348/hovercard\" href=\"https://github.com/bitcoin/bitcoin/commit/6f2f639cdf12ee337dbb75ec5517bec841d4f348\"><tt>6f2f639</tt></a></p>",
    "body_text": "utACK 6f2f639",
    "body": "utACK 6f2f639\n",
    "reactions": {
      "url": "https://api.github.com/repos/bitcoin/bitcoin/issues/comments/254894592/reactions",
      "total_count": 0,
      "+1": 0,
      "-1": 0,
      "laugh": 0,
      "hooray": 0,
      "confused": 0,
      "heart": 0,
      "rocket": 0,
      "eyes": 0
    },
    "performed_via_github_app": null
  },
  {
    "url": "https://api.github.com/repos/bitcoin/bitcoin/issues/comments/255034184",
    "html_url": "https://github.com/bitcoin/bitcoin/pull/8975#issuecomment-255034184",
    "issue_url": "https://api.github.com/repos/bitcoin/bitcoin/issues/8975",
    "id": 255034184,
    "node_id": "MDEyOklzc3VlQ29tbWVudDI1NTAzNDE4NA==",
    "user": {
      "login": "jonasschnelli",
      "id": 178464,
      "node_id": "MDQ6VXNlcjE3ODQ2NA==",
      "avatar_url": "https://avatars.githubusercontent.com/u/178464?v=4",
      "gravatar_id": "",
      "url": "https://api.github.com/users/jonasschnelli",
      "html_url": "https://github.com/jonasschnelli",
      "followers_url": "https://api.github.com/users/jonasschnelli/followers",
      "following_url": "https://api.github.com/users/jonasschnelli/following{/other_user}",
      "gists_url": "https://api.github.com/users/jonasschnelli/gists{/gist_id}",
      "starred_url": "https://api.github.com/users/jonasschnelli/starred{/owner}{/repo}",
      "subscriptions_url": "https://api.github.com/users/jonasschnelli/subscriptions",
      "organizations_url": "https://api.github.com/users/jonasschnelli/orgs",
      "repos_url": "https://api.github.com/users/jonasschnelli/repos",
      "events_url": "https://api.github.com/users/jonasschnelli/events{/privacy}",
      "received_events_url": "https://api.github.com/users/jonasschnelli/received_events",
      "type": "User",
      "site_admin": false
    },
    "created_at": "2016-10-20T07:51:30Z",
    "updated_at": "2016-10-20T07:51:30Z",
    "author_association": "CONTRIBUTOR",
    "body_html": "<p dir=\"auto\">utACK <a class=\"commit-link\" data-hovercard-type=\"commit\" data-hovercard-url=\"https://github.com/bitcoin/bitcoin/commit/6f2f639cdf12ee337dbb75ec5517bec841d4f348/hovercard\" href=\"https://github.com/bitcoin/bitcoin/commit/6f2f639cdf12ee337dbb75ec5517bec841d4f348\"><tt>6f2f639</tt></a></p>",
    "body_text": "utACK 6f2f639",
    "body": "utACK 6f2f639cdf12ee337dbb75ec5517bec841d4f348\n",
    "reactions": {
      "url": "https://api.github.com/repos/bitcoin/bitcoin/issues/comments/255034184/reactions",
      "total_count": 0,
      "+1": 0,
      "-1": 0,
      "laugh": 0,
      "hooray": 0,
      "confused": 0,
      "heart": 0,
      "rocket": 0,
      "eyes": 0
    },
    "performed_via_github_app": null
  }
]
