[
  {
    "url": "https://api.github.com/repos/bitcoin/bitcoin/issues/comments/879928532",
    "html_url": "https://github.com/bitcoin/bitcoin/pull/22447#issuecomment-879928532",
    "issue_url": "https://api.github.com/repos/bitcoin/bitcoin/issues/22447",
    "id": 879928532,
    "node_id": "MDEyOklzc3VlQ29tbWVudDg3OTkyODUzMg==",
    "user": {
      "login": "jonatack",
      "id": 2415484,
      "node_id": "MDQ6VXNlcjI0MTU0ODQ=",
      "avatar_url": "https://avatars.githubusercontent.com/u/2415484?v=4",
      "gravatar_id": "",
      "url": "https://api.github.com/users/jonatack",
      "html_url": "https://github.com/jonatack",
      "followers_url": "https://api.github.com/users/jonatack/followers",
      "following_url": "https://api.github.com/users/jonatack/following{/other_user}",
      "gists_url": "https://api.github.com/users/jonatack/gists{/gist_id}",
      "starred_url": "https://api.github.com/users/jonatack/starred{/owner}{/repo}",
      "subscriptions_url": "https://api.github.com/users/jonatack/subscriptions",
      "organizations_url": "https://api.github.com/users/jonatack/orgs",
      "repos_url": "https://api.github.com/users/jonatack/repos",
      "events_url": "https://api.github.com/users/jonatack/events{/privacy}",
      "received_events_url": "https://api.github.com/users/jonatack/received_events",
      "type": "User",
      "site_admin": false
    },
    "created_at": "2021-07-14T14:12:52Z",
    "updated_at": "2021-07-14T14:18:28Z",
    "author_association": "CONTRIBUTOR",
    "body_html": "<p dir=\"auto\">(First 2 commits from <a class=\"issue-link js-issue-link\" data-error-text=\"Failed to load title\" data-id=\"943371962\" data-permission-text=\"Title is private\" data-url=\"https://github.com/bitcoin/bitcoin/issues/22437\" data-hovercard-type=\"pull_request\" data-hovercard-url=\"/bitcoin/bitcoin/pull/22437/hovercard\" href=\"https://github.com/bitcoin/bitcoin/pull/22437\">#22437</a>).</p>",
    "body_text": "(First 2 commits from #22437).",
    "body": "(First 2 commits from #22437).",
    "reactions": {
      "url": "https://api.github.com/repos/bitcoin/bitcoin/issues/comments/879928532/reactions",
      "total_count": 0,
      "+1": 0,
      "-1": 0,
      "laugh": 0,
      "hooray": 0,
      "confused": 0,
      "heart": 0,
      "rocket": 0,
      "eyes": 0
    },
    "performed_via_github_app": null
  },
  {
    "url": "https://api.github.com/repos/bitcoin/bitcoin/issues/comments/880226324",
    "html_url": "https://github.com/bitcoin/bitcoin/pull/22447#issuecomment-880226324",
    "issue_url": "https://api.github.com/repos/bitcoin/bitcoin/issues/22447",
    "id": 880226324,
    "node_id": "MDEyOklzc3VlQ29tbWVudDg4MDIyNjMyNA==",
    "user": {
      "login": "mjdietzx",
      "id": 7217256,
      "node_id": "MDQ6VXNlcjcyMTcyNTY=",
      "avatar_url": "https://avatars.githubusercontent.com/u/7217256?v=4",
      "gravatar_id": "",
      "url": "https://api.github.com/users/mjdietzx",
      "html_url": "https://github.com/mjdietzx",
      "followers_url": "https://api.github.com/users/mjdietzx/followers",
      "following_url": "https://api.github.com/users/mjdietzx/following{/other_user}",
      "gists_url": "https://api.github.com/users/mjdietzx/gists{/gist_id}",
      "starred_url": "https://api.github.com/users/mjdietzx/starred{/owner}{/repo}",
      "subscriptions_url": "https://api.github.com/users/mjdietzx/subscriptions",
      "organizations_url": "https://api.github.com/users/mjdietzx/orgs",
      "repos_url": "https://api.github.com/users/mjdietzx/repos",
      "events_url": "https://api.github.com/users/mjdietzx/events{/privacy}",
      "received_events_url": "https://api.github.com/users/mjdietzx/received_events",
      "type": "User",
      "site_admin": false
    },
    "created_at": "2021-07-14T21:35:48Z",
    "updated_at": "2021-07-14T21:35:48Z",
    "author_association": "CONTRIBUTOR",
    "body_html": "<p dir=\"auto\">ACK <a class=\"commit-link\" data-hovercard-type=\"commit\" data-hovercard-url=\"https://github.com/bitcoin/bitcoin/commit/a3d6ec5bb567481a634638cea7ae37c355119a7b/hovercard\" href=\"https://github.com/bitcoin/bitcoin/commit/a3d6ec5bb567481a634638cea7ae37c355119a7b\"><tt>a3d6ec5</tt></a></p>",
    "body_text": "ACK a3d6ec5",
    "body": "ACK a3d6ec5bb567481a634638cea7ae37c355119a7b",
    "reactions": {
      "url": "https://api.github.com/repos/bitcoin/bitcoin/issues/comments/880226324/reactions",
      "total_count": 0,
      "+1": 0,
      "-1": 0,
      "laugh": 0,
      "hooray": 0,
      "confused": 0,
      "heart": 0,
      "rocket": 0,
      "eyes": 0
    },
    "performed_via_github_app": null
  }
]
