{
  "url": "https://api.github.com/repos/bitcoin/bitcoin/issues/5923",
  "repository_url": "https://api.github.com/repos/bitcoin/bitcoin",
  "labels_url": "https://api.github.com/repos/bitcoin/bitcoin/issues/5923/labels{/name}",
  "comments_url": "https://api.github.com/repos/bitcoin/bitcoin/issues/5923/comments",
  "events_url": "https://api.github.com/repos/bitcoin/bitcoin/issues/5923/events",
  "html_url": "https://github.com/bitcoin/bitcoin/pull/5923",
  "id": 62756442,
  "node_id": "MDExOlB1bGxSZXF1ZXN0MzE0NTQ1MzI=",
  "number": 5923,
  "title": "Floating fees for alternative target spacings",
  "user": {
    "login": "kroese",
    "id": 5763256,
    "node_id": "MDQ6VXNlcjU3NjMyNTY=",
    "avatar_url": "https://avatars.githubusercontent.com/u/5763256?v=4",
    "gravatar_id": "",
    "url": "https://api.github.com/users/kroese",
    "html_url": "https://github.com/kroese",
    "followers_url": "https://api.github.com/users/kroese/followers",
    "following_url": "https://api.github.com/users/kroese/following{/other_user}",
    "gists_url": "https://api.github.com/users/kroese/gists{/gist_id}",
    "starred_url": "https://api.github.com/users/kroese/starred{/owner}{/repo}",
    "subscriptions_url": "https://api.github.com/users/kroese/subscriptions",
    "organizations_url": "https://api.github.com/users/kroese/orgs",
    "repos_url": "https://api.github.com/users/kroese/repos",
    "events_url": "https://api.github.com/users/kroese/events{/privacy}",
    "received_events_url": "https://api.github.com/users/kroese/received_events",
    "type": "User",
    "site_admin": false
  },
  "labels": [

  ],
  "state": "closed",
  "locked": true,
  "assignee": null,
  "assignees": [

  ],
  "milestone": null,
  "comments": 5,
  "created_at": "2015-03-18T17:51:42Z",
  "updated_at": "2021-09-08T11:38:56Z",
  "closed_at": "2015-03-19T14:09:56Z",
  "author_association": "NONE",
  "active_lock_reason": "resolved",
  "draft": false,
  "pull_request": {
    "url": "https://api.github.com/repos/bitcoin/bitcoin/pulls/5923",
    "html_url": "https://github.com/bitcoin/bitcoin/pull/5923",
    "diff_url": "https://github.com/bitcoin/bitcoin/pull/5923.diff",
    "patch_url": "https://github.com/bitcoin/bitcoin/pull/5923.patch",
    "merged_at": null
  },
  "body_html": "<p dir=\"auto\">The exponentially decaying window should depend on the configured target spacing</p>",
  "body_text": "The exponentially decaying window should depend on the configured target spacing",
  "body": "The exponentially decaying window should depend on the configured target spacing\n",
  "closed_by": {
    "login": "kroese",
    "id": 5763256,
    "node_id": "MDQ6VXNlcjU3NjMyNTY=",
    "avatar_url": "https://avatars.githubusercontent.com/u/5763256?v=4",
    "gravatar_id": "",
    "url": "https://api.github.com/users/kroese",
    "html_url": "https://github.com/kroese",
    "followers_url": "https://api.github.com/users/kroese/followers",
    "following_url": "https://api.github.com/users/kroese/following{/other_user}",
    "gists_url": "https://api.github.com/users/kroese/gists{/gist_id}",
    "starred_url": "https://api.github.com/users/kroese/starred{/owner}{/repo}",
    "subscriptions_url": "https://api.github.com/users/kroese/subscriptions",
    "organizations_url": "https://api.github.com/users/kroese/orgs",
    "repos_url": "https://api.github.com/users/kroese/repos",
    "events_url": "https://api.github.com/users/kroese/events{/privacy}",
    "received_events_url": "https://api.github.com/users/kroese/received_events",
    "type": "User",
    "site_admin": false
  },
  "reactions": {
    "url": "https://api.github.com/repos/bitcoin/bitcoin/issues/5923/reactions",
    "total_count": 0,
    "+1": 0,
    "-1": 0,
    "laugh": 0,
    "hooray": 0,
    "confused": 0,
    "heart": 0,
    "rocket": 0,
    "eyes": 0
  },
  "timeline_url": "https://api.github.com/repos/bitcoin/bitcoin/issues/5923/timeline",
  "performed_via_github_app": null,
  "state_reason": null
}
