[
  {
    "url": "https://api.github.com/repos/bitcoin/bitcoin/issues/comments/2661082",
    "html_url": "https://github.com/bitcoin/bitcoin/issues/614#issuecomment-2661082",
    "issue_url": "https://api.github.com/repos/bitcoin/bitcoin/issues/614",
    "id": 2661082,
    "node_id": "MDEyOklzc3VlQ29tbWVudDI2NjEwODI=",
    "user": {
      "login": "TheBlueMatt",
      "id": 649246,
      "node_id": "MDQ6VXNlcjY0OTI0Ng==",
      "avatar_url": "https://avatars.githubusercontent.com/u/649246?v=4",
      "gravatar_id": "",
      "url": "https://api.github.com/users/TheBlueMatt",
      "html_url": "https://github.com/TheBlueMatt",
      "followers_url": "https://api.github.com/users/TheBlueMatt/followers",
      "following_url": "https://api.github.com/users/TheBlueMatt/following{/other_user}",
      "gists_url": "https://api.github.com/users/TheBlueMatt/gists{/gist_id}",
      "starred_url": "https://api.github.com/users/TheBlueMatt/starred{/owner}{/repo}",
      "subscriptions_url": "https://api.github.com/users/TheBlueMatt/subscriptions",
      "organizations_url": "https://api.github.com/users/TheBlueMatt/orgs",
      "repos_url": "https://api.github.com/users/TheBlueMatt/repos",
      "events_url": "https://api.github.com/users/TheBlueMatt/events{/privacy}",
      "received_events_url": "https://api.github.com/users/TheBlueMatt/received_events",
      "type": "User",
      "site_admin": false
    },
    "created_at": "2011-11-07T22:46:53Z",
    "updated_at": "2011-11-07T22:46:53Z",
    "author_association": "CONTRIBUTOR",
    "body_html": "<p dir=\"auto\">One might argue that a mined block can be unconfirmed or confirmed, though I would agree that it should be changed.</p>",
    "body_text": "One might argue that a mined block can be unconfirmed or confirmed, though I would agree that it should be changed.",
    "body": "One might argue that a mined block can be unconfirmed or confirmed, though I would agree that it should be changed.\n",
    "reactions": {
      "url": "https://api.github.com/repos/bitcoin/bitcoin/issues/comments/2661082/reactions",
      "total_count": 0,
      "+1": 0,
      "-1": 0,
      "laugh": 0,
      "hooray": 0,
      "confused": 0,
      "heart": 0,
      "rocket": 0,
      "eyes": 0
    },
    "performed_via_github_app": null
  },
  {
    "url": "https://api.github.com/repos/bitcoin/bitcoin/issues/comments/2672383",
    "html_url": "https://github.com/bitcoin/bitcoin/issues/614#issuecomment-2672383",
    "issue_url": "https://api.github.com/repos/bitcoin/bitcoin/issues/614",
    "id": 2672383,
    "node_id": "MDEyOklzc3VlQ29tbWVudDI2NzIzODM=",
    "user": {
      "login": "laanwj",
      "id": 126646,
      "node_id": "MDQ6VXNlcjEyNjY0Ng==",
      "avatar_url": "https://avatars.githubusercontent.com/u/126646?v=4",
      "gravatar_id": "",
      "url": "https://api.github.com/users/laanwj",
      "html_url": "https://github.com/laanwj",
      "followers_url": "https://api.github.com/users/laanwj/followers",
      "following_url": "https://api.github.com/users/laanwj/following{/other_user}",
      "gists_url": "https://api.github.com/users/laanwj/gists{/gist_id}",
      "starred_url": "https://api.github.com/users/laanwj/starred{/owner}{/repo}",
      "subscriptions_url": "https://api.github.com/users/laanwj/subscriptions",
      "organizations_url": "https://api.github.com/users/laanwj/orgs",
      "repos_url": "https://api.github.com/users/laanwj/repos",
      "events_url": "https://api.github.com/users/laanwj/events{/privacy}",
      "received_events_url": "https://api.github.com/users/laanwj/received_events",
      "type": "User",
      "site_admin": false
    },
    "created_at": "2011-11-08T19:34:56Z",
    "updated_at": "2011-11-08T19:34:56Z",
    "author_association": "MEMBER",
    "body_html": "<p dir=\"auto\">Yeah this is confusing wording...</p>",
    "body_text": "Yeah this is confusing wording...",
    "body": "Yeah this is confusing wording...\n",
    "reactions": {
      "url": "https://api.github.com/repos/bitcoin/bitcoin/issues/comments/2672383/reactions",
      "total_count": 0,
      "+1": 0,
      "-1": 0,
      "laugh": 0,
      "hooray": 0,
      "confused": 0,
      "heart": 0,
      "rocket": 0,
      "eyes": 0
    },
    "performed_via_github_app": null
  },
  {
    "url": "https://api.github.com/repos/bitcoin/bitcoin/issues/comments/6220041",
    "html_url": "https://github.com/bitcoin/bitcoin/issues/614#issuecomment-6220041",
    "issue_url": "https://api.github.com/repos/bitcoin/bitcoin/issues/614",
    "id": 6220041,
    "node_id": "MDEyOklzc3VlQ29tbWVudDYyMjAwNDE=",
    "user": {
      "login": "Diapolo",
      "id": 1419649,
      "node_id": "MDQ6VXNlcjE0MTk2NDk=",
      "avatar_url": "https://avatars.githubusercontent.com/u/1419649?v=4",
      "gravatar_id": "",
      "url": "https://api.github.com/users/Diapolo",
      "html_url": "https://github.com/Diapolo",
      "followers_url": "https://api.github.com/users/Diapolo/followers",
      "following_url": "https://api.github.com/users/Diapolo/following{/other_user}",
      "gists_url": "https://api.github.com/users/Diapolo/gists{/gist_id}",
      "starred_url": "https://api.github.com/users/Diapolo/starred{/owner}{/repo}",
      "subscriptions_url": "https://api.github.com/users/Diapolo/subscriptions",
      "organizations_url": "https://api.github.com/users/Diapolo/orgs",
      "repos_url": "https://api.github.com/users/Diapolo/repos",
      "events_url": "https://api.github.com/users/Diapolo/events{/privacy}",
      "received_events_url": "https://api.github.com/users/Diapolo/received_events",
      "type": "User",
      "site_admin": false
    },
    "created_at": "2012-06-09T14:06:12Z",
    "updated_at": "2012-06-09T23:30:08Z",
    "author_association": "NONE",
    "body_html": "<p dir=\"auto\">Is this still present with 0.6.2? -&gt; Yes it is ;).</p>\n<p dir=\"auto\"><a class=\"user-mention notranslate\" data-hovercard-type=\"user\" data-hovercard-url=\"/users/laanwj/hovercard\" data-octo-click=\"hovercard-link-click\" data-octo-dimensions=\"link_type:self\" href=\"https://github.com/laanwj\">@laanwj</a> What would be a better suiting wording here?</p>",
    "body_text": "Is this still present with 0.6.2? -> Yes it is ;).\n@laanwj What would be a better suiting wording here?",
    "body": "Is this still present with 0.6.2? -> Yes it is ;).\n\n@laanwj What would be a better suiting wording here?\n",
    "reactions": {
      "url": "https://api.github.com/repos/bitcoin/bitcoin/issues/comments/6220041/reactions",
      "total_count": 0,
      "+1": 0,
      "-1": 0,
      "laugh": 0,
      "hooray": 0,
      "confused": 0,
      "heart": 0,
      "rocket": 0,
      "eyes": 0
    },
    "performed_via_github_app": null
  },
  {
    "url": "https://api.github.com/repos/bitcoin/bitcoin/issues/comments/6259806",
    "html_url": "https://github.com/bitcoin/bitcoin/issues/614#issuecomment-6259806",
    "issue_url": "https://api.github.com/repos/bitcoin/bitcoin/issues/614",
    "id": 6259806,
    "node_id": "MDEyOklzc3VlQ29tbWVudDYyNTk4MDY=",
    "user": {
      "login": "petercooperjr",
      "id": 1179061,
      "node_id": "MDQ6VXNlcjExNzkwNjE=",
      "avatar_url": "https://avatars.githubusercontent.com/u/1179061?v=4",
      "gravatar_id": "",
      "url": "https://api.github.com/users/petercooperjr",
      "html_url": "https://github.com/petercooperjr",
      "followers_url": "https://api.github.com/users/petercooperjr/followers",
      "following_url": "https://api.github.com/users/petercooperjr/following{/other_user}",
      "gists_url": "https://api.github.com/users/petercooperjr/gists{/gist_id}",
      "starred_url": "https://api.github.com/users/petercooperjr/starred{/owner}{/repo}",
      "subscriptions_url": "https://api.github.com/users/petercooperjr/subscriptions",
      "organizations_url": "https://api.github.com/users/petercooperjr/orgs",
      "repos_url": "https://api.github.com/users/petercooperjr/repos",
      "events_url": "https://api.github.com/users/petercooperjr/events{/privacy}",
      "received_events_url": "https://api.github.com/users/petercooperjr/received_events",
      "type": "User",
      "site_admin": false
    },
    "created_at": "2012-06-12T00:09:28Z",
    "updated_at": "2012-06-12T00:09:28Z",
    "author_association": "NONE",
    "body_html": "<p dir=\"auto\">I would think that it should be handled similarly to a \"normal\" transaction, and either say \"unconfirmed\" or \"maturing\" or something. Like:<br>\nMaturing (2 of 120 confirmations)</p>",
    "body_text": "I would think that it should be handled similarly to a \"normal\" transaction, and either say \"unconfirmed\" or \"maturing\" or something. Like:\nMaturing (2 of 120 confirmations)",
    "body": "I would think that it should be handled similarly to a \"normal\" transaction, and either say \"unconfirmed\" or \"maturing\" or something. Like:\nMaturing (2 of 120 confirmations)\n",
    "reactions": {
      "url": "https://api.github.com/repos/bitcoin/bitcoin/issues/comments/6259806/reactions",
      "total_count": 0,
      "+1": 0,
      "-1": 0,
      "laugh": 0,
      "hooray": 0,
      "confused": 0,
      "heart": 0,
      "rocket": 0,
      "eyes": 0
    },
    "performed_via_github_app": null
  },
  {
    "url": "https://api.github.com/repos/bitcoin/bitcoin/issues/comments/8666440",
    "html_url": "https://github.com/bitcoin/bitcoin/issues/614#issuecomment-8666440",
    "issue_url": "https://api.github.com/repos/bitcoin/bitcoin/issues/614",
    "id": 8666440,
    "node_id": "MDEyOklzc3VlQ29tbWVudDg2NjY0NDA=",
    "user": {
      "login": "shamoons",
      "id": 1019677,
      "node_id": "MDQ6VXNlcjEwMTk2Nzc=",
      "avatar_url": "https://avatars.githubusercontent.com/u/1019677?v=4",
      "gravatar_id": "",
      "url": "https://api.github.com/users/shamoons",
      "html_url": "https://github.com/shamoons",
      "followers_url": "https://api.github.com/users/shamoons/followers",
      "following_url": "https://api.github.com/users/shamoons/following{/other_user}",
      "gists_url": "https://api.github.com/users/shamoons/gists{/gist_id}",
      "starred_url": "https://api.github.com/users/shamoons/starred{/owner}{/repo}",
      "subscriptions_url": "https://api.github.com/users/shamoons/subscriptions",
      "organizations_url": "https://api.github.com/users/shamoons/orgs",
      "repos_url": "https://api.github.com/users/shamoons/repos",
      "events_url": "https://api.github.com/users/shamoons/events{/privacy}",
      "received_events_url": "https://api.github.com/users/shamoons/received_events",
      "type": "User",
      "site_admin": false
    },
    "created_at": "2012-09-18T19:08:56Z",
    "updated_at": "2012-09-18T19:08:56Z",
    "author_association": "NONE",
    "body_html": "<p dir=\"auto\">Looks like this is resolved in 0.7</p>",
    "body_text": "Looks like this is resolved in 0.7",
    "body": "Looks like this is resolved in 0.7\n",
    "reactions": {
      "url": "https://api.github.com/repos/bitcoin/bitcoin/issues/comments/8666440/reactions",
      "total_count": 0,
      "+1": 0,
      "-1": 0,
      "laugh": 0,
      "hooray": 0,
      "confused": 0,
      "heart": 0,
      "rocket": 0,
      "eyes": 0
    },
    "performed_via_github_app": null
  },
  {
    "url": "https://api.github.com/repos/bitcoin/bitcoin/issues/comments/8797486",
    "html_url": "https://github.com/bitcoin/bitcoin/issues/614#issuecomment-8797486",
    "issue_url": "https://api.github.com/repos/bitcoin/bitcoin/issues/614",
    "id": 8797486,
    "node_id": "MDEyOklzc3VlQ29tbWVudDg3OTc0ODY=",
    "user": {
      "login": "Diapolo",
      "id": 1419649,
      "node_id": "MDQ6VXNlcjE0MTk2NDk=",
      "avatar_url": "https://avatars.githubusercontent.com/u/1419649?v=4",
      "gravatar_id": "",
      "url": "https://api.github.com/users/Diapolo",
      "html_url": "https://github.com/Diapolo",
      "followers_url": "https://api.github.com/users/Diapolo/followers",
      "following_url": "https://api.github.com/users/Diapolo/following{/other_user}",
      "gists_url": "https://api.github.com/users/Diapolo/gists{/gist_id}",
      "starred_url": "https://api.github.com/users/Diapolo/starred{/owner}{/repo}",
      "subscriptions_url": "https://api.github.com/users/Diapolo/subscriptions",
      "organizations_url": "https://api.github.com/users/Diapolo/orgs",
      "repos_url": "https://api.github.com/users/Diapolo/repos",
      "events_url": "https://api.github.com/users/Diapolo/events{/privacy}",
      "received_events_url": "https://api.github.com/users/Diapolo/received_events",
      "type": "User",
      "site_admin": false
    },
    "created_at": "2012-09-23T11:26:11Z",
    "updated_at": "2012-09-23T11:26:11Z",
    "author_association": "NONE",
    "body_html": "<p dir=\"auto\">I'm not sure if this is fixed, the current text reads:</p>\n<pre class=\"notranslate\">Unconfirmed (2 of 6 confirmations)\nMined balanced will be available when it matures in 118 more blocks\nMined\n</pre>\n<p dir=\"auto\"><a class=\"user-mention notranslate\" data-hovercard-type=\"user\" data-hovercard-url=\"/users/petercooperjr/hovercard\" data-octo-click=\"hovercard-link-click\" data-octo-dimensions=\"link_type:self\" href=\"https://github.com/petercooperjr\">@petercooperjr</a> Is this better now or still problematic?</p>",
    "body_text": "I'm not sure if this is fixed, the current text reads:\nUnconfirmed (2 of 6 confirmations)\nMined balanced will be available when it matures in 118 more blocks\nMined\n\n@petercooperjr Is this better now or still problematic?",
    "body": "I'm not sure if this is fixed, the current text reads:\n\n<pre>\nUnconfirmed (2 of 6 confirmations)\nMined balanced will be available when it matures in 118 more blocks\nMined\n</pre>\n\n@petercooperjr Is this better now or still problematic?\n",
    "reactions": {
      "url": "https://api.github.com/repos/bitcoin/bitcoin/issues/comments/8797486/reactions",
      "total_count": 0,
      "+1": 0,
      "-1": 0,
      "laugh": 0,
      "hooray": 0,
      "confused": 0,
      "heart": 0,
      "rocket": 0,
      "eyes": 0
    },
    "performed_via_github_app": null
  },
  {
    "url": "https://api.github.com/repos/bitcoin/bitcoin/issues/comments/15663888",
    "html_url": "https://github.com/bitcoin/bitcoin/issues/614#issuecomment-15663888",
    "issue_url": "https://api.github.com/repos/bitcoin/bitcoin/issues/614",
    "id": 15663888,
    "node_id": "MDEyOklzc3VlQ29tbWVudDE1NjYzODg4",
    "user": {
      "login": "burger2",
      "id": 1719626,
      "node_id": "MDQ6VXNlcjE3MTk2MjY=",
      "avatar_url": "https://avatars.githubusercontent.com/u/1719626?v=4",
      "gravatar_id": "",
      "url": "https://api.github.com/users/burger2",
      "html_url": "https://github.com/burger2",
      "followers_url": "https://api.github.com/users/burger2/followers",
      "following_url": "https://api.github.com/users/burger2/following{/other_user}",
      "gists_url": "https://api.github.com/users/burger2/gists{/gist_id}",
      "starred_url": "https://api.github.com/users/burger2/starred{/owner}{/repo}",
      "subscriptions_url": "https://api.github.com/users/burger2/subscriptions",
      "organizations_url": "https://api.github.com/users/burger2/orgs",
      "repos_url": "https://api.github.com/users/burger2/repos",
      "events_url": "https://api.github.com/users/burger2/events{/privacy}",
      "received_events_url": "https://api.github.com/users/burger2/received_events",
      "type": "User",
      "site_admin": false
    },
    "created_at": "2013-03-29T22:35:08Z",
    "updated_at": "2013-03-29T22:35:08Z",
    "author_association": "CONTRIBUTOR",
    "body_html": "<p dir=\"auto\">Is this not fixed with 0.8.x?</p>",
    "body_text": "Is this not fixed with 0.8.x?",
    "body": "Is this not fixed with 0.8.x?\n",
    "reactions": {
      "url": "https://api.github.com/repos/bitcoin/bitcoin/issues/comments/15663888/reactions",
      "total_count": 0,
      "+1": 0,
      "-1": 0,
      "laugh": 0,
      "hooray": 0,
      "confused": 0,
      "heart": 0,
      "rocket": 0,
      "eyes": 0
    },
    "performed_via_github_app": null
  },
  {
    "url": "https://api.github.com/repos/bitcoin/bitcoin/issues/comments/31859734",
    "html_url": "https://github.com/bitcoin/bitcoin/issues/614#issuecomment-31859734",
    "issue_url": "https://api.github.com/repos/bitcoin/bitcoin/issues/614",
    "id": 31859734,
    "node_id": "MDEyOklzc3VlQ29tbWVudDMxODU5NzM0",
    "user": {
      "login": "laanwj",
      "id": 126646,
      "node_id": "MDQ6VXNlcjEyNjY0Ng==",
      "avatar_url": "https://avatars.githubusercontent.com/u/126646?v=4",
      "gravatar_id": "",
      "url": "https://api.github.com/users/laanwj",
      "html_url": "https://github.com/laanwj",
      "followers_url": "https://api.github.com/users/laanwj/followers",
      "following_url": "https://api.github.com/users/laanwj/following{/other_user}",
      "gists_url": "https://api.github.com/users/laanwj/gists{/gist_id}",
      "starred_url": "https://api.github.com/users/laanwj/starred{/owner}{/repo}",
      "subscriptions_url": "https://api.github.com/users/laanwj/subscriptions",
      "organizations_url": "https://api.github.com/users/laanwj/orgs",
      "repos_url": "https://api.github.com/users/laanwj/repos",
      "events_url": "https://api.github.com/users/laanwj/events{/privacy}",
      "received_events_url": "https://api.github.com/users/laanwj/received_events",
      "type": "User",
      "site_admin": false
    },
    "created_at": "2014-01-08T17:55:23Z",
    "updated_at": "2014-01-08T17:55:23Z",
    "author_association": "MEMBER",
    "body_html": "<p dir=\"auto\">See <a class=\"issue-link js-issue-link\" data-error-text=\"Failed to load title\" data-id=\"25108003\" data-permission-text=\"Title is private\" data-url=\"https://github.com/bitcoin/bitcoin/issues/3491\" data-hovercard-type=\"pull_request\" data-hovercard-url=\"/bitcoin/bitcoin/pull/3491/hovercard\" href=\"https://github.com/bitcoin/bitcoin/pull/3491\">#3491</a></p>",
    "body_text": "See #3491",
    "body": "See #3491\n",
    "reactions": {
      "url": "https://api.github.com/repos/bitcoin/bitcoin/issues/comments/31859734/reactions",
      "total_count": 0,
      "+1": 0,
      "-1": 0,
      "laugh": 0,
      "hooray": 0,
      "confused": 0,
      "heart": 0,
      "rocket": 0,
      "eyes": 0
    },
    "performed_via_github_app": null
  }
]
