{
  "url": "https://api.github.com/repos/bitcoin/bitcoin/issues/27104",
  "repository_url": "https://api.github.com/repos/bitcoin/bitcoin",
  "labels_url": "https://api.github.com/repos/bitcoin/bitcoin/issues/27104/labels{/name}",
  "comments_url": "https://api.github.com/repos/bitcoin/bitcoin/issues/27104/comments",
  "events_url": "https://api.github.com/repos/bitcoin/bitcoin/issues/27104/events",
  "html_url": "https://github.com/bitcoin/bitcoin/issues/27104",
  "id": 1585951774,
  "node_id": "I_kwDOABII585eh7Qe",
  "number": 27104,
  "title": "Disallow duplicate leaves inside `tr()` descriptors",
  "user": {
    "login": "darosior",
    "id": 22457751,
    "node_id": "MDQ6VXNlcjIyNDU3NzUx",
    "avatar_url": "https://avatars.githubusercontent.com/u/22457751?v=4",
    "gravatar_id": "",
    "url": "https://api.github.com/users/darosior",
    "html_url": "https://github.com/darosior",
    "followers_url": "https://api.github.com/users/darosior/followers",
    "following_url": "https://api.github.com/users/darosior/following{/other_user}",
    "gists_url": "https://api.github.com/users/darosior/gists{/gist_id}",
    "starred_url": "https://api.github.com/users/darosior/starred{/owner}{/repo}",
    "subscriptions_url": "https://api.github.com/users/darosior/subscriptions",
    "organizations_url": "https://api.github.com/users/darosior/orgs",
    "repos_url": "https://api.github.com/users/darosior/repos",
    "events_url": "https://api.github.com/users/darosior/events{/privacy}",
    "received_events_url": "https://api.github.com/users/darosior/received_events",
    "type": "User",
    "site_admin": false
  },
  "labels": [
    {
      "id": 1482182044,
      "node_id": "MDU6TGFiZWwxNDgyMTgyMDQ0",
      "url": "https://api.github.com/repos/bitcoin/bitcoin/labels/Descriptors",
      "name": "Descriptors",
      "color": "e9f76c",
      "default": false,
      "description": ""
    }
  ],
  "state": "open",
  "locked": false,
  "assignee": null,
  "assignees": [

  ],
  "milestone": null,
  "comments": 3,
  "created_at": "2023-02-15T14:24:42Z",
  "updated_at": "2023-03-03T14:22:09Z",
  "closed_at": null,
  "author_association": "MEMBER",
  "active_lock_reason": null,
  "body_html": "<p dir=\"auto\">While working on adapting Miniscript to Tapscript, i <a href=\"https://gist.github.com/sipa/06c5c844df155d4e5044c2c8cac9c05e?permalink_comment_id=4434770#gistcomment-4434770\">noticed</a> signatures in Tapscript only commit to the leaf (i previously assumed they committed to the whole branch). It's been discussed lately on the mailing list as well (<a href=\"https://lists.linuxfoundation.org/pipermail/bitcoin-dev/2023-February/021452.html\" rel=\"nofollow\">1</a>, <a href=\"https://github.com/bitcoin-inquisition/bitcoin/issues/19\" data-hovercard-type=\"issue\" data-hovercard-url=\"/bitcoin-inquisition/bitcoin/issues/19/hovercard\">2</a>).  This means if the same script is used in two different leaves, a signature for one can be rebound to the other.</p>\n<p dir=\"auto\">If one signed a transaction it shouldn't matter what script path it used as long as the transaction itself didn't change [0]. However, the possibility to change the script path used may cause two issues:</p>\n<ol dir=\"auto\">\n<li>It messes up with Miniscript's malleability analysis (and is a malleability vector in itself).</li>\n<li>It allows to potentially hinder the confirmation of a transaction if the two leaves aren't at the same height (<a href=\"https://gist.github.com/sipa/06c5c844df155d4e5044c2c8cac9c05e?permalink_comment_id=4434792#gistcomment-4434792\">h/t aj</a>).</li>\n</ol>\n<p dir=\"auto\">I don't think 1. is a valid point. Miniscript's analysis is about malleability from a third party that only gets to see a single satisfaction. The composition of the tree would not be known to the third party here, therefore they wouldn't be able to malleate.</p>\n<p dir=\"auto\">This leaves 2. which is more important in the context of presigned transactions, and in this case we'd expect protocol designers to take great care when designing the descriptors used so it would most likely not be an issue.</p>\n<p dir=\"auto\">On the other hand it really is inexpensive to check, and AFAICT it serves no purpose to duplicate a leaf. So we could avoid a potential future footgun we didn't anticipate for cheap?</p>\n<p dir=\"auto\"><a class=\"user-mention notranslate\" data-hovercard-type=\"user\" data-hovercard-url=\"/users/sipa/hovercard\" data-octo-click=\"hovercard-link-click\" data-octo-dimensions=\"link_type:self\" href=\"https://github.com/sipa\">@sipa</a> <a class=\"user-mention notranslate\" data-hovercard-type=\"user\" data-hovercard-url=\"/users/achow101/hovercard\" data-octo-click=\"hovercard-link-click\" data-octo-dimensions=\"link_type:self\" href=\"https://github.com/achow101\">@achow101</a> <a class=\"user-mention notranslate\" data-hovercard-type=\"user\" data-hovercard-url=\"/users/apoelstra/hovercard\" data-octo-click=\"hovercard-link-click\" data-octo-dimensions=\"link_type:self\" href=\"https://github.com/apoelstra\">@apoelstra</a> <a class=\"user-mention notranslate\" data-hovercard-type=\"user\" data-hovercard-url=\"/users/sanket1729/hovercard\" data-octo-click=\"hovercard-link-click\" data-octo-dimensions=\"link_type:self\" href=\"https://github.com/sanket1729\">@sanket1729</a> thoughts?</p>\n<p dir=\"auto\">[0] Some may argue this doesn't always hold, while it may be valid it's imo out of scope here.</p>",
  "body_text": "While working on adapting Miniscript to Tapscript, i noticed signatures in Tapscript only commit to the leaf (i previously assumed they committed to the whole branch). It's been discussed lately on the mailing list as well (1, 2).  This means if the same script is used in two different leaves, a signature for one can be rebound to the other.\nIf one signed a transaction it shouldn't matter what script path it used as long as the transaction itself didn't change [0]. However, the possibility to change the script path used may cause two issues:\n\nIt messes up with Miniscript's malleability analysis (and is a malleability vector in itself).\nIt allows to potentially hinder the confirmation of a transaction if the two leaves aren't at the same height (h/t aj).\n\nI don't think 1. is a valid point. Miniscript's analysis is about malleability from a third party that only gets to see a single satisfaction. The composition of the tree would not be known to the third party here, therefore they wouldn't be able to malleate.\nThis leaves 2. which is more important in the context of presigned transactions, and in this case we'd expect protocol designers to take great care when designing the descriptors used so it would most likely not be an issue.\nOn the other hand it really is inexpensive to check, and AFAICT it serves no purpose to duplicate a leaf. So we could avoid a potential future footgun we didn't anticipate for cheap?\n@sipa @achow101 @apoelstra @sanket1729 thoughts?\n[0] Some may argue this doesn't always hold, while it may be valid it's imo out of scope here.",
  "body": "While working on adapting Miniscript to Tapscript, i [noticed](https://gist.github.com/sipa/06c5c844df155d4e5044c2c8cac9c05e?permalink_comment_id=4434770#gistcomment-4434770) signatures in Tapscript only commit to the leaf (i previously assumed they committed to the whole branch). It's been discussed lately on the mailing list as well ([1](https://lists.linuxfoundation.org/pipermail/bitcoin-dev/2023-February/021452.html), [2](https://github.com/bitcoin-inquisition/bitcoin/issues/19)).  This means if the same script is used in two different leaves, a signature for one can be rebound to the other.\r\n\r\nIf one signed a transaction it shouldn't matter what script path it used as long as the transaction itself didn't change [0]. However, the possibility to change the script path used may cause two issues:\r\n1. It messes up with Miniscript's malleability analysis (and is a malleability vector in itself).\r\n2. It allows to potentially hinder the confirmation of a transaction if the two leaves aren't at the same height ([h/t aj](https://gist.github.com/sipa/06c5c844df155d4e5044c2c8cac9c05e?permalink_comment_id=4434792#gistcomment-4434792)).\r\n\r\nI don't think 1. is a valid point. Miniscript's analysis is about malleability from a third party that only gets to see a single satisfaction. The composition of the tree would not be known to the third party here, therefore they wouldn't be able to malleate.\r\n\r\nThis leaves 2. which is more important in the context of presigned transactions, and in this case we'd expect protocol designers to take great care when designing the descriptors used so it would most likely not be an issue.\r\n\r\nOn the other hand it really is inexpensive to check, and AFAICT it serves no purpose to duplicate a leaf. So we could avoid a potential future footgun we didn't anticipate for cheap?\r\n\r\n@sipa @achow101 @apoelstra @sanket1729 thoughts?\r\n\r\n[0] Some may argue this doesn't always hold, while it may be valid it's imo out of scope here.",
  "closed_by": null,
  "reactions": {
    "url": "https://api.github.com/repos/bitcoin/bitcoin/issues/27104/reactions",
    "total_count": 0,
    "+1": 0,
    "-1": 0,
    "laugh": 0,
    "hooray": 0,
    "confused": 0,
    "heart": 0,
    "rocket": 0,
    "eyes": 0
  },
  "timeline_url": "https://api.github.com/repos/bitcoin/bitcoin/issues/27104/timeline",
  "performed_via_github_app": null,
  "state_reason": null
}
