{
  "url": "https://api.github.com/repos/bitcoin/bitcoin/issues/106",
  "repository_url": "https://api.github.com/repos/bitcoin/bitcoin",
  "labels_url": "https://api.github.com/repos/bitcoin/bitcoin/issues/106/labels{/name}",
  "comments_url": "https://api.github.com/repos/bitcoin/bitcoin/issues/106/comments",
  "events_url": "https://api.github.com/repos/bitcoin/bitcoin/issues/106/events",
  "html_url": "https://github.com/bitcoin/bitcoin/pull/106",
  "id": 653703,
  "node_id": "MDExOlB1bGxSZXF1ZXN0ODc2NzU=",
  "number": 106,
  "title": "Sendmany RPC call",
  "user": {
    "login": "gavinandresen",
    "id": 331997,
    "node_id": "MDQ6VXNlcjMzMTk5Nw==",
    "avatar_url": "https://avatars.githubusercontent.com/u/331997?v=4",
    "gravatar_id": "",
    "url": "https://api.github.com/users/gavinandresen",
    "html_url": "https://github.com/gavinandresen",
    "followers_url": "https://api.github.com/users/gavinandresen/followers",
    "following_url": "https://api.github.com/users/gavinandresen/following{/other_user}",
    "gists_url": "https://api.github.com/users/gavinandresen/gists{/gist_id}",
    "starred_url": "https://api.github.com/users/gavinandresen/starred{/owner}{/repo}",
    "subscriptions_url": "https://api.github.com/users/gavinandresen/subscriptions",
    "organizations_url": "https://api.github.com/users/gavinandresen/orgs",
    "repos_url": "https://api.github.com/users/gavinandresen/repos",
    "events_url": "https://api.github.com/users/gavinandresen/events{/privacy}",
    "received_events_url": "https://api.github.com/users/gavinandresen/received_events",
    "type": "User",
    "site_admin": false
  },
  "labels": [

  ],
  "state": "closed",
  "locked": true,
  "assignee": null,
  "assignees": [

  ],
  "milestone": null,
  "comments": 1,
  "created_at": "2011-03-07T19:48:03Z",
  "updated_at": "2021-09-08T09:54:37Z",
  "closed_at": "2011-03-15T14:01:17Z",
  "author_association": "CONTRIBUTOR",
  "active_lock_reason": "resolved",
  "draft": false,
  "pull_request": {
    "url": "https://api.github.com/repos/bitcoin/bitcoin/pulls/106",
    "html_url": "https://github.com/bitcoin/bitcoin/pull/106",
    "diff_url": "https://github.com/bitcoin/bitcoin/pull/106.diff",
    "patch_url": "https://github.com/bitcoin/bitcoin/pull/106.patch",
    "merged_at": "2011-03-15T14:01:17Z"
  },
  "body_html": "<p dir=\"auto\">Need for this is being driven by mining pool operators; it is much more efficient to pay lots of people with one transaction rather than lots of little transactions.</p>\n<p dir=\"auto\">Old clients will refuse to relay sendmany transactions, so to ensure timely inclusion in a block mining pool operators should either upgrade together and connect their clients together or wait until a good percentage of the network has had a change to upgrade to the next version of bitcoin.</p>",
  "body_text": "Need for this is being driven by mining pool operators; it is much more efficient to pay lots of people with one transaction rather than lots of little transactions.\nOld clients will refuse to relay sendmany transactions, so to ensure timely inclusion in a block mining pool operators should either upgrade together and connect their clients together or wait until a good percentage of the network has had a change to upgrade to the next version of bitcoin.",
  "body": "Need for this is being driven by mining pool operators; it is much more efficient to pay lots of people with one transaction rather than lots of little transactions.\n\nOld clients will refuse to relay sendmany transactions, so to ensure timely inclusion in a block mining pool operators should either upgrade together and connect their clients together or wait until a good percentage of the network has had a change to upgrade to the next version of bitcoin.\n",
  "closed_by": null,
  "reactions": {
    "url": "https://api.github.com/repos/bitcoin/bitcoin/issues/106/reactions",
    "total_count": 0,
    "+1": 0,
    "-1": 0,
    "laugh": 0,
    "hooray": 0,
    "confused": 0,
    "heart": 0,
    "rocket": 0,
    "eyes": 0
  },
  "timeline_url": "https://api.github.com/repos/bitcoin/bitcoin/issues/106/timeline",
  "performed_via_github_app": null,
  "state_reason": null
}
