[
  {
    "url": "https://api.github.com/repos/bitcoin/bitcoin/issues/comments/49813359",
    "html_url": "https://github.com/bitcoin/bitcoin/issues/4573#issuecomment-49813359",
    "issue_url": "https://api.github.com/repos/bitcoin/bitcoin/issues/4573",
    "id": 49813359,
    "node_id": "MDEyOklzc3VlQ29tbWVudDQ5ODEzMzU5",
    "user": {
      "login": "sipa",
      "id": 548488,
      "node_id": "MDQ6VXNlcjU0ODQ4OA==",
      "avatar_url": "https://avatars.githubusercontent.com/u/548488?v=4",
      "gravatar_id": "",
      "url": "https://api.github.com/users/sipa",
      "html_url": "https://github.com/sipa",
      "followers_url": "https://api.github.com/users/sipa/followers",
      "following_url": "https://api.github.com/users/sipa/following{/other_user}",
      "gists_url": "https://api.github.com/users/sipa/gists{/gist_id}",
      "starred_url": "https://api.github.com/users/sipa/starred{/owner}{/repo}",
      "subscriptions_url": "https://api.github.com/users/sipa/subscriptions",
      "organizations_url": "https://api.github.com/users/sipa/orgs",
      "repos_url": "https://api.github.com/users/sipa/repos",
      "events_url": "https://api.github.com/users/sipa/events{/privacy}",
      "received_events_url": "https://api.github.com/users/sipa/received_events",
      "type": "User",
      "site_admin": false
    },
    "created_at": "2014-07-22T23:04:37Z",
    "updated_at": "2014-07-22T23:04:37Z",
    "author_association": "MEMBER",
    "body_html": "<p dir=\"auto\">Fixed in <a class=\"issue-link js-issue-link\" data-error-text=\"Failed to load title\" data-id=\"34609955\" data-permission-text=\"Title is private\" data-url=\"https://github.com/bitcoin/bitcoin/issues/4255\" data-hovercard-type=\"pull_request\" data-hovercard-url=\"/bitcoin/bitcoin/pull/4255/hovercard\" href=\"https://github.com/bitcoin/bitcoin/pull/4255\">#4255</a></p>",
    "body_text": "Fixed in #4255",
    "body": "Fixed in #4255 \n",
    "reactions": {
      "url": "https://api.github.com/repos/bitcoin/bitcoin/issues/comments/49813359/reactions",
      "total_count": 0,
      "+1": 0,
      "-1": 0,
      "laugh": 0,
      "hooray": 0,
      "confused": 0,
      "heart": 0,
      "rocket": 0,
      "eyes": 0
    },
    "performed_via_github_app": null
  },
  {
    "url": "https://api.github.com/repos/bitcoin/bitcoin/issues/comments/49813543",
    "html_url": "https://github.com/bitcoin/bitcoin/issues/4573#issuecomment-49813543",
    "issue_url": "https://api.github.com/repos/bitcoin/bitcoin/issues/4573",
    "id": 49813543,
    "node_id": "MDEyOklzc3VlQ29tbWVudDQ5ODEzNTQz",
    "user": {
      "login": "sinacc",
      "id": 6690756,
      "node_id": "MDQ6VXNlcjY2OTA3NTY=",
      "avatar_url": "https://avatars.githubusercontent.com/u/6690756?v=4",
      "gravatar_id": "",
      "url": "https://api.github.com/users/sinacc",
      "html_url": "https://github.com/sinacc",
      "followers_url": "https://api.github.com/users/sinacc/followers",
      "following_url": "https://api.github.com/users/sinacc/following{/other_user}",
      "gists_url": "https://api.github.com/users/sinacc/gists{/gist_id}",
      "starred_url": "https://api.github.com/users/sinacc/starred{/owner}{/repo}",
      "subscriptions_url": "https://api.github.com/users/sinacc/subscriptions",
      "organizations_url": "https://api.github.com/users/sinacc/orgs",
      "repos_url": "https://api.github.com/users/sinacc/repos",
      "events_url": "https://api.github.com/users/sinacc/events{/privacy}",
      "received_events_url": "https://api.github.com/users/sinacc/received_events",
      "type": "User",
      "site_admin": false
    },
    "created_at": "2014-07-22T23:06:57Z",
    "updated_at": "2014-07-22T23:06:57Z",
    "author_association": "NONE",
    "body_html": "<p dir=\"auto\">I see, sorry, checked only against the latest stable release, didn't think someone else would find this exact thing so recently :).</p>",
    "body_text": "I see, sorry, checked only against the latest stable release, didn't think someone else would find this exact thing so recently :).",
    "body": "I see, sorry, checked only against the latest stable release, didn't think someone else would find this exact thing so recently :).\n",
    "reactions": {
      "url": "https://api.github.com/repos/bitcoin/bitcoin/issues/comments/49813543/reactions",
      "total_count": 0,
      "+1": 0,
      "-1": 0,
      "laugh": 0,
      "hooray": 0,
      "confused": 0,
      "heart": 0,
      "rocket": 0,
      "eyes": 0
    },
    "performed_via_github_app": null
  },
  {
    "url": "https://api.github.com/repos/bitcoin/bitcoin/issues/comments/49813746",
    "html_url": "https://github.com/bitcoin/bitcoin/issues/4573#issuecomment-49813746",
    "issue_url": "https://api.github.com/repos/bitcoin/bitcoin/issues/4573",
    "id": 49813746,
    "node_id": "MDEyOklzc3VlQ29tbWVudDQ5ODEzNzQ2",
    "user": {
      "login": "sipa",
      "id": 548488,
      "node_id": "MDQ6VXNlcjU0ODQ4OA==",
      "avatar_url": "https://avatars.githubusercontent.com/u/548488?v=4",
      "gravatar_id": "",
      "url": "https://api.github.com/users/sipa",
      "html_url": "https://github.com/sipa",
      "followers_url": "https://api.github.com/users/sipa/followers",
      "following_url": "https://api.github.com/users/sipa/following{/other_user}",
      "gists_url": "https://api.github.com/users/sipa/gists{/gist_id}",
      "starred_url": "https://api.github.com/users/sipa/starred{/owner}{/repo}",
      "subscriptions_url": "https://api.github.com/users/sipa/subscriptions",
      "organizations_url": "https://api.github.com/users/sipa/orgs",
      "repos_url": "https://api.github.com/users/sipa/repos",
      "events_url": "https://api.github.com/users/sipa/events{/privacy}",
      "received_events_url": "https://api.github.com/users/sipa/received_events",
      "type": "User",
      "site_admin": false
    },
    "created_at": "2014-07-22T23:09:25Z",
    "updated_at": "2014-07-22T23:09:25Z",
    "author_association": "MEMBER",
    "body_html": "<p dir=\"auto\">No worries; I'm glad something that people care about got fixed.</p>",
    "body_text": "No worries; I'm glad something that people care about got fixed.",
    "body": "No worries; I'm glad something that people care about got fixed.\n",
    "reactions": {
      "url": "https://api.github.com/repos/bitcoin/bitcoin/issues/comments/49813746/reactions",
      "total_count": 0,
      "+1": 0,
      "-1": 0,
      "laugh": 0,
      "hooray": 0,
      "confused": 0,
      "heart": 0,
      "rocket": 0,
      "eyes": 0
    },
    "performed_via_github_app": null
  }
]
