[
  {
    "url": "https://api.github.com/repos/bitcoin/bitcoin/issues/comments/423587123",
    "html_url": "https://github.com/bitcoin/bitcoin/pull/14288#issuecomment-423587123",
    "issue_url": "https://api.github.com/repos/bitcoin/bitcoin/issues/14288",
    "id": 423587123,
    "node_id": "MDEyOklzc3VlQ29tbWVudDQyMzU4NzEyMw==",
    "user": {
      "login": "maflcko",
      "id": 6399679,
      "node_id": "MDQ6VXNlcjYzOTk2Nzk=",
      "avatar_url": "https://avatars.githubusercontent.com/u/6399679?v=4",
      "gravatar_id": "",
      "url": "https://api.github.com/users/maflcko",
      "html_url": "https://github.com/maflcko",
      "followers_url": "https://api.github.com/users/maflcko/followers",
      "following_url": "https://api.github.com/users/maflcko/following{/other_user}",
      "gists_url": "https://api.github.com/users/maflcko/gists{/gist_id}",
      "starred_url": "https://api.github.com/users/maflcko/starred{/owner}{/repo}",
      "subscriptions_url": "https://api.github.com/users/maflcko/subscriptions",
      "organizations_url": "https://api.github.com/users/maflcko/orgs",
      "repos_url": "https://api.github.com/users/maflcko/repos",
      "events_url": "https://api.github.com/users/maflcko/events{/privacy}",
      "received_events_url": "https://api.github.com/users/maflcko/received_events",
      "type": "User",
      "site_admin": false
    },
    "created_at": "2018-09-21T16:05:10Z",
    "updated_at": "2018-09-21T16:05:10Z",
    "author_association": "MEMBER",
    "body_html": "<p dir=\"auto\">Reminds me of \"Drop ParseHashUV in favor of calling ParseHashStr\" <a class=\"issue-link js-issue-link\" data-error-text=\"Failed to load title\" data-id=\"330749349\" data-permission-text=\"Title is private\" data-url=\"https://github.com/bitcoin/bitcoin/issues/13422\" data-hovercard-type=\"pull_request\" data-hovercard-url=\"/bitcoin/bitcoin/pull/13422/hovercard\" href=\"https://github.com/bitcoin/bitcoin/pull/13422\">#13422</a> by <a class=\"user-mention notranslate\" data-hovercard-type=\"user\" data-hovercard-url=\"/users/Empact/hovercard\" data-octo-click=\"hovercard-link-click\" data-octo-dimensions=\"link_type:self\" href=\"https://github.com/Empact\">@Empact</a></p>",
    "body_text": "Reminds me of \"Drop ParseHashUV in favor of calling ParseHashStr\" #13422 by @Empact",
    "body": "Reminds me of \"Drop ParseHashUV in favor of calling ParseHashStr\" #13422 by @Empact ",
    "reactions": {
      "url": "https://api.github.com/repos/bitcoin/bitcoin/issues/comments/423587123/reactions",
      "total_count": 0,
      "+1": 0,
      "-1": 0,
      "laugh": 0,
      "hooray": 0,
      "confused": 0,
      "heart": 0,
      "rocket": 0,
      "eyes": 0
    },
    "performed_via_github_app": null
  },
  {
    "url": "https://api.github.com/repos/bitcoin/bitcoin/issues/comments/423618807",
    "html_url": "https://github.com/bitcoin/bitcoin/pull/14288#issuecomment-423618807",
    "issue_url": "https://api.github.com/repos/bitcoin/bitcoin/issues/14288",
    "id": 423618807,
    "node_id": "MDEyOklzc3VlQ29tbWVudDQyMzYxODgwNw==",
    "user": {
      "login": "DrahtBot",
      "id": 39886733,
      "node_id": "MDQ6VXNlcjM5ODg2NzMz",
      "avatar_url": "https://avatars.githubusercontent.com/u/39886733?v=4",
      "gravatar_id": "",
      "url": "https://api.github.com/users/DrahtBot",
      "html_url": "https://github.com/DrahtBot",
      "followers_url": "https://api.github.com/users/DrahtBot/followers",
      "following_url": "https://api.github.com/users/DrahtBot/following{/other_user}",
      "gists_url": "https://api.github.com/users/DrahtBot/gists{/gist_id}",
      "starred_url": "https://api.github.com/users/DrahtBot/starred{/owner}{/repo}",
      "subscriptions_url": "https://api.github.com/users/DrahtBot/subscriptions",
      "organizations_url": "https://api.github.com/users/DrahtBot/orgs",
      "repos_url": "https://api.github.com/users/DrahtBot/repos",
      "events_url": "https://api.github.com/users/DrahtBot/events{/privacy}",
      "received_events_url": "https://api.github.com/users/DrahtBot/received_events",
      "type": "User",
      "site_admin": false
    },
    "created_at": "2018-09-21T17:46:20Z",
    "updated_at": "2018-09-21T17:46:20Z",
    "author_association": "CONTRIBUTOR",
    "body_html": "Note to reviewers: This pull request conflicts with the following ones:\n<ul dir=\"auto\">\n<li><a class=\"issue-link js-issue-link\" data-error-text=\"Failed to load title\" data-id=\"346044179\" data-permission-text=\"Title is private\" data-url=\"https://github.com/bitcoin/bitcoin/issues/13815\" data-hovercard-type=\"pull_request\" data-hovercard-url=\"/bitcoin/bitcoin/pull/13815/hovercard\" href=\"https://github.com/bitcoin/bitcoin/pull/13815\">#13815</a> (util: Add [[nodiscard]] to all {Decode,Parse}<a href=\"...\">...</a> functions returning bool by practicalswift)</li>\n</ul>\n<p dir=\"auto\">If you consider this pull request important, please also help to review the conflicting pull requests. Ideally, start with the one that should be merged first.</p>",
    "body_text": "Note to reviewers: This pull request conflicts with the following ones:\n\n#13815 (util: Add [[nodiscard]] to all {Decode,Parse}... functions returning bool by practicalswift)\n\nIf you consider this pull request important, please also help to review the conflicting pull requests. Ideally, start with the one that should be merged first.",
    "body": "<!--e57a25ab6845829454e8d69fc972939a-->Note to reviewers: This pull request conflicts with the following ones:\n\n* #13815 (util: Add [[nodiscard]] to all {Decode,Parse}[...](...) functions returning bool by practicalswift)\n\nIf you consider this pull request important, please also help to review the conflicting pull requests. Ideally, start with the one that should be merged first.",
    "reactions": {
      "url": "https://api.github.com/repos/bitcoin/bitcoin/issues/comments/423618807/reactions",
      "total_count": 0,
      "+1": 0,
      "-1": 0,
      "laugh": 0,
      "hooray": 0,
      "confused": 0,
      "heart": 0,
      "rocket": 0,
      "eyes": 0
    },
    "performed_via_github_app": null
  },
  {
    "url": "https://api.github.com/repos/bitcoin/bitcoin/issues/comments/423950250",
    "html_url": "https://github.com/bitcoin/bitcoin/pull/14288#issuecomment-423950250",
    "issue_url": "https://api.github.com/repos/bitcoin/bitcoin/issues/14288",
    "id": 423950250,
    "node_id": "MDEyOklzc3VlQ29tbWVudDQyMzk1MDI1MA==",
    "user": {
      "login": "l2a5b1",
      "id": 13120787,
      "node_id": "MDQ6VXNlcjEzMTIwNzg3",
      "avatar_url": "https://avatars.githubusercontent.com/u/13120787?v=4",
      "gravatar_id": "",
      "url": "https://api.github.com/users/l2a5b1",
      "html_url": "https://github.com/l2a5b1",
      "followers_url": "https://api.github.com/users/l2a5b1/followers",
      "following_url": "https://api.github.com/users/l2a5b1/following{/other_user}",
      "gists_url": "https://api.github.com/users/l2a5b1/gists{/gist_id}",
      "starred_url": "https://api.github.com/users/l2a5b1/starred{/owner}{/repo}",
      "subscriptions_url": "https://api.github.com/users/l2a5b1/subscriptions",
      "organizations_url": "https://api.github.com/users/l2a5b1/orgs",
      "repos_url": "https://api.github.com/users/l2a5b1/repos",
      "events_url": "https://api.github.com/users/l2a5b1/events{/privacy}",
      "received_events_url": "https://api.github.com/users/l2a5b1/received_events",
      "type": "User",
      "site_admin": false
    },
    "created_at": "2018-09-24T11:56:43Z",
    "updated_at": "2018-09-24T11:56:43Z",
    "author_association": "CONTRIBUTOR",
    "body_html": "<p dir=\"auto\">I don't mind the change, but also don't mind keeping it as it is. :)<br>\nI suspect either way is fine.</p>",
    "body_text": "I don't mind the change, but also don't mind keeping it as it is. :)\nI suspect either way is fine.",
    "body": "I don't mind the change, but also don't mind keeping it as it is. :)\r\nI suspect either way is fine.",
    "reactions": {
      "url": "https://api.github.com/repos/bitcoin/bitcoin/issues/comments/423950250/reactions",
      "total_count": 0,
      "+1": 0,
      "-1": 0,
      "laugh": 0,
      "hooray": 0,
      "confused": 0,
      "heart": 0,
      "rocket": 0,
      "eyes": 0
    },
    "performed_via_github_app": null
  },
  {
    "url": "https://api.github.com/repos/bitcoin/bitcoin/issues/comments/423956445",
    "html_url": "https://github.com/bitcoin/bitcoin/pull/14288#issuecomment-423956445",
    "issue_url": "https://api.github.com/repos/bitcoin/bitcoin/issues/14288",
    "id": 423956445,
    "node_id": "MDEyOklzc3VlQ29tbWVudDQyMzk1NjQ0NQ==",
    "user": {
      "login": "maflcko",
      "id": 6399679,
      "node_id": "MDQ6VXNlcjYzOTk2Nzk=",
      "avatar_url": "https://avatars.githubusercontent.com/u/6399679?v=4",
      "gravatar_id": "",
      "url": "https://api.github.com/users/maflcko",
      "html_url": "https://github.com/maflcko",
      "followers_url": "https://api.github.com/users/maflcko/followers",
      "following_url": "https://api.github.com/users/maflcko/following{/other_user}",
      "gists_url": "https://api.github.com/users/maflcko/gists{/gist_id}",
      "starred_url": "https://api.github.com/users/maflcko/starred{/owner}{/repo}",
      "subscriptions_url": "https://api.github.com/users/maflcko/subscriptions",
      "organizations_url": "https://api.github.com/users/maflcko/orgs",
      "repos_url": "https://api.github.com/users/maflcko/repos",
      "events_url": "https://api.github.com/users/maflcko/events{/privacy}",
      "received_events_url": "https://api.github.com/users/maflcko/received_events",
      "type": "User",
      "site_admin": false
    },
    "created_at": "2018-09-24T12:23:56Z",
    "updated_at": "2018-09-24T12:23:56Z",
    "author_association": "MEMBER",
    "body_html": "<p dir=\"auto\">Couldn't you remove this function and just call <code class=\"notranslate\">ParseHashStr</code>?</p>",
    "body_text": "Couldn't you remove this function and just call ParseHashStr?",
    "body": "Couldn't you remove this function and just call `ParseHashStr`?",
    "reactions": {
      "url": "https://api.github.com/repos/bitcoin/bitcoin/issues/comments/423956445/reactions",
      "total_count": 0,
      "+1": 0,
      "-1": 0,
      "laugh": 0,
      "hooray": 0,
      "confused": 0,
      "heart": 0,
      "rocket": 0,
      "eyes": 0
    },
    "performed_via_github_app": null
  },
  {
    "url": "https://api.github.com/repos/bitcoin/bitcoin/issues/comments/423968768",
    "html_url": "https://github.com/bitcoin/bitcoin/pull/14288#issuecomment-423968768",
    "issue_url": "https://api.github.com/repos/bitcoin/bitcoin/issues/14288",
    "id": 423968768,
    "node_id": "MDEyOklzc3VlQ29tbWVudDQyMzk2ODc2OA==",
    "user": {
      "login": "practicalswift",
      "id": 7826565,
      "node_id": "MDQ6VXNlcjc4MjY1NjU=",
      "avatar_url": "https://avatars.githubusercontent.com/u/7826565?v=4",
      "gravatar_id": "",
      "url": "https://api.github.com/users/practicalswift",
      "html_url": "https://github.com/practicalswift",
      "followers_url": "https://api.github.com/users/practicalswift/followers",
      "following_url": "https://api.github.com/users/practicalswift/following{/other_user}",
      "gists_url": "https://api.github.com/users/practicalswift/gists{/gist_id}",
      "starred_url": "https://api.github.com/users/practicalswift/starred{/owner}{/repo}",
      "subscriptions_url": "https://api.github.com/users/practicalswift/subscriptions",
      "organizations_url": "https://api.github.com/users/practicalswift/orgs",
      "repos_url": "https://api.github.com/users/practicalswift/repos",
      "events_url": "https://api.github.com/users/practicalswift/events{/privacy}",
      "received_events_url": "https://api.github.com/users/practicalswift/received_events",
      "type": "User",
      "site_admin": false
    },
    "created_at": "2018-09-24T13:09:51Z",
    "updated_at": "2018-09-24T13:49:05Z",
    "author_association": "CONTRIBUTOR",
    "body_html": "<p dir=\"auto\"><a class=\"user-mention notranslate\" data-hovercard-type=\"user\" data-hovercard-url=\"/users/MarcoFalke/hovercard\" data-octo-click=\"hovercard-link-click\" data-octo-dimensions=\"link_type:self\" href=\"https://github.com/MarcoFalke\">@MarcoFalke</a> Yes, but I don't want to change any behaviour and the functions are not identical. <code class=\"notranslate\">ParseHashStr</code> throws <code class=\"notranslate\">std::runtime_error</code> in case of non-hex input which <code class=\"notranslate\">ParseHexHashStr</code> does not. Also note the length requirement of <code class=\"notranslate\">ParseHexHashStr</code>.</p>\n<div class=\"snippet-clipboard-content notranslate position-relative overflow-auto\" data-snippet-clipboard-copy-content=\"uint256 ParseHashStr(const std::string&amp; strHex, const std::string&amp; strName)\n{\n    if (!IsHex(strHex)) // Note: IsHex(&quot;&quot;) is false\n        throw std::runtime_error(strName + &quot; must be hexadecimal string (not '&quot; + strHex + &quot;')&quot;);\n\n    uint256 result;\n    result.SetHex(strHex);\n    return result;\n}\"><pre class=\"notranslate\"><code class=\"notranslate\">uint256 ParseHashStr(const std::string&amp; strHex, const std::string&amp; strName)\n{\n    if (!IsHex(strHex)) // Note: IsHex(\"\") is false\n        throw std::runtime_error(strName + \" must be hexadecimal string (not '\" + strHex + \"')\");\n\n    uint256 result;\n    result.SetHex(strHex);\n    return result;\n}\n</code></pre></div>\n<div class=\"snippet-clipboard-content notranslate position-relative overflow-auto\" data-snippet-clipboard-copy-content=\"// Suggested new function name: ParseHexHashStr\nstatic bool ParseHashStr(const std::string&amp; strReq, uint256&amp; v)\n{\n    if (!IsHex(strReq) || (strReq.size() != 64))\n        return false;\n\n    v.SetHex(strReq);\n    return true;\n}\"><pre class=\"notranslate\"><code class=\"notranslate\">// Suggested new function name: ParseHexHashStr\nstatic bool ParseHashStr(const std::string&amp; strReq, uint256&amp; v)\n{\n    if (!IsHex(strReq) || (strReq.size() != 64))\n        return false;\n\n    v.SetHex(strReq);\n    return true;\n}\n</code></pre></div>",
    "body_text": "@MarcoFalke Yes, but I don't want to change any behaviour and the functions are not identical. ParseHashStr throws std::runtime_error in case of non-hex input which ParseHexHashStr does not. Also note the length requirement of ParseHexHashStr.\nuint256 ParseHashStr(const std::string& strHex, const std::string& strName)\n{\n    if (!IsHex(strHex)) // Note: IsHex(\"\") is false\n        throw std::runtime_error(strName + \" must be hexadecimal string (not '\" + strHex + \"')\");\n\n    uint256 result;\n    result.SetHex(strHex);\n    return result;\n}\n\n// Suggested new function name: ParseHexHashStr\nstatic bool ParseHashStr(const std::string& strReq, uint256& v)\n{\n    if (!IsHex(strReq) || (strReq.size() != 64))\n        return false;\n\n    v.SetHex(strReq);\n    return true;\n}",
    "body": "@MarcoFalke Yes, but I don't want to change any behaviour and the functions are not identical. `ParseHashStr` throws `std::runtime_error` in case of non-hex input which `ParseHexHashStr` does not. Also note the length requirement of `ParseHexHashStr`.\r\n\r\n```\r\nuint256 ParseHashStr(const std::string& strHex, const std::string& strName)\r\n{\r\n    if (!IsHex(strHex)) // Note: IsHex(\"\") is false\r\n        throw std::runtime_error(strName + \" must be hexadecimal string (not '\" + strHex + \"')\");\r\n\r\n    uint256 result;\r\n    result.SetHex(strHex);\r\n    return result;\r\n}\r\n```\r\n\r\n```\r\n// Suggested new function name: ParseHexHashStr\r\nstatic bool ParseHashStr(const std::string& strReq, uint256& v)\r\n{\r\n    if (!IsHex(strReq) || (strReq.size() != 64))\r\n        return false;\r\n\r\n    v.SetHex(strReq);\r\n    return true;\r\n}\r\n```",
    "reactions": {
      "url": "https://api.github.com/repos/bitcoin/bitcoin/issues/comments/423968768/reactions",
      "total_count": 0,
      "+1": 0,
      "-1": 0,
      "laugh": 0,
      "hooray": 0,
      "confused": 0,
      "heart": 0,
      "rocket": 0,
      "eyes": 0
    },
    "performed_via_github_app": null
  },
  {
    "url": "https://api.github.com/repos/bitcoin/bitcoin/issues/comments/424021215",
    "html_url": "https://github.com/bitcoin/bitcoin/pull/14288#issuecomment-424021215",
    "issue_url": "https://api.github.com/repos/bitcoin/bitcoin/issues/14288",
    "id": 424021215,
    "node_id": "MDEyOklzc3VlQ29tbWVudDQyNDAyMTIxNQ==",
    "user": {
      "login": "practicalswift",
      "id": 7826565,
      "node_id": "MDQ6VXNlcjc4MjY1NjU=",
      "avatar_url": "https://avatars.githubusercontent.com/u/7826565?v=4",
      "gravatar_id": "",
      "url": "https://api.github.com/users/practicalswift",
      "html_url": "https://github.com/practicalswift",
      "followers_url": "https://api.github.com/users/practicalswift/followers",
      "following_url": "https://api.github.com/users/practicalswift/following{/other_user}",
      "gists_url": "https://api.github.com/users/practicalswift/gists{/gist_id}",
      "starred_url": "https://api.github.com/users/practicalswift/starred{/owner}{/repo}",
      "subscriptions_url": "https://api.github.com/users/practicalswift/subscriptions",
      "organizations_url": "https://api.github.com/users/practicalswift/orgs",
      "repos_url": "https://api.github.com/users/practicalswift/repos",
      "events_url": "https://api.github.com/users/practicalswift/events{/privacy}",
      "received_events_url": "https://api.github.com/users/practicalswift/received_events",
      "type": "User",
      "site_admin": false
    },
    "created_at": "2018-09-24T15:40:40Z",
    "updated_at": "2018-09-24T15:40:40Z",
    "author_association": "CONTRIBUTOR",
    "body_html": "<p dir=\"auto\">Closing in favour of <a class=\"issue-link js-issue-link\" data-error-text=\"Failed to load title\" data-id=\"363189376\" data-permission-text=\"Title is private\" data-url=\"https://github.com/bitcoin/bitcoin/issues/14307\" data-hovercard-type=\"pull_request\" data-hovercard-url=\"/bitcoin/bitcoin/pull/14307/hovercard\" href=\"https://github.com/bitcoin/bitcoin/pull/14307\">#14307</a> which fixes this issue more elegantly :-)</p>",
    "body_text": "Closing in favour of #14307 which fixes this issue more elegantly :-)",
    "body": "Closing in favour of #14307 which fixes this issue more elegantly :-)",
    "reactions": {
      "url": "https://api.github.com/repos/bitcoin/bitcoin/issues/comments/424021215/reactions",
      "total_count": 0,
      "+1": 0,
      "-1": 0,
      "laugh": 0,
      "hooray": 0,
      "confused": 0,
      "heart": 0,
      "rocket": 0,
      "eyes": 0
    },
    "performed_via_github_app": null
  }
]
