{
  "url": "https://api.github.com/repos/bitcoin/bitcoin/issues/17262",
  "repository_url": "https://api.github.com/repos/bitcoin/bitcoin",
  "labels_url": "https://api.github.com/repos/bitcoin/bitcoin/issues/17262/labels{/name}",
  "comments_url": "https://api.github.com/repos/bitcoin/bitcoin/issues/17262/comments",
  "events_url": "https://api.github.com/repos/bitcoin/bitcoin/issues/17262/events",
  "html_url": "https://github.com/bitcoin/bitcoin/issues/17262",
  "id": 512813332,
  "node_id": "MDU6SXNzdWU1MTI4MTMzMzI=",
  "number": 17262,
  "title": "wallet: decodepsbt & decoderawtransaction should show RBF status",
  "user": {
    "login": "Sjors",
    "id": 10217,
    "node_id": "MDQ6VXNlcjEwMjE3",
    "avatar_url": "https://avatars.githubusercontent.com/u/10217?v=4",
    "gravatar_id": "",
    "url": "https://api.github.com/users/Sjors",
    "html_url": "https://github.com/Sjors",
    "followers_url": "https://api.github.com/users/Sjors/followers",
    "following_url": "https://api.github.com/users/Sjors/following{/other_user}",
    "gists_url": "https://api.github.com/users/Sjors/gists{/gist_id}",
    "starred_url": "https://api.github.com/users/Sjors/starred{/owner}{/repo}",
    "subscriptions_url": "https://api.github.com/users/Sjors/subscriptions",
    "organizations_url": "https://api.github.com/users/Sjors/orgs",
    "repos_url": "https://api.github.com/users/Sjors/repos",
    "events_url": "https://api.github.com/users/Sjors/events{/privacy}",
    "received_events_url": "https://api.github.com/users/Sjors/received_events",
    "type": "User",
    "site_admin": false
  },
  "labels": [
    {
      "id": 98279177,
      "node_id": "MDU6TGFiZWw5ODI3OTE3Nw==",
      "url": "https://api.github.com/repos/bitcoin/bitcoin/labels/RPC/REST/ZMQ",
      "name": "RPC/REST/ZMQ",
      "color": "0052cc",
      "default": false,
      "description": null
    },
    {
      "id": 477890092,
      "node_id": "MDU6TGFiZWw0Nzc4OTAwOTI=",
      "url": "https://api.github.com/repos/bitcoin/bitcoin/labels/Questions%20and%20Help",
      "name": "Questions and Help",
      "color": "006688",
      "default": false,
      "description": null
    }
  ],
  "state": "closed",
  "locked": true,
  "assignee": null,
  "assignees": [

  ],
  "milestone": null,
  "comments": 11,
  "created_at": "2019-10-26T09:22:58Z",
  "updated_at": "2022-02-15T10:44:38Z",
  "closed_at": "2020-05-08T23:36:41Z",
  "author_association": "MEMBER",
  "active_lock_reason": "resolved",
  "body_html": "<p dir=\"auto\">The <code class=\"notranslate\">decodepsbt</code> and <code class=\"notranslate\">decoderawtransaction</code> RPC calls return the <code class=\"notranslate\">sequence</code> for each input, but I'd rather not have to manually determine if that implies RBF.</p>\n<p dir=\"auto\">I mainly care about this for mempool transactions.</p>\n<p dir=\"auto\">cc <a class=\"user-mention notranslate\" data-hovercard-type=\"user\" data-hovercard-url=\"/users/instagibbs/hovercard\" data-octo-click=\"hovercard-link-click\" data-octo-dimensions=\"link_type:self\" href=\"https://github.com/instagibbs\">@instagibbs</a> <a class=\"user-mention notranslate\" data-hovercard-type=\"user\" data-hovercard-url=\"/users/achow101/hovercard\" data-octo-click=\"hovercard-link-click\" data-octo-dimensions=\"link_type:self\" href=\"https://github.com/achow101\">@achow101</a></p>",
  "body_text": "The decodepsbt and decoderawtransaction RPC calls return the sequence for each input, but I'd rather not have to manually determine if that implies RBF.\nI mainly care about this for mempool transactions.\ncc @instagibbs @achow101",
  "body": "The `decodepsbt` and `decoderawtransaction` RPC calls return the `sequence` for each input, but I'd rather not have to manually determine if that implies RBF.\r\n\r\nI mainly care about this for mempool transactions.\r\n\r\ncc @instagibbs @achow101 ",
  "closed_by": {
    "login": "maflcko",
    "id": 6399679,
    "node_id": "MDQ6VXNlcjYzOTk2Nzk=",
    "avatar_url": "https://avatars.githubusercontent.com/u/6399679?v=4",
    "gravatar_id": "",
    "url": "https://api.github.com/users/maflcko",
    "html_url": "https://github.com/maflcko",
    "followers_url": "https://api.github.com/users/maflcko/followers",
    "following_url": "https://api.github.com/users/maflcko/following{/other_user}",
    "gists_url": "https://api.github.com/users/maflcko/gists{/gist_id}",
    "starred_url": "https://api.github.com/users/maflcko/starred{/owner}{/repo}",
    "subscriptions_url": "https://api.github.com/users/maflcko/subscriptions",
    "organizations_url": "https://api.github.com/users/maflcko/orgs",
    "repos_url": "https://api.github.com/users/maflcko/repos",
    "events_url": "https://api.github.com/users/maflcko/events{/privacy}",
    "received_events_url": "https://api.github.com/users/maflcko/received_events",
    "type": "User",
    "site_admin": false
  },
  "reactions": {
    "url": "https://api.github.com/repos/bitcoin/bitcoin/issues/17262/reactions",
    "total_count": 1,
    "+1": 1,
    "-1": 0,
    "laugh": 0,
    "hooray": 0,
    "confused": 0,
    "heart": 0,
    "rocket": 0,
    "eyes": 0
  },
  "timeline_url": "https://api.github.com/repos/bitcoin/bitcoin/issues/17262/timeline",
  "performed_via_github_app": null,
  "state_reason": "completed"
}
