{
  "url": "https://api.github.com/repos/bitcoin/bitcoin/issues/28853",
  "repository_url": "https://api.github.com/repos/bitcoin/bitcoin",
  "labels_url": "https://api.github.com/repos/bitcoin/bitcoin/issues/28853/labels{/name}",
  "comments_url": "https://api.github.com/repos/bitcoin/bitcoin/issues/28853/comments",
  "events_url": "https://api.github.com/repos/bitcoin/bitcoin/issues/28853/events",
  "html_url": "https://github.com/bitcoin/bitcoin/issues/28853",
  "id": 1989112116,
  "node_id": "I_kwDOABII5852j3E0",
  "number": 28853,
  "title": "configure error: cannot find input file: `Makefile.in'",
  "user": {
    "login": "solidearthlabs",
    "id": 25127913,
    "node_id": "MDQ6VXNlcjI1MTI3OTEz",
    "avatar_url": "https://avatars.githubusercontent.com/u/25127913?v=4",
    "gravatar_id": "",
    "url": "https://api.github.com/users/solidearthlabs",
    "html_url": "https://github.com/solidearthlabs",
    "followers_url": "https://api.github.com/users/solidearthlabs/followers",
    "following_url": "https://api.github.com/users/solidearthlabs/following{/other_user}",
    "gists_url": "https://api.github.com/users/solidearthlabs/gists{/gist_id}",
    "starred_url": "https://api.github.com/users/solidearthlabs/starred{/owner}{/repo}",
    "subscriptions_url": "https://api.github.com/users/solidearthlabs/subscriptions",
    "organizations_url": "https://api.github.com/users/solidearthlabs/orgs",
    "repos_url": "https://api.github.com/users/solidearthlabs/repos",
    "events_url": "https://api.github.com/users/solidearthlabs/events{/privacy}",
    "received_events_url": "https://api.github.com/users/solidearthlabs/received_events",
    "type": "User",
    "site_admin": false
  },
  "labels": [

  ],
  "state": "closed",
  "locked": false,
  "assignee": null,
  "assignees": [

  ],
  "milestone": null,
  "comments": 2,
  "created_at": "2023-11-11T20:43:08Z",
  "updated_at": "2023-11-11T20:55:34Z",
  "closed_at": "2023-11-11T20:55:34Z",
  "author_association": "NONE",
  "active_lock_reason": null,
  "body_html": "<h3 dir=\"auto\">Is there an existing issue for this?</h3>\n<ul class=\"contains-task-list\">\n<li class=\"task-list-item\"><input type=\"checkbox\" id=\"\" disabled=\"\" class=\"task-list-item-checkbox\" checked=\"\"> I have searched the existing issues</li>\n</ul>\n<h3 dir=\"auto\">Current behaviour</h3>\n<p dir=\"auto\">When I run:<br>\n<code class=\"notranslate\">/configure --with-incompatible-bdb</code></p>\n<p dir=\"auto\">I get the following error message:</p>\n<div class=\"snippet-clipboard-content notranslate position-relative overflow-auto\" data-snippet-clipboard-copy-content=\"configure: creating ./config.status\nconfig.status: creating libbitcoinconsensus.pc\nconfig.status: error: cannot find input file: `Makefile.in'\n\"><pre class=\"notranslate\"><code class=\"notranslate\">configure: creating ./config.status\nconfig.status: creating libbitcoinconsensus.pc\nconfig.status: error: cannot find input file: `Makefile.in'\n\n</code></pre></div>\n<p dir=\"auto\">I've tried with v22.0, v25.1 and the latest master.</p>\n<h3 dir=\"auto\">Expected behaviour</h3>\n<p dir=\"auto\">Should finish without error</p>\n<h3 dir=\"auto\">Steps to reproduce</h3>\n<p dir=\"auto\"><code class=\"notranslate\">./configure --with-incompatible-bdb</code></p>\n<h3 dir=\"auto\">Relevant log output</h3>\n<div class=\"snippet-clipboard-content notranslate position-relative overflow-auto\" data-snippet-clipboard-copy-content=\"configure: creating ./config.status\nconfig.status: creating libbitcoinconsensus.pc\nconfig.status: error: cannot find input file: `Makefile.in'\n\"><pre class=\"notranslate\"><code class=\"notranslate\">configure: creating ./config.status\nconfig.status: creating libbitcoinconsensus.pc\nconfig.status: error: cannot find input file: `Makefile.in'\n\n</code></pre></div>\n<h3 dir=\"auto\">How did you obtain Bitcoin Core</h3>\n<p dir=\"auto\">Compiled from source</p>\n<h3 dir=\"auto\">What version of Bitcoin Core are you using?</h3>\n<p dir=\"auto\">v25.1</p>\n<h3 dir=\"auto\">Operating system and version</h3>\n<p dir=\"auto\">Ubuntu 22.04</p>\n<h3 dir=\"auto\">Machine specifications</h3>\n<p dir=\"auto\"><em>No response</em></p>",
  "body_text": "Is there an existing issue for this?\n\n I have searched the existing issues\n\nCurrent behaviour\nWhen I run:\n/configure --with-incompatible-bdb\nI get the following error message:\nconfigure: creating ./config.status\nconfig.status: creating libbitcoinconsensus.pc\nconfig.status: error: cannot find input file: `Makefile.in'\n\n\nI've tried with v22.0, v25.1 and the latest master.\nExpected behaviour\nShould finish without error\nSteps to reproduce\n./configure --with-incompatible-bdb\nRelevant log output\nconfigure: creating ./config.status\nconfig.status: creating libbitcoinconsensus.pc\nconfig.status: error: cannot find input file: `Makefile.in'\n\n\nHow did you obtain Bitcoin Core\nCompiled from source\nWhat version of Bitcoin Core are you using?\nv25.1\nOperating system and version\nUbuntu 22.04\nMachine specifications\nNo response",
  "body": "### Is there an existing issue for this?\r\n\r\n- [X] I have searched the existing issues\r\n\r\n### Current behaviour\r\n\r\nWhen I run:\r\n`/configure --with-incompatible-bdb`\r\n\r\nI get the following error message:\r\n```\r\nconfigure: creating ./config.status\r\nconfig.status: creating libbitcoinconsensus.pc\r\nconfig.status: error: cannot find input file: `Makefile.in'\r\n\r\n```\r\n\r\nI've tried with v22.0, v25.1 and the latest master.\r\n\r\n### Expected behaviour\r\n\r\nShould finish without error\r\n\r\n### Steps to reproduce\r\n\r\n`./configure --with-incompatible-bdb`\r\n\r\n\r\n### Relevant log output\r\n\r\n```\r\nconfigure: creating ./config.status\r\nconfig.status: creating libbitcoinconsensus.pc\r\nconfig.status: error: cannot find input file: `Makefile.in'\r\n\r\n```\r\n\r\n### How did you obtain Bitcoin Core\r\n\r\nCompiled from source\r\n\r\n### What version of Bitcoin Core are you using?\r\n\r\nv25.1\r\n\r\n### Operating system and version\r\n\r\nUbuntu 22.04\r\n\r\n### Machine specifications\r\n\r\n_No response_",
  "closed_by": {
    "login": "solidearthlabs",
    "id": 25127913,
    "node_id": "MDQ6VXNlcjI1MTI3OTEz",
    "avatar_url": "https://avatars.githubusercontent.com/u/25127913?v=4",
    "gravatar_id": "",
    "url": "https://api.github.com/users/solidearthlabs",
    "html_url": "https://github.com/solidearthlabs",
    "followers_url": "https://api.github.com/users/solidearthlabs/followers",
    "following_url": "https://api.github.com/users/solidearthlabs/following{/other_user}",
    "gists_url": "https://api.github.com/users/solidearthlabs/gists{/gist_id}",
    "starred_url": "https://api.github.com/users/solidearthlabs/starred{/owner}{/repo}",
    "subscriptions_url": "https://api.github.com/users/solidearthlabs/subscriptions",
    "organizations_url": "https://api.github.com/users/solidearthlabs/orgs",
    "repos_url": "https://api.github.com/users/solidearthlabs/repos",
    "events_url": "https://api.github.com/users/solidearthlabs/events{/privacy}",
    "received_events_url": "https://api.github.com/users/solidearthlabs/received_events",
    "type": "User",
    "site_admin": false
  },
  "reactions": {
    "url": "https://api.github.com/repos/bitcoin/bitcoin/issues/28853/reactions",
    "total_count": 0,
    "+1": 0,
    "-1": 0,
    "laugh": 0,
    "hooray": 0,
    "confused": 0,
    "heart": 0,
    "rocket": 0,
    "eyes": 0
  },
  "timeline_url": "https://api.github.com/repos/bitcoin/bitcoin/issues/28853/timeline",
  "performed_via_github_app": null,
  "state_reason": "completed"
}
