{
  "url": "https://api.github.com/repos/bitcoin/bitcoin/issues/7406",
  "repository_url": "https://api.github.com/repos/bitcoin/bitcoin",
  "labels_url": "https://api.github.com/repos/bitcoin/bitcoin/issues/7406/labels{/name}",
  "comments_url": "https://api.github.com/repos/bitcoin/bitcoin/issues/7406/comments",
  "events_url": "https://api.github.com/repos/bitcoin/bitcoin/issues/7406/events",
  "html_url": "https://github.com/bitcoin/bitcoin/issues/7406",
  "id": 128413884,
  "node_id": "MDU6SXNzdWUxMjg0MTM4ODQ=",
  "number": 7406,
  "title": "Core needs to distance itself from attacks made \"in its support\"",
  "user": {
    "login": "dskloet",
    "id": 6271274,
    "node_id": "MDQ6VXNlcjYyNzEyNzQ=",
    "avatar_url": "https://avatars.githubusercontent.com/u/6271274?v=4",
    "gravatar_id": "",
    "url": "https://api.github.com/users/dskloet",
    "html_url": "https://github.com/dskloet",
    "followers_url": "https://api.github.com/users/dskloet/followers",
    "following_url": "https://api.github.com/users/dskloet/following{/other_user}",
    "gists_url": "https://api.github.com/users/dskloet/gists{/gist_id}",
    "starred_url": "https://api.github.com/users/dskloet/starred{/owner}{/repo}",
    "subscriptions_url": "https://api.github.com/users/dskloet/subscriptions",
    "organizations_url": "https://api.github.com/users/dskloet/orgs",
    "repos_url": "https://api.github.com/users/dskloet/repos",
    "events_url": "https://api.github.com/users/dskloet/events{/privacy}",
    "received_events_url": "https://api.github.com/users/dskloet/received_events",
    "type": "User",
    "site_admin": false
  },
  "labels": [

  ],
  "state": "closed",
  "locked": true,
  "assignee": null,
  "assignees": [

  ],
  "milestone": null,
  "comments": 5,
  "created_at": "2016-01-24T17:58:22Z",
  "updated_at": "2021-09-08T12:23:26Z",
  "closed_at": "2016-01-25T15:51:53Z",
  "author_association": "NONE",
  "active_lock_reason": "resolved",
  "body_html": "<p dir=\"auto\">People are doing vile things, supposedly in support of Bitcoin Core. These attacks reflect very badly on Core. Some examples:</p>\n<p dir=\"auto\">Censoring large forums to hide the existing of other teams/clients.<br>\nDDoS'ing Bitcoin XT nodes and pools.<br>\nDDoS'ing Coinbase.<br>\nRemoving Coinbase from bitcoin.org</p>\n<p dir=\"auto\">Since these things reflect very badly on the Core team, it would be good to have a public announcement, distancing the team from such attacks and discouraging those attacks since they are not helping anyone.</p>",
  "body_text": "People are doing vile things, supposedly in support of Bitcoin Core. These attacks reflect very badly on Core. Some examples:\nCensoring large forums to hide the existing of other teams/clients.\nDDoS'ing Bitcoin XT nodes and pools.\nDDoS'ing Coinbase.\nRemoving Coinbase from bitcoin.org\nSince these things reflect very badly on the Core team, it would be good to have a public announcement, distancing the team from such attacks and discouraging those attacks since they are not helping anyone.",
  "body": "People are doing vile things, supposedly in support of Bitcoin Core. These attacks reflect very badly on Core. Some examples:\n\nCensoring large forums to hide the existing of other teams/clients.\nDDoS'ing Bitcoin XT nodes and pools.\nDDoS'ing Coinbase.\nRemoving Coinbase from bitcoin.org\n\nSince these things reflect very badly on the Core team, it would be good to have a public announcement, distancing the team from such attacks and discouraging those attacks since they are not helping anyone.\n",
  "closed_by": {
    "login": "laanwj",
    "id": 126646,
    "node_id": "MDQ6VXNlcjEyNjY0Ng==",
    "avatar_url": "https://avatars.githubusercontent.com/u/126646?v=4",
    "gravatar_id": "",
    "url": "https://api.github.com/users/laanwj",
    "html_url": "https://github.com/laanwj",
    "followers_url": "https://api.github.com/users/laanwj/followers",
    "following_url": "https://api.github.com/users/laanwj/following{/other_user}",
    "gists_url": "https://api.github.com/users/laanwj/gists{/gist_id}",
    "starred_url": "https://api.github.com/users/laanwj/starred{/owner}{/repo}",
    "subscriptions_url": "https://api.github.com/users/laanwj/subscriptions",
    "organizations_url": "https://api.github.com/users/laanwj/orgs",
    "repos_url": "https://api.github.com/users/laanwj/repos",
    "events_url": "https://api.github.com/users/laanwj/events{/privacy}",
    "received_events_url": "https://api.github.com/users/laanwj/received_events",
    "type": "User",
    "site_admin": false
  },
  "reactions": {
    "url": "https://api.github.com/repos/bitcoin/bitcoin/issues/7406/reactions",
    "total_count": 0,
    "+1": 0,
    "-1": 0,
    "laugh": 0,
    "hooray": 0,
    "confused": 0,
    "heart": 0,
    "rocket": 0,
    "eyes": 0
  },
  "timeline_url": "https://api.github.com/repos/bitcoin/bitcoin/issues/7406/timeline",
  "performed_via_github_app": null,
  "state_reason": "completed"
}
