{
  "url": "https://api.github.com/repos/bitcoin/bitcoin/issues/12942",
  "repository_url": "https://api.github.com/repos/bitcoin/bitcoin",
  "labels_url": "https://api.github.com/repos/bitcoin/bitcoin/issues/12942/labels{/name}",
  "comments_url": "https://api.github.com/repos/bitcoin/bitcoin/issues/12942/comments",
  "events_url": "https://api.github.com/repos/bitcoin/bitcoin/issues/12942/events",
  "html_url": "https://github.com/bitcoin/bitcoin/pull/12942",
  "id": 313222429,
  "node_id": "MDExOlB1bGxSZXF1ZXN0MTgwODI1ODk3",
  "number": 12942,
  "title": "rpc: Drop redundant testing of signrawtransaction prevtxs args",
  "user": {
    "login": "Empact",
    "id": 5470,
    "node_id": "MDQ6VXNlcjU0NzA=",
    "avatar_url": "https://avatars.githubusercontent.com/u/5470?v=4",
    "gravatar_id": "",
    "url": "https://api.github.com/users/Empact",
    "html_url": "https://github.com/Empact",
    "followers_url": "https://api.github.com/users/Empact/followers",
    "following_url": "https://api.github.com/users/Empact/following{/other_user}",
    "gists_url": "https://api.github.com/users/Empact/gists{/gist_id}",
    "starred_url": "https://api.github.com/users/Empact/starred{/owner}{/repo}",
    "subscriptions_url": "https://api.github.com/users/Empact/subscriptions",
    "organizations_url": "https://api.github.com/users/Empact/orgs",
    "repos_url": "https://api.github.com/users/Empact/repos",
    "events_url": "https://api.github.com/users/Empact/events{/privacy}",
    "received_events_url": "https://api.github.com/users/Empact/received_events",
    "type": "User",
    "site_admin": false
  },
  "labels": [
    {
      "id": 98279177,
      "node_id": "MDU6TGFiZWw5ODI3OTE3Nw==",
      "url": "https://api.github.com/repos/bitcoin/bitcoin/labels/RPC/REST/ZMQ",
      "name": "RPC/REST/ZMQ",
      "color": "0052cc",
      "default": false,
      "description": null
    }
  ],
  "state": "closed",
  "locked": true,
  "assignee": null,
  "assignees": [

  ],
  "milestone": null,
  "comments": 3,
  "created_at": "2018-04-11T08:30:16Z",
  "updated_at": "2021-09-08T11:53:02Z",
  "closed_at": "2018-04-11T13:58:56Z",
  "author_association": "MEMBER",
  "active_lock_reason": "resolved",
  "draft": false,
  "pull_request": {
    "url": "https://api.github.com/repos/bitcoin/bitcoin/pulls/12942",
    "html_url": "https://github.com/bitcoin/bitcoin/pull/12942",
    "diff_url": "https://github.com/bitcoin/bitcoin/pull/12942.diff",
    "patch_url": "https://github.com/bitcoin/bitcoin/pull/12942.patch",
    "merged_at": "2018-04-11T13:58:56Z"
  },
  "body_html": "<p dir=\"auto\">These other types are already tested on line 736.</p>",
  "body_text": "These other types are already tested on line 736.",
  "body": "These other types are already tested on line 736.",
  "closed_by": {
    "login": "laanwj",
    "id": 126646,
    "node_id": "MDQ6VXNlcjEyNjY0Ng==",
    "avatar_url": "https://avatars.githubusercontent.com/u/126646?v=4",
    "gravatar_id": "",
    "url": "https://api.github.com/users/laanwj",
    "html_url": "https://github.com/laanwj",
    "followers_url": "https://api.github.com/users/laanwj/followers",
    "following_url": "https://api.github.com/users/laanwj/following{/other_user}",
    "gists_url": "https://api.github.com/users/laanwj/gists{/gist_id}",
    "starred_url": "https://api.github.com/users/laanwj/starred{/owner}{/repo}",
    "subscriptions_url": "https://api.github.com/users/laanwj/subscriptions",
    "organizations_url": "https://api.github.com/users/laanwj/orgs",
    "repos_url": "https://api.github.com/users/laanwj/repos",
    "events_url": "https://api.github.com/users/laanwj/events{/privacy}",
    "received_events_url": "https://api.github.com/users/laanwj/received_events",
    "type": "User",
    "site_admin": false
  },
  "reactions": {
    "url": "https://api.github.com/repos/bitcoin/bitcoin/issues/12942/reactions",
    "total_count": 0,
    "+1": 0,
    "-1": 0,
    "laugh": 0,
    "hooray": 0,
    "confused": 0,
    "heart": 0,
    "rocket": 0,
    "eyes": 0
  },
  "timeline_url": "https://api.github.com/repos/bitcoin/bitcoin/issues/12942/timeline",
  "performed_via_github_app": null,
  "state_reason": null
}
