[
  {
    "url": "https://api.github.com/repos/bitcoin/bitcoin/issues/comments/1688467095",
    "html_url": "https://github.com/bitcoin/bitcoin/pull/28326#issuecomment-1688467095",
    "issue_url": "https://api.github.com/repos/bitcoin/bitcoin/issues/28326",
    "id": 1688467095,
    "node_id": "IC_kwDOABII585ko_aX",
    "user": {
      "login": "DrahtBot",
      "id": 39886733,
      "node_id": "MDQ6VXNlcjM5ODg2NzMz",
      "avatar_url": "https://avatars.githubusercontent.com/u/39886733?v=4",
      "gravatar_id": "",
      "url": "https://api.github.com/users/DrahtBot",
      "html_url": "https://github.com/DrahtBot",
      "followers_url": "https://api.github.com/users/DrahtBot/followers",
      "following_url": "https://api.github.com/users/DrahtBot/following{/other_user}",
      "gists_url": "https://api.github.com/users/DrahtBot/gists{/gist_id}",
      "starred_url": "https://api.github.com/users/DrahtBot/starred{/owner}{/repo}",
      "subscriptions_url": "https://api.github.com/users/DrahtBot/subscriptions",
      "organizations_url": "https://api.github.com/users/DrahtBot/orgs",
      "repos_url": "https://api.github.com/users/DrahtBot/repos",
      "events_url": "https://api.github.com/users/DrahtBot/events{/privacy}",
      "received_events_url": "https://api.github.com/users/DrahtBot/received_events",
      "type": "User",
      "site_admin": false
    },
    "created_at": "2023-08-22T15:46:35Z",
    "updated_at": "2023-08-22T15:46:35Z",
    "author_association": "CONTRIBUTOR",
    "body_html": "\n<p dir=\"auto\">The following sections might be updated with supplementary metadata relevant to reviewers and maintainers.</p>\n\n<h3 dir=\"auto\">Reviews</h3>\n<p dir=\"auto\">See <a href=\"https://github.com/bitcoin/bitcoin/blob/master/CONTRIBUTING.md#code-review\">the guideline</a> for information on the review process.<br>\nA summary of reviews will appear here.</p>",
    "body_text": "The following sections might be updated with supplementary metadata relevant to reviewers and maintainers.\n\nReviews\nSee the guideline for information on the review process.\nA summary of reviews will appear here.",
    "body": "<!--e57a25ab6845829454e8d69fc972939a-->\n\nThe following sections might be updated with supplementary metadata relevant to reviewers and maintainers.\n\n<!--021abf342d371248e50ceaed478a90ca-->\n### Reviews\nSee [the guideline](https://github.com/bitcoin/bitcoin/blob/master/CONTRIBUTING.md#code-review) for information on the review process.\nA summary of reviews will appear here.\n",
    "reactions": {
      "url": "https://api.github.com/repos/bitcoin/bitcoin/issues/comments/1688467095/reactions",
      "total_count": 0,
      "+1": 0,
      "-1": 0,
      "laugh": 0,
      "hooray": 0,
      "confused": 0,
      "heart": 0,
      "rocket": 0,
      "eyes": 0
    },
    "performed_via_github_app": null
  },
  {
    "url": "https://api.github.com/repos/bitcoin/bitcoin/issues/comments/1688474874",
    "html_url": "https://github.com/bitcoin/bitcoin/pull/28326#issuecomment-1688474874",
    "issue_url": "https://api.github.com/repos/bitcoin/bitcoin/issues/28326",
    "id": 1688474874,
    "node_id": "IC_kwDOABII585kpBT6",
    "user": {
      "login": "sipa",
      "id": 548488,
      "node_id": "MDQ6VXNlcjU0ODQ4OA==",
      "avatar_url": "https://avatars.githubusercontent.com/u/548488?v=4",
      "gravatar_id": "",
      "url": "https://api.github.com/users/sipa",
      "html_url": "https://github.com/sipa",
      "followers_url": "https://api.github.com/users/sipa/followers",
      "following_url": "https://api.github.com/users/sipa/following{/other_user}",
      "gists_url": "https://api.github.com/users/sipa/gists{/gist_id}",
      "starred_url": "https://api.github.com/users/sipa/starred{/owner}{/repo}",
      "subscriptions_url": "https://api.github.com/users/sipa/subscriptions",
      "organizations_url": "https://api.github.com/users/sipa/orgs",
      "repos_url": "https://api.github.com/users/sipa/repos",
      "events_url": "https://api.github.com/users/sipa/events{/privacy}",
      "received_events_url": "https://api.github.com/users/sipa/received_events",
      "type": "User",
      "site_admin": false
    },
    "created_at": "2023-08-22T15:51:26Z",
    "updated_at": "2023-08-22T15:51:26Z",
    "author_association": "MEMBER",
    "body_html": "<p dir=\"auto\">Why not? I'd say because it doesn't add anything (for tests, weaker randomness is fine) and may confuse potential people looking at the code (you still shouldn't use it for production).</p>",
    "body_text": "Why not? I'd say because it doesn't add anything (for tests, weaker randomness is fine) and may confuse potential people looking at the code (you still shouldn't use it for production).",
    "body": "Why not? I'd say because it doesn't add anything (for tests, weaker randomness is fine) and may confuse potential people looking at the code (you still shouldn't use it for production).",
    "reactions": {
      "url": "https://api.github.com/repos/bitcoin/bitcoin/issues/comments/1688474874/reactions",
      "total_count": 0,
      "+1": 0,
      "-1": 0,
      "laugh": 0,
      "hooray": 0,
      "confused": 0,
      "heart": 0,
      "rocket": 0,
      "eyes": 0
    },
    "performed_via_github_app": null
  },
  {
    "url": "https://api.github.com/repos/bitcoin/bitcoin/issues/comments/1688480511",
    "html_url": "https://github.com/bitcoin/bitcoin/pull/28326#issuecomment-1688480511",
    "issue_url": "https://api.github.com/repos/bitcoin/bitcoin/issues/28326",
    "id": 1688480511,
    "node_id": "IC_kwDOABII585kpCr_",
    "user": {
      "login": "jamesob",
      "id": 73197,
      "node_id": "MDQ6VXNlcjczMTk3",
      "avatar_url": "https://avatars.githubusercontent.com/u/73197?v=4",
      "gravatar_id": "",
      "url": "https://api.github.com/users/jamesob",
      "html_url": "https://github.com/jamesob",
      "followers_url": "https://api.github.com/users/jamesob/followers",
      "following_url": "https://api.github.com/users/jamesob/following{/other_user}",
      "gists_url": "https://api.github.com/users/jamesob/gists{/gist_id}",
      "starred_url": "https://api.github.com/users/jamesob/starred{/owner}{/repo}",
      "subscriptions_url": "https://api.github.com/users/jamesob/subscriptions",
      "organizations_url": "https://api.github.com/users/jamesob/orgs",
      "repos_url": "https://api.github.com/users/jamesob/repos",
      "events_url": "https://api.github.com/users/jamesob/events{/privacy}",
      "received_events_url": "https://api.github.com/users/jamesob/received_events",
      "type": "User",
      "site_admin": false
    },
    "created_at": "2023-08-22T15:55:13Z",
    "updated_at": "2023-08-22T15:55:13Z",
    "author_association": "MEMBER",
    "body_html": "<p dir=\"auto\">Fair enough.</p>",
    "body_text": "Fair enough.",
    "body": "Fair enough.",
    "reactions": {
      "url": "https://api.github.com/repos/bitcoin/bitcoin/issues/comments/1688480511/reactions",
      "total_count": 0,
      "+1": 0,
      "-1": 0,
      "laugh": 0,
      "hooray": 0,
      "confused": 0,
      "heart": 0,
      "rocket": 0,
      "eyes": 0
    },
    "performed_via_github_app": null
  }
]
