[
  {
    "url": "https://api.github.com/repos/bitcoin/bitcoin/issues/comments/17164347",
    "html_url": "https://github.com/bitcoin/bitcoin/pull/2590#issuecomment-17164347",
    "issue_url": "https://api.github.com/repos/bitcoin/bitcoin/issues/2590",
    "id": 17164347,
    "node_id": "MDEyOklzc3VlQ29tbWVudDE3MTY0MzQ3",
    "user": {
      "login": "jonasschnelli",
      "id": 178464,
      "node_id": "MDQ6VXNlcjE3ODQ2NA==",
      "avatar_url": "https://avatars.githubusercontent.com/u/178464?v=4",
      "gravatar_id": "",
      "url": "https://api.github.com/users/jonasschnelli",
      "html_url": "https://github.com/jonasschnelli",
      "followers_url": "https://api.github.com/users/jonasschnelli/followers",
      "following_url": "https://api.github.com/users/jonasschnelli/following{/other_user}",
      "gists_url": "https://api.github.com/users/jonasschnelli/gists{/gist_id}",
      "starred_url": "https://api.github.com/users/jonasschnelli/starred{/owner}{/repo}",
      "subscriptions_url": "https://api.github.com/users/jonasschnelli/subscriptions",
      "organizations_url": "https://api.github.com/users/jonasschnelli/orgs",
      "repos_url": "https://api.github.com/users/jonasschnelli/repos",
      "events_url": "https://api.github.com/users/jonasschnelli/events{/privacy}",
      "received_events_url": "https://api.github.com/users/jonasschnelli/received_events",
      "type": "User",
      "site_admin": false
    },
    "created_at": "2013-04-29T12:43:51Z",
    "updated_at": "2013-04-29T12:43:51Z",
    "author_association": "CONTRIBUTOR",
    "body_html": "<p dir=\"auto\">MacOSX: after pulling i get a SIGABRT somewhere in boost::filesystem::detail::canonical.<br>\nQuestion: when i create a \"ln -s\" the current stable client works perfect without this fix (testes MacOSX). Do you say, till now it was not possible to symlink \"ln -s\" the .bitcoin directory on linux?</p>",
    "body_text": "MacOSX: after pulling i get a SIGABRT somewhere in boost::filesystem::detail::canonical.\nQuestion: when i create a \"ln -s\" the current stable client works perfect without this fix (testes MacOSX). Do you say, till now it was not possible to symlink \"ln -s\" the .bitcoin directory on linux?",
    "body": "MacOSX: after pulling i get a SIGABRT somewhere in boost::filesystem::detail::canonical.\nQuestion: when i create a \"ln -s\" the current stable client works perfect without this fix (testes MacOSX). Do you say, till now it was not possible to symlink \"ln -s\" the .bitcoin directory on linux?\n",
    "reactions": {
      "url": "https://api.github.com/repos/bitcoin/bitcoin/issues/comments/17164347/reactions",
      "total_count": 0,
      "+1": 0,
      "-1": 0,
      "laugh": 0,
      "hooray": 0,
      "confused": 0,
      "heart": 0,
      "rocket": 0,
      "eyes": 0
    },
    "performed_via_github_app": null
  },
  {
    "url": "https://api.github.com/repos/bitcoin/bitcoin/issues/comments/17164425",
    "html_url": "https://github.com/bitcoin/bitcoin/pull/2590#issuecomment-17164425",
    "issue_url": "https://api.github.com/repos/bitcoin/bitcoin/issues/2590",
    "id": 17164425,
    "node_id": "MDEyOklzc3VlQ29tbWVudDE3MTY0NDI1",
    "user": {
      "login": "sipa",
      "id": 548488,
      "node_id": "MDQ6VXNlcjU0ODQ4OA==",
      "avatar_url": "https://avatars.githubusercontent.com/u/548488?v=4",
      "gravatar_id": "",
      "url": "https://api.github.com/users/sipa",
      "html_url": "https://github.com/sipa",
      "followers_url": "https://api.github.com/users/sipa/followers",
      "following_url": "https://api.github.com/users/sipa/following{/other_user}",
      "gists_url": "https://api.github.com/users/sipa/gists{/gist_id}",
      "starred_url": "https://api.github.com/users/sipa/starred{/owner}{/repo}",
      "subscriptions_url": "https://api.github.com/users/sipa/subscriptions",
      "organizations_url": "https://api.github.com/users/sipa/orgs",
      "repos_url": "https://api.github.com/users/sipa/repos",
      "events_url": "https://api.github.com/users/sipa/events{/privacy}",
      "received_events_url": "https://api.github.com/users/sipa/received_events",
      "type": "User",
      "site_admin": false
    },
    "created_at": "2013-04-29T12:45:47Z",
    "updated_at": "2013-04-29T12:45:47Z",
    "author_association": "MEMBER",
    "body_html": "<p dir=\"auto\">My .bitcoin directory is symlinked on Linux.</p>",
    "body_text": "My .bitcoin directory is symlinked on Linux.",
    "body": "My .bitcoin directory is symlinked on Linux.\n",
    "reactions": {
      "url": "https://api.github.com/repos/bitcoin/bitcoin/issues/comments/17164425/reactions",
      "total_count": 0,
      "+1": 0,
      "-1": 0,
      "laugh": 0,
      "hooray": 0,
      "confused": 0,
      "heart": 0,
      "rocket": 0,
      "eyes": 0
    },
    "performed_via_github_app": null
  },
  {
    "url": "https://api.github.com/repos/bitcoin/bitcoin/issues/comments/17165294",
    "html_url": "https://github.com/bitcoin/bitcoin/pull/2590#issuecomment-17165294",
    "issue_url": "https://api.github.com/repos/bitcoin/bitcoin/issues/2590",
    "id": 17165294,
    "node_id": "MDEyOklzc3VlQ29tbWVudDE3MTY1Mjk0",
    "user": {
      "login": "mcdee",
      "id": 511384,
      "node_id": "MDQ6VXNlcjUxMTM4NA==",
      "avatar_url": "https://avatars.githubusercontent.com/u/511384?v=4",
      "gravatar_id": "",
      "url": "https://api.github.com/users/mcdee",
      "html_url": "https://github.com/mcdee",
      "followers_url": "https://api.github.com/users/mcdee/followers",
      "following_url": "https://api.github.com/users/mcdee/following{/other_user}",
      "gists_url": "https://api.github.com/users/mcdee/gists{/gist_id}",
      "starred_url": "https://api.github.com/users/mcdee/starred{/owner}{/repo}",
      "subscriptions_url": "https://api.github.com/users/mcdee/subscriptions",
      "organizations_url": "https://api.github.com/users/mcdee/orgs",
      "repos_url": "https://api.github.com/users/mcdee/repos",
      "events_url": "https://api.github.com/users/mcdee/events{/privacy}",
      "received_events_url": "https://api.github.com/users/mcdee/received_events",
      "type": "User",
      "site_admin": false
    },
    "created_at": "2013-04-29T13:06:04Z",
    "updated_at": "2013-04-29T13:06:04Z",
    "author_association": "NONE",
    "body_html": "<p dir=\"auto\">It looks like the specific situation which the patches address is when the link points to an NTFS filesystem.  When the link points to an EXT3 filesystem it works without the patch.</p>\n<p dir=\"auto\"><a class=\"user-mention notranslate\" data-hovercard-type=\"user\" data-hovercard-url=\"/users/jonasschnelli/hovercard\" data-octo-click=\"hovercard-link-click\" data-octo-dimensions=\"link_type:self\" href=\"https://github.com/jonasschnelli\">@jonasschnelli</a> which version of boost are you using?</p>",
    "body_text": "It looks like the specific situation which the patches address is when the link points to an NTFS filesystem.  When the link points to an EXT3 filesystem it works without the patch.\n@jonasschnelli which version of boost are you using?",
    "body": "It looks like the specific situation which the patches address is when the link points to an NTFS filesystem.  When the link points to an EXT3 filesystem it works without the patch.\n\n@jonasschnelli which version of boost are you using?\n",
    "reactions": {
      "url": "https://api.github.com/repos/bitcoin/bitcoin/issues/comments/17165294/reactions",
      "total_count": 0,
      "+1": 0,
      "-1": 0,
      "laugh": 0,
      "hooray": 0,
      "confused": 0,
      "heart": 0,
      "rocket": 0,
      "eyes": 0
    },
    "performed_via_github_app": null
  },
  {
    "url": "https://api.github.com/repos/bitcoin/bitcoin/issues/comments/17165802",
    "html_url": "https://github.com/bitcoin/bitcoin/pull/2590#issuecomment-17165802",
    "issue_url": "https://api.github.com/repos/bitcoin/bitcoin/issues/2590",
    "id": 17165802,
    "node_id": "MDEyOklzc3VlQ29tbWVudDE3MTY1ODAy",
    "user": {
      "login": "jonasschnelli",
      "id": 178464,
      "node_id": "MDQ6VXNlcjE3ODQ2NA==",
      "avatar_url": "https://avatars.githubusercontent.com/u/178464?v=4",
      "gravatar_id": "",
      "url": "https://api.github.com/users/jonasschnelli",
      "html_url": "https://github.com/jonasschnelli",
      "followers_url": "https://api.github.com/users/jonasschnelli/followers",
      "following_url": "https://api.github.com/users/jonasschnelli/following{/other_user}",
      "gists_url": "https://api.github.com/users/jonasschnelli/gists{/gist_id}",
      "starred_url": "https://api.github.com/users/jonasschnelli/starred{/owner}{/repo}",
      "subscriptions_url": "https://api.github.com/users/jonasschnelli/subscriptions",
      "organizations_url": "https://api.github.com/users/jonasschnelli/orgs",
      "repos_url": "https://api.github.com/users/jonasschnelli/repos",
      "events_url": "https://api.github.com/users/jonasschnelli/events{/privacy}",
      "received_events_url": "https://api.github.com/users/jonasschnelli/received_events",
      "type": "User",
      "site_admin": false
    },
    "created_at": "2013-04-29T13:16:08Z",
    "updated_at": "2013-04-29T13:16:08Z",
    "author_association": "CONTRIBUTOR",
    "body_html": "<p dir=\"auto\"><a class=\"user-mention notranslate\" data-hovercard-type=\"user\" data-hovercard-url=\"/users/mcdee/hovercard\" data-octo-click=\"hovercard-link-click\" data-octo-dimensions=\"link_type:self\" href=\"https://github.com/mcdee\">@mcdee</a> boost @1.53.0, Revision 1 (devel)</p>",
    "body_text": "@mcdee boost @1.53.0, Revision 1 (devel)",
    "body": "@mcdee boost @1.53.0, Revision 1 (devel)\n",
    "reactions": {
      "url": "https://api.github.com/repos/bitcoin/bitcoin/issues/comments/17165802/reactions",
      "total_count": 0,
      "+1": 0,
      "-1": 0,
      "laugh": 0,
      "hooray": 0,
      "confused": 0,
      "heart": 0,
      "rocket": 0,
      "eyes": 0
    },
    "performed_via_github_app": null
  },
  {
    "url": "https://api.github.com/repos/bitcoin/bitcoin/issues/comments/17177575",
    "html_url": "https://github.com/bitcoin/bitcoin/pull/2590#issuecomment-17177575",
    "issue_url": "https://api.github.com/repos/bitcoin/bitcoin/issues/2590",
    "id": 17177575,
    "node_id": "MDEyOklzc3VlQ29tbWVudDE3MTc3NTc1",
    "user": {
      "login": "Diapolo",
      "id": 1419649,
      "node_id": "MDQ6VXNlcjE0MTk2NDk=",
      "avatar_url": "https://avatars.githubusercontent.com/u/1419649?v=4",
      "gravatar_id": "",
      "url": "https://api.github.com/users/Diapolo",
      "html_url": "https://github.com/Diapolo",
      "followers_url": "https://api.github.com/users/Diapolo/followers",
      "following_url": "https://api.github.com/users/Diapolo/following{/other_user}",
      "gists_url": "https://api.github.com/users/Diapolo/gists{/gist_id}",
      "starred_url": "https://api.github.com/users/Diapolo/starred{/owner}{/repo}",
      "subscriptions_url": "https://api.github.com/users/Diapolo/subscriptions",
      "organizations_url": "https://api.github.com/users/Diapolo/orgs",
      "repos_url": "https://api.github.com/users/Diapolo/repos",
      "events_url": "https://api.github.com/users/Diapolo/events{/privacy}",
      "received_events_url": "https://api.github.com/users/Diapolo/received_events",
      "type": "User",
      "site_admin": false
    },
    "created_at": "2013-04-29T16:27:33Z",
    "updated_at": "2013-04-29T16:27:33Z",
    "author_association": "NONE",
    "body_html": "<p dir=\"auto\">Can you squash your 2 commits into one please.</p>",
    "body_text": "Can you squash your 2 commits into one please.",
    "body": "Can you squash your 2 commits into one please.\n",
    "reactions": {
      "url": "https://api.github.com/repos/bitcoin/bitcoin/issues/comments/17177575/reactions",
      "total_count": 0,
      "+1": 0,
      "-1": 0,
      "laugh": 0,
      "hooray": 0,
      "confused": 0,
      "heart": 0,
      "rocket": 0,
      "eyes": 0
    },
    "performed_via_github_app": null
  },
  {
    "url": "https://api.github.com/repos/bitcoin/bitcoin/issues/comments/17192623",
    "html_url": "https://github.com/bitcoin/bitcoin/pull/2590#issuecomment-17192623",
    "issue_url": "https://api.github.com/repos/bitcoin/bitcoin/issues/2590",
    "id": 17192623,
    "node_id": "MDEyOklzc3VlQ29tbWVudDE3MTkyNjIz",
    "user": {
      "login": "gavinandresen",
      "id": 331997,
      "node_id": "MDQ6VXNlcjMzMTk5Nw==",
      "avatar_url": "https://avatars.githubusercontent.com/u/331997?v=4",
      "gravatar_id": "",
      "url": "https://api.github.com/users/gavinandresen",
      "html_url": "https://github.com/gavinandresen",
      "followers_url": "https://api.github.com/users/gavinandresen/followers",
      "following_url": "https://api.github.com/users/gavinandresen/following{/other_user}",
      "gists_url": "https://api.github.com/users/gavinandresen/gists{/gist_id}",
      "starred_url": "https://api.github.com/users/gavinandresen/starred{/owner}{/repo}",
      "subscriptions_url": "https://api.github.com/users/gavinandresen/subscriptions",
      "organizations_url": "https://api.github.com/users/gavinandresen/orgs",
      "repos_url": "https://api.github.com/users/gavinandresen/repos",
      "events_url": "https://api.github.com/users/gavinandresen/events{/privacy}",
      "received_events_url": "https://api.github.com/users/gavinandresen/received_events",
      "type": "User",
      "site_admin": false
    },
    "created_at": "2013-04-29T20:37:46Z",
    "updated_at": "2013-04-29T20:37:46Z",
    "author_association": "CONTRIBUTOR",
    "body_html": "<p dir=\"auto\">NACK on adding more code just to support a weird configuration like a symlink pointing to a NTFS filesystem.</p>",
    "body_text": "NACK on adding more code just to support a weird configuration like a symlink pointing to a NTFS filesystem.",
    "body": "NACK on adding more code just to support a weird configuration like a symlink pointing to a NTFS filesystem.\n",
    "reactions": {
      "url": "https://api.github.com/repos/bitcoin/bitcoin/issues/comments/17192623/reactions",
      "total_count": 0,
      "+1": 0,
      "-1": 0,
      "laugh": 0,
      "hooray": 0,
      "confused": 0,
      "heart": 0,
      "rocket": 0,
      "eyes": 0
    },
    "performed_via_github_app": null
  },
  {
    "url": "https://api.github.com/repos/bitcoin/bitcoin/issues/comments/17386520",
    "html_url": "https://github.com/bitcoin/bitcoin/pull/2590#issuecomment-17386520",
    "issue_url": "https://api.github.com/repos/bitcoin/bitcoin/issues/2590",
    "id": 17386520,
    "node_id": "MDEyOklzc3VlQ29tbWVudDE3Mzg2NTIw",
    "user": {
      "login": "mcdee",
      "id": 511384,
      "node_id": "MDQ6VXNlcjUxMTM4NA==",
      "avatar_url": "https://avatars.githubusercontent.com/u/511384?v=4",
      "gravatar_id": "",
      "url": "https://api.github.com/users/mcdee",
      "html_url": "https://github.com/mcdee",
      "followers_url": "https://api.github.com/users/mcdee/followers",
      "following_url": "https://api.github.com/users/mcdee/following{/other_user}",
      "gists_url": "https://api.github.com/users/mcdee/gists{/gist_id}",
      "starred_url": "https://api.github.com/users/mcdee/starred{/owner}{/repo}",
      "subscriptions_url": "https://api.github.com/users/mcdee/subscriptions",
      "organizations_url": "https://api.github.com/users/mcdee/orgs",
      "repos_url": "https://api.github.com/users/mcdee/repos",
      "events_url": "https://api.github.com/users/mcdee/events{/privacy}",
      "received_events_url": "https://api.github.com/users/mcdee/received_events",
      "type": "User",
      "site_admin": false
    },
    "created_at": "2013-05-03T09:49:49Z",
    "updated_at": "2013-05-03T09:49:49Z",
    "author_association": "NONE",
    "body_html": "<p dir=\"auto\">Well the configuration in this case is a dual-boot desktop for both Windows and Linux, attempting to share the blockchain between the two installs.  Not sure if it counts as \"weird\" but I'm happy to accept that this is a non-supported setup.</p>",
    "body_text": "Well the configuration in this case is a dual-boot desktop for both Windows and Linux, attempting to share the blockchain between the two installs.  Not sure if it counts as \"weird\" but I'm happy to accept that this is a non-supported setup.",
    "body": "Well the configuration in this case is a dual-boot desktop for both Windows and Linux, attempting to share the blockchain between the two installs.  Not sure if it counts as \"weird\" but I'm happy to accept that this is a non-supported setup.\n",
    "reactions": {
      "url": "https://api.github.com/repos/bitcoin/bitcoin/issues/comments/17386520/reactions",
      "total_count": 0,
      "+1": 0,
      "-1": 0,
      "laugh": 0,
      "hooray": 0,
      "confused": 0,
      "heart": 0,
      "rocket": 0,
      "eyes": 0
    },
    "performed_via_github_app": null
  },
  {
    "url": "https://api.github.com/repos/bitcoin/bitcoin/issues/comments/17452038",
    "html_url": "https://github.com/bitcoin/bitcoin/pull/2590#issuecomment-17452038",
    "issue_url": "https://api.github.com/repos/bitcoin/bitcoin/issues/2590",
    "id": 17452038,
    "node_id": "MDEyOklzc3VlQ29tbWVudDE3NDUyMDM4",
    "user": {
      "login": "laanwj",
      "id": 126646,
      "node_id": "MDQ6VXNlcjEyNjY0Ng==",
      "avatar_url": "https://avatars.githubusercontent.com/u/126646?v=4",
      "gravatar_id": "",
      "url": "https://api.github.com/users/laanwj",
      "html_url": "https://github.com/laanwj",
      "followers_url": "https://api.github.com/users/laanwj/followers",
      "following_url": "https://api.github.com/users/laanwj/following{/other_user}",
      "gists_url": "https://api.github.com/users/laanwj/gists{/gist_id}",
      "starred_url": "https://api.github.com/users/laanwj/starred{/owner}{/repo}",
      "subscriptions_url": "https://api.github.com/users/laanwj/subscriptions",
      "organizations_url": "https://api.github.com/users/laanwj/orgs",
      "repos_url": "https://api.github.com/users/laanwj/repos",
      "events_url": "https://api.github.com/users/laanwj/events{/privacy}",
      "received_events_url": "https://api.github.com/users/laanwj/received_events",
      "type": "User",
      "site_admin": false
    },
    "created_at": "2013-05-05T13:52:52Z",
    "updated_at": "2013-05-05T13:52:52Z",
    "author_association": "MEMBER",
    "body_html": "<p dir=\"auto\">I don't think you have a weird configuration, and don't see any harm in supporting it. However, I don't think this is the right solution to your problem.</p>\n<p dir=\"auto\">Looking at the root of the issue: why is <code class=\"notranslate\">fs::create_directory</code> called when the symlink already exists?</p>",
    "body_text": "I don't think you have a weird configuration, and don't see any harm in supporting it. However, I don't think this is the right solution to your problem.\nLooking at the root of the issue: why is fs::create_directory called when the symlink already exists?",
    "body": "I don't think you have a weird configuration, and don't see any harm in supporting it. However, I don't think this is the right solution to your problem.\n\nLooking at the root of the issue: why is `fs::create_directory` called when the symlink already exists?\n",
    "reactions": {
      "url": "https://api.github.com/repos/bitcoin/bitcoin/issues/comments/17452038/reactions",
      "total_count": 0,
      "+1": 0,
      "-1": 0,
      "laugh": 0,
      "hooray": 0,
      "confused": 0,
      "heart": 0,
      "rocket": 0,
      "eyes": 0
    },
    "performed_via_github_app": null
  },
  {
    "url": "https://api.github.com/repos/bitcoin/bitcoin/issues/comments/17453249",
    "html_url": "https://github.com/bitcoin/bitcoin/pull/2590#issuecomment-17453249",
    "issue_url": "https://api.github.com/repos/bitcoin/bitcoin/issues/2590",
    "id": 17453249,
    "node_id": "MDEyOklzc3VlQ29tbWVudDE3NDUzMjQ5",
    "user": {
      "login": "mcdee",
      "id": 511384,
      "node_id": "MDQ6VXNlcjUxMTM4NA==",
      "avatar_url": "https://avatars.githubusercontent.com/u/511384?v=4",
      "gravatar_id": "",
      "url": "https://api.github.com/users/mcdee",
      "html_url": "https://github.com/mcdee",
      "followers_url": "https://api.github.com/users/mcdee/followers",
      "following_url": "https://api.github.com/users/mcdee/following{/other_user}",
      "gists_url": "https://api.github.com/users/mcdee/gists{/gist_id}",
      "starred_url": "https://api.github.com/users/mcdee/starred{/owner}{/repo}",
      "subscriptions_url": "https://api.github.com/users/mcdee/subscriptions",
      "organizations_url": "https://api.github.com/users/mcdee/orgs",
      "repos_url": "https://api.github.com/users/mcdee/repos",
      "events_url": "https://api.github.com/users/mcdee/events{/privacy}",
      "received_events_url": "https://api.github.com/users/mcdee/received_events",
      "type": "User",
      "site_admin": false
    },
    "created_at": "2013-05-05T15:20:37Z",
    "updated_at": "2013-05-05T15:20:37Z",
    "author_association": "NONE",
    "body_html": "<p dir=\"auto\"><code class=\"notranslate\">fs::create_directory</code> is designed to return without error if the directory already exists.  So it works fine in the situations where a directory already exists, or a directory doesn't already exist.  However when there is a symlink in place of the directory which points to the NTFS partition it throws an error.  Resolving the path prior to the call to fs::create_directory avoids the issue as it reverts to one of the first two mentioned cases.</p>",
    "body_text": "fs::create_directory is designed to return without error if the directory already exists.  So it works fine in the situations where a directory already exists, or a directory doesn't already exist.  However when there is a symlink in place of the directory which points to the NTFS partition it throws an error.  Resolving the path prior to the call to fs::create_directory avoids the issue as it reverts to one of the first two mentioned cases.",
    "body": "`fs::create_directory` is designed to return without error if the directory already exists.  So it works fine in the situations where a directory already exists, or a directory doesn't already exist.  However when there is a symlink in place of the directory which points to the NTFS partition it throws an error.  Resolving the path prior to the call to fs::create_directory avoids the issue as it reverts to one of the first two mentioned cases.\n",
    "reactions": {
      "url": "https://api.github.com/repos/bitcoin/bitcoin/issues/comments/17453249/reactions",
      "total_count": 0,
      "+1": 0,
      "-1": 0,
      "laugh": 0,
      "hooray": 0,
      "confused": 0,
      "heart": 0,
      "rocket": 0,
      "eyes": 0
    },
    "performed_via_github_app": null
  },
  {
    "url": "https://api.github.com/repos/bitcoin/bitcoin/issues/comments/17733803",
    "html_url": "https://github.com/bitcoin/bitcoin/pull/2590#issuecomment-17733803",
    "issue_url": "https://api.github.com/repos/bitcoin/bitcoin/issues/2590",
    "id": 17733803,
    "node_id": "MDEyOklzc3VlQ29tbWVudDE3NzMzODAz",
    "user": {
      "login": "BitcoinPullTester",
      "id": 2110907,
      "node_id": "MDQ6VXNlcjIxMTA5MDc=",
      "avatar_url": "https://avatars.githubusercontent.com/u/2110907?v=4",
      "gravatar_id": "",
      "url": "https://api.github.com/users/BitcoinPullTester",
      "html_url": "https://github.com/BitcoinPullTester",
      "followers_url": "https://api.github.com/users/BitcoinPullTester/followers",
      "following_url": "https://api.github.com/users/BitcoinPullTester/following{/other_user}",
      "gists_url": "https://api.github.com/users/BitcoinPullTester/gists{/gist_id}",
      "starred_url": "https://api.github.com/users/BitcoinPullTester/starred{/owner}{/repo}",
      "subscriptions_url": "https://api.github.com/users/BitcoinPullTester/subscriptions",
      "organizations_url": "https://api.github.com/users/BitcoinPullTester/orgs",
      "repos_url": "https://api.github.com/users/BitcoinPullTester/repos",
      "events_url": "https://api.github.com/users/BitcoinPullTester/events{/privacy}",
      "received_events_url": "https://api.github.com/users/BitcoinPullTester/received_events",
      "type": "User",
      "site_admin": false
    },
    "created_at": "2013-05-10T17:36:10Z",
    "updated_at": "2013-05-10T17:36:10Z",
    "author_association": "NONE",
    "body_html": "<p dir=\"auto\">Automatic sanity-testing: PASSED, see <a href=\"http://jenkins.bluematt.me/pull-tester/a5d2f062a5757cc890bbd26b08d77f1581b8b7e7\" rel=\"nofollow\">http://jenkins.bluematt.me/pull-tester/a5d2f062a5757cc890bbd26b08d77f1581b8b7e7</a> for binaries and test log.<br>\nThis test script verifies pulls every time they are updated. It, however, dies sometimes and fails to test properly.  If you are waiting on a test, please check timestamps to verify that the test.log is moving at <a href=\"http://jenkins.bluematt.me/pull-tester/current/\" rel=\"nofollow\">http://jenkins.bluematt.me/pull-tester/current/</a><br>\nContact BlueMatt on freenode if something looks broken.</p>",
    "body_text": "Automatic sanity-testing: PASSED, see http://jenkins.bluematt.me/pull-tester/a5d2f062a5757cc890bbd26b08d77f1581b8b7e7 for binaries and test log.\nThis test script verifies pulls every time they are updated. It, however, dies sometimes and fails to test properly.  If you are waiting on a test, please check timestamps to verify that the test.log is moving at http://jenkins.bluematt.me/pull-tester/current/\nContact BlueMatt on freenode if something looks broken.",
    "body": "Automatic sanity-testing: PASSED, see http://jenkins.bluematt.me/pull-tester/a5d2f062a5757cc890bbd26b08d77f1581b8b7e7 for binaries and test log.\nThis test script verifies pulls every time they are updated. It, however, dies sometimes and fails to test properly.  If you are waiting on a test, please check timestamps to verify that the test.log is moving at http://jenkins.bluematt.me/pull-tester/current/\nContact BlueMatt on freenode if something looks broken.\n",
    "reactions": {
      "url": "https://api.github.com/repos/bitcoin/bitcoin/issues/comments/17733803/reactions",
      "total_count": 0,
      "+1": 0,
      "-1": 0,
      "laugh": 0,
      "hooray": 0,
      "confused": 0,
      "heart": 0,
      "rocket": 0,
      "eyes": 0
    },
    "performed_via_github_app": null
  },
  {
    "url": "https://api.github.com/repos/bitcoin/bitcoin/issues/comments/17772636",
    "html_url": "https://github.com/bitcoin/bitcoin/pull/2590#issuecomment-17772636",
    "issue_url": "https://api.github.com/repos/bitcoin/bitcoin/issues/2590",
    "id": 17772636,
    "node_id": "MDEyOklzc3VlQ29tbWVudDE3NzcyNjM2",
    "user": {
      "login": "rebroad",
      "id": 1530283,
      "node_id": "MDQ6VXNlcjE1MzAyODM=",
      "avatar_url": "https://avatars.githubusercontent.com/u/1530283?v=4",
      "gravatar_id": "",
      "url": "https://api.github.com/users/rebroad",
      "html_url": "https://github.com/rebroad",
      "followers_url": "https://api.github.com/users/rebroad/followers",
      "following_url": "https://api.github.com/users/rebroad/following{/other_user}",
      "gists_url": "https://api.github.com/users/rebroad/gists{/gist_id}",
      "starred_url": "https://api.github.com/users/rebroad/starred{/owner}{/repo}",
      "subscriptions_url": "https://api.github.com/users/rebroad/subscriptions",
      "organizations_url": "https://api.github.com/users/rebroad/orgs",
      "repos_url": "https://api.github.com/users/rebroad/repos",
      "events_url": "https://api.github.com/users/rebroad/events{/privacy}",
      "received_events_url": "https://api.github.com/users/rebroad/received_events",
      "type": "User",
      "site_admin": false
    },
    "created_at": "2013-05-12T04:56:37Z",
    "updated_at": "2013-05-12T04:56:37Z",
    "author_association": "CONTRIBUTOR",
    "body_html": "<p dir=\"auto\"><a class=\"user-mention notranslate\" data-hovercard-type=\"user\" data-hovercard-url=\"/users/gavinandresen/hovercard\" data-octo-click=\"hovercard-link-click\" data-octo-dimensions=\"link_type:self\" href=\"https://github.com/gavinandresen\">@gavinandresen</a> Why do you consider this a \"weird\" configuration? I suspect it's a fairly common one. Certainly a symlink to a NTFS partition should be supported, IMHO. Why shouldn't it be?</p>",
    "body_text": "@gavinandresen Why do you consider this a \"weird\" configuration? I suspect it's a fairly common one. Certainly a symlink to a NTFS partition should be supported, IMHO. Why shouldn't it be?",
    "body": "@gavinandresen Why do you consider this a \"weird\" configuration? I suspect it's a fairly common one. Certainly a symlink to a NTFS partition should be supported, IMHO. Why shouldn't it be?\n",
    "reactions": {
      "url": "https://api.github.com/repos/bitcoin/bitcoin/issues/comments/17772636/reactions",
      "total_count": 0,
      "+1": 0,
      "-1": 0,
      "laugh": 0,
      "hooray": 0,
      "confused": 0,
      "heart": 0,
      "rocket": 0,
      "eyes": 0
    },
    "performed_via_github_app": null
  },
  {
    "url": "https://api.github.com/repos/bitcoin/bitcoin/issues/comments/17774778",
    "html_url": "https://github.com/bitcoin/bitcoin/pull/2590#issuecomment-17774778",
    "issue_url": "https://api.github.com/repos/bitcoin/bitcoin/issues/2590",
    "id": 17774778,
    "node_id": "MDEyOklzc3VlQ29tbWVudDE3Nzc0Nzc4",
    "user": {
      "login": "sipa",
      "id": 548488,
      "node_id": "MDQ6VXNlcjU0ODQ4OA==",
      "avatar_url": "https://avatars.githubusercontent.com/u/548488?v=4",
      "gravatar_id": "",
      "url": "https://api.github.com/users/sipa",
      "html_url": "https://github.com/sipa",
      "followers_url": "https://api.github.com/users/sipa/followers",
      "following_url": "https://api.github.com/users/sipa/following{/other_user}",
      "gists_url": "https://api.github.com/users/sipa/gists{/gist_id}",
      "starred_url": "https://api.github.com/users/sipa/starred{/owner}{/repo}",
      "subscriptions_url": "https://api.github.com/users/sipa/subscriptions",
      "organizations_url": "https://api.github.com/users/sipa/orgs",
      "repos_url": "https://api.github.com/users/sipa/repos",
      "events_url": "https://api.github.com/users/sipa/events{/privacy}",
      "received_events_url": "https://api.github.com/users/sipa/received_events",
      "type": "User",
      "site_admin": false
    },
    "created_at": "2013-05-12T08:49:14Z",
    "updated_at": "2013-05-12T08:49:14Z",
    "author_association": "MEMBER",
    "body_html": "<p dir=\"auto\">In any case, this patch looks pretty safe to me.</p>",
    "body_text": "In any case, this patch looks pretty safe to me.",
    "body": "In any case, this patch looks pretty safe to me.\n",
    "reactions": {
      "url": "https://api.github.com/repos/bitcoin/bitcoin/issues/comments/17774778/reactions",
      "total_count": 0,
      "+1": 0,
      "-1": 0,
      "laugh": 0,
      "hooray": 0,
      "confused": 0,
      "heart": 0,
      "rocket": 0,
      "eyes": 0
    },
    "performed_via_github_app": null
  },
  {
    "url": "https://api.github.com/repos/bitcoin/bitcoin/issues/comments/17806147",
    "html_url": "https://github.com/bitcoin/bitcoin/pull/2590#issuecomment-17806147",
    "issue_url": "https://api.github.com/repos/bitcoin/bitcoin/issues/2590",
    "id": 17806147,
    "node_id": "MDEyOklzc3VlQ29tbWVudDE3ODA2MTQ3",
    "user": {
      "login": "Diapolo",
      "id": 1419649,
      "node_id": "MDQ6VXNlcjE0MTk2NDk=",
      "avatar_url": "https://avatars.githubusercontent.com/u/1419649?v=4",
      "gravatar_id": "",
      "url": "https://api.github.com/users/Diapolo",
      "html_url": "https://github.com/Diapolo",
      "followers_url": "https://api.github.com/users/Diapolo/followers",
      "following_url": "https://api.github.com/users/Diapolo/following{/other_user}",
      "gists_url": "https://api.github.com/users/Diapolo/gists{/gist_id}",
      "starred_url": "https://api.github.com/users/Diapolo/starred{/owner}{/repo}",
      "subscriptions_url": "https://api.github.com/users/Diapolo/subscriptions",
      "organizations_url": "https://api.github.com/users/Diapolo/orgs",
      "repos_url": "https://api.github.com/users/Diapolo/repos",
      "events_url": "https://api.github.com/users/Diapolo/events{/privacy}",
      "received_events_url": "https://api.github.com/users/Diapolo/received_events",
      "type": "User",
      "site_admin": false
    },
    "created_at": "2013-05-13T11:32:16Z",
    "updated_at": "2013-05-13T11:32:16Z",
    "author_association": "NONE",
    "body_html": "<p dir=\"auto\"><a class=\"user-mention notranslate\" data-hovercard-type=\"user\" data-hovercard-url=\"/users/sipa/hovercard\" data-octo-click=\"hovercard-link-click\" data-octo-dimensions=\"link_type:self\" href=\"https://github.com/sipa\">@sipa</a> I also think there is no real maintain-cost here.</p>\n<p dir=\"auto\">What I would like is a little comment, what this does in the code.</p>",
    "body_text": "@sipa I also think there is no real maintain-cost here.\nWhat I would like is a little comment, what this does in the code.",
    "body": "@sipa I also think there is no real maintain-cost here.\n\nWhat I would like is a little comment, what this does in the code.\n",
    "reactions": {
      "url": "https://api.github.com/repos/bitcoin/bitcoin/issues/comments/17806147/reactions",
      "total_count": 0,
      "+1": 0,
      "-1": 0,
      "laugh": 0,
      "hooray": 0,
      "confused": 0,
      "heart": 0,
      "rocket": 0,
      "eyes": 0
    },
    "performed_via_github_app": null
  },
  {
    "url": "https://api.github.com/repos/bitcoin/bitcoin/issues/comments/17809836",
    "html_url": "https://github.com/bitcoin/bitcoin/pull/2590#issuecomment-17809836",
    "issue_url": "https://api.github.com/repos/bitcoin/bitcoin/issues/2590",
    "id": 17809836,
    "node_id": "MDEyOklzc3VlQ29tbWVudDE3ODA5ODM2",
    "user": {
      "login": "jonasschnelli",
      "id": 178464,
      "node_id": "MDQ6VXNlcjE3ODQ2NA==",
      "avatar_url": "https://avatars.githubusercontent.com/u/178464?v=4",
      "gravatar_id": "",
      "url": "https://api.github.com/users/jonasschnelli",
      "html_url": "https://github.com/jonasschnelli",
      "followers_url": "https://api.github.com/users/jonasschnelli/followers",
      "following_url": "https://api.github.com/users/jonasschnelli/following{/other_user}",
      "gists_url": "https://api.github.com/users/jonasschnelli/gists{/gist_id}",
      "starred_url": "https://api.github.com/users/jonasschnelli/starred{/owner}{/repo}",
      "subscriptions_url": "https://api.github.com/users/jonasschnelli/subscriptions",
      "organizations_url": "https://api.github.com/users/jonasschnelli/orgs",
      "repos_url": "https://api.github.com/users/jonasschnelli/repos",
      "events_url": "https://api.github.com/users/jonasschnelli/events{/privacy}",
      "received_events_url": "https://api.github.com/users/jonasschnelli/received_events",
      "type": "User",
      "site_admin": false
    },
    "created_at": "2013-05-13T13:00:42Z",
    "updated_at": "2013-05-13T13:00:42Z",
    "author_association": "CONTRIBUTOR",
    "body_html": "<p dir=\"auto\">just for the records: <code class=\"notranslate\">fs::canonical(path);</code> does crash with SIGABRT on my mac. So we might wrap the new code with some #ifdefs for linux.</p>",
    "body_text": "just for the records: fs::canonical(path); does crash with SIGABRT on my mac. So we might wrap the new code with some #ifdefs for linux.",
    "body": "just for the records: `fs::canonical(path);` does crash with SIGABRT on my mac. So we might wrap the new code with some #ifdefs for linux.\n",
    "reactions": {
      "url": "https://api.github.com/repos/bitcoin/bitcoin/issues/comments/17809836/reactions",
      "total_count": 0,
      "+1": 0,
      "-1": 0,
      "laugh": 0,
      "hooray": 0,
      "confused": 0,
      "heart": 0,
      "rocket": 0,
      "eyes": 0
    },
    "performed_via_github_app": null
  },
  {
    "url": "https://api.github.com/repos/bitcoin/bitcoin/issues/comments/18691933",
    "html_url": "https://github.com/bitcoin/bitcoin/pull/2590#issuecomment-18691933",
    "issue_url": "https://api.github.com/repos/bitcoin/bitcoin/issues/2590",
    "id": 18691933,
    "node_id": "MDEyOklzc3VlQ29tbWVudDE4NjkxOTMz",
    "user": {
      "login": "jgarzik",
      "id": 494411,
      "node_id": "MDQ6VXNlcjQ5NDQxMQ==",
      "avatar_url": "https://avatars.githubusercontent.com/u/494411?v=4",
      "gravatar_id": "",
      "url": "https://api.github.com/users/jgarzik",
      "html_url": "https://github.com/jgarzik",
      "followers_url": "https://api.github.com/users/jgarzik/followers",
      "following_url": "https://api.github.com/users/jgarzik/following{/other_user}",
      "gists_url": "https://api.github.com/users/jgarzik/gists{/gist_id}",
      "starred_url": "https://api.github.com/users/jgarzik/starred{/owner}{/repo}",
      "subscriptions_url": "https://api.github.com/users/jgarzik/subscriptions",
      "organizations_url": "https://api.github.com/users/jgarzik/orgs",
      "repos_url": "https://api.github.com/users/jgarzik/repos",
      "events_url": "https://api.github.com/users/jgarzik/events{/privacy}",
      "received_events_url": "https://api.github.com/users/jgarzik/received_events",
      "type": "User",
      "site_admin": false
    },
    "created_at": "2013-05-30T16:29:39Z",
    "updated_at": "2013-05-30T16:29:39Z",
    "author_association": "CONTRIBUTOR",
    "body_html": "<p dir=\"auto\"><a class=\"user-mention notranslate\" data-hovercard-type=\"user\" data-hovercard-url=\"/users/jonasschnelli/hovercard\" data-octo-click=\"hovercard-link-click\" data-octo-dimensions=\"link_type:self\" href=\"https://github.com/jonasschnelli\">@jonasschnelli</a> Ouch.  Can you confirm this happens on HEAD + this patch?</p>\n<p dir=\"auto\">In general, \"meh\"   Symlinks currently work. Some people might notice that their $datadir as applied differs from the one specified, e.g. /home/real/path/to/my/data rather than /my/data.</p>",
    "body_text": "@jonasschnelli Ouch.  Can you confirm this happens on HEAD + this patch?\nIn general, \"meh\"   Symlinks currently work. Some people might notice that their $datadir as applied differs from the one specified, e.g. /home/real/path/to/my/data rather than /my/data.",
    "body": "@jonasschnelli Ouch.  Can you confirm this happens on HEAD + this patch?\n\nIn general, \"meh\"   Symlinks currently work. Some people might notice that their $datadir as applied differs from the one specified, e.g. /home/real/path/to/my/data rather than /my/data.\n",
    "reactions": {
      "url": "https://api.github.com/repos/bitcoin/bitcoin/issues/comments/18691933/reactions",
      "total_count": 0,
      "+1": 0,
      "-1": 0,
      "laugh": 0,
      "hooray": 0,
      "confused": 0,
      "heart": 0,
      "rocket": 0,
      "eyes": 0
    },
    "performed_via_github_app": null
  },
  {
    "url": "https://api.github.com/repos/bitcoin/bitcoin/issues/comments/18701248",
    "html_url": "https://github.com/bitcoin/bitcoin/pull/2590#issuecomment-18701248",
    "issue_url": "https://api.github.com/repos/bitcoin/bitcoin/issues/2590",
    "id": 18701248,
    "node_id": "MDEyOklzc3VlQ29tbWVudDE4NzAxMjQ4",
    "user": {
      "login": "jonasschnelli",
      "id": 178464,
      "node_id": "MDQ6VXNlcjE3ODQ2NA==",
      "avatar_url": "https://avatars.githubusercontent.com/u/178464?v=4",
      "gravatar_id": "",
      "url": "https://api.github.com/users/jonasschnelli",
      "html_url": "https://github.com/jonasschnelli",
      "followers_url": "https://api.github.com/users/jonasschnelli/followers",
      "following_url": "https://api.github.com/users/jonasschnelli/following{/other_user}",
      "gists_url": "https://api.github.com/users/jonasschnelli/gists{/gist_id}",
      "starred_url": "https://api.github.com/users/jonasschnelli/starred{/owner}{/repo}",
      "subscriptions_url": "https://api.github.com/users/jonasschnelli/subscriptions",
      "organizations_url": "https://api.github.com/users/jonasschnelli/orgs",
      "repos_url": "https://api.github.com/users/jonasschnelli/repos",
      "events_url": "https://api.github.com/users/jonasschnelli/events{/privacy}",
      "received_events_url": "https://api.github.com/users/jonasschnelli/received_events",
      "type": "User",
      "site_admin": false
    },
    "created_at": "2013-05-30T19:08:28Z",
    "updated_at": "2013-05-30T19:08:28Z",
    "author_association": "CONTRIBUTOR",
    "body_html": "<p dir=\"auto\">ACK</p>\n<ul dir=\"auto\">\n<li>checked out HEAD + this commit</li>\n<li>having <code class=\"notranslate\">boost @1.53.0 (devel)</code> (installed trough port)</li>\n<li>running standard 10.8.3<br>\nrun's smooth</li>\n</ul>\n<p dir=\"auto\">But i didn't test against a symlink pointing to a NTFS drive (NTFS connection are very rare on mac).</p>",
    "body_text": "ACK\n\nchecked out HEAD + this commit\nhaving boost @1.53.0 (devel) (installed trough port)\nrunning standard 10.8.3\nrun's smooth\n\nBut i didn't test against a symlink pointing to a NTFS drive (NTFS connection are very rare on mac).",
    "body": "ACK\n- checked out HEAD + this commit\n- having `boost @1.53.0 (devel)` (installed trough port)\n- running standard 10.8.3\n  run's smooth\n\nBut i didn't test against a symlink pointing to a NTFS drive (NTFS connection are very rare on mac).\n",
    "reactions": {
      "url": "https://api.github.com/repos/bitcoin/bitcoin/issues/comments/18701248/reactions",
      "total_count": 0,
      "+1": 0,
      "-1": 0,
      "laugh": 0,
      "hooray": 0,
      "confused": 0,
      "heart": 0,
      "rocket": 0,
      "eyes": 0
    },
    "performed_via_github_app": null
  },
  {
    "url": "https://api.github.com/repos/bitcoin/bitcoin/issues/comments/18724318",
    "html_url": "https://github.com/bitcoin/bitcoin/pull/2590#issuecomment-18724318",
    "issue_url": "https://api.github.com/repos/bitcoin/bitcoin/issues/2590",
    "id": 18724318,
    "node_id": "MDEyOklzc3VlQ29tbWVudDE4NzI0MzE4",
    "user": {
      "login": "goldbit89",
      "id": 4564174,
      "node_id": "MDQ6VXNlcjQ1NjQxNzQ=",
      "avatar_url": "https://avatars.githubusercontent.com/u/4564174?v=4",
      "gravatar_id": "",
      "url": "https://api.github.com/users/goldbit89",
      "html_url": "https://github.com/goldbit89",
      "followers_url": "https://api.github.com/users/goldbit89/followers",
      "following_url": "https://api.github.com/users/goldbit89/following{/other_user}",
      "gists_url": "https://api.github.com/users/goldbit89/gists{/gist_id}",
      "starred_url": "https://api.github.com/users/goldbit89/starred{/owner}{/repo}",
      "subscriptions_url": "https://api.github.com/users/goldbit89/subscriptions",
      "organizations_url": "https://api.github.com/users/goldbit89/orgs",
      "repos_url": "https://api.github.com/users/goldbit89/repos",
      "events_url": "https://api.github.com/users/goldbit89/events{/privacy}",
      "received_events_url": "https://api.github.com/users/goldbit89/received_events",
      "type": "User",
      "site_admin": false
    },
    "created_at": "2013-05-31T05:45:05Z",
    "updated_at": "2013-05-31T05:45:05Z",
    "author_association": "NONE",
    "body_html": "<p dir=\"auto\">could this be the reason im getting error : error opening file for writing:<br>\nc:\\program files (x86)\\bitcoin\\bitcoin-qt.exe</p>\n<p dir=\"auto\">in issues 2707 and 2712.</p>\n<p dir=\"auto\">i found a lock i thought was holding the bitcoin folder and sub folders along with files but i do not know how to proceed from here and pondering if i should uninstall 8.1 and also wondering if i uninstall if i will lose my database and wallet?</p>\n<p dir=\"auto\">Thanks.</p>",
    "body_text": "could this be the reason im getting error : error opening file for writing:\nc:\\program files (x86)\\bitcoin\\bitcoin-qt.exe\nin issues 2707 and 2712.\ni found a lock i thought was holding the bitcoin folder and sub folders along with files but i do not know how to proceed from here and pondering if i should uninstall 8.1 and also wondering if i uninstall if i will lose my database and wallet?\nThanks.",
    "body": "could this be the reason im getting error : error opening file for writing:\nc:\\program files (x86)\\bitcoin\\bitcoin-qt.exe\n\nin issues 2707 and 2712.\n\ni found a lock i thought was holding the bitcoin folder and sub folders along with files but i do not know how to proceed from here and pondering if i should uninstall 8.1 and also wondering if i uninstall if i will lose my database and wallet?\n\nThanks.\n",
    "reactions": {
      "url": "https://api.github.com/repos/bitcoin/bitcoin/issues/comments/18724318/reactions",
      "total_count": 0,
      "+1": 0,
      "-1": 0,
      "laugh": 0,
      "hooray": 0,
      "confused": 0,
      "heart": 0,
      "rocket": 0,
      "eyes": 0
    },
    "performed_via_github_app": null
  },
  {
    "url": "https://api.github.com/repos/bitcoin/bitcoin/issues/comments/20801388",
    "html_url": "https://github.com/bitcoin/bitcoin/pull/2590#issuecomment-20801388",
    "issue_url": "https://api.github.com/repos/bitcoin/bitcoin/issues/2590",
    "id": 20801388,
    "node_id": "MDEyOklzc3VlQ29tbWVudDIwODAxMzg4",
    "user": {
      "login": "Diapolo",
      "id": 1419649,
      "node_id": "MDQ6VXNlcjE0MTk2NDk=",
      "avatar_url": "https://avatars.githubusercontent.com/u/1419649?v=4",
      "gravatar_id": "",
      "url": "https://api.github.com/users/Diapolo",
      "html_url": "https://github.com/Diapolo",
      "followers_url": "https://api.github.com/users/Diapolo/followers",
      "following_url": "https://api.github.com/users/Diapolo/following{/other_user}",
      "gists_url": "https://api.github.com/users/Diapolo/gists{/gist_id}",
      "starred_url": "https://api.github.com/users/Diapolo/starred{/owner}{/repo}",
      "subscriptions_url": "https://api.github.com/users/Diapolo/subscriptions",
      "organizations_url": "https://api.github.com/users/Diapolo/orgs",
      "repos_url": "https://api.github.com/users/Diapolo/repos",
      "events_url": "https://api.github.com/users/Diapolo/events{/privacy}",
      "received_events_url": "https://api.github.com/users/Diapolo/received_events",
      "type": "User",
      "site_admin": false
    },
    "created_at": "2013-07-11T10:03:22Z",
    "updated_at": "2013-07-11T10:03:22Z",
    "author_association": "NONE",
    "body_html": "<p dir=\"auto\">I'm still supporting that change, as the configuration seems more common, than we thought.</p>",
    "body_text": "I'm still supporting that change, as the configuration seems more common, than we thought.",
    "body": "I'm still supporting that change, as the configuration seems more common, than we thought.\n",
    "reactions": {
      "url": "https://api.github.com/repos/bitcoin/bitcoin/issues/comments/20801388/reactions",
      "total_count": 0,
      "+1": 0,
      "-1": 0,
      "laugh": 0,
      "hooray": 0,
      "confused": 0,
      "heart": 0,
      "rocket": 0,
      "eyes": 0
    },
    "performed_via_github_app": null
  },
  {
    "url": "https://api.github.com/repos/bitcoin/bitcoin/issues/comments/26688666",
    "html_url": "https://github.com/bitcoin/bitcoin/pull/2590#issuecomment-26688666",
    "issue_url": "https://api.github.com/repos/bitcoin/bitcoin/issues/2590",
    "id": 26688666,
    "node_id": "MDEyOklzc3VlQ29tbWVudDI2Njg4NjY2",
    "user": {
      "login": "gavinandresen",
      "id": 331997,
      "node_id": "MDQ6VXNlcjMzMTk5Nw==",
      "avatar_url": "https://avatars.githubusercontent.com/u/331997?v=4",
      "gravatar_id": "",
      "url": "https://api.github.com/users/gavinandresen",
      "html_url": "https://github.com/gavinandresen",
      "followers_url": "https://api.github.com/users/gavinandresen/followers",
      "following_url": "https://api.github.com/users/gavinandresen/following{/other_user}",
      "gists_url": "https://api.github.com/users/gavinandresen/gists{/gist_id}",
      "starred_url": "https://api.github.com/users/gavinandresen/starred{/owner}{/repo}",
      "subscriptions_url": "https://api.github.com/users/gavinandresen/subscriptions",
      "organizations_url": "https://api.github.com/users/gavinandresen/orgs",
      "repos_url": "https://api.github.com/users/gavinandresen/repos",
      "events_url": "https://api.github.com/users/gavinandresen/events{/privacy}",
      "received_events_url": "https://api.github.com/users/gavinandresen/received_events",
      "type": "User",
      "site_admin": false
    },
    "created_at": "2013-10-21T01:43:50Z",
    "updated_at": "2013-10-21T01:43:50Z",
    "author_association": "CONTRIBUTOR",
    "body_html": "<p dir=\"auto\">Closing due to inactivity, and because we're using create_directories now this may no longer be an issue.</p>\n<p dir=\"auto\">If it is still an issue, feel free to open a new pull request.</p>",
    "body_text": "Closing due to inactivity, and because we're using create_directories now this may no longer be an issue.\nIf it is still an issue, feel free to open a new pull request.",
    "body": "Closing due to inactivity, and because we're using create_directories now this may no longer be an issue.\n\nIf it is still an issue, feel free to open a new pull request.\n",
    "reactions": {
      "url": "https://api.github.com/repos/bitcoin/bitcoin/issues/comments/26688666/reactions",
      "total_count": 0,
      "+1": 0,
      "-1": 0,
      "laugh": 0,
      "hooray": 0,
      "confused": 0,
      "heart": 0,
      "rocket": 0,
      "eyes": 0
    },
    "performed_via_github_app": null
  },
  {
    "url": "https://api.github.com/repos/bitcoin/bitcoin/issues/comments/27633981",
    "html_url": "https://github.com/bitcoin/bitcoin/pull/2590#issuecomment-27633981",
    "issue_url": "https://api.github.com/repos/bitcoin/bitcoin/issues/2590",
    "id": 27633981,
    "node_id": "MDEyOklzc3VlQ29tbWVudDI3NjMzOTgx",
    "user": {
      "login": "laxris",
      "id": 4000627,
      "node_id": "MDQ6VXNlcjQwMDA2Mjc=",
      "avatar_url": "https://avatars.githubusercontent.com/u/4000627?v=4",
      "gravatar_id": "",
      "url": "https://api.github.com/users/laxris",
      "html_url": "https://github.com/laxris",
      "followers_url": "https://api.github.com/users/laxris/followers",
      "following_url": "https://api.github.com/users/laxris/following{/other_user}",
      "gists_url": "https://api.github.com/users/laxris/gists{/gist_id}",
      "starred_url": "https://api.github.com/users/laxris/starred{/owner}{/repo}",
      "subscriptions_url": "https://api.github.com/users/laxris/subscriptions",
      "organizations_url": "https://api.github.com/users/laxris/orgs",
      "repos_url": "https://api.github.com/users/laxris/repos",
      "events_url": "https://api.github.com/users/laxris/events{/privacy}",
      "received_events_url": "https://api.github.com/users/laxris/received_events",
      "type": "User",
      "site_admin": false
    },
    "created_at": "2013-11-02T22:19:54Z",
    "updated_at": "2013-11-02T22:19:54Z",
    "author_association": "NONE",
    "body_html": "<p dir=\"auto\">Since I moved the Bitcoin folder from %appdata%\\Roaming and junction-linked it, I receive a MS Visual C++ Runtime Library error stating:</p>\n<p dir=\"auto\">\"This application has requested the Runtime to temrinate it in an unusual way. Please contact the application's support team for more information.\"</p>\n<p dir=\"auto\">Can other junction users confirm this issue?</p>",
    "body_text": "Since I moved the Bitcoin folder from %appdata%\\Roaming and junction-linked it, I receive a MS Visual C++ Runtime Library error stating:\n\"This application has requested the Runtime to temrinate it in an unusual way. Please contact the application's support team for more information.\"\nCan other junction users confirm this issue?",
    "body": "Since I moved the Bitcoin folder from %appdata%\\Roaming and junction-linked it, I receive a MS Visual C++ Runtime Library error stating:\n\n\"This application has requested the Runtime to temrinate it in an unusual way. Please contact the application's support team for more information.\"\n\nCan other junction users confirm this issue?\n",
    "reactions": {
      "url": "https://api.github.com/repos/bitcoin/bitcoin/issues/comments/27633981/reactions",
      "total_count": 0,
      "+1": 0,
      "-1": 0,
      "laugh": 0,
      "hooray": 0,
      "confused": 0,
      "heart": 0,
      "rocket": 0,
      "eyes": 0
    },
    "performed_via_github_app": null
  },
  {
    "url": "https://api.github.com/repos/bitcoin/bitcoin/issues/comments/30484758",
    "html_url": "https://github.com/bitcoin/bitcoin/pull/2590#issuecomment-30484758",
    "issue_url": "https://api.github.com/repos/bitcoin/bitcoin/issues/2590",
    "id": 30484758,
    "node_id": "MDEyOklzc3VlQ29tbWVudDMwNDg0NzU4",
    "user": {
      "login": "ughman",
      "id": 1569076,
      "node_id": "MDQ6VXNlcjE1NjkwNzY=",
      "avatar_url": "https://avatars.githubusercontent.com/u/1569076?v=4",
      "gravatar_id": "",
      "url": "https://api.github.com/users/ughman",
      "html_url": "https://github.com/ughman",
      "followers_url": "https://api.github.com/users/ughman/followers",
      "following_url": "https://api.github.com/users/ughman/following{/other_user}",
      "gists_url": "https://api.github.com/users/ughman/gists{/gist_id}",
      "starred_url": "https://api.github.com/users/ughman/starred{/owner}{/repo}",
      "subscriptions_url": "https://api.github.com/users/ughman/subscriptions",
      "organizations_url": "https://api.github.com/users/ughman/orgs",
      "repos_url": "https://api.github.com/users/ughman/repos",
      "events_url": "https://api.github.com/users/ughman/events{/privacy}",
      "received_events_url": "https://api.github.com/users/ughman/received_events",
      "type": "User",
      "site_admin": false
    },
    "created_at": "2013-12-13T03:58:51Z",
    "updated_at": "2013-12-13T03:58:51Z",
    "author_association": "NONE",
    "body_html": "<p dir=\"auto\">I can confirm the issue running the win32 binary release for v0.8.6 under Windows XP with a junction link from %APPDATA%\\Bitcoin to K:\\bitcoin-0.8.6-win32\\data with the same error message.</p>",
    "body_text": "I can confirm the issue running the win32 binary release for v0.8.6 under Windows XP with a junction link from %APPDATA%\\Bitcoin to K:\\bitcoin-0.8.6-win32\\data with the same error message.",
    "body": "I can confirm the issue running the win32 binary release for v0.8.6 under Windows XP with a junction link from %APPDATA%\\Bitcoin to K:\\bitcoin-0.8.6-win32\\data with the same error message.\n",
    "reactions": {
      "url": "https://api.github.com/repos/bitcoin/bitcoin/issues/comments/30484758/reactions",
      "total_count": 0,
      "+1": 0,
      "-1": 0,
      "laugh": 0,
      "hooray": 0,
      "confused": 0,
      "heart": 0,
      "rocket": 0,
      "eyes": 0
    },
    "performed_via_github_app": null
  },
  {
    "url": "https://api.github.com/repos/bitcoin/bitcoin/issues/comments/30485146",
    "html_url": "https://github.com/bitcoin/bitcoin/pull/2590#issuecomment-30485146",
    "issue_url": "https://api.github.com/repos/bitcoin/bitcoin/issues/2590",
    "id": 30485146,
    "node_id": "MDEyOklzc3VlQ29tbWVudDMwNDg1MTQ2",
    "user": {
      "login": "laanwj",
      "id": 126646,
      "node_id": "MDQ6VXNlcjEyNjY0Ng==",
      "avatar_url": "https://avatars.githubusercontent.com/u/126646?v=4",
      "gravatar_id": "",
      "url": "https://api.github.com/users/laanwj",
      "html_url": "https://github.com/laanwj",
      "followers_url": "https://api.github.com/users/laanwj/followers",
      "following_url": "https://api.github.com/users/laanwj/following{/other_user}",
      "gists_url": "https://api.github.com/users/laanwj/gists{/gist_id}",
      "starred_url": "https://api.github.com/users/laanwj/starred{/owner}{/repo}",
      "subscriptions_url": "https://api.github.com/users/laanwj/subscriptions",
      "organizations_url": "https://api.github.com/users/laanwj/orgs",
      "repos_url": "https://api.github.com/users/laanwj/repos",
      "events_url": "https://api.github.com/users/laanwj/events{/privacy}",
      "received_events_url": "https://api.github.com/users/laanwj/received_events",
      "type": "User",
      "site_admin": false
    },
    "created_at": "2013-12-13T04:10:24Z",
    "updated_at": "2013-12-13T04:10:24Z",
    "author_association": "MEMBER",
    "body_html": "<p dir=\"auto\"><a class=\"user-mention notranslate\" data-hovercard-type=\"user\" data-hovercard-url=\"/users/ughman/hovercard\" data-octo-click=\"hovercard-link-click\" data-octo-dimensions=\"link_type:self\" href=\"https://github.com/ughman\">@ughman</a> Is this the case with master too? A lot changed since. 0.8.6 was only a maintenance release.</p>",
    "body_text": "@ughman Is this the case with master too? A lot changed since. 0.8.6 was only a maintenance release.",
    "body": "@ughman Is this the case with master too? A lot changed since. 0.8.6 was only a maintenance release.\n",
    "reactions": {
      "url": "https://api.github.com/repos/bitcoin/bitcoin/issues/comments/30485146/reactions",
      "total_count": 0,
      "+1": 0,
      "-1": 0,
      "laugh": 0,
      "hooray": 0,
      "confused": 0,
      "heart": 0,
      "rocket": 0,
      "eyes": 0
    },
    "performed_via_github_app": null
  },
  {
    "url": "https://api.github.com/repos/bitcoin/bitcoin/issues/comments/30486890",
    "html_url": "https://github.com/bitcoin/bitcoin/pull/2590#issuecomment-30486890",
    "issue_url": "https://api.github.com/repos/bitcoin/bitcoin/issues/2590",
    "id": 30486890,
    "node_id": "MDEyOklzc3VlQ29tbWVudDMwNDg2ODkw",
    "user": {
      "login": "ughman",
      "id": 1569076,
      "node_id": "MDQ6VXNlcjE1NjkwNzY=",
      "avatar_url": "https://avatars.githubusercontent.com/u/1569076?v=4",
      "gravatar_id": "",
      "url": "https://api.github.com/users/ughman",
      "html_url": "https://github.com/ughman",
      "followers_url": "https://api.github.com/users/ughman/followers",
      "following_url": "https://api.github.com/users/ughman/following{/other_user}",
      "gists_url": "https://api.github.com/users/ughman/gists{/gist_id}",
      "starred_url": "https://api.github.com/users/ughman/starred{/owner}{/repo}",
      "subscriptions_url": "https://api.github.com/users/ughman/subscriptions",
      "organizations_url": "https://api.github.com/users/ughman/orgs",
      "repos_url": "https://api.github.com/users/ughman/repos",
      "events_url": "https://api.github.com/users/ughman/events{/privacy}",
      "received_events_url": "https://api.github.com/users/ughman/received_events",
      "type": "User",
      "site_admin": false
    },
    "created_at": "2013-12-13T04:47:00Z",
    "updated_at": "2013-12-13T04:47:00Z",
    "author_association": "NONE",
    "body_html": "<p dir=\"auto\"><a class=\"user-mention notranslate\" data-hovercard-type=\"user\" data-hovercard-url=\"/users/laanwj/hovercard\" data-octo-click=\"hovercard-link-click\" data-octo-dimensions=\"link_type:self\" href=\"https://github.com/laanwj\">@laanwj</a> I do not have an environment capable of building master at the moment, so I cannot test that. Sorry.</p>",
    "body_text": "@laanwj I do not have an environment capable of building master at the moment, so I cannot test that. Sorry.",
    "body": "@laanwj I do not have an environment capable of building master at the moment, so I cannot test that. Sorry.\n",
    "reactions": {
      "url": "https://api.github.com/repos/bitcoin/bitcoin/issues/comments/30486890/reactions",
      "total_count": 0,
      "+1": 0,
      "-1": 0,
      "laugh": 0,
      "hooray": 0,
      "confused": 0,
      "heart": 0,
      "rocket": 0,
      "eyes": 0
    },
    "performed_via_github_app": null
  }
]
