{
  "url": "https://api.github.com/repos/bitcoin/bitcoin/issues/17202",
  "repository_url": "https://api.github.com/repos/bitcoin/bitcoin",
  "labels_url": "https://api.github.com/repos/bitcoin/bitcoin/issues/17202/labels{/name}",
  "comments_url": "https://api.github.com/repos/bitcoin/bitcoin/issues/17202/comments",
  "events_url": "https://api.github.com/repos/bitcoin/bitcoin/issues/17202/events",
  "html_url": "https://github.com/bitcoin/bitcoin/pull/17202",
  "id": 509622767,
  "node_id": "MDExOlB1bGxSZXF1ZXN0MzMwMTM2NTc3",
  "number": 17202,
  "title": "Travis CI bug in macOS environment #17178 workaround",
  "user": {
    "login": "sadrasabouri",
    "id": 43045767,
    "node_id": "MDQ6VXNlcjQzMDQ1NzY3",
    "avatar_url": "https://avatars.githubusercontent.com/u/43045767?v=4",
    "gravatar_id": "",
    "url": "https://api.github.com/users/sadrasabouri",
    "html_url": "https://github.com/sadrasabouri",
    "followers_url": "https://api.github.com/users/sadrasabouri/followers",
    "following_url": "https://api.github.com/users/sadrasabouri/following{/other_user}",
    "gists_url": "https://api.github.com/users/sadrasabouri/gists{/gist_id}",
    "starred_url": "https://api.github.com/users/sadrasabouri/starred{/owner}{/repo}",
    "subscriptions_url": "https://api.github.com/users/sadrasabouri/subscriptions",
    "organizations_url": "https://api.github.com/users/sadrasabouri/orgs",
    "repos_url": "https://api.github.com/users/sadrasabouri/repos",
    "events_url": "https://api.github.com/users/sadrasabouri/events{/privacy}",
    "received_events_url": "https://api.github.com/users/sadrasabouri/received_events",
    "type": "User",
    "site_admin": false
  },
  "labels": [
    {
      "id": 62963516,
      "node_id": "MDU6TGFiZWw2Mjk2MzUxNg==",
      "url": "https://api.github.com/repos/bitcoin/bitcoin/labels/Tests",
      "name": "Tests",
      "color": "d4c5f9",
      "default": false,
      "description": null
    }
  ],
  "state": "closed",
  "locked": true,
  "assignee": null,
  "assignees": [

  ],
  "milestone": null,
  "comments": 18,
  "created_at": "2019-10-20T17:11:33Z",
  "updated_at": "2020-08-20T04:58:29Z",
  "closed_at": "2019-11-21T16:12:41Z",
  "author_association": "NONE",
  "active_lock_reason": null,
  "draft": false,
  "pull_request": {
    "url": "https://api.github.com/repos/bitcoin/bitcoin/pulls/17202",
    "html_url": "https://github.com/bitcoin/bitcoin/pull/17202",
    "diff_url": "https://github.com/bitcoin/bitcoin/pull/17202.diff",
    "patch_url": "https://github.com/bitcoin/bitcoin/pull/17202.patch",
    "merged_at": null
  },
  "body_html": "<p dir=\"auto\">According to <a class=\"issue-link js-issue-link\" data-error-text=\"Failed to load title\" data-id=\"508559508\" data-permission-text=\"Title is private\" data-url=\"https://github.com/bitcoin/bitcoin/issues/17178\" data-hovercard-type=\"issue\" data-hovercard-url=\"/bitcoin/bitcoin/issues/17178/hovercard\" href=\"https://github.com/bitcoin/bitcoin/issues/17178\">#17178</a> by MarcoFalke, <code class=\"notranslate\">cd</code> command (using for changing directory) has some conflicts with Travis builtin command with similar name in some environments (like macOS).</p>\n<p dir=\"auto\">In this PR :</p>\n<ol dir=\"auto\">\n<li>I tried to solve this issue by replacing <code class=\"notranslate\">cd</code> by <code class=\"notranslate\">type cd</code> in <code class=\"notranslate\">ci/test/06_script_a.sh</code> and <code class=\"notranslate\">ci/test/06_script_b.sh</code> .</li>\n<li>I added function called <code class=\"notranslate\">safe_cd</code> as commented in <a href=\"https://github.com/bitcoin/bitcoin/pull/16597/files#r336052676\">here</a> to avoid duplication in code.</li>\n</ol>",
  "body_text": "According to #17178 by MarcoFalke, cd command (using for changing directory) has some conflicts with Travis builtin command with similar name in some environments (like macOS).\nIn this PR :\n\nI tried to solve this issue by replacing cd by type cd in ci/test/06_script_a.sh and ci/test/06_script_b.sh .\nI added function called safe_cd as commented in here to avoid duplication in code.",
  "body": "According to #17178 by MarcoFalke, `cd` command (using for changing directory) has some conflicts with Travis builtin command with similar name in some environments (like macOS).\r\n\r\nIn this PR :\r\n1. I tried to solve this issue by replacing `cd` by `type cd` in `ci/test/06_script_a.sh` and `ci/test/06_script_b.sh` .\r\n2. I added function called `safe_cd` as commented in [here](https://github.com/bitcoin/bitcoin/pull/16597/files#r336052676) to avoid duplication in code.",
  "closed_by": {
    "login": "fanquake",
    "id": 863730,
    "node_id": "MDQ6VXNlcjg2MzczMA==",
    "avatar_url": "https://avatars.githubusercontent.com/u/863730?v=4",
    "gravatar_id": "",
    "url": "https://api.github.com/users/fanquake",
    "html_url": "https://github.com/fanquake",
    "followers_url": "https://api.github.com/users/fanquake/followers",
    "following_url": "https://api.github.com/users/fanquake/following{/other_user}",
    "gists_url": "https://api.github.com/users/fanquake/gists{/gist_id}",
    "starred_url": "https://api.github.com/users/fanquake/starred{/owner}{/repo}",
    "subscriptions_url": "https://api.github.com/users/fanquake/subscriptions",
    "organizations_url": "https://api.github.com/users/fanquake/orgs",
    "repos_url": "https://api.github.com/users/fanquake/repos",
    "events_url": "https://api.github.com/users/fanquake/events{/privacy}",
    "received_events_url": "https://api.github.com/users/fanquake/received_events",
    "type": "User",
    "site_admin": false
  },
  "reactions": {
    "url": "https://api.github.com/repos/bitcoin/bitcoin/issues/17202/reactions",
    "total_count": 0,
    "+1": 0,
    "-1": 0,
    "laugh": 0,
    "hooray": 0,
    "confused": 0,
    "heart": 0,
    "rocket": 0,
    "eyes": 0
  },
  "timeline_url": "https://api.github.com/repos/bitcoin/bitcoin/issues/17202/timeline",
  "performed_via_github_app": null,
  "state_reason": null
}
