{
  "url": "https://api.github.com/repos/bitcoin/bitcoin/issues/21524",
  "repository_url": "https://api.github.com/repos/bitcoin/bitcoin",
  "labels_url": "https://api.github.com/repos/bitcoin/bitcoin/issues/21524/labels{/name}",
  "comments_url": "https://api.github.com/repos/bitcoin/bitcoin/issues/21524/comments",
  "events_url": "https://api.github.com/repos/bitcoin/bitcoin/issues/21524/events",
  "html_url": "https://github.com/bitcoin/bitcoin/issues/21524",
  "id": 840073354,
  "node_id": "MDU6SXNzdWU4NDAwNzMzNTQ=",
  "number": 21524,
  "title": "Use sigstore software transparency for releases",
  "user": {
    "login": "laanwj",
    "id": 126646,
    "node_id": "MDQ6VXNlcjEyNjY0Ng==",
    "avatar_url": "https://avatars.githubusercontent.com/u/126646?v=4",
    "gravatar_id": "",
    "url": "https://api.github.com/users/laanwj",
    "html_url": "https://github.com/laanwj",
    "followers_url": "https://api.github.com/users/laanwj/followers",
    "following_url": "https://api.github.com/users/laanwj/following{/other_user}",
    "gists_url": "https://api.github.com/users/laanwj/gists{/gist_id}",
    "starred_url": "https://api.github.com/users/laanwj/starred{/owner}{/repo}",
    "subscriptions_url": "https://api.github.com/users/laanwj/subscriptions",
    "organizations_url": "https://api.github.com/users/laanwj/orgs",
    "repos_url": "https://api.github.com/users/laanwj/repos",
    "events_url": "https://api.github.com/users/laanwj/events{/privacy}",
    "received_events_url": "https://api.github.com/users/laanwj/received_events",
    "type": "User",
    "site_admin": false
  },
  "labels": [
    {
      "id": 64584,
      "node_id": "MDU6TGFiZWw2NDU4NA==",
      "url": "https://api.github.com/repos/bitcoin/bitcoin/labels/Brainstorming",
      "name": "Brainstorming",
      "color": "ebd775",
      "default": false,
      "description": null
    },
    {
      "id": 61889416,
      "node_id": "MDU6TGFiZWw2MTg4OTQxNg==",
      "url": "https://api.github.com/repos/bitcoin/bitcoin/labels/Build%20system",
      "name": "Build system",
      "color": "5319e7",
      "default": false,
      "description": null
    }
  ],
  "state": "open",
  "locked": false,
  "assignee": null,
  "assignees": [

  ],
  "milestone": null,
  "comments": 5,
  "created_at": "2021-03-24T19:11:16Z",
  "updated_at": "2024-05-04T09:08:34Z",
  "closed_at": null,
  "author_association": "MEMBER",
  "active_lock_reason": null,
  "body_html": "<p dir=\"auto\"><a href=\"https://sigstore.dev/what_is_sigstore/\" rel=\"nofollow\">Sigstore</a> is an initiative by the Linux Foundation for software supply chain security. The goal is to be able to verify the origin of binaries as well as to ensure software transparency, so to be able to verify that you downloaded the same binary as everyone else. Of course we already sign our releases, but the latter seems important.</p>\n<p dir=\"auto\">The implementation is under development and available as open source. However the system is not live yet (as of 2021-03-24, there is a <a href=\"https://github.com/sigstore/rekor#public-instance\">public instance</a> test server but they warn it will get wiped).</p>\n<p dir=\"auto\">But I think as soon as it does go into production use, we should try to use it for our releases.</p>",
  "body_text": "Sigstore is an initiative by the Linux Foundation for software supply chain security. The goal is to be able to verify the origin of binaries as well as to ensure software transparency, so to be able to verify that you downloaded the same binary as everyone else. Of course we already sign our releases, but the latter seems important.\nThe implementation is under development and available as open source. However the system is not live yet (as of 2021-03-24, there is a public instance test server but they warn it will get wiped).\nBut I think as soon as it does go into production use, we should try to use it for our releases.",
  "body": "[Sigstore](https://sigstore.dev/what_is_sigstore/) is an initiative by the Linux Foundation for software supply chain security. The goal is to be able to verify the origin of binaries as well as to ensure software transparency, so to be able to verify that you downloaded the same binary as everyone else. Of course we already sign our releases, but the latter seems important.\r\n\r\nThe implementation is under development and available as open source. However the system is not live yet (as of 2021-03-24, there is a [public instance](https://github.com/sigstore/rekor#public-instance) test server but they warn it will get wiped).\r\n\r\nBut I think as soon as it does go into production use, we should try to use it for our releases.",
  "closed_by": null,
  "reactions": {
    "url": "https://api.github.com/repos/bitcoin/bitcoin/issues/21524/reactions",
    "total_count": 12,
    "+1": 0,
    "-1": 0,
    "laugh": 0,
    "hooray": 0,
    "confused": 0,
    "heart": 0,
    "rocket": 10,
    "eyes": 2
  },
  "timeline_url": "https://api.github.com/repos/bitcoin/bitcoin/issues/21524/timeline",
  "performed_via_github_app": null,
  "state_reason": null
}
