{
  "url": "https://api.github.com/repos/bitcoin/bitcoin/issues/15759",
  "repository_url": "https://api.github.com/repos/bitcoin/bitcoin",
  "labels_url": "https://api.github.com/repos/bitcoin/bitcoin/issues/15759/labels{/name}",
  "comments_url": "https://api.github.com/repos/bitcoin/bitcoin/issues/15759/comments",
  "events_url": "https://api.github.com/repos/bitcoin/bitcoin/issues/15759/events",
  "html_url": "https://github.com/bitcoin/bitcoin/pull/15759",
  "id": 429902977,
  "node_id": "MDExOlB1bGxSZXF1ZXN0MjY3OTM5NDYx",
  "number": 15759,
  "title": "p2p: Add 2 outbound block-relay-only connections",
  "user": {
    "login": "sdaftuar",
    "id": 7463573,
    "node_id": "MDQ6VXNlcjc0NjM1NzM=",
    "avatar_url": "https://avatars.githubusercontent.com/u/7463573?v=4",
    "gravatar_id": "",
    "url": "https://api.github.com/users/sdaftuar",
    "html_url": "https://github.com/sdaftuar",
    "followers_url": "https://api.github.com/users/sdaftuar/followers",
    "following_url": "https://api.github.com/users/sdaftuar/following{/other_user}",
    "gists_url": "https://api.github.com/users/sdaftuar/gists{/gist_id}",
    "starred_url": "https://api.github.com/users/sdaftuar/starred{/owner}{/repo}",
    "subscriptions_url": "https://api.github.com/users/sdaftuar/subscriptions",
    "organizations_url": "https://api.github.com/users/sdaftuar/orgs",
    "repos_url": "https://api.github.com/users/sdaftuar/repos",
    "events_url": "https://api.github.com/users/sdaftuar/events{/privacy}",
    "received_events_url": "https://api.github.com/users/sdaftuar/received_events",
    "type": "User",
    "site_admin": false
  },
  "labels": [
    {
      "id": 98298007,
      "node_id": "MDU6TGFiZWw5ODI5ODAwNw==",
      "url": "https://api.github.com/repos/bitcoin/bitcoin/labels/P2P",
      "name": "P2P",
      "color": "006b75",
      "default": false,
      "description": null
    }
  ],
  "state": "closed",
  "locked": true,
  "assignee": null,
  "assignees": [

  ],
  "milestone": {
    "url": "https://api.github.com/repos/bitcoin/bitcoin/milestones/37",
    "html_url": "https://github.com/bitcoin/bitcoin/milestone/37",
    "labels_url": "https://api.github.com/repos/bitcoin/bitcoin/milestones/37/labels",
    "id": 3391434,
    "node_id": "MDk6TWlsZXN0b25lMzM5MTQzNA==",
    "number": 37,
    "title": "0.19.0",
    "description": "",
    "creator": {
      "login": "maflcko",
      "id": 6399679,
      "node_id": "MDQ6VXNlcjYzOTk2Nzk=",
      "avatar_url": "https://avatars.githubusercontent.com/u/6399679?v=4",
      "gravatar_id": "",
      "url": "https://api.github.com/users/maflcko",
      "html_url": "https://github.com/maflcko",
      "followers_url": "https://api.github.com/users/maflcko/followers",
      "following_url": "https://api.github.com/users/maflcko/following{/other_user}",
      "gists_url": "https://api.github.com/users/maflcko/gists{/gist_id}",
      "starred_url": "https://api.github.com/users/maflcko/starred{/owner}{/repo}",
      "subscriptions_url": "https://api.github.com/users/maflcko/subscriptions",
      "organizations_url": "https://api.github.com/users/maflcko/orgs",
      "repos_url": "https://api.github.com/users/maflcko/repos",
      "events_url": "https://api.github.com/users/maflcko/events{/privacy}",
      "received_events_url": "https://api.github.com/users/maflcko/received_events",
      "type": "User",
      "site_admin": false
    },
    "open_issues": 0,
    "closed_issues": 155,
    "state": "closed",
    "created_at": "2018-05-31T19:40:07Z",
    "updated_at": "2020-04-24T16:46:17Z",
    "due_on": null,
    "closed_at": "2019-11-10T11:39:07Z"
  },
  "comments": 52,
  "created_at": "2019-04-05T19:29:21Z",
  "updated_at": "2023-03-30T10:21:50Z",
  "closed_at": "2019-09-07T09:45:43Z",
  "author_association": "MEMBER",
  "active_lock_reason": null,
  "draft": false,
  "pull_request": {
    "url": "https://api.github.com/repos/bitcoin/bitcoin/pulls/15759",
    "html_url": "https://github.com/bitcoin/bitcoin/pull/15759",
    "diff_url": "https://github.com/bitcoin/bitcoin/pull/15759.diff",
    "patch_url": "https://github.com/bitcoin/bitcoin/pull/15759.patch",
    "merged_at": "2019-09-07T09:45:43Z"
  },
  "body_html": "<p dir=\"auto\">Transaction relay is optimized for a combination of redundancy/robustness as well as bandwidth minimization -- as a result transaction relay leaks information that adversaries can use to infer the network topology.</p>\n<p dir=\"auto\">Network topology is better kept private for (at least) two reasons:</p>\n<p dir=\"auto\">(a) Knowledge of the network graph can make it easier to find the source IP of a given transaction.</p>\n<p dir=\"auto\">(b) Knowledge of the network graph could be used to split a target node or nodes from the honest network (eg by knowing which peers to attack in order to achieve a network split).</p>\n<p dir=\"auto\">We can eliminate the risks of (b) by separating block relay from transaction relay; inferring network connectivity from the relay of blocks/block headers is much more expensive for an adversary.</p>\n<p dir=\"auto\">After this commit, bitcoind will make 2 additional outbound connections that are only used for block relay. (In the future, we might consider rotating our transaction-relay peers to help limit the effects of (a).)</p>",
  "body_text": "Transaction relay is optimized for a combination of redundancy/robustness as well as bandwidth minimization -- as a result transaction relay leaks information that adversaries can use to infer the network topology.\nNetwork topology is better kept private for (at least) two reasons:\n(a) Knowledge of the network graph can make it easier to find the source IP of a given transaction.\n(b) Knowledge of the network graph could be used to split a target node or nodes from the honest network (eg by knowing which peers to attack in order to achieve a network split).\nWe can eliminate the risks of (b) by separating block relay from transaction relay; inferring network connectivity from the relay of blocks/block headers is much more expensive for an adversary.\nAfter this commit, bitcoind will make 2 additional outbound connections that are only used for block relay. (In the future, we might consider rotating our transaction-relay peers to help limit the effects of (a).)",
  "body": "Transaction relay is optimized for a combination of redundancy/robustness as well as bandwidth minimization -- as a result transaction relay leaks information that adversaries can use to infer the network topology.\r\n\r\nNetwork topology is better kept private for (at least) two reasons:\r\n\r\n(a) Knowledge of the network graph can make it easier to find the source IP of a given transaction.\r\n\r\n(b) Knowledge of the network graph could be used to split a target node or nodes from the honest network (eg by knowing which peers to attack in order to achieve a network split).\r\n\r\nWe can eliminate the risks of (b) by separating block relay from transaction relay; inferring network connectivity from the relay of blocks/block headers is much more expensive for an adversary.\r\n\r\nAfter this commit, bitcoind will make 2 additional outbound connections that are only used for block relay. (In the future, we might consider rotating our transaction-relay peers to help limit the effects of (a).)",
  "closed_by": {
    "login": "fanquake",
    "id": 863730,
    "node_id": "MDQ6VXNlcjg2MzczMA==",
    "avatar_url": "https://avatars.githubusercontent.com/u/863730?v=4",
    "gravatar_id": "",
    "url": "https://api.github.com/users/fanquake",
    "html_url": "https://github.com/fanquake",
    "followers_url": "https://api.github.com/users/fanquake/followers",
    "following_url": "https://api.github.com/users/fanquake/following{/other_user}",
    "gists_url": "https://api.github.com/users/fanquake/gists{/gist_id}",
    "starred_url": "https://api.github.com/users/fanquake/starred{/owner}{/repo}",
    "subscriptions_url": "https://api.github.com/users/fanquake/subscriptions",
    "organizations_url": "https://api.github.com/users/fanquake/orgs",
    "repos_url": "https://api.github.com/users/fanquake/repos",
    "events_url": "https://api.github.com/users/fanquake/events{/privacy}",
    "received_events_url": "https://api.github.com/users/fanquake/received_events",
    "type": "User",
    "site_admin": false
  },
  "reactions": {
    "url": "https://api.github.com/repos/bitcoin/bitcoin/issues/15759/reactions",
    "total_count": 0,
    "+1": 0,
    "-1": 0,
    "laugh": 0,
    "hooray": 0,
    "confused": 0,
    "heart": 0,
    "rocket": 0,
    "eyes": 0
  },
  "timeline_url": "https://api.github.com/repos/bitcoin/bitcoin/issues/15759/timeline",
  "performed_via_github_app": null,
  "state_reason": null
}
