[
  {
    "url": "https://api.github.com/repos/bitcoin/bitcoin/issues/comments/27152766",
    "html_url": "https://github.com/bitcoin/bitcoin/pull/3162#issuecomment-27152766",
    "issue_url": "https://api.github.com/repos/bitcoin/bitcoin/issues/3162",
    "id": 27152766,
    "node_id": "MDEyOklzc3VlQ29tbWVudDI3MTUyNzY2",
    "user": {
      "login": "jgarzik",
      "id": 494411,
      "node_id": "MDQ6VXNlcjQ5NDQxMQ==",
      "avatar_url": "https://avatars.githubusercontent.com/u/494411?v=4",
      "gravatar_id": "",
      "url": "https://api.github.com/users/jgarzik",
      "html_url": "https://github.com/jgarzik",
      "followers_url": "https://api.github.com/users/jgarzik/followers",
      "following_url": "https://api.github.com/users/jgarzik/following{/other_user}",
      "gists_url": "https://api.github.com/users/jgarzik/gists{/gist_id}",
      "starred_url": "https://api.github.com/users/jgarzik/starred{/owner}{/repo}",
      "subscriptions_url": "https://api.github.com/users/jgarzik/subscriptions",
      "organizations_url": "https://api.github.com/users/jgarzik/orgs",
      "repos_url": "https://api.github.com/users/jgarzik/repos",
      "events_url": "https://api.github.com/users/jgarzik/events{/privacy}",
      "received_events_url": "https://api.github.com/users/jgarzik/received_events",
      "type": "User",
      "site_admin": false
    },
    "created_at": "2013-10-26T18:45:05Z",
    "updated_at": "2013-10-26T18:45:05Z",
    "author_association": "CONTRIBUTOR",
    "body_html": "<p dir=\"auto\">ACK</p>",
    "body_text": "ACK",
    "body": "ACK\n",
    "reactions": {
      "url": "https://api.github.com/repos/bitcoin/bitcoin/issues/comments/27152766/reactions",
      "total_count": 0,
      "+1": 0,
      "-1": 0,
      "laugh": 0,
      "hooray": 0,
      "confused": 0,
      "heart": 0,
      "rocket": 0,
      "eyes": 0
    },
    "performed_via_github_app": null
  },
  {
    "url": "https://api.github.com/repos/bitcoin/bitcoin/issues/comments/27152786",
    "html_url": "https://github.com/bitcoin/bitcoin/pull/3162#issuecomment-27152786",
    "issue_url": "https://api.github.com/repos/bitcoin/bitcoin/issues/3162",
    "id": 27152786,
    "node_id": "MDEyOklzc3VlQ29tbWVudDI3MTUyNzg2",
    "user": {
      "login": "sipa",
      "id": 548488,
      "node_id": "MDQ6VXNlcjU0ODQ4OA==",
      "avatar_url": "https://avatars.githubusercontent.com/u/548488?v=4",
      "gravatar_id": "",
      "url": "https://api.github.com/users/sipa",
      "html_url": "https://github.com/sipa",
      "followers_url": "https://api.github.com/users/sipa/followers",
      "following_url": "https://api.github.com/users/sipa/following{/other_user}",
      "gists_url": "https://api.github.com/users/sipa/gists{/gist_id}",
      "starred_url": "https://api.github.com/users/sipa/starred{/owner}{/repo}",
      "subscriptions_url": "https://api.github.com/users/sipa/subscriptions",
      "organizations_url": "https://api.github.com/users/sipa/orgs",
      "repos_url": "https://api.github.com/users/sipa/repos",
      "events_url": "https://api.github.com/users/sipa/events{/privacy}",
      "received_events_url": "https://api.github.com/users/sipa/received_events",
      "type": "User",
      "site_admin": false
    },
    "created_at": "2013-10-26T18:45:36Z",
    "updated_at": "2013-10-26T18:45:36Z",
    "author_association": "MEMBER",
    "body_html": "<p dir=\"auto\">Updated, this will not fix <a class=\"issue-link js-issue-link\" data-error-text=\"Failed to load title\" data-id=\"16200241\" data-permission-text=\"Title is private\" data-url=\"https://github.com/bitcoin/bitcoin/issues/2806\" data-hovercard-type=\"issue\" data-hovercard-url=\"/bitcoin/bitcoin/issues/2806/hovercard\" href=\"https://github.com/bitcoin/bitcoin/issues/2806\">#2806</a>. There is an additional problem with datetime/locale conversion.</p>",
    "body_text": "Updated, this will not fix #2806. There is an additional problem with datetime/locale conversion.",
    "body": "Updated, this will not fix #2806. There is an additional problem with datetime/locale conversion.\n",
    "reactions": {
      "url": "https://api.github.com/repos/bitcoin/bitcoin/issues/comments/27152786/reactions",
      "total_count": 0,
      "+1": 0,
      "-1": 0,
      "laugh": 0,
      "hooray": 0,
      "confused": 0,
      "heart": 0,
      "rocket": 0,
      "eyes": 0
    },
    "performed_via_github_app": null
  },
  {
    "url": "https://api.github.com/repos/bitcoin/bitcoin/issues/comments/27153022",
    "html_url": "https://github.com/bitcoin/bitcoin/pull/3162#issuecomment-27153022",
    "issue_url": "https://api.github.com/repos/bitcoin/bitcoin/issues/3162",
    "id": 27153022,
    "node_id": "MDEyOklzc3VlQ29tbWVudDI3MTUzMDIy",
    "user": {
      "login": "BitcoinPullTester",
      "id": 2110907,
      "node_id": "MDQ6VXNlcjIxMTA5MDc=",
      "avatar_url": "https://avatars.githubusercontent.com/u/2110907?v=4",
      "gravatar_id": "",
      "url": "https://api.github.com/users/BitcoinPullTester",
      "html_url": "https://github.com/BitcoinPullTester",
      "followers_url": "https://api.github.com/users/BitcoinPullTester/followers",
      "following_url": "https://api.github.com/users/BitcoinPullTester/following{/other_user}",
      "gists_url": "https://api.github.com/users/BitcoinPullTester/gists{/gist_id}",
      "starred_url": "https://api.github.com/users/BitcoinPullTester/starred{/owner}{/repo}",
      "subscriptions_url": "https://api.github.com/users/BitcoinPullTester/subscriptions",
      "organizations_url": "https://api.github.com/users/BitcoinPullTester/orgs",
      "repos_url": "https://api.github.com/users/BitcoinPullTester/repos",
      "events_url": "https://api.github.com/users/BitcoinPullTester/events{/privacy}",
      "received_events_url": "https://api.github.com/users/BitcoinPullTester/received_events",
      "type": "User",
      "site_admin": false
    },
    "created_at": "2013-10-26T18:56:03Z",
    "updated_at": "2013-10-26T18:56:03Z",
    "author_association": "NONE",
    "body_html": "<p dir=\"auto\">Automatic sanity-testing: PASSED, see <a href=\"http://jenkins.bluematt.me/pull-tester/e9755001ab1b63d205f1e130ffe42b213cb052c6\" rel=\"nofollow\">http://jenkins.bluematt.me/pull-tester/e9755001ab1b63d205f1e130ffe42b213cb052c6</a> for binaries and test log.<br>\nThis test script verifies pulls every time they are updated. It, however, dies sometimes and fails to test properly.  If you are waiting on a test, please check timestamps to verify that the test.log is moving at <a href=\"http://jenkins.bluematt.me/pull-tester/current/\" rel=\"nofollow\">http://jenkins.bluematt.me/pull-tester/current/</a><br>\nContact BlueMatt on freenode if something looks broken.</p>",
    "body_text": "Automatic sanity-testing: PASSED, see http://jenkins.bluematt.me/pull-tester/e9755001ab1b63d205f1e130ffe42b213cb052c6 for binaries and test log.\nThis test script verifies pulls every time they are updated. It, however, dies sometimes and fails to test properly.  If you are waiting on a test, please check timestamps to verify that the test.log is moving at http://jenkins.bluematt.me/pull-tester/current/\nContact BlueMatt on freenode if something looks broken.",
    "body": "Automatic sanity-testing: PASSED, see http://jenkins.bluematt.me/pull-tester/e9755001ab1b63d205f1e130ffe42b213cb052c6 for binaries and test log.\nThis test script verifies pulls every time they are updated. It, however, dies sometimes and fails to test properly.  If you are waiting on a test, please check timestamps to verify that the test.log is moving at http://jenkins.bluematt.me/pull-tester/current/\nContact BlueMatt on freenode if something looks broken.\n",
    "reactions": {
      "url": "https://api.github.com/repos/bitcoin/bitcoin/issues/comments/27153022/reactions",
      "total_count": 0,
      "+1": 0,
      "-1": 0,
      "laugh": 0,
      "hooray": 0,
      "confused": 0,
      "heart": 0,
      "rocket": 0,
      "eyes": 0
    },
    "performed_via_github_app": null
  },
  {
    "url": "https://api.github.com/repos/bitcoin/bitcoin/issues/comments/27223799",
    "html_url": "https://github.com/bitcoin/bitcoin/pull/3162#issuecomment-27223799",
    "issue_url": "https://api.github.com/repos/bitcoin/bitcoin/issues/3162",
    "id": 27223799,
    "node_id": "MDEyOklzc3VlQ29tbWVudDI3MjIzNzk5",
    "user": {
      "login": "laanwj",
      "id": 126646,
      "node_id": "MDQ6VXNlcjEyNjY0Ng==",
      "avatar_url": "https://avatars.githubusercontent.com/u/126646?v=4",
      "gravatar_id": "",
      "url": "https://api.github.com/users/laanwj",
      "html_url": "https://github.com/laanwj",
      "followers_url": "https://api.github.com/users/laanwj/followers",
      "following_url": "https://api.github.com/users/laanwj/following{/other_user}",
      "gists_url": "https://api.github.com/users/laanwj/gists{/gist_id}",
      "starred_url": "https://api.github.com/users/laanwj/starred{/owner}{/repo}",
      "subscriptions_url": "https://api.github.com/users/laanwj/subscriptions",
      "organizations_url": "https://api.github.com/users/laanwj/orgs",
      "repos_url": "https://api.github.com/users/laanwj/repos",
      "events_url": "https://api.github.com/users/laanwj/events{/privacy}",
      "received_events_url": "https://api.github.com/users/laanwj/received_events",
      "type": "User",
      "site_admin": false
    },
    "created_at": "2013-10-28T15:50:31Z",
    "updated_at": "2013-10-28T15:50:31Z",
    "author_association": "MEMBER",
    "body_html": "<p dir=\"auto\">ACK</p>",
    "body_text": "ACK",
    "body": "ACK\n",
    "reactions": {
      "url": "https://api.github.com/repos/bitcoin/bitcoin/issues/comments/27223799/reactions",
      "total_count": 0,
      "+1": 0,
      "-1": 0,
      "laugh": 0,
      "hooray": 0,
      "confused": 0,
      "heart": 0,
      "rocket": 0,
      "eyes": 0
    },
    "performed_via_github_app": null
  }
]
