[
  {
    "url": "https://api.github.com/repos/bitcoin/bitcoin/issues/comments/7194250",
    "html_url": "https://github.com/bitcoin/bitcoin/issues/1627#issuecomment-7194250",
    "issue_url": "https://api.github.com/repos/bitcoin/bitcoin/issues/1627",
    "id": 7194250,
    "node_id": "MDEyOklzc3VlQ29tbWVudDcxOTQyNTA=",
    "user": {
      "login": "gavinandresen",
      "id": 331997,
      "node_id": "MDQ6VXNlcjMzMTk5Nw==",
      "avatar_url": "https://avatars.githubusercontent.com/u/331997?v=4",
      "gravatar_id": "",
      "url": "https://api.github.com/users/gavinandresen",
      "html_url": "https://github.com/gavinandresen",
      "followers_url": "https://api.github.com/users/gavinandresen/followers",
      "following_url": "https://api.github.com/users/gavinandresen/following{/other_user}",
      "gists_url": "https://api.github.com/users/gavinandresen/gists{/gist_id}",
      "starred_url": "https://api.github.com/users/gavinandresen/starred{/owner}{/repo}",
      "subscriptions_url": "https://api.github.com/users/gavinandresen/subscriptions",
      "organizations_url": "https://api.github.com/users/gavinandresen/orgs",
      "repos_url": "https://api.github.com/users/gavinandresen/repos",
      "events_url": "https://api.github.com/users/gavinandresen/events{/privacy}",
      "received_events_url": "https://api.github.com/users/gavinandresen/received_events",
      "type": "User",
      "site_admin": false
    },
    "created_at": "2012-07-23T23:00:51Z",
    "updated_at": "2012-07-23T23:00:51Z",
    "author_association": "CONTRIBUTOR",
    "body_html": "<p dir=\"auto\">Suggested easy fix:<br>\nif testnet and peer version is &lt; 0.7 : disconnect from peer.</p>\n<p dir=\"auto\">More generally, maybe if peer version &lt; GetArg(\"-minpeerversion\", ...) then disconnect. I could imagine deciding on main net you don't want to talk to 0.3 nodes any more...</p>",
    "body_text": "Suggested easy fix:\nif testnet and peer version is < 0.7 : disconnect from peer.\nMore generally, maybe if peer version < GetArg(\"-minpeerversion\", ...) then disconnect. I could imagine deciding on main net you don't want to talk to 0.3 nodes any more...",
    "body": "Suggested easy fix:\nif testnet and peer version is < 0.7 : disconnect from peer.\n\nMore generally, maybe if peer version < GetArg(\"-minpeerversion\", ...) then disconnect. I could imagine deciding on main net you don't want to talk to 0.3 nodes any more...\n",
    "reactions": {
      "url": "https://api.github.com/repos/bitcoin/bitcoin/issues/comments/7194250/reactions",
      "total_count": 0,
      "+1": 0,
      "-1": 0,
      "laugh": 0,
      "hooray": 0,
      "confused": 0,
      "heart": 0,
      "rocket": 0,
      "eyes": 0
    },
    "performed_via_github_app": null
  },
  {
    "url": "https://api.github.com/repos/bitcoin/bitcoin/issues/comments/7473916",
    "html_url": "https://github.com/bitcoin/bitcoin/issues/1627#issuecomment-7473916",
    "issue_url": "https://api.github.com/repos/bitcoin/bitcoin/issues/1627",
    "id": 7473916,
    "node_id": "MDEyOklzc3VlQ29tbWVudDc0NzM5MTY=",
    "user": {
      "login": "gmaxwell",
      "id": 858454,
      "node_id": "MDQ6VXNlcjg1ODQ1NA==",
      "avatar_url": "https://avatars.githubusercontent.com/u/858454?v=4",
      "gravatar_id": "",
      "url": "https://api.github.com/users/gmaxwell",
      "html_url": "https://github.com/gmaxwell",
      "followers_url": "https://api.github.com/users/gmaxwell/followers",
      "following_url": "https://api.github.com/users/gmaxwell/following{/other_user}",
      "gists_url": "https://api.github.com/users/gmaxwell/gists{/gist_id}",
      "starred_url": "https://api.github.com/users/gmaxwell/starred{/owner}{/repo}",
      "subscriptions_url": "https://api.github.com/users/gmaxwell/subscriptions",
      "organizations_url": "https://api.github.com/users/gmaxwell/orgs",
      "repos_url": "https://api.github.com/users/gmaxwell/repos",
      "events_url": "https://api.github.com/users/gmaxwell/events{/privacy}",
      "received_events_url": "https://api.github.com/users/gmaxwell/received_events",
      "type": "User",
      "site_admin": false
    },
    "created_at": "2012-08-03T02:18:43Z",
    "updated_at": "2012-08-03T02:18:43Z",
    "author_association": "CONTRIBUTOR",
    "body_html": "<p dir=\"auto\">Solved by changing the protocol fingerprint.</p>",
    "body_text": "Solved by changing the protocol fingerprint.",
    "body": "Solved by changing the protocol fingerprint.\n",
    "reactions": {
      "url": "https://api.github.com/repos/bitcoin/bitcoin/issues/comments/7473916/reactions",
      "total_count": 0,
      "+1": 0,
      "-1": 0,
      "laugh": 0,
      "hooray": 0,
      "confused": 0,
      "heart": 0,
      "rocket": 0,
      "eyes": 0
    },
    "performed_via_github_app": null
  }
]
