{
  "url": "https://api.github.com/repos/bitcoin/bitcoin/issues/13390",
  "repository_url": "https://api.github.com/repos/bitcoin/bitcoin",
  "labels_url": "https://api.github.com/repos/bitcoin/bitcoin/issues/13390/labels{/name}",
  "comments_url": "https://api.github.com/repos/bitcoin/bitcoin/issues/13390/comments",
  "events_url": "https://api.github.com/repos/bitcoin/bitcoin/issues/13390/events",
  "html_url": "https://github.com/bitcoin/bitcoin/pull/13390",
  "id": 329058862,
  "node_id": "MDExOlB1bGxSZXF1ZXN0MTkyNDEwNTkz",
  "number": 13390,
  "title": "Tests: Ignore RemoteDisconnected and BadStatusLine when stopping node",
  "user": {
    "login": "ken2812221",
    "id": 11154118,
    "node_id": "MDQ6VXNlcjExMTU0MTE4",
    "avatar_url": "https://avatars.githubusercontent.com/u/11154118?v=4",
    "gravatar_id": "",
    "url": "https://api.github.com/users/ken2812221",
    "html_url": "https://github.com/ken2812221",
    "followers_url": "https://api.github.com/users/ken2812221/followers",
    "following_url": "https://api.github.com/users/ken2812221/following{/other_user}",
    "gists_url": "https://api.github.com/users/ken2812221/gists{/gist_id}",
    "starred_url": "https://api.github.com/users/ken2812221/starred{/owner}{/repo}",
    "subscriptions_url": "https://api.github.com/users/ken2812221/subscriptions",
    "organizations_url": "https://api.github.com/users/ken2812221/orgs",
    "repos_url": "https://api.github.com/users/ken2812221/repos",
    "events_url": "https://api.github.com/users/ken2812221/events{/privacy}",
    "received_events_url": "https://api.github.com/users/ken2812221/received_events",
    "type": "User",
    "site_admin": false
  },
  "labels": [
    {
      "id": 62963516,
      "node_id": "MDU6TGFiZWw2Mjk2MzUxNg==",
      "url": "https://api.github.com/repos/bitcoin/bitcoin/labels/Tests",
      "name": "Tests",
      "color": "d4c5f9",
      "default": false,
      "description": null
    }
  ],
  "state": "closed",
  "locked": true,
  "assignee": null,
  "assignees": [

  ],
  "milestone": null,
  "comments": 5,
  "created_at": "2018-06-04T13:36:21Z",
  "updated_at": "2021-09-08T12:37:43Z",
  "closed_at": "2018-06-16T23:22:54Z",
  "author_association": "CONTRIBUTOR",
  "active_lock_reason": "resolved",
  "draft": false,
  "pull_request": {
    "url": "https://api.github.com/repos/bitcoin/bitcoin/pulls/13390",
    "html_url": "https://github.com/bitcoin/bitcoin/pull/13390",
    "diff_url": "https://github.com/bitcoin/bitcoin/pull/13390.diff",
    "patch_url": "https://github.com/bitcoin/bitcoin/pull/13390.patch",
    "merged_at": null
  },
  "body_html": "<p dir=\"auto\"><span class=\"issue-keyword tooltipped tooltipped-se\" aria-label=\"This pull request closes issue #11777.\">Close</span> <a class=\"issue-link js-issue-link\" data-error-text=\"Failed to load title\" data-id=\"277172854\" data-permission-text=\"Title is private\" data-url=\"https://github.com/bitcoin/bitcoin/issues/11777\" data-hovercard-type=\"issue\" data-hovercard-url=\"/bitcoin/bitcoin/issues/11777/hovercard\" href=\"https://github.com/bitcoin/bitcoin/issues/11777\">#11777</a><br>\nIf the HTTP server stopped before it response, then the tests would fail. I think we can just ignore the response error and check if the node has stopped at <code class=\"notranslate\">is_node_stopped</code>.</p>",
  "body_text": "Close #11777\nIf the HTTP server stopped before it response, then the tests would fail. I think we can just ignore the response error and check if the node has stopped at is_node_stopped.",
  "body": "Close #11777 \r\nIf the HTTP server stopped before it response, then the tests would fail. I think we can just ignore the response error and check if the node has stopped at `is_node_stopped`.",
  "closed_by": {
    "login": "ken2812221",
    "id": 11154118,
    "node_id": "MDQ6VXNlcjExMTU0MTE4",
    "avatar_url": "https://avatars.githubusercontent.com/u/11154118?v=4",
    "gravatar_id": "",
    "url": "https://api.github.com/users/ken2812221",
    "html_url": "https://github.com/ken2812221",
    "followers_url": "https://api.github.com/users/ken2812221/followers",
    "following_url": "https://api.github.com/users/ken2812221/following{/other_user}",
    "gists_url": "https://api.github.com/users/ken2812221/gists{/gist_id}",
    "starred_url": "https://api.github.com/users/ken2812221/starred{/owner}{/repo}",
    "subscriptions_url": "https://api.github.com/users/ken2812221/subscriptions",
    "organizations_url": "https://api.github.com/users/ken2812221/orgs",
    "repos_url": "https://api.github.com/users/ken2812221/repos",
    "events_url": "https://api.github.com/users/ken2812221/events{/privacy}",
    "received_events_url": "https://api.github.com/users/ken2812221/received_events",
    "type": "User",
    "site_admin": false
  },
  "reactions": {
    "url": "https://api.github.com/repos/bitcoin/bitcoin/issues/13390/reactions",
    "total_count": 0,
    "+1": 0,
    "-1": 0,
    "laugh": 0,
    "hooray": 0,
    "confused": 0,
    "heart": 0,
    "rocket": 0,
    "eyes": 0
  },
  "timeline_url": "https://api.github.com/repos/bitcoin/bitcoin/issues/13390/timeline",
  "performed_via_github_app": null,
  "state_reason": null
}
