[
  {
    "url": "https://api.github.com/repos/bitcoin/bitcoin/issues/comments/450089124",
    "html_url": "https://github.com/bitcoin/bitcoin/issues/14899#issuecomment-450089124",
    "issue_url": "https://api.github.com/repos/bitcoin/bitcoin/issues/14899",
    "id": 450089124,
    "node_id": "MDEyOklzc3VlQ29tbWVudDQ1MDA4OTEyNA==",
    "user": {
      "login": "fanquake",
      "id": 863730,
      "node_id": "MDQ6VXNlcjg2MzczMA==",
      "avatar_url": "https://avatars.githubusercontent.com/u/863730?v=4",
      "gravatar_id": "",
      "url": "https://api.github.com/users/fanquake",
      "html_url": "https://github.com/fanquake",
      "followers_url": "https://api.github.com/users/fanquake/followers",
      "following_url": "https://api.github.com/users/fanquake/following{/other_user}",
      "gists_url": "https://api.github.com/users/fanquake/gists{/gist_id}",
      "starred_url": "https://api.github.com/users/fanquake/starred{/owner}{/repo}",
      "subscriptions_url": "https://api.github.com/users/fanquake/subscriptions",
      "organizations_url": "https://api.github.com/users/fanquake/orgs",
      "repos_url": "https://api.github.com/users/fanquake/repos",
      "events_url": "https://api.github.com/users/fanquake/events{/privacy}",
      "received_events_url": "https://api.github.com/users/fanquake/received_events",
      "type": "User",
      "site_admin": false
    },
    "created_at": "2018-12-27T06:54:49Z",
    "updated_at": "2018-12-27T06:54:49Z",
    "author_association": "MEMBER",
    "body_html": "<p dir=\"auto\">Thanks for posting this. Maybe it can become a monthly thing. Closing for now.</p>",
    "body_text": "Thanks for posting this. Maybe it can become a monthly thing. Closing for now.",
    "body": "Thanks for posting this. Maybe it can become a monthly thing. Closing for now.",
    "reactions": {
      "url": "https://api.github.com/repos/bitcoin/bitcoin/issues/comments/450089124/reactions",
      "total_count": 1,
      "+1": 1,
      "-1": 0,
      "laugh": 0,
      "hooray": 0,
      "confused": 0,
      "heart": 0,
      "rocket": 0,
      "eyes": 0
    },
    "performed_via_github_app": null
  }
]
