{
  "url": "https://api.github.com/repos/bitcoin/bitcoin/issues/20606",
  "repository_url": "https://api.github.com/repos/bitcoin/bitcoin",
  "labels_url": "https://api.github.com/repos/bitcoin/bitcoin/issues/20606/labels{/name}",
  "comments_url": "https://api.github.com/repos/bitcoin/bitcoin/issues/20606/comments",
  "events_url": "https://api.github.com/repos/bitcoin/bitcoin/issues/20606/events",
  "html_url": "https://github.com/bitcoin/bitcoin/pull/20606",
  "id": 760255609,
  "node_id": "MDExOlB1bGxSZXF1ZXN0NTM1MTE3OTg3",
  "number": 20606,
  "title": "Remove unused bits from service flags enum",
  "user": {
    "login": "maflcko",
    "id": 6399679,
    "node_id": "MDQ6VXNlcjYzOTk2Nzk=",
    "avatar_url": "https://avatars.githubusercontent.com/u/6399679?v=4",
    "gravatar_id": "",
    "url": "https://api.github.com/users/maflcko",
    "html_url": "https://github.com/maflcko",
    "followers_url": "https://api.github.com/users/maflcko/followers",
    "following_url": "https://api.github.com/users/maflcko/following{/other_user}",
    "gists_url": "https://api.github.com/users/maflcko/gists{/gist_id}",
    "starred_url": "https://api.github.com/users/maflcko/starred{/owner}{/repo}",
    "subscriptions_url": "https://api.github.com/users/maflcko/subscriptions",
    "organizations_url": "https://api.github.com/users/maflcko/orgs",
    "repos_url": "https://api.github.com/users/maflcko/repos",
    "events_url": "https://api.github.com/users/maflcko/events{/privacy}",
    "received_events_url": "https://api.github.com/users/maflcko/received_events",
    "type": "User",
    "site_admin": false
  },
  "labels": [
    {
      "id": 98298007,
      "node_id": "MDU6TGFiZWw5ODI5ODAwNw==",
      "url": "https://api.github.com/repos/bitcoin/bitcoin/labels/P2P",
      "name": "P2P",
      "color": "006b75",
      "default": false,
      "description": null
    }
  ],
  "state": "closed",
  "locked": true,
  "assignee": null,
  "assignees": [

  ],
  "milestone": null,
  "comments": 3,
  "created_at": "2020-12-09T11:40:25Z",
  "updated_at": "2022-02-15T10:49:29Z",
  "closed_at": "2020-12-09T15:38:27Z",
  "author_association": "MEMBER",
  "active_lock_reason": "resolved",
  "draft": false,
  "pull_request": {
    "url": "https://api.github.com/repos/bitcoin/bitcoin/pulls/20606",
    "html_url": "https://github.com/bitcoin/bitcoin/pull/20606",
    "diff_url": "https://github.com/bitcoin/bitcoin/pull/20606.diff",
    "patch_url": "https://github.com/bitcoin/bitcoin/pull/20606.patch",
    "merged_at": "2020-12-09T15:38:27Z"
  },
  "body_html": "<p dir=\"auto\">Remove service bits that haven't been observed on the active network for years and won't ever be observed on the network with this meaning. Keeping this dead assignment in our source code forever doesn't add any value.</p>\n<p dir=\"auto\">I somehow forgot to do this in commit <a class=\"commit-link\" data-hovercard-type=\"commit\" data-hovercard-url=\"https://github.com/bitcoin/bitcoin/commit/fa0d0ff6e1bee60fde63724ae28a51aac5a94d4a/hovercard\" href=\"https://github.com/bitcoin/bitcoin/commit/fa0d0ff6e1bee60fde63724ae28a51aac5a94d4a\"><tt>fa0d0ff</tt></a>.</p>",
  "body_text": "Remove service bits that haven't been observed on the active network for years and won't ever be observed on the network with this meaning. Keeping this dead assignment in our source code forever doesn't add any value.\nI somehow forgot to do this in commit fa0d0ff.",
  "body": "Remove service bits that haven't been observed on the active network for years and won't ever be observed on the network with this meaning. Keeping this dead assignment in our source code forever doesn't add any value.\r\n\r\nI somehow forgot to do this in commit fa0d0ff6e1bee60fde63724ae28a51aac5a94d4a.",
  "closed_by": {
    "login": "laanwj",
    "id": 126646,
    "node_id": "MDQ6VXNlcjEyNjY0Ng==",
    "avatar_url": "https://avatars.githubusercontent.com/u/126646?v=4",
    "gravatar_id": "",
    "url": "https://api.github.com/users/laanwj",
    "html_url": "https://github.com/laanwj",
    "followers_url": "https://api.github.com/users/laanwj/followers",
    "following_url": "https://api.github.com/users/laanwj/following{/other_user}",
    "gists_url": "https://api.github.com/users/laanwj/gists{/gist_id}",
    "starred_url": "https://api.github.com/users/laanwj/starred{/owner}{/repo}",
    "subscriptions_url": "https://api.github.com/users/laanwj/subscriptions",
    "organizations_url": "https://api.github.com/users/laanwj/orgs",
    "repos_url": "https://api.github.com/users/laanwj/repos",
    "events_url": "https://api.github.com/users/laanwj/events{/privacy}",
    "received_events_url": "https://api.github.com/users/laanwj/received_events",
    "type": "User",
    "site_admin": false
  },
  "reactions": {
    "url": "https://api.github.com/repos/bitcoin/bitcoin/issues/20606/reactions",
    "total_count": 0,
    "+1": 0,
    "-1": 0,
    "laugh": 0,
    "hooray": 0,
    "confused": 0,
    "heart": 0,
    "rocket": 0,
    "eyes": 0
  },
  "timeline_url": "https://api.github.com/repos/bitcoin/bitcoin/issues/20606/timeline",
  "performed_via_github_app": null,
  "state_reason": null
}
