{
  "url": "https://api.github.com/repos/bitcoin/bitcoin/issues/10367",
  "repository_url": "https://api.github.com/repos/bitcoin/bitcoin",
  "labels_url": "https://api.github.com/repos/bitcoin/bitcoin/issues/10367/labels{/name}",
  "comments_url": "https://api.github.com/repos/bitcoin/bitcoin/issues/10367/comments",
  "events_url": "https://api.github.com/repos/bitcoin/bitcoin/issues/10367/events",
  "html_url": "https://github.com/bitcoin/bitcoin/pull/10367",
  "id": 227229415,
  "node_id": "MDExOlB1bGxSZXF1ZXN0MTE5NTcxODU1",
  "number": 10367,
  "title": "[WIP] [test] Test abortrescan command.",
  "user": {
    "login": "kallewoof",
    "id": 250224,
    "node_id": "MDQ6VXNlcjI1MDIyNA==",
    "avatar_url": "https://avatars.githubusercontent.com/u/250224?v=4",
    "gravatar_id": "",
    "url": "https://api.github.com/users/kallewoof",
    "html_url": "https://github.com/kallewoof",
    "followers_url": "https://api.github.com/users/kallewoof/followers",
    "following_url": "https://api.github.com/users/kallewoof/following{/other_user}",
    "gists_url": "https://api.github.com/users/kallewoof/gists{/gist_id}",
    "starred_url": "https://api.github.com/users/kallewoof/starred{/owner}{/repo}",
    "subscriptions_url": "https://api.github.com/users/kallewoof/subscriptions",
    "organizations_url": "https://api.github.com/users/kallewoof/orgs",
    "repos_url": "https://api.github.com/users/kallewoof/repos",
    "events_url": "https://api.github.com/users/kallewoof/events{/privacy}",
    "received_events_url": "https://api.github.com/users/kallewoof/received_events",
    "type": "User",
    "site_admin": false
  },
  "labels": [
    {
      "id": 62963516,
      "node_id": "MDU6TGFiZWw2Mjk2MzUxNg==",
      "url": "https://api.github.com/repos/bitcoin/bitcoin/labels/Tests",
      "name": "Tests",
      "color": "d4c5f9",
      "default": false,
      "description": null
    }
  ],
  "state": "closed",
  "locked": true,
  "assignee": null,
  "assignees": [

  ],
  "milestone": null,
  "comments": 21,
  "created_at": "2017-05-09T02:28:05Z",
  "updated_at": "2021-12-16T14:10:55Z",
  "closed_at": "2018-03-07T18:59:25Z",
  "author_association": "MEMBER",
  "active_lock_reason": "resolved",
  "draft": false,
  "pull_request": {
    "url": "https://api.github.com/repos/bitcoin/bitcoin/pulls/10367",
    "html_url": "https://github.com/bitcoin/bitcoin/pull/10367",
    "diff_url": "https://github.com/bitcoin/bitcoin/pull/10367.diff",
    "patch_url": "https://github.com/bitcoin/bitcoin/pull/10367.patch",
    "merged_at": null
  },
  "body_html": "<p dir=\"auto\">Replaces <a class=\"issue-link js-issue-link\" data-error-text=\"Failed to load title\" data-id=\"222336039\" data-permission-text=\"Title is private\" data-url=\"https://github.com/bitcoin/bitcoin/issues/10225\" data-hovercard-type=\"pull_request\" data-hovercard-url=\"/bitcoin/bitcoin/pull/10225/hovercard\" href=\"https://github.com/bitcoin/bitcoin/pull/10225\">#10225</a> as it caused intermittent failures for some users.</p>\n<p dir=\"auto\">Difference: gave up on making a \"fast running\" test and upped the blockchain size and spam count to avoid the scan finishing before the abort call. Moved test down to extended tests.</p>\n<p dir=\"auto\">Test runs in roughly 2 minutes on my local machine. The blockchain generation part takes roughly 1m20s.</p>\n<p dir=\"auto\"><a class=\"user-mention notranslate\" data-hovercard-type=\"user\" data-hovercard-url=\"/users/jnewbery/hovercard\" data-octo-click=\"hovercard-link-click\" data-octo-dimensions=\"link_type:self\" href=\"https://github.com/jnewbery\">@jnewbery</a> Does this work on your end?</p>",
  "body_text": "Replaces #10225 as it caused intermittent failures for some users.\nDifference: gave up on making a \"fast running\" test and upped the blockchain size and spam count to avoid the scan finishing before the abort call. Moved test down to extended tests.\nTest runs in roughly 2 minutes on my local machine. The blockchain generation part takes roughly 1m20s.\n@jnewbery Does this work on your end?",
  "body": "Replaces #10225 as it caused intermittent failures for some users.\r\n\r\nDifference: gave up on making a \"fast running\" test and upped the blockchain size and spam count to avoid the scan finishing before the abort call. Moved test down to extended tests.\r\n\r\nTest runs in roughly 2 minutes on my local machine. The blockchain generation part takes roughly 1m20s.\r\n\r\n@jnewbery Does this work on your end?",
  "closed_by": {
    "login": "laanwj",
    "id": 126646,
    "node_id": "MDQ6VXNlcjEyNjY0Ng==",
    "avatar_url": "https://avatars.githubusercontent.com/u/126646?v=4",
    "gravatar_id": "",
    "url": "https://api.github.com/users/laanwj",
    "html_url": "https://github.com/laanwj",
    "followers_url": "https://api.github.com/users/laanwj/followers",
    "following_url": "https://api.github.com/users/laanwj/following{/other_user}",
    "gists_url": "https://api.github.com/users/laanwj/gists{/gist_id}",
    "starred_url": "https://api.github.com/users/laanwj/starred{/owner}{/repo}",
    "subscriptions_url": "https://api.github.com/users/laanwj/subscriptions",
    "organizations_url": "https://api.github.com/users/laanwj/orgs",
    "repos_url": "https://api.github.com/users/laanwj/repos",
    "events_url": "https://api.github.com/users/laanwj/events{/privacy}",
    "received_events_url": "https://api.github.com/users/laanwj/received_events",
    "type": "User",
    "site_admin": false
  },
  "reactions": {
    "url": "https://api.github.com/repos/bitcoin/bitcoin/issues/10367/reactions",
    "total_count": 0,
    "+1": 0,
    "-1": 0,
    "laugh": 0,
    "hooray": 0,
    "confused": 0,
    "heart": 0,
    "rocket": 0,
    "eyes": 0
  },
  "timeline_url": "https://api.github.com/repos/bitcoin/bitcoin/issues/10367/timeline",
  "performed_via_github_app": null,
  "state_reason": null
}
