[
  {
    "url": "https://api.github.com/repos/bitcoin/bitcoin/issues/comments/139521763",
    "html_url": "https://github.com/bitcoin/bitcoin/pull/6659#issuecomment-139521763",
    "issue_url": "https://api.github.com/repos/bitcoin/bitcoin/issues/6659",
    "id": 139521763,
    "node_id": "MDEyOklzc3VlQ29tbWVudDEzOTUyMTc2Mw==",
    "user": {
      "login": "gmaxwell",
      "id": 858454,
      "node_id": "MDQ6VXNlcjg1ODQ1NA==",
      "avatar_url": "https://avatars.githubusercontent.com/u/858454?v=4",
      "gravatar_id": "",
      "url": "https://api.github.com/users/gmaxwell",
      "html_url": "https://github.com/gmaxwell",
      "followers_url": "https://api.github.com/users/gmaxwell/followers",
      "following_url": "https://api.github.com/users/gmaxwell/following{/other_user}",
      "gists_url": "https://api.github.com/users/gmaxwell/gists{/gist_id}",
      "starred_url": "https://api.github.com/users/gmaxwell/starred{/owner}{/repo}",
      "subscriptions_url": "https://api.github.com/users/gmaxwell/subscriptions",
      "organizations_url": "https://api.github.com/users/gmaxwell/orgs",
      "repos_url": "https://api.github.com/users/gmaxwell/repos",
      "events_url": "https://api.github.com/users/gmaxwell/events{/privacy}",
      "received_events_url": "https://api.github.com/users/gmaxwell/received_events",
      "type": "User",
      "site_admin": false
    },
    "created_at": "2015-09-11T11:39:28Z",
    "updated_at": "2015-09-11T11:41:16Z",
    "author_association": "CONTRIBUTOR",
    "body_html": "<p dir=\"auto\">Hi!  Thanks for your interest in working on this! Have you benchmarked these changes?  We have caching in verification which I expect would moot most performance gains here. (As the transaction enters the mempool the verification cache is primed, and the transaction is a hit when it shows up in a block).</p>\n<p dir=\"auto\">One reason we have not previously done this is because doing so imports the mempool bugs into the consensus of the system.  There have previously been bugs that, e.g. caused transactions to fail to be removed from the mempool when they should have.  Not a reason to preclude doing this, but if there isn't a performance gain over the pre-existing caching approach then the reduced isolation may not be a win.</p>",
    "body_text": "Hi!  Thanks for your interest in working on this! Have you benchmarked these changes?  We have caching in verification which I expect would moot most performance gains here. (As the transaction enters the mempool the verification cache is primed, and the transaction is a hit when it shows up in a block).\nOne reason we have not previously done this is because doing so imports the mempool bugs into the consensus of the system.  There have previously been bugs that, e.g. caused transactions to fail to be removed from the mempool when they should have.  Not a reason to preclude doing this, but if there isn't a performance gain over the pre-existing caching approach then the reduced isolation may not be a win.",
    "body": "Hi!  Thanks for your interest in working on this! Have you benchmarked these changes?  We have caching in verification which I expect would moot most performance gains here. (As the transaction enters the mempool the verification cache is primed, and the transaction is a hit when it shows up in a block).\n\nOne reason we have not previously done this is because doing so imports the mempool bugs into the consensus of the system.  There have previously been bugs that, e.g. caused transactions to fail to be removed from the mempool when they should have.  Not a reason to preclude doing this, but if there isn't a performance gain over the pre-existing caching approach then the reduced isolation may not be a win.\n",
    "reactions": {
      "url": "https://api.github.com/repos/bitcoin/bitcoin/issues/comments/139521763/reactions",
      "total_count": 0,
      "+1": 0,
      "-1": 0,
      "laugh": 0,
      "hooray": 0,
      "confused": 0,
      "heart": 0,
      "rocket": 0,
      "eyes": 0
    },
    "performed_via_github_app": null
  },
  {
    "url": "https://api.github.com/repos/bitcoin/bitcoin/issues/comments/140162584",
    "html_url": "https://github.com/bitcoin/bitcoin/pull/6659#issuecomment-140162584",
    "issue_url": "https://api.github.com/repos/bitcoin/bitcoin/issues/6659",
    "id": 140162584,
    "node_id": "MDEyOklzc3VlQ29tbWVudDE0MDE2MjU4NA==",
    "user": {
      "login": "petertodd",
      "id": 7042,
      "node_id": "MDQ6VXNlcjcwNDI=",
      "avatar_url": "https://avatars.githubusercontent.com/u/7042?v=4",
      "gravatar_id": "",
      "url": "https://api.github.com/users/petertodd",
      "html_url": "https://github.com/petertodd",
      "followers_url": "https://api.github.com/users/petertodd/followers",
      "following_url": "https://api.github.com/users/petertodd/following{/other_user}",
      "gists_url": "https://api.github.com/users/petertodd/gists{/gist_id}",
      "starred_url": "https://api.github.com/users/petertodd/starred{/owner}{/repo}",
      "subscriptions_url": "https://api.github.com/users/petertodd/subscriptions",
      "organizations_url": "https://api.github.com/users/petertodd/orgs",
      "repos_url": "https://api.github.com/users/petertodd/repos",
      "events_url": "https://api.github.com/users/petertodd/events{/privacy}",
      "received_events_url": "https://api.github.com/users/petertodd/received_events",
      "type": "User",
      "site_admin": false
    },
    "created_at": "2015-09-14T18:07:12Z",
    "updated_at": "2015-09-14T18:07:12Z",
    "author_association": "CONTRIBUTOR",
    "body_html": "<p dir=\"auto\">Clever! Unfortunately in the big picture the tricky part about this kind of change is we don't have a clear definition (yet) of what exactly is consensus-critical validation and what isn't. The mempool code isn't written in a way to really strongly respect that, so as <a class=\"user-mention notranslate\" data-hovercard-type=\"user\" data-hovercard-url=\"/users/gmaxwell/hovercard\" data-octo-click=\"hovercard-link-click\" data-octo-dimensions=\"link_type:self\" href=\"https://github.com/gmaxwell\">@gmaxwell</a> points out it's quite possible for the mempool to have bugs in it that allow transactions into the mempool that are invalid. In fact, I fixed one such bug last December: <a class=\"issue-link js-issue-link\" data-error-text=\"Failed to load title\" data-id=\"48238766\" data-permission-text=\"Title is private\" data-url=\"https://github.com/bitcoin/bitcoin/issues/5253\" data-hovercard-type=\"pull_request\" data-hovercard-url=\"/bitcoin/bitcoin/pull/5253/hovercard\" href=\"https://github.com/bitcoin/bitcoin/pull/5253\">#5253</a></p>\n<p dir=\"auto\">We are working to refactor out the consensus-critical codebase/protocol definition into a separate library which will use self-contained consensus-state objects. While it's a ways off, at that point you could cache a validation success when a transaction entered the mempool against that consensus state and use that cached result later on to be 100% sure that the transaction is valid when you see it again in a block; as <a class=\"user-mention notranslate\" data-hovercard-type=\"user\" data-hovercard-url=\"/users/gmaxwell/hovercard\" data-octo-click=\"hovercard-link-click\" data-octo-dimensions=\"link_type:self\" href=\"https://github.com/gmaxwell\">@gmaxwell</a> pointed we already part of that by caching signature validation. (see <a href=\"https://github.com/bitcoin/bitcoin/blob/master/src/script/sigcache.cpp\">https://github.com/bitcoin/bitcoin/blob/master/src/script/sigcache.cpp</a> for details) The state of the sigcache is quite well defined - the transaction and the signatures - so being sure the state is the same when we see the signature again in a block is a lot easier.</p>\n<p dir=\"auto\">So yeah, unfortunately even if this change was a significant speedup, we couldn't merge it yet. :( But a good way forward if you want to continue this work would be to help review the libconsensus-related changes, and help with designing a validation state API that would allow for caching intermediate states appropriately. This won't be easy, because the UTXO state is fairly large and is changed incrementally as transactions in a block are validated from beginning to end, but maybe there's some good way to split it up?</p>",
    "body_text": "Clever! Unfortunately in the big picture the tricky part about this kind of change is we don't have a clear definition (yet) of what exactly is consensus-critical validation and what isn't. The mempool code isn't written in a way to really strongly respect that, so as @gmaxwell points out it's quite possible for the mempool to have bugs in it that allow transactions into the mempool that are invalid. In fact, I fixed one such bug last December: #5253\nWe are working to refactor out the consensus-critical codebase/protocol definition into a separate library which will use self-contained consensus-state objects. While it's a ways off, at that point you could cache a validation success when a transaction entered the mempool against that consensus state and use that cached result later on to be 100% sure that the transaction is valid when you see it again in a block; as @gmaxwell pointed we already part of that by caching signature validation. (see https://github.com/bitcoin/bitcoin/blob/master/src/script/sigcache.cpp for details) The state of the sigcache is quite well defined - the transaction and the signatures - so being sure the state is the same when we see the signature again in a block is a lot easier.\nSo yeah, unfortunately even if this change was a significant speedup, we couldn't merge it yet. :( But a good way forward if you want to continue this work would be to help review the libconsensus-related changes, and help with designing a validation state API that would allow for caching intermediate states appropriately. This won't be easy, because the UTXO state is fairly large and is changed incrementally as transactions in a block are validated from beginning to end, but maybe there's some good way to split it up?",
    "body": "Clever! Unfortunately in the big picture the tricky part about this kind of change is we don't have a clear definition (yet) of what exactly is consensus-critical validation and what isn't. The mempool code isn't written in a way to really strongly respect that, so as @gmaxwell points out it's quite possible for the mempool to have bugs in it that allow transactions into the mempool that are invalid. In fact, I fixed one such bug last December: https://github.com/bitcoin/bitcoin/pull/5253\n\nWe are working to refactor out the consensus-critical codebase/protocol definition into a separate library which will use self-contained consensus-state objects. While it's a ways off, at that point you could cache a validation success when a transaction entered the mempool against that consensus state and use that cached result later on to be 100% sure that the transaction is valid when you see it again in a block; as @gmaxwell pointed we already part of that by caching signature validation. (see https://github.com/bitcoin/bitcoin/blob/master/src/script/sigcache.cpp for details) The state of the sigcache is quite well defined - the transaction and the signatures - so being sure the state is the same when we see the signature again in a block is a lot easier.\n\nSo yeah, unfortunately even if this change was a significant speedup, we couldn't merge it yet. :( But a good way forward if you want to continue this work would be to help review the libconsensus-related changes, and help with designing a validation state API that would allow for caching intermediate states appropriately. This won't be easy, because the UTXO state is fairly large and is changed incrementally as transactions in a block are validated from beginning to end, but maybe there's some good way to split it up?\n",
    "reactions": {
      "url": "https://api.github.com/repos/bitcoin/bitcoin/issues/comments/140162584/reactions",
      "total_count": 0,
      "+1": 0,
      "-1": 0,
      "laugh": 0,
      "hooray": 0,
      "confused": 0,
      "heart": 0,
      "rocket": 0,
      "eyes": 0
    },
    "performed_via_github_app": null
  },
  {
    "url": "https://api.github.com/repos/bitcoin/bitcoin/issues/comments/143236127",
    "html_url": "https://github.com/bitcoin/bitcoin/pull/6659#issuecomment-143236127",
    "issue_url": "https://api.github.com/repos/bitcoin/bitcoin/issues/6659",
    "id": 143236127,
    "node_id": "MDEyOklzc3VlQ29tbWVudDE0MzIzNjEyNw==",
    "user": {
      "login": "laanwj",
      "id": 126646,
      "node_id": "MDQ6VXNlcjEyNjY0Ng==",
      "avatar_url": "https://avatars.githubusercontent.com/u/126646?v=4",
      "gravatar_id": "",
      "url": "https://api.github.com/users/laanwj",
      "html_url": "https://github.com/laanwj",
      "followers_url": "https://api.github.com/users/laanwj/followers",
      "following_url": "https://api.github.com/users/laanwj/following{/other_user}",
      "gists_url": "https://api.github.com/users/laanwj/gists{/gist_id}",
      "starred_url": "https://api.github.com/users/laanwj/starred{/owner}{/repo}",
      "subscriptions_url": "https://api.github.com/users/laanwj/subscriptions",
      "organizations_url": "https://api.github.com/users/laanwj/orgs",
      "repos_url": "https://api.github.com/users/laanwj/repos",
      "events_url": "https://api.github.com/users/laanwj/events{/privacy}",
      "received_events_url": "https://api.github.com/users/laanwj/received_events",
      "type": "User",
      "site_admin": false
    },
    "created_at": "2015-09-25T14:19:00Z",
    "updated_at": "2015-09-25T14:19:00Z",
    "author_association": "MEMBER",
    "body_html": "<p dir=\"auto\">Yes, as <a class=\"user-mention notranslate\" data-hovercard-type=\"user\" data-hovercard-url=\"/users/gmaxwell/hovercard\" data-octo-click=\"hovercard-link-click\" data-octo-dimensions=\"link_type:self\" href=\"https://github.com/gmaxwell\">@gmaxwell</a> and <a class=\"user-mention notranslate\" data-hovercard-type=\"user\" data-hovercard-url=\"/users/petertodd/hovercard\" data-octo-click=\"hovercard-link-click\" data-octo-dimensions=\"link_type:self\" href=\"https://github.com/petertodd\">@petertodd</a> explain, this is too risky at this point.</p>",
    "body_text": "Yes, as @gmaxwell and @petertodd explain, this is too risky at this point.",
    "body": "Yes, as @gmaxwell and @petertodd explain, this is too risky at this point.\n",
    "reactions": {
      "url": "https://api.github.com/repos/bitcoin/bitcoin/issues/comments/143236127/reactions",
      "total_count": 0,
      "+1": 0,
      "-1": 0,
      "laugh": 0,
      "hooray": 0,
      "confused": 0,
      "heart": 0,
      "rocket": 0,
      "eyes": 0
    },
    "performed_via_github_app": null
  }
]
