{
  "url": "https://api.github.com/repos/bitcoin/bitcoin/issues/13864",
  "repository_url": "https://api.github.com/repos/bitcoin/bitcoin",
  "labels_url": "https://api.github.com/repos/bitcoin/bitcoin/issues/13864/labels{/name}",
  "comments_url": "https://api.github.com/repos/bitcoin/bitcoin/issues/13864/comments",
  "events_url": "https://api.github.com/repos/bitcoin/bitcoin/issues/13864/events",
  "html_url": "https://github.com/bitcoin/bitcoin/pull/13864",
  "id": 347417461,
  "node_id": "MDExOlB1bGxSZXF1ZXN0MjA2MDQ2NjI3",
  "number": 13864,
  "title": "validation: Document where we are intentionally ignoring bool return values from validation related functions",
  "user": {
    "login": "practicalswift",
    "id": 7826565,
    "node_id": "MDQ6VXNlcjc4MjY1NjU=",
    "avatar_url": "https://avatars.githubusercontent.com/u/7826565?v=4",
    "gravatar_id": "",
    "url": "https://api.github.com/users/practicalswift",
    "html_url": "https://github.com/practicalswift",
    "followers_url": "https://api.github.com/users/practicalswift/followers",
    "following_url": "https://api.github.com/users/practicalswift/following{/other_user}",
    "gists_url": "https://api.github.com/users/practicalswift/gists{/gist_id}",
    "starred_url": "https://api.github.com/users/practicalswift/starred{/owner}{/repo}",
    "subscriptions_url": "https://api.github.com/users/practicalswift/subscriptions",
    "organizations_url": "https://api.github.com/users/practicalswift/orgs",
    "repos_url": "https://api.github.com/users/practicalswift/repos",
    "events_url": "https://api.github.com/users/practicalswift/events{/privacy}",
    "received_events_url": "https://api.github.com/users/practicalswift/received_events",
    "type": "User",
    "site_admin": false
  },
  "labels": [
    {
      "id": 135961,
      "node_id": "MDU6TGFiZWwxMzU5NjE=",
      "url": "https://api.github.com/repos/bitcoin/bitcoin/labels/Refactoring",
      "name": "Refactoring",
      "color": "E6F6D6",
      "default": false,
      "description": null
    },
    {
      "id": 148216,
      "node_id": "MDU6TGFiZWwxNDgyMTY=",
      "url": "https://api.github.com/repos/bitcoin/bitcoin/labels/Docs",
      "name": "Docs",
      "color": "02d7e1",
      "default": false,
      "description": null
    }
  ],
  "state": "closed",
  "locked": true,
  "assignee": null,
  "assignees": [

  ],
  "milestone": null,
  "comments": 8,
  "created_at": "2018-08-03T14:25:47Z",
  "updated_at": "2022-08-16T17:17:32Z",
  "closed_at": "2018-11-12T16:03:30Z",
  "author_association": "CONTRIBUTOR",
  "active_lock_reason": "resolved",
  "draft": false,
  "pull_request": {
    "url": "https://api.github.com/repos/bitcoin/bitcoin/pulls/13864",
    "html_url": "https://github.com/bitcoin/bitcoin/pull/13864",
    "diff_url": "https://github.com/bitcoin/bitcoin/pull/13864.diff",
    "patch_url": "https://github.com/bitcoin/bitcoin/pull/13864.patch",
    "merged_at": null
  },
  "body_html": "<ul dir=\"auto\">\n<li>Document where we are intentionally ignoring the return value from <code class=\"notranslate\">bool</code> returning functions from <code class=\"notranslate\">validation.{cpp,h}</code> that modify state</li>\n<li>Mark validation functions whose <code class=\"notranslate\">bool</code> return value should not be discarded in the general case with <code class=\"notranslate\">NODISCARD</code> (expands to <code class=\"notranslate\">[[nodiscard]]</code> or <code class=\"notranslate\">__attribute__((warn_unused_result))</code> depending on availability)</li>\n</ul>\n<p dir=\"auto\">This will help us identify code where we're we incorrectly assume that a certain function always succeeds in performing its state modification.</p>",
  "body_text": "Document where we are intentionally ignoring the return value from bool returning functions from validation.{cpp,h} that modify state\nMark validation functions whose bool return value should not be discarded in the general case with NODISCARD (expands to [[nodiscard]] or __attribute__((warn_unused_result)) depending on availability)\n\nThis will help us identify code where we're we incorrectly assume that a certain function always succeeds in performing its state modification.",
  "body": "* Document where we are intentionally ignoring the return value from `bool` returning functions from `validation.{cpp,h}` that modify state\r\n* Mark validation functions whose `bool` return value should not be discarded in the general case with `NODISCARD` (expands to `[[nodiscard]]` or `__attribute__((warn_unused_result))` depending on availability)\r\n\r\nThis will help us identify code where we're we incorrectly assume that a certain function always succeeds in performing its state modification. ",
  "closed_by": {
    "login": "practicalswift",
    "id": 7826565,
    "node_id": "MDQ6VXNlcjc4MjY1NjU=",
    "avatar_url": "https://avatars.githubusercontent.com/u/7826565?v=4",
    "gravatar_id": "",
    "url": "https://api.github.com/users/practicalswift",
    "html_url": "https://github.com/practicalswift",
    "followers_url": "https://api.github.com/users/practicalswift/followers",
    "following_url": "https://api.github.com/users/practicalswift/following{/other_user}",
    "gists_url": "https://api.github.com/users/practicalswift/gists{/gist_id}",
    "starred_url": "https://api.github.com/users/practicalswift/starred{/owner}{/repo}",
    "subscriptions_url": "https://api.github.com/users/practicalswift/subscriptions",
    "organizations_url": "https://api.github.com/users/practicalswift/orgs",
    "repos_url": "https://api.github.com/users/practicalswift/repos",
    "events_url": "https://api.github.com/users/practicalswift/events{/privacy}",
    "received_events_url": "https://api.github.com/users/practicalswift/received_events",
    "type": "User",
    "site_admin": false
  },
  "reactions": {
    "url": "https://api.github.com/repos/bitcoin/bitcoin/issues/13864/reactions",
    "total_count": 0,
    "+1": 0,
    "-1": 0,
    "laugh": 0,
    "hooray": 0,
    "confused": 0,
    "heart": 0,
    "rocket": 0,
    "eyes": 0
  },
  "timeline_url": "https://api.github.com/repos/bitcoin/bitcoin/issues/13864/timeline",
  "performed_via_github_app": null,
  "state_reason": null
}
