[
  {
    "url": "https://api.github.com/repos/bitcoin/bitcoin/issues/comments/228277281",
    "html_url": "https://github.com/bitcoin/bitcoin/pull/8253#issuecomment-228277281",
    "issue_url": "https://api.github.com/repos/bitcoin/bitcoin/issues/8253",
    "id": 228277281,
    "node_id": "MDEyOklzc3VlQ29tbWVudDIyODI3NzI4MQ==",
    "user": {
      "login": "fanquake",
      "id": 863730,
      "node_id": "MDQ6VXNlcjg2MzczMA==",
      "avatar_url": "https://avatars.githubusercontent.com/u/863730?v=4",
      "gravatar_id": "",
      "url": "https://api.github.com/users/fanquake",
      "html_url": "https://github.com/fanquake",
      "followers_url": "https://api.github.com/users/fanquake/followers",
      "following_url": "https://api.github.com/users/fanquake/following{/other_user}",
      "gists_url": "https://api.github.com/users/fanquake/gists{/gist_id}",
      "starred_url": "https://api.github.com/users/fanquake/starred{/owner}{/repo}",
      "subscriptions_url": "https://api.github.com/users/fanquake/subscriptions",
      "organizations_url": "https://api.github.com/users/fanquake/orgs",
      "repos_url": "https://api.github.com/users/fanquake/repos",
      "events_url": "https://api.github.com/users/fanquake/events{/privacy}",
      "received_events_url": "https://api.github.com/users/fanquake/received_events",
      "type": "User",
      "site_admin": false
    },
    "created_at": "2016-06-24T07:34:43Z",
    "updated_at": "2016-06-24T07:34:43Z",
    "author_association": "MEMBER",
    "body_html": "<p dir=\"auto\">Looks like the changes might not have been made upstream..</p>\n<div class=\"snippet-clipboard-content notranslate position-relative overflow-auto\" data-snippet-clipboard-copy-content=\"make[2]: Entering directory `/home/travis/build/bitcoin/bitcoin/build'\n/bin/mkdir -p qa/tmp\nUSAGE: bitcoinjBlockStoreLocation runLargeReorgs(1/0) [port=18444]\n07:33:01 1 H2FullPrunedBlockStore.&lt;init&gt;: org.h2.Driver loaded. \n*** buffer overflow detected ***: /usr/bin/java terminated\n======= Backtrace: =========\n/lib/x86_64-linux-gnu/libc.so.6(+0x7329f)[0x2b1be62db29f]\n/lib/x86_64-linux-gnu/libc.so.6(__fortify_fail+0x5c)[0x2b1be6372bbc]\n/lib/x86_64-linux-gnu/libc.so.6(+0x109a90)[0x2b1be6371a90]\n/usr/lib/jvm/java-7-openjdk-amd64/jre/lib/amd64/libnet.so(Java_java_net_Inet4AddressImpl_getLocalHostName+0x1a5)[0x2b1bf3219665]\n[0x2b1bf0014e98]\"><pre class=\"notranslate\"><code class=\"notranslate\">make[2]: Entering directory `/home/travis/build/bitcoin/bitcoin/build'\n/bin/mkdir -p qa/tmp\nUSAGE: bitcoinjBlockStoreLocation runLargeReorgs(1/0) [port=18444]\n07:33:01 1 H2FullPrunedBlockStore.&lt;init&gt;: org.h2.Driver loaded. \n*** buffer overflow detected ***: /usr/bin/java terminated\n======= Backtrace: =========\n/lib/x86_64-linux-gnu/libc.so.6(+0x7329f)[0x2b1be62db29f]\n/lib/x86_64-linux-gnu/libc.so.6(__fortify_fail+0x5c)[0x2b1be6372bbc]\n/lib/x86_64-linux-gnu/libc.so.6(+0x109a90)[0x2b1be6371a90]\n/usr/lib/jvm/java-7-openjdk-amd64/jre/lib/amd64/libnet.so(Java_java_net_Inet4AddressImpl_getLocalHostName+0x1a5)[0x2b1bf3219665]\n[0x2b1bf0014e98]\n</code></pre></div>",
    "body_text": "Looks like the changes might not have been made upstream..\nmake[2]: Entering directory `/home/travis/build/bitcoin/bitcoin/build'\n/bin/mkdir -p qa/tmp\nUSAGE: bitcoinjBlockStoreLocation runLargeReorgs(1/0) [port=18444]\n07:33:01 1 H2FullPrunedBlockStore.<init>: org.h2.Driver loaded. \n*** buffer overflow detected ***: /usr/bin/java terminated\n======= Backtrace: =========\n/lib/x86_64-linux-gnu/libc.so.6(+0x7329f)[0x2b1be62db29f]\n/lib/x86_64-linux-gnu/libc.so.6(__fortify_fail+0x5c)[0x2b1be6372bbc]\n/lib/x86_64-linux-gnu/libc.so.6(+0x109a90)[0x2b1be6371a90]\n/usr/lib/jvm/java-7-openjdk-amd64/jre/lib/amd64/libnet.so(Java_java_net_Inet4AddressImpl_getLocalHostName+0x1a5)[0x2b1bf3219665]\n[0x2b1bf0014e98]",
    "body": "Looks like the changes might not have been made upstream..\n\n```\nmake[2]: Entering directory `/home/travis/build/bitcoin/bitcoin/build'\n/bin/mkdir -p qa/tmp\nUSAGE: bitcoinjBlockStoreLocation runLargeReorgs(1/0) [port=18444]\n07:33:01 1 H2FullPrunedBlockStore.<init>: org.h2.Driver loaded. \n*** buffer overflow detected ***: /usr/bin/java terminated\n======= Backtrace: =========\n/lib/x86_64-linux-gnu/libc.so.6(+0x7329f)[0x2b1be62db29f]\n/lib/x86_64-linux-gnu/libc.so.6(__fortify_fail+0x5c)[0x2b1be6372bbc]\n/lib/x86_64-linux-gnu/libc.so.6(+0x109a90)[0x2b1be6371a90]\n/usr/lib/jvm/java-7-openjdk-amd64/jre/lib/amd64/libnet.so(Java_java_net_Inet4AddressImpl_getLocalHostName+0x1a5)[0x2b1bf3219665]\n[0x2b1bf0014e98]\n```\n",
    "reactions": {
      "url": "https://api.github.com/repos/bitcoin/bitcoin/issues/comments/228277281/reactions",
      "total_count": 0,
      "+1": 0,
      "-1": 0,
      "laugh": 0,
      "hooray": 0,
      "confused": 0,
      "heart": 0,
      "rocket": 0,
      "eyes": 0
    },
    "performed_via_github_app": null
  },
  {
    "url": "https://api.github.com/repos/bitcoin/bitcoin/issues/comments/230510874",
    "html_url": "https://github.com/bitcoin/bitcoin/pull/8253#issuecomment-230510874",
    "issue_url": "https://api.github.com/repos/bitcoin/bitcoin/issues/8253",
    "id": 230510874,
    "node_id": "MDEyOklzc3VlQ29tbWVudDIzMDUxMDg3NA==",
    "user": {
      "login": "maflcko",
      "id": 6399679,
      "node_id": "MDQ6VXNlcjYzOTk2Nzk=",
      "avatar_url": "https://avatars.githubusercontent.com/u/6399679?v=4",
      "gravatar_id": "",
      "url": "https://api.github.com/users/maflcko",
      "html_url": "https://github.com/maflcko",
      "followers_url": "https://api.github.com/users/maflcko/followers",
      "following_url": "https://api.github.com/users/maflcko/following{/other_user}",
      "gists_url": "https://api.github.com/users/maflcko/gists{/gist_id}",
      "starred_url": "https://api.github.com/users/maflcko/starred{/owner}{/repo}",
      "subscriptions_url": "https://api.github.com/users/maflcko/subscriptions",
      "organizations_url": "https://api.github.com/users/maflcko/orgs",
      "repos_url": "https://api.github.com/users/maflcko/repos",
      "events_url": "https://api.github.com/users/maflcko/events{/privacy}",
      "received_events_url": "https://api.github.com/users/maflcko/received_events",
      "type": "User",
      "site_admin": false
    },
    "created_at": "2016-07-05T15:22:26Z",
    "updated_at": "2016-07-05T15:22:26Z",
    "author_association": "MEMBER",
    "body_html": "<p dir=\"auto\">Concept ACK</p>",
    "body_text": "Concept ACK",
    "body": "Concept ACK\n",
    "reactions": {
      "url": "https://api.github.com/repos/bitcoin/bitcoin/issues/comments/230510874/reactions",
      "total_count": 0,
      "+1": 0,
      "-1": 0,
      "laugh": 0,
      "hooray": 0,
      "confused": 0,
      "heart": 0,
      "rocket": 0,
      "eyes": 0
    },
    "performed_via_github_app": null
  },
  {
    "url": "https://api.github.com/repos/bitcoin/bitcoin/issues/comments/238040983",
    "html_url": "https://github.com/bitcoin/bitcoin/pull/8253#issuecomment-238040983",
    "issue_url": "https://api.github.com/repos/bitcoin/bitcoin/issues/8253",
    "id": 238040983,
    "node_id": "MDEyOklzc3VlQ29tbWVudDIzODA0MDk4Mw==",
    "user": {
      "login": "maflcko",
      "id": 6399679,
      "node_id": "MDQ6VXNlcjYzOTk2Nzk=",
      "avatar_url": "https://avatars.githubusercontent.com/u/6399679?v=4",
      "gravatar_id": "",
      "url": "https://api.github.com/users/maflcko",
      "html_url": "https://github.com/maflcko",
      "followers_url": "https://api.github.com/users/maflcko/followers",
      "following_url": "https://api.github.com/users/maflcko/following{/other_user}",
      "gists_url": "https://api.github.com/users/maflcko/gists{/gist_id}",
      "starred_url": "https://api.github.com/users/maflcko/starred{/owner}{/repo}",
      "subscriptions_url": "https://api.github.com/users/maflcko/subscriptions",
      "organizations_url": "https://api.github.com/users/maflcko/orgs",
      "repos_url": "https://api.github.com/users/maflcko/repos",
      "events_url": "https://api.github.com/users/maflcko/events{/privacy}",
      "received_events_url": "https://api.github.com/users/maflcko/received_events",
      "type": "User",
      "site_admin": false
    },
    "created_at": "2016-08-06T18:48:29Z",
    "updated_at": "2016-08-06T18:48:29Z",
    "author_association": "MEMBER",
    "body_html": "<p dir=\"auto\">Travis fails. I think this is not important enough to keep open. Can be reopened later...</p>",
    "body_text": "Travis fails. I think this is not important enough to keep open. Can be reopened later...",
    "body": "Travis fails. I think this is not important enough to keep open. Can be reopened later...\n",
    "reactions": {
      "url": "https://api.github.com/repos/bitcoin/bitcoin/issues/comments/238040983/reactions",
      "total_count": 0,
      "+1": 0,
      "-1": 0,
      "laugh": 0,
      "hooray": 0,
      "confused": 0,
      "heart": 0,
      "rocket": 0,
      "eyes": 0
    },
    "performed_via_github_app": null
  }
]
