{
  "url": "https://api.github.com/repos/bitcoin/bitcoin/issues/14182",
  "repository_url": "https://api.github.com/repos/bitcoin/bitcoin",
  "labels_url": "https://api.github.com/repos/bitcoin/bitcoin/issues/14182/labels{/name}",
  "comments_url": "https://api.github.com/repos/bitcoin/bitcoin/issues/14182/comments",
  "events_url": "https://api.github.com/repos/bitcoin/bitcoin/issues/14182/events",
  "html_url": "https://github.com/bitcoin/bitcoin/issues/14182",
  "id": 358411963,
  "node_id": "MDU6SXNzdWUzNTg0MTE5NjM=",
  "number": 14182,
  "title": "Help",
  "user": {
    "login": "PrinceKK300188-zz",
    "id": 33048205,
    "node_id": "MDQ6VXNlcjMzMDQ4MjA1",
    "avatar_url": "https://avatars.githubusercontent.com/u/33048205?v=4",
    "gravatar_id": "",
    "url": "https://api.github.com/users/PrinceKK300188-zz",
    "html_url": "https://github.com/PrinceKK300188-zz",
    "followers_url": "https://api.github.com/users/PrinceKK300188-zz/followers",
    "following_url": "https://api.github.com/users/PrinceKK300188-zz/following{/other_user}",
    "gists_url": "https://api.github.com/users/PrinceKK300188-zz/gists{/gist_id}",
    "starred_url": "https://api.github.com/users/PrinceKK300188-zz/starred{/owner}{/repo}",
    "subscriptions_url": "https://api.github.com/users/PrinceKK300188-zz/subscriptions",
    "organizations_url": "https://api.github.com/users/PrinceKK300188-zz/orgs",
    "repos_url": "https://api.github.com/users/PrinceKK300188-zz/repos",
    "events_url": "https://api.github.com/users/PrinceKK300188-zz/events{/privacy}",
    "received_events_url": "https://api.github.com/users/PrinceKK300188-zz/received_events",
    "type": "User",
    "site_admin": false
  },
  "labels": [

  ],
  "state": "closed",
  "locked": true,
  "assignee": null,
  "assignees": [

  ],
  "milestone": null,
  "comments": 0,
  "created_at": "2018-09-09T21:02:41Z",
  "updated_at": "2018-09-09T21:53:00Z",
  "closed_at": "2018-09-09T21:10:29Z",
  "author_association": "NONE",
  "active_lock_reason": null,
  "body_html": "\n\n\n\n\n\n\n\n",
  "body_text": "",
  "body": "<!-- This issue tracker is only for technical issues related to Bitcoin Core.\r\n\r\nGeneral bitcoin questions and/or support requests are best directed to the Bitcoin StackExchange at https://bitcoin.stackexchange.com.\r\n\r\nFor reporting security issues, please read instructions at https://bitcoincore.org/en/contact/.\r\n\r\nIf the node is \"stuck\" during sync or giving \"block checksum mismatch\" errors, please ensure your hardware is stable by running memtest and observe CPU temperature with a load-test tool such as linpack before creating an issue! -->\r\n\r\n<!-- Describe the issue -->\r\n<!--- What behavior did you expect? -->\r\n\r\n<!--- What was the actual behavior (provide screenshots if the issue is GUI-related)? -->\r\n\r\n<!--- How reliably can you reproduce the issue, what are the steps to do so? -->\r\n\r\n<!-- What version of Bitcoin Core are you using, where did you get it (website, self-compiled, etc)? -->\r\n\r\n<!-- What type of machine are you observing the error on (OS/CPU and disk type)? -->\r\n\r\n<!-- Any extra information that might be useful in the debugging process. -->\r\n<!--- This is normally the contents of a `debug.log` or `config.log` file. Raw text or a link to a pastebin type site are preferred. -->\r\n",
  "closed_by": {
    "login": "sipa",
    "id": 548488,
    "node_id": "MDQ6VXNlcjU0ODQ4OA==",
    "avatar_url": "https://avatars.githubusercontent.com/u/548488?v=4",
    "gravatar_id": "",
    "url": "https://api.github.com/users/sipa",
    "html_url": "https://github.com/sipa",
    "followers_url": "https://api.github.com/users/sipa/followers",
    "following_url": "https://api.github.com/users/sipa/following{/other_user}",
    "gists_url": "https://api.github.com/users/sipa/gists{/gist_id}",
    "starred_url": "https://api.github.com/users/sipa/starred{/owner}{/repo}",
    "subscriptions_url": "https://api.github.com/users/sipa/subscriptions",
    "organizations_url": "https://api.github.com/users/sipa/orgs",
    "repos_url": "https://api.github.com/users/sipa/repos",
    "events_url": "https://api.github.com/users/sipa/events{/privacy}",
    "received_events_url": "https://api.github.com/users/sipa/received_events",
    "type": "User",
    "site_admin": false
  },
  "reactions": {
    "url": "https://api.github.com/repos/bitcoin/bitcoin/issues/14182/reactions",
    "total_count": 0,
    "+1": 0,
    "-1": 0,
    "laugh": 0,
    "hooray": 0,
    "confused": 0,
    "heart": 0,
    "rocket": 0,
    "eyes": 0
  },
  "timeline_url": "https://api.github.com/repos/bitcoin/bitcoin/issues/14182/timeline",
  "performed_via_github_app": null,
  "state_reason": "completed"
}
