[
  {
    "url": "https://api.github.com/repos/bitcoin/bitcoin/issues/comments/657100055",
    "html_url": "https://github.com/bitcoin/bitcoin/pull/19494#issuecomment-657100055",
    "issue_url": "https://api.github.com/repos/bitcoin/bitcoin/issues/19494",
    "id": 657100055,
    "node_id": "MDEyOklzc3VlQ29tbWVudDY1NzEwMDA1NQ==",
    "user": {
      "login": "jonatack",
      "id": 2415484,
      "node_id": "MDQ6VXNlcjI0MTU0ODQ=",
      "avatar_url": "https://avatars.githubusercontent.com/u/2415484?v=4",
      "gravatar_id": "",
      "url": "https://api.github.com/users/jonatack",
      "html_url": "https://github.com/jonatack",
      "followers_url": "https://api.github.com/users/jonatack/followers",
      "following_url": "https://api.github.com/users/jonatack/following{/other_user}",
      "gists_url": "https://api.github.com/users/jonatack/gists{/gist_id}",
      "starred_url": "https://api.github.com/users/jonatack/starred{/owner}{/repo}",
      "subscriptions_url": "https://api.github.com/users/jonatack/subscriptions",
      "organizations_url": "https://api.github.com/users/jonatack/orgs",
      "repos_url": "https://api.github.com/users/jonatack/repos",
      "events_url": "https://api.github.com/users/jonatack/events{/privacy}",
      "received_events_url": "https://api.github.com/users/jonatack/received_events",
      "type": "User",
      "site_admin": false
    },
    "created_at": "2020-07-11T17:31:02Z",
    "updated_at": "2020-07-11T17:31:02Z",
    "author_association": "CONTRIBUTOR",
    "body_html": "<p dir=\"auto\">Friendly ping to Bitcoin's outstanding technical writer, <a class=\"user-mention notranslate\" data-hovercard-type=\"user\" data-hovercard-url=\"/users/harding/hovercard\" data-octo-click=\"hovercard-link-click\" data-octo-dimensions=\"link_type:self\" href=\"https://github.com/harding\">@harding</a>.</p>",
    "body_text": "Friendly ping to Bitcoin's outstanding technical writer, @harding.",
    "body": "Friendly ping to Bitcoin's outstanding technical writer, @harding.",
    "reactions": {
      "url": "https://api.github.com/repos/bitcoin/bitcoin/issues/comments/657100055/reactions",
      "total_count": 0,
      "+1": 0,
      "-1": 0,
      "laugh": 0,
      "hooray": 0,
      "confused": 0,
      "heart": 0,
      "rocket": 0,
      "eyes": 0
    },
    "performed_via_github_app": null
  },
  {
    "url": "https://api.github.com/repos/bitcoin/bitcoin/issues/comments/657179533",
    "html_url": "https://github.com/bitcoin/bitcoin/pull/19494#issuecomment-657179533",
    "issue_url": "https://api.github.com/repos/bitcoin/bitcoin/issues/19494",
    "id": 657179533,
    "node_id": "MDEyOklzc3VlQ29tbWVudDY1NzE3OTUzMw==",
    "user": {
      "login": "jonatack",
      "id": 2415484,
      "node_id": "MDQ6VXNlcjI0MTU0ODQ=",
      "avatar_url": "https://avatars.githubusercontent.com/u/2415484?v=4",
      "gravatar_id": "",
      "url": "https://api.github.com/users/jonatack",
      "html_url": "https://github.com/jonatack",
      "followers_url": "https://api.github.com/users/jonatack/followers",
      "following_url": "https://api.github.com/users/jonatack/following{/other_user}",
      "gists_url": "https://api.github.com/users/jonatack/gists{/gist_id}",
      "starred_url": "https://api.github.com/users/jonatack/starred{/owner}{/repo}",
      "subscriptions_url": "https://api.github.com/users/jonatack/subscriptions",
      "organizations_url": "https://api.github.com/users/jonatack/orgs",
      "repos_url": "https://api.github.com/users/jonatack/repos",
      "events_url": "https://api.github.com/users/jonatack/events{/privacy}",
      "received_events_url": "https://api.github.com/users/jonatack/received_events",
      "type": "User",
      "site_admin": false
    },
    "created_at": "2020-07-12T06:00:27Z",
    "updated_at": "2020-07-12T06:00:27Z",
    "author_association": "CONTRIBUTOR",
    "body_html": "<p dir=\"auto\">Thanks <a class=\"user-mention notranslate\" data-hovercard-type=\"user\" data-hovercard-url=\"/users/practicalswift/hovercard\" data-octo-click=\"hovercard-link-click\" data-octo-dimensions=\"link_type:self\" href=\"https://github.com/practicalswift\">@practicalswift</a>, <a class=\"user-mention notranslate\" data-hovercard-type=\"user\" data-hovercard-url=\"/users/hebasto/hovercard\" data-octo-click=\"hovercard-link-click\" data-octo-dimensions=\"link_type:self\" href=\"https://github.com/hebasto\">@hebasto</a> and <a class=\"user-mention notranslate\" data-hovercard-type=\"user\" data-hovercard-url=\"/users/harding/hovercard\" data-octo-click=\"hovercard-link-click\" data-octo-dimensions=\"link_type:self\" href=\"https://github.com/harding\">@harding</a>! Excellent feedback, all added to the changes (except commit message prefixes, as I am not sure it's seen as a requirement -- happy to update depending on feedback).</p>",
    "body_text": "Thanks @practicalswift, @hebasto and @harding! Excellent feedback, all added to the changes (except commit message prefixes, as I am not sure it's seen as a requirement -- happy to update depending on feedback).",
    "body": "Thanks @practicalswift, @hebasto and @harding! Excellent feedback, all added to the changes (except commit message prefixes, as I am not sure it's seen as a requirement -- happy to update depending on feedback).",
    "reactions": {
      "url": "https://api.github.com/repos/bitcoin/bitcoin/issues/comments/657179533/reactions",
      "total_count": 0,
      "+1": 0,
      "-1": 0,
      "laugh": 0,
      "hooray": 0,
      "confused": 0,
      "heart": 0,
      "rocket": 0,
      "eyes": 0
    },
    "performed_via_github_app": null
  },
  {
    "url": "https://api.github.com/repos/bitcoin/bitcoin/issues/comments/657726754",
    "html_url": "https://github.com/bitcoin/bitcoin/pull/19494#issuecomment-657726754",
    "issue_url": "https://api.github.com/repos/bitcoin/bitcoin/issues/19494",
    "id": 657726754,
    "node_id": "MDEyOklzc3VlQ29tbWVudDY1NzcyNjc1NA==",
    "user": {
      "login": "harding",
      "id": 61096,
      "node_id": "MDQ6VXNlcjYxMDk2",
      "avatar_url": "https://avatars.githubusercontent.com/u/61096?v=4",
      "gravatar_id": "",
      "url": "https://api.github.com/users/harding",
      "html_url": "https://github.com/harding",
      "followers_url": "https://api.github.com/users/harding/followers",
      "following_url": "https://api.github.com/users/harding/following{/other_user}",
      "gists_url": "https://api.github.com/users/harding/gists{/gist_id}",
      "starred_url": "https://api.github.com/users/harding/starred{/owner}{/repo}",
      "subscriptions_url": "https://api.github.com/users/harding/subscriptions",
      "organizations_url": "https://api.github.com/users/harding/orgs",
      "repos_url": "https://api.github.com/users/harding/repos",
      "events_url": "https://api.github.com/users/harding/events{/privacy}",
      "received_events_url": "https://api.github.com/users/harding/received_events",
      "type": "User",
      "site_admin": false
    },
    "created_at": "2020-07-13T18:43:12Z",
    "updated_at": "2020-07-13T18:43:12Z",
    "author_association": "CONTRIBUTOR",
    "body_html": "<p dir=\"auto\">ACK <a class=\"commit-link\" data-hovercard-type=\"commit\" data-hovercard-url=\"https://github.com/bitcoin/bitcoin/commit/b03697b68e24bea7a177f84954c93691450d5638/hovercard\" href=\"https://github.com/bitcoin/bitcoin/commit/b03697b68e24bea7a177f84954c93691450d5638\"><tt>b03697b</tt></a> Locally reviewed the word diff.</p>",
    "body_text": "ACK b03697b Locally reviewed the word diff.",
    "body": "ACK b03697b68e24bea7a177f84954c93691450d5638 Locally reviewed the word diff.",
    "reactions": {
      "url": "https://api.github.com/repos/bitcoin/bitcoin/issues/comments/657726754/reactions",
      "total_count": 0,
      "+1": 0,
      "-1": 0,
      "laugh": 0,
      "hooray": 0,
      "confused": 0,
      "heart": 0,
      "rocket": 0,
      "eyes": 0
    },
    "performed_via_github_app": null
  },
  {
    "url": "https://api.github.com/repos/bitcoin/bitcoin/issues/comments/657737609",
    "html_url": "https://github.com/bitcoin/bitcoin/pull/19494#issuecomment-657737609",
    "issue_url": "https://api.github.com/repos/bitcoin/bitcoin/issues/19494",
    "id": 657737609,
    "node_id": "MDEyOklzc3VlQ29tbWVudDY1NzczNzYwOQ==",
    "user": {
      "login": "maflcko",
      "id": 6399679,
      "node_id": "MDQ6VXNlcjYzOTk2Nzk=",
      "avatar_url": "https://avatars.githubusercontent.com/u/6399679?v=4",
      "gravatar_id": "",
      "url": "https://api.github.com/users/maflcko",
      "html_url": "https://github.com/maflcko",
      "followers_url": "https://api.github.com/users/maflcko/followers",
      "following_url": "https://api.github.com/users/maflcko/following{/other_user}",
      "gists_url": "https://api.github.com/users/maflcko/gists{/gist_id}",
      "starred_url": "https://api.github.com/users/maflcko/starred{/owner}{/repo}",
      "subscriptions_url": "https://api.github.com/users/maflcko/subscriptions",
      "organizations_url": "https://api.github.com/users/maflcko/orgs",
      "repos_url": "https://api.github.com/users/maflcko/repos",
      "events_url": "https://api.github.com/users/maflcko/events{/privacy}",
      "received_events_url": "https://api.github.com/users/maflcko/received_events",
      "type": "User",
      "site_admin": false
    },
    "created_at": "2020-07-13T19:06:07Z",
    "updated_at": "2020-07-13T19:06:07Z",
    "author_association": "MEMBER",
    "body_html": "<p dir=\"auto\">ACK <a class=\"commit-link\" data-hovercard-type=\"commit\" data-hovercard-url=\"https://github.com/bitcoin/bitcoin/commit/b03697b68e24bea7a177f84954c93691450d5638/hovercard\" href=\"https://github.com/bitcoin/bitcoin/commit/b03697b68e24bea7a177f84954c93691450d5638\"><tt>b03697b</tt></a> 🚌</p>\n<details><summary>Show signature and timestamp</summary>\n<p dir=\"auto\">Signature:</p>\n<div class=\"snippet-clipboard-content notranslate position-relative overflow-auto\" data-snippet-clipboard-copy-content=\"-----BEGIN PGP SIGNED MESSAGE-----\nHash: SHA512\n\nACK b03697b68e24bea7a177f84954c93691450d5638 🚌\n-----BEGIN PGP SIGNATURE-----\n\niQGzBAEBCgAdFiEE+rVPoUahrI9sLGYTzit1aX5ppUgFAlwqrYAACgkQzit1aX5p\npUjiAwwArYzmdxwSe30IGTcmetpjGOqS+qwyh6D4q4CZaJRYWtoGqRdf/4/6+vr2\nw7mt+TeoMc26VH3WFbyQwlZ9ybyJ4FtiVLigbqcymIBJDCTS3lrF6JpQAsgwDAj7\nfH8qeI7/EcxcAnixLy9iVEFcFeUlGxzhMzzUcoJIB+xSg1g9oBtFxGw51HrFv4dy\nIvFJY6ROtiuh8LwsivBumjGktt6KZRvzGnIcKDLdu2vEKXH6Y7pItlETDcHUH6Sr\n0mWHLqFZfM8UKhtSGlgOo5aauLdTbC+FUmUvz8G5ch6YNGONdBYXcxiFyhn+U5r/\nTmNBIRmnwmqh0FOYzPVOsEDq4DM48plZFphDh3t+LC5K4Qdf0nNwfkFTsy4MfJsN\n5KlTl5r1O+2EkSVf89wj5kCoaszZHJP8rM3b+JkaIURQ9QQT266SsdY/sBWoqhAb\nOHK8ndQV3q9pJ2C4gjUi9SiIzp7KEg1hnNRxm/jl6j3/0AVvJAcE+wpMMoK1fvGY\nVLUE/uPA\n=A2g7\n-----END PGP SIGNATURE-----\"><pre class=\"notranslate\"><code class=\"notranslate\">-----BEGIN PGP SIGNED MESSAGE-----\nHash: SHA512\n\nACK b03697b68e24bea7a177f84954c93691450d5638 🚌\n-----BEGIN PGP SIGNATURE-----\n\niQGzBAEBCgAdFiEE+rVPoUahrI9sLGYTzit1aX5ppUgFAlwqrYAACgkQzit1aX5p\npUjiAwwArYzmdxwSe30IGTcmetpjGOqS+qwyh6D4q4CZaJRYWtoGqRdf/4/6+vr2\nw7mt+TeoMc26VH3WFbyQwlZ9ybyJ4FtiVLigbqcymIBJDCTS3lrF6JpQAsgwDAj7\nfH8qeI7/EcxcAnixLy9iVEFcFeUlGxzhMzzUcoJIB+xSg1g9oBtFxGw51HrFv4dy\nIvFJY6ROtiuh8LwsivBumjGktt6KZRvzGnIcKDLdu2vEKXH6Y7pItlETDcHUH6Sr\n0mWHLqFZfM8UKhtSGlgOo5aauLdTbC+FUmUvz8G5ch6YNGONdBYXcxiFyhn+U5r/\nTmNBIRmnwmqh0FOYzPVOsEDq4DM48plZFphDh3t+LC5K4Qdf0nNwfkFTsy4MfJsN\n5KlTl5r1O+2EkSVf89wj5kCoaszZHJP8rM3b+JkaIURQ9QQT266SsdY/sBWoqhAb\nOHK8ndQV3q9pJ2C4gjUi9SiIzp7KEg1hnNRxm/jl6j3/0AVvJAcE+wpMMoK1fvGY\nVLUE/uPA\n=A2g7\n-----END PGP SIGNATURE-----\n</code></pre></div>\n<p dir=\"auto\"><a href=\"https://opentimestamps.org/info/?004f70656e54696d657374616d7073000050726f6f6600bf89e2e884e892940108e10175f73b1b900e2608a1f748db725df303ef08fffac41b83511625d6971544f010dfb9a972c5951f1f0d90378229e35f7808fff01072a99f04c71843fa0fe9b5099dbaaf8f08f1045f0cb08df0084d58bdecd93efe950083dfe30d2ef90c8e232268747470733a2f2f6274632e63616c656e6461722e636174616c6c6178792e636f6dfff010a27ab0a0876bfac1d3598267a02b72dd08f1045f0cb08ff008e36773baab83e9880083dfe30d2ef90c8e2e2d68747470733a2f2f616c6963652e6274632e63616c656e6461722e6f70656e74696d657374616d70732e6f7267fff010cd3666e19c2a9cd1c4008816b158488208f1045f0cb090f0080669affe00b1abe30083dfe30d2ef90c8e2c2b68747470733a2f2f626f622e6274632e63616c656e6461722e6f70656e74696d657374616d70732e6f7267f010eed2136ad0c4a22cb531332bdc037cb608f1045f0cb08df008d8e38a352d11130e0083dfe30d2ef90c8e292868747470733a2f2f66696e6e65792e63616c656e6461722e657465726e69747977616c6c2e636f6d\" rel=\"nofollow\">Timestamp of file with hash <code class=\"notranslate\">e10175f73b1b900e2608a1f748db725df303ef08fffac41b83511625d6971544  -</code></a></p>\n</details>",
    "body_text": "ACK b03697b 🚌\nShow signature and timestamp\nSignature:\n-----BEGIN PGP SIGNED MESSAGE-----\nHash: SHA512\n\nACK b03697b68e24bea7a177f84954c93691450d5638 🚌\n-----BEGIN PGP SIGNATURE-----\n\niQGzBAEBCgAdFiEE+rVPoUahrI9sLGYTzit1aX5ppUgFAlwqrYAACgkQzit1aX5p\npUjiAwwArYzmdxwSe30IGTcmetpjGOqS+qwyh6D4q4CZaJRYWtoGqRdf/4/6+vr2\nw7mt+TeoMc26VH3WFbyQwlZ9ybyJ4FtiVLigbqcymIBJDCTS3lrF6JpQAsgwDAj7\nfH8qeI7/EcxcAnixLy9iVEFcFeUlGxzhMzzUcoJIB+xSg1g9oBtFxGw51HrFv4dy\nIvFJY6ROtiuh8LwsivBumjGktt6KZRvzGnIcKDLdu2vEKXH6Y7pItlETDcHUH6Sr\n0mWHLqFZfM8UKhtSGlgOo5aauLdTbC+FUmUvz8G5ch6YNGONdBYXcxiFyhn+U5r/\nTmNBIRmnwmqh0FOYzPVOsEDq4DM48plZFphDh3t+LC5K4Qdf0nNwfkFTsy4MfJsN\n5KlTl5r1O+2EkSVf89wj5kCoaszZHJP8rM3b+JkaIURQ9QQT266SsdY/sBWoqhAb\nOHK8ndQV3q9pJ2C4gjUi9SiIzp7KEg1hnNRxm/jl6j3/0AVvJAcE+wpMMoK1fvGY\nVLUE/uPA\n=A2g7\n-----END PGP SIGNATURE-----\n\nTimestamp of file with hash e10175f73b1b900e2608a1f748db725df303ef08fffac41b83511625d6971544  -",
    "body": "ACK b03697b68e24bea7a177f84954c93691450d5638 🚌\r\n\r\n<details><summary>Show signature and timestamp</summary>\r\n\r\nSignature:\r\n\r\n```\r\n-----BEGIN PGP SIGNED MESSAGE-----\r\nHash: SHA512\r\n\r\nACK b03697b68e24bea7a177f84954c93691450d5638 🚌\r\n-----BEGIN PGP SIGNATURE-----\r\n\r\niQGzBAEBCgAdFiEE+rVPoUahrI9sLGYTzit1aX5ppUgFAlwqrYAACgkQzit1aX5p\r\npUjiAwwArYzmdxwSe30IGTcmetpjGOqS+qwyh6D4q4CZaJRYWtoGqRdf/4/6+vr2\r\nw7mt+TeoMc26VH3WFbyQwlZ9ybyJ4FtiVLigbqcymIBJDCTS3lrF6JpQAsgwDAj7\r\nfH8qeI7/EcxcAnixLy9iVEFcFeUlGxzhMzzUcoJIB+xSg1g9oBtFxGw51HrFv4dy\r\nIvFJY6ROtiuh8LwsivBumjGktt6KZRvzGnIcKDLdu2vEKXH6Y7pItlETDcHUH6Sr\r\n0mWHLqFZfM8UKhtSGlgOo5aauLdTbC+FUmUvz8G5ch6YNGONdBYXcxiFyhn+U5r/\r\nTmNBIRmnwmqh0FOYzPVOsEDq4DM48plZFphDh3t+LC5K4Qdf0nNwfkFTsy4MfJsN\r\n5KlTl5r1O+2EkSVf89wj5kCoaszZHJP8rM3b+JkaIURQ9QQT266SsdY/sBWoqhAb\r\nOHK8ndQV3q9pJ2C4gjUi9SiIzp7KEg1hnNRxm/jl6j3/0AVvJAcE+wpMMoK1fvGY\r\nVLUE/uPA\r\n=A2g7\r\n-----END PGP SIGNATURE-----\r\n```\r\n\r\n[Timestamp of file with hash `e10175f73b1b900e2608a1f748db725df303ef08fffac41b83511625d6971544  -`](https://opentimestamps.org/info/?004f70656e54696d657374616d7073000050726f6f6600bf89e2e884e892940108e10175f73b1b900e2608a1f748db725df303ef08fffac41b83511625d6971544f010dfb9a972c5951f1f0d90378229e35f7808fff01072a99f04c71843fa0fe9b5099dbaaf8f08f1045f0cb08df0084d58bdecd93efe950083dfe30d2ef90c8e232268747470733a2f2f6274632e63616c656e6461722e636174616c6c6178792e636f6dfff010a27ab0a0876bfac1d3598267a02b72dd08f1045f0cb08ff008e36773baab83e9880083dfe30d2ef90c8e2e2d68747470733a2f2f616c6963652e6274632e63616c656e6461722e6f70656e74696d657374616d70732e6f7267fff010cd3666e19c2a9cd1c4008816b158488208f1045f0cb090f0080669affe00b1abe30083dfe30d2ef90c8e2c2b68747470733a2f2f626f622e6274632e63616c656e6461722e6f70656e74696d657374616d70732e6f7267f010eed2136ad0c4a22cb531332bdc037cb608f1045f0cb08df008d8e38a352d11130e0083dfe30d2ef90c8e292868747470733a2f2f66696e6e65792e63616c656e6461722e657465726e69747977616c6c2e636f6d)\r\n\r\n</details>\r\n",
    "reactions": {
      "url": "https://api.github.com/repos/bitcoin/bitcoin/issues/comments/657737609/reactions",
      "total_count": 0,
      "+1": 0,
      "-1": 0,
      "laugh": 0,
      "hooray": 0,
      "confused": 0,
      "heart": 0,
      "rocket": 0,
      "eyes": 0
    },
    "performed_via_github_app": null
  },
  {
    "url": "https://api.github.com/repos/bitcoin/bitcoin/issues/comments/657857012",
    "html_url": "https://github.com/bitcoin/bitcoin/pull/19494#issuecomment-657857012",
    "issue_url": "https://api.github.com/repos/bitcoin/bitcoin/issues/19494",
    "id": 657857012,
    "node_id": "MDEyOklzc3VlQ29tbWVudDY1Nzg1NzAxMg==",
    "user": {
      "login": "practicalswift",
      "id": 7826565,
      "node_id": "MDQ6VXNlcjc4MjY1NjU=",
      "avatar_url": "https://avatars.githubusercontent.com/u/7826565?v=4",
      "gravatar_id": "",
      "url": "https://api.github.com/users/practicalswift",
      "html_url": "https://github.com/practicalswift",
      "followers_url": "https://api.github.com/users/practicalswift/followers",
      "following_url": "https://api.github.com/users/practicalswift/following{/other_user}",
      "gists_url": "https://api.github.com/users/practicalswift/gists{/gist_id}",
      "starred_url": "https://api.github.com/users/practicalswift/starred{/owner}{/repo}",
      "subscriptions_url": "https://api.github.com/users/practicalswift/subscriptions",
      "organizations_url": "https://api.github.com/users/practicalswift/orgs",
      "repos_url": "https://api.github.com/users/practicalswift/repos",
      "events_url": "https://api.github.com/users/practicalswift/events{/privacy}",
      "received_events_url": "https://api.github.com/users/practicalswift/received_events",
      "type": "User",
      "site_admin": false
    },
    "created_at": "2020-07-13T23:08:54Z",
    "updated_at": "2020-07-13T23:08:54Z",
    "author_association": "CONTRIBUTOR",
    "body_html": "<p dir=\"auto\">ACK <a class=\"commit-link\" data-hovercard-type=\"commit\" data-hovercard-url=\"https://github.com/bitcoin/bitcoin/commit/b03697b68e24bea7a177f84954c93691450d5638/hovercard\" href=\"https://github.com/bitcoin/bitcoin/commit/b03697b68e24bea7a177f84954c93691450d5638\"><tt>b03697b</tt></a></p>",
    "body_text": "ACK b03697b",
    "body": "ACK b03697b68e24bea7a177f84954c93691450d5638",
    "reactions": {
      "url": "https://api.github.com/repos/bitcoin/bitcoin/issues/comments/657857012/reactions",
      "total_count": 0,
      "+1": 0,
      "-1": 0,
      "laugh": 0,
      "hooray": 0,
      "confused": 0,
      "heart": 0,
      "rocket": 0,
      "eyes": 0
    },
    "performed_via_github_app": null
  }
]
