[
  {
    "url": "https://api.github.com/repos/bitcoin/bitcoin/issues/comments/921148152",
    "html_url": "https://github.com/bitcoin/bitcoin/pull/22291#issuecomment-921148152",
    "issue_url": "https://api.github.com/repos/bitcoin/bitcoin/issues/22291",
    "id": 921148152,
    "node_id": "IC_kwDOABII584255r4",
    "user": {
      "login": "laanwj",
      "id": 126646,
      "node_id": "MDQ6VXNlcjEyNjY0Ng==",
      "avatar_url": "https://avatars.githubusercontent.com/u/126646?v=4",
      "gravatar_id": "",
      "url": "https://api.github.com/users/laanwj",
      "html_url": "https://github.com/laanwj",
      "followers_url": "https://api.github.com/users/laanwj/followers",
      "following_url": "https://api.github.com/users/laanwj/following{/other_user}",
      "gists_url": "https://api.github.com/users/laanwj/gists{/gist_id}",
      "starred_url": "https://api.github.com/users/laanwj/starred{/owner}{/repo}",
      "subscriptions_url": "https://api.github.com/users/laanwj/subscriptions",
      "organizations_url": "https://api.github.com/users/laanwj/orgs",
      "repos_url": "https://api.github.com/users/laanwj/repos",
      "events_url": "https://api.github.com/users/laanwj/events{/privacy}",
      "received_events_url": "https://api.github.com/users/laanwj/received_events",
      "type": "User",
      "site_admin": false
    },
    "created_at": "2021-09-16T18:36:24Z",
    "updated_at": "2021-09-16T18:36:24Z",
    "author_association": "MEMBER",
    "body_html": "<p dir=\"auto\">~0 ACK <a class=\"commit-link\" data-hovercard-type=\"commit\" data-hovercard-url=\"https://github.com/bitcoin/bitcoin/commit/39cb974407ef749b2a65c60ffc1178e83b3feb53/hovercard\" href=\"https://github.com/bitcoin/bitcoin/commit/39cb974407ef749b2a65c60ffc1178e83b3feb53\"><tt>39cb974</tt></a><br>\nThis comment is correct, however I don't know what else one would expect when passing an invalid range into this function.</p>",
    "body_text": "~0 ACK 39cb974\nThis comment is correct, however I don't know what else one would expect when passing an invalid range into this function.",
    "body": "~0 ACK 39cb974407ef749b2a65c60ffc1178e83b3feb53\r\nThis comment is correct, however I don't know what else one would expect when passing an invalid range into this function. ",
    "reactions": {
      "url": "https://api.github.com/repos/bitcoin/bitcoin/issues/comments/921148152/reactions",
      "total_count": 0,
      "+1": 0,
      "-1": 0,
      "laugh": 0,
      "hooray": 0,
      "confused": 0,
      "heart": 0,
      "rocket": 0,
      "eyes": 0
    },
    "performed_via_github_app": null
  },
  {
    "url": "https://api.github.com/repos/bitcoin/bitcoin/issues/comments/946893943",
    "html_url": "https://github.com/bitcoin/bitcoin/pull/22291#issuecomment-946893943",
    "issue_url": "https://api.github.com/repos/bitcoin/bitcoin/issues/22291",
    "id": 946893943,
    "node_id": "IC_kwDOABII5844cHR3",
    "user": {
      "login": "ViralTaco",
      "id": 7462994,
      "node_id": "MDQ6VXNlcjc0NjI5OTQ=",
      "avatar_url": "https://avatars.githubusercontent.com/u/7462994?v=4",
      "gravatar_id": "",
      "url": "https://api.github.com/users/ViralTaco",
      "html_url": "https://github.com/ViralTaco",
      "followers_url": "https://api.github.com/users/ViralTaco/followers",
      "following_url": "https://api.github.com/users/ViralTaco/following{/other_user}",
      "gists_url": "https://api.github.com/users/ViralTaco/gists{/gist_id}",
      "starred_url": "https://api.github.com/users/ViralTaco/starred{/owner}{/repo}",
      "subscriptions_url": "https://api.github.com/users/ViralTaco/subscriptions",
      "organizations_url": "https://api.github.com/users/ViralTaco/orgs",
      "repos_url": "https://api.github.com/users/ViralTaco/repos",
      "events_url": "https://api.github.com/users/ViralTaco/events{/privacy}",
      "received_events_url": "https://api.github.com/users/ViralTaco/received_events",
      "type": "User",
      "site_admin": false
    },
    "created_at": "2021-10-19T16:27:49Z",
    "updated_at": "2021-10-19T16:27:49Z",
    "author_association": "NONE",
    "body_html": "<blockquote>\n<p dir=\"auto\">I don't know what else one would expect when passing an invalid range into this function.</p>\n</blockquote>\n<p dir=\"auto\">Defined behavior?</p>",
    "body_text": "I don't know what else one would expect when passing an invalid range into this function.\n\nDefined behavior?",
    "body": "> I don't know what else one would expect when passing an invalid range into this function.\r\n\r\nDefined behavior? ",
    "reactions": {
      "url": "https://api.github.com/repos/bitcoin/bitcoin/issues/comments/946893943/reactions",
      "total_count": 0,
      "+1": 0,
      "-1": 0,
      "laugh": 0,
      "hooray": 0,
      "confused": 0,
      "heart": 0,
      "rocket": 0,
      "eyes": 0
    },
    "performed_via_github_app": null
  },
  {
    "url": "https://api.github.com/repos/bitcoin/bitcoin/issues/comments/947412052",
    "html_url": "https://github.com/bitcoin/bitcoin/pull/22291#issuecomment-947412052",
    "issue_url": "https://api.github.com/repos/bitcoin/bitcoin/issues/22291",
    "id": 947412052,
    "node_id": "IC_kwDOABII5844eFxU",
    "user": {
      "login": "maflcko",
      "id": 6399679,
      "node_id": "MDQ6VXNlcjYzOTk2Nzk=",
      "avatar_url": "https://avatars.githubusercontent.com/u/6399679?v=4",
      "gravatar_id": "",
      "url": "https://api.github.com/users/maflcko",
      "html_url": "https://github.com/maflcko",
      "followers_url": "https://api.github.com/users/maflcko/followers",
      "following_url": "https://api.github.com/users/maflcko/following{/other_user}",
      "gists_url": "https://api.github.com/users/maflcko/gists{/gist_id}",
      "starred_url": "https://api.github.com/users/maflcko/starred{/owner}{/repo}",
      "subscriptions_url": "https://api.github.com/users/maflcko/subscriptions",
      "organizations_url": "https://api.github.com/users/maflcko/orgs",
      "repos_url": "https://api.github.com/users/maflcko/repos",
      "events_url": "https://api.github.com/users/maflcko/events{/privacy}",
      "received_events_url": "https://api.github.com/users/maflcko/received_events",
      "type": "User",
      "site_admin": false
    },
    "created_at": "2021-10-20T07:44:29Z",
    "updated_at": "2021-10-20T07:44:29Z",
    "author_association": "MEMBER",
    "body_html": "<p dir=\"auto\">The docs say that this is UB, so why would anyone assume the opposite?</p>\n<p dir=\"auto\"><a href=\"https://en.cppreference.com/w/cpp/container/span/span\" rel=\"nofollow\">https://en.cppreference.com/w/cpp/container/span/span</a></p>\n<blockquote>\n<p dir=\"auto\">The behavior is undefined if [first, first + count) is not a valid range, if It does not actually model contiguous_iterator, or if extent != std::dynamic_extent &amp;&amp; count != extent.</p>\n</blockquote>",
    "body_text": "The docs say that this is UB, so why would anyone assume the opposite?\nhttps://en.cppreference.com/w/cpp/container/span/span\n\nThe behavior is undefined if [first, first + count) is not a valid range, if It does not actually model contiguous_iterator, or if extent != std::dynamic_extent && count != extent.",
    "body": "The docs say that this is UB, so why would anyone assume the opposite?\r\n\r\nhttps://en.cppreference.com/w/cpp/container/span/span\r\n\r\n>   The behavior is undefined if [first, first + count) is not a valid range, if It does not actually model contiguous_iterator, or if extent != std::dynamic_extent && count != extent. ",
    "reactions": {
      "url": "https://api.github.com/repos/bitcoin/bitcoin/issues/comments/947412052/reactions",
      "total_count": 0,
      "+1": 0,
      "-1": 0,
      "laugh": 0,
      "hooray": 0,
      "confused": 0,
      "heart": 0,
      "rocket": 0,
      "eyes": 0
    },
    "performed_via_github_app": null
  },
  {
    "url": "https://api.github.com/repos/bitcoin/bitcoin/issues/comments/950251934",
    "html_url": "https://github.com/bitcoin/bitcoin/pull/22291#issuecomment-950251934",
    "issue_url": "https://api.github.com/repos/bitcoin/bitcoin/issues/22291",
    "id": 950251934,
    "node_id": "IC_kwDOABII5844o7Ge",
    "user": {
      "login": "ViralTaco",
      "id": 7462994,
      "node_id": "MDQ6VXNlcjc0NjI5OTQ=",
      "avatar_url": "https://avatars.githubusercontent.com/u/7462994?v=4",
      "gravatar_id": "",
      "url": "https://api.github.com/users/ViralTaco",
      "html_url": "https://github.com/ViralTaco",
      "followers_url": "https://api.github.com/users/ViralTaco/followers",
      "following_url": "https://api.github.com/users/ViralTaco/following{/other_user}",
      "gists_url": "https://api.github.com/users/ViralTaco/gists{/gist_id}",
      "starred_url": "https://api.github.com/users/ViralTaco/starred{/owner}{/repo}",
      "subscriptions_url": "https://api.github.com/users/ViralTaco/subscriptions",
      "organizations_url": "https://api.github.com/users/ViralTaco/orgs",
      "repos_url": "https://api.github.com/users/ViralTaco/repos",
      "events_url": "https://api.github.com/users/ViralTaco/events{/privacy}",
      "received_events_url": "https://api.github.com/users/ViralTaco/received_events",
      "type": "User",
      "site_admin": false
    },
    "created_at": "2021-10-24T03:09:08Z",
    "updated_at": "2021-10-24T03:09:08Z",
    "author_association": "NONE",
    "body_html": "<blockquote>\n<p dir=\"auto\">The docs say that this is UB, so why would anyone assume the opposite?</p>\n<p dir=\"auto\"><a href=\"https://en.cppreference.com/w/cpp/container/span/span\" rel=\"nofollow\">https://en.cppreference.com/w/cpp/container/span/span</a></p>\n<blockquote>\n<p dir=\"auto\">The behavior is undefined if [first, first + count) is not a valid range, if It does not actually model contiguous_iterator, or if extent != std::dynamic_extent &amp;&amp; count != extent.</p>\n</blockquote>\n</blockquote>\n<blockquote>\n<p dir=\"auto\">Following issue: <a class=\"issue-link js-issue-link\" data-error-text=\"Failed to load title\" data-id=\"925613748\" data-permission-text=\"Title is private\" data-url=\"https://github.com/bitcoin/bitcoin/issues/22289\" data-hovercard-type=\"issue\" data-hovercard-url=\"/bitcoin/bitcoin/issues/22289/hovercard\" href=\"https://github.com/bitcoin/bitcoin/issues/22289\">#22289</a></p>\n</blockquote>",
    "body_text": "The docs say that this is UB, so why would anyone assume the opposite?\nhttps://en.cppreference.com/w/cpp/container/span/span\n\nThe behavior is undefined if [first, first + count) is not a valid range, if It does not actually model contiguous_iterator, or if extent != std::dynamic_extent && count != extent.\n\n\n\nFollowing issue: #22289",
    "body": "> The docs say that this is UB, so why would anyone assume the opposite?\r\n> \r\n> https://en.cppreference.com/w/cpp/container/span/span\r\n> \r\n> > The behavior is undefined if [first, first + count) is not a valid range, if It does not actually model contiguous_iterator, or if extent != std::dynamic_extent && count != extent.\r\n\r\n\r\n> Following issue: #22289\r\n\r\n",
    "reactions": {
      "url": "https://api.github.com/repos/bitcoin/bitcoin/issues/comments/950251934/reactions",
      "total_count": 0,
      "+1": 0,
      "-1": 0,
      "laugh": 0,
      "hooray": 0,
      "confused": 0,
      "heart": 0,
      "rocket": 0,
      "eyes": 0
    },
    "performed_via_github_app": null
  },
  {
    "url": "https://api.github.com/repos/bitcoin/bitcoin/issues/comments/1077760553",
    "html_url": "https://github.com/bitcoin/bitcoin/pull/22291#issuecomment-1077760553",
    "issue_url": "https://api.github.com/repos/bitcoin/bitcoin/issues/22291",
    "id": 1077760553,
    "node_id": "IC_kwDOABII585APVIp",
    "user": {
      "login": "fanquake",
      "id": 863730,
      "node_id": "MDQ6VXNlcjg2MzczMA==",
      "avatar_url": "https://avatars.githubusercontent.com/u/863730?v=4",
      "gravatar_id": "",
      "url": "https://api.github.com/users/fanquake",
      "html_url": "https://github.com/fanquake",
      "followers_url": "https://api.github.com/users/fanquake/followers",
      "following_url": "https://api.github.com/users/fanquake/following{/other_user}",
      "gists_url": "https://api.github.com/users/fanquake/gists{/gist_id}",
      "starred_url": "https://api.github.com/users/fanquake/starred{/owner}{/repo}",
      "subscriptions_url": "https://api.github.com/users/fanquake/subscriptions",
      "organizations_url": "https://api.github.com/users/fanquake/orgs",
      "repos_url": "https://api.github.com/users/fanquake/repos",
      "events_url": "https://api.github.com/users/fanquake/events{/privacy}",
      "received_events_url": "https://api.github.com/users/fanquake/received_events",
      "type": "User",
      "site_admin": false
    },
    "created_at": "2022-03-24T15:32:38Z",
    "updated_at": "2022-03-24T15:32:38Z",
    "author_association": "MEMBER",
    "body_html": "<p dir=\"auto\">Going to close this for now, given <a class=\"issue-link js-issue-link\" data-error-text=\"Failed to load title\" data-id=\"925613748\" data-permission-text=\"Title is private\" data-url=\"https://github.com/bitcoin/bitcoin/issues/22289\" data-hovercard-type=\"issue\" data-hovercard-url=\"/bitcoin/bitcoin/issues/22289/hovercard\" href=\"https://github.com/bitcoin/bitcoin/issues/22289\">#22289</a> is also closed.</p>",
    "body_text": "Going to close this for now, given #22289 is also closed.",
    "body": "Going to close this for now, given #22289 is also closed.",
    "reactions": {
      "url": "https://api.github.com/repos/bitcoin/bitcoin/issues/comments/1077760553/reactions",
      "total_count": 0,
      "+1": 0,
      "-1": 0,
      "laugh": 0,
      "hooray": 0,
      "confused": 0,
      "heart": 0,
      "rocket": 0,
      "eyes": 0
    },
    "performed_via_github_app": null
  }
]
