{
  "url": "https://api.github.com/repos/bitcoin/bitcoin/issues/11572",
  "repository_url": "https://api.github.com/repos/bitcoin/bitcoin",
  "labels_url": "https://api.github.com/repos/bitcoin/bitcoin/issues/11572/labels{/name}",
  "comments_url": "https://api.github.com/repos/bitcoin/bitcoin/issues/11572/comments",
  "events_url": "https://api.github.com/repos/bitcoin/bitcoin/issues/11572/events",
  "html_url": "https://github.com/bitcoin/bitcoin/pull/11572",
  "id": 269365905,
  "node_id": "MDExOlB1bGxSZXF1ZXN0MTQ5MzY0OTA1",
  "number": 11572,
  "title": "Merge pull request #1 from bitcoin/master",
  "user": {
    "login": "csdnnet",
    "id": 1964311,
    "node_id": "MDQ6VXNlcjE5NjQzMTE=",
    "avatar_url": "https://avatars.githubusercontent.com/u/1964311?v=4",
    "gravatar_id": "",
    "url": "https://api.github.com/users/csdnnet",
    "html_url": "https://github.com/csdnnet",
    "followers_url": "https://api.github.com/users/csdnnet/followers",
    "following_url": "https://api.github.com/users/csdnnet/following{/other_user}",
    "gists_url": "https://api.github.com/users/csdnnet/gists{/gist_id}",
    "starred_url": "https://api.github.com/users/csdnnet/starred{/owner}{/repo}",
    "subscriptions_url": "https://api.github.com/users/csdnnet/subscriptions",
    "organizations_url": "https://api.github.com/users/csdnnet/orgs",
    "repos_url": "https://api.github.com/users/csdnnet/repos",
    "events_url": "https://api.github.com/users/csdnnet/events{/privacy}",
    "received_events_url": "https://api.github.com/users/csdnnet/received_events",
    "type": "User",
    "site_admin": false
  },
  "labels": [

  ],
  "state": "closed",
  "locked": true,
  "assignee": null,
  "assignees": [

  ],
  "milestone": null,
  "comments": 0,
  "created_at": "2017-10-29T02:35:31Z",
  "updated_at": "2021-09-08T11:50:56Z",
  "closed_at": "2017-10-29T02:35:54Z",
  "author_association": "NONE",
  "active_lock_reason": "resolved",
  "draft": false,
  "pull_request": {
    "url": "https://api.github.com/repos/bitcoin/bitcoin/pulls/11572",
    "html_url": "https://github.com/bitcoin/bitcoin/pull/11572",
    "diff_url": "https://github.com/bitcoin/bitcoin/pull/11572.diff",
    "patch_url": "https://github.com/bitcoin/bitcoin/pull/11572.patch",
    "merged_at": null
  },
  "body_html": "<p dir=\"auto\">fresh</p>",
  "body_text": "fresh",
  "body": "fresh",
  "closed_by": {
    "login": "fanquake",
    "id": 863730,
    "node_id": "MDQ6VXNlcjg2MzczMA==",
    "avatar_url": "https://avatars.githubusercontent.com/u/863730?v=4",
    "gravatar_id": "",
    "url": "https://api.github.com/users/fanquake",
    "html_url": "https://github.com/fanquake",
    "followers_url": "https://api.github.com/users/fanquake/followers",
    "following_url": "https://api.github.com/users/fanquake/following{/other_user}",
    "gists_url": "https://api.github.com/users/fanquake/gists{/gist_id}",
    "starred_url": "https://api.github.com/users/fanquake/starred{/owner}{/repo}",
    "subscriptions_url": "https://api.github.com/users/fanquake/subscriptions",
    "organizations_url": "https://api.github.com/users/fanquake/orgs",
    "repos_url": "https://api.github.com/users/fanquake/repos",
    "events_url": "https://api.github.com/users/fanquake/events{/privacy}",
    "received_events_url": "https://api.github.com/users/fanquake/received_events",
    "type": "User",
    "site_admin": false
  },
  "reactions": {
    "url": "https://api.github.com/repos/bitcoin/bitcoin/issues/11572/reactions",
    "total_count": 0,
    "+1": 0,
    "-1": 0,
    "laugh": 0,
    "hooray": 0,
    "confused": 0,
    "heart": 0,
    "rocket": 0,
    "eyes": 0
  },
  "timeline_url": "https://api.github.com/repos/bitcoin/bitcoin/issues/11572/timeline",
  "performed_via_github_app": null,
  "state_reason": null
}
