[
  {
    "url": "https://api.github.com/repos/bitcoin/bitcoin/issues/comments/458263521",
    "html_url": "https://github.com/bitcoin/bitcoin/issues/15229#issuecomment-458263521",
    "issue_url": "https://api.github.com/repos/bitcoin/bitcoin/issues/15229",
    "id": 458263521,
    "node_id": "MDEyOklzc3VlQ29tbWVudDQ1ODI2MzUyMQ==",
    "user": {
      "login": "promag",
      "id": 3534524,
      "node_id": "MDQ6VXNlcjM1MzQ1MjQ=",
      "avatar_url": "https://avatars.githubusercontent.com/u/3534524?v=4",
      "gravatar_id": "",
      "url": "https://api.github.com/users/promag",
      "html_url": "https://github.com/promag",
      "followers_url": "https://api.github.com/users/promag/followers",
      "following_url": "https://api.github.com/users/promag/following{/other_user}",
      "gists_url": "https://api.github.com/users/promag/gists{/gist_id}",
      "starred_url": "https://api.github.com/users/promag/starred{/owner}{/repo}",
      "subscriptions_url": "https://api.github.com/users/promag/subscriptions",
      "organizations_url": "https://api.github.com/users/promag/orgs",
      "repos_url": "https://api.github.com/users/promag/repos",
      "events_url": "https://api.github.com/users/promag/events{/privacy}",
      "received_events_url": "https://api.github.com/users/promag/received_events",
      "type": "User",
      "site_admin": false
    },
    "created_at": "2019-01-28T19:16:09Z",
    "updated_at": "2019-01-28T19:16:09Z",
    "author_association": "MEMBER",
    "body_html": "<p dir=\"auto\">The first unspent (10btc) was spent in the second transaction.</p>\n<p dir=\"auto\">BTW drop sudo.</p>",
    "body_text": "The first unspent (10btc) was spent in the second transaction.\nBTW drop sudo.",
    "body": "The first unspent (10btc) was spent in the second transaction.\r\n\r\nBTW drop sudo.",
    "reactions": {
      "url": "https://api.github.com/repos/bitcoin/bitcoin/issues/comments/458263521/reactions",
      "total_count": 0,
      "+1": 0,
      "-1": 0,
      "laugh": 0,
      "hooray": 0,
      "confused": 0,
      "heart": 0,
      "rocket": 0,
      "eyes": 0
    },
    "performed_via_github_app": null
  },
  {
    "url": "https://api.github.com/repos/bitcoin/bitcoin/issues/comments/460376799",
    "html_url": "https://github.com/bitcoin/bitcoin/issues/15229#issuecomment-460376799",
    "issue_url": "https://api.github.com/repos/bitcoin/bitcoin/issues/15229",
    "id": 460376799,
    "node_id": "MDEyOklzc3VlQ29tbWVudDQ2MDM3Njc5OQ==",
    "user": {
      "login": "promag",
      "id": 3534524,
      "node_id": "MDQ6VXNlcjM1MzQ1MjQ=",
      "avatar_url": "https://avatars.githubusercontent.com/u/3534524?v=4",
      "gravatar_id": "",
      "url": "https://api.github.com/users/promag",
      "html_url": "https://github.com/promag",
      "followers_url": "https://api.github.com/users/promag/followers",
      "following_url": "https://api.github.com/users/promag/following{/other_user}",
      "gists_url": "https://api.github.com/users/promag/gists{/gist_id}",
      "starred_url": "https://api.github.com/users/promag/starred{/owner}{/repo}",
      "subscriptions_url": "https://api.github.com/users/promag/subscriptions",
      "organizations_url": "https://api.github.com/users/promag/orgs",
      "repos_url": "https://api.github.com/users/promag/repos",
      "events_url": "https://api.github.com/users/promag/events{/privacy}",
      "received_events_url": "https://api.github.com/users/promag/received_events",
      "type": "User",
      "site_admin": false
    },
    "created_at": "2019-02-04T19:22:00Z",
    "updated_at": "2019-02-04T19:22:00Z",
    "author_association": "MEMBER",
    "body_html": "<p dir=\"auto\"><a class=\"user-mention notranslate\" data-hovercard-type=\"user\" data-hovercard-url=\"/users/liuzhijun23/hovercard\" data-octo-click=\"hovercard-link-click\" data-octo-dimensions=\"link_type:self\" href=\"https://github.com/liuzhijun23\">@liuzhijun23</a> can this be closed?</p>",
    "body_text": "@liuzhijun23 can this be closed?",
    "body": "@liuzhijun23 can this be closed?",
    "reactions": {
      "url": "https://api.github.com/repos/bitcoin/bitcoin/issues/comments/460376799/reactions",
      "total_count": 0,
      "+1": 0,
      "-1": 0,
      "laugh": 0,
      "hooray": 0,
      "confused": 0,
      "heart": 0,
      "rocket": 0,
      "eyes": 0
    },
    "performed_via_github_app": null
  }
]
