{
  "url": "https://api.github.com/repos/bitcoin/bitcoin/issues/22457",
  "repository_url": "https://api.github.com/repos/bitcoin/bitcoin",
  "labels_url": "https://api.github.com/repos/bitcoin/bitcoin/issues/22457/labels{/name}",
  "comments_url": "https://api.github.com/repos/bitcoin/bitcoin/issues/22457/comments",
  "events_url": "https://api.github.com/repos/bitcoin/bitcoin/issues/22457/events",
  "html_url": "https://github.com/bitcoin/bitcoin/pull/22457",
  "id": 945351368,
  "node_id": "MDExOlB1bGxSZXF1ZXN0NjkwNjkyNzEw",
  "number": 22457,
  "title": "refactor: Remove unused \"disconnectpool is nullptr\" feature",
  "user": {
    "login": "maflcko",
    "id": 6399679,
    "node_id": "MDQ6VXNlcjYzOTk2Nzk=",
    "avatar_url": "https://avatars.githubusercontent.com/u/6399679?v=4",
    "gravatar_id": "",
    "url": "https://api.github.com/users/maflcko",
    "html_url": "https://github.com/maflcko",
    "followers_url": "https://api.github.com/users/maflcko/followers",
    "following_url": "https://api.github.com/users/maflcko/following{/other_user}",
    "gists_url": "https://api.github.com/users/maflcko/gists{/gist_id}",
    "starred_url": "https://api.github.com/users/maflcko/starred{/owner}{/repo}",
    "subscriptions_url": "https://api.github.com/users/maflcko/subscriptions",
    "organizations_url": "https://api.github.com/users/maflcko/orgs",
    "repos_url": "https://api.github.com/users/maflcko/repos",
    "events_url": "https://api.github.com/users/maflcko/events{/privacy}",
    "received_events_url": "https://api.github.com/users/maflcko/received_events",
    "type": "User",
    "site_admin": false
  },
  "labels": [
    {
      "id": 135961,
      "node_id": "MDU6TGFiZWwxMzU5NjE=",
      "url": "https://api.github.com/repos/bitcoin/bitcoin/labels/Refactoring",
      "name": "Refactoring",
      "color": "E6F6D6",
      "default": false,
      "description": null
    },
    {
      "id": 118379652,
      "node_id": "MDU6TGFiZWwxMTgzNzk2NTI=",
      "url": "https://api.github.com/repos/bitcoin/bitcoin/labels/Validation",
      "name": "Validation",
      "color": "6060aa",
      "default": false,
      "description": null
    }
  ],
  "state": "closed",
  "locked": true,
  "assignee": null,
  "assignees": [

  ],
  "milestone": null,
  "comments": 2,
  "created_at": "2021-07-15T12:56:19Z",
  "updated_at": "2022-08-18T18:32:02Z",
  "closed_at": "2021-07-15T18:27:01Z",
  "author_association": "MEMBER",
  "active_lock_reason": "resolved",
  "draft": false,
  "pull_request": {
    "url": "https://api.github.com/repos/bitcoin/bitcoin/pulls/22457",
    "html_url": "https://github.com/bitcoin/bitcoin/pull/22457",
    "diff_url": "https://github.com/bitcoin/bitcoin/pull/22457.diff",
    "patch_url": "https://github.com/bitcoin/bitcoin/pull/22457.patch",
    "merged_at": null
  },
  "body_html": "<p dir=\"auto\">No need to keep an unused feature. If this is ever needed again, it can be added back trivially.</p>",
  "body_text": "No need to keep an unused feature. If this is ever needed again, it can be added back trivially.",
  "body": "No need to keep an unused feature. If this is ever needed again, it can be added back trivially.",
  "closed_by": {
    "login": "maflcko",
    "id": 6399679,
    "node_id": "MDQ6VXNlcjYzOTk2Nzk=",
    "avatar_url": "https://avatars.githubusercontent.com/u/6399679?v=4",
    "gravatar_id": "",
    "url": "https://api.github.com/users/maflcko",
    "html_url": "https://github.com/maflcko",
    "followers_url": "https://api.github.com/users/maflcko/followers",
    "following_url": "https://api.github.com/users/maflcko/following{/other_user}",
    "gists_url": "https://api.github.com/users/maflcko/gists{/gist_id}",
    "starred_url": "https://api.github.com/users/maflcko/starred{/owner}{/repo}",
    "subscriptions_url": "https://api.github.com/users/maflcko/subscriptions",
    "organizations_url": "https://api.github.com/users/maflcko/orgs",
    "repos_url": "https://api.github.com/users/maflcko/repos",
    "events_url": "https://api.github.com/users/maflcko/events{/privacy}",
    "received_events_url": "https://api.github.com/users/maflcko/received_events",
    "type": "User",
    "site_admin": false
  },
  "reactions": {
    "url": "https://api.github.com/repos/bitcoin/bitcoin/issues/22457/reactions",
    "total_count": 0,
    "+1": 0,
    "-1": 0,
    "laugh": 0,
    "hooray": 0,
    "confused": 0,
    "heart": 0,
    "rocket": 0,
    "eyes": 0
  },
  "timeline_url": "https://api.github.com/repos/bitcoin/bitcoin/issues/22457/timeline",
  "performed_via_github_app": null,
  "state_reason": null
}
