[
  {
    "url": "https://api.github.com/repos/bitcoin/bitcoin/issues/comments/781359350",
    "html_url": "https://github.com/bitcoin/bitcoin/pull/21222#issuecomment-781359350",
    "issue_url": "https://api.github.com/repos/bitcoin/bitcoin/issues/21222",
    "id": 781359350,
    "node_id": "MDEyOklzc3VlQ29tbWVudDc4MTM1OTM1MA==",
    "user": {
      "login": "jnewbery",
      "id": 1063656,
      "node_id": "MDQ6VXNlcjEwNjM2NTY=",
      "avatar_url": "https://avatars.githubusercontent.com/u/1063656?v=4",
      "gravatar_id": "",
      "url": "https://api.github.com/users/jnewbery",
      "html_url": "https://github.com/jnewbery",
      "followers_url": "https://api.github.com/users/jnewbery/followers",
      "following_url": "https://api.github.com/users/jnewbery/following{/other_user}",
      "gists_url": "https://api.github.com/users/jnewbery/gists{/gist_id}",
      "starred_url": "https://api.github.com/users/jnewbery/starred{/owner}{/repo}",
      "subscriptions_url": "https://api.github.com/users/jnewbery/subscriptions",
      "organizations_url": "https://api.github.com/users/jnewbery/orgs",
      "repos_url": "https://api.github.com/users/jnewbery/repos",
      "events_url": "https://api.github.com/users/jnewbery/events{/privacy}",
      "received_events_url": "https://api.github.com/users/jnewbery/received_events",
      "type": "User",
      "site_admin": false
    },
    "created_at": "2021-02-18T13:54:32Z",
    "updated_at": "2021-02-18T13:54:32Z",
    "author_association": "CONTRIBUTOR",
    "body_html": "<p dir=\"auto\">Is there a reason to not just change the <code class=\"notranslate\">return error(...</code> for a <code class=\"notranslate\">LogPrintf(...</code> and return false?</p>",
    "body_text": "Is there a reason to not just change the return error(... for a LogPrintf(... and return false?",
    "body": "Is there a reason to not just change the `return error(...` for a `LogPrintf(...` and return false?",
    "reactions": {
      "url": "https://api.github.com/repos/bitcoin/bitcoin/issues/comments/781359350/reactions",
      "total_count": 0,
      "+1": 0,
      "-1": 0,
      "laugh": 0,
      "hooray": 0,
      "confused": 0,
      "heart": 0,
      "rocket": 0,
      "eyes": 0
    },
    "performed_via_github_app": null
  },
  {
    "url": "https://api.github.com/repos/bitcoin/bitcoin/issues/comments/781372678",
    "html_url": "https://github.com/bitcoin/bitcoin/pull/21222#issuecomment-781372678",
    "issue_url": "https://api.github.com/repos/bitcoin/bitcoin/issues/21222",
    "id": 781372678,
    "node_id": "MDEyOklzc3VlQ29tbWVudDc4MTM3MjY3OA==",
    "user": {
      "login": "maflcko",
      "id": 6399679,
      "node_id": "MDQ6VXNlcjYzOTk2Nzk=",
      "avatar_url": "https://avatars.githubusercontent.com/u/6399679?v=4",
      "gravatar_id": "",
      "url": "https://api.github.com/users/maflcko",
      "html_url": "https://github.com/maflcko",
      "followers_url": "https://api.github.com/users/maflcko/followers",
      "following_url": "https://api.github.com/users/maflcko/following{/other_user}",
      "gists_url": "https://api.github.com/users/maflcko/gists{/gist_id}",
      "starred_url": "https://api.github.com/users/maflcko/starred{/owner}{/repo}",
      "subscriptions_url": "https://api.github.com/users/maflcko/subscriptions",
      "organizations_url": "https://api.github.com/users/maflcko/orgs",
      "repos_url": "https://api.github.com/users/maflcko/repos",
      "events_url": "https://api.github.com/users/maflcko/events{/privacy}",
      "received_events_url": "https://api.github.com/users/maflcko/received_events",
      "type": "User",
      "site_admin": false
    },
    "created_at": "2021-02-18T14:14:49Z",
    "updated_at": "2021-02-18T14:14:49Z",
    "author_association": "MEMBER",
    "body_html": "<p dir=\"auto\">Done (and updated rendered diff in OP)</p>",
    "body_text": "Done (and updated rendered diff in OP)",
    "body": "Done (and updated rendered diff in OP)",
    "reactions": {
      "url": "https://api.github.com/repos/bitcoin/bitcoin/issues/comments/781372678/reactions",
      "total_count": 0,
      "+1": 0,
      "-1": 0,
      "laugh": 0,
      "hooray": 0,
      "confused": 0,
      "heart": 0,
      "rocket": 0,
      "eyes": 0
    },
    "performed_via_github_app": null
  },
  {
    "url": "https://api.github.com/repos/bitcoin/bitcoin/issues/comments/781402900",
    "html_url": "https://github.com/bitcoin/bitcoin/pull/21222#issuecomment-781402900",
    "issue_url": "https://api.github.com/repos/bitcoin/bitcoin/issues/21222",
    "id": 781402900,
    "node_id": "MDEyOklzc3VlQ29tbWVudDc4MTQwMjkwMA==",
    "user": {
      "login": "DrahtBot",
      "id": 39886733,
      "node_id": "MDQ6VXNlcjM5ODg2NzMz",
      "avatar_url": "https://avatars.githubusercontent.com/u/39886733?v=4",
      "gravatar_id": "",
      "url": "https://api.github.com/users/DrahtBot",
      "html_url": "https://github.com/DrahtBot",
      "followers_url": "https://api.github.com/users/DrahtBot/followers",
      "following_url": "https://api.github.com/users/DrahtBot/following{/other_user}",
      "gists_url": "https://api.github.com/users/DrahtBot/gists{/gist_id}",
      "starred_url": "https://api.github.com/users/DrahtBot/starred{/owner}{/repo}",
      "subscriptions_url": "https://api.github.com/users/DrahtBot/subscriptions",
      "organizations_url": "https://api.github.com/users/DrahtBot/orgs",
      "repos_url": "https://api.github.com/users/DrahtBot/repos",
      "events_url": "https://api.github.com/users/DrahtBot/events{/privacy}",
      "received_events_url": "https://api.github.com/users/DrahtBot/received_events",
      "type": "User",
      "site_admin": false
    },
    "created_at": "2021-02-18T14:59:20Z",
    "updated_at": "2021-02-18T14:59:20Z",
    "author_association": "CONTRIBUTOR",
    "body_html": "\n<p dir=\"auto\">The following sections might be updated with supplementary metadata relevant to reviewers and maintainers.</p>\n\n<h3 dir=\"auto\">Conflicts</h3>\n<p dir=\"auto\">Reviewers, this pull request conflicts with the following ones:</p>\n<ul dir=\"auto\">\n<li><a class=\"issue-link js-issue-link\" data-error-text=\"Failed to load title\" data-id=\"789282167\" data-permission-text=\"Title is private\" data-url=\"https://github.com/bitcoin/bitcoin/issues/20966\" data-hovercard-type=\"pull_request\" data-hovercard-url=\"/bitcoin/bitcoin/pull/20966/hovercard\" href=\"https://github.com/bitcoin/bitcoin/pull/20966\">#20966</a> (banman: save the banlist in a JSON format on disk by vasild)</li>\n</ul>\n<p dir=\"auto\">If you consider this pull request important, please also help to review the conflicting pull requests. Ideally, start with the one that should be merged first.</p>",
    "body_text": "The following sections might be updated with supplementary metadata relevant to reviewers and maintainers.\n\nConflicts\nReviewers, this pull request conflicts with the following ones:\n\n#20966 (banman: save the banlist in a JSON format on disk by vasild)\n\nIf you consider this pull request important, please also help to review the conflicting pull requests. Ideally, start with the one that should be merged first.",
    "body": "<!--e57a25ab6845829454e8d69fc972939a-->\n\nThe following sections might be updated with supplementary metadata relevant to reviewers and maintainers.\n\n<!--174a7506f384e20aa4161008e828411d-->\n### Conflicts\nReviewers, this pull request conflicts with the following ones:\n\n* #20966 (banman: save the banlist in a JSON format on disk by vasild)\n\nIf you consider this pull request important, please also help to review the conflicting pull requests. Ideally, start with the one that should be merged first.",
    "reactions": {
      "url": "https://api.github.com/repos/bitcoin/bitcoin/issues/comments/781402900/reactions",
      "total_count": 0,
      "+1": 0,
      "-1": 0,
      "laugh": 0,
      "hooray": 0,
      "confused": 0,
      "heart": 0,
      "rocket": 0,
      "eyes": 0
    },
    "performed_via_github_app": null
  },
  {
    "url": "https://api.github.com/repos/bitcoin/bitcoin/issues/comments/781405874",
    "html_url": "https://github.com/bitcoin/bitcoin/pull/21222#issuecomment-781405874",
    "issue_url": "https://api.github.com/repos/bitcoin/bitcoin/issues/21222",
    "id": 781405874,
    "node_id": "MDEyOklzc3VlQ29tbWVudDc4MTQwNTg3NA==",
    "user": {
      "login": "jnewbery",
      "id": 1063656,
      "node_id": "MDQ6VXNlcjEwNjM2NTY=",
      "avatar_url": "https://avatars.githubusercontent.com/u/1063656?v=4",
      "gravatar_id": "",
      "url": "https://api.github.com/users/jnewbery",
      "html_url": "https://github.com/jnewbery",
      "followers_url": "https://api.github.com/users/jnewbery/followers",
      "following_url": "https://api.github.com/users/jnewbery/following{/other_user}",
      "gists_url": "https://api.github.com/users/jnewbery/gists{/gist_id}",
      "starred_url": "https://api.github.com/users/jnewbery/starred{/owner}{/repo}",
      "subscriptions_url": "https://api.github.com/users/jnewbery/subscriptions",
      "organizations_url": "https://api.github.com/users/jnewbery/orgs",
      "repos_url": "https://api.github.com/users/jnewbery/repos",
      "events_url": "https://api.github.com/users/jnewbery/events{/privacy}",
      "received_events_url": "https://api.github.com/users/jnewbery/received_events",
      "type": "User",
      "site_admin": false
    },
    "created_at": "2021-02-18T15:03:21Z",
    "updated_at": "2021-02-18T15:03:21Z",
    "author_association": "CONTRIBUTOR",
    "body_html": "<p dir=\"auto\">utACK <a class=\"commit-link\" data-hovercard-type=\"commit\" data-hovercard-url=\"https://github.com/bitcoin/bitcoin/commit/faf48f20f196e418b2eea390a0140db3604cfa15/hovercard\" href=\"https://github.com/bitcoin/bitcoin/commit/faf48f20f196e418b2eea390a0140db3604cfa15\"><tt>faf48f2</tt></a></p>",
    "body_text": "utACK faf48f2",
    "body": "utACK faf48f20f196e418b2eea390a0140db3604cfa15",
    "reactions": {
      "url": "https://api.github.com/repos/bitcoin/bitcoin/issues/comments/781405874/reactions",
      "total_count": 0,
      "+1": 0,
      "-1": 0,
      "laugh": 0,
      "hooray": 0,
      "confused": 0,
      "heart": 0,
      "rocket": 0,
      "eyes": 0
    },
    "performed_via_github_app": null
  },
  {
    "url": "https://api.github.com/repos/bitcoin/bitcoin/issues/comments/781415658",
    "html_url": "https://github.com/bitcoin/bitcoin/pull/21222#issuecomment-781415658",
    "issue_url": "https://api.github.com/repos/bitcoin/bitcoin/issues/21222",
    "id": 781415658,
    "node_id": "MDEyOklzc3VlQ29tbWVudDc4MTQxNTY1OA==",
    "user": {
      "login": "jonatack",
      "id": 2415484,
      "node_id": "MDQ6VXNlcjI0MTU0ODQ=",
      "avatar_url": "https://avatars.githubusercontent.com/u/2415484?v=4",
      "gravatar_id": "",
      "url": "https://api.github.com/users/jonatack",
      "html_url": "https://github.com/jonatack",
      "followers_url": "https://api.github.com/users/jonatack/followers",
      "following_url": "https://api.github.com/users/jonatack/following{/other_user}",
      "gists_url": "https://api.github.com/users/jonatack/gists{/gist_id}",
      "starred_url": "https://api.github.com/users/jonatack/starred{/owner}{/repo}",
      "subscriptions_url": "https://api.github.com/users/jonatack/subscriptions",
      "organizations_url": "https://api.github.com/users/jonatack/orgs",
      "repos_url": "https://api.github.com/users/jonatack/repos",
      "events_url": "https://api.github.com/users/jonatack/events{/privacy}",
      "received_events_url": "https://api.github.com/users/jonatack/received_events",
      "type": "User",
      "site_admin": false
    },
    "created_at": "2021-02-18T15:17:10Z",
    "updated_at": "2021-02-18T15:17:10Z",
    "author_association": "CONTRIBUTOR",
    "body_html": "<p dir=\"auto\">I think this is a strictly less helpful user experience, but it's clearly more popular than my proposals so I re-closed.</p>",
    "body_text": "I think this is a strictly less helpful user experience, but it's clearly more popular than my proposals so I re-closed.",
    "body": "I think this is a strictly less helpful user experience, but it's clearly more popular than my proposals so I re-closed.",
    "reactions": {
      "url": "https://api.github.com/repos/bitcoin/bitcoin/issues/comments/781415658/reactions",
      "total_count": 0,
      "+1": 0,
      "-1": 0,
      "laugh": 0,
      "hooray": 0,
      "confused": 0,
      "heart": 0,
      "rocket": 0,
      "eyes": 0
    },
    "performed_via_github_app": null
  },
  {
    "url": "https://api.github.com/repos/bitcoin/bitcoin/issues/comments/781453849",
    "html_url": "https://github.com/bitcoin/bitcoin/pull/21222#issuecomment-781453849",
    "issue_url": "https://api.github.com/repos/bitcoin/bitcoin/issues/21222",
    "id": 781453849,
    "node_id": "MDEyOklzc3VlQ29tbWVudDc4MTQ1Mzg0OQ==",
    "user": {
      "login": "maflcko",
      "id": 6399679,
      "node_id": "MDQ6VXNlcjYzOTk2Nzk=",
      "avatar_url": "https://avatars.githubusercontent.com/u/6399679?v=4",
      "gravatar_id": "",
      "url": "https://api.github.com/users/maflcko",
      "html_url": "https://github.com/maflcko",
      "followers_url": "https://api.github.com/users/maflcko/followers",
      "following_url": "https://api.github.com/users/maflcko/following{/other_user}",
      "gists_url": "https://api.github.com/users/maflcko/gists{/gist_id}",
      "starred_url": "https://api.github.com/users/maflcko/starred{/owner}{/repo}",
      "subscriptions_url": "https://api.github.com/users/maflcko/subscriptions",
      "organizations_url": "https://api.github.com/users/maflcko/orgs",
      "repos_url": "https://api.github.com/users/maflcko/repos",
      "events_url": "https://api.github.com/users/maflcko/events{/privacy}",
      "received_events_url": "https://api.github.com/users/maflcko/received_events",
      "type": "User",
      "site_admin": false
    },
    "created_at": "2021-02-18T16:09:33Z",
    "updated_at": "2021-02-18T16:09:33Z",
    "author_association": "MEMBER",
    "body_html": "<p dir=\"auto\">I am happy to adjust any part that has issues. The only thing I care about is that we fix this issue once completely, so that it doesn't come up again in the future.</p>",
    "body_text": "I am happy to adjust any part that has issues. The only thing I care about is that we fix this issue once completely, so that it doesn't come up again in the future.",
    "body": "I am happy to adjust any part that has issues. The only thing I care about is that we fix this issue once completely, so that it doesn't come up again in the future.",
    "reactions": {
      "url": "https://api.github.com/repos/bitcoin/bitcoin/issues/comments/781453849/reactions",
      "total_count": 0,
      "+1": 0,
      "-1": 0,
      "laugh": 0,
      "hooray": 0,
      "confused": 0,
      "heart": 0,
      "rocket": 0,
      "eyes": 0
    },
    "performed_via_github_app": null
  },
  {
    "url": "https://api.github.com/repos/bitcoin/bitcoin/issues/comments/781501110",
    "html_url": "https://github.com/bitcoin/bitcoin/pull/21222#issuecomment-781501110",
    "issue_url": "https://api.github.com/repos/bitcoin/bitcoin/issues/21222",
    "id": 781501110,
    "node_id": "MDEyOklzc3VlQ29tbWVudDc4MTUwMTExMA==",
    "user": {
      "login": "jonatack",
      "id": 2415484,
      "node_id": "MDQ6VXNlcjI0MTU0ODQ=",
      "avatar_url": "https://avatars.githubusercontent.com/u/2415484?v=4",
      "gravatar_id": "",
      "url": "https://api.github.com/users/jonatack",
      "html_url": "https://github.com/jonatack",
      "followers_url": "https://api.github.com/users/jonatack/followers",
      "following_url": "https://api.github.com/users/jonatack/following{/other_user}",
      "gists_url": "https://api.github.com/users/jonatack/gists{/gist_id}",
      "starred_url": "https://api.github.com/users/jonatack/starred{/owner}{/repo}",
      "subscriptions_url": "https://api.github.com/users/jonatack/subscriptions",
      "organizations_url": "https://api.github.com/users/jonatack/orgs",
      "repos_url": "https://api.github.com/users/jonatack/repos",
      "events_url": "https://api.github.com/users/jonatack/events{/privacy}",
      "received_events_url": "https://api.github.com/users/jonatack/received_events",
      "type": "User",
      "site_admin": false
    },
    "created_at": "2021-02-18T17:16:08Z",
    "updated_at": "2021-02-18T17:16:08Z",
    "author_association": "CONTRIBUTOR",
    "body_html": "<p dir=\"auto\"><a class=\"issue-link js-issue-link\" data-error-text=\"Failed to load title\" data-id=\"808271173\" data-permission-text=\"Title is private\" data-url=\"https://github.com/bitcoin/bitcoin/issues/21181\" data-hovercard-type=\"pull_request\" data-hovercard-url=\"/bitcoin/bitcoin/pull/21181/hovercard\" href=\"https://github.com/bitcoin/bitcoin/pull/21181\">#21181</a> addressed the reported issue. I was not aware of other issues filed that necessitated an expanded requirement and scope.</p>\n<p dir=\"auto\">I closed <a class=\"issue-link js-issue-link\" data-error-text=\"Failed to load title\" data-id=\"808271173\" data-permission-text=\"Title is private\" data-url=\"https://github.com/bitcoin/bitcoin/issues/21181\" data-hovercard-type=\"pull_request\" data-hovercard-url=\"/bitcoin/bitcoin/pull/21181/hovercard\" href=\"https://github.com/bitcoin/bitcoin/pull/21181\">#21181</a> because you are both the most active maintainer and the most active committer since years and it seems pointless to leave it open if you open a competing patch. Nevertheless, I'm surprised by the expressed all-that-matters imperative to widen the requirement. AFAIK we had one specific issue report. I believe a specific contained fix was a fine response to it.</p>",
    "body_text": "#21181 addressed the reported issue. I was not aware of other issues filed that necessitated an expanded requirement and scope.\nI closed #21181 because you are both the most active maintainer and the most active committer since years and it seems pointless to leave it open if you open a competing patch. Nevertheless, I'm surprised by the expressed all-that-matters imperative to widen the requirement. AFAIK we had one specific issue report. I believe a specific contained fix was a fine response to it.",
    "body": "#21181 addressed the reported issue. I was not aware of other issues filed that necessitated an expanded requirement and scope.\n\nI closed #21181 because you are both the most active maintainer and the most active committer since years and it seems pointless to leave it open if you open a competing patch. Nevertheless, I'm surprised by the expressed all-that-matters imperative to widen the requirement. AFAIK we had one specific issue report. I believe a specific contained fix was a fine response to it.\n\n",
    "reactions": {
      "url": "https://api.github.com/repos/bitcoin/bitcoin/issues/comments/781501110/reactions",
      "total_count": 0,
      "+1": 0,
      "-1": 0,
      "laugh": 0,
      "hooray": 0,
      "confused": 0,
      "heart": 0,
      "rocket": 0,
      "eyes": 0
    },
    "performed_via_github_app": null
  },
  {
    "url": "https://api.github.com/repos/bitcoin/bitcoin/issues/comments/781684893",
    "html_url": "https://github.com/bitcoin/bitcoin/pull/21222#issuecomment-781684893",
    "issue_url": "https://api.github.com/repos/bitcoin/bitcoin/issues/21222",
    "id": 781684893,
    "node_id": "MDEyOklzc3VlQ29tbWVudDc4MTY4NDg5Mw==",
    "user": {
      "login": "amitiuttarwar",
      "id": 1500952,
      "node_id": "MDQ6VXNlcjE1MDA5NTI=",
      "avatar_url": "https://avatars.githubusercontent.com/u/1500952?v=4",
      "gravatar_id": "",
      "url": "https://api.github.com/users/amitiuttarwar",
      "html_url": "https://github.com/amitiuttarwar",
      "followers_url": "https://api.github.com/users/amitiuttarwar/followers",
      "following_url": "https://api.github.com/users/amitiuttarwar/following{/other_user}",
      "gists_url": "https://api.github.com/users/amitiuttarwar/gists{/gist_id}",
      "starred_url": "https://api.github.com/users/amitiuttarwar/starred{/owner}{/repo}",
      "subscriptions_url": "https://api.github.com/users/amitiuttarwar/subscriptions",
      "organizations_url": "https://api.github.com/users/amitiuttarwar/orgs",
      "repos_url": "https://api.github.com/users/amitiuttarwar/repos",
      "events_url": "https://api.github.com/users/amitiuttarwar/events{/privacy}",
      "received_events_url": "https://api.github.com/users/amitiuttarwar/received_events",
      "type": "User",
      "site_admin": false
    },
    "created_at": "2021-02-18T22:45:15Z",
    "updated_at": "2021-02-18T22:45:15Z",
    "author_association": "CONTRIBUTOR",
    "body_html": "<p dir=\"auto\">utACK <a class=\"commit-link\" data-hovercard-type=\"commit\" data-hovercard-url=\"https://github.com/bitcoin/bitcoin/commit/faf48f20f196e418b2eea390a0140db3604cfa15/hovercard\" href=\"https://github.com/bitcoin/bitcoin/commit/faf48f20f196e418b2eea390a0140db3604cfa15\"><tt>faf48f2</tt></a>, 👍 for consistency. also checked where we create / load other <code class=\"notranslate\">.dat</code> files, looks good to me.</p>",
    "body_text": "utACK faf48f2, 👍 for consistency. also checked where we create / load other .dat files, looks good to me.",
    "body": "utACK faf48f20f1, 👍 for consistency. also checked where we create / load other `.dat` files, looks good to me.",
    "reactions": {
      "url": "https://api.github.com/repos/bitcoin/bitcoin/issues/comments/781684893/reactions",
      "total_count": 0,
      "+1": 0,
      "-1": 0,
      "laugh": 0,
      "hooray": 0,
      "confused": 0,
      "heart": 0,
      "rocket": 0,
      "eyes": 0
    },
    "performed_via_github_app": null
  },
  {
    "url": "https://api.github.com/repos/bitcoin/bitcoin/issues/comments/781975040",
    "html_url": "https://github.com/bitcoin/bitcoin/pull/21222#issuecomment-781975040",
    "issue_url": "https://api.github.com/repos/bitcoin/bitcoin/issues/21222",
    "id": 781975040,
    "node_id": "MDEyOklzc3VlQ29tbWVudDc4MTk3NTA0MA==",
    "user": {
      "login": "maflcko",
      "id": 6399679,
      "node_id": "MDQ6VXNlcjYzOTk2Nzk=",
      "avatar_url": "https://avatars.githubusercontent.com/u/6399679?v=4",
      "gravatar_id": "",
      "url": "https://api.github.com/users/maflcko",
      "html_url": "https://github.com/maflcko",
      "followers_url": "https://api.github.com/users/maflcko/followers",
      "following_url": "https://api.github.com/users/maflcko/following{/other_user}",
      "gists_url": "https://api.github.com/users/maflcko/gists{/gist_id}",
      "starred_url": "https://api.github.com/users/maflcko/starred{/owner}{/repo}",
      "subscriptions_url": "https://api.github.com/users/maflcko/subscriptions",
      "organizations_url": "https://api.github.com/users/maflcko/orgs",
      "repos_url": "https://api.github.com/users/maflcko/repos",
      "events_url": "https://api.github.com/users/maflcko/events{/privacy}",
      "received_events_url": "https://api.github.com/users/maflcko/received_events",
      "type": "User",
      "site_admin": false
    },
    "created_at": "2021-02-19T10:09:14Z",
    "updated_at": "2021-02-19T10:09:14Z",
    "author_association": "MEMBER",
    "body_html": "<blockquote>\n<p dir=\"auto\">AFAIK we had one specific issue report. I believe a specific contained fix was a fine response to it.</p>\n</blockquote>\n<p dir=\"auto\">Correct, nothing was wrong with that. Though, I overheard several devs (over the years) complain about this particular <code class=\"notranslate\">ERROR</code> that happens on a normal and expected condition. Moreover, three reviewers left a comment in the other PR that it should be fixed for all 3 instances of the same issue (not just one). There is already a huge code churn in the repo and tracing back when a change has been made originally becomes a time-consuming task. While <code class=\"notranslate\">git log -S</code> can deal perfectly fine with move-only, it will abort on every other change. So I think we shouldn't be aiming to make a change, knowing that it will be reverted soon in favour of a broader change.</p>\n<blockquote>\n<p dir=\"auto\">... the most active maintainer and the most active committer since years and it seems pointless to leave it open if you open a competing patch.</p>\n</blockquote>\n<p dir=\"auto\">I think it would be very alarming if any patch (or review) is simply preferred based on the number of commits or comments a contributor has made. In the (far) past, horrible consensus failures have been introduced by (presumably) relying on that metric. My impression is that code review and quality assurance have improved significantly since then. I can point to many high-impact bugs introduced in the last three months by \"top-10\" or \"top-20\" contributors by commit count and all of them have been caught by code review. I think when evaluating changes to Bitcoin (Core) we should purely take into account how much sense they make and not the reputation of the person voicing them.</p>",
    "body_text": "AFAIK we had one specific issue report. I believe a specific contained fix was a fine response to it.\n\nCorrect, nothing was wrong with that. Though, I overheard several devs (over the years) complain about this particular ERROR that happens on a normal and expected condition. Moreover, three reviewers left a comment in the other PR that it should be fixed for all 3 instances of the same issue (not just one). There is already a huge code churn in the repo and tracing back when a change has been made originally becomes a time-consuming task. While git log -S can deal perfectly fine with move-only, it will abort on every other change. So I think we shouldn't be aiming to make a change, knowing that it will be reverted soon in favour of a broader change.\n\n... the most active maintainer and the most active committer since years and it seems pointless to leave it open if you open a competing patch.\n\nI think it would be very alarming if any patch (or review) is simply preferred based on the number of commits or comments a contributor has made. In the (far) past, horrible consensus failures have been introduced by (presumably) relying on that metric. My impression is that code review and quality assurance have improved significantly since then. I can point to many high-impact bugs introduced in the last three months by \"top-10\" or \"top-20\" contributors by commit count and all of them have been caught by code review. I think when evaluating changes to Bitcoin (Core) we should purely take into account how much sense they make and not the reputation of the person voicing them.",
    "body": "> AFAIK we had one specific issue report. I believe a specific contained fix was a fine response to it.\r\n\r\nCorrect, nothing was wrong with that. Though, I overheard several devs (over the years) complain about this particular `ERROR` that happens on a normal and expected condition. Moreover, three reviewers left a comment in the other PR that it should be fixed for all 3 instances of the same issue (not just one). There is already a huge code churn in the repo and tracing back when a change has been made originally becomes a time-consuming task. While `git log -S` can deal perfectly fine with move-only, it will abort on every other change. So I think we shouldn't be aiming to make a change, knowing that it will be reverted soon in favour of a broader change.\r\n\r\n> ... the most active maintainer and the most active committer since years and it seems pointless to leave it open if you open a competing patch.\r\n\r\nI think it would be very alarming if any patch (or review) is simply preferred based on the number of commits or comments a contributor has made. In the (far) past, horrible consensus failures have been introduced by (presumably) relying on that metric. My impression is that code review and quality assurance have improved significantly since then. I can point to many high-impact bugs introduced in the last three months by \"top-10\" or \"top-20\" contributors by commit count and all of them have been caught by code review. I think when evaluating changes to Bitcoin (Core) we should purely take into account how much sense they make and not the reputation of the person voicing them.",
    "reactions": {
      "url": "https://api.github.com/repos/bitcoin/bitcoin/issues/comments/781975040/reactions",
      "total_count": 1,
      "+1": 1,
      "-1": 0,
      "laugh": 0,
      "hooray": 0,
      "confused": 0,
      "heart": 0,
      "rocket": 0,
      "eyes": 0
    },
    "performed_via_github_app": null
  },
  {
    "url": "https://api.github.com/repos/bitcoin/bitcoin/issues/comments/784174308",
    "html_url": "https://github.com/bitcoin/bitcoin/pull/21222#issuecomment-784174308",
    "issue_url": "https://api.github.com/repos/bitcoin/bitcoin/issues/21222",
    "id": 784174308,
    "node_id": "MDEyOklzc3VlQ29tbWVudDc4NDE3NDMwOA==",
    "user": {
      "login": "practicalswift",
      "id": 7826565,
      "node_id": "MDQ6VXNlcjc4MjY1NjU=",
      "avatar_url": "https://avatars.githubusercontent.com/u/7826565?v=4",
      "gravatar_id": "",
      "url": "https://api.github.com/users/practicalswift",
      "html_url": "https://github.com/practicalswift",
      "followers_url": "https://api.github.com/users/practicalswift/followers",
      "following_url": "https://api.github.com/users/practicalswift/following{/other_user}",
      "gists_url": "https://api.github.com/users/practicalswift/gists{/gist_id}",
      "starred_url": "https://api.github.com/users/practicalswift/starred{/owner}{/repo}",
      "subscriptions_url": "https://api.github.com/users/practicalswift/subscriptions",
      "organizations_url": "https://api.github.com/users/practicalswift/orgs",
      "repos_url": "https://api.github.com/users/practicalswift/repos",
      "events_url": "https://api.github.com/users/practicalswift/events{/privacy}",
      "received_events_url": "https://api.github.com/users/practicalswift/received_events",
      "type": "User",
      "site_admin": false
    },
    "created_at": "2021-02-23T12:42:27Z",
    "updated_at": "2021-02-23T12:42:27Z",
    "author_association": "CONTRIBUTOR",
    "body_html": "<p dir=\"auto\">cr ACK <a class=\"commit-link\" data-hovercard-type=\"commit\" data-hovercard-url=\"https://github.com/bitcoin/bitcoin/commit/faf48f20f196e418b2eea390a0140db3604cfa15/hovercard\" href=\"https://github.com/bitcoin/bitcoin/commit/faf48f20f196e418b2eea390a0140db3604cfa15\"><tt>faf48f2</tt></a></p>",
    "body_text": "cr ACK faf48f2",
    "body": "cr ACK faf48f20f196e418b2eea390a0140db3604cfa15",
    "reactions": {
      "url": "https://api.github.com/repos/bitcoin/bitcoin/issues/comments/784174308/reactions",
      "total_count": 0,
      "+1": 0,
      "-1": 0,
      "laugh": 0,
      "hooray": 0,
      "confused": 0,
      "heart": 0,
      "rocket": 0,
      "eyes": 0
    },
    "performed_via_github_app": null
  },
  {
    "url": "https://api.github.com/repos/bitcoin/bitcoin/issues/comments/784230342",
    "html_url": "https://github.com/bitcoin/bitcoin/pull/21222#issuecomment-784230342",
    "issue_url": "https://api.github.com/repos/bitcoin/bitcoin/issues/21222",
    "id": 784230342,
    "node_id": "MDEyOklzc3VlQ29tbWVudDc4NDIzMDM0Mg==",
    "user": {
      "login": "jnewbery",
      "id": 1063656,
      "node_id": "MDQ6VXNlcjEwNjM2NTY=",
      "avatar_url": "https://avatars.githubusercontent.com/u/1063656?v=4",
      "gravatar_id": "",
      "url": "https://api.github.com/users/jnewbery",
      "html_url": "https://github.com/jnewbery",
      "followers_url": "https://api.github.com/users/jnewbery/followers",
      "following_url": "https://api.github.com/users/jnewbery/following{/other_user}",
      "gists_url": "https://api.github.com/users/jnewbery/gists{/gist_id}",
      "starred_url": "https://api.github.com/users/jnewbery/starred{/owner}{/repo}",
      "subscriptions_url": "https://api.github.com/users/jnewbery/subscriptions",
      "organizations_url": "https://api.github.com/users/jnewbery/orgs",
      "repos_url": "https://api.github.com/users/jnewbery/repos",
      "events_url": "https://api.github.com/users/jnewbery/events{/privacy}",
      "received_events_url": "https://api.github.com/users/jnewbery/received_events",
      "type": "User",
      "site_admin": false
    },
    "created_at": "2021-02-23T14:11:42Z",
    "updated_at": "2021-02-23T14:11:42Z",
    "author_association": "CONTRIBUTOR",
    "body_html": "<p dir=\"auto\">The scope of this PR seems to be creeping. It had three ACKs on the previous version, which simply removed the \"ERROR\" text from log message. The new version is changing what's exposed by the fs module, which seems unnecessary.</p>",
    "body_text": "The scope of this PR seems to be creeping. It had three ACKs on the previous version, which simply removed the \"ERROR\" text from log message. The new version is changing what's exposed by the fs module, which seems unnecessary.",
    "body": "The scope of this PR seems to be creeping. It had three ACKs on the previous version, which simply removed the \"ERROR\" text from log message. The new version is changing what's exposed by the fs module, which seems unnecessary.",
    "reactions": {
      "url": "https://api.github.com/repos/bitcoin/bitcoin/issues/comments/784230342/reactions",
      "total_count": 0,
      "+1": 0,
      "-1": 0,
      "laugh": 0,
      "hooray": 0,
      "confused": 0,
      "heart": 0,
      "rocket": 0,
      "eyes": 0
    },
    "performed_via_github_app": null
  },
  {
    "url": "https://api.github.com/repos/bitcoin/bitcoin/issues/comments/784265333",
    "html_url": "https://github.com/bitcoin/bitcoin/pull/21222#issuecomment-784265333",
    "issue_url": "https://api.github.com/repos/bitcoin/bitcoin/issues/21222",
    "id": 784265333,
    "node_id": "MDEyOklzc3VlQ29tbWVudDc4NDI2NTMzMw==",
    "user": {
      "login": "maflcko",
      "id": 6399679,
      "node_id": "MDQ6VXNlcjYzOTk2Nzk=",
      "avatar_url": "https://avatars.githubusercontent.com/u/6399679?v=4",
      "gravatar_id": "",
      "url": "https://api.github.com/users/maflcko",
      "html_url": "https://github.com/maflcko",
      "followers_url": "https://api.github.com/users/maflcko/followers",
      "following_url": "https://api.github.com/users/maflcko/following{/other_user}",
      "gists_url": "https://api.github.com/users/maflcko/gists{/gist_id}",
      "starred_url": "https://api.github.com/users/maflcko/starred{/owner}{/repo}",
      "subscriptions_url": "https://api.github.com/users/maflcko/subscriptions",
      "organizations_url": "https://api.github.com/users/maflcko/orgs",
      "repos_url": "https://api.github.com/users/maflcko/repos",
      "events_url": "https://api.github.com/users/maflcko/events{/privacy}",
      "received_events_url": "https://api.github.com/users/maflcko/received_events",
      "type": "User",
      "site_admin": false
    },
    "created_at": "2021-02-23T15:03:28Z",
    "updated_at": "2021-02-23T15:03:28Z",
    "author_association": "MEMBER",
    "body_html": "<p dir=\"auto\">Ok, reverted</p>",
    "body_text": "Ok, reverted",
    "body": "Ok, reverted",
    "reactions": {
      "url": "https://api.github.com/repos/bitcoin/bitcoin/issues/comments/784265333/reactions",
      "total_count": 0,
      "+1": 0,
      "-1": 0,
      "laugh": 0,
      "hooray": 0,
      "confused": 0,
      "heart": 0,
      "rocket": 0,
      "eyes": 0
    },
    "performed_via_github_app": null
  }
]
