[
  {
    "url": "https://api.github.com/repos/bitcoin/bitcoin/issues/comments/270371937",
    "html_url": "https://github.com/bitcoin/bitcoin/pull/9470#issuecomment-270371937",
    "issue_url": "https://api.github.com/repos/bitcoin/bitcoin/issues/9470",
    "id": 270371937,
    "node_id": "MDEyOklzc3VlQ29tbWVudDI3MDM3MTkzNw==",
    "user": {
      "login": "fanquake",
      "id": 863730,
      "node_id": "MDQ6VXNlcjg2MzczMA==",
      "avatar_url": "https://avatars.githubusercontent.com/u/863730?v=4",
      "gravatar_id": "",
      "url": "https://api.github.com/users/fanquake",
      "html_url": "https://github.com/fanquake",
      "followers_url": "https://api.github.com/users/fanquake/followers",
      "following_url": "https://api.github.com/users/fanquake/following{/other_user}",
      "gists_url": "https://api.github.com/users/fanquake/gists{/gist_id}",
      "starred_url": "https://api.github.com/users/fanquake/starred{/owner}{/repo}",
      "subscriptions_url": "https://api.github.com/users/fanquake/subscriptions",
      "organizations_url": "https://api.github.com/users/fanquake/orgs",
      "repos_url": "https://api.github.com/users/fanquake/repos",
      "events_url": "https://api.github.com/users/fanquake/events{/privacy}",
      "received_events_url": "https://api.github.com/users/fanquake/received_events",
      "type": "User",
      "site_admin": false
    },
    "created_at": "2017-01-04T13:37:55Z",
    "updated_at": "2017-01-04T13:37:55Z",
    "author_association": "MEMBER",
    "body_html": "<p dir=\"auto\">utACK 9ccc02a</p>",
    "body_text": "utACK 9ccc02a",
    "body": "utACK 9ccc02a",
    "reactions": {
      "url": "https://api.github.com/repos/bitcoin/bitcoin/issues/comments/270371937/reactions",
      "total_count": 0,
      "+1": 0,
      "-1": 0,
      "laugh": 0,
      "hooray": 0,
      "confused": 0,
      "heart": 0,
      "rocket": 0,
      "eyes": 0
    },
    "performed_via_github_app": null
  }
]
