[
  {
    "url": "https://api.github.com/repos/bitcoin/bitcoin/issues/comments/50937713",
    "html_url": "https://github.com/bitcoin/bitcoin/pull/4619#issuecomment-50937713",
    "issue_url": "https://api.github.com/repos/bitcoin/bitcoin/issues/4619",
    "id": 50937713,
    "node_id": "MDEyOklzc3VlQ29tbWVudDUwOTM3NzEz",
    "user": {
      "login": "sipa",
      "id": 548488,
      "node_id": "MDQ6VXNlcjU0ODQ4OA==",
      "avatar_url": "https://avatars.githubusercontent.com/u/548488?v=4",
      "gravatar_id": "",
      "url": "https://api.github.com/users/sipa",
      "html_url": "https://github.com/sipa",
      "followers_url": "https://api.github.com/users/sipa/followers",
      "following_url": "https://api.github.com/users/sipa/following{/other_user}",
      "gists_url": "https://api.github.com/users/sipa/gists{/gist_id}",
      "starred_url": "https://api.github.com/users/sipa/starred{/owner}{/repo}",
      "subscriptions_url": "https://api.github.com/users/sipa/subscriptions",
      "organizations_url": "https://api.github.com/users/sipa/orgs",
      "repos_url": "https://api.github.com/users/sipa/repos",
      "events_url": "https://api.github.com/users/sipa/events{/privacy}",
      "received_events_url": "https://api.github.com/users/sipa/received_events",
      "type": "User",
      "site_admin": false
    },
    "created_at": "2014-08-01T21:37:54Z",
    "updated_at": "2014-08-01T21:37:54Z",
    "author_association": "MEMBER",
    "body_html": "<p dir=\"auto\">ACK</p>",
    "body_text": "ACK",
    "body": "ACK\n",
    "reactions": {
      "url": "https://api.github.com/repos/bitcoin/bitcoin/issues/comments/50937713/reactions",
      "total_count": 0,
      "+1": 0,
      "-1": 0,
      "laugh": 0,
      "hooray": 0,
      "confused": 0,
      "heart": 0,
      "rocket": 0,
      "eyes": 0
    },
    "performed_via_github_app": null
  },
  {
    "url": "https://api.github.com/repos/bitcoin/bitcoin/issues/comments/50953015",
    "html_url": "https://github.com/bitcoin/bitcoin/pull/4619#issuecomment-50953015",
    "issue_url": "https://api.github.com/repos/bitcoin/bitcoin/issues/4619",
    "id": 50953015,
    "node_id": "MDEyOklzc3VlQ29tbWVudDUwOTUzMDE1",
    "user": {
      "login": "laanwj",
      "id": 126646,
      "node_id": "MDQ6VXNlcjEyNjY0Ng==",
      "avatar_url": "https://avatars.githubusercontent.com/u/126646?v=4",
      "gravatar_id": "",
      "url": "https://api.github.com/users/laanwj",
      "html_url": "https://github.com/laanwj",
      "followers_url": "https://api.github.com/users/laanwj/followers",
      "following_url": "https://api.github.com/users/laanwj/following{/other_user}",
      "gists_url": "https://api.github.com/users/laanwj/gists{/gist_id}",
      "starred_url": "https://api.github.com/users/laanwj/starred{/owner}{/repo}",
      "subscriptions_url": "https://api.github.com/users/laanwj/subscriptions",
      "organizations_url": "https://api.github.com/users/laanwj/orgs",
      "repos_url": "https://api.github.com/users/laanwj/repos",
      "events_url": "https://api.github.com/users/laanwj/events{/privacy}",
      "received_events_url": "https://api.github.com/users/laanwj/received_events",
      "type": "User",
      "site_admin": false
    },
    "created_at": "2014-08-02T03:47:13Z",
    "updated_at": "2014-08-02T03:47:52Z",
    "author_association": "MEMBER",
    "body_html": "<p dir=\"auto\">There is no point in this change. Bitcoinstrings.cpp is an auto-generated file, and without a change to the source messages it will just break translations.</p>\n<p dir=\"auto\">If you want to change these messages you need to find them in src/*.cpp and change there, then run <code class=\"notranslate\">make translate</code> to re-generate the translation files.</p>",
    "body_text": "There is no point in this change. Bitcoinstrings.cpp is an auto-generated file, and without a change to the source messages it will just break translations.\nIf you want to change these messages you need to find them in src/*.cpp and change there, then run make translate to re-generate the translation files.",
    "body": "There is no point in this change. Bitcoinstrings.cpp is an auto-generated file, and without a change to the source messages it will just break translations.\n\nIf you want to change these messages you need to find them in src/*.cpp and change there, then run `make translate` to re-generate the translation files.\n",
    "reactions": {
      "url": "https://api.github.com/repos/bitcoin/bitcoin/issues/comments/50953015/reactions",
      "total_count": 0,
      "+1": 0,
      "-1": 0,
      "laugh": 0,
      "hooray": 0,
      "confused": 0,
      "heart": 0,
      "rocket": 0,
      "eyes": 0
    },
    "performed_via_github_app": null
  },
  {
    "url": "https://api.github.com/repos/bitcoin/bitcoin/issues/comments/50956516",
    "html_url": "https://github.com/bitcoin/bitcoin/pull/4619#issuecomment-50956516",
    "issue_url": "https://api.github.com/repos/bitcoin/bitcoin/issues/4619",
    "id": 50956516,
    "node_id": "MDEyOklzc3VlQ29tbWVudDUwOTU2NTE2",
    "user": {
      "login": "pryds",
      "id": 4420584,
      "node_id": "MDQ6VXNlcjQ0MjA1ODQ=",
      "avatar_url": "https://avatars.githubusercontent.com/u/4420584?v=4",
      "gravatar_id": "",
      "url": "https://api.github.com/users/pryds",
      "html_url": "https://github.com/pryds",
      "followers_url": "https://api.github.com/users/pryds/followers",
      "following_url": "https://api.github.com/users/pryds/following{/other_user}",
      "gists_url": "https://api.github.com/users/pryds/gists{/gist_id}",
      "starred_url": "https://api.github.com/users/pryds/starred{/owner}{/repo}",
      "subscriptions_url": "https://api.github.com/users/pryds/subscriptions",
      "organizations_url": "https://api.github.com/users/pryds/orgs",
      "repos_url": "https://api.github.com/users/pryds/repos",
      "events_url": "https://api.github.com/users/pryds/events{/privacy}",
      "received_events_url": "https://api.github.com/users/pryds/received_events",
      "type": "User",
      "site_admin": false
    },
    "created_at": "2014-08-02T07:29:20Z",
    "updated_at": "2014-08-02T07:29:35Z",
    "author_association": "CONTRIBUTOR",
    "body_html": "<p dir=\"auto\"><a class=\"user-mention notranslate\" data-hovercard-type=\"user\" data-hovercard-url=\"/users/laanwj/hovercard\" data-octo-click=\"hovercard-link-click\" data-octo-dimensions=\"link_type:self\" href=\"https://github.com/laanwj\">@laanwj</a> makes total sense; my bad. I've now reverted the changes to the auto-generated file and applied the changes to the relevant src/*.cpp files instead.</p>",
    "body_text": "@laanwj makes total sense; my bad. I've now reverted the changes to the auto-generated file and applied the changes to the relevant src/*.cpp files instead.",
    "body": "@laanwj makes total sense; my bad. I've now reverted the changes to the auto-generated file and applied the changes to the relevant src/*.cpp files instead.\n",
    "reactions": {
      "url": "https://api.github.com/repos/bitcoin/bitcoin/issues/comments/50956516/reactions",
      "total_count": 0,
      "+1": 0,
      "-1": 0,
      "laugh": 0,
      "hooray": 0,
      "confused": 0,
      "heart": 0,
      "rocket": 0,
      "eyes": 0
    },
    "performed_via_github_app": null
  },
  {
    "url": "https://api.github.com/repos/bitcoin/bitcoin/issues/comments/50956628",
    "html_url": "https://github.com/bitcoin/bitcoin/pull/4619#issuecomment-50956628",
    "issue_url": "https://api.github.com/repos/bitcoin/bitcoin/issues/4619",
    "id": 50956628,
    "node_id": "MDEyOklzc3VlQ29tbWVudDUwOTU2NjI4",
    "user": {
      "login": "fanquake",
      "id": 863730,
      "node_id": "MDQ6VXNlcjg2MzczMA==",
      "avatar_url": "https://avatars.githubusercontent.com/u/863730?v=4",
      "gravatar_id": "",
      "url": "https://api.github.com/users/fanquake",
      "html_url": "https://github.com/fanquake",
      "followers_url": "https://api.github.com/users/fanquake/followers",
      "following_url": "https://api.github.com/users/fanquake/following{/other_user}",
      "gists_url": "https://api.github.com/users/fanquake/gists{/gist_id}",
      "starred_url": "https://api.github.com/users/fanquake/starred{/owner}{/repo}",
      "subscriptions_url": "https://api.github.com/users/fanquake/subscriptions",
      "organizations_url": "https://api.github.com/users/fanquake/orgs",
      "repos_url": "https://api.github.com/users/fanquake/repos",
      "events_url": "https://api.github.com/users/fanquake/events{/privacy}",
      "received_events_url": "https://api.github.com/users/fanquake/received_events",
      "type": "User",
      "site_admin": false
    },
    "created_at": "2014-08-02T07:35:06Z",
    "updated_at": "2014-08-02T08:34:56Z",
    "author_association": "MEMBER",
    "body_html": "<p dir=\"auto\"><a class=\"user-mention notranslate\" data-hovercard-type=\"user\" data-hovercard-url=\"/users/pryds/hovercard\" data-octo-click=\"hovercard-link-click\" data-octo-dimensions=\"link_type:self\" href=\"https://github.com/pryds\">@pryds</a> ACK You'll need to squash your commits.</p>",
    "body_text": "@pryds ACK You'll need to squash your commits.",
    "body": "@pryds ACK You'll need to squash your commits.\n",
    "reactions": {
      "url": "https://api.github.com/repos/bitcoin/bitcoin/issues/comments/50956628/reactions",
      "total_count": 0,
      "+1": 0,
      "-1": 0,
      "laugh": 0,
      "hooray": 0,
      "confused": 0,
      "heart": 0,
      "rocket": 0,
      "eyes": 0
    },
    "performed_via_github_app": null
  },
  {
    "url": "https://api.github.com/repos/bitcoin/bitcoin/issues/comments/50957589",
    "html_url": "https://github.com/bitcoin/bitcoin/pull/4619#issuecomment-50957589",
    "issue_url": "https://api.github.com/repos/bitcoin/bitcoin/issues/4619",
    "id": 50957589,
    "node_id": "MDEyOklzc3VlQ29tbWVudDUwOTU3NTg5",
    "user": {
      "login": "laanwj",
      "id": 126646,
      "node_id": "MDQ6VXNlcjEyNjY0Ng==",
      "avatar_url": "https://avatars.githubusercontent.com/u/126646?v=4",
      "gravatar_id": "",
      "url": "https://api.github.com/users/laanwj",
      "html_url": "https://github.com/laanwj",
      "followers_url": "https://api.github.com/users/laanwj/followers",
      "following_url": "https://api.github.com/users/laanwj/following{/other_user}",
      "gists_url": "https://api.github.com/users/laanwj/gists{/gist_id}",
      "starred_url": "https://api.github.com/users/laanwj/starred{/owner}{/repo}",
      "subscriptions_url": "https://api.github.com/users/laanwj/subscriptions",
      "organizations_url": "https://api.github.com/users/laanwj/orgs",
      "repos_url": "https://api.github.com/users/laanwj/repos",
      "events_url": "https://api.github.com/users/laanwj/events{/privacy}",
      "received_events_url": "https://api.github.com/users/laanwj/received_events",
      "type": "User",
      "site_admin": false
    },
    "created_at": "2014-08-02T08:34:06Z",
    "updated_at": "2014-08-02T08:34:30Z",
    "author_association": "MEMBER",
    "body_html": "<p dir=\"auto\">Yup, this is the right way.<br>\nACK (after squashing commits)</p>",
    "body_text": "Yup, this is the right way.\nACK (after squashing commits)",
    "body": "Yup, this is the right way.\nACK (after squashing commits)\n",
    "reactions": {
      "url": "https://api.github.com/repos/bitcoin/bitcoin/issues/comments/50957589/reactions",
      "total_count": 0,
      "+1": 0,
      "-1": 0,
      "laugh": 0,
      "hooray": 0,
      "confused": 0,
      "heart": 0,
      "rocket": 0,
      "eyes": 0
    },
    "performed_via_github_app": null
  },
  {
    "url": "https://api.github.com/repos/bitcoin/bitcoin/issues/comments/50958445",
    "html_url": "https://github.com/bitcoin/bitcoin/pull/4619#issuecomment-50958445",
    "issue_url": "https://api.github.com/repos/bitcoin/bitcoin/issues/4619",
    "id": 50958445,
    "node_id": "MDEyOklzc3VlQ29tbWVudDUwOTU4NDQ1",
    "user": {
      "login": "BitcoinPullTester",
      "id": 2110907,
      "node_id": "MDQ6VXNlcjIxMTA5MDc=",
      "avatar_url": "https://avatars.githubusercontent.com/u/2110907?v=4",
      "gravatar_id": "",
      "url": "https://api.github.com/users/BitcoinPullTester",
      "html_url": "https://github.com/BitcoinPullTester",
      "followers_url": "https://api.github.com/users/BitcoinPullTester/followers",
      "following_url": "https://api.github.com/users/BitcoinPullTester/following{/other_user}",
      "gists_url": "https://api.github.com/users/BitcoinPullTester/gists{/gist_id}",
      "starred_url": "https://api.github.com/users/BitcoinPullTester/starred{/owner}{/repo}",
      "subscriptions_url": "https://api.github.com/users/BitcoinPullTester/subscriptions",
      "organizations_url": "https://api.github.com/users/BitcoinPullTester/orgs",
      "repos_url": "https://api.github.com/users/BitcoinPullTester/repos",
      "events_url": "https://api.github.com/users/BitcoinPullTester/events{/privacy}",
      "received_events_url": "https://api.github.com/users/BitcoinPullTester/received_events",
      "type": "User",
      "site_admin": false
    },
    "created_at": "2014-08-02T09:25:07Z",
    "updated_at": "2014-08-02T09:25:07Z",
    "author_association": "NONE",
    "body_html": "<p dir=\"auto\">Automatic sanity-testing: PASSED, see <a href=\"http://jenkins.bluematt.me/pull-tester/p4619_55cf3140abc21d5eaf51c73cb398ce61ec46b22f/\" rel=\"nofollow\">http://jenkins.bluematt.me/pull-tester/p4619_55cf3140abc21d5eaf51c73cb398ce61ec46b22f/</a> for binaries and test log.<br>\nThis test script verifies pulls every time they are updated. It, however, dies sometimes and fails to test properly.  If you are waiting on a test, please check timestamps to verify that the test.log is moving at <a href=\"http://jenkins.bluematt.me/pull-tester/current/\" rel=\"nofollow\">http://jenkins.bluematt.me/pull-tester/current/</a><br>\nContact BlueMatt on freenode if something looks broken.</p>",
    "body_text": "Automatic sanity-testing: PASSED, see http://jenkins.bluematt.me/pull-tester/p4619_55cf3140abc21d5eaf51c73cb398ce61ec46b22f/ for binaries and test log.\nThis test script verifies pulls every time they are updated. It, however, dies sometimes and fails to test properly.  If you are waiting on a test, please check timestamps to verify that the test.log is moving at http://jenkins.bluematt.me/pull-tester/current/\nContact BlueMatt on freenode if something looks broken.",
    "body": "Automatic sanity-testing: PASSED, see http://jenkins.bluematt.me/pull-tester/p4619_55cf3140abc21d5eaf51c73cb398ce61ec46b22f/ for binaries and test log.\nThis test script verifies pulls every time they are updated. It, however, dies sometimes and fails to test properly.  If you are waiting on a test, please check timestamps to verify that the test.log is moving at http://jenkins.bluematt.me/pull-tester/current/\nContact BlueMatt on freenode if something looks broken.\n",
    "reactions": {
      "url": "https://api.github.com/repos/bitcoin/bitcoin/issues/comments/50958445/reactions",
      "total_count": 0,
      "+1": 0,
      "-1": 0,
      "laugh": 0,
      "hooray": 0,
      "confused": 0,
      "heart": 0,
      "rocket": 0,
      "eyes": 0
    },
    "performed_via_github_app": null
  },
  {
    "url": "https://api.github.com/repos/bitcoin/bitcoin/issues/comments/50958626",
    "html_url": "https://github.com/bitcoin/bitcoin/pull/4619#issuecomment-50958626",
    "issue_url": "https://api.github.com/repos/bitcoin/bitcoin/issues/4619",
    "id": 50958626,
    "node_id": "MDEyOklzc3VlQ29tbWVudDUwOTU4NjI2",
    "user": {
      "login": "pryds",
      "id": 4420584,
      "node_id": "MDQ6VXNlcjQ0MjA1ODQ=",
      "avatar_url": "https://avatars.githubusercontent.com/u/4420584?v=4",
      "gravatar_id": "",
      "url": "https://api.github.com/users/pryds",
      "html_url": "https://github.com/pryds",
      "followers_url": "https://api.github.com/users/pryds/followers",
      "following_url": "https://api.github.com/users/pryds/following{/other_user}",
      "gists_url": "https://api.github.com/users/pryds/gists{/gist_id}",
      "starred_url": "https://api.github.com/users/pryds/starred{/owner}{/repo}",
      "subscriptions_url": "https://api.github.com/users/pryds/subscriptions",
      "organizations_url": "https://api.github.com/users/pryds/orgs",
      "repos_url": "https://api.github.com/users/pryds/repos",
      "events_url": "https://api.github.com/users/pryds/events{/privacy}",
      "received_events_url": "https://api.github.com/users/pryds/received_events",
      "type": "User",
      "site_admin": false
    },
    "created_at": "2014-08-02T09:36:41Z",
    "updated_at": "2014-08-02T09:36:41Z",
    "author_association": "CONTRIBUTOR",
    "body_html": "<p dir=\"auto\">Ok, I seem to have messed things up while squashing, mixing in someone else's commits. If this cannot be used, I will delete my fork, remake it and do a clean commit and new pull request.</p>",
    "body_text": "Ok, I seem to have messed things up while squashing, mixing in someone else's commits. If this cannot be used, I will delete my fork, remake it and do a clean commit and new pull request.",
    "body": "Ok, I seem to have messed things up while squashing, mixing in someone else's commits. If this cannot be used, I will delete my fork, remake it and do a clean commit and new pull request.\n",
    "reactions": {
      "url": "https://api.github.com/repos/bitcoin/bitcoin/issues/comments/50958626/reactions",
      "total_count": 0,
      "+1": 0,
      "-1": 0,
      "laugh": 0,
      "hooray": 0,
      "confused": 0,
      "heart": 0,
      "rocket": 0,
      "eyes": 0
    },
    "performed_via_github_app": null
  },
  {
    "url": "https://api.github.com/repos/bitcoin/bitcoin/issues/comments/50958966",
    "html_url": "https://github.com/bitcoin/bitcoin/pull/4619#issuecomment-50958966",
    "issue_url": "https://api.github.com/repos/bitcoin/bitcoin/issues/4619",
    "id": 50958966,
    "node_id": "MDEyOklzc3VlQ29tbWVudDUwOTU4OTY2",
    "user": {
      "login": "laanwj",
      "id": 126646,
      "node_id": "MDQ6VXNlcjEyNjY0Ng==",
      "avatar_url": "https://avatars.githubusercontent.com/u/126646?v=4",
      "gravatar_id": "",
      "url": "https://api.github.com/users/laanwj",
      "html_url": "https://github.com/laanwj",
      "followers_url": "https://api.github.com/users/laanwj/followers",
      "following_url": "https://api.github.com/users/laanwj/following{/other_user}",
      "gists_url": "https://api.github.com/users/laanwj/gists{/gist_id}",
      "starred_url": "https://api.github.com/users/laanwj/starred{/owner}{/repo}",
      "subscriptions_url": "https://api.github.com/users/laanwj/subscriptions",
      "organizations_url": "https://api.github.com/users/laanwj/orgs",
      "repos_url": "https://api.github.com/users/laanwj/repos",
      "events_url": "https://api.github.com/users/laanwj/events{/privacy}",
      "received_events_url": "https://api.github.com/users/laanwj/received_events",
      "type": "User",
      "site_admin": false
    },
    "created_at": "2014-08-02T09:56:40Z",
    "updated_at": "2014-08-02T09:56:40Z",
    "author_association": "MEMBER",
    "body_html": "<p dir=\"auto\">Just leave it like this, I'll cherry-pick the changes to messages.</p>",
    "body_text": "Just leave it like this, I'll cherry-pick the changes to messages.",
    "body": "Just leave it like this, I'll cherry-pick the changes to messages.\n",
    "reactions": {
      "url": "https://api.github.com/repos/bitcoin/bitcoin/issues/comments/50958966/reactions",
      "total_count": 0,
      "+1": 0,
      "-1": 0,
      "laugh": 0,
      "hooray": 0,
      "confused": 0,
      "heart": 0,
      "rocket": 0,
      "eyes": 0
    },
    "performed_via_github_app": null
  },
  {
    "url": "https://api.github.com/repos/bitcoin/bitcoin/issues/comments/50960387",
    "html_url": "https://github.com/bitcoin/bitcoin/pull/4619#issuecomment-50960387",
    "issue_url": "https://api.github.com/repos/bitcoin/bitcoin/issues/4619",
    "id": 50960387,
    "node_id": "MDEyOklzc3VlQ29tbWVudDUwOTYwMzg3",
    "user": {
      "login": "Diapolo",
      "id": 1419649,
      "node_id": "MDQ6VXNlcjE0MTk2NDk=",
      "avatar_url": "https://avatars.githubusercontent.com/u/1419649?v=4",
      "gravatar_id": "",
      "url": "https://api.github.com/users/Diapolo",
      "html_url": "https://github.com/Diapolo",
      "followers_url": "https://api.github.com/users/Diapolo/followers",
      "following_url": "https://api.github.com/users/Diapolo/following{/other_user}",
      "gists_url": "https://api.github.com/users/Diapolo/gists{/gist_id}",
      "starred_url": "https://api.github.com/users/Diapolo/starred{/owner}{/repo}",
      "subscriptions_url": "https://api.github.com/users/Diapolo/subscriptions",
      "organizations_url": "https://api.github.com/users/Diapolo/orgs",
      "repos_url": "https://api.github.com/users/Diapolo/repos",
      "events_url": "https://api.github.com/users/Diapolo/events{/privacy}",
      "received_events_url": "https://api.github.com/users/Diapolo/received_events",
      "type": "User",
      "site_admin": false
    },
    "created_at": "2014-08-02T11:18:59Z",
    "updated_at": "2014-08-02T11:19:23Z",
    "author_association": "NONE",
    "body_html": "<p dir=\"auto\">Needs a rebase I guess, as the missing license headers in the io files were already added. Oh you need to rebase to current master to remove my 2 commits from your pull :).</p>",
    "body_text": "Needs a rebase I guess, as the missing license headers in the io files were already added. Oh you need to rebase to current master to remove my 2 commits from your pull :).",
    "body": "Needs a rebase I guess, as the missing license headers in the io files were already added. Oh you need to rebase to current master to remove my 2 commits from your pull :).\n",
    "reactions": {
      "url": "https://api.github.com/repos/bitcoin/bitcoin/issues/comments/50960387/reactions",
      "total_count": 0,
      "+1": 0,
      "-1": 0,
      "laugh": 0,
      "hooray": 0,
      "confused": 0,
      "heart": 0,
      "rocket": 0,
      "eyes": 0
    },
    "performed_via_github_app": null
  },
  {
    "url": "https://api.github.com/repos/bitcoin/bitcoin/issues/comments/50962177",
    "html_url": "https://github.com/bitcoin/bitcoin/pull/4619#issuecomment-50962177",
    "issue_url": "https://api.github.com/repos/bitcoin/bitcoin/issues/4619",
    "id": 50962177,
    "node_id": "MDEyOklzc3VlQ29tbWVudDUwOTYyMTc3",
    "user": {
      "login": "pryds",
      "id": 4420584,
      "node_id": "MDQ6VXNlcjQ0MjA1ODQ=",
      "avatar_url": "https://avatars.githubusercontent.com/u/4420584?v=4",
      "gravatar_id": "",
      "url": "https://api.github.com/users/pryds",
      "html_url": "https://github.com/pryds",
      "followers_url": "https://api.github.com/users/pryds/followers",
      "following_url": "https://api.github.com/users/pryds/following{/other_user}",
      "gists_url": "https://api.github.com/users/pryds/gists{/gist_id}",
      "starred_url": "https://api.github.com/users/pryds/starred{/owner}{/repo}",
      "subscriptions_url": "https://api.github.com/users/pryds/subscriptions",
      "organizations_url": "https://api.github.com/users/pryds/orgs",
      "repos_url": "https://api.github.com/users/pryds/repos",
      "events_url": "https://api.github.com/users/pryds/events{/privacy}",
      "received_events_url": "https://api.github.com/users/pryds/received_events",
      "type": "User",
      "site_admin": false
    },
    "created_at": "2014-08-02T12:58:00Z",
    "updated_at": "2014-08-02T12:58:00Z",
    "author_association": "CONTRIBUTOR",
    "body_html": "<p dir=\"auto\">Yes, those should be changes that are already in master. What happened is that I did a fetch upstream, then merge inbetween my own commits.</p>",
    "body_text": "Yes, those should be changes that are already in master. What happened is that I did a fetch upstream, then merge inbetween my own commits.",
    "body": "Yes, those should be changes that are already in master. What happened is that I did a fetch upstream, then merge inbetween my own commits.\n",
    "reactions": {
      "url": "https://api.github.com/repos/bitcoin/bitcoin/issues/comments/50962177/reactions",
      "total_count": 0,
      "+1": 0,
      "-1": 0,
      "laugh": 0,
      "hooray": 0,
      "confused": 0,
      "heart": 0,
      "rocket": 0,
      "eyes": 0
    },
    "performed_via_github_app": null
  },
  {
    "url": "https://api.github.com/repos/bitcoin/bitcoin/issues/comments/51030239",
    "html_url": "https://github.com/bitcoin/bitcoin/pull/4619#issuecomment-51030239",
    "issue_url": "https://api.github.com/repos/bitcoin/bitcoin/issues/4619",
    "id": 51030239,
    "node_id": "MDEyOklzc3VlQ29tbWVudDUxMDMwMjM5",
    "user": {
      "login": "laanwj",
      "id": 126646,
      "node_id": "MDQ6VXNlcjEyNjY0Ng==",
      "avatar_url": "https://avatars.githubusercontent.com/u/126646?v=4",
      "gravatar_id": "",
      "url": "https://api.github.com/users/laanwj",
      "html_url": "https://github.com/laanwj",
      "followers_url": "https://api.github.com/users/laanwj/followers",
      "following_url": "https://api.github.com/users/laanwj/following{/other_user}",
      "gists_url": "https://api.github.com/users/laanwj/gists{/gist_id}",
      "starred_url": "https://api.github.com/users/laanwj/starred{/owner}{/repo}",
      "subscriptions_url": "https://api.github.com/users/laanwj/subscriptions",
      "organizations_url": "https://api.github.com/users/laanwj/orgs",
      "repos_url": "https://api.github.com/users/laanwj/repos",
      "events_url": "https://api.github.com/users/laanwj/events{/privacy}",
      "received_events_url": "https://api.github.com/users/laanwj/received_events",
      "type": "User",
      "site_admin": false
    },
    "created_at": "2014-08-04T08:31:33Z",
    "updated_at": "2014-08-04T08:31:33Z",
    "author_association": "MEMBER",
    "body_html": "<p dir=\"auto\">Merged via <a class=\"commit-link\" data-hovercard-type=\"commit\" data-hovercard-url=\"https://github.com/bitcoin/bitcoin/commit/2b410c2fe1cba1c606b89f005cfa0ee4810320cf/hovercard\" href=\"https://github.com/bitcoin/bitcoin/commit/2b410c2fe1cba1c606b89f005cfa0ee4810320cf\"><tt>2b410c2</tt></a></p>",
    "body_text": "Merged via 2b410c2",
    "body": "Merged via 2b410c2\n",
    "reactions": {
      "url": "https://api.github.com/repos/bitcoin/bitcoin/issues/comments/51030239/reactions",
      "total_count": 0,
      "+1": 0,
      "-1": 0,
      "laugh": 0,
      "hooray": 0,
      "confused": 0,
      "heart": 0,
      "rocket": 0,
      "eyes": 0
    },
    "performed_via_github_app": null
  },
  {
    "url": "https://api.github.com/repos/bitcoin/bitcoin/issues/comments/51464907",
    "html_url": "https://github.com/bitcoin/bitcoin/pull/4619#issuecomment-51464907",
    "issue_url": "https://api.github.com/repos/bitcoin/bitcoin/issues/4619",
    "id": 51464907,
    "node_id": "MDEyOklzc3VlQ29tbWVudDUxNDY0OTA3",
    "user": {
      "login": "Michagogo",
      "id": 2559390,
      "node_id": "MDQ6VXNlcjI1NTkzOTA=",
      "avatar_url": "https://avatars.githubusercontent.com/u/2559390?v=4",
      "gravatar_id": "",
      "url": "https://api.github.com/users/Michagogo",
      "html_url": "https://github.com/Michagogo",
      "followers_url": "https://api.github.com/users/Michagogo/followers",
      "following_url": "https://api.github.com/users/Michagogo/following{/other_user}",
      "gists_url": "https://api.github.com/users/Michagogo/gists{/gist_id}",
      "starred_url": "https://api.github.com/users/Michagogo/starred{/owner}{/repo}",
      "subscriptions_url": "https://api.github.com/users/Michagogo/subscriptions",
      "organizations_url": "https://api.github.com/users/Michagogo/orgs",
      "repos_url": "https://api.github.com/users/Michagogo/repos",
      "events_url": "https://api.github.com/users/Michagogo/events{/privacy}",
      "received_events_url": "https://api.github.com/users/Michagogo/received_events",
      "type": "User",
      "site_admin": false
    },
    "created_at": "2014-08-07T12:31:05Z",
    "updated_at": "2014-08-07T12:31:05Z",
    "author_association": "CONTRIBUTOR",
    "body_html": "<p dir=\"auto\"><a class=\"user-mention notranslate\" data-hovercard-type=\"user\" data-hovercard-url=\"/users/pryds/hovercard\" data-octo-click=\"hovercard-link-click\" data-octo-dimensions=\"link_type:self\" href=\"https://github.com/pryds\">@pryds</a> Just a tip: in general, if you have a branch that you're making for a PR and you want to bring it up to date with new commits to upstream/master, what you want is not a merge, but rather a rebase.</p>",
    "body_text": "@pryds Just a tip: in general, if you have a branch that you're making for a PR and you want to bring it up to date with new commits to upstream/master, what you want is not a merge, but rather a rebase.",
    "body": "@pryds Just a tip: in general, if you have a branch that you're making for a PR and you want to bring it up to date with new commits to upstream/master, what you want is not a merge, but rather a rebase.\n",
    "reactions": {
      "url": "https://api.github.com/repos/bitcoin/bitcoin/issues/comments/51464907/reactions",
      "total_count": 0,
      "+1": 0,
      "-1": 0,
      "laugh": 0,
      "hooray": 0,
      "confused": 0,
      "heart": 0,
      "rocket": 0,
      "eyes": 0
    },
    "performed_via_github_app": null
  }
]
