[
  {
    "url": "https://api.github.com/repos/bitcoin/bitcoin/issues/comments/247024735",
    "html_url": "https://github.com/bitcoin/bitcoin/issues/8719#issuecomment-247024735",
    "issue_url": "https://api.github.com/repos/bitcoin/bitcoin/issues/8719",
    "id": 247024735,
    "node_id": "MDEyOklzc3VlQ29tbWVudDI0NzAyNDczNQ==",
    "user": {
      "login": "TheBlueMatt",
      "id": 649246,
      "node_id": "MDQ6VXNlcjY0OTI0Ng==",
      "avatar_url": "https://avatars.githubusercontent.com/u/649246?v=4",
      "gravatar_id": "",
      "url": "https://api.github.com/users/TheBlueMatt",
      "html_url": "https://github.com/TheBlueMatt",
      "followers_url": "https://api.github.com/users/TheBlueMatt/followers",
      "following_url": "https://api.github.com/users/TheBlueMatt/following{/other_user}",
      "gists_url": "https://api.github.com/users/TheBlueMatt/gists{/gist_id}",
      "starred_url": "https://api.github.com/users/TheBlueMatt/starred{/owner}{/repo}",
      "subscriptions_url": "https://api.github.com/users/TheBlueMatt/subscriptions",
      "organizations_url": "https://api.github.com/users/TheBlueMatt/orgs",
      "repos_url": "https://api.github.com/users/TheBlueMatt/repos",
      "events_url": "https://api.github.com/users/TheBlueMatt/events{/privacy}",
      "received_events_url": "https://api.github.com/users/TheBlueMatt/received_events",
      "type": "User",
      "site_admin": false
    },
    "created_at": "2016-09-14T14:08:41Z",
    "updated_at": "2016-09-14T14:08:41Z",
    "author_association": "CONTRIBUTOR",
    "body_html": "<p dir=\"auto\">I think you meant 2017 for the first date?</p>",
    "body_text": "I think you meant 2017 for the first date?",
    "body": "I think you meant 2017 for the first date?\n",
    "reactions": {
      "url": "https://api.github.com/repos/bitcoin/bitcoin/issues/comments/247024735/reactions",
      "total_count": 0,
      "+1": 0,
      "-1": 0,
      "laugh": 0,
      "hooray": 0,
      "confused": 0,
      "heart": 0,
      "rocket": 0,
      "eyes": 0
    },
    "performed_via_github_app": null
  },
  {
    "url": "https://api.github.com/repos/bitcoin/bitcoin/issues/comments/247464812",
    "html_url": "https://github.com/bitcoin/bitcoin/issues/8719#issuecomment-247464812",
    "issue_url": "https://api.github.com/repos/bitcoin/bitcoin/issues/8719",
    "id": 247464812,
    "node_id": "MDEyOklzc3VlQ29tbWVudDI0NzQ2NDgxMg==",
    "user": {
      "login": "btcdrak",
      "id": 7275704,
      "node_id": "MDQ6VXNlcjcyNzU3MDQ=",
      "avatar_url": "https://avatars.githubusercontent.com/u/7275704?v=4",
      "gravatar_id": "",
      "url": "https://api.github.com/users/btcdrak",
      "html_url": "https://github.com/btcdrak",
      "followers_url": "https://api.github.com/users/btcdrak/followers",
      "following_url": "https://api.github.com/users/btcdrak/following{/other_user}",
      "gists_url": "https://api.github.com/users/btcdrak/gists{/gist_id}",
      "starred_url": "https://api.github.com/users/btcdrak/starred{/owner}{/repo}",
      "subscriptions_url": "https://api.github.com/users/btcdrak/subscriptions",
      "organizations_url": "https://api.github.com/users/btcdrak/orgs",
      "repos_url": "https://api.github.com/users/btcdrak/repos",
      "events_url": "https://api.github.com/users/btcdrak/events{/privacy}",
      "received_events_url": "https://api.github.com/users/btcdrak/received_events",
      "type": "User",
      "site_admin": false
    },
    "created_at": "2016-09-15T21:46:24Z",
    "updated_at": "2016-09-15T21:46:24Z",
    "author_association": "CONTRIBUTOR",
    "body_html": "<p dir=\"auto\">The tag \"easy to implement\" is a nice touch 😄</p>",
    "body_text": "The tag \"easy to implement\" is a nice touch 😄",
    "body": "The tag \"easy to implement\" is a nice touch :smile: \n",
    "reactions": {
      "url": "https://api.github.com/repos/bitcoin/bitcoin/issues/comments/247464812/reactions",
      "total_count": 1,
      "+1": 0,
      "-1": 0,
      "laugh": 0,
      "hooray": 0,
      "confused": 0,
      "heart": 1,
      "rocket": 0,
      "eyes": 0
    },
    "performed_via_github_app": null
  },
  {
    "url": "https://api.github.com/repos/bitcoin/bitcoin/issues/comments/285295730",
    "html_url": "https://github.com/bitcoin/bitcoin/issues/8719#issuecomment-285295730",
    "issue_url": "https://api.github.com/repos/bitcoin/bitcoin/issues/8719",
    "id": 285295730,
    "node_id": "MDEyOklzc3VlQ29tbWVudDI4NTI5NTczMA==",
    "user": {
      "login": "laanwj",
      "id": 126646,
      "node_id": "MDQ6VXNlcjEyNjY0Ng==",
      "avatar_url": "https://avatars.githubusercontent.com/u/126646?v=4",
      "gravatar_id": "",
      "url": "https://api.github.com/users/laanwj",
      "html_url": "https://github.com/laanwj",
      "followers_url": "https://api.github.com/users/laanwj/followers",
      "following_url": "https://api.github.com/users/laanwj/following{/other_user}",
      "gists_url": "https://api.github.com/users/laanwj/gists{/gist_id}",
      "starred_url": "https://api.github.com/users/laanwj/starred{/owner}{/repo}",
      "subscriptions_url": "https://api.github.com/users/laanwj/subscriptions",
      "organizations_url": "https://api.github.com/users/laanwj/orgs",
      "repos_url": "https://api.github.com/users/laanwj/repos",
      "events_url": "https://api.github.com/users/laanwj/events{/privacy}",
      "received_events_url": "https://api.github.com/users/laanwj/received_events",
      "type": "User",
      "site_admin": false
    },
    "created_at": "2017-03-09T09:10:41Z",
    "updated_at": "2017-03-09T09:12:14Z",
    "author_association": "MEMBER",
    "body_html": "<p dir=\"auto\">Bitcoin Core 0.14.0 [final] was released 2017-03-08. Only slipped the planned release date by about a week! I think that's a historical record.</p>\n<p dir=\"auto\">Congratulations everyone on the release.</p>",
    "body_text": "Bitcoin Core 0.14.0 [final] was released 2017-03-08. Only slipped the planned release date by about a week! I think that's a historical record.\nCongratulations everyone on the release.",
    "body": "Bitcoin Core 0.14.0 [final] was released 2017-03-08. Only slipped the planned release date by about a week! I think that's a historical record.\r\n\r\nCongratulations everyone on the release.\r\n",
    "reactions": {
      "url": "https://api.github.com/repos/bitcoin/bitcoin/issues/comments/285295730/reactions",
      "total_count": 0,
      "+1": 0,
      "-1": 0,
      "laugh": 0,
      "hooray": 0,
      "confused": 0,
      "heart": 0,
      "rocket": 0,
      "eyes": 0
    },
    "performed_via_github_app": null
  }
]
