[
  {
    "url": "https://api.github.com/repos/bitcoin/bitcoin/issues/comments/455834452",
    "html_url": "https://github.com/bitcoin/bitcoin/pull/15212#issuecomment-455834452",
    "issue_url": "https://api.github.com/repos/bitcoin/bitcoin/issues/15212",
    "id": 455834452,
    "node_id": "MDEyOklzc3VlQ29tbWVudDQ1NTgzNDQ1Mg==",
    "user": {
      "login": "fanquake",
      "id": 863730,
      "node_id": "MDQ6VXNlcjg2MzczMA==",
      "avatar_url": "https://avatars.githubusercontent.com/u/863730?v=4",
      "gravatar_id": "",
      "url": "https://api.github.com/users/fanquake",
      "html_url": "https://github.com/fanquake",
      "followers_url": "https://api.github.com/users/fanquake/followers",
      "following_url": "https://api.github.com/users/fanquake/following{/other_user}",
      "gists_url": "https://api.github.com/users/fanquake/gists{/gist_id}",
      "starred_url": "https://api.github.com/users/fanquake/starred{/owner}{/repo}",
      "subscriptions_url": "https://api.github.com/users/fanquake/subscriptions",
      "organizations_url": "https://api.github.com/users/fanquake/orgs",
      "repos_url": "https://api.github.com/users/fanquake/repos",
      "events_url": "https://api.github.com/users/fanquake/events{/privacy}",
      "received_events_url": "https://api.github.com/users/fanquake/received_events",
      "type": "User",
      "site_admin": false
    },
    "created_at": "2019-01-20T03:25:50Z",
    "updated_at": "2019-01-20T03:25:50Z",
    "author_association": "MEMBER",
    "body_html": "<p dir=\"auto\"><a class=\"user-mention notranslate\" data-hovercard-type=\"user\" data-hovercard-url=\"/users/instagibbs/hovercard\" data-octo-click=\"hovercard-link-click\" data-octo-dimensions=\"link_type:self\" href=\"https://github.com/instagibbs\">@instagibbs</a> Looks like you need to rebase on master.</p>",
    "body_text": "@instagibbs Looks like you need to rebase on master.",
    "body": "@instagibbs Looks like you need to rebase on master.",
    "reactions": {
      "url": "https://api.github.com/repos/bitcoin/bitcoin/issues/comments/455834452/reactions",
      "total_count": 0,
      "+1": 0,
      "-1": 0,
      "laugh": 0,
      "hooray": 0,
      "confused": 0,
      "heart": 0,
      "rocket": 0,
      "eyes": 0
    },
    "performed_via_github_app": null
  },
  {
    "url": "https://api.github.com/repos/bitcoin/bitcoin/issues/comments/455834638",
    "html_url": "https://github.com/bitcoin/bitcoin/pull/15212#issuecomment-455834638",
    "issue_url": "https://api.github.com/repos/bitcoin/bitcoin/issues/15212",
    "id": 455834638,
    "node_id": "MDEyOklzc3VlQ29tbWVudDQ1NTgzNDYzOA==",
    "user": {
      "login": "instagibbs",
      "id": 5767891,
      "node_id": "MDQ6VXNlcjU3Njc4OTE=",
      "avatar_url": "https://avatars.githubusercontent.com/u/5767891?v=4",
      "gravatar_id": "",
      "url": "https://api.github.com/users/instagibbs",
      "html_url": "https://github.com/instagibbs",
      "followers_url": "https://api.github.com/users/instagibbs/followers",
      "following_url": "https://api.github.com/users/instagibbs/following{/other_user}",
      "gists_url": "https://api.github.com/users/instagibbs/gists{/gist_id}",
      "starred_url": "https://api.github.com/users/instagibbs/starred{/owner}{/repo}",
      "subscriptions_url": "https://api.github.com/users/instagibbs/subscriptions",
      "organizations_url": "https://api.github.com/users/instagibbs/orgs",
      "repos_url": "https://api.github.com/users/instagibbs/repos",
      "events_url": "https://api.github.com/users/instagibbs/events{/privacy}",
      "received_events_url": "https://api.github.com/users/instagibbs/received_events",
      "type": "User",
      "site_admin": false
    },
    "created_at": "2019-01-20T03:30:14Z",
    "updated_at": "2019-01-20T03:30:14Z",
    "author_association": "MEMBER",
    "body_html": "<p dir=\"auto\">guess this was fixed in the interim since my last <code class=\"notranslate\">pull</code>. Closing.</p>",
    "body_text": "guess this was fixed in the interim since my last pull. Closing.",
    "body": "guess this was fixed in the interim since my last `pull`. Closing.",
    "reactions": {
      "url": "https://api.github.com/repos/bitcoin/bitcoin/issues/comments/455834638/reactions",
      "total_count": 0,
      "+1": 0,
      "-1": 0,
      "laugh": 0,
      "hooray": 0,
      "confused": 0,
      "heart": 0,
      "rocket": 0,
      "eyes": 0
    },
    "performed_via_github_app": null
  },
  {
    "url": "https://api.github.com/repos/bitcoin/bitcoin/issues/comments/455834752",
    "html_url": "https://github.com/bitcoin/bitcoin/pull/15212#issuecomment-455834752",
    "issue_url": "https://api.github.com/repos/bitcoin/bitcoin/issues/15212",
    "id": 455834752,
    "node_id": "MDEyOklzc3VlQ29tbWVudDQ1NTgzNDc1Mg==",
    "user": {
      "login": "fanquake",
      "id": 863730,
      "node_id": "MDQ6VXNlcjg2MzczMA==",
      "avatar_url": "https://avatars.githubusercontent.com/u/863730?v=4",
      "gravatar_id": "",
      "url": "https://api.github.com/users/fanquake",
      "html_url": "https://github.com/fanquake",
      "followers_url": "https://api.github.com/users/fanquake/followers",
      "following_url": "https://api.github.com/users/fanquake/following{/other_user}",
      "gists_url": "https://api.github.com/users/fanquake/gists{/gist_id}",
      "starred_url": "https://api.github.com/users/fanquake/starred{/owner}{/repo}",
      "subscriptions_url": "https://api.github.com/users/fanquake/subscriptions",
      "organizations_url": "https://api.github.com/users/fanquake/orgs",
      "repos_url": "https://api.github.com/users/fanquake/repos",
      "events_url": "https://api.github.com/users/fanquake/events{/privacy}",
      "received_events_url": "https://api.github.com/users/fanquake/received_events",
      "type": "User",
      "site_admin": false
    },
    "created_at": "2019-01-20T03:33:04Z",
    "updated_at": "2019-01-20T03:33:04Z",
    "author_association": "MEMBER",
    "body_html": "<p dir=\"auto\"><a class=\"user-mention notranslate\" data-hovercard-type=\"user\" data-hovercard-url=\"/users/instagibbs/hovercard\" data-octo-click=\"hovercard-link-click\" data-octo-dimensions=\"link_type:self\" href=\"https://github.com/instagibbs\">@instagibbs</a> Looks like it's still there?</p>\n<p dir=\"auto\"></p><div class=\"Box Box--condensed my-2\">\n  <div class=\"Box-header f6\">\n    <p class=\"mb-0 text-bold\">\n      <a href=\"https://github.com/bitcoin/bitcoin/blob/fe60ee96e9155a0e3f81da2a2d21e6e884b8cc8b/src/wallet/rpcwallet.cpp#L4046\">bitcoin/src/wallet/rpcwallet.cpp</a>\n    </p>\n    <p class=\"mb-0 color-fg-muted\">\n         Line 4046\n      in\n      <a data-pjax=\"true\" class=\"commit-tease-sha Link--inTextBlock\" href=\"/bitcoin/bitcoin/commit/fe60ee96e9155a0e3f81da2a2d21e6e884b8cc8b\">fe60ee9</a>\n    </p>\n  </div>\n  <div itemprop=\"text\" class=\"Box-body p-0 blob-wrapper blob-wrapper-embedded data\">\n    <table class=\"highlight tab-size mb-0 js-file-line-container\" data-tab-size=\"8\" data-paste-markdown-skip=\"\">\n\n        <tbody><tr class=\"border-0\">\n          <td id=\"L4046\" class=\"blob-num border-0 px-3 py-0 color-bg-default\" data-line-number=\"4046\"></td>\n          <td id=\"LC4046\" class=\"blob-code border-0 px-3 py-0 color-bg-default blob-code-inner js-file-line\"> <span class=\"pl-s\"><span class=\"pl-pds\">\"</span>                             Allows this transaction to be replaced by a transaction with higher fees. If provided, it is an error if explicit sequence numbers are incompatible.<span class=\"pl-pds\">\"</span></span>}, </td>\n        </tr>\n    </tbody></table>\n  </div>\n</div>\n<p></p>",
    "body_text": "@instagibbs Looks like it's still there?\n\n  \n    \n      bitcoin/src/wallet/rpcwallet.cpp\n    \n    \n         Line 4046\n      in\n      fe60ee9\n    \n  \n  \n    \n\n        \n          \n           \"                             Allows this transaction to be replaced by a transaction with higher fees. If provided, it is an error if explicit sequence numbers are incompatible.\"},",
    "body": "@instagibbs Looks like it's still there?\r\n\r\nhttps://github.com/bitcoin/bitcoin/blob/fe60ee96e9155a0e3f81da2a2d21e6e884b8cc8b/src/wallet/rpcwallet.cpp#L4046",
    "reactions": {
      "url": "https://api.github.com/repos/bitcoin/bitcoin/issues/comments/455834752/reactions",
      "total_count": 0,
      "+1": 0,
      "-1": 0,
      "laugh": 0,
      "hooray": 0,
      "confused": 0,
      "heart": 0,
      "rocket": 0,
      "eyes": 0
    },
    "performed_via_github_app": null
  },
  {
    "url": "https://api.github.com/repos/bitcoin/bitcoin/issues/comments/455834783",
    "html_url": "https://github.com/bitcoin/bitcoin/pull/15212#issuecomment-455834783",
    "issue_url": "https://api.github.com/repos/bitcoin/bitcoin/issues/15212",
    "id": 455834783,
    "node_id": "MDEyOklzc3VlQ29tbWVudDQ1NTgzNDc4Mw==",
    "user": {
      "login": "instagibbs",
      "id": 5767891,
      "node_id": "MDQ6VXNlcjU3Njc4OTE=",
      "avatar_url": "https://avatars.githubusercontent.com/u/5767891?v=4",
      "gravatar_id": "",
      "url": "https://api.github.com/users/instagibbs",
      "html_url": "https://github.com/instagibbs",
      "followers_url": "https://api.github.com/users/instagibbs/followers",
      "following_url": "https://api.github.com/users/instagibbs/following{/other_user}",
      "gists_url": "https://api.github.com/users/instagibbs/gists{/gist_id}",
      "starred_url": "https://api.github.com/users/instagibbs/starred{/owner}{/repo}",
      "subscriptions_url": "https://api.github.com/users/instagibbs/subscriptions",
      "organizations_url": "https://api.github.com/users/instagibbs/orgs",
      "repos_url": "https://api.github.com/users/instagibbs/repos",
      "events_url": "https://api.github.com/users/instagibbs/events{/privacy}",
      "received_events_url": "https://api.github.com/users/instagibbs/received_events",
      "type": "User",
      "site_admin": false
    },
    "created_at": "2019-01-20T03:33:45Z",
    "updated_at": "2019-01-20T03:33:45Z",
    "author_association": "MEMBER",
    "body_html": "<p dir=\"auto\">Right, could you re-open? I got confused by my rebase messages.</p>",
    "body_text": "Right, could you re-open? I got confused by my rebase messages.",
    "body": "Right, could you re-open? I got confused by my rebase messages.",
    "reactions": {
      "url": "https://api.github.com/repos/bitcoin/bitcoin/issues/comments/455834783/reactions",
      "total_count": 0,
      "+1": 0,
      "-1": 0,
      "laugh": 0,
      "hooray": 0,
      "confused": 0,
      "heart": 0,
      "rocket": 0,
      "eyes": 0
    },
    "performed_via_github_app": null
  },
  {
    "url": "https://api.github.com/repos/bitcoin/bitcoin/issues/comments/455834836",
    "html_url": "https://github.com/bitcoin/bitcoin/pull/15212#issuecomment-455834836",
    "issue_url": "https://api.github.com/repos/bitcoin/bitcoin/issues/15212",
    "id": 455834836,
    "node_id": "MDEyOklzc3VlQ29tbWVudDQ1NTgzNDgzNg==",
    "user": {
      "login": "fanquake",
      "id": 863730,
      "node_id": "MDQ6VXNlcjg2MzczMA==",
      "avatar_url": "https://avatars.githubusercontent.com/u/863730?v=4",
      "gravatar_id": "",
      "url": "https://api.github.com/users/fanquake",
      "html_url": "https://github.com/fanquake",
      "followers_url": "https://api.github.com/users/fanquake/followers",
      "following_url": "https://api.github.com/users/fanquake/following{/other_user}",
      "gists_url": "https://api.github.com/users/fanquake/gists{/gist_id}",
      "starred_url": "https://api.github.com/users/fanquake/starred{/owner}{/repo}",
      "subscriptions_url": "https://api.github.com/users/fanquake/subscriptions",
      "organizations_url": "https://api.github.com/users/fanquake/orgs",
      "repos_url": "https://api.github.com/users/fanquake/repos",
      "events_url": "https://api.github.com/users/fanquake/events{/privacy}",
      "received_events_url": "https://api.github.com/users/fanquake/received_events",
      "type": "User",
      "site_admin": false
    },
    "created_at": "2019-01-20T03:35:15Z",
    "updated_at": "2019-01-20T03:35:55Z",
    "author_association": "MEMBER",
    "body_html": "<p dir=\"auto\">GitHub won't let me, can you make a new PR.<br>\n<a target=\"_blank\" rel=\"noopener noreferrer nofollow\" href=\"https://user-images.githubusercontent.com/863730/51434937-85b72800-1ca7-11e9-9515-62472e0376ae.png\"><img width=\"457\" alt=\"screen shot 2019-01-20 at 11 35 32 am\" src=\"https://user-images.githubusercontent.com/863730/51434937-85b72800-1ca7-11e9-9515-62472e0376ae.png\" style=\"max-width: 100%;\"></a></p>",
    "body_text": "GitHub won't let me, can you make a new PR.",
    "body": "GitHub won't let me, can you make a new PR.\r\n<img width=\"457\" alt=\"screen shot 2019-01-20 at 11 35 32 am\" src=\"https://user-images.githubusercontent.com/863730/51434937-85b72800-1ca7-11e9-9515-62472e0376ae.png\">\r\n",
    "reactions": {
      "url": "https://api.github.com/repos/bitcoin/bitcoin/issues/comments/455834836/reactions",
      "total_count": 0,
      "+1": 0,
      "-1": 0,
      "laugh": 0,
      "hooray": 0,
      "confused": 0,
      "heart": 0,
      "rocket": 0,
      "eyes": 0
    },
    "performed_via_github_app": null
  }
]
