[
  {
    "url": "https://api.github.com/repos/bitcoin/bitcoin/issues/comments/2394517",
    "html_url": "https://github.com/bitcoin/bitcoin/pull/394#issuecomment-2394517",
    "issue_url": "https://api.github.com/repos/bitcoin/bitcoin/issues/394",
    "id": 2394517,
    "node_id": "MDEyOklzc3VlQ29tbWVudDIzOTQ1MTc=",
    "user": {
      "login": "luke-jr",
      "id": 1095675,
      "node_id": "MDQ6VXNlcjEwOTU2NzU=",
      "avatar_url": "https://avatars.githubusercontent.com/u/1095675?v=4",
      "gravatar_id": "",
      "url": "https://api.github.com/users/luke-jr",
      "html_url": "https://github.com/luke-jr",
      "followers_url": "https://api.github.com/users/luke-jr/followers",
      "following_url": "https://api.github.com/users/luke-jr/following{/other_user}",
      "gists_url": "https://api.github.com/users/luke-jr/gists{/gist_id}",
      "starred_url": "https://api.github.com/users/luke-jr/starred{/owner}{/repo}",
      "subscriptions_url": "https://api.github.com/users/luke-jr/subscriptions",
      "organizations_url": "https://api.github.com/users/luke-jr/orgs",
      "repos_url": "https://api.github.com/users/luke-jr/repos",
      "events_url": "https://api.github.com/users/luke-jr/events{/privacy}",
      "received_events_url": "https://api.github.com/users/luke-jr/received_events",
      "type": "User",
      "site_admin": false
    },
    "created_at": "2011-10-13T13:17:32Z",
    "updated_at": "2011-10-13T13:17:32Z",
    "author_association": "MEMBER",
    "body_html": "<p dir=\"auto\">Would be better to use a library like getopt IMO.</p>",
    "body_text": "Would be better to use a library like getopt IMO.",
    "body": "Would be better to use a library like getopt IMO.\n",
    "reactions": {
      "url": "https://api.github.com/repos/bitcoin/bitcoin/issues/comments/2394517/reactions",
      "total_count": 0,
      "+1": 0,
      "-1": 0,
      "laugh": 0,
      "hooray": 0,
      "confused": 0,
      "heart": 0,
      "rocket": 0,
      "eyes": 0
    },
    "performed_via_github_app": null
  },
  {
    "url": "https://api.github.com/repos/bitcoin/bitcoin/issues/comments/3224198",
    "html_url": "https://github.com/bitcoin/bitcoin/pull/394#issuecomment-3224198",
    "issue_url": "https://api.github.com/repos/bitcoin/bitcoin/issues/394",
    "id": 3224198,
    "node_id": "MDEyOklzc3VlQ29tbWVudDMyMjQxOTg=",
    "user": {
      "login": "jgarzik",
      "id": 494411,
      "node_id": "MDQ6VXNlcjQ5NDQxMQ==",
      "avatar_url": "https://avatars.githubusercontent.com/u/494411?v=4",
      "gravatar_id": "",
      "url": "https://api.github.com/users/jgarzik",
      "html_url": "https://github.com/jgarzik",
      "followers_url": "https://api.github.com/users/jgarzik/followers",
      "following_url": "https://api.github.com/users/jgarzik/following{/other_user}",
      "gists_url": "https://api.github.com/users/jgarzik/gists{/gist_id}",
      "starred_url": "https://api.github.com/users/jgarzik/starred{/owner}{/repo}",
      "subscriptions_url": "https://api.github.com/users/jgarzik/subscriptions",
      "organizations_url": "https://api.github.com/users/jgarzik/orgs",
      "repos_url": "https://api.github.com/users/jgarzik/repos",
      "events_url": "https://api.github.com/users/jgarzik/events{/privacy}",
      "received_events_url": "https://api.github.com/users/jgarzik/received_events",
      "type": "User",
      "site_admin": false
    },
    "created_at": "2011-12-20T19:50:02Z",
    "updated_at": "2011-12-20T19:50:02Z",
    "author_association": "CONTRIBUTOR",
    "body_html": "<ol dir=\"auto\">\n<li>this is an unusual arrangement of command line parsing</li>\n<li>it is not clear that the code is moving in the right direction (\"improvement!\"), but instead, winds up adding a bunch of symbols to the global namespace for little added value</li>\n</ol>\n<p dir=\"auto\">Closing for these reasons, as well as outdatedness.</p>",
    "body_text": "this is an unusual arrangement of command line parsing\nit is not clear that the code is moving in the right direction (\"improvement!\"), but instead, winds up adding a bunch of symbols to the global namespace for little added value\n\nClosing for these reasons, as well as outdatedness.",
    "body": "1) this is an unusual arrangement of command line parsing\n2) it is not clear that the code is moving in the right direction (\"improvement!\"), but instead, winds up adding a bunch of symbols to the global namespace for little added value\n\nClosing for these reasons, as well as outdatedness.\n",
    "reactions": {
      "url": "https://api.github.com/repos/bitcoin/bitcoin/issues/comments/3224198/reactions",
      "total_count": 0,
      "+1": 0,
      "-1": 0,
      "laugh": 0,
      "hooray": 0,
      "confused": 0,
      "heart": 0,
      "rocket": 0,
      "eyes": 0
    },
    "performed_via_github_app": null
  }
]
