[
  {
    "url": "https://api.github.com/repos/bitcoin/bitcoin/issues/comments/321194335",
    "html_url": "https://github.com/bitcoin/bitcoin/pull/11017#issuecomment-321194335",
    "issue_url": "https://api.github.com/repos/bitcoin/bitcoin/issues/11017",
    "id": 321194335,
    "node_id": "MDEyOklzc3VlQ29tbWVudDMyMTE5NDMzNQ==",
    "user": {
      "login": "practicalswift",
      "id": 7826565,
      "node_id": "MDQ6VXNlcjc4MjY1NjU=",
      "avatar_url": "https://avatars.githubusercontent.com/u/7826565?v=4",
      "gravatar_id": "",
      "url": "https://api.github.com/users/practicalswift",
      "html_url": "https://github.com/practicalswift",
      "followers_url": "https://api.github.com/users/practicalswift/followers",
      "following_url": "https://api.github.com/users/practicalswift/following{/other_user}",
      "gists_url": "https://api.github.com/users/practicalswift/gists{/gist_id}",
      "starred_url": "https://api.github.com/users/practicalswift/starred{/owner}{/repo}",
      "subscriptions_url": "https://api.github.com/users/practicalswift/subscriptions",
      "organizations_url": "https://api.github.com/users/practicalswift/orgs",
      "repos_url": "https://api.github.com/users/practicalswift/repos",
      "events_url": "https://api.github.com/users/practicalswift/events{/privacy}",
      "received_events_url": "https://api.github.com/users/practicalswift/received_events",
      "type": "User",
      "site_admin": false
    },
    "created_at": "2017-08-09T08:49:11Z",
    "updated_at": "2017-08-09T08:49:11Z",
    "author_association": "CONTRIBUTOR",
    "body_html": "<p dir=\"auto\">Concept ACK! Nice find 👍</p>",
    "body_text": "Concept ACK! Nice find 👍",
    "body": "Concept ACK! Nice find 👍 ",
    "reactions": {
      "url": "https://api.github.com/repos/bitcoin/bitcoin/issues/comments/321194335/reactions",
      "total_count": 0,
      "+1": 0,
      "-1": 0,
      "laugh": 0,
      "hooray": 0,
      "confused": 0,
      "heart": 0,
      "rocket": 0,
      "eyes": 0
    },
    "performed_via_github_app": null
  },
  {
    "url": "https://api.github.com/repos/bitcoin/bitcoin/issues/comments/321490725",
    "html_url": "https://github.com/bitcoin/bitcoin/pull/11017#issuecomment-321490725",
    "issue_url": "https://api.github.com/repos/bitcoin/bitcoin/issues/11017",
    "id": 321490725,
    "node_id": "MDEyOklzc3VlQ29tbWVudDMyMTQ5MDcyNQ==",
    "user": {
      "login": "maflcko",
      "id": 6399679,
      "node_id": "MDQ6VXNlcjYzOTk2Nzk=",
      "avatar_url": "https://avatars.githubusercontent.com/u/6399679?v=4",
      "gravatar_id": "",
      "url": "https://api.github.com/users/maflcko",
      "html_url": "https://github.com/maflcko",
      "followers_url": "https://api.github.com/users/maflcko/followers",
      "following_url": "https://api.github.com/users/maflcko/following{/other_user}",
      "gists_url": "https://api.github.com/users/maflcko/gists{/gist_id}",
      "starred_url": "https://api.github.com/users/maflcko/starred{/owner}{/repo}",
      "subscriptions_url": "https://api.github.com/users/maflcko/subscriptions",
      "organizations_url": "https://api.github.com/users/maflcko/orgs",
      "repos_url": "https://api.github.com/users/maflcko/repos",
      "events_url": "https://api.github.com/users/maflcko/events{/privacy}",
      "received_events_url": "https://api.github.com/users/maflcko/received_events",
      "type": "User",
      "site_admin": false
    },
    "created_at": "2017-08-10T08:46:52Z",
    "updated_at": "2017-08-10T08:46:52Z",
    "author_association": "MEMBER",
    "body_html": "<p dir=\"auto\">utACK <a class=\"commit-link\" data-hovercard-type=\"commit\" data-hovercard-url=\"https://github.com/bitcoin/bitcoin/commit/03bc719a85cb4928cb4b43d0bc4142f72cb01b23/hovercard\" href=\"https://github.com/bitcoin/bitcoin/commit/03bc719a85cb4928cb4b43d0bc4142f72cb01b23\"><tt>03bc719</tt></a></p>",
    "body_text": "utACK 03bc719",
    "body": "utACK 03bc719a85cb4928cb4b43d0bc4142f72cb01b23",
    "reactions": {
      "url": "https://api.github.com/repos/bitcoin/bitcoin/issues/comments/321490725/reactions",
      "total_count": 0,
      "+1": 0,
      "-1": 0,
      "laugh": 0,
      "hooray": 0,
      "confused": 0,
      "heart": 0,
      "rocket": 0,
      "eyes": 0
    },
    "performed_via_github_app": null
  },
  {
    "url": "https://api.github.com/repos/bitcoin/bitcoin/issues/comments/321522908",
    "html_url": "https://github.com/bitcoin/bitcoin/pull/11017#issuecomment-321522908",
    "issue_url": "https://api.github.com/repos/bitcoin/bitcoin/issues/11017",
    "id": 321522908,
    "node_id": "MDEyOklzc3VlQ29tbWVudDMyMTUyMjkwOA==",
    "user": {
      "login": "paveljanik",
      "id": 6848764,
      "node_id": "MDQ6VXNlcjY4NDg3NjQ=",
      "avatar_url": "https://avatars.githubusercontent.com/u/6848764?v=4",
      "gravatar_id": "",
      "url": "https://api.github.com/users/paveljanik",
      "html_url": "https://github.com/paveljanik",
      "followers_url": "https://api.github.com/users/paveljanik/followers",
      "following_url": "https://api.github.com/users/paveljanik/following{/other_user}",
      "gists_url": "https://api.github.com/users/paveljanik/gists{/gist_id}",
      "starred_url": "https://api.github.com/users/paveljanik/starred{/owner}{/repo}",
      "subscriptions_url": "https://api.github.com/users/paveljanik/subscriptions",
      "organizations_url": "https://api.github.com/users/paveljanik/orgs",
      "repos_url": "https://api.github.com/users/paveljanik/repos",
      "events_url": "https://api.github.com/users/paveljanik/events{/privacy}",
      "received_events_url": "https://api.github.com/users/paveljanik/received_events",
      "type": "User",
      "site_admin": false
    },
    "created_at": "2017-08-10T11:14:37Z",
    "updated_at": "2017-08-10T11:14:37Z",
    "author_association": "CONTRIBUTOR",
    "body_html": "<p dir=\"auto\">utACK <a class=\"commit-link\" data-hovercard-type=\"commit\" data-hovercard-url=\"https://github.com/bitcoin/bitcoin/commit/03bc719a85cb4928cb4b43d0bc4142f72cb01b23/hovercard\" href=\"https://github.com/bitcoin/bitcoin/commit/03bc719a85cb4928cb4b43d0bc4142f72cb01b23\"><tt>03bc719</tt></a></p>",
    "body_text": "utACK 03bc719",
    "body": "utACK 03bc719",
    "reactions": {
      "url": "https://api.github.com/repos/bitcoin/bitcoin/issues/comments/321522908/reactions",
      "total_count": 0,
      "+1": 0,
      "-1": 0,
      "laugh": 0,
      "hooray": 0,
      "confused": 0,
      "heart": 0,
      "rocket": 0,
      "eyes": 0
    },
    "performed_via_github_app": null
  },
  {
    "url": "https://api.github.com/repos/bitcoin/bitcoin/issues/comments/322133385",
    "html_url": "https://github.com/bitcoin/bitcoin/pull/11017#issuecomment-322133385",
    "issue_url": "https://api.github.com/repos/bitcoin/bitcoin/issues/11017",
    "id": 322133385,
    "node_id": "MDEyOklzc3VlQ29tbWVudDMyMjEzMzM4NQ==",
    "user": {
      "login": "kallewoof",
      "id": 250224,
      "node_id": "MDQ6VXNlcjI1MDIyNA==",
      "avatar_url": "https://avatars.githubusercontent.com/u/250224?v=4",
      "gravatar_id": "",
      "url": "https://api.github.com/users/kallewoof",
      "html_url": "https://github.com/kallewoof",
      "followers_url": "https://api.github.com/users/kallewoof/followers",
      "following_url": "https://api.github.com/users/kallewoof/following{/other_user}",
      "gists_url": "https://api.github.com/users/kallewoof/gists{/gist_id}",
      "starred_url": "https://api.github.com/users/kallewoof/starred{/owner}{/repo}",
      "subscriptions_url": "https://api.github.com/users/kallewoof/subscriptions",
      "organizations_url": "https://api.github.com/users/kallewoof/orgs",
      "repos_url": "https://api.github.com/users/kallewoof/repos",
      "events_url": "https://api.github.com/users/kallewoof/events{/privacy}",
      "received_events_url": "https://api.github.com/users/kallewoof/received_events",
      "type": "User",
      "site_admin": false
    },
    "created_at": "2017-08-14T08:48:48Z",
    "updated_at": "2017-08-14T08:48:48Z",
    "author_association": "MEMBER",
    "body_html": "<p dir=\"auto\"><a class=\"user-mention notranslate\" data-hovercard-type=\"user\" data-hovercard-url=\"/users/promag/hovercard\" data-octo-click=\"hovercard-link-click\" data-octo-dimensions=\"link_type:self\" href=\"https://github.com/promag\">@promag</a> I ran bitcoind through Instruments on a mac, and noticed I think 40k leaks (not 40 kb, 40 thousand occurrences..) on startup. One of the traces for leaked memory was the DB open call.</p>",
    "body_text": "@promag I ran bitcoind through Instruments on a mac, and noticed I think 40k leaks (not 40 kb, 40 thousand occurrences..) on startup. One of the traces for leaked memory was the DB open call.",
    "body": "@promag I ran bitcoind through Instruments on a mac, and noticed I think 40k leaks (not 40 kb, 40 thousand occurrences..) on startup. One of the traces for leaked memory was the DB open call.",
    "reactions": {
      "url": "https://api.github.com/repos/bitcoin/bitcoin/issues/comments/322133385/reactions",
      "total_count": 0,
      "+1": 0,
      "-1": 0,
      "laugh": 0,
      "hooray": 0,
      "confused": 0,
      "heart": 0,
      "rocket": 0,
      "eyes": 0
    },
    "performed_via_github_app": null
  },
  {
    "url": "https://api.github.com/repos/bitcoin/bitcoin/issues/comments/322155046",
    "html_url": "https://github.com/bitcoin/bitcoin/pull/11017#issuecomment-322155046",
    "issue_url": "https://api.github.com/repos/bitcoin/bitcoin/issues/11017",
    "id": 322155046,
    "node_id": "MDEyOklzc3VlQ29tbWVudDMyMjE1NTA0Ng==",
    "user": {
      "login": "jonasschnelli",
      "id": 178464,
      "node_id": "MDQ6VXNlcjE3ODQ2NA==",
      "avatar_url": "https://avatars.githubusercontent.com/u/178464?v=4",
      "gravatar_id": "",
      "url": "https://api.github.com/users/jonasschnelli",
      "html_url": "https://github.com/jonasschnelli",
      "followers_url": "https://api.github.com/users/jonasschnelli/followers",
      "following_url": "https://api.github.com/users/jonasschnelli/following{/other_user}",
      "gists_url": "https://api.github.com/users/jonasschnelli/gists{/gist_id}",
      "starred_url": "https://api.github.com/users/jonasschnelli/starred{/owner}{/repo}",
      "subscriptions_url": "https://api.github.com/users/jonasschnelli/subscriptions",
      "organizations_url": "https://api.github.com/users/jonasschnelli/orgs",
      "repos_url": "https://api.github.com/users/jonasschnelli/repos",
      "events_url": "https://api.github.com/users/jonasschnelli/events{/privacy}",
      "received_events_url": "https://api.github.com/users/jonasschnelli/received_events",
      "type": "User",
      "site_admin": false
    },
    "created_at": "2017-08-14T10:23:11Z",
    "updated_at": "2017-08-14T10:23:11Z",
    "author_association": "CONTRIBUTOR",
    "body_html": "<p dir=\"auto\">utACK <a class=\"commit-link\" data-hovercard-type=\"commit\" data-hovercard-url=\"https://github.com/bitcoin/bitcoin/commit/03bc719a85cb4928cb4b43d0bc4142f72cb01b23/hovercard\" href=\"https://github.com/bitcoin/bitcoin/commit/03bc719a85cb4928cb4b43d0bc4142f72cb01b23\"><tt>03bc719</tt></a></p>",
    "body_text": "utACK 03bc719",
    "body": "utACK 03bc719a85cb4928cb4b43d0bc4142f72cb01b23",
    "reactions": {
      "url": "https://api.github.com/repos/bitcoin/bitcoin/issues/comments/322155046/reactions",
      "total_count": 0,
      "+1": 0,
      "-1": 0,
      "laugh": 0,
      "hooray": 0,
      "confused": 0,
      "heart": 0,
      "rocket": 0,
      "eyes": 0
    },
    "performed_via_github_app": null
  }
]
