[
  {
    "url": "https://api.github.com/repos/bitcoin/bitcoin/issues/comments/1098141561",
    "html_url": "https://github.com/bitcoin/bitcoin/pull/24835#issuecomment-1098141561",
    "issue_url": "https://api.github.com/repos/bitcoin/bitcoin/issues/24835",
    "id": 1098141561,
    "node_id": "IC_kwDOABII585BdE95",
    "user": {
      "login": "laanwj",
      "id": 126646,
      "node_id": "MDQ6VXNlcjEyNjY0Ng==",
      "avatar_url": "https://avatars.githubusercontent.com/u/126646?v=4",
      "gravatar_id": "",
      "url": "https://api.github.com/users/laanwj",
      "html_url": "https://github.com/laanwj",
      "followers_url": "https://api.github.com/users/laanwj/followers",
      "following_url": "https://api.github.com/users/laanwj/following{/other_user}",
      "gists_url": "https://api.github.com/users/laanwj/gists{/gist_id}",
      "starred_url": "https://api.github.com/users/laanwj/starred{/owner}{/repo}",
      "subscriptions_url": "https://api.github.com/users/laanwj/subscriptions",
      "organizations_url": "https://api.github.com/users/laanwj/orgs",
      "repos_url": "https://api.github.com/users/laanwj/repos",
      "events_url": "https://api.github.com/users/laanwj/events{/privacy}",
      "received_events_url": "https://api.github.com/users/laanwj/received_events",
      "type": "User",
      "site_admin": false
    },
    "created_at": "2022-04-13T14:45:19Z",
    "updated_at": "2022-04-13T14:45:19Z",
    "author_association": "MEMBER",
    "body_html": "<p dir=\"auto\">That's a commit from 2012 👀 We probably need some discussion here what would be the impact of this change to behavior other than <code class=\"notranslate\">-netinfo</code>.</p>",
    "body_text": "That's a commit from 2012 👀 We probably need some discussion here what would be the impact of this change to behavior other than -netinfo.",
    "body": "That's a commit from 2012 :eyes: We probably need some discussion here what would be the impact of this change to behavior other than `-netinfo`.",
    "reactions": {
      "url": "https://api.github.com/repos/bitcoin/bitcoin/issues/comments/1098141561/reactions",
      "total_count": 0,
      "+1": 0,
      "-1": 0,
      "laugh": 0,
      "hooray": 0,
      "confused": 0,
      "heart": 0,
      "rocket": 0,
      "eyes": 0
    },
    "performed_via_github_app": null
  },
  {
    "url": "https://api.github.com/repos/bitcoin/bitcoin/issues/comments/1098904177",
    "html_url": "https://github.com/bitcoin/bitcoin/pull/24835#issuecomment-1098904177",
    "issue_url": "https://api.github.com/repos/bitcoin/bitcoin/issues/24835",
    "id": 1098904177,
    "node_id": "IC_kwDOABII585Bf_Jx",
    "user": {
      "login": "dergoegge",
      "id": 8077169,
      "node_id": "MDQ6VXNlcjgwNzcxNjk=",
      "avatar_url": "https://avatars.githubusercontent.com/u/8077169?v=4",
      "gravatar_id": "",
      "url": "https://api.github.com/users/dergoegge",
      "html_url": "https://github.com/dergoegge",
      "followers_url": "https://api.github.com/users/dergoegge/followers",
      "following_url": "https://api.github.com/users/dergoegge/following{/other_user}",
      "gists_url": "https://api.github.com/users/dergoegge/gists{/gist_id}",
      "starred_url": "https://api.github.com/users/dergoegge/starred{/owner}{/repo}",
      "subscriptions_url": "https://api.github.com/users/dergoegge/subscriptions",
      "organizations_url": "https://api.github.com/users/dergoegge/orgs",
      "repos_url": "https://api.github.com/users/dergoegge/repos",
      "events_url": "https://api.github.com/users/dergoegge/events{/privacy}",
      "received_events_url": "https://api.github.com/users/dergoegge/received_events",
      "type": "User",
      "site_admin": false
    },
    "created_at": "2022-04-14T09:12:22Z",
    "updated_at": "2022-04-14T09:12:22Z",
    "author_association": "MEMBER",
    "body_html": "<p dir=\"auto\">I think the meaning of <code class=\"notranslate\">-onlynet</code> (previously <code class=\"notranslate\">-blocknet</code>) changed over the years? In commit <a class=\"commit-link\" data-hovercard-type=\"commit\" data-hovercard-url=\"https://github.com/bitcoin/bitcoin/commit/91dace35a1c7821675c369d60d1e88b2ed638842/hovercard\" href=\"https://github.com/bitcoin/bitcoin/commit/91dace35a1c7821675c369d60d1e88b2ed638842\"><tt>91dace3</tt></a> listening on blocked networks was disabled (and with that <a class=\"commit-link\" data-hovercard-type=\"commit\" data-hovercard-url=\"https://github.com/bitcoin/bitcoin/commit/1653f97c8f3c37cd96e03cf397c31c5caf81af08/hovercard\" href=\"https://github.com/bitcoin/bitcoin/commit/1653f97c8f3c37cd96e03cf397c31c5caf81af08\"><tt>1653f97</tt></a> makes sense) but nowadays incoming connections are not affected, which is also stated in the description of <code class=\"notranslate\">-onlynet</code>.</p>",
    "body_text": "I think the meaning of -onlynet (previously -blocknet) changed over the years? In commit 91dace3 listening on blocked networks was disabled (and with that 1653f97 makes sense) but nowadays incoming connections are not affected, which is also stated in the description of -onlynet.",
    "body": "I think the meaning of `-onlynet` (previously `-blocknet`) changed over the years? In commit 91dace35a1c7821675c369d60d1e88b2ed638842 listening on blocked networks was disabled (and with that 1653f97c8f3c37cd96e03cf397c31c5caf81af08 makes sense) but nowadays incoming connections are not affected, which is also stated in the description of `-onlynet`.",
    "reactions": {
      "url": "https://api.github.com/repos/bitcoin/bitcoin/issues/comments/1098904177/reactions",
      "total_count": 0,
      "+1": 0,
      "-1": 0,
      "laugh": 0,
      "hooray": 0,
      "confused": 0,
      "heart": 0,
      "rocket": 0,
      "eyes": 0
    },
    "performed_via_github_app": null
  },
  {
    "url": "https://api.github.com/repos/bitcoin/bitcoin/issues/comments/1103761220",
    "html_url": "https://github.com/bitcoin/bitcoin/pull/24835#issuecomment-1103761220",
    "issue_url": "https://api.github.com/repos/bitcoin/bitcoin/issues/24835",
    "id": 1103761220,
    "node_id": "IC_kwDOABII585Byg9E",
    "user": {
      "login": "fanquake",
      "id": 863730,
      "node_id": "MDQ6VXNlcjg2MzczMA==",
      "avatar_url": "https://avatars.githubusercontent.com/u/863730?v=4",
      "gravatar_id": "",
      "url": "https://api.github.com/users/fanquake",
      "html_url": "https://github.com/fanquake",
      "followers_url": "https://api.github.com/users/fanquake/followers",
      "following_url": "https://api.github.com/users/fanquake/following{/other_user}",
      "gists_url": "https://api.github.com/users/fanquake/gists{/gist_id}",
      "starred_url": "https://api.github.com/users/fanquake/starred{/owner}{/repo}",
      "subscriptions_url": "https://api.github.com/users/fanquake/subscriptions",
      "organizations_url": "https://api.github.com/users/fanquake/orgs",
      "repos_url": "https://api.github.com/users/fanquake/repos",
      "events_url": "https://api.github.com/users/fanquake/events{/privacy}",
      "received_events_url": "https://api.github.com/users/fanquake/received_events",
      "type": "User",
      "site_admin": false
    },
    "created_at": "2022-04-20T10:14:38Z",
    "updated_at": "2022-04-20T10:14:38Z",
    "author_association": "MEMBER",
    "body_html": "<p dir=\"auto\"><a class=\"user-mention notranslate\" data-hovercard-type=\"user\" data-hovercard-url=\"/users/mzumsande/hovercard\" data-octo-click=\"hovercard-link-click\" data-octo-dimensions=\"link_type:self\" href=\"https://github.com/mzumsande\">@mzumsande</a> <a class=\"user-mention notranslate\" data-hovercard-type=\"user\" data-hovercard-url=\"/users/jnewbery/hovercard\" data-octo-click=\"hovercard-link-click\" data-octo-dimensions=\"link_type:self\" href=\"https://github.com/jnewbery\">@jnewbery</a> <a class=\"user-mention notranslate\" data-hovercard-type=\"user\" data-hovercard-url=\"/users/sipa/hovercard\" data-octo-click=\"hovercard-link-click\" data-octo-dimensions=\"link_type:self\" href=\"https://github.com/sipa\">@sipa</a> any opinions here?</p>",
    "body_text": "@mzumsande @jnewbery @sipa any opinions here?",
    "body": "@mzumsande @jnewbery @sipa any opinions here?",
    "reactions": {
      "url": "https://api.github.com/repos/bitcoin/bitcoin/issues/comments/1103761220/reactions",
      "total_count": 0,
      "+1": 0,
      "-1": 0,
      "laugh": 0,
      "hooray": 0,
      "confused": 0,
      "heart": 0,
      "rocket": 0,
      "eyes": 0
    },
    "performed_via_github_app": null
  },
  {
    "url": "https://api.github.com/repos/bitcoin/bitcoin/issues/comments/1107939994",
    "html_url": "https://github.com/bitcoin/bitcoin/pull/24835#issuecomment-1107939994",
    "issue_url": "https://api.github.com/repos/bitcoin/bitcoin/issues/24835",
    "id": 1107939994,
    "node_id": "IC_kwDOABII585CCdKa",
    "user": {
      "login": "mzumsande",
      "id": 48763452,
      "node_id": "MDQ6VXNlcjQ4NzYzNDUy",
      "avatar_url": "https://avatars.githubusercontent.com/u/48763452?v=4",
      "gravatar_id": "",
      "url": "https://api.github.com/users/mzumsande",
      "html_url": "https://github.com/mzumsande",
      "followers_url": "https://api.github.com/users/mzumsande/followers",
      "following_url": "https://api.github.com/users/mzumsande/following{/other_user}",
      "gists_url": "https://api.github.com/users/mzumsande/gists{/gist_id}",
      "starred_url": "https://api.github.com/users/mzumsande/starred{/owner}{/repo}",
      "subscriptions_url": "https://api.github.com/users/mzumsande/subscriptions",
      "organizations_url": "https://api.github.com/users/mzumsande/orgs",
      "repos_url": "https://api.github.com/users/mzumsande/repos",
      "events_url": "https://api.github.com/users/mzumsande/events{/privacy}",
      "received_events_url": "https://api.github.com/users/mzumsande/received_events",
      "type": "User",
      "site_admin": false
    },
    "created_at": "2022-04-24T23:36:47Z",
    "updated_at": "2022-04-24T23:36:47Z",
    "author_association": "CONTRIBUTOR",
    "body_html": "<p dir=\"auto\">I agree with <a class=\"user-mention notranslate\" data-hovercard-type=\"user\" data-hovercard-url=\"/users/laanwj/hovercard\" data-octo-click=\"hovercard-link-click\" data-octo-dimensions=\"link_type:self\" href=\"https://github.com/laanwj\">@laanwj</a> that the focus should be on the behavioral changes, not so much <code class=\"notranslate\">-netinfo</code>.<br>\nIt would be good to have more info on the rationale of <a class=\"commit-link\" data-hovercard-type=\"commit\" data-hovercard-url=\"https://github.com/bitcoin/bitcoin/commit/1653f97c8f3c37cd96e03cf397c31c5caf81af08/hovercard\" href=\"https://github.com/bitcoin/bitcoin/commit/1653f97c8f3c37cd96e03cf397c31c5caf81af08\"><tt>1653f97</tt></a> - was there a PR for this that I'm unable to find?</p>\n<p dir=\"auto\">If removing the <code class=\"notranslate\">IsReachable</code> call from <code class=\"notranslate\">AddLocal()</code>, I think that  <code class=\"notranslate\">IsPeerAddrLocalGood()</code> should be adjusted too for consistency.</p>\n<p dir=\"auto\">I'm unsure about this, but remember a discussion about the same topic with <a class=\"user-mention notranslate\" data-hovercard-type=\"user\" data-hovercard-url=\"/users/vasild/hovercard\" data-octo-click=\"hovercard-link-click\" data-octo-dimensions=\"link_type:self\" href=\"https://github.com/vasild\">@vasild</a> in <a class=\"issue-link js-issue-link\" data-error-text=\"Failed to load title\" data-id=\"982781285\" data-permission-text=\"Title is private\" data-url=\"https://github.com/bitcoin/bitcoin/issues/22834\" data-hovercard-type=\"pull_request\" data-hovercard-url=\"/bitcoin/bitcoin/pull/22834/hovercard\" href=\"https://github.com/bitcoin/bitcoin/pull/22834\">#22834</a>:<br>\nI <a href=\"https://github.com/bitcoin/bitcoin/pull/22834#issuecomment-913233420\" data-hovercard-type=\"pull_request\" data-hovercard-url=\"/bitcoin/bitcoin/pull/22834/hovercard\">asked</a>:</p>\n<blockquote>\n<p dir=\"auto\">IsPeerAddrLocalGood() and AddLocal() both call IsReachable() and therefore might be affected. Considering that they deal with the address used for self-advertising (and thus for getting incoming connections) I don't really understand why they make use of <code class=\"notranslate\">IsReachable()</code> in the first place. Shouldn't this affect only outbound connection logic?</p>\n</blockquote>\n<p dir=\"auto\">vasild's <a href=\"https://github.com/bitcoin/bitcoin/pull/22834#issuecomment-914265670\" data-hovercard-type=\"pull_request\" data-hovercard-url=\"/bitcoin/bitcoin/pull/22834/hovercard\">answer</a>:</p>\n<blockquote>\n<p dir=\"auto\">I think the logic is this - if a network is not reachable then we cannot accept connections from it. \"Reachable\" in the broader English word meaning, not the stricter -onlynet meaning. For example, a host/OS may have support for both IPv4 and IPv6 but its ISP may only support IPv4. So, an operator would run -onlynet=ipv4 to avoid attempting connections to IPv6 hosts and from advertising an IPv6 address to which the rest of the world cannot connect.</p>\n</blockquote>",
    "body_text": "I agree with @laanwj that the focus should be on the behavioral changes, not so much -netinfo.\nIt would be good to have more info on the rationale of 1653f97 - was there a PR for this that I'm unable to find?\nIf removing the IsReachable call from AddLocal(), I think that  IsPeerAddrLocalGood() should be adjusted too for consistency.\nI'm unsure about this, but remember a discussion about the same topic with @vasild in #22834:\nI asked:\n\nIsPeerAddrLocalGood() and AddLocal() both call IsReachable() and therefore might be affected. Considering that they deal with the address used for self-advertising (and thus for getting incoming connections) I don't really understand why they make use of IsReachable() in the first place. Shouldn't this affect only outbound connection logic?\n\nvasild's answer:\n\nI think the logic is this - if a network is not reachable then we cannot accept connections from it. \"Reachable\" in the broader English word meaning, not the stricter -onlynet meaning. For example, a host/OS may have support for both IPv4 and IPv6 but its ISP may only support IPv4. So, an operator would run -onlynet=ipv4 to avoid attempting connections to IPv6 hosts and from advertising an IPv6 address to which the rest of the world cannot connect.",
    "body": "I agree with @laanwj that the focus should be on the behavioral changes, not so much `-netinfo`.\r\nIt would be good to have more info on the rationale of https://github.com/bitcoin/bitcoin/commit/1653f97c8f3c37cd96e03cf397c31c5caf81af08 - was there a PR for this that I'm unable to find?\r\n\r\nIf removing the `IsReachable` call from `AddLocal()`, I think that  `IsPeerAddrLocalGood()` should be adjusted too for consistency.\r\n\r\nI'm unsure about this, but remember a discussion about the same topic with @vasild in #22834:\r\nI [asked](https://github.com/bitcoin/bitcoin/pull/22834#issuecomment-913233420):\r\n> IsPeerAddrLocalGood() and AddLocal() both call IsReachable() and therefore might be affected. Considering that they deal with the address used for self-advertising (and thus for getting incoming connections) I don't really understand why they make use of `IsReachable()` in the first place. Shouldn't this affect only outbound connection logic?\r\n\r\nvasild's [answer](https://github.com/bitcoin/bitcoin/pull/22834#issuecomment-914265670):\r\n\r\n> I think the logic is this - if a network is not reachable then we cannot accept connections from it. \"Reachable\" in the broader English word meaning, not the stricter -onlynet meaning. For example, a host/OS may have support for both IPv4 and IPv6 but its ISP may only support IPv4. So, an operator would run -onlynet=ipv4 to avoid attempting connections to IPv6 hosts and from advertising an IPv6 address to which the rest of the world cannot connect.",
    "reactions": {
      "url": "https://api.github.com/repos/bitcoin/bitcoin/issues/comments/1107939994/reactions",
      "total_count": 0,
      "+1": 0,
      "-1": 0,
      "laugh": 0,
      "hooray": 0,
      "confused": 0,
      "heart": 0,
      "rocket": 0,
      "eyes": 0
    },
    "performed_via_github_app": null
  },
  {
    "url": "https://api.github.com/repos/bitcoin/bitcoin/issues/comments/1108152066",
    "html_url": "https://github.com/bitcoin/bitcoin/pull/24835#issuecomment-1108152066",
    "issue_url": "https://api.github.com/repos/bitcoin/bitcoin/issues/24835",
    "id": 1108152066,
    "node_id": "IC_kwDOABII585CDQ8C",
    "user": {
      "login": "maflcko",
      "id": 6399679,
      "node_id": "MDQ6VXNlcjYzOTk2Nzk=",
      "avatar_url": "https://avatars.githubusercontent.com/u/6399679?v=4",
      "gravatar_id": "",
      "url": "https://api.github.com/users/maflcko",
      "html_url": "https://github.com/maflcko",
      "followers_url": "https://api.github.com/users/maflcko/followers",
      "following_url": "https://api.github.com/users/maflcko/following{/other_user}",
      "gists_url": "https://api.github.com/users/maflcko/gists{/gist_id}",
      "starred_url": "https://api.github.com/users/maflcko/starred{/owner}{/repo}",
      "subscriptions_url": "https://api.github.com/users/maflcko/subscriptions",
      "organizations_url": "https://api.github.com/users/maflcko/orgs",
      "repos_url": "https://api.github.com/users/maflcko/repos",
      "events_url": "https://api.github.com/users/maflcko/events{/privacy}",
      "received_events_url": "https://api.github.com/users/maflcko/received_events",
      "type": "User",
      "site_admin": false
    },
    "created_at": "2022-04-25T07:03:53Z",
    "updated_at": "2022-04-25T07:03:53Z",
    "author_association": "MEMBER",
    "body_html": "<blockquote>\n<p dir=\"auto\">It would be good to have more info on the rationale of <a class=\"commit-link\" data-hovercard-type=\"commit\" data-hovercard-url=\"https://github.com/bitcoin/bitcoin/commit/1653f97c8f3c37cd96e03cf397c31c5caf81af08/hovercard\" href=\"https://github.com/bitcoin/bitcoin/commit/1653f97c8f3c37cd96e03cf397c31c5caf81af08\"><tt>1653f97</tt></a> - was there a PR for this that I'm unable to find?</p>\n</blockquote>\n<p dir=\"auto\">Interesting. Looks like there was no PR. One (or the) descendant commit (<a class=\"commit-link\" data-hovercard-type=\"commit\" data-hovercard-url=\"https://github.com/bitcoin/bitcoin/commit/5e794a9ab7449cee8ea9f2d2e23ff764f71a91c9/hovercard\" href=\"https://github.com/bitcoin/bitcoin/commit/5e794a9ab7449cee8ea9f2d2e23ff764f71a91c9\"><tt>5e794a9</tt></a>) with unrelated content is not a merge commit, indicating (but not proving) that a merge commit may not exist.</p>\n<p dir=\"auto\">The commit itself (<a class=\"commit-link\" data-hovercard-type=\"commit\" data-hovercard-url=\"https://github.com/bitcoin/bitcoin/commit/1653f97c8f3c37cd96e03cf397c31c5caf81af08/hovercard\" href=\"https://github.com/bitcoin/bitcoin/commit/1653f97c8f3c37cd96e03cf397c31c5caf81af08\"><tt>1653f97</tt></a>) was likely written at 3pm. While an unrelated pull on the same day (<a class=\"issue-link js-issue-link\" data-error-text=\"Failed to load title\" data-id=\"4551813\" data-permission-text=\"Title is private\" data-url=\"https://github.com/bitcoin/bitcoin/issues/1284\" data-hovercard-type=\"pull_request\" data-hovercard-url=\"/bitcoin/bitcoin/pull/1284/hovercard\" href=\"https://github.com/bitcoin/bitcoin/pull/1284\">#1284</a>) was opened at 11am, possibly rebased(?), merged at 6pm, and included <a class=\"commit-link\" data-hovercard-type=\"commit\" data-hovercard-url=\"https://github.com/bitcoin/bitcoin/commit/1653f97c8f3c37cd96e03cf397c31c5caf81af08/hovercard\" href=\"https://github.com/bitcoin/bitcoin/commit/1653f97c8f3c37cd96e03cf397c31c5caf81af08\"><tt>1653f97</tt></a> in its base.</p>",
    "body_text": "It would be good to have more info on the rationale of 1653f97 - was there a PR for this that I'm unable to find?\n\nInteresting. Looks like there was no PR. One (or the) descendant commit (5e794a9) with unrelated content is not a merge commit, indicating (but not proving) that a merge commit may not exist.\nThe commit itself (1653f97) was likely written at 3pm. While an unrelated pull on the same day (#1284) was opened at 11am, possibly rebased(?), merged at 6pm, and included 1653f97 in its base.",
    "body": "> It would be good to have more info on the rationale of https://github.com/bitcoin/bitcoin/commit/1653f97c8f3c37cd96e03cf397c31c5caf81af08 - was there a PR for this that I'm unable to find?\r\n\r\nInteresting. Looks like there was no PR. One (or the) descendant commit (5e794a9ab7449cee8ea9f2d2e23ff764f71a91c9) with unrelated content is not a merge commit, indicating (but not proving) that a merge commit may not exist.\r\n\r\nThe commit itself (1653f97c8f3c37cd96e03cf397c31c5caf81af08) was likely written at 3pm. While an unrelated pull on the same day (https://github.com/bitcoin/bitcoin/pull/1284) was opened at 11am, possibly rebased(?), merged at 6pm, and included 1653f97c8f3c37cd96e03cf397c31c5caf81af08 in its base.",
    "reactions": {
      "url": "https://api.github.com/repos/bitcoin/bitcoin/issues/comments/1108152066/reactions",
      "total_count": 0,
      "+1": 0,
      "-1": 0,
      "laugh": 0,
      "hooray": 0,
      "confused": 0,
      "heart": 0,
      "rocket": 0,
      "eyes": 0
    },
    "performed_via_github_app": null
  },
  {
    "url": "https://api.github.com/repos/bitcoin/bitcoin/issues/comments/1108523732",
    "html_url": "https://github.com/bitcoin/bitcoin/pull/24835#issuecomment-1108523732",
    "issue_url": "https://api.github.com/repos/bitcoin/bitcoin/issues/24835",
    "id": 1108523732,
    "node_id": "IC_kwDOABII585CErrU",
    "user": {
      "login": "vasild",
      "id": 266751,
      "node_id": "MDQ6VXNlcjI2Njc1MQ==",
      "avatar_url": "https://avatars.githubusercontent.com/u/266751?v=4",
      "gravatar_id": "",
      "url": "https://api.github.com/users/vasild",
      "html_url": "https://github.com/vasild",
      "followers_url": "https://api.github.com/users/vasild/followers",
      "following_url": "https://api.github.com/users/vasild/following{/other_user}",
      "gists_url": "https://api.github.com/users/vasild/gists{/gist_id}",
      "starred_url": "https://api.github.com/users/vasild/starred{/owner}{/repo}",
      "subscriptions_url": "https://api.github.com/users/vasild/subscriptions",
      "organizations_url": "https://api.github.com/users/vasild/orgs",
      "repos_url": "https://api.github.com/users/vasild/repos",
      "events_url": "https://api.github.com/users/vasild/events{/privacy}",
      "received_events_url": "https://api.github.com/users/vasild/received_events",
      "type": "User",
      "site_admin": false
    },
    "created_at": "2022-04-25T12:45:25Z",
    "updated_at": "2022-04-25T12:53:04Z",
    "author_association": "CONTRIBUTOR",
    "body_html": "<blockquote>\n<p dir=\"auto\">if a network is not reachable then we cannot accept connections from it</p>\n</blockquote>\n<p dir=\"auto\">apparently, this is not the case for <a class=\"user-mention notranslate\" data-hovercard-type=\"user\" data-hovercard-url=\"/users/dergoegge/hovercard\" data-octo-click=\"hovercard-link-click\" data-octo-dimensions=\"link_type:self\" href=\"https://github.com/dergoegge\">@dergoegge</a>. If we bind and listen on an address that is omitted from <code class=\"notranslate\">-onlynet</code>, then there are downsides either way:</p>\n<ol dir=\"auto\">\n<li>As it is currently in <code class=\"notranslate\">master</code>:</li>\n</ol>\n<ul dir=\"auto\">\n<li>we will not show the listening address in <code class=\"notranslate\">-netinfo</code> or in <code class=\"notranslate\">getnetworkinfo</code> (bad if peers can reach that address, good otherwise)</li>\n<li>we will not advertise it to other peers (good?)</li>\n</ul>\n<ol start=\"2\" dir=\"auto\">\n<li>With this PR:</li>\n</ol>\n<ul dir=\"auto\">\n<li>we will show the listening address in <code class=\"notranslate\">-netinfo</code> or in <code class=\"notranslate\">getnetworkinfo</code> (good if peers can reach that address, bad otherwise)</li>\n<li>we will advertise it to other peers (bad? or at least a significant change in behavior)</li>\n</ul>\n<p dir=\"auto\">I prefer 1. because the \"bad\" is only a display issue. Other options could be to include a new section in the display: \"listening but not advertised addresses\". Or to stop bind/listening on addresses omitted from <code class=\"notranslate\">-onlynet</code> (increase its scope as it currently only affects outgoing connections).</p>\n<p dir=\"auto\">PS: actually, we don't know if peers can even reach our address that is omitted from <code class=\"notranslate\">-onlynet</code>. It could be the case as mentioned above that a host/OS has e.g. IPv6 support (and a configured address for some local purposes, maybe), but ISP does not support IPv6. <code class=\"notranslate\">bitcoind</code> can't distinguish between this case and <a class=\"user-mention notranslate\" data-hovercard-type=\"user\" data-hovercard-url=\"/users/dergoegge/hovercard\" data-octo-click=\"hovercard-link-click\" data-octo-dimensions=\"link_type:self\" href=\"https://github.com/dergoegge\">@dergoegge</a>'s case. It assumes the former, which looks reasonable to me.</p>",
    "body_text": "if a network is not reachable then we cannot accept connections from it\n\napparently, this is not the case for @dergoegge. If we bind and listen on an address that is omitted from -onlynet, then there are downsides either way:\n\nAs it is currently in master:\n\n\nwe will not show the listening address in -netinfo or in getnetworkinfo (bad if peers can reach that address, good otherwise)\nwe will not advertise it to other peers (good?)\n\n\nWith this PR:\n\n\nwe will show the listening address in -netinfo or in getnetworkinfo (good if peers can reach that address, bad otherwise)\nwe will advertise it to other peers (bad? or at least a significant change in behavior)\n\nI prefer 1. because the \"bad\" is only a display issue. Other options could be to include a new section in the display: \"listening but not advertised addresses\". Or to stop bind/listening on addresses omitted from -onlynet (increase its scope as it currently only affects outgoing connections).\nPS: actually, we don't know if peers can even reach our address that is omitted from -onlynet. It could be the case as mentioned above that a host/OS has e.g. IPv6 support (and a configured address for some local purposes, maybe), but ISP does not support IPv6. bitcoind can't distinguish between this case and @dergoegge's case. It assumes the former, which looks reasonable to me.",
    "body": "> if a network is not reachable then we cannot accept connections from it\r\n\r\napparently, this is not the case for @dergoegge. If we bind and listen on an address that is omitted from `-onlynet`, then there are downsides either way:\r\n\r\n1. As it is currently in `master`:\r\n* we will not show the listening address in `-netinfo` or in `getnetworkinfo` (bad if peers can reach that address, good otherwise)\r\n* we will not advertise it to other peers (good?)\r\n\r\n2. With this PR:\r\n* we will show the listening address in `-netinfo` or in `getnetworkinfo` (good if peers can reach that address, bad otherwise)\r\n* we will advertise it to other peers (bad? or at least a significant change in behavior)\r\n\r\nI prefer 1. because the \"bad\" is only a display issue. Other options could be to include a new section in the display: \"listening but not advertised addresses\". Or to stop bind/listening on addresses omitted from `-onlynet` (increase its scope as it currently only affects outgoing connections).\r\n\r\nPS: actually, we don't know if peers can even reach our address that is omitted from `-onlynet`. It could be the case as mentioned above that a host/OS has e.g. IPv6 support (and a configured address for some local purposes, maybe), but ISP does not support IPv6. `bitcoind` can't distinguish between this case and @dergoegge's case. It assumes the former, which looks reasonable to me.",
    "reactions": {
      "url": "https://api.github.com/repos/bitcoin/bitcoin/issues/comments/1108523732/reactions",
      "total_count": 0,
      "+1": 0,
      "-1": 0,
      "laugh": 0,
      "hooray": 0,
      "confused": 0,
      "heart": 0,
      "rocket": 0,
      "eyes": 0
    },
    "performed_via_github_app": null
  },
  {
    "url": "https://api.github.com/repos/bitcoin/bitcoin/issues/comments/1109544484",
    "html_url": "https://github.com/bitcoin/bitcoin/pull/24835#issuecomment-1109544484",
    "issue_url": "https://api.github.com/repos/bitcoin/bitcoin/issues/24835",
    "id": 1109544484,
    "node_id": "IC_kwDOABII585CIk4k",
    "user": {
      "login": "dergoegge",
      "id": 8077169,
      "node_id": "MDQ6VXNlcjgwNzcxNjk=",
      "avatar_url": "https://avatars.githubusercontent.com/u/8077169?v=4",
      "gravatar_id": "",
      "url": "https://api.github.com/users/dergoegge",
      "html_url": "https://github.com/dergoegge",
      "followers_url": "https://api.github.com/users/dergoegge/followers",
      "following_url": "https://api.github.com/users/dergoegge/following{/other_user}",
      "gists_url": "https://api.github.com/users/dergoegge/gists{/gist_id}",
      "starred_url": "https://api.github.com/users/dergoegge/starred{/owner}{/repo}",
      "subscriptions_url": "https://api.github.com/users/dergoegge/subscriptions",
      "organizations_url": "https://api.github.com/users/dergoegge/orgs",
      "repos_url": "https://api.github.com/users/dergoegge/repos",
      "events_url": "https://api.github.com/users/dergoegge/events{/privacy}",
      "received_events_url": "https://api.github.com/users/dergoegge/received_events",
      "type": "User",
      "site_admin": false
    },
    "created_at": "2022-04-26T09:06:52Z",
    "updated_at": "2022-04-26T09:06:52Z",
    "author_association": "MEMBER",
    "body_html": "<blockquote>\n<p dir=\"auto\">if a network is not reachable then we cannot accept connections from it<br>\napparently, this is not the case for <a class=\"user-mention notranslate\" data-hovercard-type=\"user\" data-hovercard-url=\"/users/dergoegge/hovercard\" data-octo-click=\"hovercard-link-click\" data-octo-dimensions=\"link_type:self\" href=\"https://github.com/dergoegge\">@dergoegge</a>.</p>\n</blockquote>\n<p dir=\"auto\"><a class=\"user-mention notranslate\" data-hovercard-type=\"user\" data-hovercard-url=\"/users/vasild/hovercard\" data-octo-click=\"hovercard-link-click\" data-octo-dimensions=\"link_type:self\" href=\"https://github.com/vasild\">@vasild</a> for context: I was playing around with <code class=\"notranslate\">-onlynet</code> and used <code class=\"notranslate\">-onlynet=ipv4</code> because i wanted my node to only make outbound ipv4 connections but keep getting Tor, ipv6 and ipv4 inbound connections. I wanted to double check with <code class=\"notranslate\">-netinfo</code> but to my surprise only my ipv4 address was shown. However, I noticed that I was still receiving inbound connections on my onion address (i was previously running the node without <code class=\"notranslate\">-onlynet</code>). That seemed inconsistent to me so I opened this PR.</p>\n<blockquote>\n<p dir=\"auto\">we will advertise it to other peers (bad? or at least a significant change in behavior)</p>\n</blockquote>\n<p dir=\"auto\">Would we though? afaict we try to announce the address that is best reachable for our peer. So for example, if we connect to a peer through IPv4 and we have a local IPv4 and IPv6 address, we won't announce the IPv6 address to that peer (See <a href=\"https://github.com/bitcoin/bitcoin/blob/e88a52e9a2fda971d34425bb80e42ad2d6623d68/src/net.cpp#L158\">GetLocal</a> and <a href=\"https://github.com/bitcoin/bitcoin/blob/e88a52e9a2fda971d34425bb80e42ad2d6623d68/src/netaddress.cpp#L748\">GetReachable</a>, we sort by reachability). TBH it does not seem super obvious to me which address we choose for advertising so i might be wrong.</p>\n<p dir=\"auto\">The description of <code class=\"notranslate\">-onlynet</code> states \"Inbound and manual connections are not affected by this option.\" but not advertising an address does affect inbound connections (you won't get any or only a few if you previously advertised your address).</p>\n<p dir=\"auto\">I think my main problem was the display issue and adding a \"listening but not advertised addresses\" section seems OK to me.</p>",
    "body_text": "if a network is not reachable then we cannot accept connections from it\napparently, this is not the case for @dergoegge.\n\n@vasild for context: I was playing around with -onlynet and used -onlynet=ipv4 because i wanted my node to only make outbound ipv4 connections but keep getting Tor, ipv6 and ipv4 inbound connections. I wanted to double check with -netinfo but to my surprise only my ipv4 address was shown. However, I noticed that I was still receiving inbound connections on my onion address (i was previously running the node without -onlynet). That seemed inconsistent to me so I opened this PR.\n\nwe will advertise it to other peers (bad? or at least a significant change in behavior)\n\nWould we though? afaict we try to announce the address that is best reachable for our peer. So for example, if we connect to a peer through IPv4 and we have a local IPv4 and IPv6 address, we won't announce the IPv6 address to that peer (See GetLocal and GetReachable, we sort by reachability). TBH it does not seem super obvious to me which address we choose for advertising so i might be wrong.\nThe description of -onlynet states \"Inbound and manual connections are not affected by this option.\" but not advertising an address does affect inbound connections (you won't get any or only a few if you previously advertised your address).\nI think my main problem was the display issue and adding a \"listening but not advertised addresses\" section seems OK to me.",
    "body": "> if a network is not reachable then we cannot accept connections from it\r\n> apparently, this is not the case for @dergoegge.\r\n\r\n@vasild for context: I was playing around with `-onlynet` and used `-onlynet=ipv4` because i wanted my node to only make outbound ipv4 connections but keep getting Tor, ipv6 and ipv4 inbound connections. I wanted to double check with `-netinfo` but to my surprise only my ipv4 address was shown. However, I noticed that I was still receiving inbound connections on my onion address (i was previously running the node without `-onlynet`). That seemed inconsistent to me so I opened this PR.\r\n\r\n> we will advertise it to other peers (bad? or at least a significant change in behavior)\r\n\r\nWould we though? afaict we try to announce the address that is best reachable for our peer. So for example, if we connect to a peer through IPv4 and we have a local IPv4 and IPv6 address, we won't announce the IPv6 address to that peer (See [GetLocal](https://github.com/bitcoin/bitcoin/blob/e88a52e9a2fda971d34425bb80e42ad2d6623d68/src/net.cpp#L158) and [GetReachable](https://github.com/bitcoin/bitcoin/blob/e88a52e9a2fda971d34425bb80e42ad2d6623d68/src/netaddress.cpp#L748), we sort by reachability). TBH it does not seem super obvious to me which address we choose for advertising so i might be wrong.\r\n\r\nThe description of `-onlynet` states \"Inbound and manual connections are not affected by this option.\" but not advertising an address does affect inbound connections (you won't get any or only a few if you previously advertised your address).\r\n\r\nI think my main problem was the display issue and adding a \"listening but not advertised addresses\" section seems OK to me.",
    "reactions": {
      "url": "https://api.github.com/repos/bitcoin/bitcoin/issues/comments/1109544484/reactions",
      "total_count": 0,
      "+1": 0,
      "-1": 0,
      "laugh": 0,
      "hooray": 0,
      "confused": 0,
      "heart": 0,
      "rocket": 0,
      "eyes": 0
    },
    "performed_via_github_app": null
  },
  {
    "url": "https://api.github.com/repos/bitcoin/bitcoin/issues/comments/1110970156",
    "html_url": "https://github.com/bitcoin/bitcoin/pull/24835#issuecomment-1110970156",
    "issue_url": "https://api.github.com/repos/bitcoin/bitcoin/issues/24835",
    "id": 1110970156,
    "node_id": "IC_kwDOABII585COA8s",
    "user": {
      "login": "mzumsande",
      "id": 48763452,
      "node_id": "MDQ6VXNlcjQ4NzYzNDUy",
      "avatar_url": "https://avatars.githubusercontent.com/u/48763452?v=4",
      "gravatar_id": "",
      "url": "https://api.github.com/users/mzumsande",
      "html_url": "https://github.com/mzumsande",
      "followers_url": "https://api.github.com/users/mzumsande/followers",
      "following_url": "https://api.github.com/users/mzumsande/following{/other_user}",
      "gists_url": "https://api.github.com/users/mzumsande/gists{/gist_id}",
      "starred_url": "https://api.github.com/users/mzumsande/starred{/owner}{/repo}",
      "subscriptions_url": "https://api.github.com/users/mzumsande/subscriptions",
      "organizations_url": "https://api.github.com/users/mzumsande/orgs",
      "repos_url": "https://api.github.com/users/mzumsande/repos",
      "events_url": "https://api.github.com/users/mzumsande/events{/privacy}",
      "received_events_url": "https://api.github.com/users/mzumsande/received_events",
      "type": "User",
      "site_admin": false
    },
    "created_at": "2022-04-27T12:59:39Z",
    "updated_at": "2022-04-27T13:00:13Z",
    "author_association": "CONTRIBUTOR",
    "body_html": "<blockquote>\n<p dir=\"auto\">Would we though? afaict we try to announce the address that is best reachable for our peer.</p>\n</blockquote>\n<p dir=\"auto\">We would at least for any existing inbound peers. So there could be the effect that if your address that is known to the network and you use <code class=\"notranslate\">-onlynet</code> with another network, you'd keep on advertising it to inbound peers - if you are not known and don't get inbound connections, that won't change.</p>\n<p dir=\"auto\">Current behavior is that once you switch to -onlynet, you won't advertise other addresses at all, so inbound connections could become more infrequent over time (although GETDATA relay of the existing address by others is not affected).</p>",
    "body_text": "Would we though? afaict we try to announce the address that is best reachable for our peer.\n\nWe would at least for any existing inbound peers. So there could be the effect that if your address that is known to the network and you use -onlynet with another network, you'd keep on advertising it to inbound peers - if you are not known and don't get inbound connections, that won't change.\nCurrent behavior is that once you switch to -onlynet, you won't advertise other addresses at all, so inbound connections could become more infrequent over time (although GETDATA relay of the existing address by others is not affected).",
    "body": "> Would we though? afaict we try to announce the address that is best reachable for our peer.\r\n\r\nWe would at least for any existing inbound peers. So there could be the effect that if your address that is known to the network and you use `-onlynet` with another network, you'd keep on advertising it to inbound peers - if you are not known and don't get inbound connections, that won't change.\r\n\r\nCurrent behavior is that once you switch to -onlynet, you won't advertise other addresses at all, so inbound connections could become more infrequent over time (although GETDATA relay of the existing address by others is not affected).",
    "reactions": {
      "url": "https://api.github.com/repos/bitcoin/bitcoin/issues/comments/1110970156/reactions",
      "total_count": 0,
      "+1": 0,
      "-1": 0,
      "laugh": 0,
      "hooray": 0,
      "confused": 0,
      "heart": 0,
      "rocket": 0,
      "eyes": 0
    },
    "performed_via_github_app": null
  },
  {
    "url": "https://api.github.com/repos/bitcoin/bitcoin/issues/comments/1111003324",
    "html_url": "https://github.com/bitcoin/bitcoin/pull/24835#issuecomment-1111003324",
    "issue_url": "https://api.github.com/repos/bitcoin/bitcoin/issues/24835",
    "id": 1111003324,
    "node_id": "IC_kwDOABII585COJC8",
    "user": {
      "login": "sipa",
      "id": 548488,
      "node_id": "MDQ6VXNlcjU0ODQ4OA==",
      "avatar_url": "https://avatars.githubusercontent.com/u/548488?v=4",
      "gravatar_id": "",
      "url": "https://api.github.com/users/sipa",
      "html_url": "https://github.com/sipa",
      "followers_url": "https://api.github.com/users/sipa/followers",
      "following_url": "https://api.github.com/users/sipa/following{/other_user}",
      "gists_url": "https://api.github.com/users/sipa/gists{/gist_id}",
      "starred_url": "https://api.github.com/users/sipa/starred{/owner}{/repo}",
      "subscriptions_url": "https://api.github.com/users/sipa/subscriptions",
      "organizations_url": "https://api.github.com/users/sipa/orgs",
      "repos_url": "https://api.github.com/users/sipa/repos",
      "events_url": "https://api.github.com/users/sipa/events{/privacy}",
      "received_events_url": "https://api.github.com/users/sipa/received_events",
      "type": "User",
      "site_admin": false
    },
    "created_at": "2022-04-27T13:28:10Z",
    "updated_at": "2022-04-27T13:28:10Z",
    "author_association": "MEMBER",
    "body_html": "<p dir=\"auto\">I'm afraid I don't remember <a class=\"commit-link\" data-hovercard-type=\"commit\" data-hovercard-url=\"https://github.com/bitcoin/bitcoin/commit/1653f97c8f3c37cd96e03cf397c31c5caf81af08/hovercard\" href=\"https://github.com/bitcoin/bitcoin/commit/1653f97c8f3c37cd96e03cf397c31c5caf81af08\"><tt>1653f97</tt></a> or its rationale at all. It appears to even have committed  directly to the master branch without going through a pull request...</p>",
    "body_text": "I'm afraid I don't remember 1653f97 or its rationale at all. It appears to even have committed  directly to the master branch without going through a pull request...",
    "body": "I'm afraid I don't remember 1653f97c8f3c37cd96e03cf397c31c5caf81af08 or its rationale at all. It appears to even have committed  directly to the master branch without going through a pull request...",
    "reactions": {
      "url": "https://api.github.com/repos/bitcoin/bitcoin/issues/comments/1111003324/reactions",
      "total_count": 0,
      "+1": 0,
      "-1": 0,
      "laugh": 0,
      "hooray": 0,
      "confused": 0,
      "heart": 0,
      "rocket": 0,
      "eyes": 0
    },
    "performed_via_github_app": null
  },
  {
    "url": "https://api.github.com/repos/bitcoin/bitcoin/issues/comments/1145330237",
    "html_url": "https://github.com/bitcoin/bitcoin/pull/24835#issuecomment-1145330237",
    "issue_url": "https://api.github.com/repos/bitcoin/bitcoin/issues/24835",
    "id": 1145330237,
    "node_id": "IC_kwDOABII585ERFo9",
    "user": {
      "login": "DrahtBot",
      "id": 39886733,
      "node_id": "MDQ6VXNlcjM5ODg2NzMz",
      "avatar_url": "https://avatars.githubusercontent.com/u/39886733?v=4",
      "gravatar_id": "",
      "url": "https://api.github.com/users/DrahtBot",
      "html_url": "https://github.com/DrahtBot",
      "followers_url": "https://api.github.com/users/DrahtBot/followers",
      "following_url": "https://api.github.com/users/DrahtBot/following{/other_user}",
      "gists_url": "https://api.github.com/users/DrahtBot/gists{/gist_id}",
      "starred_url": "https://api.github.com/users/DrahtBot/starred{/owner}{/repo}",
      "subscriptions_url": "https://api.github.com/users/DrahtBot/subscriptions",
      "organizations_url": "https://api.github.com/users/DrahtBot/orgs",
      "repos_url": "https://api.github.com/users/DrahtBot/repos",
      "events_url": "https://api.github.com/users/DrahtBot/events{/privacy}",
      "received_events_url": "https://api.github.com/users/DrahtBot/received_events",
      "type": "User",
      "site_admin": false
    },
    "created_at": "2022-06-02T20:52:06Z",
    "updated_at": "2022-06-15T10:53:41Z",
    "author_association": "CONTRIBUTOR",
    "body_html": "\n<p dir=\"auto\">The following sections might be updated with supplementary metadata relevant to reviewers and maintainers.</p>\n\n<h3 dir=\"auto\">Conflicts</h3>\n<p dir=\"auto\">No conflicts as of last run.</p>",
    "body_text": "The following sections might be updated with supplementary metadata relevant to reviewers and maintainers.\n\nConflicts\nNo conflicts as of last run.",
    "body": "<!--e57a25ab6845829454e8d69fc972939a-->\n\nThe following sections might be updated with supplementary metadata relevant to reviewers and maintainers.\n\n<!--174a7506f384e20aa4161008e828411d-->\n### Conflicts\nNo conflicts as of last run.",
    "reactions": {
      "url": "https://api.github.com/repos/bitcoin/bitcoin/issues/comments/1145330237/reactions",
      "total_count": 0,
      "+1": 0,
      "-1": 0,
      "laugh": 0,
      "hooray": 0,
      "confused": 0,
      "heart": 0,
      "rocket": 0,
      "eyes": 0
    },
    "performed_via_github_app": null
  },
  {
    "url": "https://api.github.com/repos/bitcoin/bitcoin/issues/comments/1169910500",
    "html_url": "https://github.com/bitcoin/bitcoin/pull/24835#issuecomment-1169910500",
    "issue_url": "https://api.github.com/repos/bitcoin/bitcoin/issues/24835",
    "id": 1169910500,
    "node_id": "IC_kwDOABII585Fu2rk",
    "user": {
      "login": "dergoegge",
      "id": 8077169,
      "node_id": "MDQ6VXNlcjgwNzcxNjk=",
      "avatar_url": "https://avatars.githubusercontent.com/u/8077169?v=4",
      "gravatar_id": "",
      "url": "https://api.github.com/users/dergoegge",
      "html_url": "https://github.com/dergoegge",
      "followers_url": "https://api.github.com/users/dergoegge/followers",
      "following_url": "https://api.github.com/users/dergoegge/following{/other_user}",
      "gists_url": "https://api.github.com/users/dergoegge/gists{/gist_id}",
      "starred_url": "https://api.github.com/users/dergoegge/starred{/owner}{/repo}",
      "subscriptions_url": "https://api.github.com/users/dergoegge/subscriptions",
      "organizations_url": "https://api.github.com/users/dergoegge/orgs",
      "repos_url": "https://api.github.com/users/dergoegge/repos",
      "events_url": "https://api.github.com/users/dergoegge/events{/privacy}",
      "received_events_url": "https://api.github.com/users/dergoegge/received_events",
      "type": "User",
      "site_admin": false
    },
    "created_at": "2022-06-29T12:18:25Z",
    "updated_at": "2022-06-29T12:18:25Z",
    "author_association": "MEMBER",
    "body_html": "<p dir=\"auto\">Closing this because, based on the feedback here, it looks like my approach isn't the right one. Addressing the <code class=\"notranslate\">-netinfo</code> display issue (e.g. by adding a \"listening but not advertised addresses\" section) seems like a better idea.</p>",
    "body_text": "Closing this because, based on the feedback here, it looks like my approach isn't the right one. Addressing the -netinfo display issue (e.g. by adding a \"listening but not advertised addresses\" section) seems like a better idea.",
    "body": "Closing this because, based on the feedback here, it looks like my approach isn't the right one. Addressing the `-netinfo` display issue (e.g. by adding a \"listening but not advertised addresses\" section) seems like a better idea.",
    "reactions": {
      "url": "https://api.github.com/repos/bitcoin/bitcoin/issues/comments/1169910500/reactions",
      "total_count": 0,
      "+1": 0,
      "-1": 0,
      "laugh": 0,
      "hooray": 0,
      "confused": 0,
      "heart": 0,
      "rocket": 0,
      "eyes": 0
    },
    "performed_via_github_app": null
  },
  {
    "url": "https://api.github.com/repos/bitcoin/bitcoin/issues/comments/1198005944",
    "html_url": "https://github.com/bitcoin/bitcoin/pull/24835#issuecomment-1198005944",
    "issue_url": "https://api.github.com/repos/bitcoin/bitcoin/issues/24835",
    "id": 1198005944,
    "node_id": "IC_kwDOABII585HaB64",
    "user": {
      "login": "vasild",
      "id": 266751,
      "node_id": "MDQ6VXNlcjI2Njc1MQ==",
      "avatar_url": "https://avatars.githubusercontent.com/u/266751?v=4",
      "gravatar_id": "",
      "url": "https://api.github.com/users/vasild",
      "html_url": "https://github.com/vasild",
      "followers_url": "https://api.github.com/users/vasild/followers",
      "following_url": "https://api.github.com/users/vasild/following{/other_user}",
      "gists_url": "https://api.github.com/users/vasild/gists{/gist_id}",
      "starred_url": "https://api.github.com/users/vasild/starred{/owner}{/repo}",
      "subscriptions_url": "https://api.github.com/users/vasild/subscriptions",
      "organizations_url": "https://api.github.com/users/vasild/orgs",
      "repos_url": "https://api.github.com/users/vasild/repos",
      "events_url": "https://api.github.com/users/vasild/events{/privacy}",
      "received_events_url": "https://api.github.com/users/vasild/received_events",
      "type": "User",
      "site_admin": false
    },
    "created_at": "2022-07-28T11:15:53Z",
    "updated_at": "2022-07-28T11:17:34Z",
    "author_association": "CONTRIBUTOR",
    "body_html": "<p dir=\"auto\">Concept ACK</p>\n<p dir=\"auto\">Thinking about this more, it looks now to me that it makes sense to remove <code class=\"notranslate\">IsReachable()</code> from both <code class=\"notranslate\">AddLocal()</code> and from <code class=\"notranslate\">IsPeerAddrLocalGood()</code>. Why? Because there is an easy way to restrict where <code class=\"notranslate\">bitcoind</code> is listening using <code class=\"notranslate\">-bind=</code> and thus if your <code class=\"notranslate\">bitcoind</code> is listening on network X, then you want to accept incoming connections on network X (otherwise you would use <code class=\"notranslate\">-bind=</code> to not listen on network X). Thus you also want to advertise your listening address for the network X (because listening on an address that nobody knows because it is not advertised makes little sense).</p>\n<p dir=\"auto\">To answer myself:</p>\n<blockquote>\n<p dir=\"auto\">I think the logic is this - if a network is not reachable then we cannot accept connections from it. \"Reachable\" in the broader English word meaning, not the stricter -onlynet meaning. For example, a host/OS may have support for both IPv4 and IPv6 but its ISP may only support IPv4. So, an operator would run -onlynet=ipv4 to avoid attempting connections to IPv6 hosts and from advertising an IPv6 address to which the rest of the world cannot connect.</p>\n</blockquote>\n<p dir=\"auto\">In this case the operator, in addition to <code class=\"notranslate\">-onlynet=ipv4</code>, should also use <code class=\"notranslate\">-bind=1.2.3.4:8333</code> to avoid listening on the IPv6 address of his machine.</p>\n<p dir=\"auto\">I guess the initial semantic of <code class=\"notranslate\">-onlynet</code> was to apply for both outgoing and incoming connections. Like \"don't touch this network at all\". But it never actually did that and morphed into \"apply to outgoing only\" over time. Maybe it should be renamed.</p>\n<p dir=\"auto\">This PR (plus adjusting <code class=\"notranslate\">IsPeerAddrLocalGood()</code>) would resolve:</p>\n<ol dir=\"auto\">\n<li><a class=\"issue-link js-issue-link\" data-error-text=\"Failed to load title\" data-id=\"1313658734\" data-permission-text=\"Title is private\" data-url=\"https://github.com/bitcoin/bitcoin/issues/25669\" data-hovercard-type=\"issue\" data-hovercard-url=\"/bitcoin/bitcoin/issues/25669/hovercard\" href=\"https://github.com/bitcoin/bitcoin/issues/25669\">#25669</a></li>\n<li><a class=\"issue-link js-issue-link\" data-error-text=\"Failed to load title\" data-id=\"1268146148\" data-permission-text=\"Title is private\" data-url=\"https://github.com/bitcoin/bitcoin/issues/25336\" data-hovercard-type=\"issue\" data-hovercard-url=\"/bitcoin/bitcoin/issues/25336/hovercard\" href=\"https://github.com/bitcoin/bitcoin/issues/25336\">#25336</a></li>\n<li>the display issue described in the OP of this PR</li>\n</ol>\n<p dir=\"auto\">A duplicate of this PR:</p>\n<ul dir=\"auto\">\n<li><a class=\"issue-link js-issue-link\" data-error-text=\"Failed to load title\" data-id=\"1316001251\" data-permission-text=\"Title is private\" data-url=\"https://github.com/bitcoin/bitcoin/issues/25690\" data-hovercard-type=\"pull_request\" data-hovercard-url=\"/bitcoin/bitcoin/pull/25690/hovercard\" href=\"https://github.com/bitcoin/bitcoin/pull/25690\">#25690</a></li>\n</ul>",
    "body_text": "Concept ACK\nThinking about this more, it looks now to me that it makes sense to remove IsReachable() from both AddLocal() and from IsPeerAddrLocalGood(). Why? Because there is an easy way to restrict where bitcoind is listening using -bind= and thus if your bitcoind is listening on network X, then you want to accept incoming connections on network X (otherwise you would use -bind= to not listen on network X). Thus you also want to advertise your listening address for the network X (because listening on an address that nobody knows because it is not advertised makes little sense).\nTo answer myself:\n\nI think the logic is this - if a network is not reachable then we cannot accept connections from it. \"Reachable\" in the broader English word meaning, not the stricter -onlynet meaning. For example, a host/OS may have support for both IPv4 and IPv6 but its ISP may only support IPv4. So, an operator would run -onlynet=ipv4 to avoid attempting connections to IPv6 hosts and from advertising an IPv6 address to which the rest of the world cannot connect.\n\nIn this case the operator, in addition to -onlynet=ipv4, should also use -bind=1.2.3.4:8333 to avoid listening on the IPv6 address of his machine.\nI guess the initial semantic of -onlynet was to apply for both outgoing and incoming connections. Like \"don't touch this network at all\". But it never actually did that and morphed into \"apply to outgoing only\" over time. Maybe it should be renamed.\nThis PR (plus adjusting IsPeerAddrLocalGood()) would resolve:\n\n#25669\n#25336\nthe display issue described in the OP of this PR\n\nA duplicate of this PR:\n\n#25690",
    "body": "Concept ACK\r\n\r\nThinking about this more, it looks now to me that it makes sense to remove `IsReachable()` from both `AddLocal()` and from `IsPeerAddrLocalGood()`. Why? Because there is an easy way to restrict where `bitcoind` is listening using `-bind=` and thus if your `bitcoind` is listening on network X, then you want to accept incoming connections on network X (otherwise you would use `-bind=` to not listen on network X). Thus you also want to advertise your listening address for the network X (because listening on an address that nobody knows because it is not advertised makes little sense).\r\n\r\nTo answer myself:\r\n\r\n> I think the logic is this - if a network is not reachable then we cannot accept connections from it. \"Reachable\" in the broader English word meaning, not the stricter -onlynet meaning. For example, a host/OS may have support for both IPv4 and IPv6 but its ISP may only support IPv4. So, an operator would run -onlynet=ipv4 to avoid attempting connections to IPv6 hosts and from advertising an IPv6 address to which the rest of the world cannot connect.\r\n\r\nIn this case the operator, in addition to `-onlynet=ipv4`, should also use `-bind=1.2.3.4:8333` to avoid listening on the IPv6 address of his machine.\r\n\r\nI guess the initial semantic of `-onlynet` was to apply for both outgoing and incoming connections. Like \"don't touch this network at all\". But it never actually did that and morphed into \"apply to outgoing only\" over time. Maybe it should be renamed.\r\n\r\nThis PR (plus adjusting `IsPeerAddrLocalGood()`) would resolve:\r\n1. https://github.com/bitcoin/bitcoin/issues/25669\r\n2. https://github.com/bitcoin/bitcoin/issues/25336\r\n3. the display issue described in the OP of this PR\r\n\r\nA duplicate of this PR:\r\n* https://github.com/bitcoin/bitcoin/pull/25690",
    "reactions": {
      "url": "https://api.github.com/repos/bitcoin/bitcoin/issues/comments/1198005944/reactions",
      "total_count": 0,
      "+1": 0,
      "-1": 0,
      "laugh": 0,
      "hooray": 0,
      "confused": 0,
      "heart": 0,
      "rocket": 0,
      "eyes": 0
    },
    "performed_via_github_app": null
  }
]
