[
  {
    "url": "https://api.github.com/repos/bitcoin/bitcoin/issues/comments/286487382",
    "html_url": "https://github.com/bitcoin/bitcoin/pull/9991#issuecomment-286487382",
    "issue_url": "https://api.github.com/repos/bitcoin/bitcoin/issues/9991",
    "id": 286487382,
    "node_id": "MDEyOklzc3VlQ29tbWVudDI4NjQ4NzM4Mg==",
    "user": {
      "login": "NicolasDorier",
      "id": 3020646,
      "node_id": "MDQ6VXNlcjMwMjA2NDY=",
      "avatar_url": "https://avatars.githubusercontent.com/u/3020646?v=4",
      "gravatar_id": "",
      "url": "https://api.github.com/users/NicolasDorier",
      "html_url": "https://github.com/NicolasDorier",
      "followers_url": "https://api.github.com/users/NicolasDorier/followers",
      "following_url": "https://api.github.com/users/NicolasDorier/following{/other_user}",
      "gists_url": "https://api.github.com/users/NicolasDorier/gists{/gist_id}",
      "starred_url": "https://api.github.com/users/NicolasDorier/starred{/owner}{/repo}",
      "subscriptions_url": "https://api.github.com/users/NicolasDorier/subscriptions",
      "organizations_url": "https://api.github.com/users/NicolasDorier/orgs",
      "repos_url": "https://api.github.com/users/NicolasDorier/repos",
      "events_url": "https://api.github.com/users/NicolasDorier/events{/privacy}",
      "received_events_url": "https://api.github.com/users/NicolasDorier/received_events",
      "type": "User",
      "site_admin": false
    },
    "created_at": "2017-03-14T16:56:53Z",
    "updated_at": "2017-03-14T16:56:53Z",
    "author_association": "CONTRIBUTOR",
    "body_html": "<ol dir=\"auto\">\n<li>Rebased and fixed conflicts</li>\n<li>Addressed <a class=\"user-mention notranslate\" data-hovercard-type=\"user\" data-hovercard-url=\"/users/kallewoof/hovercard\" data-octo-click=\"hovercard-link-click\" data-octo-dimensions=\"link_type:self\" href=\"https://github.com/kallewoof\">@kallewoof</a> nits</li>\n<li>Add the new parameter to <code class=\"notranslate\">client.cpp</code></li>\n</ol>",
    "body_text": "Rebased and fixed conflicts\nAddressed @kallewoof nits\nAdd the new parameter to client.cpp",
    "body": "1. Rebased and fixed conflicts\r\n2. Addressed @kallewoof nits\r\n3. Add the new parameter to `client.cpp`",
    "reactions": {
      "url": "https://api.github.com/repos/bitcoin/bitcoin/issues/comments/286487382/reactions",
      "total_count": 0,
      "+1": 0,
      "-1": 0,
      "laugh": 0,
      "hooray": 0,
      "confused": 0,
      "heart": 0,
      "rocket": 0,
      "eyes": 0
    },
    "performed_via_github_app": null
  },
  {
    "url": "https://api.github.com/repos/bitcoin/bitcoin/issues/comments/286960558",
    "html_url": "https://github.com/bitcoin/bitcoin/pull/9991#issuecomment-286960558",
    "issue_url": "https://api.github.com/repos/bitcoin/bitcoin/issues/9991",
    "id": 286960558,
    "node_id": "MDEyOklzc3VlQ29tbWVudDI4Njk2MDU1OA==",
    "user": {
      "login": "NicolasDorier",
      "id": 3020646,
      "node_id": "MDQ6VXNlcjMwMjA2NDY=",
      "avatar_url": "https://avatars.githubusercontent.com/u/3020646?v=4",
      "gravatar_id": "",
      "url": "https://api.github.com/users/NicolasDorier",
      "html_url": "https://github.com/NicolasDorier",
      "followers_url": "https://api.github.com/users/NicolasDorier/followers",
      "following_url": "https://api.github.com/users/NicolasDorier/following{/other_user}",
      "gists_url": "https://api.github.com/users/NicolasDorier/gists{/gist_id}",
      "starred_url": "https://api.github.com/users/NicolasDorier/starred{/owner}{/repo}",
      "subscriptions_url": "https://api.github.com/users/NicolasDorier/subscriptions",
      "organizations_url": "https://api.github.com/users/NicolasDorier/orgs",
      "repos_url": "https://api.github.com/users/NicolasDorier/repos",
      "events_url": "https://api.github.com/users/NicolasDorier/events{/privacy}",
      "received_events_url": "https://api.github.com/users/NicolasDorier/received_events",
      "type": "User",
      "site_admin": false
    },
    "created_at": "2017-03-16T05:18:39Z",
    "updated_at": "2017-03-16T05:19:46Z",
    "author_association": "CONTRIBUTOR",
    "body_html": "<p dir=\"auto\"><a class=\"user-mention notranslate\" data-hovercard-type=\"user\" data-hovercard-url=\"/users/luke-jr/hovercard\" data-octo-click=\"hovercard-link-click\" data-octo-dimensions=\"link_type:self\" href=\"https://github.com/luke-jr\">@luke-jr</a> <a class=\"user-mention notranslate\" data-hovercard-type=\"user\" data-hovercard-url=\"/users/jnewbery/hovercard\" data-octo-click=\"hovercard-link-click\" data-octo-dimensions=\"link_type:self\" href=\"https://github.com/jnewbery\">@jnewbery</a>   <a class=\"user-mention notranslate\" data-hovercard-type=\"user\" data-hovercard-url=\"/users/JeremyRubin/hovercard\" data-octo-click=\"hovercard-link-click\" data-octo-dimensions=\"link_type:self\" href=\"https://github.com/JeremyRubin\">@JeremyRubin</a> nit addressed, can you re-ACK?</p>",
    "body_text": "@luke-jr @jnewbery   @JeremyRubin nit addressed, can you re-ACK?",
    "body": "@luke-jr @jnewbery   @JeremyRubin nit addressed, can you re-ACK?",
    "reactions": {
      "url": "https://api.github.com/repos/bitcoin/bitcoin/issues/comments/286960558/reactions",
      "total_count": 0,
      "+1": 0,
      "-1": 0,
      "laugh": 0,
      "hooray": 0,
      "confused": 0,
      "heart": 0,
      "rocket": 0,
      "eyes": 0
    },
    "performed_via_github_app": null
  },
  {
    "url": "https://api.github.com/repos/bitcoin/bitcoin/issues/comments/287074963",
    "html_url": "https://github.com/bitcoin/bitcoin/pull/9991#issuecomment-287074963",
    "issue_url": "https://api.github.com/repos/bitcoin/bitcoin/issues/9991",
    "id": 287074963,
    "node_id": "MDEyOklzc3VlQ29tbWVudDI4NzA3NDk2Mw==",
    "user": {
      "login": "jnewbery",
      "id": 1063656,
      "node_id": "MDQ6VXNlcjEwNjM2NTY=",
      "avatar_url": "https://avatars.githubusercontent.com/u/1063656?v=4",
      "gravatar_id": "",
      "url": "https://api.github.com/users/jnewbery",
      "html_url": "https://github.com/jnewbery",
      "followers_url": "https://api.github.com/users/jnewbery/followers",
      "following_url": "https://api.github.com/users/jnewbery/following{/other_user}",
      "gists_url": "https://api.github.com/users/jnewbery/gists{/gist_id}",
      "starred_url": "https://api.github.com/users/jnewbery/starred{/owner}{/repo}",
      "subscriptions_url": "https://api.github.com/users/jnewbery/subscriptions",
      "organizations_url": "https://api.github.com/users/jnewbery/orgs",
      "repos_url": "https://api.github.com/users/jnewbery/repos",
      "events_url": "https://api.github.com/users/jnewbery/events{/privacy}",
      "received_events_url": "https://api.github.com/users/jnewbery/received_events",
      "type": "User",
      "site_admin": false
    },
    "created_at": "2017-03-16T14:30:04Z",
    "updated_at": "2017-03-16T14:30:04Z",
    "author_association": "CONTRIBUTOR",
    "body_html": "<p dir=\"auto\">Looks good. A couple of nits and a suggestion on improving the test case.</p>",
    "body_text": "Looks good. A couple of nits and a suggestion on improving the test case.",
    "body": "Looks good. A couple of nits and a suggestion on improving the test case.",
    "reactions": {
      "url": "https://api.github.com/repos/bitcoin/bitcoin/issues/comments/287074963/reactions",
      "total_count": 0,
      "+1": 0,
      "-1": 0,
      "laugh": 0,
      "hooray": 0,
      "confused": 0,
      "heart": 0,
      "rocket": 0,
      "eyes": 0
    },
    "performed_via_github_app": null
  },
  {
    "url": "https://api.github.com/repos/bitcoin/bitcoin/issues/comments/287197086",
    "html_url": "https://github.com/bitcoin/bitcoin/pull/9991#issuecomment-287197086",
    "issue_url": "https://api.github.com/repos/bitcoin/bitcoin/issues/9991",
    "id": 287197086,
    "node_id": "MDEyOklzc3VlQ29tbWVudDI4NzE5NzA4Ng==",
    "user": {
      "login": "JeremyRubin",
      "id": 886523,
      "node_id": "MDQ6VXNlcjg4NjUyMw==",
      "avatar_url": "https://avatars.githubusercontent.com/u/886523?v=4",
      "gravatar_id": "",
      "url": "https://api.github.com/users/JeremyRubin",
      "html_url": "https://github.com/JeremyRubin",
      "followers_url": "https://api.github.com/users/JeremyRubin/followers",
      "following_url": "https://api.github.com/users/JeremyRubin/following{/other_user}",
      "gists_url": "https://api.github.com/users/JeremyRubin/gists{/gist_id}",
      "starred_url": "https://api.github.com/users/JeremyRubin/starred{/owner}{/repo}",
      "subscriptions_url": "https://api.github.com/users/JeremyRubin/subscriptions",
      "organizations_url": "https://api.github.com/users/JeremyRubin/orgs",
      "repos_url": "https://api.github.com/users/JeremyRubin/repos",
      "events_url": "https://api.github.com/users/JeremyRubin/events{/privacy}",
      "received_events_url": "https://api.github.com/users/JeremyRubin/received_events",
      "type": "User",
      "site_admin": false
    },
    "created_at": "2017-03-16T21:30:23Z",
    "updated_at": "2017-03-16T21:30:23Z",
    "author_association": "CONTRIBUTOR",
    "body_html": "<p dir=\"auto\">utAck</p>",
    "body_text": "utAck",
    "body": "utAck",
    "reactions": {
      "url": "https://api.github.com/repos/bitcoin/bitcoin/issues/comments/287197086/reactions",
      "total_count": 0,
      "+1": 0,
      "-1": 0,
      "laugh": 0,
      "hooray": 0,
      "confused": 0,
      "heart": 0,
      "rocket": 0,
      "eyes": 0
    },
    "performed_via_github_app": null
  },
  {
    "url": "https://api.github.com/repos/bitcoin/bitcoin/issues/comments/287255280",
    "html_url": "https://github.com/bitcoin/bitcoin/pull/9991#issuecomment-287255280",
    "issue_url": "https://api.github.com/repos/bitcoin/bitcoin/issues/9991",
    "id": 287255280,
    "node_id": "MDEyOklzc3VlQ29tbWVudDI4NzI1NTI4MA==",
    "user": {
      "login": "NicolasDorier",
      "id": 3020646,
      "node_id": "MDQ6VXNlcjMwMjA2NDY=",
      "avatar_url": "https://avatars.githubusercontent.com/u/3020646?v=4",
      "gravatar_id": "",
      "url": "https://api.github.com/users/NicolasDorier",
      "html_url": "https://github.com/NicolasDorier",
      "followers_url": "https://api.github.com/users/NicolasDorier/followers",
      "following_url": "https://api.github.com/users/NicolasDorier/following{/other_user}",
      "gists_url": "https://api.github.com/users/NicolasDorier/gists{/gist_id}",
      "starred_url": "https://api.github.com/users/NicolasDorier/starred{/owner}{/repo}",
      "subscriptions_url": "https://api.github.com/users/NicolasDorier/subscriptions",
      "organizations_url": "https://api.github.com/users/NicolasDorier/orgs",
      "repos_url": "https://api.github.com/users/NicolasDorier/repos",
      "events_url": "https://api.github.com/users/NicolasDorier/events{/privacy}",
      "received_events_url": "https://api.github.com/users/NicolasDorier/received_events",
      "type": "User",
      "site_admin": false
    },
    "created_at": "2017-03-17T03:10:38Z",
    "updated_at": "2017-03-17T03:10:38Z",
    "author_association": "CONTRIBUTOR",
    "body_html": "<p dir=\"auto\"><a class=\"user-mention notranslate\" data-hovercard-type=\"user\" data-hovercard-url=\"/users/jnewbery/hovercard\" data-octo-click=\"hovercard-link-click\" data-octo-dimensions=\"link_type:self\" href=\"https://github.com/jnewbery\">@jnewbery</a> I improved the tests, and fixed the alignement. I can't use named parameter in the test though.</p>",
    "body_text": "@jnewbery I improved the tests, and fixed the alignement. I can't use named parameter in the test though.",
    "body": "@jnewbery I improved the tests, and fixed the alignement. I can't use named parameter in the test though.",
    "reactions": {
      "url": "https://api.github.com/repos/bitcoin/bitcoin/issues/comments/287255280/reactions",
      "total_count": 0,
      "+1": 0,
      "-1": 0,
      "laugh": 0,
      "hooray": 0,
      "confused": 0,
      "heart": 0,
      "rocket": 0,
      "eyes": 0
    },
    "performed_via_github_app": null
  },
  {
    "url": "https://api.github.com/repos/bitcoin/bitcoin/issues/comments/287374180",
    "html_url": "https://github.com/bitcoin/bitcoin/pull/9991#issuecomment-287374180",
    "issue_url": "https://api.github.com/repos/bitcoin/bitcoin/issues/9991",
    "id": 287374180,
    "node_id": "MDEyOklzc3VlQ29tbWVudDI4NzM3NDE4MA==",
    "user": {
      "login": "NicolasDorier",
      "id": 3020646,
      "node_id": "MDQ6VXNlcjMwMjA2NDY=",
      "avatar_url": "https://avatars.githubusercontent.com/u/3020646?v=4",
      "gravatar_id": "",
      "url": "https://api.github.com/users/NicolasDorier",
      "html_url": "https://github.com/NicolasDorier",
      "followers_url": "https://api.github.com/users/NicolasDorier/followers",
      "following_url": "https://api.github.com/users/NicolasDorier/following{/other_user}",
      "gists_url": "https://api.github.com/users/NicolasDorier/gists{/gist_id}",
      "starred_url": "https://api.github.com/users/NicolasDorier/starred{/owner}{/repo}",
      "subscriptions_url": "https://api.github.com/users/NicolasDorier/subscriptions",
      "organizations_url": "https://api.github.com/users/NicolasDorier/orgs",
      "repos_url": "https://api.github.com/users/NicolasDorier/repos",
      "events_url": "https://api.github.com/users/NicolasDorier/events{/privacy}",
      "received_events_url": "https://api.github.com/users/NicolasDorier/received_events",
      "type": "User",
      "site_admin": false
    },
    "created_at": "2017-03-17T14:47:37Z",
    "updated_at": "2017-03-17T14:47:37Z",
    "author_association": "CONTRIBUTOR",
    "body_html": "<p dir=\"auto\">added named parameters to one call to listreceivedbyaddress  in the tests for better readability.</p>",
    "body_text": "added named parameters to one call to listreceivedbyaddress  in the tests for better readability.",
    "body": "added named parameters to one call to listreceivedbyaddress  in the tests for better readability.",
    "reactions": {
      "url": "https://api.github.com/repos/bitcoin/bitcoin/issues/comments/287374180/reactions",
      "total_count": 0,
      "+1": 0,
      "-1": 0,
      "laugh": 0,
      "hooray": 0,
      "confused": 0,
      "heart": 0,
      "rocket": 0,
      "eyes": 0
    },
    "performed_via_github_app": null
  },
  {
    "url": "https://api.github.com/repos/bitcoin/bitcoin/issues/comments/287384518",
    "html_url": "https://github.com/bitcoin/bitcoin/pull/9991#issuecomment-287384518",
    "issue_url": "https://api.github.com/repos/bitcoin/bitcoin/issues/9991",
    "id": 287384518,
    "node_id": "MDEyOklzc3VlQ29tbWVudDI4NzM4NDUxOA==",
    "user": {
      "login": "jnewbery",
      "id": 1063656,
      "node_id": "MDQ6VXNlcjEwNjM2NTY=",
      "avatar_url": "https://avatars.githubusercontent.com/u/1063656?v=4",
      "gravatar_id": "",
      "url": "https://api.github.com/users/jnewbery",
      "html_url": "https://github.com/jnewbery",
      "followers_url": "https://api.github.com/users/jnewbery/followers",
      "following_url": "https://api.github.com/users/jnewbery/following{/other_user}",
      "gists_url": "https://api.github.com/users/jnewbery/gists{/gist_id}",
      "starred_url": "https://api.github.com/users/jnewbery/starred{/owner}{/repo}",
      "subscriptions_url": "https://api.github.com/users/jnewbery/subscriptions",
      "organizations_url": "https://api.github.com/users/jnewbery/orgs",
      "repos_url": "https://api.github.com/users/jnewbery/repos",
      "events_url": "https://api.github.com/users/jnewbery/events{/privacy}",
      "received_events_url": "https://api.github.com/users/jnewbery/received_events",
      "type": "User",
      "site_admin": false
    },
    "created_at": "2017-03-17T15:23:17Z",
    "updated_at": "2017-03-17T15:23:36Z",
    "author_association": "CONTRIBUTOR",
    "body_html": "<p dir=\"auto\">line 73 <code class=\"notranslate\">minConf</code> needs to be <code class=\"notranslate\">minconf</code>.</p>\n<p dir=\"auto\">with that change, tested ACK. Good stuff <a class=\"user-mention notranslate\" data-hovercard-type=\"user\" data-hovercard-url=\"/users/NicolasDorier/hovercard\" data-octo-click=\"hovercard-link-click\" data-octo-dimensions=\"link_type:self\" href=\"https://github.com/NicolasDorier\">@NicolasDorier</a> !</p>",
    "body_text": "line 73 minConf needs to be minconf.\nwith that change, tested ACK. Good stuff @NicolasDorier !",
    "body": "line 73 `minConf` needs to be `minconf`.\r\n\r\nwith that change, tested ACK. Good stuff @NicolasDorier !",
    "reactions": {
      "url": "https://api.github.com/repos/bitcoin/bitcoin/issues/comments/287384518/reactions",
      "total_count": 0,
      "+1": 0,
      "-1": 0,
      "laugh": 0,
      "hooray": 0,
      "confused": 0,
      "heart": 0,
      "rocket": 0,
      "eyes": 0
    },
    "performed_via_github_app": null
  },
  {
    "url": "https://api.github.com/repos/bitcoin/bitcoin/issues/comments/287550295",
    "html_url": "https://github.com/bitcoin/bitcoin/pull/9991#issuecomment-287550295",
    "issue_url": "https://api.github.com/repos/bitcoin/bitcoin/issues/9991",
    "id": 287550295,
    "node_id": "MDEyOklzc3VlQ29tbWVudDI4NzU1MDI5NQ==",
    "user": {
      "login": "NicolasDorier",
      "id": 3020646,
      "node_id": "MDQ6VXNlcjMwMjA2NDY=",
      "avatar_url": "https://avatars.githubusercontent.com/u/3020646?v=4",
      "gravatar_id": "",
      "url": "https://api.github.com/users/NicolasDorier",
      "html_url": "https://github.com/NicolasDorier",
      "followers_url": "https://api.github.com/users/NicolasDorier/followers",
      "following_url": "https://api.github.com/users/NicolasDorier/following{/other_user}",
      "gists_url": "https://api.github.com/users/NicolasDorier/gists{/gist_id}",
      "starred_url": "https://api.github.com/users/NicolasDorier/starred{/owner}{/repo}",
      "subscriptions_url": "https://api.github.com/users/NicolasDorier/subscriptions",
      "organizations_url": "https://api.github.com/users/NicolasDorier/orgs",
      "repos_url": "https://api.github.com/users/NicolasDorier/repos",
      "events_url": "https://api.github.com/users/NicolasDorier/events{/privacy}",
      "received_events_url": "https://api.github.com/users/NicolasDorier/received_events",
      "type": "User",
      "site_admin": false
    },
    "created_at": "2017-03-18T14:39:01Z",
    "updated_at": "2017-03-18T14:39:38Z",
    "author_association": "CONTRIBUTOR",
    "body_html": "<p dir=\"auto\"><a class=\"user-mention notranslate\" data-hovercard-type=\"user\" data-hovercard-url=\"/users/jnewbery/hovercard\" data-octo-click=\"hovercard-link-click\" data-octo-dimensions=\"link_type:self\" href=\"https://github.com/jnewbery\">@jnewbery</a> thanks done, <a class=\"user-mention notranslate\" data-hovercard-type=\"user\" data-hovercard-url=\"/users/JeremyRubin/hovercard\" data-octo-click=\"hovercard-link-click\" data-octo-dimensions=\"link_type:self\" href=\"https://github.com/JeremyRubin\">@JeremyRubin</a> did the hard work :)</p>",
    "body_text": "@jnewbery thanks done, @JeremyRubin did the hard work :)",
    "body": "@jnewbery thanks done, @JeremyRubin did the hard work :)",
    "reactions": {
      "url": "https://api.github.com/repos/bitcoin/bitcoin/issues/comments/287550295/reactions",
      "total_count": 0,
      "+1": 0,
      "-1": 0,
      "laugh": 0,
      "hooray": 0,
      "confused": 0,
      "heart": 0,
      "rocket": 0,
      "eyes": 0
    },
    "performed_via_github_app": null
  },
  {
    "url": "https://api.github.com/repos/bitcoin/bitcoin/issues/comments/288202250",
    "html_url": "https://github.com/bitcoin/bitcoin/pull/9991#issuecomment-288202250",
    "issue_url": "https://api.github.com/repos/bitcoin/bitcoin/issues/9991",
    "id": 288202250,
    "node_id": "MDEyOklzc3VlQ29tbWVudDI4ODIwMjI1MA==",
    "user": {
      "login": "EthanHeilman",
      "id": 274814,
      "node_id": "MDQ6VXNlcjI3NDgxNA==",
      "avatar_url": "https://avatars.githubusercontent.com/u/274814?v=4",
      "gravatar_id": "",
      "url": "https://api.github.com/users/EthanHeilman",
      "html_url": "https://github.com/EthanHeilman",
      "followers_url": "https://api.github.com/users/EthanHeilman/followers",
      "following_url": "https://api.github.com/users/EthanHeilman/following{/other_user}",
      "gists_url": "https://api.github.com/users/EthanHeilman/gists{/gist_id}",
      "starred_url": "https://api.github.com/users/EthanHeilman/starred{/owner}{/repo}",
      "subscriptions_url": "https://api.github.com/users/EthanHeilman/subscriptions",
      "organizations_url": "https://api.github.com/users/EthanHeilman/orgs",
      "repos_url": "https://api.github.com/users/EthanHeilman/repos",
      "events_url": "https://api.github.com/users/EthanHeilman/events{/privacy}",
      "received_events_url": "https://api.github.com/users/EthanHeilman/received_events",
      "type": "User",
      "site_admin": false
    },
    "created_at": "2017-03-21T20:07:32Z",
    "updated_at": "2017-03-21T20:07:32Z",
    "author_association": "CONTRIBUTOR",
    "body_html": "<p dir=\"auto\">utACK - the code looks good and this is very useful functionality.</p>",
    "body_text": "utACK - the code looks good and this is very useful functionality.",
    "body": "utACK - the code looks good and this is very useful functionality.",
    "reactions": {
      "url": "https://api.github.com/repos/bitcoin/bitcoin/issues/comments/288202250/reactions",
      "total_count": 0,
      "+1": 0,
      "-1": 0,
      "laugh": 0,
      "hooray": 0,
      "confused": 0,
      "heart": 0,
      "rocket": 0,
      "eyes": 0
    },
    "performed_via_github_app": null
  },
  {
    "url": "https://api.github.com/repos/bitcoin/bitcoin/issues/comments/288264016",
    "html_url": "https://github.com/bitcoin/bitcoin/pull/9991#issuecomment-288264016",
    "issue_url": "https://api.github.com/repos/bitcoin/bitcoin/issues/9991",
    "id": 288264016,
    "node_id": "MDEyOklzc3VlQ29tbWVudDI4ODI2NDAxNg==",
    "user": {
      "login": "NicolasDorier",
      "id": 3020646,
      "node_id": "MDQ6VXNlcjMwMjA2NDY=",
      "avatar_url": "https://avatars.githubusercontent.com/u/3020646?v=4",
      "gravatar_id": "",
      "url": "https://api.github.com/users/NicolasDorier",
      "html_url": "https://github.com/NicolasDorier",
      "followers_url": "https://api.github.com/users/NicolasDorier/followers",
      "following_url": "https://api.github.com/users/NicolasDorier/following{/other_user}",
      "gists_url": "https://api.github.com/users/NicolasDorier/gists{/gist_id}",
      "starred_url": "https://api.github.com/users/NicolasDorier/starred{/owner}{/repo}",
      "subscriptions_url": "https://api.github.com/users/NicolasDorier/subscriptions",
      "organizations_url": "https://api.github.com/users/NicolasDorier/orgs",
      "repos_url": "https://api.github.com/users/NicolasDorier/repos",
      "events_url": "https://api.github.com/users/NicolasDorier/events{/privacy}",
      "received_events_url": "https://api.github.com/users/NicolasDorier/received_events",
      "type": "User",
      "site_admin": false
    },
    "created_at": "2017-03-22T00:43:16Z",
    "updated_at": "2017-03-22T00:43:16Z",
    "author_association": "CONTRIBUTOR",
    "body_html": "<p dir=\"auto\"><a class=\"user-mention notranslate\" data-hovercard-type=\"user\" data-hovercard-url=\"/users/TheBlueMatt/hovercard\" data-octo-click=\"hovercard-link-click\" data-octo-dimensions=\"link_type:self\" href=\"https://github.com/TheBlueMatt\">@TheBlueMatt</a> I fixed nits and added tests, can you re-ACK ?</p>",
    "body_text": "@TheBlueMatt I fixed nits and added tests, can you re-ACK ?",
    "body": "@TheBlueMatt I fixed nits and added tests, can you re-ACK ?",
    "reactions": {
      "url": "https://api.github.com/repos/bitcoin/bitcoin/issues/comments/288264016/reactions",
      "total_count": 0,
      "+1": 0,
      "-1": 0,
      "laugh": 0,
      "hooray": 0,
      "confused": 0,
      "heart": 0,
      "rocket": 0,
      "eyes": 0
    },
    "performed_via_github_app": null
  },
  {
    "url": "https://api.github.com/repos/bitcoin/bitcoin/issues/comments/303932694",
    "html_url": "https://github.com/bitcoin/bitcoin/pull/9991#issuecomment-303932694",
    "issue_url": "https://api.github.com/repos/bitcoin/bitcoin/issues/9991",
    "id": 303932694,
    "node_id": "MDEyOklzc3VlQ29tbWVudDMwMzkzMjY5NA==",
    "user": {
      "login": "nopara73",
      "id": 9156103,
      "node_id": "MDQ6VXNlcjkxNTYxMDM=",
      "avatar_url": "https://avatars.githubusercontent.com/u/9156103?v=4",
      "gravatar_id": "",
      "url": "https://api.github.com/users/nopara73",
      "html_url": "https://github.com/nopara73",
      "followers_url": "https://api.github.com/users/nopara73/followers",
      "following_url": "https://api.github.com/users/nopara73/following{/other_user}",
      "gists_url": "https://api.github.com/users/nopara73/gists{/gist_id}",
      "starred_url": "https://api.github.com/users/nopara73/starred{/owner}{/repo}",
      "subscriptions_url": "https://api.github.com/users/nopara73/subscriptions",
      "organizations_url": "https://api.github.com/users/nopara73/orgs",
      "repos_url": "https://api.github.com/users/nopara73/repos",
      "events_url": "https://api.github.com/users/nopara73/events{/privacy}",
      "received_events_url": "https://api.github.com/users/nopara73/received_events",
      "type": "User",
      "site_admin": false
    },
    "created_at": "2017-05-25T06:18:39Z",
    "updated_at": "2017-05-25T06:18:39Z",
    "author_association": "NONE",
    "body_html": "<p dir=\"auto\">ACK - works fine.<br>\nThis could be (not sure if should be) combined with fixing this issue for correct GUI experience: <a class=\"issue-link js-issue-link\" data-error-text=\"Failed to load title\" data-id=\"190550625\" data-permission-text=\"Title is private\" data-url=\"https://github.com/bitcoin/bitcoin/issues/9192\" data-hovercard-type=\"issue\" data-hovercard-url=\"/bitcoin/bitcoin/issues/9192/hovercard\" href=\"https://github.com/bitcoin/bitcoin/issues/9192\">#9192</a></p>",
    "body_text": "ACK - works fine.\nThis could be (not sure if should be) combined with fixing this issue for correct GUI experience: #9192",
    "body": "ACK - works fine.  \r\nThis could be (not sure if should be) combined with fixing this issue for correct GUI experience: https://github.com/bitcoin/bitcoin/issues/9192  ",
    "reactions": {
      "url": "https://api.github.com/repos/bitcoin/bitcoin/issues/comments/303932694/reactions",
      "total_count": 0,
      "+1": 0,
      "-1": 0,
      "laugh": 0,
      "hooray": 0,
      "confused": 0,
      "heart": 0,
      "rocket": 0,
      "eyes": 0
    },
    "performed_via_github_app": null
  },
  {
    "url": "https://api.github.com/repos/bitcoin/bitcoin/issues/comments/308340026",
    "html_url": "https://github.com/bitcoin/bitcoin/pull/9991#issuecomment-308340026",
    "issue_url": "https://api.github.com/repos/bitcoin/bitcoin/issues/9991",
    "id": 308340026,
    "node_id": "MDEyOklzc3VlQ29tbWVudDMwODM0MDAyNg==",
    "user": {
      "login": "NicolasDorier",
      "id": 3020646,
      "node_id": "MDQ6VXNlcjMwMjA2NDY=",
      "avatar_url": "https://avatars.githubusercontent.com/u/3020646?v=4",
      "gravatar_id": "",
      "url": "https://api.github.com/users/NicolasDorier",
      "html_url": "https://github.com/NicolasDorier",
      "followers_url": "https://api.github.com/users/NicolasDorier/followers",
      "following_url": "https://api.github.com/users/NicolasDorier/following{/other_user}",
      "gists_url": "https://api.github.com/users/NicolasDorier/gists{/gist_id}",
      "starred_url": "https://api.github.com/users/NicolasDorier/starred{/owner}{/repo}",
      "subscriptions_url": "https://api.github.com/users/NicolasDorier/subscriptions",
      "organizations_url": "https://api.github.com/users/NicolasDorier/orgs",
      "repos_url": "https://api.github.com/users/NicolasDorier/repos",
      "events_url": "https://api.github.com/users/NicolasDorier/events{/privacy}",
      "received_events_url": "https://api.github.com/users/NicolasDorier/received_events",
      "type": "User",
      "site_admin": false
    },
    "created_at": "2017-06-14T07:10:50Z",
    "updated_at": "2017-06-14T07:11:19Z",
    "author_association": "CONTRIBUTOR",
    "body_html": "<p dir=\"auto\">Closing. I am using a workaround now, I am caching the whole <code class=\"notranslate\">listtransaction</code>, at every block. This call would have been super useful though.</p>",
    "body_text": "Closing. I am using a workaround now, I am caching the whole listtransaction, at every block. This call would have been super useful though.",
    "body": "Closing. I am using a workaround now, I am caching the whole `listtransaction`, at every block. This call would have been super useful though.",
    "reactions": {
      "url": "https://api.github.com/repos/bitcoin/bitcoin/issues/comments/308340026/reactions",
      "total_count": 2,
      "+1": 0,
      "-1": 2,
      "laugh": 0,
      "hooray": 0,
      "confused": 0,
      "heart": 0,
      "rocket": 0,
      "eyes": 0
    },
    "performed_via_github_app": null
  },
  {
    "url": "https://api.github.com/repos/bitcoin/bitcoin/issues/comments/308448592",
    "html_url": "https://github.com/bitcoin/bitcoin/pull/9991#issuecomment-308448592",
    "issue_url": "https://api.github.com/repos/bitcoin/bitcoin/issues/9991",
    "id": 308448592,
    "node_id": "MDEyOklzc3VlQ29tbWVudDMwODQ0ODU5Mg==",
    "user": {
      "login": "jnewbery",
      "id": 1063656,
      "node_id": "MDQ6VXNlcjEwNjM2NTY=",
      "avatar_url": "https://avatars.githubusercontent.com/u/1063656?v=4",
      "gravatar_id": "",
      "url": "https://api.github.com/users/jnewbery",
      "html_url": "https://github.com/jnewbery",
      "followers_url": "https://api.github.com/users/jnewbery/followers",
      "following_url": "https://api.github.com/users/jnewbery/following{/other_user}",
      "gists_url": "https://api.github.com/users/jnewbery/gists{/gist_id}",
      "starred_url": "https://api.github.com/users/jnewbery/starred{/owner}{/repo}",
      "subscriptions_url": "https://api.github.com/users/jnewbery/subscriptions",
      "organizations_url": "https://api.github.com/users/jnewbery/orgs",
      "repos_url": "https://api.github.com/users/jnewbery/repos",
      "events_url": "https://api.github.com/users/jnewbery/events{/privacy}",
      "received_events_url": "https://api.github.com/users/jnewbery/received_events",
      "type": "User",
      "site_admin": false
    },
    "created_at": "2017-06-14T14:27:34Z",
    "updated_at": "2017-06-14T14:27:34Z",
    "author_association": "CONTRIBUTOR",
    "body_html": "<p dir=\"auto\">😞 I'm happy to reACK if you decide to reopen this!</p>",
    "body_text": "😞 I'm happy to reACK if you decide to reopen this!",
    "body": ":disappointed: I'm happy to reACK if you decide to reopen this!",
    "reactions": {
      "url": "https://api.github.com/repos/bitcoin/bitcoin/issues/comments/308448592/reactions",
      "total_count": 1,
      "+1": 1,
      "-1": 0,
      "laugh": 0,
      "hooray": 0,
      "confused": 0,
      "heart": 0,
      "rocket": 0,
      "eyes": 0
    },
    "performed_via_github_app": null
  },
  {
    "url": "https://api.github.com/repos/bitcoin/bitcoin/issues/comments/308731459",
    "html_url": "https://github.com/bitcoin/bitcoin/pull/9991#issuecomment-308731459",
    "issue_url": "https://api.github.com/repos/bitcoin/bitcoin/issues/9991",
    "id": 308731459,
    "node_id": "MDEyOklzc3VlQ29tbWVudDMwODczMTQ1OQ==",
    "user": {
      "login": "NicolasDorier",
      "id": 3020646,
      "node_id": "MDQ6VXNlcjMwMjA2NDY=",
      "avatar_url": "https://avatars.githubusercontent.com/u/3020646?v=4",
      "gravatar_id": "",
      "url": "https://api.github.com/users/NicolasDorier",
      "html_url": "https://github.com/NicolasDorier",
      "followers_url": "https://api.github.com/users/NicolasDorier/followers",
      "following_url": "https://api.github.com/users/NicolasDorier/following{/other_user}",
      "gists_url": "https://api.github.com/users/NicolasDorier/gists{/gist_id}",
      "starred_url": "https://api.github.com/users/NicolasDorier/starred{/owner}{/repo}",
      "subscriptions_url": "https://api.github.com/users/NicolasDorier/subscriptions",
      "organizations_url": "https://api.github.com/users/NicolasDorier/orgs",
      "repos_url": "https://api.github.com/users/NicolasDorier/repos",
      "events_url": "https://api.github.com/users/NicolasDorier/events{/privacy}",
      "received_events_url": "https://api.github.com/users/NicolasDorier/received_events",
      "type": "User",
      "site_admin": false
    },
    "created_at": "2017-06-15T13:37:38Z",
    "updated_at": "2017-06-15T14:07:14Z",
    "author_association": "CONTRIBUTOR",
    "body_html": "<p dir=\"auto\"><a class=\"user-mention notranslate\" data-hovercard-type=\"user\" data-hovercard-url=\"/users/jnewbery/hovercard\" data-octo-click=\"hovercard-link-click\" data-octo-dimensions=\"link_type:self\" href=\"https://github.com/jnewbery\">@jnewbery</a>, if you have interest, I am reopening, I guess it does not hurt to keep it opens, it is not high maintenance PR. I was thinking to allow multiple addresses to be passed in the filter, instead of only one.</p>\n<p dir=\"auto\">For NTumbleBit, I changed the design, I have a method called <code class=\"notranslate\">GetTransactions(address)</code> which should send back the inputs AND outputs transactions of this address. <code class=\"notranslate\">listreceivedbyaddress</code> would only show input transactions.</p>\n<p dir=\"auto\">The way I ended up implemeting my need is by caching <code class=\"notranslate\">listtransaction</code> then for each transaction in it, caching <code class=\"notranslate\">gettransaction</code> in a internal database. I now have good performance, and I am not sure this RPC method would suit my case now.</p>\n<hr>\n<p dir=\"auto\">EDIT: Documenting why I need also all transaction spent from this address: (not only transactions received)</p>\n<p dir=\"auto\">In TumbleBit, there is a chain of transaction.</p>\n<div class=\"snippet-clipboard-content notranslate position-relative overflow-auto\" data-snippet-clipboard-copy-content=\"[Escrow] -&gt; [Offer] -&gt; [Fulfill]\"><pre class=\"notranslate\"><code class=\"notranslate\">[Escrow] -&gt; [Offer] -&gt; [Fulfill]\n</code></pre></div>\n<p dir=\"auto\">Escrow is confirmed.<br>\nThe user knows one of the ScriptPubKey inside Offer, but not the transaction ID.<br>\nHis goal is to fetch Fulfill on the blockchain. (When the ScriptPubKey of Offer get spent, then important preimages are revealed)</p>\n<p dir=\"auto\">So the way I am doing it now is adding Offer's ScriptPubKey as WatchOnly. Then fetching all the transactions from the wallet, caching them in internal database, and going through all those transactions to see if there is one input which is spent by the ScriptPubKey of Offer. If yes, then we have [Fulfill].</p>\n<p dir=\"auto\">Watching all transactions related to one address is very useful, not only the received transaction of the address.</p>\n<p dir=\"auto\">In Core, however it is not possible, because knowing if a transaction is \"from an address\" is considered bad practice.<br>\nAt the root, this is the same reason as to why <a class=\"issue-link js-issue-link\" data-error-text=\"Failed to load title\" data-id=\"214619255\" data-permission-text=\"Title is private\" data-url=\"https://github.com/bitcoin/bitcoin/issues/10007\" data-hovercard-type=\"pull_request\" data-hovercard-url=\"/bitcoin/bitcoin/pull/10007/hovercard\" href=\"https://github.com/bitcoin/bitcoin/pull/10007\">#10007</a> could not make it..</p>",
    "body_text": "@jnewbery, if you have interest, I am reopening, I guess it does not hurt to keep it opens, it is not high maintenance PR. I was thinking to allow multiple addresses to be passed in the filter, instead of only one.\nFor NTumbleBit, I changed the design, I have a method called GetTransactions(address) which should send back the inputs AND outputs transactions of this address. listreceivedbyaddress would only show input transactions.\nThe way I ended up implemeting my need is by caching listtransaction then for each transaction in it, caching gettransaction in a internal database. I now have good performance, and I am not sure this RPC method would suit my case now.\n\nEDIT: Documenting why I need also all transaction spent from this address: (not only transactions received)\nIn TumbleBit, there is a chain of transaction.\n[Escrow] -> [Offer] -> [Fulfill]\n\nEscrow is confirmed.\nThe user knows one of the ScriptPubKey inside Offer, but not the transaction ID.\nHis goal is to fetch Fulfill on the blockchain. (When the ScriptPubKey of Offer get spent, then important preimages are revealed)\nSo the way I am doing it now is adding Offer's ScriptPubKey as WatchOnly. Then fetching all the transactions from the wallet, caching them in internal database, and going through all those transactions to see if there is one input which is spent by the ScriptPubKey of Offer. If yes, then we have [Fulfill].\nWatching all transactions related to one address is very useful, not only the received transaction of the address.\nIn Core, however it is not possible, because knowing if a transaction is \"from an address\" is considered bad practice.\nAt the root, this is the same reason as to why #10007 could not make it..",
    "body": "@jnewbery, if you have interest, I am reopening, I guess it does not hurt to keep it opens, it is not high maintenance PR. I was thinking to allow multiple addresses to be passed in the filter, instead of only one.\r\n\r\nFor NTumbleBit, I changed the design, I have a method called `GetTransactions(address)` which should send back the inputs AND outputs transactions of this address. `listreceivedbyaddress` would only show input transactions.\r\n\r\nThe way I ended up implemeting my need is by caching `listtransaction` then for each transaction in it, caching `gettransaction` in a internal database. I now have good performance, and I am not sure this RPC method would suit my case now.\r\n\r\n----\r\nEDIT: Documenting why I need also all transaction spent from this address: (not only transactions received)\r\n\r\nIn TumbleBit, there is a chain of transaction.\r\n\r\n```\r\n[Escrow] -> [Offer] -> [Fulfill]\r\n```\r\nEscrow is confirmed.\r\nThe user knows one of the ScriptPubKey inside Offer, but not the transaction ID.\r\nHis goal is to fetch Fulfill on the blockchain. (When the ScriptPubKey of Offer get spent, then important preimages are revealed)\r\n\r\nSo the way I am doing it now is adding Offer's ScriptPubKey as WatchOnly. Then fetching all the transactions from the wallet, caching them in internal database, and going through all those transactions to see if there is one input which is spent by the ScriptPubKey of Offer. If yes, then we have [Fulfill].\r\n\r\nWatching all transactions related to one address is very useful, not only the received transaction of the address. \r\n\r\nIn Core, however it is not possible, because knowing if a transaction is \"from an address\" is considered bad practice.\r\nAt the root, this is the same reason as to why https://github.com/bitcoin/bitcoin/pull/10007 could not make it..\r\n",
    "reactions": {
      "url": "https://api.github.com/repos/bitcoin/bitcoin/issues/comments/308731459/reactions",
      "total_count": 0,
      "+1": 0,
      "-1": 0,
      "laugh": 0,
      "hooray": 0,
      "confused": 0,
      "heart": 0,
      "rocket": 0,
      "eyes": 0
    },
    "performed_via_github_app": null
  },
  {
    "url": "https://api.github.com/repos/bitcoin/bitcoin/issues/comments/309161077",
    "html_url": "https://github.com/bitcoin/bitcoin/pull/9991#issuecomment-309161077",
    "issue_url": "https://api.github.com/repos/bitcoin/bitcoin/issues/9991",
    "id": 309161077,
    "node_id": "MDEyOklzc3VlQ29tbWVudDMwOTE2MTA3Nw==",
    "user": {
      "login": "sipa",
      "id": 548488,
      "node_id": "MDQ6VXNlcjU0ODQ4OA==",
      "avatar_url": "https://avatars.githubusercontent.com/u/548488?v=4",
      "gravatar_id": "",
      "url": "https://api.github.com/users/sipa",
      "html_url": "https://github.com/sipa",
      "followers_url": "https://api.github.com/users/sipa/followers",
      "following_url": "https://api.github.com/users/sipa/following{/other_user}",
      "gists_url": "https://api.github.com/users/sipa/gists{/gist_id}",
      "starred_url": "https://api.github.com/users/sipa/starred{/owner}{/repo}",
      "subscriptions_url": "https://api.github.com/users/sipa/subscriptions",
      "organizations_url": "https://api.github.com/users/sipa/orgs",
      "repos_url": "https://api.github.com/users/sipa/repos",
      "events_url": "https://api.github.com/users/sipa/events{/privacy}",
      "received_events_url": "https://api.github.com/users/sipa/received_events",
      "type": "User",
      "site_admin": false
    },
    "created_at": "2017-06-16T23:26:09Z",
    "updated_at": "2017-06-16T23:26:09Z",
    "author_association": "MEMBER",
    "body_html": "<p dir=\"auto\"><a class=\"user-mention notranslate\" data-hovercard-type=\"user\" data-hovercard-url=\"/users/NicolasDorier/hovercard\" data-octo-click=\"hovercard-link-click\" data-octo-dimensions=\"link_type:self\" href=\"https://github.com/NicolasDorier\">@NicolasDorier</a> Do you actually need the wallet functionality (balance tracking, UTXO management, coin selection, ...), or just a means to be notified of certain transactions?</p>",
    "body_text": "@NicolasDorier Do you actually need the wallet functionality (balance tracking, UTXO management, coin selection, ...), or just a means to be notified of certain transactions?",
    "body": "@NicolasDorier Do you actually need the wallet functionality (balance tracking, UTXO management, coin selection, ...), or just a means to be notified of certain transactions?",
    "reactions": {
      "url": "https://api.github.com/repos/bitcoin/bitcoin/issues/comments/309161077/reactions",
      "total_count": 0,
      "+1": 0,
      "-1": 0,
      "laugh": 0,
      "hooray": 0,
      "confused": 0,
      "heart": 0,
      "rocket": 0,
      "eyes": 0
    },
    "performed_via_github_app": null
  },
  {
    "url": "https://api.github.com/repos/bitcoin/bitcoin/issues/comments/309193312",
    "html_url": "https://github.com/bitcoin/bitcoin/pull/9991#issuecomment-309193312",
    "issue_url": "https://api.github.com/repos/bitcoin/bitcoin/issues/9991",
    "id": 309193312,
    "node_id": "MDEyOklzc3VlQ29tbWVudDMwOTE5MzMxMg==",
    "user": {
      "login": "nopara73",
      "id": 9156103,
      "node_id": "MDQ6VXNlcjkxNTYxMDM=",
      "avatar_url": "https://avatars.githubusercontent.com/u/9156103?v=4",
      "gravatar_id": "",
      "url": "https://api.github.com/users/nopara73",
      "html_url": "https://github.com/nopara73",
      "followers_url": "https://api.github.com/users/nopara73/followers",
      "following_url": "https://api.github.com/users/nopara73/following{/other_user}",
      "gists_url": "https://api.github.com/users/nopara73/gists{/gist_id}",
      "starred_url": "https://api.github.com/users/nopara73/starred{/owner}{/repo}",
      "subscriptions_url": "https://api.github.com/users/nopara73/subscriptions",
      "organizations_url": "https://api.github.com/users/nopara73/orgs",
      "repos_url": "https://api.github.com/users/nopara73/repos",
      "events_url": "https://api.github.com/users/nopara73/events{/privacy}",
      "received_events_url": "https://api.github.com/users/nopara73/received_events",
      "type": "User",
      "site_admin": false
    },
    "created_at": "2017-06-17T04:48:03Z",
    "updated_at": "2017-06-17T04:48:03Z",
    "author_association": "NONE",
    "body_html": "<p dir=\"auto\"><a class=\"user-mention notranslate\" data-hovercard-type=\"user\" data-hovercard-url=\"/users/sipa/hovercard\" data-octo-click=\"hovercard-link-click\" data-octo-dimensions=\"link_type:self\" href=\"https://github.com/sipa\">@sipa</a> Need the wallet functionality for NTumbleBit.</p>",
    "body_text": "@sipa Need the wallet functionality for NTumbleBit.",
    "body": "@sipa Need the wallet functionality for NTumbleBit.",
    "reactions": {
      "url": "https://api.github.com/repos/bitcoin/bitcoin/issues/comments/309193312/reactions",
      "total_count": 0,
      "+1": 0,
      "-1": 0,
      "laugh": 0,
      "hooray": 0,
      "confused": 0,
      "heart": 0,
      "rocket": 0,
      "eyes": 0
    },
    "performed_via_github_app": null
  },
  {
    "url": "https://api.github.com/repos/bitcoin/bitcoin/issues/comments/309194075",
    "html_url": "https://github.com/bitcoin/bitcoin/pull/9991#issuecomment-309194075",
    "issue_url": "https://api.github.com/repos/bitcoin/bitcoin/issues/9991",
    "id": 309194075,
    "node_id": "MDEyOklzc3VlQ29tbWVudDMwOTE5NDA3NQ==",
    "user": {
      "login": "sipa",
      "id": 548488,
      "node_id": "MDQ6VXNlcjU0ODQ4OA==",
      "avatar_url": "https://avatars.githubusercontent.com/u/548488?v=4",
      "gravatar_id": "",
      "url": "https://api.github.com/users/sipa",
      "html_url": "https://github.com/sipa",
      "followers_url": "https://api.github.com/users/sipa/followers",
      "following_url": "https://api.github.com/users/sipa/following{/other_user}",
      "gists_url": "https://api.github.com/users/sipa/gists{/gist_id}",
      "starred_url": "https://api.github.com/users/sipa/starred{/owner}{/repo}",
      "subscriptions_url": "https://api.github.com/users/sipa/subscriptions",
      "organizations_url": "https://api.github.com/users/sipa/orgs",
      "repos_url": "https://api.github.com/users/sipa/repos",
      "events_url": "https://api.github.com/users/sipa/events{/privacy}",
      "received_events_url": "https://api.github.com/users/sipa/received_events",
      "type": "User",
      "site_admin": false
    },
    "created_at": "2017-06-17T05:09:55Z",
    "updated_at": "2017-06-17T05:09:55Z",
    "author_association": "MEMBER",
    "body_html": "<p dir=\"auto\">Can you clarify what functionality it relies on?</p>",
    "body_text": "Can you clarify what functionality it relies on?",
    "body": "Can you clarify what functionality it relies on?",
    "reactions": {
      "url": "https://api.github.com/repos/bitcoin/bitcoin/issues/comments/309194075/reactions",
      "total_count": 0,
      "+1": 0,
      "-1": 0,
      "laugh": 0,
      "hooray": 0,
      "confused": 0,
      "heart": 0,
      "rocket": 0,
      "eyes": 0
    },
    "performed_via_github_app": null
  },
  {
    "url": "https://api.github.com/repos/bitcoin/bitcoin/issues/comments/309195417",
    "html_url": "https://github.com/bitcoin/bitcoin/pull/9991#issuecomment-309195417",
    "issue_url": "https://api.github.com/repos/bitcoin/bitcoin/issues/9991",
    "id": 309195417,
    "node_id": "MDEyOklzc3VlQ29tbWVudDMwOTE5NTQxNw==",
    "user": {
      "login": "nopara73",
      "id": 9156103,
      "node_id": "MDQ6VXNlcjkxNTYxMDM=",
      "avatar_url": "https://avatars.githubusercontent.com/u/9156103?v=4",
      "gravatar_id": "",
      "url": "https://api.github.com/users/nopara73",
      "html_url": "https://github.com/nopara73",
      "followers_url": "https://api.github.com/users/nopara73/followers",
      "following_url": "https://api.github.com/users/nopara73/following{/other_user}",
      "gists_url": "https://api.github.com/users/nopara73/gists{/gist_id}",
      "starred_url": "https://api.github.com/users/nopara73/starred{/owner}{/repo}",
      "subscriptions_url": "https://api.github.com/users/nopara73/subscriptions",
      "organizations_url": "https://api.github.com/users/nopara73/orgs",
      "repos_url": "https://api.github.com/users/nopara73/repos",
      "events_url": "https://api.github.com/users/nopara73/events{/privacy}",
      "received_events_url": "https://api.github.com/users/nopara73/received_events",
      "type": "User",
      "site_admin": false
    },
    "created_at": "2017-06-17T05:46:30Z",
    "updated_at": "2017-06-17T05:46:30Z",
    "author_association": "NONE",
    "body_html": "<p dir=\"auto\">A lot, but I am not sure which are relevant to this discussion with the workaround. <a class=\"user-mention notranslate\" data-hovercard-type=\"user\" data-hovercard-url=\"/users/NicolasDorier/hovercard\" data-octo-click=\"hovercard-link-click\" data-octo-dimensions=\"link_type:self\" href=\"https://github.com/NicolasDorier\">@NicolasDorier</a> will have a better insight. <a href=\"https://github.com/NTumbleBit/NTumbleBit/tree/master/NTumbleBit.TumblerServer/Services/RPCServices\">https://github.com/NTumbleBit/NTumbleBit/tree/master/NTumbleBit.TumblerServer/Services/RPCServices</a></p>",
    "body_text": "A lot, but I am not sure which are relevant to this discussion with the workaround. @NicolasDorier will have a better insight. https://github.com/NTumbleBit/NTumbleBit/tree/master/NTumbleBit.TumblerServer/Services/RPCServices",
    "body": "A lot, but I am not sure which are relevant to this discussion with the workaround. @NicolasDorier will have a better insight. https://github.com/NTumbleBit/NTumbleBit/tree/master/NTumbleBit.TumblerServer/Services/RPCServices  ",
    "reactions": {
      "url": "https://api.github.com/repos/bitcoin/bitcoin/issues/comments/309195417/reactions",
      "total_count": 0,
      "+1": 0,
      "-1": 0,
      "laugh": 0,
      "hooray": 0,
      "confused": 0,
      "heart": 0,
      "rocket": 0,
      "eyes": 0
    },
    "performed_via_github_app": null
  },
  {
    "url": "https://api.github.com/repos/bitcoin/bitcoin/issues/comments/322571306",
    "html_url": "https://github.com/bitcoin/bitcoin/pull/9991#issuecomment-322571306",
    "issue_url": "https://api.github.com/repos/bitcoin/bitcoin/issues/9991",
    "id": 322571306,
    "node_id": "MDEyOklzc3VlQ29tbWVudDMyMjU3MTMwNg==",
    "user": {
      "login": "jonasschnelli",
      "id": 178464,
      "node_id": "MDQ6VXNlcjE3ODQ2NA==",
      "avatar_url": "https://avatars.githubusercontent.com/u/178464?v=4",
      "gravatar_id": "",
      "url": "https://api.github.com/users/jonasschnelli",
      "html_url": "https://github.com/jonasschnelli",
      "followers_url": "https://api.github.com/users/jonasschnelli/followers",
      "following_url": "https://api.github.com/users/jonasschnelli/following{/other_user}",
      "gists_url": "https://api.github.com/users/jonasschnelli/gists{/gist_id}",
      "starred_url": "https://api.github.com/users/jonasschnelli/starred{/owner}{/repo}",
      "subscriptions_url": "https://api.github.com/users/jonasschnelli/subscriptions",
      "organizations_url": "https://api.github.com/users/jonasschnelli/orgs",
      "repos_url": "https://api.github.com/users/jonasschnelli/repos",
      "events_url": "https://api.github.com/users/jonasschnelli/events{/privacy}",
      "received_events_url": "https://api.github.com/users/jonasschnelli/received_events",
      "type": "User",
      "site_admin": false
    },
    "created_at": "2017-08-15T19:56:07Z",
    "updated_at": "2017-08-15T19:56:07Z",
    "author_association": "CONTRIBUTOR",
    "body_html": "<p dir=\"auto\">Needs rebase.</p>\n<p dir=\"auto\">Concept ACK. I think the by address filter is in general useful.</p>",
    "body_text": "Needs rebase.\nConcept ACK. I think the by address filter is in general useful.",
    "body": "Needs rebase.\r\n\r\nConcept ACK. I think the by address filter is in general useful.",
    "reactions": {
      "url": "https://api.github.com/repos/bitcoin/bitcoin/issues/comments/322571306/reactions",
      "total_count": 0,
      "+1": 0,
      "-1": 0,
      "laugh": 0,
      "hooray": 0,
      "confused": 0,
      "heart": 0,
      "rocket": 0,
      "eyes": 0
    },
    "performed_via_github_app": null
  },
  {
    "url": "https://api.github.com/repos/bitcoin/bitcoin/issues/comments/322964889",
    "html_url": "https://github.com/bitcoin/bitcoin/pull/9991#issuecomment-322964889",
    "issue_url": "https://api.github.com/repos/bitcoin/bitcoin/issues/9991",
    "id": 322964889,
    "node_id": "MDEyOklzc3VlQ29tbWVudDMyMjk2NDg4OQ==",
    "user": {
      "login": "NicolasDorier",
      "id": 3020646,
      "node_id": "MDQ6VXNlcjMwMjA2NDY=",
      "avatar_url": "https://avatars.githubusercontent.com/u/3020646?v=4",
      "gravatar_id": "",
      "url": "https://api.github.com/users/NicolasDorier",
      "html_url": "https://github.com/NicolasDorier",
      "followers_url": "https://api.github.com/users/NicolasDorier/followers",
      "following_url": "https://api.github.com/users/NicolasDorier/following{/other_user}",
      "gists_url": "https://api.github.com/users/NicolasDorier/gists{/gist_id}",
      "starred_url": "https://api.github.com/users/NicolasDorier/starred{/owner}{/repo}",
      "subscriptions_url": "https://api.github.com/users/NicolasDorier/subscriptions",
      "organizations_url": "https://api.github.com/users/NicolasDorier/orgs",
      "repos_url": "https://api.github.com/users/NicolasDorier/repos",
      "events_url": "https://api.github.com/users/NicolasDorier/events{/privacy}",
      "received_events_url": "https://api.github.com/users/NicolasDorier/received_events",
      "type": "User",
      "site_admin": false
    },
    "created_at": "2017-08-17T04:19:27Z",
    "updated_at": "2017-08-17T04:21:53Z",
    "author_association": "CONTRIBUTOR",
    "body_html": "<p dir=\"auto\"><a class=\"user-mention notranslate\" data-hovercard-type=\"user\" data-hovercard-url=\"/users/sipa/hovercard\" data-octo-click=\"hovercard-link-click\" data-octo-dimensions=\"link_type:self\" href=\"https://github.com/sipa\">@sipa</a> just saw now your previous question.<br>\nAs far as TB is concerned, I am using balance tracking, UTXO management, and coin selection management of Bitcoin Core for funding the escrow transactions.</p>\n<p dir=\"auto\">I am also using Core as a block explorer: There is some well known address on which I would like to be notified is money is sent <em>to</em> it, or sent <em>from</em>. This PR allows me to know when something is sent to the address.<br>\nHowever, I still need a new rpc method for knowing if something is sent <em>from</em> an address.</p>\n<p dir=\"auto\">Until I have the two features, my only way is to poll periodically <code class=\"notranslate\">listtransaction</code> then fetch all transaction with <code class=\"notranslate\">gettransaction</code>, and see if the relevant addresses are inside. This work well but is very cumbersome. It also does not scale well, if I do not cache the result of <code class=\"notranslate\">gettransaction</code>.</p>\n<p dir=\"auto\">We kind of talked about that in Tokyo, and you seemed to think that the best is that I develop my own wallet, unrelated to bitcoin RPC. I don't like it but I think this is the way I will go for future projects.</p>",
    "body_text": "@sipa just saw now your previous question.\nAs far as TB is concerned, I am using balance tracking, UTXO management, and coin selection management of Bitcoin Core for funding the escrow transactions.\nI am also using Core as a block explorer: There is some well known address on which I would like to be notified is money is sent to it, or sent from. This PR allows me to know when something is sent to the address.\nHowever, I still need a new rpc method for knowing if something is sent from an address.\nUntil I have the two features, my only way is to poll periodically listtransaction then fetch all transaction with gettransaction, and see if the relevant addresses are inside. This work well but is very cumbersome. It also does not scale well, if I do not cache the result of gettransaction.\nWe kind of talked about that in Tokyo, and you seemed to think that the best is that I develop my own wallet, unrelated to bitcoin RPC. I don't like it but I think this is the way I will go for future projects.",
    "body": "@sipa just saw now your previous question.\r\nAs far as TB is concerned, I am using balance tracking, UTXO management, and coin selection management of Bitcoin Core for funding the escrow transactions.\r\n\r\nI am also using Core as a block explorer: There is some well known address on which I would like to be notified is money is sent *to* it, or sent *from*. This PR allows me to know when something is sent to the address.\r\nHowever, I still need a new rpc method for knowing if something is sent *from* an address.\r\n\r\nUntil I have the two features, my only way is to poll periodically `listtransaction` then fetch all transaction with `gettransaction`, and see if the relevant addresses are inside. This work well but is very cumbersome. It also does not scale well, if I do not cache the result of `gettransaction`.\r\n\r\nWe kind of talked about that in Tokyo, and you seemed to think that the best is that I develop my own wallet, unrelated to bitcoin RPC. I don't like it but I think this is the way I will go for future projects.",
    "reactions": {
      "url": "https://api.github.com/repos/bitcoin/bitcoin/issues/comments/322964889/reactions",
      "total_count": 0,
      "+1": 0,
      "-1": 0,
      "laugh": 0,
      "hooray": 0,
      "confused": 0,
      "heart": 0,
      "rocket": 0,
      "eyes": 0
    },
    "performed_via_github_app": null
  },
  {
    "url": "https://api.github.com/repos/bitcoin/bitcoin/issues/comments/370305265",
    "html_url": "https://github.com/bitcoin/bitcoin/pull/9991#issuecomment-370305265",
    "issue_url": "https://api.github.com/repos/bitcoin/bitcoin/issues/9991",
    "id": 370305265,
    "node_id": "MDEyOklzc3VlQ29tbWVudDM3MDMwNTI2NQ==",
    "user": {
      "login": "luke-jr",
      "id": 1095675,
      "node_id": "MDQ6VXNlcjEwOTU2NzU=",
      "avatar_url": "https://avatars.githubusercontent.com/u/1095675?v=4",
      "gravatar_id": "",
      "url": "https://api.github.com/users/luke-jr",
      "html_url": "https://github.com/luke-jr",
      "followers_url": "https://api.github.com/users/luke-jr/followers",
      "following_url": "https://api.github.com/users/luke-jr/following{/other_user}",
      "gists_url": "https://api.github.com/users/luke-jr/gists{/gist_id}",
      "starred_url": "https://api.github.com/users/luke-jr/starred{/owner}{/repo}",
      "subscriptions_url": "https://api.github.com/users/luke-jr/subscriptions",
      "organizations_url": "https://api.github.com/users/luke-jr/orgs",
      "repos_url": "https://api.github.com/users/luke-jr/repos",
      "events_url": "https://api.github.com/users/luke-jr/events{/privacy}",
      "received_events_url": "https://api.github.com/users/luke-jr/received_events",
      "type": "User",
      "site_admin": false
    },
    "created_at": "2018-03-05T04:13:45Z",
    "updated_at": "2018-03-05T04:13:45Z",
    "author_association": "MEMBER",
    "body_html": "<p dir=\"auto\">Rebased here: <a href=\"https://github.com/luke-jr/bitcoin/tree/listreceivedbyaddress-filtered\">https://github.com/luke-jr/bitcoin/tree/listreceivedbyaddress-filtered</a></p>",
    "body_text": "Rebased here: https://github.com/luke-jr/bitcoin/tree/listreceivedbyaddress-filtered",
    "body": "Rebased here: https://github.com/luke-jr/bitcoin/tree/listreceivedbyaddress-filtered",
    "reactions": {
      "url": "https://api.github.com/repos/bitcoin/bitcoin/issues/comments/370305265/reactions",
      "total_count": 0,
      "+1": 0,
      "-1": 0,
      "laugh": 0,
      "hooray": 0,
      "confused": 0,
      "heart": 0,
      "rocket": 0,
      "eyes": 0
    },
    "performed_via_github_app": null
  },
  {
    "url": "https://api.github.com/repos/bitcoin/bitcoin/issues/comments/370854889",
    "html_url": "https://github.com/bitcoin/bitcoin/pull/9991#issuecomment-370854889",
    "issue_url": "https://api.github.com/repos/bitcoin/bitcoin/issues/9991",
    "id": 370854889,
    "node_id": "MDEyOklzc3VlQ29tbWVudDM3MDg1NDg4OQ==",
    "user": {
      "login": "NicolasDorier",
      "id": 3020646,
      "node_id": "MDQ6VXNlcjMwMjA2NDY=",
      "avatar_url": "https://avatars.githubusercontent.com/u/3020646?v=4",
      "gravatar_id": "",
      "url": "https://api.github.com/users/NicolasDorier",
      "html_url": "https://github.com/NicolasDorier",
      "followers_url": "https://api.github.com/users/NicolasDorier/followers",
      "following_url": "https://api.github.com/users/NicolasDorier/following{/other_user}",
      "gists_url": "https://api.github.com/users/NicolasDorier/gists{/gist_id}",
      "starred_url": "https://api.github.com/users/NicolasDorier/starred{/owner}{/repo}",
      "subscriptions_url": "https://api.github.com/users/NicolasDorier/subscriptions",
      "organizations_url": "https://api.github.com/users/NicolasDorier/orgs",
      "repos_url": "https://api.github.com/users/NicolasDorier/repos",
      "events_url": "https://api.github.com/users/NicolasDorier/events{/privacy}",
      "received_events_url": "https://api.github.com/users/NicolasDorier/received_events",
      "type": "User",
      "site_admin": false
    },
    "created_at": "2018-03-06T17:10:04Z",
    "updated_at": "2018-03-06T17:10:04Z",
    "author_association": "CONTRIBUTOR",
    "body_html": "<p dir=\"auto\">Closing this I workedaround the need of this</p>",
    "body_text": "Closing this I workedaround the need of this",
    "body": "Closing this I workedaround the need of this",
    "reactions": {
      "url": "https://api.github.com/repos/bitcoin/bitcoin/issues/comments/370854889/reactions",
      "total_count": 0,
      "+1": 0,
      "-1": 0,
      "laugh": 0,
      "hooray": 0,
      "confused": 0,
      "heart": 0,
      "rocket": 0,
      "eyes": 0
    },
    "performed_via_github_app": null
  },
  {
    "url": "https://api.github.com/repos/bitcoin/bitcoin/issues/comments/370868407",
    "html_url": "https://github.com/bitcoin/bitcoin/pull/9991#issuecomment-370868407",
    "issue_url": "https://api.github.com/repos/bitcoin/bitcoin/issues/9991",
    "id": 370868407,
    "node_id": "MDEyOklzc3VlQ29tbWVudDM3MDg2ODQwNw==",
    "user": {
      "login": "JeremyRubin",
      "id": 886523,
      "node_id": "MDQ6VXNlcjg4NjUyMw==",
      "avatar_url": "https://avatars.githubusercontent.com/u/886523?v=4",
      "gravatar_id": "",
      "url": "https://api.github.com/users/JeremyRubin",
      "html_url": "https://github.com/JeremyRubin",
      "followers_url": "https://api.github.com/users/JeremyRubin/followers",
      "following_url": "https://api.github.com/users/JeremyRubin/following{/other_user}",
      "gists_url": "https://api.github.com/users/JeremyRubin/gists{/gist_id}",
      "starred_url": "https://api.github.com/users/JeremyRubin/starred{/owner}{/repo}",
      "subscriptions_url": "https://api.github.com/users/JeremyRubin/subscriptions",
      "organizations_url": "https://api.github.com/users/JeremyRubin/orgs",
      "repos_url": "https://api.github.com/users/JeremyRubin/repos",
      "events_url": "https://api.github.com/users/JeremyRubin/events{/privacy}",
      "received_events_url": "https://api.github.com/users/JeremyRubin/received_events",
      "type": "User",
      "site_admin": false
    },
    "created_at": "2018-03-06T17:51:02Z",
    "updated_at": "2018-03-06T17:51:02Z",
    "author_association": "CONTRIBUTOR",
    "body_html": "<p dir=\"auto\"><a class=\"user-mention notranslate\" data-hovercard-type=\"user\" data-hovercard-url=\"/users/NicolasDorier/hovercard\" data-octo-click=\"hovercard-link-click\" data-octo-dimensions=\"link_type:self\" href=\"https://github.com/NicolasDorier\">@NicolasDorier</a> I think this should reopen, AFAIK LN people would like this too... <a class=\"user-mention notranslate\" data-hovercard-type=\"user\" data-hovercard-url=\"/users/cfromknecht/hovercard\" data-octo-click=\"hovercard-link-click\" data-octo-dimensions=\"link_type:self\" href=\"https://github.com/cfromknecht\">@cfromknecht</a> <a class=\"user-mention notranslate\" data-hovercard-type=\"user\" data-hovercard-url=\"/users/Roasbeef/hovercard\" data-octo-click=\"hovercard-link-click\" data-octo-dimensions=\"link_type:self\" href=\"https://github.com/Roasbeef\">@Roasbeef</a></p>",
    "body_text": "@NicolasDorier I think this should reopen, AFAIK LN people would like this too... @cfromknecht @Roasbeef",
    "body": "@NicolasDorier I think this should reopen, AFAIK LN people would like this too... @cfromknecht @Roasbeef",
    "reactions": {
      "url": "https://api.github.com/repos/bitcoin/bitcoin/issues/comments/370868407/reactions",
      "total_count": 3,
      "+1": 2,
      "-1": 0,
      "laugh": 0,
      "hooray": 1,
      "confused": 0,
      "heart": 0,
      "rocket": 0,
      "eyes": 0
    },
    "performed_via_github_app": null
  },
  {
    "url": "https://api.github.com/repos/bitcoin/bitcoin/issues/comments/370875414",
    "html_url": "https://github.com/bitcoin/bitcoin/pull/9991#issuecomment-370875414",
    "issue_url": "https://api.github.com/repos/bitcoin/bitcoin/issues/9991",
    "id": 370875414,
    "node_id": "MDEyOklzc3VlQ29tbWVudDM3MDg3NTQxNA==",
    "user": {
      "login": "NicolasDorier",
      "id": 3020646,
      "node_id": "MDQ6VXNlcjMwMjA2NDY=",
      "avatar_url": "https://avatars.githubusercontent.com/u/3020646?v=4",
      "gravatar_id": "",
      "url": "https://api.github.com/users/NicolasDorier",
      "html_url": "https://github.com/NicolasDorier",
      "followers_url": "https://api.github.com/users/NicolasDorier/followers",
      "following_url": "https://api.github.com/users/NicolasDorier/following{/other_user}",
      "gists_url": "https://api.github.com/users/NicolasDorier/gists{/gist_id}",
      "starred_url": "https://api.github.com/users/NicolasDorier/starred{/owner}{/repo}",
      "subscriptions_url": "https://api.github.com/users/NicolasDorier/subscriptions",
      "organizations_url": "https://api.github.com/users/NicolasDorier/orgs",
      "repos_url": "https://api.github.com/users/NicolasDorier/repos",
      "events_url": "https://api.github.com/users/NicolasDorier/events{/privacy}",
      "received_events_url": "https://api.github.com/users/NicolasDorier/received_events",
      "type": "User",
      "site_admin": false
    },
    "created_at": "2018-03-06T18:13:16Z",
    "updated_at": "2018-03-06T18:13:16Z",
    "author_association": "CONTRIBUTOR",
    "body_html": "<p dir=\"auto\">ok rebasing</p>",
    "body_text": "ok rebasing",
    "body": "ok rebasing",
    "reactions": {
      "url": "https://api.github.com/repos/bitcoin/bitcoin/issues/comments/370875414/reactions",
      "total_count": 0,
      "+1": 0,
      "-1": 0,
      "laugh": 0,
      "hooray": 0,
      "confused": 0,
      "heart": 0,
      "rocket": 0,
      "eyes": 0
    },
    "performed_via_github_app": null
  },
  {
    "url": "https://api.github.com/repos/bitcoin/bitcoin/issues/comments/370962581",
    "html_url": "https://github.com/bitcoin/bitcoin/pull/9991#issuecomment-370962581",
    "issue_url": "https://api.github.com/repos/bitcoin/bitcoin/issues/9991",
    "id": 370962581,
    "node_id": "MDEyOklzc3VlQ29tbWVudDM3MDk2MjU4MQ==",
    "user": {
      "login": "NicolasDorier",
      "id": 3020646,
      "node_id": "MDQ6VXNlcjMwMjA2NDY=",
      "avatar_url": "https://avatars.githubusercontent.com/u/3020646?v=4",
      "gravatar_id": "",
      "url": "https://api.github.com/users/NicolasDorier",
      "html_url": "https://github.com/NicolasDorier",
      "followers_url": "https://api.github.com/users/NicolasDorier/followers",
      "following_url": "https://api.github.com/users/NicolasDorier/following{/other_user}",
      "gists_url": "https://api.github.com/users/NicolasDorier/gists{/gist_id}",
      "starred_url": "https://api.github.com/users/NicolasDorier/starred{/owner}{/repo}",
      "subscriptions_url": "https://api.github.com/users/NicolasDorier/subscriptions",
      "organizations_url": "https://api.github.com/users/NicolasDorier/orgs",
      "repos_url": "https://api.github.com/users/NicolasDorier/repos",
      "events_url": "https://api.github.com/users/NicolasDorier/events{/privacy}",
      "received_events_url": "https://api.github.com/users/NicolasDorier/received_events",
      "type": "User",
      "site_admin": false
    },
    "created_at": "2018-03-06T23:10:15Z",
    "updated_at": "2018-03-06T23:10:15Z",
    "author_association": "CONTRIBUTOR",
    "body_html": "<p dir=\"auto\">Rebased, fixed the nits of <a class=\"user-mention notranslate\" data-hovercard-type=\"user\" data-hovercard-url=\"/users/luke-jr/hovercard\" data-octo-click=\"hovercard-link-click\" data-octo-dimensions=\"link_type:self\" href=\"https://github.com/luke-jr\">@luke-jr</a> and <a class=\"user-mention notranslate\" data-hovercard-type=\"user\" data-hovercard-url=\"/users/promag/hovercard\" data-octo-click=\"hovercard-link-click\" data-octo-dimensions=\"link_type:self\" href=\"https://github.com/promag\">@promag</a> .</p>\n<p dir=\"auto\">I renamed <code class=\"notranslate\">only_address</code> to <code class=\"notranslate\">address_filter</code> so that if later we decide it is also possible to pass an array of address instead of a single address, we don't need to rename anything. It is more generic.</p>",
    "body_text": "Rebased, fixed the nits of @luke-jr and @promag .\nI renamed only_address to address_filter so that if later we decide it is also possible to pass an array of address instead of a single address, we don't need to rename anything. It is more generic.",
    "body": "Rebased, fixed the nits of @luke-jr and @promag .\r\n\r\nI renamed `only_address` to `address_filter` so that if later we decide it is also possible to pass an array of address instead of a single address, we don't need to rename anything. It is more generic.",
    "reactions": {
      "url": "https://api.github.com/repos/bitcoin/bitcoin/issues/comments/370962581/reactions",
      "total_count": 0,
      "+1": 0,
      "-1": 0,
      "laugh": 0,
      "hooray": 0,
      "confused": 0,
      "heart": 0,
      "rocket": 0,
      "eyes": 0
    },
    "performed_via_github_app": null
  },
  {
    "url": "https://api.github.com/repos/bitcoin/bitcoin/issues/comments/371138955",
    "html_url": "https://github.com/bitcoin/bitcoin/pull/9991#issuecomment-371138955",
    "issue_url": "https://api.github.com/repos/bitcoin/bitcoin/issues/9991",
    "id": 371138955,
    "node_id": "MDEyOklzc3VlQ29tbWVudDM3MTEzODk1NQ==",
    "user": {
      "login": "NicolasDorier",
      "id": 3020646,
      "node_id": "MDQ6VXNlcjMwMjA2NDY=",
      "avatar_url": "https://avatars.githubusercontent.com/u/3020646?v=4",
      "gravatar_id": "",
      "url": "https://api.github.com/users/NicolasDorier",
      "html_url": "https://github.com/NicolasDorier",
      "followers_url": "https://api.github.com/users/NicolasDorier/followers",
      "following_url": "https://api.github.com/users/NicolasDorier/following{/other_user}",
      "gists_url": "https://api.github.com/users/NicolasDorier/gists{/gist_id}",
      "starred_url": "https://api.github.com/users/NicolasDorier/starred{/owner}{/repo}",
      "subscriptions_url": "https://api.github.com/users/NicolasDorier/subscriptions",
      "organizations_url": "https://api.github.com/users/NicolasDorier/orgs",
      "repos_url": "https://api.github.com/users/NicolasDorier/repos",
      "events_url": "https://api.github.com/users/NicolasDorier/events{/privacy}",
      "received_events_url": "https://api.github.com/users/NicolasDorier/received_events",
      "type": "User",
      "site_admin": false
    },
    "created_at": "2018-03-07T13:31:57Z",
    "updated_at": "2018-03-07T13:31:57Z",
    "author_association": "CONTRIBUTOR",
    "body_html": "<p dir=\"auto\">Addressed <a class=\"user-mention notranslate\" data-hovercard-type=\"user\" data-hovercard-url=\"/users/kallewoof/hovercard\" data-octo-click=\"hovercard-link-click\" data-octo-dimensions=\"link_type:self\" href=\"https://github.com/kallewoof\">@kallewoof</a> nits</p>",
    "body_text": "Addressed @kallewoof nits",
    "body": "Addressed @kallewoof nits",
    "reactions": {
      "url": "https://api.github.com/repos/bitcoin/bitcoin/issues/comments/371138955/reactions",
      "total_count": 0,
      "+1": 0,
      "-1": 0,
      "laugh": 0,
      "hooray": 0,
      "confused": 0,
      "heart": 0,
      "rocket": 0,
      "eyes": 0
    },
    "performed_via_github_app": null
  },
  {
    "url": "https://api.github.com/repos/bitcoin/bitcoin/issues/comments/371168842",
    "html_url": "https://github.com/bitcoin/bitcoin/pull/9991#issuecomment-371168842",
    "issue_url": "https://api.github.com/repos/bitcoin/bitcoin/issues/9991",
    "id": 371168842,
    "node_id": "MDEyOklzc3VlQ29tbWVudDM3MTE2ODg0Mg==",
    "user": {
      "login": "laanwj",
      "id": 126646,
      "node_id": "MDQ6VXNlcjEyNjY0Ng==",
      "avatar_url": "https://avatars.githubusercontent.com/u/126646?v=4",
      "gravatar_id": "",
      "url": "https://api.github.com/users/laanwj",
      "html_url": "https://github.com/laanwj",
      "followers_url": "https://api.github.com/users/laanwj/followers",
      "following_url": "https://api.github.com/users/laanwj/following{/other_user}",
      "gists_url": "https://api.github.com/users/laanwj/gists{/gist_id}",
      "starred_url": "https://api.github.com/users/laanwj/starred{/owner}{/repo}",
      "subscriptions_url": "https://api.github.com/users/laanwj/subscriptions",
      "organizations_url": "https://api.github.com/users/laanwj/orgs",
      "repos_url": "https://api.github.com/users/laanwj/repos",
      "events_url": "https://api.github.com/users/laanwj/events{/privacy}",
      "received_events_url": "https://api.github.com/users/laanwj/received_events",
      "type": "User",
      "site_admin": false
    },
    "created_at": "2018-03-07T15:09:23Z",
    "updated_at": "2018-03-07T15:09:23Z",
    "author_association": "MEMBER",
    "body_html": "<p dir=\"auto\">utACK <a class=\"commit-link\" data-hovercard-type=\"commit\" data-hovercard-url=\"https://github.com/bitcoin/bitcoin/commit/f087613719026bcd5cba95ec64c19361fcc71ecf/hovercard\" href=\"https://github.com/bitcoin/bitcoin/commit/f087613719026bcd5cba95ec64c19361fcc71ecf\"><tt>f087613</tt></a></p>",
    "body_text": "utACK f087613",
    "body": "utACK f08761371",
    "reactions": {
      "url": "https://api.github.com/repos/bitcoin/bitcoin/issues/comments/371168842/reactions",
      "total_count": 0,
      "+1": 0,
      "-1": 0,
      "laugh": 0,
      "hooray": 0,
      "confused": 0,
      "heart": 0,
      "rocket": 0,
      "eyes": 0
    },
    "performed_via_github_app": null
  }
]
