{
  "url": "https://api.github.com/repos/bitcoin/bitcoin/issues/19422",
  "repository_url": "https://api.github.com/repos/bitcoin/bitcoin",
  "labels_url": "https://api.github.com/repos/bitcoin/bitcoin/issues/19422/labels{/name}",
  "comments_url": "https://api.github.com/repos/bitcoin/bitcoin/issues/19422/comments",
  "events_url": "https://api.github.com/repos/bitcoin/bitcoin/issues/19422/events",
  "html_url": "https://github.com/bitcoin/bitcoin/pull/19422",
  "id": 648567296,
  "node_id": "MDExOlB1bGxSZXF1ZXN0NDQyMzU2NzEy",
  "number": 19422,
  "title": "ci: Add tsan suppression for race in wallet",
  "user": {
    "login": "maflcko",
    "id": 6399679,
    "node_id": "MDQ6VXNlcjYzOTk2Nzk=",
    "avatar_url": "https://avatars.githubusercontent.com/u/6399679?v=4",
    "gravatar_id": "",
    "url": "https://api.github.com/users/maflcko",
    "html_url": "https://github.com/maflcko",
    "followers_url": "https://api.github.com/users/maflcko/followers",
    "following_url": "https://api.github.com/users/maflcko/following{/other_user}",
    "gists_url": "https://api.github.com/users/maflcko/gists{/gist_id}",
    "starred_url": "https://api.github.com/users/maflcko/starred{/owner}{/repo}",
    "subscriptions_url": "https://api.github.com/users/maflcko/subscriptions",
    "organizations_url": "https://api.github.com/users/maflcko/orgs",
    "repos_url": "https://api.github.com/users/maflcko/repos",
    "events_url": "https://api.github.com/users/maflcko/events{/privacy}",
    "received_events_url": "https://api.github.com/users/maflcko/received_events",
    "type": "User",
    "site_admin": false
  },
  "labels": [
    {
      "id": 62963516,
      "node_id": "MDU6TGFiZWw2Mjk2MzUxNg==",
      "url": "https://api.github.com/repos/bitcoin/bitcoin/labels/Tests",
      "name": "Tests",
      "color": "d4c5f9",
      "default": false,
      "description": null
    }
  ],
  "state": "closed",
  "locked": true,
  "assignee": null,
  "assignees": [

  ],
  "milestone": null,
  "comments": 0,
  "created_at": "2020-06-30T23:37:41Z",
  "updated_at": "2022-02-15T10:46:05Z",
  "closed_at": "2020-07-02T14:23:04Z",
  "author_association": "MEMBER",
  "active_lock_reason": "resolved",
  "draft": false,
  "pull_request": {
    "url": "https://api.github.com/repos/bitcoin/bitcoin/pulls/19422",
    "html_url": "https://github.com/bitcoin/bitcoin/pull/19422",
    "diff_url": "https://github.com/bitcoin/bitcoin/pull/19422.diff",
    "patch_url": "https://github.com/bitcoin/bitcoin/pull/19422.patch",
    "merged_at": "2020-07-02T14:23:04Z"
  },
  "body_html": "<p dir=\"auto\">Workaround to <span class=\"issue-keyword tooltipped tooltipped-se\" aria-label=\"This pull request closes issue #19417.\">fix</span> <a class=\"issue-link js-issue-link\" data-error-text=\"Failed to load title\" data-id=\"647906812\" data-permission-text=\"Title is private\" data-url=\"https://github.com/bitcoin/bitcoin/issues/19417\" data-hovercard-type=\"issue\" data-hovercard-url=\"/bitcoin/bitcoin/issues/19417/hovercard\" href=\"https://github.com/bitcoin/bitcoin/issues/19417\">#19417</a> (Intermittent CI failure)</p>",
  "body_text": "Workaround to fix #19417 (Intermittent CI failure)",
  "body": "Workaround to fix #19417 (Intermittent CI failure)",
  "closed_by": {
    "login": "maflcko",
    "id": 6399679,
    "node_id": "MDQ6VXNlcjYzOTk2Nzk=",
    "avatar_url": "https://avatars.githubusercontent.com/u/6399679?v=4",
    "gravatar_id": "",
    "url": "https://api.github.com/users/maflcko",
    "html_url": "https://github.com/maflcko",
    "followers_url": "https://api.github.com/users/maflcko/followers",
    "following_url": "https://api.github.com/users/maflcko/following{/other_user}",
    "gists_url": "https://api.github.com/users/maflcko/gists{/gist_id}",
    "starred_url": "https://api.github.com/users/maflcko/starred{/owner}{/repo}",
    "subscriptions_url": "https://api.github.com/users/maflcko/subscriptions",
    "organizations_url": "https://api.github.com/users/maflcko/orgs",
    "repos_url": "https://api.github.com/users/maflcko/repos",
    "events_url": "https://api.github.com/users/maflcko/events{/privacy}",
    "received_events_url": "https://api.github.com/users/maflcko/received_events",
    "type": "User",
    "site_admin": false
  },
  "reactions": {
    "url": "https://api.github.com/repos/bitcoin/bitcoin/issues/19422/reactions",
    "total_count": 0,
    "+1": 0,
    "-1": 0,
    "laugh": 0,
    "hooray": 0,
    "confused": 0,
    "heart": 0,
    "rocket": 0,
    "eyes": 0
  },
  "timeline_url": "https://api.github.com/repos/bitcoin/bitcoin/issues/19422/timeline",
  "performed_via_github_app": null,
  "state_reason": null
}
