[
  {
    "url": "https://api.github.com/repos/bitcoin/bitcoin/issues/comments/524656590",
    "html_url": "https://github.com/bitcoin/bitcoin/pull/16723#issuecomment-524656590",
    "issue_url": "https://api.github.com/repos/bitcoin/bitcoin/issues/16723",
    "id": 524656590,
    "node_id": "MDEyOklzc3VlQ29tbWVudDUyNDY1NjU5MA==",
    "user": {
      "login": "emilengler",
      "id": 12272949,
      "node_id": "MDQ6VXNlcjEyMjcyOTQ5",
      "avatar_url": "https://avatars.githubusercontent.com/u/12272949?v=4",
      "gravatar_id": "",
      "url": "https://api.github.com/users/emilengler",
      "html_url": "https://github.com/emilengler",
      "followers_url": "https://api.github.com/users/emilengler/followers",
      "following_url": "https://api.github.com/users/emilengler/following{/other_user}",
      "gists_url": "https://api.github.com/users/emilengler/gists{/gist_id}",
      "starred_url": "https://api.github.com/users/emilengler/starred{/owner}{/repo}",
      "subscriptions_url": "https://api.github.com/users/emilengler/subscriptions",
      "organizations_url": "https://api.github.com/users/emilengler/orgs",
      "repos_url": "https://api.github.com/users/emilengler/repos",
      "events_url": "https://api.github.com/users/emilengler/events{/privacy}",
      "received_events_url": "https://api.github.com/users/emilengler/received_events",
      "type": "User",
      "site_admin": false
    },
    "created_at": "2019-08-25T19:21:15Z",
    "updated_at": "2019-08-25T19:21:15Z",
    "author_association": "CONTRIBUTOR",
    "body_html": "<p dir=\"auto\">Concept ACK b813460</p>",
    "body_text": "Concept ACK b813460",
    "body": "Concept ACK b813460",
    "reactions": {
      "url": "https://api.github.com/repos/bitcoin/bitcoin/issues/comments/524656590/reactions",
      "total_count": 0,
      "+1": 0,
      "-1": 0,
      "laugh": 0,
      "hooray": 0,
      "confused": 0,
      "heart": 0,
      "rocket": 0,
      "eyes": 0
    },
    "performed_via_github_app": null
  },
  {
    "url": "https://api.github.com/repos/bitcoin/bitcoin/issues/comments/524660891",
    "html_url": "https://github.com/bitcoin/bitcoin/pull/16723#issuecomment-524660891",
    "issue_url": "https://api.github.com/repos/bitcoin/bitcoin/issues/16723",
    "id": 524660891,
    "node_id": "MDEyOklzc3VlQ29tbWVudDUyNDY2MDg5MQ==",
    "user": {
      "login": "practicalswift",
      "id": 7826565,
      "node_id": "MDQ6VXNlcjc4MjY1NjU=",
      "avatar_url": "https://avatars.githubusercontent.com/u/7826565?v=4",
      "gravatar_id": "",
      "url": "https://api.github.com/users/practicalswift",
      "html_url": "https://github.com/practicalswift",
      "followers_url": "https://api.github.com/users/practicalswift/followers",
      "following_url": "https://api.github.com/users/practicalswift/following{/other_user}",
      "gists_url": "https://api.github.com/users/practicalswift/gists{/gist_id}",
      "starred_url": "https://api.github.com/users/practicalswift/starred{/owner}{/repo}",
      "subscriptions_url": "https://api.github.com/users/practicalswift/subscriptions",
      "organizations_url": "https://api.github.com/users/practicalswift/orgs",
      "repos_url": "https://api.github.com/users/practicalswift/repos",
      "events_url": "https://api.github.com/users/practicalswift/events{/privacy}",
      "received_events_url": "https://api.github.com/users/practicalswift/received_events",
      "type": "User",
      "site_admin": false
    },
    "created_at": "2019-08-25T20:24:09Z",
    "updated_at": "2019-08-25T20:24:09Z",
    "author_association": "CONTRIBUTOR",
    "body_html": "<p dir=\"auto\">ACK <a class=\"commit-link\" data-hovercard-type=\"commit\" data-hovercard-url=\"https://github.com/bitcoin/bitcoin/commit/b813460acde7acfa0594c5bb2cf86cf56be98dd4/hovercard\" href=\"https://github.com/bitcoin/bitcoin/commit/b813460acde7acfa0594c5bb2cf86cf56be98dd4\"><tt>b813460</tt></a></p>",
    "body_text": "ACK b813460",
    "body": "ACK b813460acde7acfa0594c5bb2cf86cf56be98dd4",
    "reactions": {
      "url": "https://api.github.com/repos/bitcoin/bitcoin/issues/comments/524660891/reactions",
      "total_count": 0,
      "+1": 0,
      "-1": 0,
      "laugh": 0,
      "hooray": 0,
      "confused": 0,
      "heart": 0,
      "rocket": 0,
      "eyes": 0
    },
    "performed_via_github_app": null
  },
  {
    "url": "https://api.github.com/repos/bitcoin/bitcoin/issues/comments/524778815",
    "html_url": "https://github.com/bitcoin/bitcoin/pull/16723#issuecomment-524778815",
    "issue_url": "https://api.github.com/repos/bitcoin/bitcoin/issues/16723",
    "id": 524778815,
    "node_id": "MDEyOklzc3VlQ29tbWVudDUyNDc3ODgxNQ==",
    "user": {
      "login": "hebasto",
      "id": 32963518,
      "node_id": "MDQ6VXNlcjMyOTYzNTE4",
      "avatar_url": "https://avatars.githubusercontent.com/u/32963518?v=4",
      "gravatar_id": "",
      "url": "https://api.github.com/users/hebasto",
      "html_url": "https://github.com/hebasto",
      "followers_url": "https://api.github.com/users/hebasto/followers",
      "following_url": "https://api.github.com/users/hebasto/following{/other_user}",
      "gists_url": "https://api.github.com/users/hebasto/gists{/gist_id}",
      "starred_url": "https://api.github.com/users/hebasto/starred{/owner}{/repo}",
      "subscriptions_url": "https://api.github.com/users/hebasto/subscriptions",
      "organizations_url": "https://api.github.com/users/hebasto/orgs",
      "repos_url": "https://api.github.com/users/hebasto/repos",
      "events_url": "https://api.github.com/users/hebasto/events{/privacy}",
      "received_events_url": "https://api.github.com/users/hebasto/received_events",
      "type": "User",
      "site_admin": false
    },
    "created_at": "2019-08-26T08:51:47Z",
    "updated_at": "2019-08-26T08:51:47Z",
    "author_association": "MEMBER",
    "body_html": "<p dir=\"auto\">All comments have been addressed.</p>",
    "body_text": "All comments have been addressed.",
    "body": "All comments have been addressed.",
    "reactions": {
      "url": "https://api.github.com/repos/bitcoin/bitcoin/issues/comments/524778815/reactions",
      "total_count": 0,
      "+1": 0,
      "-1": 0,
      "laugh": 0,
      "hooray": 0,
      "confused": 0,
      "heart": 0,
      "rocket": 0,
      "eyes": 0
    },
    "performed_via_github_app": null
  },
  {
    "url": "https://api.github.com/repos/bitcoin/bitcoin/issues/comments/524788291",
    "html_url": "https://github.com/bitcoin/bitcoin/pull/16723#issuecomment-524788291",
    "issue_url": "https://api.github.com/repos/bitcoin/bitcoin/issues/16723",
    "id": 524788291,
    "node_id": "MDEyOklzc3VlQ29tbWVudDUyNDc4ODI5MQ==",
    "user": {
      "login": "practicalswift",
      "id": 7826565,
      "node_id": "MDQ6VXNlcjc4MjY1NjU=",
      "avatar_url": "https://avatars.githubusercontent.com/u/7826565?v=4",
      "gravatar_id": "",
      "url": "https://api.github.com/users/practicalswift",
      "html_url": "https://github.com/practicalswift",
      "followers_url": "https://api.github.com/users/practicalswift/followers",
      "following_url": "https://api.github.com/users/practicalswift/following{/other_user}",
      "gists_url": "https://api.github.com/users/practicalswift/gists{/gist_id}",
      "starred_url": "https://api.github.com/users/practicalswift/starred{/owner}{/repo}",
      "subscriptions_url": "https://api.github.com/users/practicalswift/subscriptions",
      "organizations_url": "https://api.github.com/users/practicalswift/orgs",
      "repos_url": "https://api.github.com/users/practicalswift/repos",
      "events_url": "https://api.github.com/users/practicalswift/events{/privacy}",
      "received_events_url": "https://api.github.com/users/practicalswift/received_events",
      "type": "User",
      "site_admin": false
    },
    "created_at": "2019-08-26T09:20:47Z",
    "updated_at": "2019-08-26T09:20:47Z",
    "author_association": "CONTRIBUTOR",
    "body_html": "<p dir=\"auto\">ACK <a class=\"commit-link\" data-hovercard-type=\"commit\" data-hovercard-url=\"https://github.com/bitcoin/bitcoin/commit/a64dbeffe486b2cd247ba160ebce1c0c1c7b9e72/hovercard\" href=\"https://github.com/bitcoin/bitcoin/commit/a64dbeffe486b2cd247ba160ebce1c0c1c7b9e72\"><tt>a64dbef</tt></a></p>",
    "body_text": "ACK a64dbef",
    "body": "ACK a64dbeffe486b2cd247ba160ebce1c0c1c7b9e72",
    "reactions": {
      "url": "https://api.github.com/repos/bitcoin/bitcoin/issues/comments/524788291/reactions",
      "total_count": 0,
      "+1": 0,
      "-1": 0,
      "laugh": 0,
      "hooray": 0,
      "confused": 0,
      "heart": 0,
      "rocket": 0,
      "eyes": 0
    },
    "performed_via_github_app": null
  }
]
