[
  {
    "url": "https://api.github.com/repos/bitcoin/bitcoin/issues/comments/5525882",
    "html_url": "https://github.com/bitcoin/bitcoin/pull/1202#issuecomment-5525882",
    "issue_url": "https://api.github.com/repos/bitcoin/bitcoin/issues/1202",
    "id": 5525882,
    "node_id": "MDEyOklzc3VlQ29tbWVudDU1MjU4ODI=",
    "user": {
      "login": "laanwj",
      "id": 126646,
      "node_id": "MDQ6VXNlcjEyNjY0Ng==",
      "avatar_url": "https://avatars.githubusercontent.com/u/126646?v=4",
      "gravatar_id": "",
      "url": "https://api.github.com/users/laanwj",
      "html_url": "https://github.com/laanwj",
      "followers_url": "https://api.github.com/users/laanwj/followers",
      "following_url": "https://api.github.com/users/laanwj/following{/other_user}",
      "gists_url": "https://api.github.com/users/laanwj/gists{/gist_id}",
      "starred_url": "https://api.github.com/users/laanwj/starred{/owner}{/repo}",
      "subscriptions_url": "https://api.github.com/users/laanwj/subscriptions",
      "organizations_url": "https://api.github.com/users/laanwj/orgs",
      "repos_url": "https://api.github.com/users/laanwj/repos",
      "events_url": "https://api.github.com/users/laanwj/events{/privacy}",
      "received_events_url": "https://api.github.com/users/laanwj/received_events",
      "type": "User",
      "site_admin": false
    },
    "created_at": "2012-05-05T10:00:23Z",
    "updated_at": "2012-05-05T10:00:23Z",
    "author_association": "MEMBER",
    "body_html": "<p dir=\"auto\">Could you change the \"all\" to \"All\" (as it appears that we capitalize all nouns).</p>",
    "body_text": "Could you change the \"all\" to \"All\" (as it appears that we capitalize all nouns).",
    "body": "Could you change the \"all\" to \"All\" (as it appears that we capitalize all nouns).\n",
    "reactions": {
      "url": "https://api.github.com/repos/bitcoin/bitcoin/issues/comments/5525882/reactions",
      "total_count": 0,
      "+1": 0,
      "-1": 0,
      "laugh": 0,
      "hooray": 0,
      "confused": 0,
      "heart": 0,
      "rocket": 0,
      "eyes": 0
    },
    "performed_via_github_app": null
  },
  {
    "url": "https://api.github.com/repos/bitcoin/bitcoin/issues/comments/5525901",
    "html_url": "https://github.com/bitcoin/bitcoin/pull/1202#issuecomment-5525901",
    "issue_url": "https://api.github.com/repos/bitcoin/bitcoin/issues/1202",
    "id": 5525901,
    "node_id": "MDEyOklzc3VlQ29tbWVudDU1MjU5MDE=",
    "user": {
      "login": "Diapolo",
      "id": 1419649,
      "node_id": "MDQ6VXNlcjE0MTk2NDk=",
      "avatar_url": "https://avatars.githubusercontent.com/u/1419649?v=4",
      "gravatar_id": "",
      "url": "https://api.github.com/users/Diapolo",
      "html_url": "https://github.com/Diapolo",
      "followers_url": "https://api.github.com/users/Diapolo/followers",
      "following_url": "https://api.github.com/users/Diapolo/following{/other_user}",
      "gists_url": "https://api.github.com/users/Diapolo/gists{/gist_id}",
      "starred_url": "https://api.github.com/users/Diapolo/starred{/owner}{/repo}",
      "subscriptions_url": "https://api.github.com/users/Diapolo/subscriptions",
      "organizations_url": "https://api.github.com/users/Diapolo/orgs",
      "repos_url": "https://api.github.com/users/Diapolo/repos",
      "events_url": "https://api.github.com/users/Diapolo/events{/privacy}",
      "received_events_url": "https://api.github.com/users/Diapolo/received_events",
      "type": "User",
      "site_admin": false
    },
    "created_at": "2012-05-05T10:04:19Z",
    "updated_at": "2012-05-05T10:04:19Z",
    "author_association": "NONE",
    "body_html": "<p dir=\"auto\">Updated...</p>",
    "body_text": "Updated...",
    "body": "Updated...\n",
    "reactions": {
      "url": "https://api.github.com/repos/bitcoin/bitcoin/issues/comments/5525901/reactions",
      "total_count": 0,
      "+1": 0,
      "-1": 0,
      "laugh": 0,
      "hooray": 0,
      "confused": 0,
      "heart": 0,
      "rocket": 0,
      "eyes": 0
    },
    "performed_via_github_app": null
  }
]
