[
  {
    "url": "https://api.github.com/repos/bitcoin/bitcoin/issues/comments/390410258",
    "html_url": "https://github.com/bitcoin/bitcoin/pull/13280#issuecomment-390410258",
    "issue_url": "https://api.github.com/repos/bitcoin/bitcoin/issues/13280",
    "id": 390410258,
    "node_id": "MDEyOklzc3VlQ29tbWVudDM5MDQxMDI1OA==",
    "user": {
      "login": "GreatSock",
      "id": 39350803,
      "node_id": "MDQ6VXNlcjM5MzUwODAz",
      "avatar_url": "https://avatars.githubusercontent.com/u/39350803?v=4",
      "gravatar_id": "",
      "url": "https://api.github.com/users/GreatSock",
      "html_url": "https://github.com/GreatSock",
      "followers_url": "https://api.github.com/users/GreatSock/followers",
      "following_url": "https://api.github.com/users/GreatSock/following{/other_user}",
      "gists_url": "https://api.github.com/users/GreatSock/gists{/gist_id}",
      "starred_url": "https://api.github.com/users/GreatSock/starred{/owner}{/repo}",
      "subscriptions_url": "https://api.github.com/users/GreatSock/subscriptions",
      "organizations_url": "https://api.github.com/users/GreatSock/orgs",
      "repos_url": "https://api.github.com/users/GreatSock/repos",
      "events_url": "https://api.github.com/users/GreatSock/events{/privacy}",
      "received_events_url": "https://api.github.com/users/GreatSock/received_events",
      "type": "User",
      "site_admin": false
    },
    "created_at": "2018-05-19T14:52:31Z",
    "updated_at": "2018-05-19T15:10:04Z",
    "author_association": "CONTRIBUTOR",
    "body_html": "<p dir=\"auto\">Any idea why the Travis build failed after changing to qBound?</p>\n<p dir=\"auto\">Edit: Nevermind! Seems to have passed now</p>",
    "body_text": "Any idea why the Travis build failed after changing to qBound?\nEdit: Nevermind! Seems to have passed now",
    "body": "Any idea why the Travis build failed after changing to qBound?\r\n\r\nEdit: Nevermind! Seems to have passed now",
    "reactions": {
      "url": "https://api.github.com/repos/bitcoin/bitcoin/issues/comments/390410258/reactions",
      "total_count": 0,
      "+1": 0,
      "-1": 0,
      "laugh": 0,
      "hooray": 0,
      "confused": 0,
      "heart": 0,
      "rocket": 0,
      "eyes": 0
    },
    "performed_via_github_app": null
  },
  {
    "url": "https://api.github.com/repos/bitcoin/bitcoin/issues/comments/391984376",
    "html_url": "https://github.com/bitcoin/bitcoin/pull/13280#issuecomment-391984376",
    "issue_url": "https://api.github.com/repos/bitcoin/bitcoin/issues/13280",
    "id": 391984376,
    "node_id": "MDEyOklzc3VlQ29tbWVudDM5MTk4NDM3Ng==",
    "user": {
      "login": "jonasschnelli",
      "id": 178464,
      "node_id": "MDQ6VXNlcjE3ODQ2NA==",
      "avatar_url": "https://avatars.githubusercontent.com/u/178464?v=4",
      "gravatar_id": "",
      "url": "https://api.github.com/users/jonasschnelli",
      "html_url": "https://github.com/jonasschnelli",
      "followers_url": "https://api.github.com/users/jonasschnelli/followers",
      "following_url": "https://api.github.com/users/jonasschnelli/following{/other_user}",
      "gists_url": "https://api.github.com/users/jonasschnelli/gists{/gist_id}",
      "starred_url": "https://api.github.com/users/jonasschnelli/starred{/owner}{/repo}",
      "subscriptions_url": "https://api.github.com/users/jonasschnelli/subscriptions",
      "organizations_url": "https://api.github.com/users/jonasschnelli/orgs",
      "repos_url": "https://api.github.com/users/jonasschnelli/repos",
      "events_url": "https://api.github.com/users/jonasschnelli/events{/privacy}",
      "received_events_url": "https://api.github.com/users/jonasschnelli/received_events",
      "type": "User",
      "site_admin": false
    },
    "created_at": "2018-05-25T08:41:31Z",
    "updated_at": "2018-05-25T08:41:31Z",
    "author_association": "CONTRIBUTOR",
    "body_html": "<p dir=\"auto\">Concept ACK</p>",
    "body_text": "Concept ACK",
    "body": "Concept ACK",
    "reactions": {
      "url": "https://api.github.com/repos/bitcoin/bitcoin/issues/comments/391984376/reactions",
      "total_count": 0,
      "+1": 0,
      "-1": 0,
      "laugh": 0,
      "hooray": 0,
      "confused": 0,
      "heart": 0,
      "rocket": 0,
      "eyes": 0
    },
    "performed_via_github_app": null
  },
  {
    "url": "https://api.github.com/repos/bitcoin/bitcoin/issues/comments/394034436",
    "html_url": "https://github.com/bitcoin/bitcoin/pull/13280#issuecomment-394034436",
    "issue_url": "https://api.github.com/repos/bitcoin/bitcoin/issues/13280",
    "id": 394034436,
    "node_id": "MDEyOklzc3VlQ29tbWVudDM5NDAzNDQzNg==",
    "user": {
      "login": "promag",
      "id": 3534524,
      "node_id": "MDQ6VXNlcjM1MzQ1MjQ=",
      "avatar_url": "https://avatars.githubusercontent.com/u/3534524?v=4",
      "gravatar_id": "",
      "url": "https://api.github.com/users/promag",
      "html_url": "https://github.com/promag",
      "followers_url": "https://api.github.com/users/promag/followers",
      "following_url": "https://api.github.com/users/promag/following{/other_user}",
      "gists_url": "https://api.github.com/users/promag/gists{/gist_id}",
      "starred_url": "https://api.github.com/users/promag/starred{/owner}{/repo}",
      "subscriptions_url": "https://api.github.com/users/promag/subscriptions",
      "organizations_url": "https://api.github.com/users/promag/orgs",
      "repos_url": "https://api.github.com/users/promag/repos",
      "events_url": "https://api.github.com/users/promag/events{/privacy}",
      "received_events_url": "https://api.github.com/users/promag/received_events",
      "type": "User",
      "site_admin": false
    },
    "created_at": "2018-06-01T23:26:41Z",
    "updated_at": "2018-06-01T23:26:41Z",
    "author_association": "MEMBER",
    "body_html": "<p dir=\"auto\">It would be nice to see a previous screenshot. I forgot to test this 🙄</p>",
    "body_text": "It would be nice to see a previous screenshot. I forgot to test this 🙄",
    "body": "It would be nice to see a previous screenshot. I forgot to test this 🙄",
    "reactions": {
      "url": "https://api.github.com/repos/bitcoin/bitcoin/issues/comments/394034436/reactions",
      "total_count": 0,
      "+1": 0,
      "-1": 0,
      "laugh": 0,
      "hooray": 0,
      "confused": 0,
      "heart": 0,
      "rocket": 0,
      "eyes": 0
    },
    "performed_via_github_app": null
  },
  {
    "url": "https://api.github.com/repos/bitcoin/bitcoin/issues/comments/406906672",
    "html_url": "https://github.com/bitcoin/bitcoin/pull/13280#issuecomment-406906672",
    "issue_url": "https://api.github.com/repos/bitcoin/bitcoin/issues/13280",
    "id": 406906672,
    "node_id": "MDEyOklzc3VlQ29tbWVudDQwNjkwNjY3Mg==",
    "user": {
      "login": "DrahtBot",
      "id": 39886733,
      "node_id": "MDQ6VXNlcjM5ODg2NzMz",
      "avatar_url": "https://avatars.githubusercontent.com/u/39886733?v=4",
      "gravatar_id": "",
      "url": "https://api.github.com/users/DrahtBot",
      "html_url": "https://github.com/DrahtBot",
      "followers_url": "https://api.github.com/users/DrahtBot/followers",
      "following_url": "https://api.github.com/users/DrahtBot/following{/other_user}",
      "gists_url": "https://api.github.com/users/DrahtBot/gists{/gist_id}",
      "starred_url": "https://api.github.com/users/DrahtBot/starred{/owner}{/repo}",
      "subscriptions_url": "https://api.github.com/users/DrahtBot/subscriptions",
      "organizations_url": "https://api.github.com/users/DrahtBot/orgs",
      "repos_url": "https://api.github.com/users/DrahtBot/repos",
      "events_url": "https://api.github.com/users/DrahtBot/events{/privacy}",
      "received_events_url": "https://api.github.com/users/DrahtBot/received_events",
      "type": "User",
      "site_admin": false
    },
    "created_at": "2018-07-22T23:49:02Z",
    "updated_at": "2018-07-22T23:49:02Z",
    "author_association": "CONTRIBUTOR",
    "body_html": "The last travis run for this pull request was 64 days ago and is thus outdated. To trigger a fresh travis build, this pull request should be closed and re-opened.",
    "body_text": "The last travis run for this pull request was 64 days ago and is thus outdated. To trigger a fresh travis build, this pull request should be closed and re-opened.",
    "body": "<!--5d09a71f8925f3f132321140b44b946d-->The last travis run for this pull request was 64 days ago and is thus outdated. To trigger a fresh travis build, this pull request should be closed and re-opened.",
    "reactions": {
      "url": "https://api.github.com/repos/bitcoin/bitcoin/issues/comments/406906672/reactions",
      "total_count": 0,
      "+1": 0,
      "-1": 0,
      "laugh": 0,
      "hooray": 0,
      "confused": 0,
      "heart": 0,
      "rocket": 0,
      "eyes": 0
    },
    "performed_via_github_app": null
  },
  {
    "url": "https://api.github.com/repos/bitcoin/bitcoin/issues/comments/408687769",
    "html_url": "https://github.com/bitcoin/bitcoin/pull/13280#issuecomment-408687769",
    "issue_url": "https://api.github.com/repos/bitcoin/bitcoin/issues/13280",
    "id": 408687769,
    "node_id": "MDEyOklzc3VlQ29tbWVudDQwODY4Nzc2OQ==",
    "user": {
      "login": "maflcko",
      "id": 6399679,
      "node_id": "MDQ6VXNlcjYzOTk2Nzk=",
      "avatar_url": "https://avatars.githubusercontent.com/u/6399679?v=4",
      "gravatar_id": "",
      "url": "https://api.github.com/users/maflcko",
      "html_url": "https://github.com/maflcko",
      "followers_url": "https://api.github.com/users/maflcko/followers",
      "following_url": "https://api.github.com/users/maflcko/following{/other_user}",
      "gists_url": "https://api.github.com/users/maflcko/gists{/gist_id}",
      "starred_url": "https://api.github.com/users/maflcko/starred{/owner}{/repo}",
      "subscriptions_url": "https://api.github.com/users/maflcko/subscriptions",
      "organizations_url": "https://api.github.com/users/maflcko/orgs",
      "repos_url": "https://api.github.com/users/maflcko/repos",
      "events_url": "https://api.github.com/users/maflcko/events{/privacy}",
      "received_events_url": "https://api.github.com/users/maflcko/received_events",
      "type": "User",
      "site_admin": false
    },
    "created_at": "2018-07-29T16:07:26Z",
    "updated_at": "2018-07-29T16:07:26Z",
    "author_association": "MEMBER",
    "body_html": "<p dir=\"auto\"><a class=\"user-mention notranslate\" data-hovercard-type=\"user\" data-hovercard-url=\"/users/GreatSock/hovercard\" data-octo-click=\"hovercard-link-click\" data-octo-dimensions=\"link_type:self\" href=\"https://github.com/GreatSock\">@GreatSock</a> Are you still working on this?</p>",
    "body_text": "@GreatSock Are you still working on this?",
    "body": "@GreatSock Are you still working on this?",
    "reactions": {
      "url": "https://api.github.com/repos/bitcoin/bitcoin/issues/comments/408687769/reactions",
      "total_count": 0,
      "+1": 0,
      "-1": 0,
      "laugh": 0,
      "hooray": 0,
      "confused": 0,
      "heart": 0,
      "rocket": 0,
      "eyes": 0
    },
    "performed_via_github_app": null
  },
  {
    "url": "https://api.github.com/repos/bitcoin/bitcoin/issues/comments/414630040",
    "html_url": "https://github.com/bitcoin/bitcoin/pull/13280#issuecomment-414630040",
    "issue_url": "https://api.github.com/repos/bitcoin/bitcoin/issues/13280",
    "id": 414630040,
    "node_id": "MDEyOklzc3VlQ29tbWVudDQxNDYzMDA0MA==",
    "user": {
      "login": "DrahtBot",
      "id": 39886733,
      "node_id": "MDQ6VXNlcjM5ODg2NzMz",
      "avatar_url": "https://avatars.githubusercontent.com/u/39886733?v=4",
      "gravatar_id": "",
      "url": "https://api.github.com/users/DrahtBot",
      "html_url": "https://github.com/DrahtBot",
      "followers_url": "https://api.github.com/users/DrahtBot/followers",
      "following_url": "https://api.github.com/users/DrahtBot/following{/other_user}",
      "gists_url": "https://api.github.com/users/DrahtBot/gists{/gist_id}",
      "starred_url": "https://api.github.com/users/DrahtBot/starred{/owner}{/repo}",
      "subscriptions_url": "https://api.github.com/users/DrahtBot/subscriptions",
      "organizations_url": "https://api.github.com/users/DrahtBot/orgs",
      "repos_url": "https://api.github.com/users/DrahtBot/repos",
      "events_url": "https://api.github.com/users/DrahtBot/events{/privacy}",
      "received_events_url": "https://api.github.com/users/DrahtBot/received_events",
      "type": "User",
      "site_admin": false
    },
    "created_at": "2018-08-21T10:36:11Z",
    "updated_at": "2018-08-21T10:36:11Z",
    "author_association": "CONTRIBUTOR",
    "body_html": "Needs rebase",
    "body_text": "Needs rebase",
    "body": "<!--cf906140f33d8803c4a75a2196329ecb-->Needs rebase",
    "reactions": {
      "url": "https://api.github.com/repos/bitcoin/bitcoin/issues/comments/414630040/reactions",
      "total_count": 0,
      "+1": 0,
      "-1": 0,
      "laugh": 0,
      "hooray": 0,
      "confused": 0,
      "heart": 0,
      "rocket": 0,
      "eyes": 0
    },
    "performed_via_github_app": null
  },
  {
    "url": "https://api.github.com/repos/bitcoin/bitcoin/issues/comments/419550733",
    "html_url": "https://github.com/bitcoin/bitcoin/pull/13280#issuecomment-419550733",
    "issue_url": "https://api.github.com/repos/bitcoin/bitcoin/issues/13280",
    "id": 419550733,
    "node_id": "MDEyOklzc3VlQ29tbWVudDQxOTU1MDczMw==",
    "user": {
      "login": "Sjors",
      "id": 10217,
      "node_id": "MDQ6VXNlcjEwMjE3",
      "avatar_url": "https://avatars.githubusercontent.com/u/10217?v=4",
      "gravatar_id": "",
      "url": "https://api.github.com/users/Sjors",
      "html_url": "https://github.com/Sjors",
      "followers_url": "https://api.github.com/users/Sjors/followers",
      "following_url": "https://api.github.com/users/Sjors/following{/other_user}",
      "gists_url": "https://api.github.com/users/Sjors/gists{/gist_id}",
      "starred_url": "https://api.github.com/users/Sjors/starred{/owner}{/repo}",
      "subscriptions_url": "https://api.github.com/users/Sjors/subscriptions",
      "organizations_url": "https://api.github.com/users/Sjors/orgs",
      "repos_url": "https://api.github.com/users/Sjors/repos",
      "events_url": "https://api.github.com/users/Sjors/events{/privacy}",
      "received_events_url": "https://api.github.com/users/Sjors/received_events",
      "type": "User",
      "site_admin": false
    },
    "created_at": "2018-09-07T20:02:27Z",
    "updated_at": "2018-09-07T20:02:27Z",
    "author_association": "MEMBER",
    "body_html": "<p dir=\"auto\">Concept ACK, less UI clutter is great, and it gets rid of a duplicate tooltip.</p>\n<p dir=\"auto\">Also thanks for switching to <code class=\"notranslate\">qBound</code>.</p>\n<p dir=\"auto\">To clarify the minimum fee a bit, as well as make way for a potential future decrease, maybe change the tooltip from:</p>\n<blockquote>\n<p dir=\"auto\">Paying only the minimum fee is just fine as long as there is less transaction volume than space in the blocks. But be aware that this can end up in a never confirming transaction once there is more demand for bitcoin transactions than the network can process.</p>\n</blockquote>\n<p dir=\"auto\">To:</p>\n<blockquote>\n<p dir=\"auto\">When there is less transaction volume than space in the blocks, miners as well as relaying nodes may enforce a minimum fee. Paying only this minimum fee is just fine, but be aware that this can result in a never confirming transaction once there is more demand for bitcoin transactions than the network can process.</p>\n</blockquote>\n<p dir=\"auto\">Removing the checkbox breaks horizontal alignment. The text needs be aligned with \"Confirmation time target\":</p>\n<p dir=\"auto\"><a target=\"_blank\" rel=\"noopener noreferrer nofollow\" href=\"https://user-images.githubusercontent.com/10217/45240646-acbd2080-b2e9-11e8-8af7-b85c4ad10f9f.png\"><img width=\"641\" alt=\"schermafbeelding 2018-09-07 om 21 58 00\" src=\"https://user-images.githubusercontent.com/10217/45240646-acbd2080-b2e9-11e8-8af7-b85c4ad10f9f.png\" style=\"max-width: 100%;\"></a></p>\n<p dir=\"auto\"><a class=\"user-mention notranslate\" data-hovercard-type=\"user\" data-hovercard-url=\"/users/GreatSock/hovercard\" data-octo-click=\"hovercard-link-click\" data-octo-dimensions=\"link_type:self\" href=\"https://github.com/GreatSock\">@GreatSock</a> if you don't have time for this in the next month or so, I can take it over.</p>",
    "body_text": "Concept ACK, less UI clutter is great, and it gets rid of a duplicate tooltip.\nAlso thanks for switching to qBound.\nTo clarify the minimum fee a bit, as well as make way for a potential future decrease, maybe change the tooltip from:\n\nPaying only the minimum fee is just fine as long as there is less transaction volume than space in the blocks. But be aware that this can end up in a never confirming transaction once there is more demand for bitcoin transactions than the network can process.\n\nTo:\n\nWhen there is less transaction volume than space in the blocks, miners as well as relaying nodes may enforce a minimum fee. Paying only this minimum fee is just fine, but be aware that this can result in a never confirming transaction once there is more demand for bitcoin transactions than the network can process.\n\nRemoving the checkbox breaks horizontal alignment. The text needs be aligned with \"Confirmation time target\":\n\n@GreatSock if you don't have time for this in the next month or so, I can take it over.",
    "body": "Concept ACK, less UI clutter is great, and it gets rid of a duplicate tooltip.\r\n\r\nAlso thanks for switching to `qBound`.\r\n\r\nTo clarify the minimum fee a bit, as well as make way for a potential future decrease, maybe change the tooltip from:\r\n\r\n> Paying only the minimum fee is just fine as long as there is less transaction volume than space in the blocks. But be aware that this can end up in a never confirming transaction once there is more demand for bitcoin transactions than the network can process.\r\n\r\nTo:\r\n> When there is less transaction volume than space in the blocks, miners as well as relaying nodes may enforce a minimum fee. Paying only this minimum fee is just fine, but be aware that this can result in a never confirming transaction once there is more demand for bitcoin transactions than the network can process.\r\n\r\nRemoving the checkbox breaks horizontal alignment. The text needs be aligned with \"Confirmation time target\":\r\n\r\n<img width=\"641\" alt=\"schermafbeelding 2018-09-07 om 21 58 00\" src=\"https://user-images.githubusercontent.com/10217/45240646-acbd2080-b2e9-11e8-8af7-b85c4ad10f9f.png\">\r\n\r\n\r\n@GreatSock if you don't have time for this in the next month or so, I can take it over.",
    "reactions": {
      "url": "https://api.github.com/repos/bitcoin/bitcoin/issues/comments/419550733/reactions",
      "total_count": 0,
      "+1": 0,
      "-1": 0,
      "laugh": 0,
      "hooray": 0,
      "confused": 0,
      "heart": 0,
      "rocket": 0,
      "eyes": 0
    },
    "performed_via_github_app": null
  },
  {
    "url": "https://api.github.com/repos/bitcoin/bitcoin/issues/comments/434215828",
    "html_url": "https://github.com/bitcoin/bitcoin/pull/13280#issuecomment-434215828",
    "issue_url": "https://api.github.com/repos/bitcoin/bitcoin/issues/13280",
    "id": 434215828,
    "node_id": "MDEyOklzc3VlQ29tbWVudDQzNDIxNTgyOA==",
    "user": {
      "login": "Sjors",
      "id": 10217,
      "node_id": "MDQ6VXNlcjEwMjE3",
      "avatar_url": "https://avatars.githubusercontent.com/u/10217?v=4",
      "gravatar_id": "",
      "url": "https://api.github.com/users/Sjors",
      "html_url": "https://github.com/Sjors",
      "followers_url": "https://api.github.com/users/Sjors/followers",
      "following_url": "https://api.github.com/users/Sjors/following{/other_user}",
      "gists_url": "https://api.github.com/users/Sjors/gists{/gist_id}",
      "starred_url": "https://api.github.com/users/Sjors/starred{/owner}{/repo}",
      "subscriptions_url": "https://api.github.com/users/Sjors/subscriptions",
      "organizations_url": "https://api.github.com/users/Sjors/orgs",
      "repos_url": "https://api.github.com/users/Sjors/repos",
      "events_url": "https://api.github.com/users/Sjors/events{/privacy}",
      "received_events_url": "https://api.github.com/users/Sjors/received_events",
      "type": "User",
      "site_admin": false
    },
    "created_at": "2018-10-30T08:40:47Z",
    "updated_at": "2018-10-30T08:40:47Z",
    "author_association": "MEMBER",
    "body_html": "<p dir=\"auto\"><a class=\"user-mention notranslate\" data-hovercard-type=\"user\" data-hovercard-url=\"/users/hebasto/hovercard\" data-octo-click=\"hovercard-link-click\" data-octo-dimensions=\"link_type:self\" href=\"https://github.com/hebasto\">@hebasto</a> said on IRC:</p>\n<blockquote>\n<p dir=\"auto\">provoostenator: hi! have you took <a class=\"issue-link js-issue-link\" data-error-text=\"Failed to load title\" data-id=\"324631751\" data-permission-text=\"Title is private\" data-url=\"https://github.com/bitcoin/bitcoin/issues/13280\" data-hovercard-type=\"pull_request\" data-hovercard-url=\"/bitcoin/bitcoin/pull/13280/hovercard\" href=\"https://github.com/bitcoin/bitcoin/pull/13280\">#13280</a> over or it is still up for grabs?</p>\n</blockquote>\n<p dir=\"auto\">Not yet, feel free to and I can review it.</p>",
    "body_text": "@hebasto said on IRC:\n\nprovoostenator: hi! have you took #13280 over or it is still up for grabs?\n\nNot yet, feel free to and I can review it.",
    "body": "@hebasto said on IRC:\r\n\r\n> provoostenator: hi! have you took #13280 over or it is still up for grabs?\r\n\r\nNot yet, feel free to and I can review it.",
    "reactions": {
      "url": "https://api.github.com/repos/bitcoin/bitcoin/issues/comments/434215828/reactions",
      "total_count": 0,
      "+1": 0,
      "-1": 0,
      "laugh": 0,
      "hooray": 0,
      "confused": 0,
      "heart": 0,
      "rocket": 0,
      "eyes": 0
    },
    "performed_via_github_app": null
  },
  {
    "url": "https://api.github.com/repos/bitcoin/bitcoin/issues/comments/434228464",
    "html_url": "https://github.com/bitcoin/bitcoin/pull/13280#issuecomment-434228464",
    "issue_url": "https://api.github.com/repos/bitcoin/bitcoin/issues/13280",
    "id": 434228464,
    "node_id": "MDEyOklzc3VlQ29tbWVudDQzNDIyODQ2NA==",
    "user": {
      "login": "fanquake",
      "id": 863730,
      "node_id": "MDQ6VXNlcjg2MzczMA==",
      "avatar_url": "https://avatars.githubusercontent.com/u/863730?v=4",
      "gravatar_id": "",
      "url": "https://api.github.com/users/fanquake",
      "html_url": "https://github.com/fanquake",
      "followers_url": "https://api.github.com/users/fanquake/followers",
      "following_url": "https://api.github.com/users/fanquake/following{/other_user}",
      "gists_url": "https://api.github.com/users/fanquake/gists{/gist_id}",
      "starred_url": "https://api.github.com/users/fanquake/starred{/owner}{/repo}",
      "subscriptions_url": "https://api.github.com/users/fanquake/subscriptions",
      "organizations_url": "https://api.github.com/users/fanquake/orgs",
      "repos_url": "https://api.github.com/users/fanquake/repos",
      "events_url": "https://api.github.com/users/fanquake/events{/privacy}",
      "received_events_url": "https://api.github.com/users/fanquake/received_events",
      "type": "User",
      "site_admin": false
    },
    "created_at": "2018-10-30T09:25:02Z",
    "updated_at": "2018-10-30T09:25:02Z",
    "author_association": "MEMBER",
    "body_html": "<p dir=\"auto\">I'll close this then. hebasto can cherry-pick and open a new PR when ready.</p>",
    "body_text": "I'll close this then. hebasto can cherry-pick and open a new PR when ready.",
    "body": "I'll close this then. hebasto can cherry-pick and open a new PR when ready.",
    "reactions": {
      "url": "https://api.github.com/repos/bitcoin/bitcoin/issues/comments/434228464/reactions",
      "total_count": 1,
      "+1": 1,
      "-1": 0,
      "laugh": 0,
      "hooray": 0,
      "confused": 0,
      "heart": 0,
      "rocket": 0,
      "eyes": 0
    },
    "performed_via_github_app": null
  }
]
