{
  "url": "https://api.github.com/repos/bitcoin/bitcoin/issues/12439",
  "repository_url": "https://api.github.com/repos/bitcoin/bitcoin",
  "labels_url": "https://api.github.com/repos/bitcoin/bitcoin/issues/12439/labels{/name}",
  "comments_url": "https://api.github.com/repos/bitcoin/bitcoin/issues/12439/comments",
  "events_url": "https://api.github.com/repos/bitcoin/bitcoin/issues/12439/events",
  "html_url": "https://github.com/bitcoin/bitcoin/issues/12439",
  "id": 297317096,
  "node_id": "MDU6SXNzdWUyOTczMTcwOTY=",
  "number": 12439,
  "title": "Json value converting error of NetworkHashps ",
  "user": {
    "login": "jeong760",
    "id": 18043565,
    "node_id": "MDQ6VXNlcjE4MDQzNTY1",
    "avatar_url": "https://avatars.githubusercontent.com/u/18043565?v=4",
    "gravatar_id": "",
    "url": "https://api.github.com/users/jeong760",
    "html_url": "https://github.com/jeong760",
    "followers_url": "https://api.github.com/users/jeong760/followers",
    "following_url": "https://api.github.com/users/jeong760/following{/other_user}",
    "gists_url": "https://api.github.com/users/jeong760/gists{/gist_id}",
    "starred_url": "https://api.github.com/users/jeong760/starred{/owner}{/repo}",
    "subscriptions_url": "https://api.github.com/users/jeong760/subscriptions",
    "organizations_url": "https://api.github.com/users/jeong760/orgs",
    "repos_url": "https://api.github.com/users/jeong760/repos",
    "events_url": "https://api.github.com/users/jeong760/events{/privacy}",
    "received_events_url": "https://api.github.com/users/jeong760/received_events",
    "type": "User",
    "site_admin": false
  },
  "labels": [

  ],
  "state": "closed",
  "locked": true,
  "assignee": null,
  "assignees": [

  ],
  "milestone": null,
  "comments": 3,
  "created_at": "2018-02-15T03:08:16Z",
  "updated_at": "2021-09-08T12:44:02Z",
  "closed_at": "2018-02-15T05:35:34Z",
  "author_association": "NONE",
  "active_lock_reason": "resolved",
  "body_html": "<p dir=\"auto\">I have a problem to get a NetworkHashps using JSON request after upgrade of 15.01 bitcoin core. so cannot make a mining pool for bitcoin using CoiniumServ..</p>\n<p dir=\"auto\"><strong>The issues are</strong><br>\nNancy.TinyIoc.TinyIoCResolutionException: Unable to resolve type: CoiniumServ.Pools.INetworkInfo ---&gt; Nancy.TinyIoc.TinyIoCResolutionException: Unable to resolve type: CoiniumServ.Pools.NetworkInfo ---&gt; System.Exception: <strong>There was a problem deserializing the response from the coin wallet</strong>.<br>\n---&gt; Newtonsoft.Json.JsonSerializationException: <strong>Error converting value 1.98121075128195E+19 to type 'System.UInt64'</strong>. Path 'result.networkhashps', line 1, position 158. ---&gt; System.OverflowException: Arithmetic operation resulted in an overflow.</p>\n<p dir=\"auto\">So I want to know where should I changed to prevent this error.</p>\n<p dir=\"auto\">Regards,<br>\nJohn Ahn</p>",
  "body_text": "I have a problem to get a NetworkHashps using JSON request after upgrade of 15.01 bitcoin core. so cannot make a mining pool for bitcoin using CoiniumServ..\nThe issues are\nNancy.TinyIoc.TinyIoCResolutionException: Unable to resolve type: CoiniumServ.Pools.INetworkInfo ---> Nancy.TinyIoc.TinyIoCResolutionException: Unable to resolve type: CoiniumServ.Pools.NetworkInfo ---> System.Exception: There was a problem deserializing the response from the coin wallet.\n---> Newtonsoft.Json.JsonSerializationException: Error converting value 1.98121075128195E+19 to type 'System.UInt64'. Path 'result.networkhashps', line 1, position 158. ---> System.OverflowException: Arithmetic operation resulted in an overflow.\nSo I want to know where should I changed to prevent this error.\nRegards,\nJohn Ahn",
  "body": "I have a problem to get a NetworkHashps using JSON request after upgrade of 15.01 bitcoin core. so cannot make a mining pool for bitcoin using CoiniumServ.. \r\n\r\n**The issues are** \r\nNancy.TinyIoc.TinyIoCResolutionException: Unable to resolve type: CoiniumServ.Pools.INetworkInfo ---> Nancy.TinyIoc.TinyIoCResolutionException: Unable to resolve type: CoiniumServ.Pools.NetworkInfo ---> System.Exception: **There was a problem deserializing the response from the coin wallet**. \r\n---> Newtonsoft.Json.JsonSerializationException: **Error converting value 1.98121075128195E+19 to type 'System.UInt64'**. Path 'result.networkhashps', line 1, position 158. ---> System.OverflowException: Arithmetic operation resulted in an overflow.\r\n\r\nSo I want to know where should I changed to prevent this error.\r\n\r\nRegards,\r\nJohn Ahn\r\n",
  "closed_by": {
    "login": "sipa",
    "id": 548488,
    "node_id": "MDQ6VXNlcjU0ODQ4OA==",
    "avatar_url": "https://avatars.githubusercontent.com/u/548488?v=4",
    "gravatar_id": "",
    "url": "https://api.github.com/users/sipa",
    "html_url": "https://github.com/sipa",
    "followers_url": "https://api.github.com/users/sipa/followers",
    "following_url": "https://api.github.com/users/sipa/following{/other_user}",
    "gists_url": "https://api.github.com/users/sipa/gists{/gist_id}",
    "starred_url": "https://api.github.com/users/sipa/starred{/owner}{/repo}",
    "subscriptions_url": "https://api.github.com/users/sipa/subscriptions",
    "organizations_url": "https://api.github.com/users/sipa/orgs",
    "repos_url": "https://api.github.com/users/sipa/repos",
    "events_url": "https://api.github.com/users/sipa/events{/privacy}",
    "received_events_url": "https://api.github.com/users/sipa/received_events",
    "type": "User",
    "site_admin": false
  },
  "reactions": {
    "url": "https://api.github.com/repos/bitcoin/bitcoin/issues/12439/reactions",
    "total_count": 0,
    "+1": 0,
    "-1": 0,
    "laugh": 0,
    "hooray": 0,
    "confused": 0,
    "heart": 0,
    "rocket": 0,
    "eyes": 0
  },
  "timeline_url": "https://api.github.com/repos/bitcoin/bitcoin/issues/12439/timeline",
  "performed_via_github_app": null,
  "state_reason": "completed"
}
