{
  "url": "https://api.github.com/repos/bitcoin/bitcoin/issues/4069",
  "repository_url": "https://api.github.com/repos/bitcoin/bitcoin",
  "labels_url": "https://api.github.com/repos/bitcoin/bitcoin/issues/4069/labels{/name}",
  "comments_url": "https://api.github.com/repos/bitcoin/bitcoin/issues/4069/comments",
  "events_url": "https://api.github.com/repos/bitcoin/bitcoin/issues/4069/events",
  "html_url": "https://github.com/bitcoin/bitcoin/issues/4069",
  "id": 31837157,
  "node_id": "MDU6SXNzdWUzMTgzNzE1Nw==",
  "number": 4069,
  "title": "SAV reported bitcoind infected w Silly.218, crashed bitcoind (likely false positive)",
  "user": {
    "login": "ghost",
    "id": 10137,
    "node_id": "MDQ6VXNlcjEwMTM3",
    "avatar_url": "https://avatars.githubusercontent.com/u/10137?v=4",
    "gravatar_id": "",
    "url": "https://api.github.com/users/ghost",
    "html_url": "https://github.com/ghost",
    "followers_url": "https://api.github.com/users/ghost/followers",
    "following_url": "https://api.github.com/users/ghost/following{/other_user}",
    "gists_url": "https://api.github.com/users/ghost/gists{/gist_id}",
    "starred_url": "https://api.github.com/users/ghost/starred{/owner}{/repo}",
    "subscriptions_url": "https://api.github.com/users/ghost/subscriptions",
    "organizations_url": "https://api.github.com/users/ghost/orgs",
    "repos_url": "https://api.github.com/users/ghost/repos",
    "events_url": "https://api.github.com/users/ghost/events{/privacy}",
    "received_events_url": "https://api.github.com/users/ghost/received_events",
    "type": "User",
    "site_admin": false
  },
  "labels": [
    {
      "id": 234877,
      "node_id": "MDU6TGFiZWwyMzQ4Nzc=",
      "url": "https://api.github.com/repos/bitcoin/bitcoin/labels/Windows",
      "name": "Windows",
      "color": "884400",
      "default": false,
      "description": null
    }
  ],
  "state": "closed",
  "locked": true,
  "assignee": null,
  "assignees": [

  ],
  "milestone": null,
  "comments": 87,
  "created_at": "2014-04-19T04:00:43Z",
  "updated_at": "2021-09-08T12:34:10Z",
  "closed_at": "2015-10-06T15:54:24Z",
  "author_association": "NONE",
  "active_lock_reason": "resolved",
  "body_html": "<p dir=\"auto\">OS: Win 7 x64<br>\nBitcoin core: 0.9.1</p>\n<p dir=\"auto\">While running bitcoind.exe --reindex:</p>\n<p dir=\"auto\"><code class=\"notranslate\">c:\\Program Files\\Bitcoin\\daemon&gt;bitcoind.exe --reindex</code><br>\n<code class=\"notranslate\">Error: System error: Database I/O error</code></p>\n<p dir=\"auto\">Symantec Anti Virus detected Silly.218 in <code class=\"notranslate\">chainstate\\052878.sst</code> directory (other names under which the malware is known: Virus.DOS.Dutch_Tiny.163.a (Kaspersky), Silly.218 (Symantec), Tiny-Family <a class=\"issue-link js-issue-link\" data-error-text=\"Failed to load title\" data-id=\"482905\" data-permission-text=\"Title is private\" data-url=\"https://github.com/bitcoin/bitcoin/issues/3\" data-hovercard-type=\"issue\" data-hovercard-url=\"/bitcoin/bitcoin/issues/3/hovercard\" href=\"https://github.com/bitcoin/bitcoin/issues/3\">#3</a> (Avira)). Hash of the pattern detected: <code class=\"notranslate\">E272F4FF4AD99D1C48C4888990893FC6193DB1CB9849C69B1710069BBD047E0D</code></p>\n<p dir=\"auto\">As the file was automatically quarantined and deleted (I can't change SAV default settings), that crashed bitcoind and corrupted the bitcoin DB.</p>\n<p dir=\"auto\">Internet search on this yielded no results. This looks like a false positive.</p>",
  "body_text": "OS: Win 7 x64\nBitcoin core: 0.9.1\nWhile running bitcoind.exe --reindex:\nc:\\Program Files\\Bitcoin\\daemon>bitcoind.exe --reindex\nError: System error: Database I/O error\nSymantec Anti Virus detected Silly.218 in chainstate\\052878.sst directory (other names under which the malware is known: Virus.DOS.Dutch_Tiny.163.a (Kaspersky), Silly.218 (Symantec), Tiny-Family #3 (Avira)). Hash of the pattern detected: E272F4FF4AD99D1C48C4888990893FC6193DB1CB9849C69B1710069BBD047E0D\nAs the file was automatically quarantined and deleted (I can't change SAV default settings), that crashed bitcoind and corrupted the bitcoin DB.\nInternet search on this yielded no results. This looks like a false positive.",
  "body": "OS: Win 7 x64\nBitcoin core: 0.9.1\n\nWhile running bitcoind.exe --reindex:\n\n`c:\\Program Files\\Bitcoin\\daemon>bitcoind.exe --reindex`\n`Error: System error: Database I/O error`\n\nSymantec Anti Virus detected Silly.218 in `chainstate\\052878.sst` directory (other names under which the malware is known: Virus.DOS.Dutch_Tiny.163.a (Kaspersky), Silly.218 (Symantec), Tiny-Family #3 (Avira)). Hash of the pattern detected: `E272F4FF4AD99D1C48C4888990893FC6193DB1CB9849C69B1710069BBD047E0D`\n\nAs the file was automatically quarantined and deleted (I can't change SAV default settings), that crashed bitcoind and corrupted the bitcoin DB. \n\nInternet search on this yielded no results. This looks like a false positive.\n",
  "closed_by": {
    "login": "laanwj",
    "id": 126646,
    "node_id": "MDQ6VXNlcjEyNjY0Ng==",
    "avatar_url": "https://avatars.githubusercontent.com/u/126646?v=4",
    "gravatar_id": "",
    "url": "https://api.github.com/users/laanwj",
    "html_url": "https://github.com/laanwj",
    "followers_url": "https://api.github.com/users/laanwj/followers",
    "following_url": "https://api.github.com/users/laanwj/following{/other_user}",
    "gists_url": "https://api.github.com/users/laanwj/gists{/gist_id}",
    "starred_url": "https://api.github.com/users/laanwj/starred{/owner}{/repo}",
    "subscriptions_url": "https://api.github.com/users/laanwj/subscriptions",
    "organizations_url": "https://api.github.com/users/laanwj/orgs",
    "repos_url": "https://api.github.com/users/laanwj/repos",
    "events_url": "https://api.github.com/users/laanwj/events{/privacy}",
    "received_events_url": "https://api.github.com/users/laanwj/received_events",
    "type": "User",
    "site_admin": false
  },
  "reactions": {
    "url": "https://api.github.com/repos/bitcoin/bitcoin/issues/4069/reactions",
    "total_count": 0,
    "+1": 0,
    "-1": 0,
    "laugh": 0,
    "hooray": 0,
    "confused": 0,
    "heart": 0,
    "rocket": 0,
    "eyes": 0
  },
  "timeline_url": "https://api.github.com/repos/bitcoin/bitcoin/issues/4069/timeline",
  "performed_via_github_app": null,
  "state_reason": "completed"
}
