{
  "url": "https://api.github.com/repos/bitcoin/bitcoin/issues/110",
  "repository_url": "https://api.github.com/repos/bitcoin/bitcoin",
  "labels_url": "https://api.github.com/repos/bitcoin/bitcoin/issues/110/labels{/name}",
  "comments_url": "https://api.github.com/repos/bitcoin/bitcoin/issues/110/comments",
  "events_url": "https://api.github.com/repos/bitcoin/bitcoin/issues/110/events",
  "html_url": "https://github.com/bitcoin/bitcoin/pull/110",
  "id": 660151,
  "node_id": "MDExOlB1bGxSZXF1ZXN0ODk1NjA=",
  "number": 110,
  "title": "Log timestamp",
  "user": {
    "login": "TheBlueMatt",
    "id": 649246,
    "node_id": "MDQ6VXNlcjY0OTI0Ng==",
    "avatar_url": "https://avatars.githubusercontent.com/u/649246?v=4",
    "gravatar_id": "",
    "url": "https://api.github.com/users/TheBlueMatt",
    "html_url": "https://github.com/TheBlueMatt",
    "followers_url": "https://api.github.com/users/TheBlueMatt/followers",
    "following_url": "https://api.github.com/users/TheBlueMatt/following{/other_user}",
    "gists_url": "https://api.github.com/users/TheBlueMatt/gists{/gist_id}",
    "starred_url": "https://api.github.com/users/TheBlueMatt/starred{/owner}{/repo}",
    "subscriptions_url": "https://api.github.com/users/TheBlueMatt/subscriptions",
    "organizations_url": "https://api.github.com/users/TheBlueMatt/orgs",
    "repos_url": "https://api.github.com/users/TheBlueMatt/repos",
    "events_url": "https://api.github.com/users/TheBlueMatt/events{/privacy}",
    "received_events_url": "https://api.github.com/users/TheBlueMatt/received_events",
    "type": "User",
    "site_admin": false
  },
  "labels": [

  ],
  "state": "closed",
  "locked": true,
  "assignee": null,
  "assignees": [

  ],
  "milestone": null,
  "comments": 3,
  "created_at": "2011-03-09T20:51:32Z",
  "updated_at": "2021-09-08T09:54:39Z",
  "closed_at": "2011-03-15T14:01:17Z",
  "author_association": "CONTRIBUTOR",
  "active_lock_reason": "resolved",
  "draft": false,
  "pull_request": {
    "url": "https://api.github.com/repos/bitcoin/bitcoin/pulls/110",
    "html_url": "https://github.com/bitcoin/bitcoin/pull/110",
    "diff_url": "https://github.com/bitcoin/bitcoin/pull/110.diff",
    "patch_url": "https://github.com/bitcoin/bitcoin/pull/110.patch",
    "merged_at": "2011-03-15T14:01:17Z"
  },
  "body_html": "<p dir=\"auto\">Add timestamps to debug.log when -logtimestamps is set.<br>\nFollow up to:<br>\n<a class=\"issue-link js-issue-link\" data-error-text=\"Failed to load title\" data-id=\"642478\" data-permission-text=\"Title is private\" data-url=\"https://github.com/bitcoin/bitcoin/issues/91\" data-hovercard-type=\"pull_request\" data-hovercard-url=\"/bitcoin/bitcoin/pull/91/hovercard\" href=\"https://github.com/bitcoin/bitcoin/pull/91\">#91</a></p>",
  "body_text": "Add timestamps to debug.log when -logtimestamps is set.\nFollow up to:\n#91",
  "body": "Add timestamps to debug.log when -logtimestamps is set.\nFollow up to: \nhttps://github.com/bitcoin/bitcoin/pull/91\n",
  "closed_by": null,
  "reactions": {
    "url": "https://api.github.com/repos/bitcoin/bitcoin/issues/110/reactions",
    "total_count": 0,
    "+1": 0,
    "-1": 0,
    "laugh": 0,
    "hooray": 0,
    "confused": 0,
    "heart": 0,
    "rocket": 0,
    "eyes": 0
  },
  "timeline_url": "https://api.github.com/repos/bitcoin/bitcoin/issues/110/timeline",
  "performed_via_github_app": null,
  "state_reason": null
}
