{
  "url": "https://api.github.com/repos/bitcoin/bitcoin/issues/10273",
  "repository_url": "https://api.github.com/repos/bitcoin/bitcoin",
  "labels_url": "https://api.github.com/repos/bitcoin/bitcoin/issues/10273/labels{/name}",
  "comments_url": "https://api.github.com/repos/bitcoin/bitcoin/issues/10273/comments",
  "events_url": "https://api.github.com/repos/bitcoin/bitcoin/issues/10273/events",
  "html_url": "https://github.com/bitcoin/bitcoin/pull/10273",
  "id": 224057841,
  "node_id": "MDExOlB1bGxSZXF1ZXN0MTE3NDI3Mzcw",
  "number": 10273,
  "title": "[scripts] Minor improvements to `macdeployqtplus` script.",
  "user": {
    "login": "chrisgavin",
    "id": 5584439,
    "node_id": "MDQ6VXNlcjU1ODQ0Mzk=",
    "avatar_url": "https://avatars.githubusercontent.com/u/5584439?v=4",
    "gravatar_id": "",
    "url": "https://api.github.com/users/chrisgavin",
    "html_url": "https://github.com/chrisgavin",
    "followers_url": "https://api.github.com/users/chrisgavin/followers",
    "following_url": "https://api.github.com/users/chrisgavin/following{/other_user}",
    "gists_url": "https://api.github.com/users/chrisgavin/gists{/gist_id}",
    "starred_url": "https://api.github.com/users/chrisgavin/starred{/owner}{/repo}",
    "subscriptions_url": "https://api.github.com/users/chrisgavin/subscriptions",
    "organizations_url": "https://api.github.com/users/chrisgavin/orgs",
    "repos_url": "https://api.github.com/users/chrisgavin/repos",
    "events_url": "https://api.github.com/users/chrisgavin/events{/privacy}",
    "received_events_url": "https://api.github.com/users/chrisgavin/received_events",
    "type": "User",
    "site_admin": true
  },
  "labels": [
    {
      "id": 234879,
      "node_id": "MDU6TGFiZWwyMzQ4Nzk=",
      "url": "https://api.github.com/repos/bitcoin/bitcoin/labels/macOS",
      "name": "macOS",
      "color": "660000",
      "default": false,
      "description": ""
    },
    {
      "id": 61889416,
      "node_id": "MDU6TGFiZWw2MTg4OTQxNg==",
      "url": "https://api.github.com/repos/bitcoin/bitcoin/labels/Build%20system",
      "name": "Build system",
      "color": "5319e7",
      "default": false,
      "description": null
    }
  ],
  "state": "closed",
  "locked": true,
  "assignee": null,
  "assignees": [

  ],
  "milestone": null,
  "comments": 2,
  "created_at": "2017-04-25T08:18:51Z",
  "updated_at": "2021-09-08T11:10:53Z",
  "closed_at": "2017-04-26T08:28:08Z",
  "author_association": "CONTRIBUTOR",
  "active_lock_reason": "resolved",
  "draft": false,
  "pull_request": {
    "url": "https://api.github.com/repos/bitcoin/bitcoin/pulls/10273",
    "html_url": "https://github.com/bitcoin/bitcoin/pull/10273",
    "diff_url": "https://github.com/bitcoin/bitcoin/pull/10273.diff",
    "patch_url": "https://github.com/bitcoin/bitcoin/pull/10273.patch",
    "merged_at": "2017-04-26T08:28:08Z"
  },
  "body_html": "",
  "body_text": "",
  "body": "",
  "closed_by": {
    "login": "laanwj",
    "id": 126646,
    "node_id": "MDQ6VXNlcjEyNjY0Ng==",
    "avatar_url": "https://avatars.githubusercontent.com/u/126646?v=4",
    "gravatar_id": "",
    "url": "https://api.github.com/users/laanwj",
    "html_url": "https://github.com/laanwj",
    "followers_url": "https://api.github.com/users/laanwj/followers",
    "following_url": "https://api.github.com/users/laanwj/following{/other_user}",
    "gists_url": "https://api.github.com/users/laanwj/gists{/gist_id}",
    "starred_url": "https://api.github.com/users/laanwj/starred{/owner}{/repo}",
    "subscriptions_url": "https://api.github.com/users/laanwj/subscriptions",
    "organizations_url": "https://api.github.com/users/laanwj/orgs",
    "repos_url": "https://api.github.com/users/laanwj/repos",
    "events_url": "https://api.github.com/users/laanwj/events{/privacy}",
    "received_events_url": "https://api.github.com/users/laanwj/received_events",
    "type": "User",
    "site_admin": false
  },
  "reactions": {
    "url": "https://api.github.com/repos/bitcoin/bitcoin/issues/10273/reactions",
    "total_count": 0,
    "+1": 0,
    "-1": 0,
    "laugh": 0,
    "hooray": 0,
    "confused": 0,
    "heart": 0,
    "rocket": 0,
    "eyes": 0
  },
  "timeline_url": "https://api.github.com/repos/bitcoin/bitcoin/issues/10273/timeline",
  "performed_via_github_app": null,
  "state_reason": null
}
