{
  "url": "https://api.github.com/repos/bitcoin/bitcoin/issues/26503",
  "repository_url": "https://api.github.com/repos/bitcoin/bitcoin",
  "labels_url": "https://api.github.com/repos/bitcoin/bitcoin/issues/26503/labels{/name}",
  "comments_url": "https://api.github.com/repos/bitcoin/bitcoin/issues/26503/comments",
  "events_url": "https://api.github.com/repos/bitcoin/bitcoin/issues/26503/events",
  "html_url": "https://github.com/bitcoin/bitcoin/pull/26503",
  "id": 1449564537,
  "node_id": "PR_kwDOABII585C6vK7",
  "number": 26503,
  "title": "[24.x] bump version to v24.0",
  "user": {
    "login": "fanquake",
    "id": 863730,
    "node_id": "MDQ6VXNlcjg2MzczMA==",
    "avatar_url": "https://avatars.githubusercontent.com/u/863730?v=4",
    "gravatar_id": "",
    "url": "https://api.github.com/users/fanquake",
    "html_url": "https://github.com/fanquake",
    "followers_url": "https://api.github.com/users/fanquake/followers",
    "following_url": "https://api.github.com/users/fanquake/following{/other_user}",
    "gists_url": "https://api.github.com/users/fanquake/gists{/gist_id}",
    "starred_url": "https://api.github.com/users/fanquake/starred{/owner}{/repo}",
    "subscriptions_url": "https://api.github.com/users/fanquake/subscriptions",
    "organizations_url": "https://api.github.com/users/fanquake/orgs",
    "repos_url": "https://api.github.com/users/fanquake/repos",
    "events_url": "https://api.github.com/users/fanquake/events{/privacy}",
    "received_events_url": "https://api.github.com/users/fanquake/received_events",
    "type": "User",
    "site_admin": false
  },
  "labels": [
    {
      "id": 390024790,
      "node_id": "MDU6TGFiZWwzOTAwMjQ3OTA=",
      "url": "https://api.github.com/repos/bitcoin/bitcoin/labels/Backport",
      "name": "Backport",
      "color": "dd7200",
      "default": false,
      "description": ""
    }
  ],
  "state": "closed",
  "locked": true,
  "assignee": null,
  "assignees": [

  ],
  "milestone": {
    "url": "https://api.github.com/repos/bitcoin/bitcoin/milestones/54",
    "html_url": "https://github.com/bitcoin/bitcoin/milestone/54",
    "labels_url": "https://api.github.com/repos/bitcoin/bitcoin/milestones/54/labels",
    "id": 7150037,
    "node_id": "MI_kwDOABII584AbRnV",
    "number": 54,
    "title": "24.0",
    "description": "",
    "creator": {
      "login": "laanwj",
      "id": 126646,
      "node_id": "MDQ6VXNlcjEyNjY0Ng==",
      "avatar_url": "https://avatars.githubusercontent.com/u/126646?v=4",
      "gravatar_id": "",
      "url": "https://api.github.com/users/laanwj",
      "html_url": "https://github.com/laanwj",
      "followers_url": "https://api.github.com/users/laanwj/followers",
      "following_url": "https://api.github.com/users/laanwj/following{/other_user}",
      "gists_url": "https://api.github.com/users/laanwj/gists{/gist_id}",
      "starred_url": "https://api.github.com/users/laanwj/starred{/owner}{/repo}",
      "subscriptions_url": "https://api.github.com/users/laanwj/subscriptions",
      "organizations_url": "https://api.github.com/users/laanwj/orgs",
      "repos_url": "https://api.github.com/users/laanwj/repos",
      "events_url": "https://api.github.com/users/laanwj/events{/privacy}",
      "received_events_url": "https://api.github.com/users/laanwj/received_events",
      "type": "User",
      "site_admin": false
    },
    "open_issues": 0,
    "closed_issues": 159,
    "state": "closed",
    "created_at": "2021-09-14T08:27:02Z",
    "updated_at": "2022-11-29T15:44:44Z",
    "due_on": null,
    "closed_at": "2022-11-29T15:44:44Z"
  },
  "comments": 10,
  "created_at": "2022-11-15T10:44:24Z",
  "updated_at": "2023-11-17T12:18:44Z",
  "closed_at": "2022-11-17T11:48:47Z",
  "author_association": "MEMBER",
  "active_lock_reason": null,
  "draft": false,
  "pull_request": {
    "url": "https://api.github.com/repos/bitcoin/bitcoin/pulls/26503",
    "html_url": "https://github.com/bitcoin/bitcoin/pull/26503",
    "diff_url": "https://github.com/bitcoin/bitcoin/pull/26503.diff",
    "patch_url": "https://github.com/bitcoin/bitcoin/pull/26503.patch",
    "merged_at": "2022-11-17T11:48:47Z"
  },
  "body_html": "<p dir=\"auto\">Bump version to v24.0.<br>\nRegenerate manpages.<br>\nPull in the release notes from <a href=\"https://github.com/bitcoin-core/bitcoin-devwiki/wiki/24.0-Release-Notes-draft\">the devwiki</a>:</p>\n<ul dir=\"auto\">\n<li>I've added the credits section; please comment if a name is missing / needs amending.</li>\n<li>I've dropped any content-less sections.</li>\n<li>If there are items that should be in the release notes, and are still missing, please comment.</li>\n</ul>",
  "body_text": "Bump version to v24.0.\nRegenerate manpages.\nPull in the release notes from the devwiki:\n\nI've added the credits section; please comment if a name is missing / needs amending.\nI've dropped any content-less sections.\nIf there are items that should be in the release notes, and are still missing, please comment.",
  "body": "Bump version to v24.0.\r\nRegenerate manpages.\r\nPull in the release notes from [the devwiki](https://github.com/bitcoin-core/bitcoin-devwiki/wiki/24.0-Release-Notes-draft):\r\n- I've added the credits section; please comment if a name is missing / needs amending.\r\n- I've dropped any content-less sections.\r\n- If there are items that should be in the release notes, and are still missing, please comment.",
  "closed_by": {
    "login": "fanquake",
    "id": 863730,
    "node_id": "MDQ6VXNlcjg2MzczMA==",
    "avatar_url": "https://avatars.githubusercontent.com/u/863730?v=4",
    "gravatar_id": "",
    "url": "https://api.github.com/users/fanquake",
    "html_url": "https://github.com/fanquake",
    "followers_url": "https://api.github.com/users/fanquake/followers",
    "following_url": "https://api.github.com/users/fanquake/following{/other_user}",
    "gists_url": "https://api.github.com/users/fanquake/gists{/gist_id}",
    "starred_url": "https://api.github.com/users/fanquake/starred{/owner}{/repo}",
    "subscriptions_url": "https://api.github.com/users/fanquake/subscriptions",
    "organizations_url": "https://api.github.com/users/fanquake/orgs",
    "repos_url": "https://api.github.com/users/fanquake/repos",
    "events_url": "https://api.github.com/users/fanquake/events{/privacy}",
    "received_events_url": "https://api.github.com/users/fanquake/received_events",
    "type": "User",
    "site_admin": false
  },
  "reactions": {
    "url": "https://api.github.com/repos/bitcoin/bitcoin/issues/26503/reactions",
    "total_count": 0,
    "+1": 0,
    "-1": 0,
    "laugh": 0,
    "hooray": 0,
    "confused": 0,
    "heart": 0,
    "rocket": 0,
    "eyes": 0
  },
  "timeline_url": "https://api.github.com/repos/bitcoin/bitcoin/issues/26503/timeline",
  "performed_via_github_app": null,
  "state_reason": null
}
