[
  {
    "url": "https://api.github.com/repos/bitcoin/bitcoin/issues/comments/195698930",
    "html_url": "https://github.com/bitcoin/bitcoin/pull/7669#issuecomment-195698930",
    "issue_url": "https://api.github.com/repos/bitcoin/bitcoin/issues/7669",
    "id": 195698930,
    "node_id": "MDEyOklzc3VlQ29tbWVudDE5NTY5ODkzMA==",
    "user": {
      "login": "jonasschnelli",
      "id": 178464,
      "node_id": "MDQ6VXNlcjE3ODQ2NA==",
      "avatar_url": "https://avatars.githubusercontent.com/u/178464?v=4",
      "gravatar_id": "",
      "url": "https://api.github.com/users/jonasschnelli",
      "html_url": "https://github.com/jonasschnelli",
      "followers_url": "https://api.github.com/users/jonasschnelli/followers",
      "following_url": "https://api.github.com/users/jonasschnelli/following{/other_user}",
      "gists_url": "https://api.github.com/users/jonasschnelli/gists{/gist_id}",
      "starred_url": "https://api.github.com/users/jonasschnelli/starred{/owner}{/repo}",
      "subscriptions_url": "https://api.github.com/users/jonasschnelli/subscriptions",
      "organizations_url": "https://api.github.com/users/jonasschnelli/orgs",
      "repos_url": "https://api.github.com/users/jonasschnelli/repos",
      "events_url": "https://api.github.com/users/jonasschnelli/events{/privacy}",
      "received_events_url": "https://api.github.com/users/jonasschnelli/received_events",
      "type": "User",
      "site_admin": false
    },
    "created_at": "2016-03-12T09:03:53Z",
    "updated_at": "2016-03-12T09:03:53Z",
    "author_association": "CONTRIBUTOR",
    "body_html": "<p dir=\"auto\">Trolling PR. Closing...</p>",
    "body_text": "Trolling PR. Closing...",
    "body": "Trolling PR. Closing...\n",
    "reactions": {
      "url": "https://api.github.com/repos/bitcoin/bitcoin/issues/comments/195698930/reactions",
      "total_count": 0,
      "+1": 0,
      "-1": 0,
      "laugh": 0,
      "hooray": 0,
      "confused": 0,
      "heart": 0,
      "rocket": 0,
      "eyes": 0
    },
    "performed_via_github_app": null
  },
  {
    "url": "https://api.github.com/repos/bitcoin/bitcoin/issues/comments/195698948",
    "html_url": "https://github.com/bitcoin/bitcoin/pull/7669#issuecomment-195698948",
    "issue_url": "https://api.github.com/repos/bitcoin/bitcoin/issues/7669",
    "id": 195698948,
    "node_id": "MDEyOklzc3VlQ29tbWVudDE5NTY5ODk0OA==",
    "user": {
      "login": "NicolasDorier",
      "id": 3020646,
      "node_id": "MDQ6VXNlcjMwMjA2NDY=",
      "avatar_url": "https://avatars.githubusercontent.com/u/3020646?v=4",
      "gravatar_id": "",
      "url": "https://api.github.com/users/NicolasDorier",
      "html_url": "https://github.com/NicolasDorier",
      "followers_url": "https://api.github.com/users/NicolasDorier/followers",
      "following_url": "https://api.github.com/users/NicolasDorier/following{/other_user}",
      "gists_url": "https://api.github.com/users/NicolasDorier/gists{/gist_id}",
      "starred_url": "https://api.github.com/users/NicolasDorier/starred{/owner}{/repo}",
      "subscriptions_url": "https://api.github.com/users/NicolasDorier/subscriptions",
      "organizations_url": "https://api.github.com/users/NicolasDorier/orgs",
      "repos_url": "https://api.github.com/users/NicolasDorier/repos",
      "events_url": "https://api.github.com/users/NicolasDorier/events{/privacy}",
      "received_events_url": "https://api.github.com/users/NicolasDorier/received_events",
      "type": "User",
      "site_admin": false
    },
    "created_at": "2016-03-12T09:04:12Z",
    "updated_at": "2016-03-12T09:04:12Z",
    "author_association": "CONTRIBUTOR",
    "body_html": "<p dir=\"auto\">Duplicate <a class=\"issue-link js-issue-link\" data-error-text=\"Failed to load title\" data-id=\"95529120\" data-permission-text=\"Title is private\" data-url=\"https://github.com/bitcoin/bitcoin/issues/6451\" data-hovercard-type=\"pull_request\" data-hovercard-url=\"/bitcoin/bitcoin/pull/6451/hovercard\" href=\"https://github.com/bitcoin/bitcoin/pull/6451\">#6451</a>, tests does not pass, no forking date, no test about forking date, no fix of transaction size O(n2) hash problem, no update of sigops count.</p>",
    "body_text": "Duplicate #6451, tests does not pass, no forking date, no test about forking date, no fix of transaction size O(n2) hash problem, no update of sigops count.",
    "body": "Duplicate https://github.com/bitcoin/bitcoin/pull/6451, tests does not pass, no forking date, no test about forking date, no fix of transaction size O(n2) hash problem, no update of sigops count.\n",
    "reactions": {
      "url": "https://api.github.com/repos/bitcoin/bitcoin/issues/comments/195698948/reactions",
      "total_count": 0,
      "+1": 0,
      "-1": 0,
      "laugh": 0,
      "hooray": 0,
      "confused": 0,
      "heart": 0,
      "rocket": 0,
      "eyes": 0
    },
    "performed_via_github_app": null
  }
]
