[
  {
    "url": "https://api.github.com/repos/bitcoin/bitcoin/issues/comments/1061478866",
    "html_url": "https://github.com/bitcoin/bitcoin/pull/24500#issuecomment-1061478866",
    "issue_url": "https://api.github.com/repos/bitcoin/bitcoin/issues/24500",
    "id": 1061478866,
    "node_id": "IC_kwDOABII584_ROHS",
    "user": {
      "login": "hebasto",
      "id": 32963518,
      "node_id": "MDQ6VXNlcjMyOTYzNTE4",
      "avatar_url": "https://avatars.githubusercontent.com/u/32963518?v=4",
      "gravatar_id": "",
      "url": "https://api.github.com/users/hebasto",
      "html_url": "https://github.com/hebasto",
      "followers_url": "https://api.github.com/users/hebasto/followers",
      "following_url": "https://api.github.com/users/hebasto/following{/other_user}",
      "gists_url": "https://api.github.com/users/hebasto/gists{/gist_id}",
      "starred_url": "https://api.github.com/users/hebasto/starred{/owner}{/repo}",
      "subscriptions_url": "https://api.github.com/users/hebasto/subscriptions",
      "organizations_url": "https://api.github.com/users/hebasto/orgs",
      "repos_url": "https://api.github.com/users/hebasto/repos",
      "events_url": "https://api.github.com/users/hebasto/events{/privacy}",
      "received_events_url": "https://api.github.com/users/hebasto/received_events",
      "type": "User",
      "site_admin": false
    },
    "created_at": "2022-03-08T07:16:40Z",
    "updated_at": "2022-03-08T07:16:40Z",
    "author_association": "MEMBER",
    "body_html": "<p dir=\"auto\"><a class=\"user-mention notranslate\" data-hovercard-type=\"user\" data-hovercard-url=\"/users/div72/hovercard\" data-octo-click=\"hovercard-link-click\" data-octo-dimensions=\"link_type:self\" href=\"https://github.com/div72\">@div72</a></p>\n<blockquote>\n<p dir=\"auto\">Since platforms like CI install toolchains on every run, ccache's default option for using mtime causes ccache to not utilize the cache.</p>\n</blockquote>\n<p dir=\"auto\">Why do you think so? Logs are ok, <a href=\"https://api.cirrus-ci.com/v1/task/5459769484902400/logs/ci.log\" rel=\"nofollow\">for example</a>:</p>\n<div class=\"snippet-clipboard-content notranslate position-relative overflow-auto\" data-snippet-clipboard-copy-content=\"ccache version 4.5.1\nSummary:\n  Hits:             701 /  703 (99.72 %)\n    Direct:         701 /  703 (99.72 %)\n    Preprocessed:     0 /    2 (0.00 %)\n  Misses:             2\n    Direct:           2\n    Preprocessed:     2\n  Uncacheable:       15\nPrimary storage:\n  Hits:            1403 / 1406 (99.79 %)\n  Misses:             3\n  Cache size (GB): 0.18 / 0.20 (88.81 %)\"><pre class=\"notranslate\"><code class=\"notranslate\">ccache version 4.5.1\nSummary:\n  Hits:             701 /  703 (99.72 %)\n    Direct:         701 /  703 (99.72 %)\n    Preprocessed:     0 /    2 (0.00 %)\n  Misses:             2\n    Direct:           2\n    Preprocessed:     2\n  Uncacheable:       15\nPrimary storage:\n  Hits:            1403 / 1406 (99.79 %)\n  Misses:             3\n  Cache size (GB): 0.18 / 0.20 (88.81 %)\n</code></pre></div>",
    "body_text": "@div72\n\nSince platforms like CI install toolchains on every run, ccache's default option for using mtime causes ccache to not utilize the cache.\n\nWhy do you think so? Logs are ok, for example:\nccache version 4.5.1\nSummary:\n  Hits:             701 /  703 (99.72 %)\n    Direct:         701 /  703 (99.72 %)\n    Preprocessed:     0 /    2 (0.00 %)\n  Misses:             2\n    Direct:           2\n    Preprocessed:     2\n  Uncacheable:       15\nPrimary storage:\n  Hits:            1403 / 1406 (99.79 %)\n  Misses:             3\n  Cache size (GB): 0.18 / 0.20 (88.81 %)",
    "body": "@div72 \r\n> Since platforms like CI install toolchains on every run, ccache's default option for using mtime causes ccache to not utilize the cache.\r\n\r\nWhy do you think so? Logs are ok, [for example](https://api.cirrus-ci.com/v1/task/5459769484902400/logs/ci.log):\r\n```\r\nccache version 4.5.1\r\nSummary:\r\n  Hits:             701 /  703 (99.72 %)\r\n    Direct:         701 /  703 (99.72 %)\r\n    Preprocessed:     0 /    2 (0.00 %)\r\n  Misses:             2\r\n    Direct:           2\r\n    Preprocessed:     2\r\n  Uncacheable:       15\r\nPrimary storage:\r\n  Hits:            1403 / 1406 (99.79 %)\r\n  Misses:             3\r\n  Cache size (GB): 0.18 / 0.20 (88.81 %)\r\n```",
    "reactions": {
      "url": "https://api.github.com/repos/bitcoin/bitcoin/issues/comments/1061478866/reactions",
      "total_count": 0,
      "+1": 0,
      "-1": 0,
      "laugh": 0,
      "hooray": 0,
      "confused": 0,
      "heart": 0,
      "rocket": 0,
      "eyes": 0
    },
    "performed_via_github_app": null
  },
  {
    "url": "https://api.github.com/repos/bitcoin/bitcoin/issues/comments/1061833749",
    "html_url": "https://github.com/bitcoin/bitcoin/pull/24500#issuecomment-1061833749",
    "issue_url": "https://api.github.com/repos/bitcoin/bitcoin/issues/24500",
    "id": 1061833749,
    "node_id": "IC_kwDOABII584_SkwV",
    "user": {
      "login": "div72",
      "id": 60045611,
      "node_id": "MDQ6VXNlcjYwMDQ1NjEx",
      "avatar_url": "https://avatars.githubusercontent.com/u/60045611?v=4",
      "gravatar_id": "",
      "url": "https://api.github.com/users/div72",
      "html_url": "https://github.com/div72",
      "followers_url": "https://api.github.com/users/div72/followers",
      "following_url": "https://api.github.com/users/div72/following{/other_user}",
      "gists_url": "https://api.github.com/users/div72/gists{/gist_id}",
      "starred_url": "https://api.github.com/users/div72/starred{/owner}{/repo}",
      "subscriptions_url": "https://api.github.com/users/div72/subscriptions",
      "organizations_url": "https://api.github.com/users/div72/orgs",
      "repos_url": "https://api.github.com/users/div72/repos",
      "events_url": "https://api.github.com/users/div72/events{/privacy}",
      "received_events_url": "https://api.github.com/users/div72/received_events",
      "type": "User",
      "site_admin": false
    },
    "created_at": "2022-03-08T14:25:59Z",
    "updated_at": "2022-03-08T14:25:59Z",
    "author_association": "NONE",
    "body_html": "<p dir=\"auto\"><a class=\"user-mention notranslate\" data-hovercard-type=\"user\" data-hovercard-url=\"/users/hebasto/hovercard\" data-octo-click=\"hovercard-link-click\" data-octo-dimensions=\"link_type:self\" href=\"https://github.com/hebasto\">@hebasto</a> Extremely low hit rates of <a href=\"https://cirrus-ci.com/task/4649004356075520?logs=ci#L3253\" rel=\"nofollow\">https://cirrus-ci.com/task/4649004356075520?logs=ci#L3253</a> and <a href=\"https://cirrus-ci.com/task/5211954309496832?logs=ci#L2946\" rel=\"nofollow\">https://cirrus-ci.com/task/5211954309496832?logs=ci#L2946</a> irked me but considering other tasks do not share this issue, it's probably unrelated. Closing.</p>",
    "body_text": "@hebasto Extremely low hit rates of https://cirrus-ci.com/task/4649004356075520?logs=ci#L3253 and https://cirrus-ci.com/task/5211954309496832?logs=ci#L2946 irked me but considering other tasks do not share this issue, it's probably unrelated. Closing.",
    "body": "@hebasto Extremely low hit rates of https://cirrus-ci.com/task/4649004356075520?logs=ci#L3253 and https://cirrus-ci.com/task/5211954309496832?logs=ci#L2946 irked me but considering other tasks do not share this issue, it's probably unrelated. Closing.",
    "reactions": {
      "url": "https://api.github.com/repos/bitcoin/bitcoin/issues/comments/1061833749/reactions",
      "total_count": 0,
      "+1": 0,
      "-1": 0,
      "laugh": 0,
      "hooray": 0,
      "confused": 0,
      "heart": 0,
      "rocket": 0,
      "eyes": 0
    },
    "performed_via_github_app": null
  },
  {
    "url": "https://api.github.com/repos/bitcoin/bitcoin/issues/comments/1091839508",
    "html_url": "https://github.com/bitcoin/bitcoin/pull/24500#issuecomment-1091839508",
    "issue_url": "https://api.github.com/repos/bitcoin/bitcoin/issues/24500",
    "id": 1091839508,
    "node_id": "IC_kwDOABII585BFCYU",
    "user": {
      "login": "hebasto",
      "id": 32963518,
      "node_id": "MDQ6VXNlcjMyOTYzNTE4",
      "avatar_url": "https://avatars.githubusercontent.com/u/32963518?v=4",
      "gravatar_id": "",
      "url": "https://api.github.com/users/hebasto",
      "html_url": "https://github.com/hebasto",
      "followers_url": "https://api.github.com/users/hebasto/followers",
      "following_url": "https://api.github.com/users/hebasto/following{/other_user}",
      "gists_url": "https://api.github.com/users/hebasto/gists{/gist_id}",
      "starred_url": "https://api.github.com/users/hebasto/starred{/owner}{/repo}",
      "subscriptions_url": "https://api.github.com/users/hebasto/subscriptions",
      "organizations_url": "https://api.github.com/users/hebasto/orgs",
      "repos_url": "https://api.github.com/users/hebasto/repos",
      "events_url": "https://api.github.com/users/hebasto/events{/privacy}",
      "received_events_url": "https://api.github.com/users/hebasto/received_events",
      "type": "User",
      "site_admin": false
    },
    "created_at": "2022-04-07T14:52:17Z",
    "updated_at": "2022-04-07T14:52:17Z",
    "author_association": "MEMBER",
    "body_html": "<blockquote>\n<p dir=\"auto\"><a class=\"user-mention notranslate\" data-hovercard-type=\"user\" data-hovercard-url=\"/users/hebasto/hovercard\" data-octo-click=\"hovercard-link-click\" data-octo-dimensions=\"link_type:self\" href=\"https://github.com/hebasto\">@hebasto</a> Extremely low hit rates of <a href=\"https://cirrus-ci.com/task/4649004356075520?logs=ci#L3253\" rel=\"nofollow\">https://cirrus-ci.com/task/4649004356075520?logs=ci#L3253</a> and <a href=\"https://cirrus-ci.com/task/5211954309496832?logs=ci#L2946\" rel=\"nofollow\">https://cirrus-ci.com/task/5211954309496832?logs=ci#L2946</a> irked me but considering other tasks do not share this issue, it's probably unrelated. Closing.</p>\n</blockquote>\n<p dir=\"auto\">For macOS cross-compiling builds see <a class=\"issue-link js-issue-link\" data-error-text=\"Failed to load title\" data-id=\"1174526380\" data-permission-text=\"Title is private\" data-url=\"https://github.com/bitcoin/bitcoin/issues/24620\" data-hovercard-type=\"pull_request\" data-hovercard-url=\"/bitcoin/bitcoin/pull/24620/hovercard\" href=\"https://github.com/bitcoin/bitcoin/pull/24620\">#24620</a>.</p>",
    "body_text": "@hebasto Extremely low hit rates of https://cirrus-ci.com/task/4649004356075520?logs=ci#L3253 and https://cirrus-ci.com/task/5211954309496832?logs=ci#L2946 irked me but considering other tasks do not share this issue, it's probably unrelated. Closing.\n\nFor macOS cross-compiling builds see #24620.",
    "body": "> @hebasto Extremely low hit rates of https://cirrus-ci.com/task/4649004356075520?logs=ci#L3253 and https://cirrus-ci.com/task/5211954309496832?logs=ci#L2946 irked me but considering other tasks do not share this issue, it's probably unrelated. Closing.\r\n\r\nFor macOS cross-compiling builds see #24620.",
    "reactions": {
      "url": "https://api.github.com/repos/bitcoin/bitcoin/issues/comments/1091839508/reactions",
      "total_count": 1,
      "+1": 1,
      "-1": 0,
      "laugh": 0,
      "hooray": 0,
      "confused": 0,
      "heart": 0,
      "rocket": 0,
      "eyes": 0
    },
    "performed_via_github_app": null
  }
]
