[
  {
    "url": "https://api.github.com/repos/bitcoin/bitcoin/issues/comments/913138080",
    "html_url": "https://github.com/bitcoin/bitcoin/pull/22894#issuecomment-913138080",
    "issue_url": "https://api.github.com/repos/bitcoin/bitcoin/issues/22894",
    "id": 913138080,
    "node_id": "IC_kwDOABII5842bWGg",
    "user": {
      "login": "practicalswift",
      "id": 7826565,
      "node_id": "MDQ6VXNlcjc4MjY1NjU=",
      "avatar_url": "https://avatars.githubusercontent.com/u/7826565?v=4",
      "gravatar_id": "",
      "url": "https://api.github.com/users/practicalswift",
      "html_url": "https://github.com/practicalswift",
      "followers_url": "https://api.github.com/users/practicalswift/followers",
      "following_url": "https://api.github.com/users/practicalswift/following{/other_user}",
      "gists_url": "https://api.github.com/users/practicalswift/gists{/gist_id}",
      "starred_url": "https://api.github.com/users/practicalswift/starred{/owner}{/repo}",
      "subscriptions_url": "https://api.github.com/users/practicalswift/subscriptions",
      "organizations_url": "https://api.github.com/users/practicalswift/orgs",
      "repos_url": "https://api.github.com/users/practicalswift/repos",
      "events_url": "https://api.github.com/users/practicalswift/events{/privacy}",
      "received_events_url": "https://api.github.com/users/practicalswift/received_events",
      "type": "User",
      "site_admin": false
    },
    "created_at": "2021-09-05T11:44:45Z",
    "updated_at": "2021-09-05T11:44:45Z",
    "author_association": "CONTRIBUTOR",
    "body_html": "<p dir=\"auto\">Concept ACK</p>",
    "body_text": "Concept ACK",
    "body": "Concept ACK",
    "reactions": {
      "url": "https://api.github.com/repos/bitcoin/bitcoin/issues/comments/913138080/reactions",
      "total_count": 0,
      "+1": 0,
      "-1": 0,
      "laugh": 0,
      "hooray": 0,
      "confused": 0,
      "heart": 0,
      "rocket": 0,
      "eyes": 0
    },
    "performed_via_github_app": null
  },
  {
    "url": "https://api.github.com/repos/bitcoin/bitcoin/issues/comments/913223757",
    "html_url": "https://github.com/bitcoin/bitcoin/pull/22894#issuecomment-913223757",
    "issue_url": "https://api.github.com/repos/bitcoin/bitcoin/issues/22894",
    "id": 913223757,
    "node_id": "IC_kwDOABII5842brBN",
    "user": {
      "login": "jonatack",
      "id": 2415484,
      "node_id": "MDQ6VXNlcjI0MTU0ODQ=",
      "avatar_url": "https://avatars.githubusercontent.com/u/2415484?v=4",
      "gravatar_id": "",
      "url": "https://api.github.com/users/jonatack",
      "html_url": "https://github.com/jonatack",
      "followers_url": "https://api.github.com/users/jonatack/followers",
      "following_url": "https://api.github.com/users/jonatack/following{/other_user}",
      "gists_url": "https://api.github.com/users/jonatack/gists{/gist_id}",
      "starred_url": "https://api.github.com/users/jonatack/starred{/owner}{/repo}",
      "subscriptions_url": "https://api.github.com/users/jonatack/subscriptions",
      "organizations_url": "https://api.github.com/users/jonatack/orgs",
      "repos_url": "https://api.github.com/users/jonatack/repos",
      "events_url": "https://api.github.com/users/jonatack/events{/privacy}",
      "received_events_url": "https://api.github.com/users/jonatack/received_events",
      "type": "User",
      "site_admin": false
    },
    "created_at": "2021-09-05T20:37:10Z",
    "updated_at": "2021-09-05T20:37:10Z",
    "author_association": "CONTRIBUTOR",
    "body_html": "<blockquote>\n<p dir=\"auto\">Bitcoin Core v22.0.0rc3 (client) - 70016/Satoshi:22.99.0/ (server)</p>\n</blockquote>\n<p dir=\"auto\">Not bad! though I think they are better as prefixes rather than suffixes and shorter rather than longer, particularly with longer headers. Some of the versions can be quite long.</p>",
    "body_text": "Bitcoin Core v22.0.0rc3 (client) - 70016/Satoshi:22.99.0/ (server)\n\nNot bad! though I think they are better as prefixes rather than suffixes and shorter rather than longer, particularly with longer headers. Some of the versions can be quite long.",
    "body": "> Bitcoin Core v22.0.0rc3 (client) - 70016/Satoshi:22.99.0/ (server)\r\n\r\nNot bad! though I think they are better as prefixes rather than suffixes and shorter rather than longer, particularly with longer headers. Some of the versions can be quite long.\r\n",
    "reactions": {
      "url": "https://api.github.com/repos/bitcoin/bitcoin/issues/comments/913223757/reactions",
      "total_count": 1,
      "+1": 1,
      "-1": 0,
      "laugh": 0,
      "hooray": 0,
      "confused": 0,
      "heart": 0,
      "rocket": 0,
      "eyes": 0
    },
    "performed_via_github_app": null
  }
]
