{
  "url": "https://api.github.com/repos/bitcoin/bitcoin/issues/22252",
  "repository_url": "https://api.github.com/repos/bitcoin/bitcoin",
  "labels_url": "https://api.github.com/repos/bitcoin/bitcoin/issues/22252/labels{/name}",
  "comments_url": "https://api.github.com/repos/bitcoin/bitcoin/issues/22252/comments",
  "events_url": "https://api.github.com/repos/bitcoin/bitcoin/issues/22252/events",
  "html_url": "https://github.com/bitcoin/bitcoin/pull/22252",
  "id": 921455398,
  "node_id": "MDExOlB1bGxSZXF1ZXN0NjcwNDU1NjU3",
  "number": 22252,
  "title": "policy: Trim Packages when transaction with same txid exists in mempool",
  "user": {
    "login": "glozow",
    "id": 25183001,
    "node_id": "MDQ6VXNlcjI1MTgzMDAx",
    "avatar_url": "https://avatars.githubusercontent.com/u/25183001?v=4",
    "gravatar_id": "",
    "url": "https://api.github.com/users/glozow",
    "html_url": "https://github.com/glozow",
    "followers_url": "https://api.github.com/users/glozow/followers",
    "following_url": "https://api.github.com/users/glozow/following{/other_user}",
    "gists_url": "https://api.github.com/users/glozow/gists{/gist_id}",
    "starred_url": "https://api.github.com/users/glozow/starred{/owner}{/repo}",
    "subscriptions_url": "https://api.github.com/users/glozow/subscriptions",
    "organizations_url": "https://api.github.com/users/glozow/orgs",
    "repos_url": "https://api.github.com/users/glozow/repos",
    "events_url": "https://api.github.com/users/glozow/events{/privacy}",
    "received_events_url": "https://api.github.com/users/glozow/received_events",
    "type": "User",
    "site_admin": false
  },
  "labels": [
    {
      "id": 118379652,
      "node_id": "MDU6TGFiZWwxMTgzNzk2NTI=",
      "url": "https://api.github.com/repos/bitcoin/bitcoin/labels/Validation",
      "name": "Validation",
      "color": "6060aa",
      "default": false,
      "description": null
    }
  ],
  "state": "closed",
  "locked": true,
  "assignee": null,
  "assignees": [

  ],
  "milestone": null,
  "comments": 9,
  "created_at": "2021-06-15T14:23:08Z",
  "updated_at": "2022-08-23T12:58:48Z",
  "closed_at": "2021-08-23T10:01:04Z",
  "author_association": "MEMBER",
  "active_lock_reason": "resolved",
  "draft": true,
  "pull_request": {
    "url": "https://api.github.com/repos/bitcoin/bitcoin/pulls/22252",
    "html_url": "https://github.com/bitcoin/bitcoin/pull/22252",
    "diff_url": "https://github.com/bitcoin/bitcoin/pull/22252.diff",
    "patch_url": "https://github.com/bitcoin/bitcoin/pull/22252.patch",
    "merged_at": null
  },
  "body_html": "<p dir=\"auto\">[WIP] This requires <a class=\"issue-link js-issue-link\" data-error-text=\"Failed to load title\" data-id=\"921456783\" data-permission-text=\"Title is private\" data-url=\"https://github.com/bitcoin/bitcoin/issues/22253\" data-hovercard-type=\"pull_request\" data-hovercard-url=\"/bitcoin/bitcoin/pull/22253/hovercard\" href=\"https://github.com/bitcoin/bitcoin/pull/22253\">#22253</a> and is built on top of <a class=\"issue-link js-issue-link\" data-error-text=\"Failed to load title\" data-id=\"870274745\" data-permission-text=\"Title is private\" data-url=\"https://github.com/bitcoin/bitcoin/issues/21800\" data-hovercard-type=\"pull_request\" data-hovercard-url=\"/bitcoin/bitcoin/pull/21800/hovercard\" href=\"https://github.com/bitcoin/bitcoin/pull/21800\">#21800</a>, please review them first.</p>\n<p dir=\"auto\">This PR implements deduplication of package transactions that have the same txid as transaction(s) in the mempool. In that sense, our policy changes because it is no longer all-or-nothing. I would still call it \"atomic\" because it either decides (1) all transactions may be submitted to mempool or (2) there should be no change to the mempool. Importantly, we deduplicate by txid rather than wtxid - a transaction with the same nonwitness data should be sufficient to validate the descendants in the package.</p>\n<p dir=\"auto\">I consider this a prerequisite to <em>submission</em> of packages to mempool, because it would be a rather annoying limitation if we couldn't tell that the package was already partially in the mempool. It could also be problematic if someone could submit the transaction with a different witness to cause the package to be rejected.</p>",
  "body_text": "[WIP] This requires #22253 and is built on top of #21800, please review them first.\nThis PR implements deduplication of package transactions that have the same txid as transaction(s) in the mempool. In that sense, our policy changes because it is no longer all-or-nothing. I would still call it \"atomic\" because it either decides (1) all transactions may be submitted to mempool or (2) there should be no change to the mempool. Importantly, we deduplicate by txid rather than wtxid - a transaction with the same nonwitness data should be sufficient to validate the descendants in the package.\nI consider this a prerequisite to submission of packages to mempool, because it would be a rather annoying limitation if we couldn't tell that the package was already partially in the mempool. It could also be problematic if someone could submit the transaction with a different witness to cause the package to be rejected.",
  "body": "[WIP] This requires #22253 and is built on top of #21800, please review them first.\r\n\r\nThis PR implements deduplication of package transactions that have the same txid as transaction(s) in the mempool. In that sense, our policy changes because it is no longer all-or-nothing. I would still call it \"atomic\" because it either decides (1) all transactions may be submitted to mempool or (2) there should be no change to the mempool. Importantly, we deduplicate by txid rather than wtxid - a transaction with the same nonwitness data should be sufficient to validate the descendants in the package.\r\n\r\nI consider this a prerequisite to _submission_ of packages to mempool, because it would be a rather annoying limitation if we couldn't tell that the package was already partially in the mempool. It could also be problematic if someone could submit the transaction with a different witness to cause the package to be rejected.",
  "closed_by": {
    "login": "glozow",
    "id": 25183001,
    "node_id": "MDQ6VXNlcjI1MTgzMDAx",
    "avatar_url": "https://avatars.githubusercontent.com/u/25183001?v=4",
    "gravatar_id": "",
    "url": "https://api.github.com/users/glozow",
    "html_url": "https://github.com/glozow",
    "followers_url": "https://api.github.com/users/glozow/followers",
    "following_url": "https://api.github.com/users/glozow/following{/other_user}",
    "gists_url": "https://api.github.com/users/glozow/gists{/gist_id}",
    "starred_url": "https://api.github.com/users/glozow/starred{/owner}{/repo}",
    "subscriptions_url": "https://api.github.com/users/glozow/subscriptions",
    "organizations_url": "https://api.github.com/users/glozow/orgs",
    "repos_url": "https://api.github.com/users/glozow/repos",
    "events_url": "https://api.github.com/users/glozow/events{/privacy}",
    "received_events_url": "https://api.github.com/users/glozow/received_events",
    "type": "User",
    "site_admin": false
  },
  "reactions": {
    "url": "https://api.github.com/repos/bitcoin/bitcoin/issues/22252/reactions",
    "total_count": 1,
    "+1": 1,
    "-1": 0,
    "laugh": 0,
    "hooray": 0,
    "confused": 0,
    "heart": 0,
    "rocket": 0,
    "eyes": 0
  },
  "timeline_url": "https://api.github.com/repos/bitcoin/bitcoin/issues/22252/timeline",
  "performed_via_github_app": null,
  "state_reason": null
}
