{
  "url": "https://api.github.com/repos/bitcoin/bitcoin/issues/28029",
  "repository_url": "https://api.github.com/repos/bitcoin/bitcoin",
  "labels_url": "https://api.github.com/repos/bitcoin/bitcoin/issues/28029/labels{/name}",
  "comments_url": "https://api.github.com/repos/bitcoin/bitcoin/issues/28029/comments",
  "events_url": "https://api.github.com/repos/bitcoin/bitcoin/issues/28029/events",
  "html_url": "https://github.com/bitcoin/bitcoin/pull/28029",
  "id": 1788304491,
  "node_id": "PR_kwDOABII585Uo1ur",
  "number": 28029,
  "title": "Fix issues in ZMQ error handling",
  "user": {
    "login": "luke-jr",
    "id": 1095675,
    "node_id": "MDQ6VXNlcjEwOTU2NzU=",
    "avatar_url": "https://avatars.githubusercontent.com/u/1095675?v=4",
    "gravatar_id": "",
    "url": "https://api.github.com/users/luke-jr",
    "html_url": "https://github.com/luke-jr",
    "followers_url": "https://api.github.com/users/luke-jr/followers",
    "following_url": "https://api.github.com/users/luke-jr/following{/other_user}",
    "gists_url": "https://api.github.com/users/luke-jr/gists{/gist_id}",
    "starred_url": "https://api.github.com/users/luke-jr/starred{/owner}{/repo}",
    "subscriptions_url": "https://api.github.com/users/luke-jr/subscriptions",
    "organizations_url": "https://api.github.com/users/luke-jr/orgs",
    "repos_url": "https://api.github.com/users/luke-jr/repos",
    "events_url": "https://api.github.com/users/luke-jr/events{/privacy}",
    "received_events_url": "https://api.github.com/users/luke-jr/received_events",
    "type": "User",
    "site_admin": false
  },
  "labels": [
    {
      "id": 5334691551,
      "node_id": "LA_kwDOABII588AAAABPfju3w",
      "url": "https://api.github.com/repos/bitcoin/bitcoin/labels/CI%20failed",
      "name": "CI failed",
      "color": "cccccc",
      "default": false,
      "description": ""
    }
  ],
  "state": "closed",
  "locked": false,
  "assignee": null,
  "assignees": [

  ],
  "milestone": null,
  "comments": 5,
  "created_at": "2023-07-04T18:01:10Z",
  "updated_at": "2024-04-09T14:47:24Z",
  "closed_at": "2024-04-09T14:47:24Z",
  "author_association": "MEMBER",
  "active_lock_reason": null,
  "draft": false,
  "pull_request": {
    "url": "https://api.github.com/repos/bitcoin/bitcoin/pulls/28029",
    "html_url": "https://github.com/bitcoin/bitcoin/pull/28029",
    "diff_url": "https://github.com/bitcoin/bitcoin/pull/28029.diff",
    "patch_url": "https://github.com/bitcoin/bitcoin/pull/28029.patch",
    "merged_at": null
  },
  "body_html": "<p dir=\"auto\">Behaves better if abnormal issues occur</p>",
  "body_text": "Behaves better if abnormal issues occur",
  "body": "Behaves better if abnormal issues occur",
  "closed_by": {
    "login": "achow101",
    "id": 3782274,
    "node_id": "MDQ6VXNlcjM3ODIyNzQ=",
    "avatar_url": "https://avatars.githubusercontent.com/u/3782274?v=4",
    "gravatar_id": "",
    "url": "https://api.github.com/users/achow101",
    "html_url": "https://github.com/achow101",
    "followers_url": "https://api.github.com/users/achow101/followers",
    "following_url": "https://api.github.com/users/achow101/following{/other_user}",
    "gists_url": "https://api.github.com/users/achow101/gists{/gist_id}",
    "starred_url": "https://api.github.com/users/achow101/starred{/owner}{/repo}",
    "subscriptions_url": "https://api.github.com/users/achow101/subscriptions",
    "organizations_url": "https://api.github.com/users/achow101/orgs",
    "repos_url": "https://api.github.com/users/achow101/repos",
    "events_url": "https://api.github.com/users/achow101/events{/privacy}",
    "received_events_url": "https://api.github.com/users/achow101/received_events",
    "type": "User",
    "site_admin": false
  },
  "reactions": {
    "url": "https://api.github.com/repos/bitcoin/bitcoin/issues/28029/reactions",
    "total_count": 0,
    "+1": 0,
    "-1": 0,
    "laugh": 0,
    "hooray": 0,
    "confused": 0,
    "heart": 0,
    "rocket": 0,
    "eyes": 0
  },
  "timeline_url": "https://api.github.com/repos/bitcoin/bitcoin/issues/28029/timeline",
  "performed_via_github_app": null,
  "state_reason": null
}
