{
  "url": "https://api.github.com/repos/bitcoin/bitcoin/issues/16336",
  "repository_url": "https://api.github.com/repos/bitcoin/bitcoin",
  "labels_url": "https://api.github.com/repos/bitcoin/bitcoin/issues/16336/labels{/name}",
  "comments_url": "https://api.github.com/repos/bitcoin/bitcoin/issues/16336/comments",
  "events_url": "https://api.github.com/repos/bitcoin/bitcoin/issues/16336/events",
  "html_url": "https://github.com/bitcoin/bitcoin/pull/16336",
  "id": 464020490,
  "node_id": "MDExOlB1bGxSZXF1ZXN0Mjk0Mzg0ODg2",
  "number": 16336,
  "title": "[lib] Refactor bloom filter class data member names",
  "user": {
    "login": "qmma70",
    "id": 5808517,
    "node_id": "MDQ6VXNlcjU4MDg1MTc=",
    "avatar_url": "https://avatars.githubusercontent.com/u/5808517?v=4",
    "gravatar_id": "",
    "url": "https://api.github.com/users/qmma70",
    "html_url": "https://github.com/qmma70",
    "followers_url": "https://api.github.com/users/qmma70/followers",
    "following_url": "https://api.github.com/users/qmma70/following{/other_user}",
    "gists_url": "https://api.github.com/users/qmma70/gists{/gist_id}",
    "starred_url": "https://api.github.com/users/qmma70/starred{/owner}{/repo}",
    "subscriptions_url": "https://api.github.com/users/qmma70/subscriptions",
    "organizations_url": "https://api.github.com/users/qmma70/orgs",
    "repos_url": "https://api.github.com/users/qmma70/repos",
    "events_url": "https://api.github.com/users/qmma70/events{/privacy}",
    "received_events_url": "https://api.github.com/users/qmma70/received_events",
    "type": "User",
    "site_admin": false
  },
  "labels": [
    {
      "id": 135961,
      "node_id": "MDU6TGFiZWwxMzU5NjE=",
      "url": "https://api.github.com/repos/bitcoin/bitcoin/labels/Refactoring",
      "name": "Refactoring",
      "color": "E6F6D6",
      "default": false,
      "description": null
    }
  ],
  "state": "closed",
  "locked": true,
  "assignee": null,
  "assignees": [

  ],
  "milestone": null,
  "comments": 2,
  "created_at": "2019-07-04T01:44:03Z",
  "updated_at": "2021-12-16T13:59:38Z",
  "closed_at": "2019-07-04T03:49:20Z",
  "author_association": "CONTRIBUTOR",
  "active_lock_reason": "resolved",
  "draft": false,
  "pull_request": {
    "url": "https://api.github.com/repos/bitcoin/bitcoin/pulls/16336",
    "html_url": "https://github.com/bitcoin/bitcoin/pull/16336",
    "diff_url": "https://github.com/bitcoin/bitcoin/pull/16336.diff",
    "patch_url": "https://github.com/bitcoin/bitcoin/pull/16336.patch",
    "merged_at": null
  },
  "body_html": "<blockquote>\n<p dir=\"auto\">Class member variables have a <code class=\"notranslate\">m_</code> prefix.</p>\n</blockquote>\n<p dir=\"auto\">Refactor data members of <code class=\"notranslate\">CBloomFilter</code> and <code class=\"notranslate\">CRollingBloomFilter</code> following the above convention to make them more obvious to maintainers.</p>",
  "body_text": "Class member variables have a m_ prefix.\n\nRefactor data members of CBloomFilter and CRollingBloomFilter following the above convention to make them more obvious to maintainers.",
  "body": "> Class member variables have a `m_` prefix.\r\n\r\nRefactor data members of `CBloomFilter` and `CRollingBloomFilter` following the above convention to make them more obvious to maintainers.",
  "closed_by": {
    "login": "fanquake",
    "id": 863730,
    "node_id": "MDQ6VXNlcjg2MzczMA==",
    "avatar_url": "https://avatars.githubusercontent.com/u/863730?v=4",
    "gravatar_id": "",
    "url": "https://api.github.com/users/fanquake",
    "html_url": "https://github.com/fanquake",
    "followers_url": "https://api.github.com/users/fanquake/followers",
    "following_url": "https://api.github.com/users/fanquake/following{/other_user}",
    "gists_url": "https://api.github.com/users/fanquake/gists{/gist_id}",
    "starred_url": "https://api.github.com/users/fanquake/starred{/owner}{/repo}",
    "subscriptions_url": "https://api.github.com/users/fanquake/subscriptions",
    "organizations_url": "https://api.github.com/users/fanquake/orgs",
    "repos_url": "https://api.github.com/users/fanquake/repos",
    "events_url": "https://api.github.com/users/fanquake/events{/privacy}",
    "received_events_url": "https://api.github.com/users/fanquake/received_events",
    "type": "User",
    "site_admin": false
  },
  "reactions": {
    "url": "https://api.github.com/repos/bitcoin/bitcoin/issues/16336/reactions",
    "total_count": 0,
    "+1": 0,
    "-1": 0,
    "laugh": 0,
    "hooray": 0,
    "confused": 0,
    "heart": 0,
    "rocket": 0,
    "eyes": 0
  },
  "timeline_url": "https://api.github.com/repos/bitcoin/bitcoin/issues/16336/timeline",
  "performed_via_github_app": null,
  "state_reason": null
}
