{
  "url": "https://api.github.com/repos/bitcoin/bitcoin/issues/21485",
  "repository_url": "https://api.github.com/repos/bitcoin/bitcoin",
  "labels_url": "https://api.github.com/repos/bitcoin/bitcoin/issues/21485/labels{/name}",
  "comments_url": "https://api.github.com/repos/bitcoin/bitcoin/issues/21485/comments",
  "events_url": "https://api.github.com/repos/bitcoin/bitcoin/issues/21485/events",
  "html_url": "https://github.com/bitcoin/bitcoin/issues/21485",
  "id": 836768017,
  "node_id": "MDU6SXNzdWU4MzY3NjgwMTc=",
  "number": 21485,
  "title": "(v0.20.1) Not compiling on Illumos/SmartOS",
  "user": {
    "login": "kayront",
    "id": 46160648,
    "node_id": "MDQ6VXNlcjQ2MTYwNjQ4",
    "avatar_url": "https://avatars.githubusercontent.com/u/46160648?v=4",
    "gravatar_id": "",
    "url": "https://api.github.com/users/kayront",
    "html_url": "https://github.com/kayront",
    "followers_url": "https://api.github.com/users/kayront/followers",
    "following_url": "https://api.github.com/users/kayront/following{/other_user}",
    "gists_url": "https://api.github.com/users/kayront/gists{/gist_id}",
    "starred_url": "https://api.github.com/users/kayront/starred{/owner}{/repo}",
    "subscriptions_url": "https://api.github.com/users/kayront/subscriptions",
    "organizations_url": "https://api.github.com/users/kayront/orgs",
    "repos_url": "https://api.github.com/users/kayront/repos",
    "events_url": "https://api.github.com/users/kayront/events{/privacy}",
    "received_events_url": "https://api.github.com/users/kayront/received_events",
    "type": "User",
    "site_admin": false
  },
  "labels": [
    {
      "id": 64585,
      "node_id": "MDU6TGFiZWw2NDU4NQ==",
      "url": "https://api.github.com/repos/bitcoin/bitcoin/labels/Bug",
      "name": "Bug",
      "color": "FBBAAB",
      "default": false,
      "description": null
    }
  ],
  "state": "closed",
  "locked": true,
  "assignee": null,
  "assignees": [

  ],
  "milestone": null,
  "comments": 11,
  "created_at": "2021-03-20T09:49:52Z",
  "updated_at": "2022-08-18T18:34:56Z",
  "closed_at": "2021-03-31T06:38:16Z",
  "author_association": "NONE",
  "active_lock_reason": "resolved",
  "body_html": "<div class=\"snippet-clipboard-content notranslate position-relative overflow-auto\" data-snippet-clipboard-copy-content=\"$ bmake\n=&gt; Bootstrap dependency digest&gt;=20010302: found digest-20190127\n===&gt; Building for bitcoin-0.20.1nb3\nMaking all in src\ngmake[1]: Entering directory '/home/pbulk/build/finance/bitcoin/work/bitcoin-0.20.1/src'\ngmake[2]: Entering directory '/home/pbulk/build/finance/bitcoin/work/bitcoin-0.20.1/src'\ngmake[3]: Entering directory '/home/pbulk/build/finance/bitcoin/work/bitcoin-0.20.1'\ngmake[3]: Leaving directory '/home/pbulk/build/finance/bitcoin/work/bitcoin-0.20.1'\n  CXXLD    bitcoin-tx\nUndefined                       first referenced\n symbol                             in file\nfreeifaddrs                         libbitcoin_util.a(libbitcoin_util_a-randomenv.o)\ngetifaddrs                          libbitcoin_util.a(libbitcoin_util_a-randomenv.o)\nld: fatal: symbol referencing errors. No output written to .libs/bitcoin-tx\ncollect2: error: ld returned 1 exit status\ngmake[2]: *** [Makefile:7355: bitcoin-tx] Error 1\ngmake[2]: Leaving directory '/home/pbulk/build/finance/bitcoin/work/bitcoin-0.20.1/src'\ngmake[1]: *** [Makefile:17263: all-recursive] Error 1\ngmake[1]: Leaving directory '/home/pbulk/build/finance/bitcoin/work/bitcoin-0.20.1/src'\ngmake: *** [Makefile:782: all-recursive] Error 1\n*** Error code 2\n\nStop.\nbmake[1]: stopped in /data/pkgsrc/finance/bitcoin\n*** Error code 1\"><pre class=\"notranslate\"><code class=\"notranslate\">$ bmake\n=&gt; Bootstrap dependency digest&gt;=20010302: found digest-20190127\n===&gt; Building for bitcoin-0.20.1nb3\nMaking all in src\ngmake[1]: Entering directory '/home/pbulk/build/finance/bitcoin/work/bitcoin-0.20.1/src'\ngmake[2]: Entering directory '/home/pbulk/build/finance/bitcoin/work/bitcoin-0.20.1/src'\ngmake[3]: Entering directory '/home/pbulk/build/finance/bitcoin/work/bitcoin-0.20.1'\ngmake[3]: Leaving directory '/home/pbulk/build/finance/bitcoin/work/bitcoin-0.20.1'\n  CXXLD    bitcoin-tx\nUndefined                       first referenced\n symbol                             in file\nfreeifaddrs                         libbitcoin_util.a(libbitcoin_util_a-randomenv.o)\ngetifaddrs                          libbitcoin_util.a(libbitcoin_util_a-randomenv.o)\nld: fatal: symbol referencing errors. No output written to .libs/bitcoin-tx\ncollect2: error: ld returned 1 exit status\ngmake[2]: *** [Makefile:7355: bitcoin-tx] Error 1\ngmake[2]: Leaving directory '/home/pbulk/build/finance/bitcoin/work/bitcoin-0.20.1/src'\ngmake[1]: *** [Makefile:17263: all-recursive] Error 1\ngmake[1]: Leaving directory '/home/pbulk/build/finance/bitcoin/work/bitcoin-0.20.1/src'\ngmake: *** [Makefile:782: all-recursive] Error 1\n*** Error code 2\n\nStop.\nbmake[1]: stopped in /data/pkgsrc/finance/bitcoin\n*** Error code 1\n</code></pre></div>\n<p dir=\"auto\">I found <a href=\"https://github.com/pydron/ifaddr/issues/23\" data-hovercard-type=\"issue\" data-hovercard-url=\"/ifaddr/ifaddr/issues/23/hovercard\">this</a>, which seems to be the same issue, but on a Python context.</p>\n<p dir=\"auto\">Previous issues with compiling on Illumos seem to have been sorted out (<a class=\"issue-link js-issue-link\" data-error-text=\"Failed to load title\" data-id=\"427367499\" data-permission-text=\"Title is private\" data-url=\"https://github.com/bitcoin/bitcoin/issues/15708\" data-hovercard-type=\"issue\" data-hovercard-url=\"/bitcoin/bitcoin/issues/15708/hovercard\" href=\"https://github.com/bitcoin/bitcoin/issues/15708\">#15708</a> &amp; more), but now it's stuck here.</p>",
  "body_text": "$ bmake\n=> Bootstrap dependency digest>=20010302: found digest-20190127\n===> Building for bitcoin-0.20.1nb3\nMaking all in src\ngmake[1]: Entering directory '/home/pbulk/build/finance/bitcoin/work/bitcoin-0.20.1/src'\ngmake[2]: Entering directory '/home/pbulk/build/finance/bitcoin/work/bitcoin-0.20.1/src'\ngmake[3]: Entering directory '/home/pbulk/build/finance/bitcoin/work/bitcoin-0.20.1'\ngmake[3]: Leaving directory '/home/pbulk/build/finance/bitcoin/work/bitcoin-0.20.1'\n  CXXLD    bitcoin-tx\nUndefined                       first referenced\n symbol                             in file\nfreeifaddrs                         libbitcoin_util.a(libbitcoin_util_a-randomenv.o)\ngetifaddrs                          libbitcoin_util.a(libbitcoin_util_a-randomenv.o)\nld: fatal: symbol referencing errors. No output written to .libs/bitcoin-tx\ncollect2: error: ld returned 1 exit status\ngmake[2]: *** [Makefile:7355: bitcoin-tx] Error 1\ngmake[2]: Leaving directory '/home/pbulk/build/finance/bitcoin/work/bitcoin-0.20.1/src'\ngmake[1]: *** [Makefile:17263: all-recursive] Error 1\ngmake[1]: Leaving directory '/home/pbulk/build/finance/bitcoin/work/bitcoin-0.20.1/src'\ngmake: *** [Makefile:782: all-recursive] Error 1\n*** Error code 2\n\nStop.\nbmake[1]: stopped in /data/pkgsrc/finance/bitcoin\n*** Error code 1\n\nI found this, which seems to be the same issue, but on a Python context.\nPrevious issues with compiling on Illumos seem to have been sorted out (#15708 & more), but now it's stuck here.",
  "body": "```\r\n$ bmake\r\n=> Bootstrap dependency digest>=20010302: found digest-20190127\r\n===> Building for bitcoin-0.20.1nb3\r\nMaking all in src\r\ngmake[1]: Entering directory '/home/pbulk/build/finance/bitcoin/work/bitcoin-0.20.1/src'\r\ngmake[2]: Entering directory '/home/pbulk/build/finance/bitcoin/work/bitcoin-0.20.1/src'\r\ngmake[3]: Entering directory '/home/pbulk/build/finance/bitcoin/work/bitcoin-0.20.1'\r\ngmake[3]: Leaving directory '/home/pbulk/build/finance/bitcoin/work/bitcoin-0.20.1'\r\n  CXXLD    bitcoin-tx\r\nUndefined                       first referenced\r\n symbol                             in file\r\nfreeifaddrs                         libbitcoin_util.a(libbitcoin_util_a-randomenv.o)\r\ngetifaddrs                          libbitcoin_util.a(libbitcoin_util_a-randomenv.o)\r\nld: fatal: symbol referencing errors. No output written to .libs/bitcoin-tx\r\ncollect2: error: ld returned 1 exit status\r\ngmake[2]: *** [Makefile:7355: bitcoin-tx] Error 1\r\ngmake[2]: Leaving directory '/home/pbulk/build/finance/bitcoin/work/bitcoin-0.20.1/src'\r\ngmake[1]: *** [Makefile:17263: all-recursive] Error 1\r\ngmake[1]: Leaving directory '/home/pbulk/build/finance/bitcoin/work/bitcoin-0.20.1/src'\r\ngmake: *** [Makefile:782: all-recursive] Error 1\r\n*** Error code 2\r\n\r\nStop.\r\nbmake[1]: stopped in /data/pkgsrc/finance/bitcoin\r\n*** Error code 1\r\n```\r\n\r\nI found [this](https://github.com/pydron/ifaddr/issues/23), which seems to be the same issue, but on a Python context.\r\n\r\nPrevious issues with compiling on Illumos seem to have been sorted out (#15708 & more), but now it's stuck here.",
  "closed_by": {
    "login": "fanquake",
    "id": 863730,
    "node_id": "MDQ6VXNlcjg2MzczMA==",
    "avatar_url": "https://avatars.githubusercontent.com/u/863730?v=4",
    "gravatar_id": "",
    "url": "https://api.github.com/users/fanquake",
    "html_url": "https://github.com/fanquake",
    "followers_url": "https://api.github.com/users/fanquake/followers",
    "following_url": "https://api.github.com/users/fanquake/following{/other_user}",
    "gists_url": "https://api.github.com/users/fanquake/gists{/gist_id}",
    "starred_url": "https://api.github.com/users/fanquake/starred{/owner}{/repo}",
    "subscriptions_url": "https://api.github.com/users/fanquake/subscriptions",
    "organizations_url": "https://api.github.com/users/fanquake/orgs",
    "repos_url": "https://api.github.com/users/fanquake/repos",
    "events_url": "https://api.github.com/users/fanquake/events{/privacy}",
    "received_events_url": "https://api.github.com/users/fanquake/received_events",
    "type": "User",
    "site_admin": false
  },
  "reactions": {
    "url": "https://api.github.com/repos/bitcoin/bitcoin/issues/21485/reactions",
    "total_count": 0,
    "+1": 0,
    "-1": 0,
    "laugh": 0,
    "hooray": 0,
    "confused": 0,
    "heart": 0,
    "rocket": 0,
    "eyes": 0
  },
  "timeline_url": "https://api.github.com/repos/bitcoin/bitcoin/issues/21485/timeline",
  "performed_via_github_app": null,
  "state_reason": "completed"
}
