{
  "url": "https://api.github.com/repos/bitcoin/bitcoin/issues/4849",
  "repository_url": "https://api.github.com/repos/bitcoin/bitcoin",
  "labels_url": "https://api.github.com/repos/bitcoin/bitcoin/issues/4849/labels{/name}",
  "comments_url": "https://api.github.com/repos/bitcoin/bitcoin/issues/4849/comments",
  "events_url": "https://api.github.com/repos/bitcoin/bitcoin/issues/4849/events",
  "html_url": "https://github.com/bitcoin/bitcoin/pull/4849",
  "id": 42022366,
  "node_id": "MDExOlB1bGxSZXF1ZXN0MjA3OTI3OTg=",
  "number": 4849,
  "title": "remove dup include of foreach.hpp in script.cpp",
  "user": {
    "login": "Diapolo",
    "id": 1419649,
    "node_id": "MDQ6VXNlcjE0MTk2NDk=",
    "avatar_url": "https://avatars.githubusercontent.com/u/1419649?v=4",
    "gravatar_id": "",
    "url": "https://api.github.com/users/Diapolo",
    "html_url": "https://github.com/Diapolo",
    "followers_url": "https://api.github.com/users/Diapolo/followers",
    "following_url": "https://api.github.com/users/Diapolo/following{/other_user}",
    "gists_url": "https://api.github.com/users/Diapolo/gists{/gist_id}",
    "starred_url": "https://api.github.com/users/Diapolo/starred{/owner}{/repo}",
    "subscriptions_url": "https://api.github.com/users/Diapolo/subscriptions",
    "organizations_url": "https://api.github.com/users/Diapolo/orgs",
    "repos_url": "https://api.github.com/users/Diapolo/repos",
    "events_url": "https://api.github.com/users/Diapolo/events{/privacy}",
    "received_events_url": "https://api.github.com/users/Diapolo/received_events",
    "type": "User",
    "site_admin": false
  },
  "labels": [

  ],
  "state": "closed",
  "locked": true,
  "assignee": null,
  "assignees": [

  ],
  "milestone": null,
  "comments": 1,
  "created_at": "2014-09-05T07:50:01Z",
  "updated_at": "2021-09-08T10:51:54Z",
  "closed_at": "2014-09-05T20:54:27Z",
  "author_association": "NONE",
  "active_lock_reason": "resolved",
  "draft": false,
  "pull_request": {
    "url": "https://api.github.com/repos/bitcoin/bitcoin/pulls/4849",
    "html_url": "https://github.com/bitcoin/bitcoin/pull/4849",
    "diff_url": "https://github.com/bitcoin/bitcoin/pull/4849.diff",
    "patch_url": "https://github.com/bitcoin/bitcoin/pull/4849.patch",
    "merged_at": "2014-09-05T20:54:27Z"
  },
  "body_html": "",
  "body_text": "",
  "body": "",
  "closed_by": {
    "login": "sipa",
    "id": 548488,
    "node_id": "MDQ6VXNlcjU0ODQ4OA==",
    "avatar_url": "https://avatars.githubusercontent.com/u/548488?v=4",
    "gravatar_id": "",
    "url": "https://api.github.com/users/sipa",
    "html_url": "https://github.com/sipa",
    "followers_url": "https://api.github.com/users/sipa/followers",
    "following_url": "https://api.github.com/users/sipa/following{/other_user}",
    "gists_url": "https://api.github.com/users/sipa/gists{/gist_id}",
    "starred_url": "https://api.github.com/users/sipa/starred{/owner}{/repo}",
    "subscriptions_url": "https://api.github.com/users/sipa/subscriptions",
    "organizations_url": "https://api.github.com/users/sipa/orgs",
    "repos_url": "https://api.github.com/users/sipa/repos",
    "events_url": "https://api.github.com/users/sipa/events{/privacy}",
    "received_events_url": "https://api.github.com/users/sipa/received_events",
    "type": "User",
    "site_admin": false
  },
  "reactions": {
    "url": "https://api.github.com/repos/bitcoin/bitcoin/issues/4849/reactions",
    "total_count": 0,
    "+1": 0,
    "-1": 0,
    "laugh": 0,
    "hooray": 0,
    "confused": 0,
    "heart": 0,
    "rocket": 0,
    "eyes": 0
  },
  "timeline_url": "https://api.github.com/repos/bitcoin/bitcoin/issues/4849/timeline",
  "performed_via_github_app": null,
  "state_reason": null
}
