[
  {
    "url": "https://api.github.com/repos/bitcoin/bitcoin/issues/comments/546321220",
    "html_url": "https://github.com/bitcoin/bitcoin/issues/17248#issuecomment-546321220",
    "issue_url": "https://api.github.com/repos/bitcoin/bitcoin/issues/17248",
    "id": 546321220,
    "node_id": "MDEyOklzc3VlQ29tbWVudDU0NjMyMTIyMA==",
    "user": {
      "login": "maflcko",
      "id": 6399679,
      "node_id": "MDQ6VXNlcjYzOTk2Nzk=",
      "avatar_url": "https://avatars.githubusercontent.com/u/6399679?v=4",
      "gravatar_id": "",
      "url": "https://api.github.com/users/maflcko",
      "html_url": "https://github.com/maflcko",
      "followers_url": "https://api.github.com/users/maflcko/followers",
      "following_url": "https://api.github.com/users/maflcko/following{/other_user}",
      "gists_url": "https://api.github.com/users/maflcko/gists{/gist_id}",
      "starred_url": "https://api.github.com/users/maflcko/starred{/owner}{/repo}",
      "subscriptions_url": "https://api.github.com/users/maflcko/subscriptions",
      "organizations_url": "https://api.github.com/users/maflcko/orgs",
      "repos_url": "https://api.github.com/users/maflcko/repos",
      "events_url": "https://api.github.com/users/maflcko/events{/privacy}",
      "received_events_url": "https://api.github.com/users/maflcko/received_events",
      "type": "User",
      "site_admin": false
    },
    "created_at": "2019-10-25T11:43:24Z",
    "updated_at": "2019-10-25T11:43:24Z",
    "author_association": "MEMBER",
    "body_html": "<p dir=\"auto\">For example, just one of the bugs I ran into due to this: <a class=\"issue-link js-issue-link\" data-error-text=\"Failed to load title\" data-id=\"511516511\" data-permission-text=\"Title is private\" data-url=\"https://github.com/bitcoin/bitcoin/issues/17233\" data-hovercard-type=\"pull_request\" data-hovercard-url=\"/bitcoin/bitcoin/pull/17233/hovercard?comment_id=546123636&amp;comment_type=issue_comment\" href=\"https://github.com/bitcoin/bitcoin/pull/17233#issuecomment-546123636\">#17233 (comment)</a></p>",
    "body_text": "For example, just one of the bugs I ran into due to this: #17233 (comment)",
    "body": "For example, just one of the bugs I ran into due to this: https://github.com/bitcoin/bitcoin/pull/17233#issuecomment-546123636",
    "reactions": {
      "url": "https://api.github.com/repos/bitcoin/bitcoin/issues/comments/546321220/reactions",
      "total_count": 0,
      "+1": 0,
      "-1": 0,
      "laugh": 0,
      "hooray": 0,
      "confused": 0,
      "heart": 0,
      "rocket": 0,
      "eyes": 0
    },
    "performed_via_github_app": null
  },
  {
    "url": "https://api.github.com/repos/bitcoin/bitcoin/issues/comments/546321319",
    "html_url": "https://github.com/bitcoin/bitcoin/issues/17248#issuecomment-546321319",
    "issue_url": "https://api.github.com/repos/bitcoin/bitcoin/issues/17248",
    "id": 546321319,
    "node_id": "MDEyOklzc3VlQ29tbWVudDU0NjMyMTMxOQ==",
    "user": {
      "login": "maflcko",
      "id": 6399679,
      "node_id": "MDQ6VXNlcjYzOTk2Nzk=",
      "avatar_url": "https://avatars.githubusercontent.com/u/6399679?v=4",
      "gravatar_id": "",
      "url": "https://api.github.com/users/maflcko",
      "html_url": "https://github.com/maflcko",
      "followers_url": "https://api.github.com/users/maflcko/followers",
      "following_url": "https://api.github.com/users/maflcko/following{/other_user}",
      "gists_url": "https://api.github.com/users/maflcko/gists{/gist_id}",
      "starred_url": "https://api.github.com/users/maflcko/starred{/owner}{/repo}",
      "subscriptions_url": "https://api.github.com/users/maflcko/subscriptions",
      "organizations_url": "https://api.github.com/users/maflcko/orgs",
      "repos_url": "https://api.github.com/users/maflcko/repos",
      "events_url": "https://api.github.com/users/maflcko/events{/privacy}",
      "received_events_url": "https://api.github.com/users/maflcko/received_events",
      "type": "User",
      "site_admin": false
    },
    "created_at": "2019-10-25T11:43:48Z",
    "updated_at": "2019-10-25T11:43:48Z",
    "author_association": "MEMBER",
    "body_html": "<p dir=\"auto\"><a class=\"user-mention notranslate\" data-hovercard-type=\"user\" data-hovercard-url=\"/users/dongcarl/hovercard\" data-octo-click=\"hovercard-link-click\" data-octo-dimensions=\"link_type:self\" href=\"https://github.com/dongcarl\">@dongcarl</a> <a class=\"user-mention notranslate\" data-hovercard-type=\"user\" data-hovercard-url=\"/users/theuni/hovercard\" data-octo-click=\"hovercard-link-click\" data-octo-dimensions=\"link_type:self\" href=\"https://github.com/theuni\">@theuni</a> Any thoughts or objections?</p>",
    "body_text": "@dongcarl @theuni Any thoughts or objections?",
    "body": "@dongcarl @theuni Any thoughts or objections?",
    "reactions": {
      "url": "https://api.github.com/repos/bitcoin/bitcoin/issues/comments/546321319/reactions",
      "total_count": 0,
      "+1": 0,
      "-1": 0,
      "laugh": 0,
      "hooray": 0,
      "confused": 0,
      "heart": 0,
      "rocket": 0,
      "eyes": 0
    },
    "performed_via_github_app": null
  },
  {
    "url": "https://api.github.com/repos/bitcoin/bitcoin/issues/comments/562065635",
    "html_url": "https://github.com/bitcoin/bitcoin/issues/17248#issuecomment-562065635",
    "issue_url": "https://api.github.com/repos/bitcoin/bitcoin/issues/17248",
    "id": 562065635,
    "node_id": "MDEyOklzc3VlQ29tbWVudDU2MjA2NTYzNQ==",
    "user": {
      "login": "elichai",
      "id": 2167860,
      "node_id": "MDQ6VXNlcjIxNjc4NjA=",
      "avatar_url": "https://avatars.githubusercontent.com/u/2167860?v=4",
      "gravatar_id": "",
      "url": "https://api.github.com/users/elichai",
      "html_url": "https://github.com/elichai",
      "followers_url": "https://api.github.com/users/elichai/followers",
      "following_url": "https://api.github.com/users/elichai/following{/other_user}",
      "gists_url": "https://api.github.com/users/elichai/gists{/gist_id}",
      "starred_url": "https://api.github.com/users/elichai/starred{/owner}{/repo}",
      "subscriptions_url": "https://api.github.com/users/elichai/subscriptions",
      "organizations_url": "https://api.github.com/users/elichai/orgs",
      "repos_url": "https://api.github.com/users/elichai/repos",
      "events_url": "https://api.github.com/users/elichai/events{/privacy}",
      "received_events_url": "https://api.github.com/users/elichai/received_events",
      "type": "User",
      "site_admin": false
    },
    "created_at": "2019-12-05T10:20:39Z",
    "updated_at": "2019-12-05T10:20:39Z",
    "author_association": "CONTRIBUTOR",
    "body_html": "<p dir=\"auto\">How much time penalty we get by removing these two lines? <a href=\"https://github.com/bitcoin/bitcoin/blob/master/.travis.yml#L35:L36\">https://github.com/bitcoin/bitcoin/blob/master/.travis.yml#L35:L36</a></p>\n<p dir=\"auto\">We could also mount the ccache dir to the dockers and install+run ccache in the dockers.<br>\nthat way we <em>only</em> cache the ccache dir</p>",
    "body_text": "How much time penalty we get by removing these two lines? https://github.com/bitcoin/bitcoin/blob/master/.travis.yml#L35:L36\nWe could also mount the ccache dir to the dockers and install+run ccache in the dockers.\nthat way we only cache the ccache dir",
    "body": "How much time penalty we get by removing these two lines? https://github.com/bitcoin/bitcoin/blob/master/.travis.yml#L35:L36\r\n\r\nWe could also mount the ccache dir to the dockers and install+run ccache in the dockers.\r\nthat way we *only* cache the ccache dir",
    "reactions": {
      "url": "https://api.github.com/repos/bitcoin/bitcoin/issues/comments/562065635/reactions",
      "total_count": 0,
      "+1": 0,
      "-1": 0,
      "laugh": 0,
      "hooray": 0,
      "confused": 0,
      "heart": 0,
      "rocket": 0,
      "eyes": 0
    },
    "performed_via_github_app": null
  },
  {
    "url": "https://api.github.com/repos/bitcoin/bitcoin/issues/comments/562068811",
    "html_url": "https://github.com/bitcoin/bitcoin/issues/17248#issuecomment-562068811",
    "issue_url": "https://api.github.com/repos/bitcoin/bitcoin/issues/17248",
    "id": 562068811,
    "node_id": "MDEyOklzc3VlQ29tbWVudDU2MjA2ODgxMQ==",
    "user": {
      "login": "laanwj",
      "id": 126646,
      "node_id": "MDQ6VXNlcjEyNjY0Ng==",
      "avatar_url": "https://avatars.githubusercontent.com/u/126646?v=4",
      "gravatar_id": "",
      "url": "https://api.github.com/users/laanwj",
      "html_url": "https://github.com/laanwj",
      "followers_url": "https://api.github.com/users/laanwj/followers",
      "following_url": "https://api.github.com/users/laanwj/following{/other_user}",
      "gists_url": "https://api.github.com/users/laanwj/gists{/gist_id}",
      "starred_url": "https://api.github.com/users/laanwj/starred{/owner}{/repo}",
      "subscriptions_url": "https://api.github.com/users/laanwj/subscriptions",
      "organizations_url": "https://api.github.com/users/laanwj/orgs",
      "repos_url": "https://api.github.com/users/laanwj/repos",
      "events_url": "https://api.github.com/users/laanwj/events{/privacy}",
      "received_events_url": "https://api.github.com/users/laanwj/received_events",
      "type": "User",
      "site_admin": false
    },
    "created_at": "2019-12-05T10:28:33Z",
    "updated_at": "2019-12-05T10:28:33Z",
    "author_association": "MEMBER",
    "body_html": "<blockquote>\n<p dir=\"auto\">How much time penalty we get by removing these two lines? <a href=\"https://github.com/bitcoin/bitcoin/blob/master/.travis.yml#L35:L36\">https://github.com/bitcoin/bitcoin/blob/master/.travis.yml#L35:L36</a></p>\n</blockquote>\n<p dir=\"auto\">What would that do?<br>\nIf it causes a depends rebuild on every travis run, especially with the runs with Qt included, you're looking at hour(s).</p>",
    "body_text": "How much time penalty we get by removing these two lines? https://github.com/bitcoin/bitcoin/blob/master/.travis.yml#L35:L36\n\nWhat would that do?\nIf it causes a depends rebuild on every travis run, especially with the runs with Qt included, you're looking at hour(s).",
    "body": "> How much time penalty we get by removing these two lines? https://github.com/bitcoin/bitcoin/blob/master/.travis.yml#L35:L36\r\n\r\nWhat would that do?\r\nIf it causes a depends rebuild on every travis run, especially with the runs with Qt included, you're looking at hour(s).\r\n",
    "reactions": {
      "url": "https://api.github.com/repos/bitcoin/bitcoin/issues/comments/562068811/reactions",
      "total_count": 0,
      "+1": 0,
      "-1": 0,
      "laugh": 0,
      "hooray": 0,
      "confused": 0,
      "heart": 0,
      "rocket": 0,
      "eyes": 0
    },
    "performed_via_github_app": null
  },
  {
    "url": "https://api.github.com/repos/bitcoin/bitcoin/issues/comments/562082416",
    "html_url": "https://github.com/bitcoin/bitcoin/issues/17248#issuecomment-562082416",
    "issue_url": "https://api.github.com/repos/bitcoin/bitcoin/issues/17248",
    "id": 562082416,
    "node_id": "MDEyOklzc3VlQ29tbWVudDU2MjA4MjQxNg==",
    "user": {
      "login": "elichai",
      "id": 2167860,
      "node_id": "MDQ6VXNlcjIxNjc4NjA=",
      "avatar_url": "https://avatars.githubusercontent.com/u/2167860?v=4",
      "gravatar_id": "",
      "url": "https://api.github.com/users/elichai",
      "html_url": "https://github.com/elichai",
      "followers_url": "https://api.github.com/users/elichai/followers",
      "following_url": "https://api.github.com/users/elichai/following{/other_user}",
      "gists_url": "https://api.github.com/users/elichai/gists{/gist_id}",
      "starred_url": "https://api.github.com/users/elichai/starred{/owner}{/repo}",
      "subscriptions_url": "https://api.github.com/users/elichai/subscriptions",
      "organizations_url": "https://api.github.com/users/elichai/orgs",
      "repos_url": "https://api.github.com/users/elichai/repos",
      "events_url": "https://api.github.com/users/elichai/events{/privacy}",
      "received_events_url": "https://api.github.com/users/elichai/received_events",
      "type": "User",
      "site_admin": false
    },
    "created_at": "2019-12-05T11:05:52Z",
    "updated_at": "2019-12-05T11:05:52Z",
    "author_association": "CONTRIBUTOR",
    "body_html": "<blockquote>\n<blockquote>\n<p dir=\"auto\">How much time penalty we get by removing these two lines? <a href=\"https://github.com/bitcoin/bitcoin/blob/master/.travis.yml#L35:L36\">https://github.com/bitcoin/bitcoin/blob/master/.travis.yml#L35:L36</a></p>\n</blockquote>\n<p dir=\"auto\">What would that do?<br>\nIf it causes a depends rebuild on every travis run, especially with the runs with Qt included, you're looking at hour(s).</p>\n</blockquote>\n<p dir=\"auto\">even with ccache?</p>",
    "body_text": "How much time penalty we get by removing these two lines? https://github.com/bitcoin/bitcoin/blob/master/.travis.yml#L35:L36\n\nWhat would that do?\nIf it causes a depends rebuild on every travis run, especially with the runs with Qt included, you're looking at hour(s).\n\neven with ccache?",
    "body": "> > How much time penalty we get by removing these two lines? https://github.com/bitcoin/bitcoin/blob/master/.travis.yml#L35:L36\r\n> \r\n> What would that do?\r\n> If it causes a depends rebuild on every travis run, especially with the runs with Qt included, you're looking at hour(s).\r\n\r\neven with ccache?",
    "reactions": {
      "url": "https://api.github.com/repos/bitcoin/bitcoin/issues/comments/562082416/reactions",
      "total_count": 0,
      "+1": 0,
      "-1": 0,
      "laugh": 0,
      "hooray": 0,
      "confused": 0,
      "heart": 0,
      "rocket": 0,
      "eyes": 0
    },
    "performed_via_github_app": null
  },
  {
    "url": "https://api.github.com/repos/bitcoin/bitcoin/issues/comments/562092551",
    "html_url": "https://github.com/bitcoin/bitcoin/issues/17248#issuecomment-562092551",
    "issue_url": "https://api.github.com/repos/bitcoin/bitcoin/issues/17248",
    "id": 562092551,
    "node_id": "MDEyOklzc3VlQ29tbWVudDU2MjA5MjU1MQ==",
    "user": {
      "login": "laanwj",
      "id": 126646,
      "node_id": "MDQ6VXNlcjEyNjY0Ng==",
      "avatar_url": "https://avatars.githubusercontent.com/u/126646?v=4",
      "gravatar_id": "",
      "url": "https://api.github.com/users/laanwj",
      "html_url": "https://github.com/laanwj",
      "followers_url": "https://api.github.com/users/laanwj/followers",
      "following_url": "https://api.github.com/users/laanwj/following{/other_user}",
      "gists_url": "https://api.github.com/users/laanwj/gists{/gist_id}",
      "starred_url": "https://api.github.com/users/laanwj/starred{/owner}{/repo}",
      "subscriptions_url": "https://api.github.com/users/laanwj/subscriptions",
      "organizations_url": "https://api.github.com/users/laanwj/orgs",
      "repos_url": "https://api.github.com/users/laanwj/repos",
      "events_url": "https://api.github.com/users/laanwj/events{/privacy}",
      "received_events_url": "https://api.github.com/users/laanwj/received_events",
      "type": "User",
      "site_admin": false
    },
    "created_at": "2019-12-05T11:36:53Z",
    "updated_at": "2019-12-05T11:38:09Z",
    "author_association": "MEMBER",
    "body_html": "<p dir=\"auto\">I don't think ccache really helps that much with building qt. Mind that the qt build first builds a build system (qmake) for the host, then uses that to build the library for the target.<br>\nBoost has a similar weird build setup.<br>\nEven <em>getting it to use</em> ccache consistently will be a challenge, and after that you're still left with enough overhead.</p>",
    "body_text": "I don't think ccache really helps that much with building qt. Mind that the qt build first builds a build system (qmake) for the host, then uses that to build the library for the target.\nBoost has a similar weird build setup.\nEven getting it to use ccache consistently will be a challenge, and after that you're still left with enough overhead.",
    "body": "I don't think ccache really helps that much with building qt. Mind that the qt build first builds a build system (qmake) for the host, then uses that to build the library for the target.\r\nBoost has a similar weird build setup.\r\nEven *getting it to use* ccache consistently will be a challenge, and after that you're still left with enough overhead.\r\n",
    "reactions": {
      "url": "https://api.github.com/repos/bitcoin/bitcoin/issues/comments/562092551/reactions",
      "total_count": 0,
      "+1": 0,
      "-1": 0,
      "laugh": 0,
      "hooray": 0,
      "confused": 0,
      "heart": 0,
      "rocket": 0,
      "eyes": 0
    },
    "performed_via_github_app": null
  },
  {
    "url": "https://api.github.com/repos/bitcoin/bitcoin/issues/comments/636347815",
    "html_url": "https://github.com/bitcoin/bitcoin/issues/17248#issuecomment-636347815",
    "issue_url": "https://api.github.com/repos/bitcoin/bitcoin/issues/17248",
    "id": 636347815,
    "node_id": "MDEyOklzc3VlQ29tbWVudDYzNjM0NzgxNQ==",
    "user": {
      "login": "maflcko",
      "id": 6399679,
      "node_id": "MDQ6VXNlcjYzOTk2Nzk=",
      "avatar_url": "https://avatars.githubusercontent.com/u/6399679?v=4",
      "gravatar_id": "",
      "url": "https://api.github.com/users/maflcko",
      "html_url": "https://github.com/maflcko",
      "followers_url": "https://api.github.com/users/maflcko/followers",
      "following_url": "https://api.github.com/users/maflcko/following{/other_user}",
      "gists_url": "https://api.github.com/users/maflcko/gists{/gist_id}",
      "starred_url": "https://api.github.com/users/maflcko/starred{/owner}{/repo}",
      "subscriptions_url": "https://api.github.com/users/maflcko/subscriptions",
      "organizations_url": "https://api.github.com/users/maflcko/orgs",
      "repos_url": "https://api.github.com/users/maflcko/repos",
      "events_url": "https://api.github.com/users/maflcko/events{/privacy}",
      "received_events_url": "https://api.github.com/users/maflcko/received_events",
      "type": "User",
      "site_admin": false
    },
    "created_at": "2020-05-30T15:38:02Z",
    "updated_at": "2020-05-30T15:38:02Z",
    "author_association": "MEMBER",
    "body_html": "<p dir=\"auto\">FYI. On the DrahtBot guix build, I am caching depends under a key that is equal to the hash of the whole guix tree. The same can probably not be done for depends and only to a lesser extent to gitian.</p>",
    "body_text": "FYI. On the DrahtBot guix build, I am caching depends under a key that is equal to the hash of the whole guix tree. The same can probably not be done for depends and only to a lesser extent to gitian.",
    "body": "FYI. On the DrahtBot guix build, I am caching depends under a key that is equal to the hash of the whole guix tree. The same can probably not be done for depends and only to a lesser extent to gitian.",
    "reactions": {
      "url": "https://api.github.com/repos/bitcoin/bitcoin/issues/comments/636347815/reactions",
      "total_count": 1,
      "+1": 0,
      "-1": 0,
      "laugh": 0,
      "hooray": 0,
      "confused": 0,
      "heart": 0,
      "rocket": 0,
      "eyes": 1
    },
    "performed_via_github_app": null
  },
  {
    "url": "https://api.github.com/repos/bitcoin/bitcoin/issues/comments/780006662",
    "html_url": "https://github.com/bitcoin/bitcoin/issues/17248#issuecomment-780006662",
    "issue_url": "https://api.github.com/repos/bitcoin/bitcoin/issues/17248",
    "id": 780006662,
    "node_id": "MDEyOklzc3VlQ29tbWVudDc4MDAwNjY2Mg==",
    "user": {
      "login": "dongcarl",
      "id": 3445290,
      "node_id": "MDQ6VXNlcjM0NDUyOTA=",
      "avatar_url": "https://avatars.githubusercontent.com/u/3445290?v=4",
      "gravatar_id": "",
      "url": "https://api.github.com/users/dongcarl",
      "html_url": "https://github.com/dongcarl",
      "followers_url": "https://api.github.com/users/dongcarl/followers",
      "following_url": "https://api.github.com/users/dongcarl/following{/other_user}",
      "gists_url": "https://api.github.com/users/dongcarl/gists{/gist_id}",
      "starred_url": "https://api.github.com/users/dongcarl/starred{/owner}{/repo}",
      "subscriptions_url": "https://api.github.com/users/dongcarl/subscriptions",
      "organizations_url": "https://api.github.com/users/dongcarl/orgs",
      "repos_url": "https://api.github.com/users/dongcarl/repos",
      "events_url": "https://api.github.com/users/dongcarl/events{/privacy}",
      "received_events_url": "https://api.github.com/users/dongcarl/received_events",
      "type": "User",
      "site_admin": false
    },
    "created_at": "2021-02-16T17:46:07Z",
    "updated_at": "2021-02-16T17:46:07Z",
    "author_association": "CONTRIBUTOR",
    "body_html": "<p dir=\"auto\">Following up on this after the merge of <a class=\"issue-link js-issue-link\" data-error-text=\"Failed to load title\" data-id=\"762865473\" data-permission-text=\"Title is private\" data-url=\"https://github.com/bitcoin/bitcoin/issues/20629\" data-hovercard-type=\"pull_request\" data-hovercard-url=\"/bitcoin/bitcoin/pull/20629/hovercard\" href=\"https://github.com/bitcoin/bitcoin/pull/20629\">#20629</a></p>\n<h3 dir=\"auto\">For Guix builds</h3>\n<p dir=\"auto\"><a class=\"commit-link\" data-hovercard-type=\"commit\" data-hovercard-url=\"https://github.com/bitcoin/bitcoin/commit/5200929bfe26c549d7da92c0adf8adf61e143416/hovercard\" href=\"https://github.com/bitcoin/bitcoin/commit/5200929bfe26c549d7da92c0adf8adf61e143416\"><tt>5200929</tt></a> ensures that the <code class=\"notranslate\">GUIX_ENVIRONMENT</code> env var is inclueded in the id string used for cache invalidation. This means that any change in the definition of our Guix packages will appropriately invalidate the depends cache</p>\n<h3 dir=\"auto\">For non-Guix builds</h3>\n<p dir=\"auto\"><a class=\"commit-link\" data-hovercard-type=\"commit\" data-hovercard-url=\"https://github.com/bitcoin/bitcoin/commit/4c7d41858821e4fecf7cb0cec3fcad002365e6c9/hovercard\" href=\"https://github.com/bitcoin/bitcoin/commit/4c7d41858821e4fecf7cb0cec3fcad002365e6c9\"><tt>4c7d418</tt></a> adds a lot of toolchain information to the id string in order to trigger cache invalidation should any of it changes. Not as perfect as the situation with Guix, but I believe it's a good enough approximation for most use-cases.</p>",
    "body_text": "Following up on this after the merge of #20629\nFor Guix builds\n5200929 ensures that the GUIX_ENVIRONMENT env var is inclueded in the id string used for cache invalidation. This means that any change in the definition of our Guix packages will appropriately invalidate the depends cache\nFor non-Guix builds\n4c7d418 adds a lot of toolchain information to the id string in order to trigger cache invalidation should any of it changes. Not as perfect as the situation with Guix, but I believe it's a good enough approximation for most use-cases.",
    "body": "Following up on this after the merge of #20629\r\n\r\n### For Guix builds\r\n\r\n5200929bfe26c549d7da92c0adf8adf61e143416 ensures that the `GUIX_ENVIRONMENT` env var is inclueded in the id string used for cache invalidation. This means that any change in the definition of our Guix packages will appropriately invalidate the depends cache\r\n\r\n### For non-Guix builds\r\n\r\n4c7d41858821e4fecf7cb0cec3fcad002365e6c9 adds a lot of toolchain information to the id string in order to trigger cache invalidation should any of it changes. Not as perfect as the situation with Guix, but I believe it's a good enough approximation for most use-cases.",
    "reactions": {
      "url": "https://api.github.com/repos/bitcoin/bitcoin/issues/comments/780006662/reactions",
      "total_count": 0,
      "+1": 0,
      "-1": 0,
      "laugh": 0,
      "hooray": 0,
      "confused": 0,
      "heart": 0,
      "rocket": 0,
      "eyes": 0
    },
    "performed_via_github_app": null
  },
  {
    "url": "https://api.github.com/repos/bitcoin/bitcoin/issues/comments/780418559",
    "html_url": "https://github.com/bitcoin/bitcoin/issues/17248#issuecomment-780418559",
    "issue_url": "https://api.github.com/repos/bitcoin/bitcoin/issues/17248",
    "id": 780418559,
    "node_id": "MDEyOklzc3VlQ29tbWVudDc4MDQxODU1OQ==",
    "user": {
      "login": "maflcko",
      "id": 6399679,
      "node_id": "MDQ6VXNlcjYzOTk2Nzk=",
      "avatar_url": "https://avatars.githubusercontent.com/u/6399679?v=4",
      "gravatar_id": "",
      "url": "https://api.github.com/users/maflcko",
      "html_url": "https://github.com/maflcko",
      "followers_url": "https://api.github.com/users/maflcko/followers",
      "following_url": "https://api.github.com/users/maflcko/following{/other_user}",
      "gists_url": "https://api.github.com/users/maflcko/gists{/gist_id}",
      "starred_url": "https://api.github.com/users/maflcko/starred{/owner}{/repo}",
      "subscriptions_url": "https://api.github.com/users/maflcko/subscriptions",
      "organizations_url": "https://api.github.com/users/maflcko/orgs",
      "repos_url": "https://api.github.com/users/maflcko/repos",
      "events_url": "https://api.github.com/users/maflcko/events{/privacy}",
      "received_events_url": "https://api.github.com/users/maflcko/received_events",
      "type": "User",
      "site_admin": false
    },
    "created_at": "2021-02-17T09:18:58Z",
    "updated_at": "2021-02-17T09:18:58Z",
    "author_association": "MEMBER",
    "body_html": "<p dir=\"auto\">kewl, thx. Closing for now</p>",
    "body_text": "kewl, thx. Closing for now",
    "body": "kewl, thx. Closing for now",
    "reactions": {
      "url": "https://api.github.com/repos/bitcoin/bitcoin/issues/comments/780418559/reactions",
      "total_count": 0,
      "+1": 0,
      "-1": 0,
      "laugh": 0,
      "hooray": 0,
      "confused": 0,
      "heart": 0,
      "rocket": 0,
      "eyes": 0
    },
    "performed_via_github_app": null
  }
]
