{
  "url": "https://api.github.com/repos/bitcoin/bitcoin/issues/7691",
  "repository_url": "https://api.github.com/repos/bitcoin/bitcoin",
  "labels_url": "https://api.github.com/repos/bitcoin/bitcoin/issues/7691/labels{/name}",
  "comments_url": "https://api.github.com/repos/bitcoin/bitcoin/issues/7691/comments",
  "events_url": "https://api.github.com/repos/bitcoin/bitcoin/issues/7691/events",
  "html_url": "https://github.com/bitcoin/bitcoin/pull/7691",
  "id": 140921281,
  "node_id": "MDExOlB1bGxSZXF1ZXN0NjI4NzY4MTU=",
  "number": 7691,
  "title": "[Wallet] refactor wallet/init interaction",
  "user": {
    "login": "jonasschnelli",
    "id": 178464,
    "node_id": "MDQ6VXNlcjE3ODQ2NA==",
    "avatar_url": "https://avatars.githubusercontent.com/u/178464?v=4",
    "gravatar_id": "",
    "url": "https://api.github.com/users/jonasschnelli",
    "html_url": "https://github.com/jonasschnelli",
    "followers_url": "https://api.github.com/users/jonasschnelli/followers",
    "following_url": "https://api.github.com/users/jonasschnelli/following{/other_user}",
    "gists_url": "https://api.github.com/users/jonasschnelli/gists{/gist_id}",
    "starred_url": "https://api.github.com/users/jonasschnelli/starred{/owner}{/repo}",
    "subscriptions_url": "https://api.github.com/users/jonasschnelli/subscriptions",
    "organizations_url": "https://api.github.com/users/jonasschnelli/orgs",
    "repos_url": "https://api.github.com/users/jonasschnelli/repos",
    "events_url": "https://api.github.com/users/jonasschnelli/events{/privacy}",
    "received_events_url": "https://api.github.com/users/jonasschnelli/received_events",
    "type": "User",
    "site_admin": false
  },
  "labels": [
    {
      "id": 135961,
      "node_id": "MDU6TGFiZWwxMzU5NjE=",
      "url": "https://api.github.com/repos/bitcoin/bitcoin/labels/Refactoring",
      "name": "Refactoring",
      "color": "E6F6D6",
      "default": false,
      "description": null
    },
    {
      "id": 149424,
      "node_id": "MDU6TGFiZWwxNDk0MjQ=",
      "url": "https://api.github.com/repos/bitcoin/bitcoin/labels/Wallet",
      "name": "Wallet",
      "color": "08a781",
      "default": false,
      "description": null
    }
  ],
  "state": "closed",
  "locked": true,
  "assignee": null,
  "assignees": [

  ],
  "milestone": null,
  "comments": 14,
  "created_at": "2016-03-15T09:35:30Z",
  "updated_at": "2021-09-08T11:19:47Z",
  "closed_at": "2016-04-02T09:08:05Z",
  "author_association": "CONTRIBUTOR",
  "active_lock_reason": "resolved",
  "draft": false,
  "pull_request": {
    "url": "https://api.github.com/repos/bitcoin/bitcoin/pulls/7691",
    "html_url": "https://github.com/bitcoin/bitcoin/pull/7691",
    "diff_url": "https://github.com/bitcoin/bitcoin/pull/7691.diff",
    "patch_url": "https://github.com/bitcoin/bitcoin/pull/7691.patch",
    "merged_at": "2016-04-02T09:08:05Z"
  },
  "body_html": "<p dir=\"auto\">This is another step to move the wallet code from <code class=\"notranslate\">init.cpp</code> to <code class=\"notranslate\">wallet.cpp</code> while keeping the behavior identical. Behavior simplification can be done once all code is available in <code class=\"notranslate\">wallet.cpp</code>.</p>\n<p dir=\"auto\">This is also a basic step into the direction of cloning the wallet, add BIP32 &amp; multi-wallet in the second wallet implementation without introducing bugs in the current wallet implementation.</p>",
  "body_text": "This is another step to move the wallet code from init.cpp to wallet.cpp while keeping the behavior identical. Behavior simplification can be done once all code is available in wallet.cpp.\nThis is also a basic step into the direction of cloning the wallet, add BIP32 & multi-wallet in the second wallet implementation without introducing bugs in the current wallet implementation.",
  "body": "This is another step to move the wallet code from `init.cpp` to `wallet.cpp` while keeping the behavior identical. Behavior simplification can be done once all code is available in `wallet.cpp`.\n\nThis is also a basic step into the direction of cloning the wallet, add BIP32 & multi-wallet in the second wallet implementation without introducing bugs in the current wallet implementation.\n",
  "closed_by": {
    "login": "laanwj",
    "id": 126646,
    "node_id": "MDQ6VXNlcjEyNjY0Ng==",
    "avatar_url": "https://avatars.githubusercontent.com/u/126646?v=4",
    "gravatar_id": "",
    "url": "https://api.github.com/users/laanwj",
    "html_url": "https://github.com/laanwj",
    "followers_url": "https://api.github.com/users/laanwj/followers",
    "following_url": "https://api.github.com/users/laanwj/following{/other_user}",
    "gists_url": "https://api.github.com/users/laanwj/gists{/gist_id}",
    "starred_url": "https://api.github.com/users/laanwj/starred{/owner}{/repo}",
    "subscriptions_url": "https://api.github.com/users/laanwj/subscriptions",
    "organizations_url": "https://api.github.com/users/laanwj/orgs",
    "repos_url": "https://api.github.com/users/laanwj/repos",
    "events_url": "https://api.github.com/users/laanwj/events{/privacy}",
    "received_events_url": "https://api.github.com/users/laanwj/received_events",
    "type": "User",
    "site_admin": false
  },
  "reactions": {
    "url": "https://api.github.com/repos/bitcoin/bitcoin/issues/7691/reactions",
    "total_count": 0,
    "+1": 0,
    "-1": 0,
    "laugh": 0,
    "hooray": 0,
    "confused": 0,
    "heart": 0,
    "rocket": 0,
    "eyes": 0
  },
  "timeline_url": "https://api.github.com/repos/bitcoin/bitcoin/issues/7691/timeline",
  "performed_via_github_app": null,
  "state_reason": null
}
