{
  "url": "https://api.github.com/repos/bitcoin/bitcoin/issues/18045",
  "repository_url": "https://api.github.com/repos/bitcoin/bitcoin",
  "labels_url": "https://api.github.com/repos/bitcoin/bitcoin/issues/18045/labels{/name}",
  "comments_url": "https://api.github.com/repos/bitcoin/bitcoin/issues/18045/comments",
  "events_url": "https://api.github.com/repos/bitcoin/bitcoin/issues/18045/events",
  "html_url": "https://github.com/bitcoin/bitcoin/pull/18045",
  "id": 558259302,
  "node_id": "MDExOlB1bGxSZXF1ZXN0MzY5NjgzMjk4",
  "number": 18045,
  "title": "build: Do not use QtDBus for macOS builds",
  "user": {
    "login": "hebasto",
    "id": 32963518,
    "node_id": "MDQ6VXNlcjMyOTYzNTE4",
    "avatar_url": "https://avatars.githubusercontent.com/u/32963518?v=4",
    "gravatar_id": "",
    "url": "https://api.github.com/users/hebasto",
    "html_url": "https://github.com/hebasto",
    "followers_url": "https://api.github.com/users/hebasto/followers",
    "following_url": "https://api.github.com/users/hebasto/following{/other_user}",
    "gists_url": "https://api.github.com/users/hebasto/gists{/gist_id}",
    "starred_url": "https://api.github.com/users/hebasto/starred{/owner}{/repo}",
    "subscriptions_url": "https://api.github.com/users/hebasto/subscriptions",
    "organizations_url": "https://api.github.com/users/hebasto/orgs",
    "repos_url": "https://api.github.com/users/hebasto/repos",
    "events_url": "https://api.github.com/users/hebasto/events{/privacy}",
    "received_events_url": "https://api.github.com/users/hebasto/received_events",
    "type": "User",
    "site_admin": false
  },
  "labels": [
    {
      "id": 61889416,
      "node_id": "MDU6TGFiZWw2MTg4OTQxNg==",
      "url": "https://api.github.com/repos/bitcoin/bitcoin/labels/Build%20system",
      "name": "Build system",
      "color": "5319e7",
      "default": false,
      "description": null
    }
  ],
  "state": "closed",
  "locked": true,
  "assignee": null,
  "assignees": [

  ],
  "milestone": null,
  "comments": 5,
  "created_at": "2020-01-31T17:17:43Z",
  "updated_at": "2022-02-15T10:45:41Z",
  "closed_at": "2020-02-01T12:13:36Z",
  "author_association": "MEMBER",
  "active_lock_reason": "resolved",
  "draft": false,
  "pull_request": {
    "url": "https://api.github.com/repos/bitcoin/bitcoin/pulls/18045",
    "html_url": "https://github.com/bitcoin/bitcoin/pull/18045",
    "diff_url": "https://github.com/bitcoin/bitcoin/pull/18045.diff",
    "patch_url": "https://github.com/bitcoin/bitcoin/pull/18045.patch",
    "merged_at": null
  },
  "body_html": "<p dir=\"auto\">This is an alternative to <a class=\"issue-link js-issue-link\" data-error-text=\"Failed to load title\" data-id=\"558195014\" data-permission-text=\"Title is private\" data-url=\"https://github.com/bitcoin/bitcoin/issues/18042\" data-hovercard-type=\"pull_request\" data-hovercard-url=\"/bitcoin/bitcoin/pull/18042/hovercard\" href=\"https://github.com/bitcoin/bitcoin/pull/18042\">#18042</a>:</p>\n<blockquote>\n<p dir=\"auto\">When cross compiling for macOS with depends, we do not compile with dbus.<br>\n...<br>\nThis fixes the error by always avoiding DBUS notification on macOS.</p>\n<p dir=\"auto\">Another (eventually better) way to fix this would be to avoid detection of host qt pkg-config packages when cross compiling.</p>\n</blockquote>",
  "body_text": "This is an alternative to #18042:\n\nWhen cross compiling for macOS with depends, we do not compile with dbus.\n...\nThis fixes the error by always avoiding DBUS notification on macOS.\nAnother (eventually better) way to fix this would be to avoid detection of host qt pkg-config packages when cross compiling.",
  "body": "This is an alternative to #18042:\r\n\r\n> When cross compiling for macOS with depends, we do not compile with dbus.\r\n> ...\r\n> This fixes the error by always avoiding DBUS notification on macOS.\r\n> \r\n> Another (eventually better) way to fix this would be to avoid detection of host qt pkg-config packages when cross compiling.",
  "closed_by": {
    "login": "hebasto",
    "id": 32963518,
    "node_id": "MDQ6VXNlcjMyOTYzNTE4",
    "avatar_url": "https://avatars.githubusercontent.com/u/32963518?v=4",
    "gravatar_id": "",
    "url": "https://api.github.com/users/hebasto",
    "html_url": "https://github.com/hebasto",
    "followers_url": "https://api.github.com/users/hebasto/followers",
    "following_url": "https://api.github.com/users/hebasto/following{/other_user}",
    "gists_url": "https://api.github.com/users/hebasto/gists{/gist_id}",
    "starred_url": "https://api.github.com/users/hebasto/starred{/owner}{/repo}",
    "subscriptions_url": "https://api.github.com/users/hebasto/subscriptions",
    "organizations_url": "https://api.github.com/users/hebasto/orgs",
    "repos_url": "https://api.github.com/users/hebasto/repos",
    "events_url": "https://api.github.com/users/hebasto/events{/privacy}",
    "received_events_url": "https://api.github.com/users/hebasto/received_events",
    "type": "User",
    "site_admin": false
  },
  "reactions": {
    "url": "https://api.github.com/repos/bitcoin/bitcoin/issues/18045/reactions",
    "total_count": 0,
    "+1": 0,
    "-1": 0,
    "laugh": 0,
    "hooray": 0,
    "confused": 0,
    "heart": 0,
    "rocket": 0,
    "eyes": 0
  },
  "timeline_url": "https://api.github.com/repos/bitcoin/bitcoin/issues/18045/timeline",
  "performed_via_github_app": null,
  "state_reason": null
}
