{
  "url": "https://api.github.com/repos/bitcoin/bitcoin/issues/7836",
  "repository_url": "https://api.github.com/repos/bitcoin/bitcoin",
  "labels_url": "https://api.github.com/repos/bitcoin/bitcoin/issues/7836/labels{/name}",
  "comments_url": "https://api.github.com/repos/bitcoin/bitcoin/issues/7836/comments",
  "events_url": "https://api.github.com/repos/bitcoin/bitcoin/issues/7836/events",
  "html_url": "https://github.com/bitcoin/bitcoin/issues/7836",
  "id": 146763821,
  "node_id": "MDU6SXNzdWUxNDY3NjM4MjE=",
  "number": 7836,
  "title": "Open OS X app bundle with parameters",
  "user": {
    "login": "alexreg",
    "id": 67036,
    "node_id": "MDQ6VXNlcjY3MDM2",
    "avatar_url": "https://avatars.githubusercontent.com/u/67036?v=4",
    "gravatar_id": "",
    "url": "https://api.github.com/users/alexreg",
    "html_url": "https://github.com/alexreg",
    "followers_url": "https://api.github.com/users/alexreg/followers",
    "following_url": "https://api.github.com/users/alexreg/following{/other_user}",
    "gists_url": "https://api.github.com/users/alexreg/gists{/gist_id}",
    "starred_url": "https://api.github.com/users/alexreg/starred{/owner}{/repo}",
    "subscriptions_url": "https://api.github.com/users/alexreg/subscriptions",
    "organizations_url": "https://api.github.com/users/alexreg/orgs",
    "repos_url": "https://api.github.com/users/alexreg/repos",
    "events_url": "https://api.github.com/users/alexreg/events{/privacy}",
    "received_events_url": "https://api.github.com/users/alexreg/received_events",
    "type": "User",
    "site_admin": false
  },
  "labels": [
    {
      "id": 234879,
      "node_id": "MDU6TGFiZWwyMzQ4Nzk=",
      "url": "https://api.github.com/repos/bitcoin/bitcoin/labels/macOS",
      "name": "macOS",
      "color": "660000",
      "default": false,
      "description": ""
    }
  ],
  "state": "closed",
  "locked": true,
  "assignee": null,
  "assignees": [

  ],
  "milestone": null,
  "comments": 8,
  "created_at": "2016-04-07T22:48:50Z",
  "updated_at": "2021-09-08T12:43:11Z",
  "closed_at": "2016-04-11T13:46:43Z",
  "author_association": "CONTRIBUTOR",
  "active_lock_reason": "resolved",
  "body_html": "<p dir=\"auto\">The build for Mac OS X of course produces an app bundle (<code class=\"notranslate\">Bitcoin Qt.app</code>). However, I was wondering if there is a way to pass parameters to this app by default when it launches, rather than just manually on the command line. I looked at the <code class=\"notranslate\">configure</code> script, but I don't think it has the capabilities for this.</p>",
  "body_text": "The build for Mac OS X of course produces an app bundle (Bitcoin Qt.app). However, I was wondering if there is a way to pass parameters to this app by default when it launches, rather than just manually on the command line. I looked at the configure script, but I don't think it has the capabilities for this.",
  "body": "The build for Mac OS X of course produces an app bundle (`Bitcoin Qt.app`). However, I was wondering if there is a way to pass parameters to this app by default when it launches, rather than just manually on the command line. I looked at the `configure` script, but I don't think it has the capabilities for this.\n",
  "closed_by": {
    "login": "jonasschnelli",
    "id": 178464,
    "node_id": "MDQ6VXNlcjE3ODQ2NA==",
    "avatar_url": "https://avatars.githubusercontent.com/u/178464?v=4",
    "gravatar_id": "",
    "url": "https://api.github.com/users/jonasschnelli",
    "html_url": "https://github.com/jonasschnelli",
    "followers_url": "https://api.github.com/users/jonasschnelli/followers",
    "following_url": "https://api.github.com/users/jonasschnelli/following{/other_user}",
    "gists_url": "https://api.github.com/users/jonasschnelli/gists{/gist_id}",
    "starred_url": "https://api.github.com/users/jonasschnelli/starred{/owner}{/repo}",
    "subscriptions_url": "https://api.github.com/users/jonasschnelli/subscriptions",
    "organizations_url": "https://api.github.com/users/jonasschnelli/orgs",
    "repos_url": "https://api.github.com/users/jonasschnelli/repos",
    "events_url": "https://api.github.com/users/jonasschnelli/events{/privacy}",
    "received_events_url": "https://api.github.com/users/jonasschnelli/received_events",
    "type": "User",
    "site_admin": false
  },
  "reactions": {
    "url": "https://api.github.com/repos/bitcoin/bitcoin/issues/7836/reactions",
    "total_count": 0,
    "+1": 0,
    "-1": 0,
    "laugh": 0,
    "hooray": 0,
    "confused": 0,
    "heart": 0,
    "rocket": 0,
    "eyes": 0
  },
  "timeline_url": "https://api.github.com/repos/bitcoin/bitcoin/issues/7836/timeline",
  "performed_via_github_app": null,
  "state_reason": "completed"
}
