{
  "url": "https://api.github.com/repos/bitcoin/bitcoin/issues/1763",
  "repository_url": "https://api.github.com/repos/bitcoin/bitcoin",
  "labels_url": "https://api.github.com/repos/bitcoin/bitcoin/issues/1763/labels{/name}",
  "comments_url": "https://api.github.com/repos/bitcoin/bitcoin/issues/1763/comments",
  "events_url": "https://api.github.com/repos/bitcoin/bitcoin/issues/1763/events",
  "html_url": "https://github.com/bitcoin/bitcoin/issues/1763",
  "id": 6571352,
  "node_id": "MDU6SXNzdWU2NTcxMzUy",
  "number": 1763,
  "title": "Testnet-in-a-box broken",
  "user": {
    "login": "luke-jr",
    "id": 1095675,
    "node_id": "MDQ6VXNlcjEwOTU2NzU=",
    "avatar_url": "https://avatars.githubusercontent.com/u/1095675?v=4",
    "gravatar_id": "",
    "url": "https://api.github.com/users/luke-jr",
    "html_url": "https://github.com/luke-jr",
    "followers_url": "https://api.github.com/users/luke-jr/followers",
    "following_url": "https://api.github.com/users/luke-jr/following{/other_user}",
    "gists_url": "https://api.github.com/users/luke-jr/gists{/gist_id}",
    "starred_url": "https://api.github.com/users/luke-jr/starred{/owner}{/repo}",
    "subscriptions_url": "https://api.github.com/users/luke-jr/subscriptions",
    "organizations_url": "https://api.github.com/users/luke-jr/orgs",
    "repos_url": "https://api.github.com/users/luke-jr/repos",
    "events_url": "https://api.github.com/users/luke-jr/events{/privacy}",
    "received_events_url": "https://api.github.com/users/luke-jr/received_events",
    "type": "User",
    "site_admin": false
  },
  "labels": [
    {
      "id": 64585,
      "node_id": "MDU6TGFiZWw2NDU4NQ==",
      "url": "https://api.github.com/repos/bitcoin/bitcoin/labels/Bug",
      "name": "Bug",
      "color": "FBBAAB",
      "default": false,
      "description": null
    }
  ],
  "state": "closed",
  "locked": true,
  "assignee": null,
  "assignees": [

  ],
  "milestone": null,
  "comments": 1,
  "created_at": "2012-08-31T05:16:36Z",
  "updated_at": "2021-09-08T12:32:31Z",
  "closed_at": "2014-01-10T12:17:46Z",
  "author_association": "MEMBER",
  "active_lock_reason": "resolved",
  "body_html": "<p dir=\"auto\">If there are zero blocks network-wide, getwork and getblocktemplate error \"Bitcoin is downloading blocks...\"</p>",
  "body_text": "If there are zero blocks network-wide, getwork and getblocktemplate error \"Bitcoin is downloading blocks...\"",
  "body": "If there are zero blocks network-wide, getwork and getblocktemplate error \"Bitcoin is downloading blocks...\"\n",
  "closed_by": {
    "login": "laanwj",
    "id": 126646,
    "node_id": "MDQ6VXNlcjEyNjY0Ng==",
    "avatar_url": "https://avatars.githubusercontent.com/u/126646?v=4",
    "gravatar_id": "",
    "url": "https://api.github.com/users/laanwj",
    "html_url": "https://github.com/laanwj",
    "followers_url": "https://api.github.com/users/laanwj/followers",
    "following_url": "https://api.github.com/users/laanwj/following{/other_user}",
    "gists_url": "https://api.github.com/users/laanwj/gists{/gist_id}",
    "starred_url": "https://api.github.com/users/laanwj/starred{/owner}{/repo}",
    "subscriptions_url": "https://api.github.com/users/laanwj/subscriptions",
    "organizations_url": "https://api.github.com/users/laanwj/orgs",
    "repos_url": "https://api.github.com/users/laanwj/repos",
    "events_url": "https://api.github.com/users/laanwj/events{/privacy}",
    "received_events_url": "https://api.github.com/users/laanwj/received_events",
    "type": "User",
    "site_admin": false
  },
  "reactions": {
    "url": "https://api.github.com/repos/bitcoin/bitcoin/issues/1763/reactions",
    "total_count": 0,
    "+1": 0,
    "-1": 0,
    "laugh": 0,
    "hooray": 0,
    "confused": 0,
    "heart": 0,
    "rocket": 0,
    "eyes": 0
  },
  "timeline_url": "https://api.github.com/repos/bitcoin/bitcoin/issues/1763/timeline",
  "performed_via_github_app": null,
  "state_reason": "completed"
}
