[
  {
    "url": "https://api.github.com/repos/bitcoin/bitcoin/issues/comments/791600485",
    "html_url": "https://github.com/bitcoin/bitcoin/pull/21372#issuecomment-791600485",
    "issue_url": "https://api.github.com/repos/bitcoin/bitcoin/issues/21372",
    "id": 791600485,
    "node_id": "MDEyOklzc3VlQ29tbWVudDc5MTYwMDQ4NQ==",
    "user": {
      "login": "gmaxwell",
      "id": 858454,
      "node_id": "MDQ6VXNlcjg1ODQ1NA==",
      "avatar_url": "https://avatars.githubusercontent.com/u/858454?v=4",
      "gravatar_id": "",
      "url": "https://api.github.com/users/gmaxwell",
      "html_url": "https://github.com/gmaxwell",
      "followers_url": "https://api.github.com/users/gmaxwell/followers",
      "following_url": "https://api.github.com/users/gmaxwell/following{/other_user}",
      "gists_url": "https://api.github.com/users/gmaxwell/gists{/gist_id}",
      "starred_url": "https://api.github.com/users/gmaxwell/starred{/owner}{/repo}",
      "subscriptions_url": "https://api.github.com/users/gmaxwell/subscriptions",
      "organizations_url": "https://api.github.com/users/gmaxwell/orgs",
      "repos_url": "https://api.github.com/users/gmaxwell/repos",
      "events_url": "https://api.github.com/users/gmaxwell/events{/privacy}",
      "received_events_url": "https://api.github.com/users/gmaxwell/received_events",
      "type": "User",
      "site_admin": false
    },
    "created_at": "2021-03-05T18:26:59Z",
    "updated_at": "2021-03-05T18:26:59Z",
    "author_association": "CONTRIBUTOR",
    "body_html": "<p dir=\"auto\">Doing this is pretty bad for block propagation performance-- probably adding over 100ms to the global propagation time because it guarantees a round trip at every hop. ... especially now with fibre mostly gone.</p>\n<p dir=\"auto\">Last I looked the only pool mining there own non-standard transactions was f2pool (&gt;100kb in their case).</p>\n<p dir=\"auto\">This facility would also make it extremely easy to unintentionally fork the network by mining transactions which use functionality which is reserved for future consensus rules which may already be enforced by part of the network.  Particularly because it's not realistic for any external software to enforce softfork safeness, since you need a whole script interpreter to do so -- an obvious thing someone might try to do with this interface is make a \"transaction accelerator\" but in doing so they'd accidentally introduce a public facing network split generator.</p>",
    "body_text": "Doing this is pretty bad for block propagation performance-- probably adding over 100ms to the global propagation time because it guarantees a round trip at every hop. ... especially now with fibre mostly gone.\nLast I looked the only pool mining there own non-standard transactions was f2pool (>100kb in their case).\nThis facility would also make it extremely easy to unintentionally fork the network by mining transactions which use functionality which is reserved for future consensus rules which may already be enforced by part of the network.  Particularly because it's not realistic for any external software to enforce softfork safeness, since you need a whole script interpreter to do so -- an obvious thing someone might try to do with this interface is make a \"transaction accelerator\" but in doing so they'd accidentally introduce a public facing network split generator.",
    "body": "Doing this is pretty bad for block propagation performance-- probably adding over 100ms to the global propagation time because it guarantees a round trip at every hop. ... especially now with fibre mostly gone.\r\n\r\nLast I looked the only pool mining there own non-standard transactions was f2pool (>100kb in their case).\r\n\r\nThis facility would also make it extremely easy to unintentionally fork the network by mining transactions which use functionality which is reserved for future consensus rules which may already be enforced by part of the network.  Particularly because it's not realistic for any external software to enforce softfork safeness, since you need a whole script interpreter to do so -- an obvious thing someone might try to do with this interface is make a \"transaction accelerator\" but in doing so they'd accidentally introduce a public facing network split generator.\r\n",
    "reactions": {
      "url": "https://api.github.com/repos/bitcoin/bitcoin/issues/comments/791600485/reactions",
      "total_count": 0,
      "+1": 0,
      "-1": 0,
      "laugh": 0,
      "hooray": 0,
      "confused": 0,
      "heart": 0,
      "rocket": 0,
      "eyes": 0
    },
    "performed_via_github_app": null
  },
  {
    "url": "https://api.github.com/repos/bitcoin/bitcoin/issues/comments/791615585",
    "html_url": "https://github.com/bitcoin/bitcoin/pull/21372#issuecomment-791615585",
    "issue_url": "https://api.github.com/repos/bitcoin/bitcoin/issues/21372",
    "id": 791615585,
    "node_id": "MDEyOklzc3VlQ29tbWVudDc5MTYxNTU4NQ==",
    "user": {
      "login": "DesWurstes",
      "id": 23437045,
      "node_id": "MDQ6VXNlcjIzNDM3MDQ1",
      "avatar_url": "https://avatars.githubusercontent.com/u/23437045?v=4",
      "gravatar_id": "",
      "url": "https://api.github.com/users/DesWurstes",
      "html_url": "https://github.com/DesWurstes",
      "followers_url": "https://api.github.com/users/DesWurstes/followers",
      "following_url": "https://api.github.com/users/DesWurstes/following{/other_user}",
      "gists_url": "https://api.github.com/users/DesWurstes/gists{/gist_id}",
      "starred_url": "https://api.github.com/users/DesWurstes/starred{/owner}{/repo}",
      "subscriptions_url": "https://api.github.com/users/DesWurstes/subscriptions",
      "organizations_url": "https://api.github.com/users/DesWurstes/orgs",
      "repos_url": "https://api.github.com/users/DesWurstes/repos",
      "events_url": "https://api.github.com/users/DesWurstes/events{/privacy}",
      "received_events_url": "https://api.github.com/users/DesWurstes/received_events",
      "type": "User",
      "site_admin": false
    },
    "created_at": "2021-03-05T18:56:09Z",
    "updated_at": "2021-03-05T18:57:14Z",
    "author_association": "CONTRIBUTOR",
    "body_html": "<blockquote>\n<p dir=\"auto\">Doing this is pretty bad for block propagation performance-- probably adding over 100ms to the global propagation time because it guarantees a round trip at every hop. ... especially now with fibre mostly gone.</p>\n</blockquote>\n<p dir=\"auto\">I don't get this part, are you referring to Compact Blocks? Mining pool nodes receive full blocks from each other with transactions, adding an unbroadcast transaction wouldn't break anything.</p>\n<p dir=\"auto\">I aimed to give the miner more control by this change (not every miner has a fork of Core) and now it seems that the best is to add a warning to the RPC description since the last thing a miner wants is a network fork.</p>\n<p dir=\"auto\">I don't think this feature can be abused, it's only for convenience. For an evil miner, this doesn't make anything easier. They can remove <code class=\"notranslate\">IsStandard</code> even now.</p>",
    "body_text": "Doing this is pretty bad for block propagation performance-- probably adding over 100ms to the global propagation time because it guarantees a round trip at every hop. ... especially now with fibre mostly gone.\n\nI don't get this part, are you referring to Compact Blocks? Mining pool nodes receive full blocks from each other with transactions, adding an unbroadcast transaction wouldn't break anything.\nI aimed to give the miner more control by this change (not every miner has a fork of Core) and now it seems that the best is to add a warning to the RPC description since the last thing a miner wants is a network fork.\nI don't think this feature can be abused, it's only for convenience. For an evil miner, this doesn't make anything easier. They can remove IsStandard even now.",
    "body": "> Doing this is pretty bad for block propagation performance-- probably adding over 100ms to the global propagation time because it guarantees a round trip at every hop. ... especially now with fibre mostly gone.\r\n\r\nI don't get this part, are you referring to Compact Blocks? Mining pool nodes receive full blocks from each other with transactions, adding an unbroadcast transaction wouldn't break anything.\r\n\r\nI aimed to give the miner more control by this change (not every miner has a fork of Core) and now it seems that the best is to add a warning to the RPC description since the last thing a miner wants is a network fork.\r\n\r\nI don't think this feature can be abused, it's only for convenience. For an evil miner, this doesn't make anything easier. They can remove `IsStandard` even now.",
    "reactions": {
      "url": "https://api.github.com/repos/bitcoin/bitcoin/issues/comments/791615585/reactions",
      "total_count": 0,
      "+1": 0,
      "-1": 0,
      "laugh": 0,
      "hooray": 0,
      "confused": 0,
      "heart": 0,
      "rocket": 0,
      "eyes": 0
    },
    "performed_via_github_app": null
  },
  {
    "url": "https://api.github.com/repos/bitcoin/bitcoin/issues/comments/791722521",
    "html_url": "https://github.com/bitcoin/bitcoin/pull/21372#issuecomment-791722521",
    "issue_url": "https://api.github.com/repos/bitcoin/bitcoin/issues/21372",
    "id": 791722521,
    "node_id": "MDEyOklzc3VlQ29tbWVudDc5MTcyMjUyMQ==",
    "user": {
      "login": "DrahtBot",
      "id": 39886733,
      "node_id": "MDQ6VXNlcjM5ODg2NzMz",
      "avatar_url": "https://avatars.githubusercontent.com/u/39886733?v=4",
      "gravatar_id": "",
      "url": "https://api.github.com/users/DrahtBot",
      "html_url": "https://github.com/DrahtBot",
      "followers_url": "https://api.github.com/users/DrahtBot/followers",
      "following_url": "https://api.github.com/users/DrahtBot/following{/other_user}",
      "gists_url": "https://api.github.com/users/DrahtBot/gists{/gist_id}",
      "starred_url": "https://api.github.com/users/DrahtBot/starred{/owner}{/repo}",
      "subscriptions_url": "https://api.github.com/users/DrahtBot/subscriptions",
      "organizations_url": "https://api.github.com/users/DrahtBot/orgs",
      "repos_url": "https://api.github.com/users/DrahtBot/repos",
      "events_url": "https://api.github.com/users/DrahtBot/events{/privacy}",
      "received_events_url": "https://api.github.com/users/DrahtBot/received_events",
      "type": "User",
      "site_admin": false
    },
    "created_at": "2021-03-05T21:30:03Z",
    "updated_at": "2021-03-05T21:30:03Z",
    "author_association": "CONTRIBUTOR",
    "body_html": "\n<p dir=\"auto\">The following sections might be updated with supplementary metadata relevant to reviewers and maintainers.</p>\n\n<h3 dir=\"auto\">Conflicts</h3>\n<p dir=\"auto\">Reviewers, this pull request conflicts with the following ones:</p>\n<ul dir=\"auto\">\n<li><a class=\"issue-link js-issue-link\" data-error-text=\"Failed to load title\" data-id=\"777588162\" data-permission-text=\"Title is private\" data-url=\"https://github.com/bitcoin/bitcoin/issues/20833\" data-hovercard-type=\"pull_request\" data-hovercard-url=\"/bitcoin/bitcoin/pull/20833/hovercard\" href=\"https://github.com/bitcoin/bitcoin/pull/20833\">#20833</a> (rpc/validation: enable packages through testmempoolaccept by glozow)</li>\n</ul>\n<p dir=\"auto\">If you consider this pull request important, please also help to review the conflicting pull requests. Ideally, start with the one that should be merged first.</p>",
    "body_text": "The following sections might be updated with supplementary metadata relevant to reviewers and maintainers.\n\nConflicts\nReviewers, this pull request conflicts with the following ones:\n\n#20833 (rpc/validation: enable packages through testmempoolaccept by glozow)\n\nIf you consider this pull request important, please also help to review the conflicting pull requests. Ideally, start with the one that should be merged first.",
    "body": "<!--e57a25ab6845829454e8d69fc972939a-->\n\nThe following sections might be updated with supplementary metadata relevant to reviewers and maintainers.\n\n<!--174a7506f384e20aa4161008e828411d-->\n### Conflicts\nReviewers, this pull request conflicts with the following ones:\n\n* #20833 (rpc/validation: enable packages through testmempoolaccept by glozow)\n\nIf you consider this pull request important, please also help to review the conflicting pull requests. Ideally, start with the one that should be merged first.",
    "reactions": {
      "url": "https://api.github.com/repos/bitcoin/bitcoin/issues/comments/791722521/reactions",
      "total_count": 0,
      "+1": 0,
      "-1": 0,
      "laugh": 0,
      "hooray": 0,
      "confused": 0,
      "heart": 0,
      "rocket": 0,
      "eyes": 0
    },
    "performed_via_github_app": null
  },
  {
    "url": "https://api.github.com/repos/bitcoin/bitcoin/issues/comments/791735591",
    "html_url": "https://github.com/bitcoin/bitcoin/pull/21372#issuecomment-791735591",
    "issue_url": "https://api.github.com/repos/bitcoin/bitcoin/issues/21372",
    "id": 791735591,
    "node_id": "MDEyOklzc3VlQ29tbWVudDc5MTczNTU5MQ==",
    "user": {
      "login": "sipa",
      "id": 548488,
      "node_id": "MDQ6VXNlcjU0ODQ4OA==",
      "avatar_url": "https://avatars.githubusercontent.com/u/548488?v=4",
      "gravatar_id": "",
      "url": "https://api.github.com/users/sipa",
      "html_url": "https://github.com/sipa",
      "followers_url": "https://api.github.com/users/sipa/followers",
      "following_url": "https://api.github.com/users/sipa/following{/other_user}",
      "gists_url": "https://api.github.com/users/sipa/gists{/gist_id}",
      "starred_url": "https://api.github.com/users/sipa/starred{/owner}{/repo}",
      "subscriptions_url": "https://api.github.com/users/sipa/subscriptions",
      "organizations_url": "https://api.github.com/users/sipa/orgs",
      "repos_url": "https://api.github.com/users/sipa/repos",
      "events_url": "https://api.github.com/users/sipa/events{/privacy}",
      "received_events_url": "https://api.github.com/users/sipa/received_events",
      "type": "User",
      "site_admin": false
    },
    "created_at": "2021-03-05T21:54:41Z",
    "updated_at": "2021-03-05T21:56:45Z",
    "author_association": "MEMBER",
    "body_html": "<blockquote>\n<p dir=\"auto\">I don't get this part, are you referring to Compact Blocks?</p>\n</blockquote>\n<p dir=\"auto\">Compact blocks are able to relay blocks without any roundtrips if all the blocks' transactions (excluding the coinbase) are known to the recipients already. For sufficiently long-running nodes, in practice this is very often the case. As soon as there is at least one transaction missing, a roundtrip is needed which effectively triples the block relay time on each hop (CMPCTBLOCK-GETBLOCKTXN-BLOCKTXN instead of just CMPCTBLOCK).</p>\n<p dir=\"auto\">So generally, adding transactions to your own blocks without even (trying to) relay them to the network is a bad idea for the network, and for the miner personally, as they have an incentive to get their blocks propagated as swiftly as possible to other miners.</p>",
    "body_text": "I don't get this part, are you referring to Compact Blocks?\n\nCompact blocks are able to relay blocks without any roundtrips if all the blocks' transactions (excluding the coinbase) are known to the recipients already. For sufficiently long-running nodes, in practice this is very often the case. As soon as there is at least one transaction missing, a roundtrip is needed which effectively triples the block relay time on each hop (CMPCTBLOCK-GETBLOCKTXN-BLOCKTXN instead of just CMPCTBLOCK).\nSo generally, adding transactions to your own blocks without even (trying to) relay them to the network is a bad idea for the network, and for the miner personally, as they have an incentive to get their blocks propagated as swiftly as possible to other miners.",
    "body": "> I don't get this part, are you referring to Compact Blocks?\r\n\r\nCompact blocks are able to relay blocks without any roundtrips if all the blocks' transactions (excluding the coinbase) are known to the recipients already. For sufficiently long-running nodes, in practice this is very often the case. As soon as there is at least one transaction missing, a roundtrip is needed which effectively triples the block relay time on each hop (CMPCTBLOCK-GETBLOCKTXN-BLOCKTXN instead of just CMPCTBLOCK).\r\n\r\nSo generally, adding transactions to your own blocks without even (trying to) relay them to the network is a bad idea for the network, and for the miner personally, as they have an incentive to get their blocks propagated as swiftly as possible to other miners.",
    "reactions": {
      "url": "https://api.github.com/repos/bitcoin/bitcoin/issues/comments/791735591/reactions",
      "total_count": 0,
      "+1": 0,
      "-1": 0,
      "laugh": 0,
      "hooray": 0,
      "confused": 0,
      "heart": 0,
      "rocket": 0,
      "eyes": 0
    },
    "performed_via_github_app": null
  },
  {
    "url": "https://api.github.com/repos/bitcoin/bitcoin/issues/comments/791896949",
    "html_url": "https://github.com/bitcoin/bitcoin/pull/21372#issuecomment-791896949",
    "issue_url": "https://api.github.com/repos/bitcoin/bitcoin/issues/21372",
    "id": 791896949,
    "node_id": "MDEyOklzc3VlQ29tbWVudDc5MTg5Njk0OQ==",
    "user": {
      "login": "DesWurstes",
      "id": 23437045,
      "node_id": "MDQ6VXNlcjIzNDM3MDQ1",
      "avatar_url": "https://avatars.githubusercontent.com/u/23437045?v=4",
      "gravatar_id": "",
      "url": "https://api.github.com/users/DesWurstes",
      "html_url": "https://github.com/DesWurstes",
      "followers_url": "https://api.github.com/users/DesWurstes/followers",
      "following_url": "https://api.github.com/users/DesWurstes/following{/other_user}",
      "gists_url": "https://api.github.com/users/DesWurstes/gists{/gist_id}",
      "starred_url": "https://api.github.com/users/DesWurstes/starred{/owner}{/repo}",
      "subscriptions_url": "https://api.github.com/users/DesWurstes/subscriptions",
      "organizations_url": "https://api.github.com/users/DesWurstes/orgs",
      "repos_url": "https://api.github.com/users/DesWurstes/repos",
      "events_url": "https://api.github.com/users/DesWurstes/events{/privacy}",
      "received_events_url": "https://api.github.com/users/DesWurstes/received_events",
      "type": "User",
      "site_admin": false
    },
    "created_at": "2021-03-06T08:42:56Z",
    "updated_at": "2021-03-06T08:44:18Z",
    "author_association": "CONTRIBUTOR",
    "body_html": "<div class=\"snippet-clipboard-content notranslate position-relative overflow-auto\" data-snippet-clipboard-copy-content=\"                &quot;\\nInclude a raw transaction in the next block without relaying it.\\n&quot;\n                &quot;WARNING: Mining a transaction that is not relayed will slow down the propoagation of the block\\n&quot;\n                &quot;and increase the probability of being orphaned! Prefer sendrawtransaction + prioritisetransaction\\n&quot;\n                &quot;whenever possible.&quot;,\"><pre class=\"notranslate\"><code class=\"notranslate\">                \"\\nInclude a raw transaction in the next block without relaying it.\\n\"\n                \"WARNING: Mining a transaction that is not relayed will slow down the propoagation of the block\\n\"\n                \"and increase the probability of being orphaned! Prefer sendrawtransaction + prioritisetransaction\\n\"\n                \"whenever possible.\",\n</code></pre></div>\n<p dir=\"auto\">I think this still contributes to the functionality.</p>",
    "body_text": "\"\\nInclude a raw transaction in the next block without relaying it.\\n\"\n                \"WARNING: Mining a transaction that is not relayed will slow down the propoagation of the block\\n\"\n                \"and increase the probability of being orphaned! Prefer sendrawtransaction + prioritisetransaction\\n\"\n                \"whenever possible.\",\n\nI think this still contributes to the functionality.",
    "body": "```\r\n                \"\\nInclude a raw transaction in the next block without relaying it.\\n\"\r\n                \"WARNING: Mining a transaction that is not relayed will slow down the propoagation of the block\\n\"\r\n                \"and increase the probability of being orphaned! Prefer sendrawtransaction + prioritisetransaction\\n\"\r\n                \"whenever possible.\",\r\n```\r\n\r\nI think this still contributes to the functionality.",
    "reactions": {
      "url": "https://api.github.com/repos/bitcoin/bitcoin/issues/comments/791896949/reactions",
      "total_count": 0,
      "+1": 0,
      "-1": 0,
      "laugh": 0,
      "hooray": 0,
      "confused": 0,
      "heart": 0,
      "rocket": 0,
      "eyes": 0
    },
    "performed_via_github_app": null
  },
  {
    "url": "https://api.github.com/repos/bitcoin/bitcoin/issues/comments/792042078",
    "html_url": "https://github.com/bitcoin/bitcoin/pull/21372#issuecomment-792042078",
    "issue_url": "https://api.github.com/repos/bitcoin/bitcoin/issues/21372",
    "id": 792042078,
    "node_id": "MDEyOklzc3VlQ29tbWVudDc5MjA0MjA3OA==",
    "user": {
      "login": "gmaxwell",
      "id": 858454,
      "node_id": "MDQ6VXNlcjg1ODQ1NA==",
      "avatar_url": "https://avatars.githubusercontent.com/u/858454?v=4",
      "gravatar_id": "",
      "url": "https://api.github.com/users/gmaxwell",
      "html_url": "https://github.com/gmaxwell",
      "followers_url": "https://api.github.com/users/gmaxwell/followers",
      "following_url": "https://api.github.com/users/gmaxwell/following{/other_user}",
      "gists_url": "https://api.github.com/users/gmaxwell/gists{/gist_id}",
      "starred_url": "https://api.github.com/users/gmaxwell/starred{/owner}{/repo}",
      "subscriptions_url": "https://api.github.com/users/gmaxwell/subscriptions",
      "organizations_url": "https://api.github.com/users/gmaxwell/orgs",
      "repos_url": "https://api.github.com/users/gmaxwell/repos",
      "events_url": "https://api.github.com/users/gmaxwell/events{/privacy}",
      "received_events_url": "https://api.github.com/users/gmaxwell/received_events",
      "type": "User",
      "site_admin": false
    },
    "created_at": "2021-03-06T19:53:23Z",
    "updated_at": "2021-03-06T19:53:23Z",
    "author_association": "CONTRIBUTOR",
    "body_html": "<blockquote>\n<p dir=\"auto\">I don't think this feature can be abused, it's only for convenience.</p>\n</blockquote>\n<p dir=\"auto\">It's extremely dangerous because the consensus rules are subtle and no reasonable user expects an exposed option that may cause their blocks to be rejected as invalid.</p>\n<p dir=\"auto\">Nothing in my comment said anything about malice by miners, in fact I specifically said \"unintentionally\".   Most causes of non-standardness  are intentional reservations for future consensus rules, if miners mine them it makes it much harder to safely update the consensus rules and risks causing their blocks to get orphaned.</p>\n<p dir=\"auto\">There are policy elements that can be safely bypassed, e.g. min-fee or dust limit-- so someone intentionally bypassing for those reasons would inadvertently bypass other policy checks and potentially fork the consensus and get themselves orphaned. And again, you cannot validate these rules for yourself externally without essentially a copy of the script interpreter.</p>\n<p dir=\"auto\">The fact that someone could edit the software and footgun themselves is not an argument for exposing functionality that has a bad, harmful, and dangerous practice built in.  It's an argument against it-- if anything-- because if there is a legitimate reason then there is still a way.</p>",
    "body_text": "I don't think this feature can be abused, it's only for convenience.\n\nIt's extremely dangerous because the consensus rules are subtle and no reasonable user expects an exposed option that may cause their blocks to be rejected as invalid.\nNothing in my comment said anything about malice by miners, in fact I specifically said \"unintentionally\".   Most causes of non-standardness  are intentional reservations for future consensus rules, if miners mine them it makes it much harder to safely update the consensus rules and risks causing their blocks to get orphaned.\nThere are policy elements that can be safely bypassed, e.g. min-fee or dust limit-- so someone intentionally bypassing for those reasons would inadvertently bypass other policy checks and potentially fork the consensus and get themselves orphaned. And again, you cannot validate these rules for yourself externally without essentially a copy of the script interpreter.\nThe fact that someone could edit the software and footgun themselves is not an argument for exposing functionality that has a bad, harmful, and dangerous practice built in.  It's an argument against it-- if anything-- because if there is a legitimate reason then there is still a way.",
    "body": "> I don't think this feature can be abused, it's only for convenience.\r\n\r\nIt's extremely dangerous because the consensus rules are subtle and no reasonable user expects an exposed option that may cause their blocks to be rejected as invalid.\r\n\r\nNothing in my comment said anything about malice by miners, in fact I specifically said \"unintentionally\".   Most causes of non-standardness  are intentional reservations for future consensus rules, if miners mine them it makes it much harder to safely update the consensus rules and risks causing their blocks to get orphaned.\r\n\r\nThere are policy elements that can be safely bypassed, e.g. min-fee or dust limit-- so someone intentionally bypassing for those reasons would inadvertently bypass other policy checks and potentially fork the consensus and get themselves orphaned. And again, you cannot validate these rules for yourself externally without essentially a copy of the script interpreter.\r\n\r\nThe fact that someone could edit the software and footgun themselves is not an argument for exposing functionality that has a bad, harmful, and dangerous practice built in.  It's an argument against it-- if anything-- because if there is a legitimate reason then there is still a way.\r\n",
    "reactions": {
      "url": "https://api.github.com/repos/bitcoin/bitcoin/issues/comments/792042078/reactions",
      "total_count": 0,
      "+1": 0,
      "-1": 0,
      "laugh": 0,
      "hooray": 0,
      "confused": 0,
      "heart": 0,
      "rocket": 0,
      "eyes": 0
    },
    "performed_via_github_app": null
  },
  {
    "url": "https://api.github.com/repos/bitcoin/bitcoin/issues/comments/792044814",
    "html_url": "https://github.com/bitcoin/bitcoin/pull/21372#issuecomment-792044814",
    "issue_url": "https://api.github.com/repos/bitcoin/bitcoin/issues/21372",
    "id": 792044814,
    "node_id": "MDEyOklzc3VlQ29tbWVudDc5MjA0NDgxNA==",
    "user": {
      "login": "DesWurstes",
      "id": 23437045,
      "node_id": "MDQ6VXNlcjIzNDM3MDQ1",
      "avatar_url": "https://avatars.githubusercontent.com/u/23437045?v=4",
      "gravatar_id": "",
      "url": "https://api.github.com/users/DesWurstes",
      "html_url": "https://github.com/DesWurstes",
      "followers_url": "https://api.github.com/users/DesWurstes/followers",
      "following_url": "https://api.github.com/users/DesWurstes/following{/other_user}",
      "gists_url": "https://api.github.com/users/DesWurstes/gists{/gist_id}",
      "starred_url": "https://api.github.com/users/DesWurstes/starred{/owner}{/repo}",
      "subscriptions_url": "https://api.github.com/users/DesWurstes/subscriptions",
      "organizations_url": "https://api.github.com/users/DesWurstes/orgs",
      "repos_url": "https://api.github.com/users/DesWurstes/repos",
      "events_url": "https://api.github.com/users/DesWurstes/events{/privacy}",
      "received_events_url": "https://api.github.com/users/DesWurstes/received_events",
      "type": "User",
      "site_admin": false
    },
    "created_at": "2021-03-06T20:13:18Z",
    "updated_at": "2021-03-06T20:13:18Z",
    "author_association": "CONTRIBUTOR",
    "body_html": "<p dir=\"auto\">convinced👍</p>",
    "body_text": "convinced👍",
    "body": "convinced👍",
    "reactions": {
      "url": "https://api.github.com/repos/bitcoin/bitcoin/issues/comments/792044814/reactions",
      "total_count": 0,
      "+1": 0,
      "-1": 0,
      "laugh": 0,
      "hooray": 0,
      "confused": 0,
      "heart": 0,
      "rocket": 0,
      "eyes": 0
    },
    "performed_via_github_app": null
  },
  {
    "url": "https://api.github.com/repos/bitcoin/bitcoin/issues/comments/792234655",
    "html_url": "https://github.com/bitcoin/bitcoin/pull/21372#issuecomment-792234655",
    "issue_url": "https://api.github.com/repos/bitcoin/bitcoin/issues/21372",
    "id": 792234655,
    "node_id": "MDEyOklzc3VlQ29tbWVudDc5MjIzNDY1NQ==",
    "user": {
      "login": "maflcko",
      "id": 6399679,
      "node_id": "MDQ6VXNlcjYzOTk2Nzk=",
      "avatar_url": "https://avatars.githubusercontent.com/u/6399679?v=4",
      "gravatar_id": "",
      "url": "https://api.github.com/users/maflcko",
      "html_url": "https://github.com/maflcko",
      "followers_url": "https://api.github.com/users/maflcko/followers",
      "following_url": "https://api.github.com/users/maflcko/following{/other_user}",
      "gists_url": "https://api.github.com/users/maflcko/gists{/gist_id}",
      "starred_url": "https://api.github.com/users/maflcko/starred{/owner}{/repo}",
      "subscriptions_url": "https://api.github.com/users/maflcko/subscriptions",
      "organizations_url": "https://api.github.com/users/maflcko/orgs",
      "repos_url": "https://api.github.com/users/maflcko/repos",
      "events_url": "https://api.github.com/users/maflcko/events{/privacy}",
      "received_events_url": "https://api.github.com/users/maflcko/received_events",
      "type": "User",
      "site_admin": false
    },
    "created_at": "2021-03-07T07:55:26Z",
    "updated_at": "2021-03-07T07:55:26Z",
    "author_association": "MEMBER",
    "body_html": "<p dir=\"auto\">(slightly related to <a class=\"issue-link js-issue-link\" data-error-text=\"Failed to load title\" data-id=\"773902870\" data-permission-text=\"Title is private\" data-url=\"https://github.com/bitcoin/bitcoin/issues/20753\" data-hovercard-type=\"pull_request\" data-hovercard-url=\"/bitcoin/bitcoin/pull/20753/hovercard\" href=\"https://github.com/bitcoin/bitcoin/pull/20753\">#20753</a> )</p>",
    "body_text": "(slightly related to #20753 )",
    "body": "(slightly related to #20753 )",
    "reactions": {
      "url": "https://api.github.com/repos/bitcoin/bitcoin/issues/comments/792234655/reactions",
      "total_count": 1,
      "+1": 1,
      "-1": 0,
      "laugh": 0,
      "hooray": 0,
      "confused": 0,
      "heart": 0,
      "rocket": 0,
      "eyes": 0
    },
    "performed_via_github_app": null
  },
  {
    "url": "https://api.github.com/repos/bitcoin/bitcoin/issues/comments/794318701",
    "html_url": "https://github.com/bitcoin/bitcoin/pull/21372#issuecomment-794318701",
    "issue_url": "https://api.github.com/repos/bitcoin/bitcoin/issues/21372",
    "id": 794318701,
    "node_id": "MDEyOklzc3VlQ29tbWVudDc5NDMxODcwMQ==",
    "user": {
      "login": "luke-jr",
      "id": 1095675,
      "node_id": "MDQ6VXNlcjEwOTU2NzU=",
      "avatar_url": "https://avatars.githubusercontent.com/u/1095675?v=4",
      "gravatar_id": "",
      "url": "https://api.github.com/users/luke-jr",
      "html_url": "https://github.com/luke-jr",
      "followers_url": "https://api.github.com/users/luke-jr/followers",
      "following_url": "https://api.github.com/users/luke-jr/following{/other_user}",
      "gists_url": "https://api.github.com/users/luke-jr/gists{/gist_id}",
      "starred_url": "https://api.github.com/users/luke-jr/starred{/owner}{/repo}",
      "subscriptions_url": "https://api.github.com/users/luke-jr/subscriptions",
      "organizations_url": "https://api.github.com/users/luke-jr/orgs",
      "repos_url": "https://api.github.com/users/luke-jr/repos",
      "events_url": "https://api.github.com/users/luke-jr/events{/privacy}",
      "received_events_url": "https://api.github.com/users/luke-jr/received_events",
      "type": "User",
      "site_admin": false
    },
    "created_at": "2021-03-09T19:06:08Z",
    "updated_at": "2021-03-09T19:06:08Z",
    "author_association": "MEMBER",
    "body_html": "<blockquote>\n<p dir=\"auto\">As soon as there is at least one transaction missing, a roundtrip is needed which effectively triples the block relay time on each hop</p>\n</blockquote>\n<p dir=\"auto\">It doesn't need to. Maybe we should add logic to include any policy-rejected transactions in the initial compact block?</p>",
    "body_text": "As soon as there is at least one transaction missing, a roundtrip is needed which effectively triples the block relay time on each hop\n\nIt doesn't need to. Maybe we should add logic to include any policy-rejected transactions in the initial compact block?",
    "body": ">As soon as there is at least one transaction missing, a roundtrip is needed which effectively triples the block relay time on each hop\r\n\r\nIt doesn't need to. Maybe we should add logic to include any policy-rejected transactions in the initial compact block?",
    "reactions": {
      "url": "https://api.github.com/repos/bitcoin/bitcoin/issues/comments/794318701/reactions",
      "total_count": 0,
      "+1": 0,
      "-1": 0,
      "laugh": 0,
      "hooray": 0,
      "confused": 0,
      "heart": 0,
      "rocket": 0,
      "eyes": 0
    },
    "performed_via_github_app": null
  }
]
