{
  "url": "https://api.github.com/repos/bitcoin/bitcoin/issues/30116",
  "repository_url": "https://api.github.com/repos/bitcoin/bitcoin",
  "labels_url": "https://api.github.com/repos/bitcoin/bitcoin/issues/30116/labels{/name}",
  "comments_url": "https://api.github.com/repos/bitcoin/bitcoin/issues/30116/comments",
  "events_url": "https://api.github.com/repos/bitcoin/bitcoin/issues/30116/events",
  "html_url": "https://github.com/bitcoin/bitcoin/pull/30116",
  "id": 2298741909,
  "node_id": "PR_kwDOABII585vk93m",
  "number": 30116,
  "title": "p2p: Fill reconciliation sets (Erlay) attempt 2",
  "user": {
    "login": "sr-gi",
    "id": 6665628,
    "node_id": "MDQ6VXNlcjY2NjU2Mjg=",
    "avatar_url": "https://avatars.githubusercontent.com/u/6665628?v=4",
    "gravatar_id": "",
    "url": "https://api.github.com/users/sr-gi",
    "html_url": "https://github.com/sr-gi",
    "followers_url": "https://api.github.com/users/sr-gi/followers",
    "following_url": "https://api.github.com/users/sr-gi/following{/other_user}",
    "gists_url": "https://api.github.com/users/sr-gi/gists{/gist_id}",
    "starred_url": "https://api.github.com/users/sr-gi/starred{/owner}{/repo}",
    "subscriptions_url": "https://api.github.com/users/sr-gi/subscriptions",
    "organizations_url": "https://api.github.com/users/sr-gi/orgs",
    "repos_url": "https://api.github.com/users/sr-gi/repos",
    "events_url": "https://api.github.com/users/sr-gi/events{/privacy}",
    "received_events_url": "https://api.github.com/users/sr-gi/received_events",
    "type": "User",
    "site_admin": false
  },
  "labels": [
    {
      "id": 98298007,
      "node_id": "MDU6TGFiZWw5ODI5ODAwNw==",
      "url": "https://api.github.com/repos/bitcoin/bitcoin/labels/P2P",
      "name": "P2P",
      "color": "006b75",
      "default": false,
      "description": null
    }
  ],
  "state": "open",
  "locked": false,
  "assignee": null,
  "assignees": [

  ],
  "milestone": null,
  "comments": 2,
  "created_at": "2024-05-15T20:01:38Z",
  "updated_at": "2024-05-30T15:08:35Z",
  "closed_at": null,
  "author_association": "MEMBER",
  "active_lock_reason": null,
  "draft": false,
  "pull_request": {
    "url": "https://api.github.com/repos/bitcoin/bitcoin/pulls/30116",
    "html_url": "https://github.com/bitcoin/bitcoin/pull/30116",
    "diff_url": "https://github.com/bitcoin/bitcoin/pull/30116.diff",
    "patch_url": "https://github.com/bitcoin/bitcoin/pull/30116.patch",
    "merged_at": null
  },
  "body_html": "<p dir=\"auto\">This is a re-attempt of <a class=\"issue-link js-issue-link\" data-error-text=\"Failed to load title\" data-id=\"1971980668\" data-permission-text=\"Title is private\" data-url=\"https://github.com/bitcoin/bitcoin/issues/28765\" data-hovercard-type=\"pull_request\" data-hovercard-url=\"/bitcoin/bitcoin/pull/28765/hovercard\" href=\"https://github.com/bitcoin/bitcoin/pull/28765\">#28765</a></p>\n<p dir=\"auto\">The main differences from it are:</p>\n<ul dir=\"auto\">\n<li>Most outstanding comments have been addressed (or responded to on the original PR)</li>\n<li>The description of how a node is picked in <code class=\"notranslate\">IsFanoutTarget</code> has been updated to reflect what the algorithm is doing (not how it is doing it)</li>\n<li>The way <code class=\"notranslate\">hash_key</code> is seeded in <code class=\"notranslate\">IsFanoutTarget</code> has changed (from <code class=\"notranslate\">m_k0</code> to <code class=\"notranslate\">wtxid.ToUint256()</code>). This is to prevent using <code class=\"notranslate\">m_k0</code> for something it is not intended to, given what data we feed to the randomizer should not matter</li>\n<li><code class=\"notranslate\">destinations/target</code> has been renamed to <code class=\"notranslate\">n</code> in <code class=\"notranslate\">ShouldFanoutTo/IsFanoutTarget</code></li>\n<li>The PR has been rebased</li>\n</ul>\n<p dir=\"auto\">The differences can be easily checked via <code class=\"notranslate\">git range-diff a14dfd9c873d1e196252c77ad7a8b32bd21b6f6d...ac5dc0aa512e78a1cc90e0ab182eedaec68b0444</code></p>\n<p dir=\"auto\">Erlay Project Tracking: <a class=\"issue-link js-issue-link\" data-error-text=\"Failed to load title\" data-id=\"1941535143\" data-permission-text=\"Title is private\" data-url=\"https://github.com/bitcoin/bitcoin/issues/28646\" data-hovercard-type=\"issue\" data-hovercard-url=\"/bitcoin/bitcoin/issues/28646/hovercard\" href=\"https://github.com/bitcoin/bitcoin/issues/28646\">#28646</a></p>",
  "body_text": "This is a re-attempt of #28765\nThe main differences from it are:\n\nMost outstanding comments have been addressed (or responded to on the original PR)\nThe description of how a node is picked in IsFanoutTarget has been updated to reflect what the algorithm is doing (not how it is doing it)\nThe way hash_key is seeded in IsFanoutTarget has changed (from m_k0 to wtxid.ToUint256()). This is to prevent using m_k0 for something it is not intended to, given what data we feed to the randomizer should not matter\ndestinations/target has been renamed to n in ShouldFanoutTo/IsFanoutTarget\nThe PR has been rebased\n\nThe differences can be easily checked via git range-diff a14dfd9c873d1e196252c77ad7a8b32bd21b6f6d...ac5dc0aa512e78a1cc90e0ab182eedaec68b0444\nErlay Project Tracking: #28646",
  "body": "This is a re-attempt of https://github.com/bitcoin/bitcoin/pull/28765\r\n\r\nThe main differences from it are:\r\n\r\n- Most outstanding comments have been addressed (or responded to on the original PR)\r\n- The description of how a node is picked in `IsFanoutTarget` has been updated to reflect what the algorithm is doing (not how it is doing it)\r\n- The way `hash_key` is seeded in `IsFanoutTarget` has changed (from `m_k0` to `wtxid.ToUint256()`). This is to prevent using `m_k0` for something it is not intended to, given what data we feed to the randomizer should not matter\r\n- `destinations/target` has been renamed to `n` in `ShouldFanoutTo/IsFanoutTarget` \r\n- The PR has been rebased \r\n\r\nThe differences can be easily checked via `git range-diff a14dfd9c873d1e196252c77ad7a8b32bd21b6f6d...ac5dc0aa512e78a1cc90e0ab182eedaec68b0444`\r\n\r\nErlay Project Tracking: https://github.com/bitcoin/bitcoin/issues/28646",
  "closed_by": null,
  "reactions": {
    "url": "https://api.github.com/repos/bitcoin/bitcoin/issues/30116/reactions",
    "total_count": 7,
    "+1": 0,
    "-1": 0,
    "laugh": 0,
    "hooray": 0,
    "confused": 0,
    "heart": 0,
    "rocket": 7,
    "eyes": 0
  },
  "timeline_url": "https://api.github.com/repos/bitcoin/bitcoin/issues/30116/timeline",
  "performed_via_github_app": null,
  "state_reason": null
}
