[
  {
    "url": "https://api.github.com/repos/bitcoin/bitcoin/issues/comments/12191690",
    "html_url": "https://github.com/bitcoin/bitcoin/pull/2172#issuecomment-12191690",
    "issue_url": "https://api.github.com/repos/bitcoin/bitcoin/issues/2172",
    "id": 12191690,
    "node_id": "MDEyOklzc3VlQ29tbWVudDEyMTkxNjkw",
    "user": {
      "login": "laanwj",
      "id": 126646,
      "node_id": "MDQ6VXNlcjEyNjY0Ng==",
      "avatar_url": "https://avatars.githubusercontent.com/u/126646?v=4",
      "gravatar_id": "",
      "url": "https://api.github.com/users/laanwj",
      "html_url": "https://github.com/laanwj",
      "followers_url": "https://api.github.com/users/laanwj/followers",
      "following_url": "https://api.github.com/users/laanwj/following{/other_user}",
      "gists_url": "https://api.github.com/users/laanwj/gists{/gist_id}",
      "starred_url": "https://api.github.com/users/laanwj/starred{/owner}{/repo}",
      "subscriptions_url": "https://api.github.com/users/laanwj/subscriptions",
      "organizations_url": "https://api.github.com/users/laanwj/orgs",
      "repos_url": "https://api.github.com/users/laanwj/repos",
      "events_url": "https://api.github.com/users/laanwj/events{/privacy}",
      "received_events_url": "https://api.github.com/users/laanwj/received_events",
      "type": "User",
      "site_admin": false
    },
    "created_at": "2013-01-13T09:59:45Z",
    "updated_at": "2013-01-13T09:59:45Z",
    "author_association": "MEMBER",
    "body_html": "<p dir=\"auto\">ACK</p>",
    "body_text": "ACK",
    "body": "ACK\n",
    "reactions": {
      "url": "https://api.github.com/repos/bitcoin/bitcoin/issues/comments/12191690/reactions",
      "total_count": 0,
      "+1": 0,
      "-1": 0,
      "laugh": 0,
      "hooray": 0,
      "confused": 0,
      "heart": 0,
      "rocket": 0,
      "eyes": 0
    },
    "performed_via_github_app": null
  },
  {
    "url": "https://api.github.com/repos/bitcoin/bitcoin/issues/comments/12199528",
    "html_url": "https://github.com/bitcoin/bitcoin/pull/2172#issuecomment-12199528",
    "issue_url": "https://api.github.com/repos/bitcoin/bitcoin/issues/2172",
    "id": 12199528,
    "node_id": "MDEyOklzc3VlQ29tbWVudDEyMTk5NTI4",
    "user": {
      "login": "Diapolo",
      "id": 1419649,
      "node_id": "MDQ6VXNlcjE0MTk2NDk=",
      "avatar_url": "https://avatars.githubusercontent.com/u/1419649?v=4",
      "gravatar_id": "",
      "url": "https://api.github.com/users/Diapolo",
      "html_url": "https://github.com/Diapolo",
      "followers_url": "https://api.github.com/users/Diapolo/followers",
      "following_url": "https://api.github.com/users/Diapolo/following{/other_user}",
      "gists_url": "https://api.github.com/users/Diapolo/gists{/gist_id}",
      "starred_url": "https://api.github.com/users/Diapolo/starred{/owner}{/repo}",
      "subscriptions_url": "https://api.github.com/users/Diapolo/subscriptions",
      "organizations_url": "https://api.github.com/users/Diapolo/orgs",
      "repos_url": "https://api.github.com/users/Diapolo/repos",
      "events_url": "https://api.github.com/users/Diapolo/events{/privacy}",
      "received_events_url": "https://api.github.com/users/Diapolo/received_events",
      "type": "User",
      "site_admin": false
    },
    "created_at": "2013-01-13T20:24:21Z",
    "updated_at": "2013-01-13T20:24:21Z",
    "author_association": "NONE",
    "body_html": "<p dir=\"auto\">Updated to use just <code class=\"notranslate\">block database</code> (instead block/coin database) to be better understandable for our users.</p>",
    "body_text": "Updated to use just block database (instead block/coin database) to be better understandable for our users.",
    "body": "Updated to use just `block database` (instead block/coin database) to be better understandable for our users.\n",
    "reactions": {
      "url": "https://api.github.com/repos/bitcoin/bitcoin/issues/comments/12199528/reactions",
      "total_count": 0,
      "+1": 0,
      "-1": 0,
      "laugh": 0,
      "hooray": 0,
      "confused": 0,
      "heart": 0,
      "rocket": 0,
      "eyes": 0
    },
    "performed_via_github_app": null
  },
  {
    "url": "https://api.github.com/repos/bitcoin/bitcoin/issues/comments/12202263",
    "html_url": "https://github.com/bitcoin/bitcoin/pull/2172#issuecomment-12202263",
    "issue_url": "https://api.github.com/repos/bitcoin/bitcoin/issues/2172",
    "id": 12202263,
    "node_id": "MDEyOklzc3VlQ29tbWVudDEyMjAyMjYz",
    "user": {
      "login": "BitcoinPullTester",
      "id": 2110907,
      "node_id": "MDQ6VXNlcjIxMTA5MDc=",
      "avatar_url": "https://avatars.githubusercontent.com/u/2110907?v=4",
      "gravatar_id": "",
      "url": "https://api.github.com/users/BitcoinPullTester",
      "html_url": "https://github.com/BitcoinPullTester",
      "followers_url": "https://api.github.com/users/BitcoinPullTester/followers",
      "following_url": "https://api.github.com/users/BitcoinPullTester/following{/other_user}",
      "gists_url": "https://api.github.com/users/BitcoinPullTester/gists{/gist_id}",
      "starred_url": "https://api.github.com/users/BitcoinPullTester/starred{/owner}{/repo}",
      "subscriptions_url": "https://api.github.com/users/BitcoinPullTester/subscriptions",
      "organizations_url": "https://api.github.com/users/BitcoinPullTester/orgs",
      "repos_url": "https://api.github.com/users/BitcoinPullTester/repos",
      "events_url": "https://api.github.com/users/BitcoinPullTester/events{/privacy}",
      "received_events_url": "https://api.github.com/users/BitcoinPullTester/received_events",
      "type": "User",
      "site_admin": false
    },
    "created_at": "2013-01-13T23:05:44Z",
    "updated_at": "2013-01-13T23:05:44Z",
    "author_association": "NONE",
    "body_html": "<p dir=\"auto\">Automatic sanity-testing: PASSED, see <a href=\"http://jenkins.bluematt.me/pull-tester/06494cabb48f005f058cc8e6f6b1b33ee1464e8b\" rel=\"nofollow\">http://jenkins.bluematt.me/pull-tester/06494cabb48f005f058cc8e6f6b1b33ee1464e8b</a> for binaries and test log.</p>",
    "body_text": "Automatic sanity-testing: PASSED, see http://jenkins.bluematt.me/pull-tester/06494cabb48f005f058cc8e6f6b1b33ee1464e8b for binaries and test log.",
    "body": "Automatic sanity-testing: PASSED, see http://jenkins.bluematt.me/pull-tester/06494cabb48f005f058cc8e6f6b1b33ee1464e8b for binaries and test log.\n",
    "reactions": {
      "url": "https://api.github.com/repos/bitcoin/bitcoin/issues/comments/12202263/reactions",
      "total_count": 0,
      "+1": 0,
      "-1": 0,
      "laugh": 0,
      "hooray": 0,
      "confused": 0,
      "heart": 0,
      "rocket": 0,
      "eyes": 0
    },
    "performed_via_github_app": null
  },
  {
    "url": "https://api.github.com/repos/bitcoin/bitcoin/issues/comments/12237370",
    "html_url": "https://github.com/bitcoin/bitcoin/pull/2172#issuecomment-12237370",
    "issue_url": "https://api.github.com/repos/bitcoin/bitcoin/issues/2172",
    "id": 12237370,
    "node_id": "MDEyOklzc3VlQ29tbWVudDEyMjM3Mzcw",
    "user": {
      "login": "sipa",
      "id": 548488,
      "node_id": "MDQ6VXNlcjU0ODQ4OA==",
      "avatar_url": "https://avatars.githubusercontent.com/u/548488?v=4",
      "gravatar_id": "",
      "url": "https://api.github.com/users/sipa",
      "html_url": "https://github.com/sipa",
      "followers_url": "https://api.github.com/users/sipa/followers",
      "following_url": "https://api.github.com/users/sipa/following{/other_user}",
      "gists_url": "https://api.github.com/users/sipa/gists{/gist_id}",
      "starred_url": "https://api.github.com/users/sipa/starred{/owner}{/repo}",
      "subscriptions_url": "https://api.github.com/users/sipa/subscriptions",
      "organizations_url": "https://api.github.com/users/sipa/orgs",
      "repos_url": "https://api.github.com/users/sipa/repos",
      "events_url": "https://api.github.com/users/sipa/events{/privacy}",
      "received_events_url": "https://api.github.com/users/sipa/received_events",
      "type": "User",
      "site_admin": false
    },
    "created_at": "2013-01-14T20:14:09Z",
    "updated_at": "2013-01-14T20:14:09Z",
    "author_association": "MEMBER",
    "body_html": "<p dir=\"auto\">ACK</p>",
    "body_text": "ACK",
    "body": "ACK\n",
    "reactions": {
      "url": "https://api.github.com/repos/bitcoin/bitcoin/issues/comments/12237370/reactions",
      "total_count": 0,
      "+1": 0,
      "-1": 0,
      "laugh": 0,
      "hooray": 0,
      "confused": 0,
      "heart": 0,
      "rocket": 0,
      "eyes": 0
    },
    "performed_via_github_app": null
  }
]
