[
  {
    "url": "https://api.github.com/repos/bitcoin/bitcoin/issues/comments/1382977703",
    "html_url": "https://github.com/bitcoin/bitcoin/pull/26892#issuecomment-1382977703",
    "issue_url": "https://api.github.com/repos/bitcoin/bitcoin/issues/26892",
    "id": 1382977703,
    "node_id": "IC_kwDOABII585SbpCn",
    "user": {
      "login": "DrahtBot",
      "id": 39886733,
      "node_id": "MDQ6VXNlcjM5ODg2NzMz",
      "avatar_url": "https://avatars.githubusercontent.com/u/39886733?v=4",
      "gravatar_id": "",
      "url": "https://api.github.com/users/DrahtBot",
      "html_url": "https://github.com/DrahtBot",
      "followers_url": "https://api.github.com/users/DrahtBot/followers",
      "following_url": "https://api.github.com/users/DrahtBot/following{/other_user}",
      "gists_url": "https://api.github.com/users/DrahtBot/gists{/gist_id}",
      "starred_url": "https://api.github.com/users/DrahtBot/starred{/owner}{/repo}",
      "subscriptions_url": "https://api.github.com/users/DrahtBot/subscriptions",
      "organizations_url": "https://api.github.com/users/DrahtBot/orgs",
      "repos_url": "https://api.github.com/users/DrahtBot/repos",
      "events_url": "https://api.github.com/users/DrahtBot/events{/privacy}",
      "received_events_url": "https://api.github.com/users/DrahtBot/received_events",
      "type": "User",
      "site_admin": false
    },
    "created_at": "2023-01-15T00:18:53Z",
    "updated_at": "2023-01-16T09:36:49Z",
    "author_association": "CONTRIBUTOR",
    "body_html": "\n<p dir=\"auto\">The following sections might be updated with supplementary metadata relevant to reviewers and maintainers.</p>\n\n<h3 dir=\"auto\">Reviews</h3>\n<p dir=\"auto\">See <a href=\"https://github.com/bitcoin/bitcoin/blob/master/CONTRIBUTING.md#code-review\">the guideline</a> for information on the review process.</p>\n<table role=\"table\">\n<thead>\n<tr>\n<th>Type</th>\n<th>Reviewers</th>\n</tr>\n</thead>\n<tbody>\n<tr>\n<td>ACK</td>\n<td><a href=\"https://github.com/bitcoin/bitcoin/pull/26892#issuecomment-1383754083\" data-hovercard-type=\"pull_request\" data-hovercard-url=\"/bitcoin/bitcoin/pull/26892/hovercard\">MarcoFalke</a></td>\n</tr>\n</tbody>\n</table>\n<p dir=\"auto\">If your review is incorrectly listed, please react with 👎 to this comment and the bot will ignore it on the next update.</p>",
    "body_text": "The following sections might be updated with supplementary metadata relevant to reviewers and maintainers.\n\nReviews\nSee the guideline for information on the review process.\n\n\n\nType\nReviewers\n\n\n\n\nACK\nMarcoFalke\n\n\n\nIf your review is incorrectly listed, please react with 👎 to this comment and the bot will ignore it on the next update.",
    "body": "<!--e57a25ab6845829454e8d69fc972939a-->\n\nThe following sections might be updated with supplementary metadata relevant to reviewers and maintainers.\n\n<!--021abf342d371248e50ceaed478a90ca-->\n### Reviews\nSee [the guideline](https://github.com/bitcoin/bitcoin/blob/master/CONTRIBUTING.md#code-review) for information on the review process.\n| Type | Reviewers |\n| ---- | --------- |\n| ACK | [MarcoFalke](https://github.com/bitcoin/bitcoin/pull/26892#issuecomment-1383754083) |\n\nIf your review is incorrectly listed, please react with 👎 to this comment and the bot will ignore it on the next update.\n",
    "reactions": {
      "url": "https://api.github.com/repos/bitcoin/bitcoin/issues/comments/1382977703/reactions",
      "total_count": 0,
      "+1": 0,
      "-1": 0,
      "laugh": 0,
      "hooray": 0,
      "confused": 0,
      "heart": 0,
      "rocket": 0,
      "eyes": 0
    },
    "performed_via_github_app": null
  },
  {
    "url": "https://api.github.com/repos/bitcoin/bitcoin/issues/comments/1383754083",
    "html_url": "https://github.com/bitcoin/bitcoin/pull/26892#issuecomment-1383754083",
    "issue_url": "https://api.github.com/repos/bitcoin/bitcoin/issues/26892",
    "id": 1383754083,
    "node_id": "IC_kwDOABII585Semlj",
    "user": {
      "login": "maflcko",
      "id": 6399679,
      "node_id": "MDQ6VXNlcjYzOTk2Nzk=",
      "avatar_url": "https://avatars.githubusercontent.com/u/6399679?v=4",
      "gravatar_id": "",
      "url": "https://api.github.com/users/maflcko",
      "html_url": "https://github.com/maflcko",
      "followers_url": "https://api.github.com/users/maflcko/followers",
      "following_url": "https://api.github.com/users/maflcko/following{/other_user}",
      "gists_url": "https://api.github.com/users/maflcko/gists{/gist_id}",
      "starred_url": "https://api.github.com/users/maflcko/starred{/owner}{/repo}",
      "subscriptions_url": "https://api.github.com/users/maflcko/subscriptions",
      "organizations_url": "https://api.github.com/users/maflcko/orgs",
      "repos_url": "https://api.github.com/users/maflcko/repos",
      "events_url": "https://api.github.com/users/maflcko/events{/privacy}",
      "received_events_url": "https://api.github.com/users/maflcko/received_events",
      "type": "User",
      "site_admin": false
    },
    "created_at": "2023-01-16T09:36:47Z",
    "updated_at": "2023-01-16T09:36:47Z",
    "author_association": "MEMBER",
    "body_html": "<p dir=\"auto\">ACK <a class=\"commit-link\" data-hovercard-type=\"commit\" data-hovercard-url=\"https://github.com/bitcoin/bitcoin/commit/8cbd926a2c5f230dbb39c88eff9c5955068e7e41/hovercard\" href=\"https://github.com/bitcoin/bitcoin/commit/8cbd926a2c5f230dbb39c88eff9c5955068e7e41\"><tt>8cbd926</tt></a></p>",
    "body_text": "ACK 8cbd926",
    "body": "ACK 8cbd926a2c5f230dbb39c88eff9c5955068e7e41",
    "reactions": {
      "url": "https://api.github.com/repos/bitcoin/bitcoin/issues/comments/1383754083/reactions",
      "total_count": 0,
      "+1": 0,
      "-1": 0,
      "laugh": 0,
      "hooray": 0,
      "confused": 0,
      "heart": 0,
      "rocket": 0,
      "eyes": 0
    },
    "performed_via_github_app": null
  }
]
