[
  {
    "url": "https://api.github.com/repos/bitcoin/bitcoin/issues/comments/1715508251",
    "html_url": "https://github.com/bitcoin/bitcoin/pull/28458#issuecomment-1715508251",
    "issue_url": "https://api.github.com/repos/bitcoin/bitcoin/issues/28458",
    "id": 1715508251,
    "node_id": "IC_kwDOABII585mQJQb",
    "user": {
      "login": "DrahtBot",
      "id": 39886733,
      "node_id": "MDQ6VXNlcjM5ODg2NzMz",
      "avatar_url": "https://avatars.githubusercontent.com/u/39886733?v=4",
      "gravatar_id": "",
      "url": "https://api.github.com/users/DrahtBot",
      "html_url": "https://github.com/DrahtBot",
      "followers_url": "https://api.github.com/users/DrahtBot/followers",
      "following_url": "https://api.github.com/users/DrahtBot/following{/other_user}",
      "gists_url": "https://api.github.com/users/DrahtBot/gists{/gist_id}",
      "starred_url": "https://api.github.com/users/DrahtBot/starred{/owner}{/repo}",
      "subscriptions_url": "https://api.github.com/users/DrahtBot/subscriptions",
      "organizations_url": "https://api.github.com/users/DrahtBot/orgs",
      "repos_url": "https://api.github.com/users/DrahtBot/repos",
      "events_url": "https://api.github.com/users/DrahtBot/events{/privacy}",
      "received_events_url": "https://api.github.com/users/DrahtBot/received_events",
      "type": "User",
      "site_admin": false
    },
    "created_at": "2023-09-12T11:00:50Z",
    "updated_at": "2023-09-14T02:42:18Z",
    "author_association": "CONTRIBUTOR",
    "body_html": "\n<p dir=\"auto\">The following sections might be updated with supplementary metadata relevant to reviewers and maintainers.</p>\n\n<h3 dir=\"auto\">Reviews</h3>\n<p dir=\"auto\">See <a href=\"https://github.com/bitcoin/bitcoin/blob/master/CONTRIBUTING.md#code-review\">the guideline</a> for information on the review process.</p>\n<table role=\"table\">\n<thead>\n<tr>\n<th>Type</th>\n<th>Reviewers</th>\n</tr>\n</thead>\n<tbody>\n<tr>\n<td>ACK</td>\n<td><a href=\"https://github.com/bitcoin/bitcoin/pull/28458#pullrequestreview-1624474974\" data-hovercard-type=\"pull_request\" data-hovercard-url=\"/bitcoin/bitcoin/pull/28458/hovercard\">TheCharlatan</a>, <a href=\"https://github.com/bitcoin/bitcoin/pull/28458#issuecomment-1718665154\" data-hovercard-type=\"pull_request\" data-hovercard-url=\"/bitcoin/bitcoin/pull/28458/hovercard\">ajtowns</a></td>\n</tr>\n</tbody>\n</table>\n<p dir=\"auto\">If your review is incorrectly listed, please react with 👎 to this comment and the bot will ignore it on the next update.</p>\n\n<h3 dir=\"auto\">Conflicts</h3>\n<p dir=\"auto\">Reviewers, this pull request conflicts with the following ones:</p>\n<ul dir=\"auto\">\n<li><a href=\"https://github.com/bitcoin/bitcoin/pull/28451\" data-hovercard-type=\"pull_request\" data-hovercard-url=\"/bitcoin/bitcoin/pull/28451/hovercard\">#28451</a> (Remove unused SER_DISK, SER_NETWORK, SER_GETHASH by MarcoFalke)</li>\n<li><a href=\"https://github.com/bitcoin/bitcoin/pull/28207\" data-hovercard-type=\"pull_request\" data-hovercard-url=\"/bitcoin/bitcoin/pull/28207/hovercard\">#28207</a> (mempool: Persist with XOR by MarcoFalke)</li>\n<li><a href=\"https://github.com/bitcoin/bitcoin/pull/28052\" data-hovercard-type=\"pull_request\" data-hovercard-url=\"/bitcoin/bitcoin/pull/28052/hovercard\">#28052</a> (blockstorage: XOR blocksdir *.dat files by MarcoFalke)</li>\n<li><a href=\"https://github.com/bitcoin/bitcoin/pull/24230\" data-hovercard-type=\"pull_request\" data-hovercard-url=\"/bitcoin/bitcoin/pull/24230/hovercard\">#24230</a> (indexes: Stop using node internal types and locking cs_main, improve sync logic by ryanofsky)</li>\n</ul>\n<p dir=\"auto\">If you consider this pull request important, please also help to review the conflicting pull requests. Ideally, start with the one that should be merged first.</p>",
    "body_text": "The following sections might be updated with supplementary metadata relevant to reviewers and maintainers.\n\nReviews\nSee the guideline for information on the review process.\n\n\n\nType\nReviewers\n\n\n\n\nACK\nTheCharlatan, ajtowns\n\n\n\nIf your review is incorrectly listed, please react with 👎 to this comment and the bot will ignore it on the next update.\n\nConflicts\nReviewers, this pull request conflicts with the following ones:\n\n#28451 (Remove unused SER_DISK, SER_NETWORK, SER_GETHASH by MarcoFalke)\n#28207 (mempool: Persist with XOR by MarcoFalke)\n#28052 (blockstorage: XOR blocksdir *.dat files by MarcoFalke)\n#24230 (indexes: Stop using node internal types and locking cs_main, improve sync logic by ryanofsky)\n\nIf you consider this pull request important, please also help to review the conflicting pull requests. Ideally, start with the one that should be merged first.",
    "body": "<!--e57a25ab6845829454e8d69fc972939a-->\n\nThe following sections might be updated with supplementary metadata relevant to reviewers and maintainers.\n\n<!--021abf342d371248e50ceaed478a90ca-->\n### Reviews\nSee [the guideline](https://github.com/bitcoin/bitcoin/blob/master/CONTRIBUTING.md#code-review) for information on the review process.\n| Type | Reviewers |\n| ---- | --------- |\n| ACK | [TheCharlatan](https://github.com/bitcoin/bitcoin/pull/28458#pullrequestreview-1624474974), [ajtowns](https://github.com/bitcoin/bitcoin/pull/28458#issuecomment-1718665154) |\n\nIf your review is incorrectly listed, please react with 👎 to this comment and the bot will ignore it on the next update.\n<!--174a7506f384e20aa4161008e828411d-->\n### Conflicts\nReviewers, this pull request conflicts with the following ones:\n\n* [#28451](https://github.com/bitcoin/bitcoin/pull/28451) (Remove unused SER_DISK, SER_NETWORK, SER_GETHASH by MarcoFalke)\n* [#28207](https://github.com/bitcoin/bitcoin/pull/28207) (mempool: Persist with XOR by MarcoFalke)\n* [#28052](https://github.com/bitcoin/bitcoin/pull/28052) (blockstorage: XOR blocksdir *.dat files by MarcoFalke)\n* [#24230](https://github.com/bitcoin/bitcoin/pull/24230) (indexes: Stop using node internal types and locking cs_main, improve sync logic by ryanofsky)\n\nIf you consider this pull request important, please also help to review the conflicting pull requests. Ideally, start with the one that should be merged first.\n",
    "reactions": {
      "url": "https://api.github.com/repos/bitcoin/bitcoin/issues/comments/1715508251/reactions",
      "total_count": 0,
      "+1": 0,
      "-1": 0,
      "laugh": 0,
      "hooray": 0,
      "confused": 0,
      "heart": 0,
      "rocket": 0,
      "eyes": 0
    },
    "performed_via_github_app": null
  },
  {
    "url": "https://api.github.com/repos/bitcoin/bitcoin/issues/comments/1718665154",
    "html_url": "https://github.com/bitcoin/bitcoin/pull/28458#issuecomment-1718665154",
    "issue_url": "https://api.github.com/repos/bitcoin/bitcoin/issues/28458",
    "id": 1718665154,
    "node_id": "IC_kwDOABII585mcL_C",
    "user": {
      "login": "ajtowns",
      "id": 127186,
      "node_id": "MDQ6VXNlcjEyNzE4Ng==",
      "avatar_url": "https://avatars.githubusercontent.com/u/127186?v=4",
      "gravatar_id": "",
      "url": "https://api.github.com/users/ajtowns",
      "html_url": "https://github.com/ajtowns",
      "followers_url": "https://api.github.com/users/ajtowns/followers",
      "following_url": "https://api.github.com/users/ajtowns/following{/other_user}",
      "gists_url": "https://api.github.com/users/ajtowns/gists{/gist_id}",
      "starred_url": "https://api.github.com/users/ajtowns/starred{/owner}{/repo}",
      "subscriptions_url": "https://api.github.com/users/ajtowns/subscriptions",
      "organizations_url": "https://api.github.com/users/ajtowns/orgs",
      "repos_url": "https://api.github.com/users/ajtowns/repos",
      "events_url": "https://api.github.com/users/ajtowns/events{/privacy}",
      "received_events_url": "https://api.github.com/users/ajtowns/received_events",
      "type": "User",
      "site_admin": false
    },
    "created_at": "2023-09-14T02:42:16Z",
    "updated_at": "2023-09-14T02:42:16Z",
    "author_association": "CONTRIBUTOR",
    "body_html": "<p dir=\"auto\">utACK <a class=\"commit-link\" data-hovercard-type=\"commit\" data-hovercard-url=\"https://github.com/bitcoin/bitcoin/commit/fa19c914f7fe7be127c0fb330b41ff7c091f40aa/hovercard\" href=\"https://github.com/bitcoin/bitcoin/commit/fa19c914f7fe7be127c0fb330b41ff7c091f40aa\"><tt>fa19c91</tt></a></p>",
    "body_text": "utACK fa19c91",
    "body": "utACK fa19c914f7fe7be127c0fb330b41ff7c091f40aa",
    "reactions": {
      "url": "https://api.github.com/repos/bitcoin/bitcoin/issues/comments/1718665154/reactions",
      "total_count": 1,
      "+1": 0,
      "-1": 0,
      "laugh": 0,
      "hooray": 0,
      "confused": 0,
      "heart": 1,
      "rocket": 0,
      "eyes": 0
    },
    "performed_via_github_app": null
  }
]
