[
  {
    "url": "https://api.github.com/repos/bitcoin/bitcoin/issues/comments/1098362887",
    "html_url": "https://github.com/bitcoin/bitcoin/pull/24846#issuecomment-1098362887",
    "issue_url": "https://api.github.com/repos/bitcoin/bitcoin/issues/24846",
    "id": 1098362887,
    "node_id": "IC_kwDOABII585Bd7AH",
    "user": {
      "login": "laanwj",
      "id": 126646,
      "node_id": "MDQ6VXNlcjEyNjY0Ng==",
      "avatar_url": "https://avatars.githubusercontent.com/u/126646?v=4",
      "gravatar_id": "",
      "url": "https://api.github.com/users/laanwj",
      "html_url": "https://github.com/laanwj",
      "followers_url": "https://api.github.com/users/laanwj/followers",
      "following_url": "https://api.github.com/users/laanwj/following{/other_user}",
      "gists_url": "https://api.github.com/users/laanwj/gists{/gist_id}",
      "starred_url": "https://api.github.com/users/laanwj/starred{/owner}{/repo}",
      "subscriptions_url": "https://api.github.com/users/laanwj/subscriptions",
      "organizations_url": "https://api.github.com/users/laanwj/orgs",
      "repos_url": "https://api.github.com/users/laanwj/repos",
      "events_url": "https://api.github.com/users/laanwj/events{/privacy}",
      "received_events_url": "https://api.github.com/users/laanwj/received_events",
      "type": "User",
      "site_admin": false
    },
    "created_at": "2022-04-13T18:35:46Z",
    "updated_at": "2022-04-13T18:35:46Z",
    "author_association": "MEMBER",
    "body_html": "<p dir=\"auto\">I still agree with what I wrote in <a class=\"issue-link js-issue-link\" data-error-text=\"Failed to load title\" data-id=\"376575043\" data-permission-text=\"Title is private\" data-url=\"https://github.com/bitcoin/bitcoin/issues/14635\" data-hovercard-type=\"pull_request\" data-hovercard-url=\"/bitcoin/bitcoin/pull/14635/hovercard?comment_id=435853246&amp;comment_type=issue_comment\" href=\"https://github.com/bitcoin/bitcoin/pull/14635#issuecomment-435853246\">#14635 (comment)</a>, I really don't think we need another method naming style. There are a few places where the style is already used (such as in the GUI), we should keep using it there, but in core we use UpperCamelCase quite consistently and it would be worse to start mixing it.</p>",
    "body_text": "I still agree with what I wrote in #14635 (comment), I really don't think we need another method naming style. There are a few places where the style is already used (such as in the GUI), we should keep using it there, but in core we use UpperCamelCase quite consistently and it would be worse to start mixing it.",
    "body": "I still agree with what I wrote in https://github.com/bitcoin/bitcoin/pull/14635#issuecomment-435853246, I really don't think we need another method naming style. There are a few places where the style is already used (such as in the GUI), we should keep using it there, but in core we use UpperCamelCase quite consistently and it would be worse to start mixing it.",
    "reactions": {
      "url": "https://api.github.com/repos/bitcoin/bitcoin/issues/comments/1098362887/reactions",
      "total_count": 0,
      "+1": 0,
      "-1": 0,
      "laugh": 0,
      "hooray": 0,
      "confused": 0,
      "heart": 0,
      "rocket": 0,
      "eyes": 0
    },
    "performed_via_github_app": null
  },
  {
    "url": "https://api.github.com/repos/bitcoin/bitcoin/issues/comments/1098370237",
    "html_url": "https://github.com/bitcoin/bitcoin/pull/24846#issuecomment-1098370237",
    "issue_url": "https://api.github.com/repos/bitcoin/bitcoin/issues/24846",
    "id": 1098370237,
    "node_id": "IC_kwDOABII585Bd8y9",
    "user": {
      "login": "jonatack",
      "id": 2415484,
      "node_id": "MDQ6VXNlcjI0MTU0ODQ=",
      "avatar_url": "https://avatars.githubusercontent.com/u/2415484?v=4",
      "gravatar_id": "",
      "url": "https://api.github.com/users/jonatack",
      "html_url": "https://github.com/jonatack",
      "followers_url": "https://api.github.com/users/jonatack/followers",
      "following_url": "https://api.github.com/users/jonatack/following{/other_user}",
      "gists_url": "https://api.github.com/users/jonatack/gists{/gist_id}",
      "starred_url": "https://api.github.com/users/jonatack/starred{/owner}{/repo}",
      "subscriptions_url": "https://api.github.com/users/jonatack/subscriptions",
      "organizations_url": "https://api.github.com/users/jonatack/orgs",
      "repos_url": "https://api.github.com/users/jonatack/repos",
      "events_url": "https://api.github.com/users/jonatack/events{/privacy}",
      "received_events_url": "https://api.github.com/users/jonatack/received_events",
      "type": "User",
      "site_admin": false
    },
    "created_at": "2022-04-13T18:44:19Z",
    "updated_at": "2022-04-13T18:49:10Z",
    "author_association": "CONTRIBUTOR",
    "body_html": "<p dir=\"auto\">As I mentioned on IRC yesterday, the value to me of documenting this is to provide context for reviewers, i.e. when coming across code with this naming style over the past years but not having the context, I thought it was just the legacy style (or the Qt style).</p>\n<p dir=\"auto\">(I don't have a strong opinion about the naming style other than it seems best to stick with the same one for new and changed code to avoid renaming changes and discussions about it. This probably outweighs any advantage of one or the other, though again, no strong opinion; I'd just like it to be sort of clear if possible and minimize renamings.)</p>",
    "body_text": "As I mentioned on IRC yesterday, the value to me of documenting this is to provide context for reviewers, i.e. when coming across code with this naming style over the past years but not having the context, I thought it was just the legacy style (or the Qt style).\n(I don't have a strong opinion about the naming style other than it seems best to stick with the same one for new and changed code to avoid renaming changes and discussions about it. This probably outweighs any advantage of one or the other, though again, no strong opinion; I'd just like it to be sort of clear if possible and minimize renamings.)",
    "body": "As I mentioned on IRC yesterday, the value to me of documenting this is to provide context for reviewers, i.e. when coming across code with this naming style over the past years but not having the context, I thought it was just the legacy style (or the Qt style).\r\n\r\n(I don't have a strong opinion about the naming style other than it seems best to stick with the same one for new and changed code to avoid renaming changes and discussions about it. This probably outweighs any advantage of one or the other, though again, no strong opinion; I'd just like it to be sort of clear if possible and minimize renamings.)",
    "reactions": {
      "url": "https://api.github.com/repos/bitcoin/bitcoin/issues/comments/1098370237/reactions",
      "total_count": 0,
      "+1": 0,
      "-1": 0,
      "laugh": 0,
      "hooray": 0,
      "confused": 0,
      "heart": 0,
      "rocket": 0,
      "eyes": 0
    },
    "performed_via_github_app": null
  },
  {
    "url": "https://api.github.com/repos/bitcoin/bitcoin/issues/comments/1098371242",
    "html_url": "https://github.com/bitcoin/bitcoin/pull/24846#issuecomment-1098371242",
    "issue_url": "https://api.github.com/repos/bitcoin/bitcoin/issues/24846",
    "id": 1098371242,
    "node_id": "IC_kwDOABII585Bd9Cq",
    "user": {
      "login": "ryanofsky",
      "id": 7133040,
      "node_id": "MDQ6VXNlcjcxMzMwNDA=",
      "avatar_url": "https://avatars.githubusercontent.com/u/7133040?v=4",
      "gravatar_id": "",
      "url": "https://api.github.com/users/ryanofsky",
      "html_url": "https://github.com/ryanofsky",
      "followers_url": "https://api.github.com/users/ryanofsky/followers",
      "following_url": "https://api.github.com/users/ryanofsky/following{/other_user}",
      "gists_url": "https://api.github.com/users/ryanofsky/gists{/gist_id}",
      "starred_url": "https://api.github.com/users/ryanofsky/starred{/owner}{/repo}",
      "subscriptions_url": "https://api.github.com/users/ryanofsky/subscriptions",
      "organizations_url": "https://api.github.com/users/ryanofsky/orgs",
      "repos_url": "https://api.github.com/users/ryanofsky/repos",
      "events_url": "https://api.github.com/users/ryanofsky/events{/privacy}",
      "received_events_url": "https://api.github.com/users/ryanofsky/received_events",
      "type": "User",
      "site_admin": false
    },
    "created_at": "2022-04-13T18:45:31Z",
    "updated_at": "2022-04-13T18:45:31Z",
    "author_association": "CONTRIBUTOR",
    "body_html": "<blockquote>\n<p dir=\"auto\">would be worse to start mixing it</p>\n</blockquote>\n<p dir=\"auto\">This is either begging the question, or I'm missing something. Worse in what way? Aesthetically? Or is it worse to draw attention to the fact that a call is using implicit *this?</p>",
    "body_text": "would be worse to start mixing it\n\nThis is either begging the question, or I'm missing something. Worse in what way? Aesthetically? Or is it worse to draw attention to the fact that a call is using implicit *this?",
    "body": "> would be worse to start mixing it\r\n\r\nThis is either begging the question, or I'm missing something. Worse in what way? Aesthetically? Or is it worse to draw attention to the fact that a call is using implicit *this?",
    "reactions": {
      "url": "https://api.github.com/repos/bitcoin/bitcoin/issues/comments/1098371242/reactions",
      "total_count": 0,
      "+1": 0,
      "-1": 0,
      "laugh": 0,
      "hooray": 0,
      "confused": 0,
      "heart": 0,
      "rocket": 0,
      "eyes": 0
    },
    "performed_via_github_app": null
  },
  {
    "url": "https://api.github.com/repos/bitcoin/bitcoin/issues/comments/1098378114",
    "html_url": "https://github.com/bitcoin/bitcoin/pull/24846#issuecomment-1098378114",
    "issue_url": "https://api.github.com/repos/bitcoin/bitcoin/issues/24846",
    "id": 1098378114,
    "node_id": "IC_kwDOABII585Bd-uC",
    "user": {
      "login": "jamesob",
      "id": 73197,
      "node_id": "MDQ6VXNlcjczMTk3",
      "avatar_url": "https://avatars.githubusercontent.com/u/73197?v=4",
      "gravatar_id": "",
      "url": "https://api.github.com/users/jamesob",
      "html_url": "https://github.com/jamesob",
      "followers_url": "https://api.github.com/users/jamesob/followers",
      "following_url": "https://api.github.com/users/jamesob/following{/other_user}",
      "gists_url": "https://api.github.com/users/jamesob/gists{/gist_id}",
      "starred_url": "https://api.github.com/users/jamesob/starred{/owner}{/repo}",
      "subscriptions_url": "https://api.github.com/users/jamesob/subscriptions",
      "organizations_url": "https://api.github.com/users/jamesob/orgs",
      "repos_url": "https://api.github.com/users/jamesob/repos",
      "events_url": "https://api.github.com/users/jamesob/events{/privacy}",
      "received_events_url": "https://api.github.com/users/jamesob/received_events",
      "type": "User",
      "site_admin": false
    },
    "created_at": "2022-04-13T18:54:04Z",
    "updated_at": "2022-04-13T18:54:04Z",
    "author_association": "MEMBER",
    "body_html": "<blockquote>\n<p dir=\"auto\">There are a few places where the style is already used (such as in the GUI)</p>\n</blockquote>\n<p dir=\"auto\"><a class=\"user-mention notranslate\" data-hovercard-type=\"user\" data-hovercard-url=\"/users/laanwj/hovercard\" data-octo-click=\"hovercard-link-click\" data-octo-dimensions=\"link_type:self\" href=\"https://github.com/laanwj\">@laanwj</a> I'm confused because there are many more places in the code aside from the GUI where this convention is actively used, e.g. pretty much anything touched during the multiprocess work and some recent <a href=\"https://github.com/bitcoin/bitcoin/pull/23174/files#diff-d3c243938494b10666b44404a27af7d84b44a72b85a27431e0c89e181462ca6eR627\">assumeutxo changes</a>.</p>",
    "body_text": "There are a few places where the style is already used (such as in the GUI)\n\n@laanwj I'm confused because there are many more places in the code aside from the GUI where this convention is actively used, e.g. pretty much anything touched during the multiprocess work and some recent assumeutxo changes.",
    "body": "> There are a few places where the style is already used (such as in the GUI)\r\n\r\n@laanwj I'm confused because there are many more places in the code aside from the GUI where this convention is actively used, e.g. pretty much anything touched during the multiprocess work and some recent [assumeutxo changes](https://github.com/bitcoin/bitcoin/pull/23174/files#diff-d3c243938494b10666b44404a27af7d84b44a72b85a27431e0c89e181462ca6eR627).",
    "reactions": {
      "url": "https://api.github.com/repos/bitcoin/bitcoin/issues/comments/1098378114/reactions",
      "total_count": 0,
      "+1": 0,
      "-1": 0,
      "laugh": 0,
      "hooray": 0,
      "confused": 0,
      "heart": 0,
      "rocket": 0,
      "eyes": 0
    },
    "performed_via_github_app": null
  },
  {
    "url": "https://api.github.com/repos/bitcoin/bitcoin/issues/comments/1098384250",
    "html_url": "https://github.com/bitcoin/bitcoin/pull/24846#issuecomment-1098384250",
    "issue_url": "https://api.github.com/repos/bitcoin/bitcoin/issues/24846",
    "id": 1098384250,
    "node_id": "IC_kwDOABII585BeAN6",
    "user": {
      "login": "sipa",
      "id": 548488,
      "node_id": "MDQ6VXNlcjU0ODQ4OA==",
      "avatar_url": "https://avatars.githubusercontent.com/u/548488?v=4",
      "gravatar_id": "",
      "url": "https://api.github.com/users/sipa",
      "html_url": "https://github.com/sipa",
      "followers_url": "https://api.github.com/users/sipa/followers",
      "following_url": "https://api.github.com/users/sipa/following{/other_user}",
      "gists_url": "https://api.github.com/users/sipa/gists{/gist_id}",
      "starred_url": "https://api.github.com/users/sipa/starred{/owner}{/repo}",
      "subscriptions_url": "https://api.github.com/users/sipa/subscriptions",
      "organizations_url": "https://api.github.com/users/sipa/orgs",
      "repos_url": "https://api.github.com/users/sipa/repos",
      "events_url": "https://api.github.com/users/sipa/events{/privacy}",
      "received_events_url": "https://api.github.com/users/sipa/received_events",
      "type": "User",
      "site_admin": false
    },
    "created_at": "2022-04-13T19:02:06Z",
    "updated_at": "2022-04-13T19:02:06Z",
    "author_association": "MEMBER",
    "body_html": "<blockquote>\n<p dir=\"auto\"><a class=\"user-mention notranslate\" data-hovercard-type=\"user\" data-hovercard-url=\"/users/laanwj/hovercard\" data-octo-click=\"hovercard-link-click\" data-octo-dimensions=\"link_type:self\" href=\"https://github.com/laanwj\">@laanwj</a> I'm confused because there are many more places in the code aside from the GUI where this convention is actively used, e.g. pretty much anything touched during the multiprocess work and some recent <a href=\"https://github.com/bitcoin/bitcoin/pull/23174/files#diff-d3c243938494b10666b44404a27af7d84b44a72b85a27431e0c89e181462ca6eR627\">assumeutxo changes</a>.</p>\n</blockquote>\n<p dir=\"auto\">Given the fact that apparently large amounts of code sneaked in and were accepted and merged while blatantly violating the coding style as written in this document, I think it's fair to conclude that the project doesn't enforce a coding style, and this document is obsolete.</p>",
    "body_text": "@laanwj I'm confused because there are many more places in the code aside from the GUI where this convention is actively used, e.g. pretty much anything touched during the multiprocess work and some recent assumeutxo changes.\n\nGiven the fact that apparently large amounts of code sneaked in and were accepted and merged while blatantly violating the coding style as written in this document, I think it's fair to conclude that the project doesn't enforce a coding style, and this document is obsolete.",
    "body": "> @laanwj I'm confused because there are many more places in the code aside from the GUI where this convention is actively used, e.g. pretty much anything touched during the multiprocess work and some recent [assumeutxo changes](https://github.com/bitcoin/bitcoin/pull/23174/files#diff-d3c243938494b10666b44404a27af7d84b44a72b85a27431e0c89e181462ca6eR627).\r\n\r\nGiven the fact that apparently large amounts of code sneaked in and were accepted and merged while blatantly violating the coding style as written in this document, I think it's fair to conclude that the project doesn't enforce a coding style, and this document is obsolete.",
    "reactions": {
      "url": "https://api.github.com/repos/bitcoin/bitcoin/issues/comments/1098384250/reactions",
      "total_count": 1,
      "+1": 1,
      "-1": 0,
      "laugh": 0,
      "hooray": 0,
      "confused": 0,
      "heart": 0,
      "rocket": 0,
      "eyes": 0
    },
    "performed_via_github_app": null
  },
  {
    "url": "https://api.github.com/repos/bitcoin/bitcoin/issues/comments/1098385599",
    "html_url": "https://github.com/bitcoin/bitcoin/pull/24846#issuecomment-1098385599",
    "issue_url": "https://api.github.com/repos/bitcoin/bitcoin/issues/24846",
    "id": 1098385599,
    "node_id": "IC_kwDOABII585BeAi_",
    "user": {
      "login": "laanwj",
      "id": 126646,
      "node_id": "MDQ6VXNlcjEyNjY0Ng==",
      "avatar_url": "https://avatars.githubusercontent.com/u/126646?v=4",
      "gravatar_id": "",
      "url": "https://api.github.com/users/laanwj",
      "html_url": "https://github.com/laanwj",
      "followers_url": "https://api.github.com/users/laanwj/followers",
      "following_url": "https://api.github.com/users/laanwj/following{/other_user}",
      "gists_url": "https://api.github.com/users/laanwj/gists{/gist_id}",
      "starred_url": "https://api.github.com/users/laanwj/starred{/owner}{/repo}",
      "subscriptions_url": "https://api.github.com/users/laanwj/subscriptions",
      "organizations_url": "https://api.github.com/users/laanwj/orgs",
      "repos_url": "https://api.github.com/users/laanwj/repos",
      "events_url": "https://api.github.com/users/laanwj/events{/privacy}",
      "received_events_url": "https://api.github.com/users/laanwj/received_events",
      "type": "User",
      "site_admin": false
    },
    "created_at": "2022-04-13T19:03:51Z",
    "updated_at": "2022-04-13T19:27:06Z",
    "author_association": "MEMBER",
    "body_html": "<blockquote>\n<p dir=\"auto\">This is either begging the question, or I'm missing something. Worse in what way? Aesthetically? Or is it worse to draw attention to the fact that a call is using implicit *this?</p>\n</blockquote>\n<p dir=\"auto\">Worse in the sense that we've used a certain convention for a long time, and I don't see a reason to aggressively push for a new one. But I wont comment here anymore I don't feel like bikeshedding style. Do whatever you like.</p>\n<p dir=\"auto\">(to be clear I don't think distinguishing static and non-static methods is a bad idea in itself, nor is lowerCamelCase in general, I just don't think it's useful enough of a change to start moving the entire codebase to it by recommending it for new code everywhere, to be worth introducing more inconsistency even temporarily)</p>",
    "body_text": "This is either begging the question, or I'm missing something. Worse in what way? Aesthetically? Or is it worse to draw attention to the fact that a call is using implicit *this?\n\nWorse in the sense that we've used a certain convention for a long time, and I don't see a reason to aggressively push for a new one. But I wont comment here anymore I don't feel like bikeshedding style. Do whatever you like.\n(to be clear I don't think distinguishing static and non-static methods is a bad idea in itself, nor is lowerCamelCase in general, I just don't think it's useful enough of a change to start moving the entire codebase to it by recommending it for new code everywhere, to be worth introducing more inconsistency even temporarily)",
    "body": ">  This is either begging the question, or I'm missing something. Worse in what way? Aesthetically? Or is it worse to draw attention to the fact that a call is using implicit *this?\r\n\r\nWorse in the sense that we've used a certain convention for a long time, and I don't see a reason to aggressively push for a new one. But I wont comment here anymore I don't feel like bikeshedding style. Do whatever you like.\r\n\r\n(to be clear I don't think distinguishing static and non-static methods is a bad idea in itself, nor is lowerCamelCase in general, I just don't think it's useful enough of a change to start moving the entire codebase to it by recommending it for new code everywhere, to be worth introducing more inconsistency even temporarily)",
    "reactions": {
      "url": "https://api.github.com/repos/bitcoin/bitcoin/issues/comments/1098385599/reactions",
      "total_count": 0,
      "+1": 0,
      "-1": 0,
      "laugh": 0,
      "hooray": 0,
      "confused": 0,
      "heart": 0,
      "rocket": 0,
      "eyes": 0
    },
    "performed_via_github_app": null
  },
  {
    "url": "https://api.github.com/repos/bitcoin/bitcoin/issues/comments/1098392404",
    "html_url": "https://github.com/bitcoin/bitcoin/pull/24846#issuecomment-1098392404",
    "issue_url": "https://api.github.com/repos/bitcoin/bitcoin/issues/24846",
    "id": 1098392404,
    "node_id": "IC_kwDOABII585BeCNU",
    "user": {
      "login": "jamesob",
      "id": 73197,
      "node_id": "MDQ6VXNlcjczMTk3",
      "avatar_url": "https://avatars.githubusercontent.com/u/73197?v=4",
      "gravatar_id": "",
      "url": "https://api.github.com/users/jamesob",
      "html_url": "https://github.com/jamesob",
      "followers_url": "https://api.github.com/users/jamesob/followers",
      "following_url": "https://api.github.com/users/jamesob/following{/other_user}",
      "gists_url": "https://api.github.com/users/jamesob/gists{/gist_id}",
      "starred_url": "https://api.github.com/users/jamesob/starred{/owner}{/repo}",
      "subscriptions_url": "https://api.github.com/users/jamesob/subscriptions",
      "organizations_url": "https://api.github.com/users/jamesob/orgs",
      "repos_url": "https://api.github.com/users/jamesob/repos",
      "events_url": "https://api.github.com/users/jamesob/events{/privacy}",
      "received_events_url": "https://api.github.com/users/jamesob/received_events",
      "type": "User",
      "site_admin": false
    },
    "created_at": "2022-04-13T19:12:25Z",
    "updated_at": "2022-04-13T19:12:25Z",
    "author_association": "MEMBER",
    "body_html": "<blockquote>\n<p dir=\"auto\">Given the fact that apparently large amounts of code sneaked in and were accepted and merged while blatantly violating the coding style as written in this document, I think it's fair to conclude that the project doesn't enforce a coding style, and this document is obsolete.</p>\n</blockquote>\n<p dir=\"auto\">Whoa, I think this is a little hyperbolic... This document is still very useful for (i) supporting review feedback (\"change this style please\") and (ii) for new contributors looking to learn what to conform to.</p>\n<p dir=\"auto\">I promise I'm not trying to stir up bad feelings with this PR, but I just wanted to reconcile the fact that this document seems out of date with a lot of recently added code; I thought that this style change had been \"de facto\" accepted based on all the code added.</p>\n<p dir=\"auto\">If the project maintainers really feel that this (I think useful?) convention should be avoided, I trust that <a class=\"user-mention notranslate\" data-hovercard-type=\"user\" data-hovercard-url=\"/users/ryanofsky/hovercard\" data-octo-click=\"hovercard-link-click\" data-octo-dimensions=\"link_type:self\" href=\"https://github.com/ryanofsky\">@ryanofsky</a> and I will stop adding code that violates the desired style policy.</p>",
    "body_text": "Given the fact that apparently large amounts of code sneaked in and were accepted and merged while blatantly violating the coding style as written in this document, I think it's fair to conclude that the project doesn't enforce a coding style, and this document is obsolete.\n\nWhoa, I think this is a little hyperbolic... This document is still very useful for (i) supporting review feedback (\"change this style please\") and (ii) for new contributors looking to learn what to conform to.\nI promise I'm not trying to stir up bad feelings with this PR, but I just wanted to reconcile the fact that this document seems out of date with a lot of recently added code; I thought that this style change had been \"de facto\" accepted based on all the code added.\nIf the project maintainers really feel that this (I think useful?) convention should be avoided, I trust that @ryanofsky and I will stop adding code that violates the desired style policy.",
    "body": "> Given the fact that apparently large amounts of code sneaked in and were accepted and merged while blatantly violating the coding style as written in this document, I think it's fair to conclude that the project doesn't enforce a coding style, and this document is obsolete.\r\n\r\nWhoa, I think this is a little hyperbolic... This document is still very useful for (i) supporting review feedback (\"change this style please\") and (ii) for new contributors looking to learn what to conform to. \r\n\r\nI promise I'm not trying to stir up bad feelings with this PR, but I just wanted to reconcile the fact that this document seems out of date with a lot of recently added code; I thought that this style change had been \"de facto\" accepted based on all the code added. \r\n\r\nIf the project maintainers really feel that this (I think useful?) convention should be avoided, I trust that @ryanofsky and I will stop adding code that violates the desired style policy.\r\n",
    "reactions": {
      "url": "https://api.github.com/repos/bitcoin/bitcoin/issues/comments/1098392404/reactions",
      "total_count": 0,
      "+1": 0,
      "-1": 0,
      "laugh": 0,
      "hooray": 0,
      "confused": 0,
      "heart": 0,
      "rocket": 0,
      "eyes": 0
    },
    "performed_via_github_app": null
  },
  {
    "url": "https://api.github.com/repos/bitcoin/bitcoin/issues/comments/1098402611",
    "html_url": "https://github.com/bitcoin/bitcoin/pull/24846#issuecomment-1098402611",
    "issue_url": "https://api.github.com/repos/bitcoin/bitcoin/issues/24846",
    "id": 1098402611,
    "node_id": "IC_kwDOABII585BeEsz",
    "user": {
      "login": "sipa",
      "id": 548488,
      "node_id": "MDQ6VXNlcjU0ODQ4OA==",
      "avatar_url": "https://avatars.githubusercontent.com/u/548488?v=4",
      "gravatar_id": "",
      "url": "https://api.github.com/users/sipa",
      "html_url": "https://github.com/sipa",
      "followers_url": "https://api.github.com/users/sipa/followers",
      "following_url": "https://api.github.com/users/sipa/following{/other_user}",
      "gists_url": "https://api.github.com/users/sipa/gists{/gist_id}",
      "starred_url": "https://api.github.com/users/sipa/starred{/owner}{/repo}",
      "subscriptions_url": "https://api.github.com/users/sipa/subscriptions",
      "organizations_url": "https://api.github.com/users/sipa/orgs",
      "repos_url": "https://api.github.com/users/sipa/repos",
      "events_url": "https://api.github.com/users/sipa/events{/privacy}",
      "received_events_url": "https://api.github.com/users/sipa/received_events",
      "type": "User",
      "site_admin": false
    },
    "created_at": "2022-04-13T19:25:19Z",
    "updated_at": "2022-04-13T19:40:04Z",
    "author_association": "MEMBER",
    "body_html": "<blockquote>\n<p dir=\"auto\">(i) supporting review feedback (\"change this style please\")</p>\n</blockquote>\n<p dir=\"auto\">Well, apparently the document style document is seen as more descriptive (\"these is/are the coding styles people have been trying to use recently in this repository\") than prescriptive - this PR itself being evidence of that.</p>\n<blockquote>\n<p dir=\"auto\">I promise I'm not trying to stir up bad feelings with this PR, but I just wanted to reconcile the fact that this document seems out of date with a lot of recently added code; I thought that this style change had been \"de facto\" accepted based on all the code added.</p>\n</blockquote>\n<p dir=\"auto\">I'm not blaming you (or anyone) for what happened. But to me, the damage is done. My hope was that by having a well-documented coding style years ago, we could start converging on a single style. If having such a document isn't enough to get people to follow it, then that's a sign we simply don't enforce coding styles. That's ok - it can stay as a description of the used style rather than defining the rules people should follow - and in that sense it's great that you're trying to reconcile them.</p>\n<blockquote>\n<p dir=\"auto\">If the project maintainers really feel that this (I think useful?) convention should be avoided, I trust that <a class=\"user-mention notranslate\" data-hovercard-type=\"user\" data-hovercard-url=\"/users/ryanofsky/hovercard\" data-octo-click=\"hovercard-link-click\" data-octo-dimensions=\"link_type:self\" href=\"https://github.com/ryanofsky\">@ryanofsky</a> and I will stop adding code that violates the desired style policy.</p>\n</blockquote>\n<p dir=\"auto\">I don't have any problems with lowerCamel or distinguishing member functions from non-member functions, but changing the policy is just a step backwards in terms of getting the style consistent, and consistency was more important to me than individual style decisions.</p>\n<p dir=\"auto\">There are also reasons that make it inherently hard to follow a consistent style too - beyond anyone's control even. For example, the documented style doesn't match STL's, so when code gets added that implements STL interfaces, it's forced to violate whatever style we have written up. So perhaps my hope wasn't realistic in the first place.</p>",
    "body_text": "(i) supporting review feedback (\"change this style please\")\n\nWell, apparently the document style document is seen as more descriptive (\"these is/are the coding styles people have been trying to use recently in this repository\") than prescriptive - this PR itself being evidence of that.\n\nI promise I'm not trying to stir up bad feelings with this PR, but I just wanted to reconcile the fact that this document seems out of date with a lot of recently added code; I thought that this style change had been \"de facto\" accepted based on all the code added.\n\nI'm not blaming you (or anyone) for what happened. But to me, the damage is done. My hope was that by having a well-documented coding style years ago, we could start converging on a single style. If having such a document isn't enough to get people to follow it, then that's a sign we simply don't enforce coding styles. That's ok - it can stay as a description of the used style rather than defining the rules people should follow - and in that sense it's great that you're trying to reconcile them.\n\nIf the project maintainers really feel that this (I think useful?) convention should be avoided, I trust that @ryanofsky and I will stop adding code that violates the desired style policy.\n\nI don't have any problems with lowerCamel or distinguishing member functions from non-member functions, but changing the policy is just a step backwards in terms of getting the style consistent, and consistency was more important to me than individual style decisions.\nThere are also reasons that make it inherently hard to follow a consistent style too - beyond anyone's control even. For example, the documented style doesn't match STL's, so when code gets added that implements STL interfaces, it's forced to violate whatever style we have written up. So perhaps my hope wasn't realistic in the first place.",
    "body": "> (i) supporting review feedback (\"change this style please\")\r\n\r\nWell, apparently the document style document is seen as more descriptive (\"these is/are the coding styles people have been trying to use recently in this repository\") than prescriptive - this PR itself being evidence of that.\r\n\r\n> I promise I'm not trying to stir up bad feelings with this PR, but I just wanted to reconcile the fact that this document seems out of date with a lot of recently added code; I thought that this style change had been \"de facto\" accepted based on all the code added.\r\n\r\nI'm not blaming you (or anyone) for what happened. But to me, the damage is done. My hope was that by having a well-documented coding style years ago, we could start converging on a single style. If having such a document isn't enough to get people to follow it, then that's a sign we simply don't enforce coding styles. That's ok - it can stay as a description of the used style rather than defining the rules people should follow - and in that sense it's great that you're trying to reconcile them.\r\n\r\n> If the project maintainers really feel that this (I think useful?) convention should be avoided, I trust that @ryanofsky and I will stop adding code that violates the desired style policy.\r\n\r\nI don't have any problems with lowerCamel or distinguishing member functions from non-member functions, but changing the policy is just a step backwards in terms of getting the style consistent, and consistency was more important to me than individual style decisions.\r\n\r\nThere are also reasons that make it inherently hard to follow a consistent style too - beyond anyone's control even. For example, the documented style doesn't match STL's, so when code gets added that implements STL interfaces, it's forced to violate whatever style we have written up. So perhaps my hope wasn't realistic in the first place.",
    "reactions": {
      "url": "https://api.github.com/repos/bitcoin/bitcoin/issues/comments/1098402611/reactions",
      "total_count": 1,
      "+1": 1,
      "-1": 0,
      "laugh": 0,
      "hooray": 0,
      "confused": 0,
      "heart": 0,
      "rocket": 0,
      "eyes": 0
    },
    "performed_via_github_app": null
  },
  {
    "url": "https://api.github.com/repos/bitcoin/bitcoin/issues/comments/1098478361",
    "html_url": "https://github.com/bitcoin/bitcoin/pull/24846#issuecomment-1098478361",
    "issue_url": "https://api.github.com/repos/bitcoin/bitcoin/issues/24846",
    "id": 1098478361,
    "node_id": "IC_kwDOABII585BeXMZ",
    "user": {
      "login": "ryanofsky",
      "id": 7133040,
      "node_id": "MDQ6VXNlcjcxMzMwNDA=",
      "avatar_url": "https://avatars.githubusercontent.com/u/7133040?v=4",
      "gravatar_id": "",
      "url": "https://api.github.com/users/ryanofsky",
      "html_url": "https://github.com/ryanofsky",
      "followers_url": "https://api.github.com/users/ryanofsky/followers",
      "following_url": "https://api.github.com/users/ryanofsky/following{/other_user}",
      "gists_url": "https://api.github.com/users/ryanofsky/gists{/gist_id}",
      "starred_url": "https://api.github.com/users/ryanofsky/starred{/owner}{/repo}",
      "subscriptions_url": "https://api.github.com/users/ryanofsky/subscriptions",
      "organizations_url": "https://api.github.com/users/ryanofsky/orgs",
      "repos_url": "https://api.github.com/users/ryanofsky/repos",
      "events_url": "https://api.github.com/users/ryanofsky/events{/privacy}",
      "received_events_url": "https://api.github.com/users/ryanofsky/received_events",
      "type": "User",
      "site_admin": false
    },
    "created_at": "2022-04-13T20:53:54Z",
    "updated_at": "2022-04-13T20:53:54Z",
    "author_association": "CONTRIBUTOR",
    "body_html": "<blockquote>\n<p dir=\"auto\">Given the fact that apparently large amounts of code sneaked in and were accepted and merged while blatantly violating the coding style as written in this document</p>\n</blockquote>\n<p dir=\"auto\">I'm probably missing history because I haven't been around as long and don't love IRC, but from my perspective, this isn't what happened.</p>\n<p dir=\"auto\">The guide said \"CamelCase\" not \"UpperCamelCase\" until July 2017 when <a class=\"issue-link js-issue-link\" data-error-text=\"Failed to load title\" data-id=\"244986313\" data-permission-text=\"Title is private\" data-url=\"https://github.com/bitcoin/bitcoin/issues/10917\" data-hovercard-type=\"pull_request\" data-hovercard-url=\"/bitcoin/bitcoin/pull/10917/hovercard\" href=\"https://github.com/bitcoin/bitcoin/pull/10917\">#10917</a> changed it. It's not clear to me if <a class=\"issue-link js-issue-link\" data-error-text=\"Failed to load title\" data-id=\"244986313\" data-permission-text=\"Title is private\" data-url=\"https://github.com/bitcoin/bitcoin/issues/10917\" data-hovercard-type=\"pull_request\" data-hovercard-url=\"/bitcoin/bitcoin/pull/10917/hovercard\" href=\"https://github.com/bitcoin/bitcoin/pull/10917\">#10917</a> accidentally added a new rule, or if was writing down a rule that developers were already aware of, but there was no discussion about code style in <a class=\"issue-link js-issue-link\" data-error-text=\"Failed to load title\" data-id=\"244986313\" data-permission-text=\"Title is private\" data-url=\"https://github.com/bitcoin/bitcoin/issues/10917\" data-hovercard-type=\"pull_request\" data-hovercard-url=\"/bitcoin/bitcoin/pull/10917/hovercard\" href=\"https://github.com/bitcoin/bitcoin/pull/10917\">#10917</a>, and existing code used a mix of cases with gui code, mempool code, and fee estimation code in particular using lowerCamelCase at that point.</p>\n<p dir=\"auto\">The main code added since then which uses the lower case style is <code class=\"notranslate\">src/interfaces/</code>, because that code started with the GUI PR <a class=\"issue-link js-issue-link\" data-error-text=\"Failed to load title\" data-id=\"223176076\" data-permission-text=\"Title is private\" data-url=\"https://github.com/bitcoin/bitcoin/issues/10244\" data-hovercard-type=\"pull_request\" data-hovercard-url=\"/bitcoin/bitcoin/pull/10244/hovercard\" href=\"https://github.com/bitcoin/bitcoin/pull/10244\">#10244</a> and followed GUI style, and also because capnproto enforces a similar convention and I wanted to avoid translating method names.</p>\n<p dir=\"auto\">I generally like to follow the style of surrounding code. I care as much about consistency as anyone else, but to me it's a lot worse if there is inconsistent style within a class or module, than if entirely different classes or libraries are using different styles.</p>\n<blockquote>\n<p dir=\"auto\">we've used a certain convention for a long time, and I don't see a reason to aggressively push for a new one.</p>\n</blockquote>\n<p dir=\"auto\">Agree with this. I don't want to push for a new style, just allow the old one. I also think it is good to add some rationale to the document for the various conventions, and to have some rationale to begin with.</p>",
    "body_text": "Given the fact that apparently large amounts of code sneaked in and were accepted and merged while blatantly violating the coding style as written in this document\n\nI'm probably missing history because I haven't been around as long and don't love IRC, but from my perspective, this isn't what happened.\nThe guide said \"CamelCase\" not \"UpperCamelCase\" until July 2017 when #10917 changed it. It's not clear to me if #10917 accidentally added a new rule, or if was writing down a rule that developers were already aware of, but there was no discussion about code style in #10917, and existing code used a mix of cases with gui code, mempool code, and fee estimation code in particular using lowerCamelCase at that point.\nThe main code added since then which uses the lower case style is src/interfaces/, because that code started with the GUI PR #10244 and followed GUI style, and also because capnproto enforces a similar convention and I wanted to avoid translating method names.\nI generally like to follow the style of surrounding code. I care as much about consistency as anyone else, but to me it's a lot worse if there is inconsistent style within a class or module, than if entirely different classes or libraries are using different styles.\n\nwe've used a certain convention for a long time, and I don't see a reason to aggressively push for a new one.\n\nAgree with this. I don't want to push for a new style, just allow the old one. I also think it is good to add some rationale to the document for the various conventions, and to have some rationale to begin with.",
    "body": "> Given the fact that apparently large amounts of code sneaked in and were accepted and merged while blatantly violating the coding style as written in this document\r\n\r\nI'm probably missing history because I haven't been around as long and don't love IRC, but from my perspective, this isn't what happened.\r\n\r\nThe guide said \"CamelCase\" not \"UpperCamelCase\" until July 2017 when #10917 changed it. It's not clear to me if #10917 accidentally added a new rule, or if was writing down a rule that developers were already aware of, but there was no discussion about code style in #10917, and existing code used a mix of cases with gui code, mempool code, and fee estimation code in particular using lowerCamelCase at that point.\r\n\r\nThe main code added since then which uses the lower case style is `src/interfaces/`, because that code started with the GUI PR #10244 and followed GUI style, and also because capnproto enforces a similar convention and I wanted to avoid translating method names.\r\n\r\nI generally like to follow the style of surrounding code. I care as much about consistency as anyone else, but to me it's a lot worse if there is inconsistent style within a class or module, than if entirely different classes or libraries are using different styles. \r\n\r\n> we've used a certain convention for a long time, and I don't see a reason to aggressively push for a new one.\r\n\r\nAgree with this. I don't want to push for a new style, just allow the old one. I also think it is good to add some rationale to the document for the various conventions, and to have some rationale to begin with.",
    "reactions": {
      "url": "https://api.github.com/repos/bitcoin/bitcoin/issues/comments/1098478361/reactions",
      "total_count": 0,
      "+1": 0,
      "-1": 0,
      "laugh": 0,
      "hooray": 0,
      "confused": 0,
      "heart": 0,
      "rocket": 0,
      "eyes": 0
    },
    "performed_via_github_app": null
  },
  {
    "url": "https://api.github.com/repos/bitcoin/bitcoin/issues/comments/1098504947",
    "html_url": "https://github.com/bitcoin/bitcoin/pull/24846#issuecomment-1098504947",
    "issue_url": "https://api.github.com/repos/bitcoin/bitcoin/issues/24846",
    "id": 1098504947,
    "node_id": "IC_kwDOABII585Bedrz",
    "user": {
      "login": "ajtowns",
      "id": 127186,
      "node_id": "MDQ6VXNlcjEyNzE4Ng==",
      "avatar_url": "https://avatars.githubusercontent.com/u/127186?v=4",
      "gravatar_id": "",
      "url": "https://api.github.com/users/ajtowns",
      "html_url": "https://github.com/ajtowns",
      "followers_url": "https://api.github.com/users/ajtowns/followers",
      "following_url": "https://api.github.com/users/ajtowns/following{/other_user}",
      "gists_url": "https://api.github.com/users/ajtowns/gists{/gist_id}",
      "starred_url": "https://api.github.com/users/ajtowns/starred{/owner}{/repo}",
      "subscriptions_url": "https://api.github.com/users/ajtowns/subscriptions",
      "organizations_url": "https://api.github.com/users/ajtowns/orgs",
      "repos_url": "https://api.github.com/users/ajtowns/repos",
      "events_url": "https://api.github.com/users/ajtowns/events{/privacy}",
      "received_events_url": "https://api.github.com/users/ajtowns/received_events",
      "type": "User",
      "site_admin": false
    },
    "created_at": "2022-04-13T21:28:36Z",
    "updated_at": "2022-04-13T21:28:36Z",
    "author_association": "CONTRIBUTOR",
    "body_html": "<blockquote>\n<p dir=\"auto\">The guide said \"CamelCase\" not \"UpperCamelCase\" until July 2017 when <a class=\"issue-link js-issue-link\" data-error-text=\"Failed to load title\" data-id=\"244986313\" data-permission-text=\"Title is private\" data-url=\"https://github.com/bitcoin/bitcoin/issues/10917\" data-hovercard-type=\"pull_request\" data-hovercard-url=\"/bitcoin/bitcoin/pull/10917/hovercard\" href=\"https://github.com/bitcoin/bitcoin/pull/10917\">#10917</a> changed it. It's not clear to me if <a class=\"issue-link js-issue-link\" data-error-text=\"Failed to load title\" data-id=\"244986313\" data-permission-text=\"Title is private\" data-url=\"https://github.com/bitcoin/bitcoin/issues/10917\" data-hovercard-type=\"pull_request\" data-hovercard-url=\"/bitcoin/bitcoin/pull/10917/hovercard\" href=\"https://github.com/bitcoin/bitcoin/pull/10917\">#10917</a> accidentally added a new rule, or if was writing down a rule that developers were already aware of,</p>\n</blockquote>\n<p dir=\"auto\">This was brought up in the original PR that introduced \"CamelCase\" -- <a class=\"issue-link js-issue-link\" data-error-text=\"Failed to load title\" data-id=\"231751499\" data-permission-text=\"Title is private\" data-url=\"https://github.com/bitcoin/bitcoin/issues/10461\" data-hovercard-type=\"pull_request\" data-hovercard-url=\"/bitcoin/bitcoin/pull/10461/hovercard?comment_id=40884129&amp;comment_type=review\" href=\"https://github.com/bitcoin/bitcoin/pull/10461#pullrequestreview-40884129\">#10461 (review)</a></p>",
    "body_text": "The guide said \"CamelCase\" not \"UpperCamelCase\" until July 2017 when #10917 changed it. It's not clear to me if #10917 accidentally added a new rule, or if was writing down a rule that developers were already aware of,\n\nThis was brought up in the original PR that introduced \"CamelCase\" -- #10461 (review)",
    "body": "> The guide said \"CamelCase\" not \"UpperCamelCase\" until July 2017 when #10917 changed it. It's not clear to me if #10917 accidentally added a new rule, or if was writing down a rule that developers were already aware of,\r\n\r\nThis was brought up in the original PR that introduced \"CamelCase\" -- https://github.com/bitcoin/bitcoin/pull/10461#pullrequestreview-40884129",
    "reactions": {
      "url": "https://api.github.com/repos/bitcoin/bitcoin/issues/comments/1098504947/reactions",
      "total_count": 0,
      "+1": 0,
      "-1": 0,
      "laugh": 0,
      "hooray": 0,
      "confused": 0,
      "heart": 0,
      "rocket": 0,
      "eyes": 0
    },
    "performed_via_github_app": null
  },
  {
    "url": "https://api.github.com/repos/bitcoin/bitcoin/issues/comments/1098533625",
    "html_url": "https://github.com/bitcoin/bitcoin/pull/24846#issuecomment-1098533625",
    "issue_url": "https://api.github.com/repos/bitcoin/bitcoin/issues/24846",
    "id": 1098533625,
    "node_id": "IC_kwDOABII585Bekr5",
    "user": {
      "login": "jamesob",
      "id": 73197,
      "node_id": "MDQ6VXNlcjczMTk3",
      "avatar_url": "https://avatars.githubusercontent.com/u/73197?v=4",
      "gravatar_id": "",
      "url": "https://api.github.com/users/jamesob",
      "html_url": "https://github.com/jamesob",
      "followers_url": "https://api.github.com/users/jamesob/followers",
      "following_url": "https://api.github.com/users/jamesob/following{/other_user}",
      "gists_url": "https://api.github.com/users/jamesob/gists{/gist_id}",
      "starred_url": "https://api.github.com/users/jamesob/starred{/owner}{/repo}",
      "subscriptions_url": "https://api.github.com/users/jamesob/subscriptions",
      "organizations_url": "https://api.github.com/users/jamesob/orgs",
      "repos_url": "https://api.github.com/users/jamesob/repos",
      "events_url": "https://api.github.com/users/jamesob/events{/privacy}",
      "received_events_url": "https://api.github.com/users/jamesob/received_events",
      "type": "User",
      "site_admin": false
    },
    "created_at": "2022-04-13T22:12:19Z",
    "updated_at": "2022-04-13T22:12:19Z",
    "author_association": "MEMBER",
    "body_html": "<p dir=\"auto\">Updated to include feedback from <a class=\"user-mention notranslate\" data-hovercard-type=\"user\" data-hovercard-url=\"/users/jonatack/hovercard\" data-octo-click=\"hovercard-link-click\" data-octo-dimensions=\"link_type:self\" href=\"https://github.com/jonatack\">@jonatack</a> <a class=\"user-mention notranslate\" data-hovercard-type=\"user\" data-hovercard-url=\"/users/ryanofsky/hovercard\" data-octo-click=\"hovercard-link-click\" data-octo-dimensions=\"link_type:self\" href=\"https://github.com/ryanofsky\">@ryanofsky</a>.</p>",
    "body_text": "Updated to include feedback from @jonatack @ryanofsky.",
    "body": "Updated to include feedback from @jonatack @ryanofsky.",
    "reactions": {
      "url": "https://api.github.com/repos/bitcoin/bitcoin/issues/comments/1098533625/reactions",
      "total_count": 0,
      "+1": 0,
      "-1": 0,
      "laugh": 0,
      "hooray": 0,
      "confused": 0,
      "heart": 0,
      "rocket": 0,
      "eyes": 0
    },
    "performed_via_github_app": null
  },
  {
    "url": "https://api.github.com/repos/bitcoin/bitcoin/issues/comments/1098774606",
    "html_url": "https://github.com/bitcoin/bitcoin/pull/24846#issuecomment-1098774606",
    "issue_url": "https://api.github.com/repos/bitcoin/bitcoin/issues/24846",
    "id": 1098774606,
    "node_id": "IC_kwDOABII585BffhO",
    "user": {
      "login": "maflcko",
      "id": 6399679,
      "node_id": "MDQ6VXNlcjYzOTk2Nzk=",
      "avatar_url": "https://avatars.githubusercontent.com/u/6399679?v=4",
      "gravatar_id": "",
      "url": "https://api.github.com/users/maflcko",
      "html_url": "https://github.com/maflcko",
      "followers_url": "https://api.github.com/users/maflcko/followers",
      "following_url": "https://api.github.com/users/maflcko/following{/other_user}",
      "gists_url": "https://api.github.com/users/maflcko/gists{/gist_id}",
      "starred_url": "https://api.github.com/users/maflcko/starred{/owner}{/repo}",
      "subscriptions_url": "https://api.github.com/users/maflcko/subscriptions",
      "organizations_url": "https://api.github.com/users/maflcko/orgs",
      "repos_url": "https://api.github.com/users/maflcko/repos",
      "events_url": "https://api.github.com/users/maflcko/events{/privacy}",
      "received_events_url": "https://api.github.com/users/maflcko/received_events",
      "type": "User",
      "site_admin": false
    },
    "created_at": "2022-04-14T07:00:08Z",
    "updated_at": "2022-04-14T07:00:08Z",
    "author_association": "MEMBER",
    "body_html": "<p dir=\"auto\">Reminds me a bit about the last \"change\" to the document: <a class=\"issue-link js-issue-link\" data-error-text=\"Failed to load title\" data-id=\"596797157\" data-permission-text=\"Title is private\" data-url=\"https://github.com/bitcoin/bitcoin/issues/18568\" data-hovercard-type=\"pull_request\" data-hovercard-url=\"/bitcoin/bitcoin/pull/18568/hovercard?comment_id=870812629&amp;comment_type=issue_comment\" href=\"https://github.com/bitcoin/bitcoin/pull/18568#issuecomment-870812629\">#18568 (comment)</a></p>\n<p dir=\"auto\">Some loose points, starting with a fun fact: Some methods in the code base are named <code class=\"notranslate\">snake_case</code>, so should this be mentioned here as well?</p>\n<p dir=\"auto\">Maybe instead of adding more rules and rationales, whose wording people will start to bike-shed itself, we should be removing them? Apparently the rules here didn't avoid bike-shedding among developers that are familiar with this project. Also, I doubt that any new contributor reads this file (and understands it well enough to keep in mind) before starting to contribute. The docs are also a bit contradictory when they say pure-style review-comments are not welcome and then there is a 65kB document <strike>prescribing</strike> describing the style. Overall I think any style guideline that is purely stylistic and doesn't help to fight bugs is a candidate for removal. And those that evidently fight bugs (like arg comments) are ideally enforced by tools (</p><div class=\"Box Box--condensed my-2\">\n  <div class=\"Box-header f6\">\n    <p class=\"mb-0 text-bold\">\n      <a href=\"https://github.com/bitcoin/bitcoin/blob/8e3c266a4f02093d57d563f32ba73d3ab4b5f208/src/.clang-tidy#L2\">bitcoin/src/.clang-tidy</a>\n    </p>\n    <p class=\"mb-0 color-fg-muted\">\n         Line 2\n      in\n      <a data-pjax=\"true\" class=\"commit-tease-sha Link--inTextBlock\" href=\"/bitcoin/bitcoin/commit/8e3c266a4f02093d57d563f32ba73d3ab4b5f208\">8e3c266</a>\n    </p>\n  </div>\n  <div itemprop=\"text\" class=\"Box-body p-0 blob-wrapper blob-wrapper-embedded data\">\n    <table class=\"highlight tab-size mb-0 js-file-line-container\" data-tab-size=\"8\" data-paste-markdown-skip=\"\">\n\n        <tbody><tr class=\"border-0\">\n          <td id=\"L2\" class=\"blob-num border-0 px-3 py-0 color-bg-default\" data-line-number=\"2\"></td>\n          <td id=\"LC2\" class=\"blob-code border-0 px-3 py-0 color-bg-default blob-code-inner js-file-line\"> <span class=\"pl-ent\">WarningsAsErrors</span>: <span class=\"pl-s\">bugprone-argument-comment</span> </td>\n        </tr>\n    </tbody></table>\n  </div>\n</div>\n) and not a style guide that is discouraged to be enforced.<p></p>\n<p dir=\"auto\">The <code class=\"notranslate\">lowerCamelCase</code> interface style is already described in this document (in the section \"Internal interface guidelines\"), but reading the previous comments on this discussion no one seems to be aware of this. Another data point that even regular contributors have difficulties keeping the ideas mentioned in the full length of this document in mind?</p>",
    "body_text": "Reminds me a bit about the last \"change\" to the document: #18568 (comment)\nSome loose points, starting with a fun fact: Some methods in the code base are named snake_case, so should this be mentioned here as well?\nMaybe instead of adding more rules and rationales, whose wording people will start to bike-shed itself, we should be removing them? Apparently the rules here didn't avoid bike-shedding among developers that are familiar with this project. Also, I doubt that any new contributor reads this file (and understands it well enough to keep in mind) before starting to contribute. The docs are also a bit contradictory when they say pure-style review-comments are not welcome and then there is a 65kB document prescribing describing the style. Overall I think any style guideline that is purely stylistic and doesn't help to fight bugs is a candidate for removal. And those that evidently fight bugs (like arg comments) are ideally enforced by tools (\n  \n    \n      bitcoin/src/.clang-tidy\n    \n    \n         Line 2\n      in\n      8e3c266\n    \n  \n  \n    \n\n        \n          \n           WarningsAsErrors: bugprone-argument-comment \n        \n    \n  \n\n) and not a style guide that is discouraged to be enforced.\nThe lowerCamelCase interface style is already described in this document (in the section \"Internal interface guidelines\"), but reading the previous comments on this discussion no one seems to be aware of this. Another data point that even regular contributors have difficulties keeping the ideas mentioned in the full length of this document in mind?",
    "body": "Reminds me a bit about the last \"change\" to the document: https://github.com/bitcoin/bitcoin/pull/18568#issuecomment-870812629\r\n\r\nSome loose points, starting with a fun fact: Some methods in the code base are named `snake_case`, so should this be mentioned here as well?\r\n\r\nMaybe instead of adding more rules and rationales, whose wording people will start to bike-shed itself, we should be removing them? Apparently the rules here didn't avoid bike-shedding among developers that are familiar with this project. Also, I doubt that any new contributor reads this file (and understands it well enough to keep in mind) before starting to contribute. The docs are also a bit contradictory when they say pure-style review-comments are not welcome and then there is a 65kB document <strike>prescribing</strike> describing the style. Overall I think any style guideline that is purely stylistic and doesn't help to fight bugs is a candidate for removal. And those that evidently fight bugs (like arg comments) are ideally enforced by tools (https://github.com/bitcoin/bitcoin/blob/8e3c266a4f02093d57d563f32ba73d3ab4b5f208/src/.clang-tidy#L2) and not a style guide that is discouraged to be enforced.\r\n\r\nThe `lowerCamelCase` interface style is already described in this document (in the section \"Internal interface guidelines\"), but reading the previous comments on this discussion no one seems to be aware of this. Another data point that even regular contributors have difficulties keeping the ideas mentioned in the full length of this document in mind?",
    "reactions": {
      "url": "https://api.github.com/repos/bitcoin/bitcoin/issues/comments/1098774606/reactions",
      "total_count": 0,
      "+1": 0,
      "-1": 0,
      "laugh": 0,
      "hooray": 0,
      "confused": 0,
      "heart": 0,
      "rocket": 0,
      "eyes": 0
    },
    "performed_via_github_app": null
  },
  {
    "url": "https://api.github.com/repos/bitcoin/bitcoin/issues/comments/1098817782",
    "html_url": "https://github.com/bitcoin/bitcoin/pull/24846#issuecomment-1098817782",
    "issue_url": "https://api.github.com/repos/bitcoin/bitcoin/issues/24846",
    "id": 1098817782,
    "node_id": "IC_kwDOABII585BfqD2",
    "user": {
      "login": "jonatack",
      "id": 2415484,
      "node_id": "MDQ6VXNlcjI0MTU0ODQ=",
      "avatar_url": "https://avatars.githubusercontent.com/u/2415484?v=4",
      "gravatar_id": "",
      "url": "https://api.github.com/users/jonatack",
      "html_url": "https://github.com/jonatack",
      "followers_url": "https://api.github.com/users/jonatack/followers",
      "following_url": "https://api.github.com/users/jonatack/following{/other_user}",
      "gists_url": "https://api.github.com/users/jonatack/gists{/gist_id}",
      "starred_url": "https://api.github.com/users/jonatack/starred{/owner}{/repo}",
      "subscriptions_url": "https://api.github.com/users/jonatack/subscriptions",
      "organizations_url": "https://api.github.com/users/jonatack/orgs",
      "repos_url": "https://api.github.com/users/jonatack/repos",
      "events_url": "https://api.github.com/users/jonatack/events{/privacy}",
      "received_events_url": "https://api.github.com/users/jonatack/received_events",
      "type": "User",
      "site_admin": false
    },
    "created_at": "2022-04-14T07:57:31Z",
    "updated_at": "2022-04-14T07:57:31Z",
    "author_association": "CONTRIBUTOR",
    "body_html": "<blockquote>\n<p dir=\"auto\">The <code class=\"notranslate\">lowerCamelCase</code> interface style is already described in this document (in the section \"Internal interface guidelines\"), but reading the previous comments on this discussion no one seems to be aware of this. Another data point that even regular contributors have difficulties keeping the ideas mentioned in the full length of this document in mind?</p>\n</blockquote>\n<p dir=\"auto\">It might be useful to mention and link to that section next to the PascalCase guideline, as it is an exception to it. I had noted that the section was delimited to <code class=\"notranslate\">src/interfaces</code> and my comments here above refer to the rest of the codebase.</p>",
    "body_text": "The lowerCamelCase interface style is already described in this document (in the section \"Internal interface guidelines\"), but reading the previous comments on this discussion no one seems to be aware of this. Another data point that even regular contributors have difficulties keeping the ideas mentioned in the full length of this document in mind?\n\nIt might be useful to mention and link to that section next to the PascalCase guideline, as it is an exception to it. I had noted that the section was delimited to src/interfaces and my comments here above refer to the rest of the codebase.",
    "body": "> The `lowerCamelCase` interface style is already described in this document (in the section \"Internal interface guidelines\"), but reading the previous comments on this discussion no one seems to be aware of this. Another data point that even regular contributors have difficulties keeping the ideas mentioned in the full length of this document in mind?\r\n\r\nIt might be useful to mention and link to that section next to the PascalCase guideline, as it is an exception to it. I had noted that the section was delimited to `src/interfaces` and my comments here above refer to the rest of the codebase.\r\n\r\n",
    "reactions": {
      "url": "https://api.github.com/repos/bitcoin/bitcoin/issues/comments/1098817782/reactions",
      "total_count": 0,
      "+1": 0,
      "-1": 0,
      "laugh": 0,
      "hooray": 0,
      "confused": 0,
      "heart": 0,
      "rocket": 0,
      "eyes": 0
    },
    "performed_via_github_app": null
  },
  {
    "url": "https://api.github.com/repos/bitcoin/bitcoin/issues/comments/1106044131",
    "html_url": "https://github.com/bitcoin/bitcoin/pull/24846#issuecomment-1106044131",
    "issue_url": "https://api.github.com/repos/bitcoin/bitcoin/issues/24846",
    "id": 1106044131,
    "node_id": "IC_kwDOABII585B7OTj",
    "user": {
      "login": "ajtowns",
      "id": 127186,
      "node_id": "MDQ6VXNlcjEyNzE4Ng==",
      "avatar_url": "https://avatars.githubusercontent.com/u/127186?v=4",
      "gravatar_id": "",
      "url": "https://api.github.com/users/ajtowns",
      "html_url": "https://github.com/ajtowns",
      "followers_url": "https://api.github.com/users/ajtowns/followers",
      "following_url": "https://api.github.com/users/ajtowns/following{/other_user}",
      "gists_url": "https://api.github.com/users/ajtowns/gists{/gist_id}",
      "starred_url": "https://api.github.com/users/ajtowns/starred{/owner}{/repo}",
      "subscriptions_url": "https://api.github.com/users/ajtowns/subscriptions",
      "organizations_url": "https://api.github.com/users/ajtowns/orgs",
      "repos_url": "https://api.github.com/users/ajtowns/repos",
      "events_url": "https://api.github.com/users/ajtowns/events{/privacy}",
      "received_events_url": "https://api.github.com/users/ajtowns/received_events",
      "type": "User",
      "site_admin": false
    },
    "created_at": "2022-04-22T06:08:06Z",
    "updated_at": "2022-04-22T06:13:24Z",
    "author_association": "CONTRIBUTOR",
    "body_html": "<blockquote>\n<p dir=\"auto\">My hope was that by having a well-documented coding style years ago, we could start converging on a single style. If having such a document isn't enough to get people to follow it, then that's a sign we simply don't enforce coding styles.</p>\n</blockquote>\n<p dir=\"auto\">We could use clang-tidy to start making CI error out when the style gets made more inconsistent. It's a bit challenging given we've already got a huge inconsistent mess of styles, but I think the following approach could be made to work.</p>\n<ol dir=\"auto\">\n<li>Pick which modules follow \"our\" coding style, and which ones follow some other style (eg something more like the STL's style with snake_case, or qt/capnproto's lowerCamelCase style, or are imported from upstream like tinyformat or secp256k1 or leveldb)</li>\n<li>Have different .clang-tidy configs for each style we want to try to be consistent with</li>\n<li>Have <code class=\"notranslate\">*IgnoredRegexp</code> for any exceptions</li>\n<li>Document the current failures, and have a python script that catches new failures</li>\n<li>Maybe only run the checks over the .h files initially so we at least trend towards our exported interfaces matching our style guide... (That results in clang-tidy complaining about various things being defined but not used, but that at least seems easy enough to strip out)</li>\n</ol>\n<p dir=\"auto\">I think a .clang-tidy config something like:</p>\n<div class=\"highlight highlight-source-yaml notranslate position-relative overflow-auto\" dir=\"auto\" data-snippet-clipboard-copy-content=\"CheckOptions:\n  - { key: readability-identifier-naming.NamespaceCase,       value: lower_case }\n\n  - { key: readability-identifier-naming.NamespaceIgnoredRegexp,       value: '^(Consensus|BCLog|NetMsgType|RPCServer)$' }\n\n  - { key: readability-identifier-naming.ClassCase,           value: CamelCase }\n  - { key: readability-identifier-naming.StructCase,          value: CamelCase }\n  - { key: readability-identifier-naming.MethodCase,          value: CamelCase }\n  - { key: readability-identifier-naming.EnumCase,            value: CamelCase }\n\n  - { key: readability-identifier-naming.ClassIgnoredRegexp,  value: '^([a-z0-9]+_error|reverse_lock|base_blob|uint256|uint160)$' }\n  - { key: readability-identifier-naming.StructIgnoredRegexp,  value: '^(deserialize_type|bilingual_str|[a-z]+_iter|is_Span.*)$' }\n\n  - { key: readability-identifier-naming.MethodIgnoredRegexp,         value: '^(data|begin|end|write|read|seek|ignore|empty|size|reserve|eof|release|fclose|resize|rdbuf|in_avail|swap|[A-Z][a-zA-Z]*_)$' }\n\n  - { key: readability-identifier-naming.ClassMemberCase,     value: lower_case }\n  - { key: readability-identifier-naming.ConstantMemberCase,    value: lower_case }\n  - { key: readability-identifier-naming.PrivateMemberCase,     value: lower_case }\n  - { key: readability-identifier-naming.PrivateMemberPrefix,   value: m_ }\n  - { key: readability-identifier-naming.ProtectedMemberCase,   value: lower_case }\n  - { key: readability-identifier-naming.ProtectedMemberPrefix, value: m_ }\n  - { key: readability-identifier-naming.PublicMemberCase,      value: lower_case }\n  - { key: readability-identifier-naming.PublicMemberPrefix,    value: m_ }\n\n#  - { key: readability-identifier-naming.GlobalConstantCase,  value: lower_case }\n  - { key: readability-identifier-naming.StaticConstantCase,  value: lower_case }\n\n  - { key: readability-identifier-naming.ConstexprVariableCase,  value: UPPER_CASE }\n  - { key: readability-identifier-naming.ClassConstantCase,   value: UPPER_CASE }\n  - { key: readability-identifier-naming.EnumConstantCase,    value: UPPER_CASE }\n\n  - { key: readability-identifier-naming.ConstexprVariableIgnoredRegexp,  value: '^(deserialize|GetRandMicros|GetRandMillis)$' }\"><pre class=\"notranslate\"><span class=\"pl-ent\">CheckOptions</span>:\n  - <span class=\"pl-s\">{ key: readability-identifier-naming.NamespaceCase,       value: lower_case }</span>\n\n  - <span class=\"pl-s\">{ key: readability-identifier-naming.NamespaceIgnoredRegexp,       value: '^(Consensus|BCLog|NetMsgType|RPCServer)$' }</span>\n\n  - <span class=\"pl-s\">{ key: readability-identifier-naming.ClassCase,           value: CamelCase }</span>\n  - <span class=\"pl-s\">{ key: readability-identifier-naming.StructCase,          value: CamelCase }</span>\n  - <span class=\"pl-s\">{ key: readability-identifier-naming.MethodCase,          value: CamelCase }</span>\n  - <span class=\"pl-s\">{ key: readability-identifier-naming.EnumCase,            value: CamelCase }</span>\n\n  - <span class=\"pl-s\">{ key: readability-identifier-naming.ClassIgnoredRegexp,  value: '^([a-z0-9]+_error|reverse_lock|base_blob|uint256|uint160)$' }</span>\n  - <span class=\"pl-s\">{ key: readability-identifier-naming.StructIgnoredRegexp,  value: '^(deserialize_type|bilingual_str|[a-z]+_iter|is_Span.*)$' }</span>\n\n  - <span class=\"pl-s\">{ key: readability-identifier-naming.MethodIgnoredRegexp,         value: '^(data|begin|end|write|read|seek|ignore|empty|size|reserve|eof|release|fclose|resize|rdbuf|in_avail|swap|[A-Z][a-zA-Z]*_)$' }</span>\n\n  - <span class=\"pl-s\">{ key: readability-identifier-naming.ClassMemberCase,     value: lower_case }</span>\n  - <span class=\"pl-s\">{ key: readability-identifier-naming.ConstantMemberCase,    value: lower_case }</span>\n  - <span class=\"pl-s\">{ key: readability-identifier-naming.PrivateMemberCase,     value: lower_case }</span>\n  - <span class=\"pl-s\">{ key: readability-identifier-naming.PrivateMemberPrefix,   value: m_ }</span>\n  - <span class=\"pl-s\">{ key: readability-identifier-naming.ProtectedMemberCase,   value: lower_case }</span>\n  - <span class=\"pl-s\">{ key: readability-identifier-naming.ProtectedMemberPrefix, value: m_ }</span>\n  - <span class=\"pl-s\">{ key: readability-identifier-naming.PublicMemberCase,      value: lower_case }</span>\n  - <span class=\"pl-s\">{ key: readability-identifier-naming.PublicMemberPrefix,    value: m_ }</span>\n\n<span class=\"pl-c\"><span class=\"pl-c\">#</span>  - { key: readability-identifier-naming.GlobalConstantCase,  value: lower_case }</span>\n  - <span class=\"pl-s\">{ key: readability-identifier-naming.StaticConstantCase,  value: lower_case }</span>\n\n  - <span class=\"pl-s\">{ key: readability-identifier-naming.ConstexprVariableCase,  value: UPPER_CASE }</span>\n  - <span class=\"pl-s\">{ key: readability-identifier-naming.ClassConstantCase,   value: UPPER_CASE }</span>\n  - <span class=\"pl-s\">{ key: readability-identifier-naming.EnumConstantCase,    value: UPPER_CASE }</span>\n\n  - <span class=\"pl-s\">{ key: readability-identifier-naming.ConstexprVariableIgnoredRegexp,  value: '^(deserialize|GetRandMicros|GetRandMillis)$' }</span></pre></div>\n<p dir=\"auto\">might be a plausible start, and I came up with the following list of .h files that seem like they don't currently target our style:</p>\n<ul dir=\"auto\">\n<li>script/bitcoinconsensus.h</li>\n<li>prevector.h</li>\n<li>indirectmap.h</li>\n<li>fs.h</li>\n<li>cuckoocache.h</li>\n<li>bloom.h</li>\n<li>bench/*</li>\n<li>minisketch/*</li>\n<li>crypto/*</li>\n<li>crc32c/*</li>\n<li>univalue/*</li>\n<li>secp256k1/*</li>\n<li>qt/*</li>\n<li>wallet/*</li>\n<li>leveldb/*</li>\n<li>interfaces/*</li>\n<li>ipc/*</li>\n<li>arith_uint256.h</li>\n<li>test/fuzz/*</li>\n<li>tinyformat.h</li>\n<li>reverse_iterator.h</li>\n<li>support/allocators/*</li>\n</ul>\n<p dir=\"auto\">Putting that all together (and after changing a bunch of <code class=\"notranslate\">const FOO</code> to <code class=\"notranslate\">constexpr FOO</code>), I get about 900 remaining style errors... For what it's worth, switching <code class=\"notranslate\">MethodCase</code> from <code class=\"notranslate\">CamelCase</code> to <code class=\"notranslate\">camelBack</code> bumps that number up to about 1900 style errors.</p>",
    "body_text": "My hope was that by having a well-documented coding style years ago, we could start converging on a single style. If having such a document isn't enough to get people to follow it, then that's a sign we simply don't enforce coding styles.\n\nWe could use clang-tidy to start making CI error out when the style gets made more inconsistent. It's a bit challenging given we've already got a huge inconsistent mess of styles, but I think the following approach could be made to work.\n\nPick which modules follow \"our\" coding style, and which ones follow some other style (eg something more like the STL's style with snake_case, or qt/capnproto's lowerCamelCase style, or are imported from upstream like tinyformat or secp256k1 or leveldb)\nHave different .clang-tidy configs for each style we want to try to be consistent with\nHave *IgnoredRegexp for any exceptions\nDocument the current failures, and have a python script that catches new failures\nMaybe only run the checks over the .h files initially so we at least trend towards our exported interfaces matching our style guide... (That results in clang-tidy complaining about various things being defined but not used, but that at least seems easy enough to strip out)\n\nI think a .clang-tidy config something like:\nCheckOptions:\n  - { key: readability-identifier-naming.NamespaceCase,       value: lower_case }\n\n  - { key: readability-identifier-naming.NamespaceIgnoredRegexp,       value: '^(Consensus|BCLog|NetMsgType|RPCServer)$' }\n\n  - { key: readability-identifier-naming.ClassCase,           value: CamelCase }\n  - { key: readability-identifier-naming.StructCase,          value: CamelCase }\n  - { key: readability-identifier-naming.MethodCase,          value: CamelCase }\n  - { key: readability-identifier-naming.EnumCase,            value: CamelCase }\n\n  - { key: readability-identifier-naming.ClassIgnoredRegexp,  value: '^([a-z0-9]+_error|reverse_lock|base_blob|uint256|uint160)$' }\n  - { key: readability-identifier-naming.StructIgnoredRegexp,  value: '^(deserialize_type|bilingual_str|[a-z]+_iter|is_Span.*)$' }\n\n  - { key: readability-identifier-naming.MethodIgnoredRegexp,         value: '^(data|begin|end|write|read|seek|ignore|empty|size|reserve|eof|release|fclose|resize|rdbuf|in_avail|swap|[A-Z][a-zA-Z]*_)$' }\n\n  - { key: readability-identifier-naming.ClassMemberCase,     value: lower_case }\n  - { key: readability-identifier-naming.ConstantMemberCase,    value: lower_case }\n  - { key: readability-identifier-naming.PrivateMemberCase,     value: lower_case }\n  - { key: readability-identifier-naming.PrivateMemberPrefix,   value: m_ }\n  - { key: readability-identifier-naming.ProtectedMemberCase,   value: lower_case }\n  - { key: readability-identifier-naming.ProtectedMemberPrefix, value: m_ }\n  - { key: readability-identifier-naming.PublicMemberCase,      value: lower_case }\n  - { key: readability-identifier-naming.PublicMemberPrefix,    value: m_ }\n\n#  - { key: readability-identifier-naming.GlobalConstantCase,  value: lower_case }\n  - { key: readability-identifier-naming.StaticConstantCase,  value: lower_case }\n\n  - { key: readability-identifier-naming.ConstexprVariableCase,  value: UPPER_CASE }\n  - { key: readability-identifier-naming.ClassConstantCase,   value: UPPER_CASE }\n  - { key: readability-identifier-naming.EnumConstantCase,    value: UPPER_CASE }\n\n  - { key: readability-identifier-naming.ConstexprVariableIgnoredRegexp,  value: '^(deserialize|GetRandMicros|GetRandMillis)$' }\nmight be a plausible start, and I came up with the following list of .h files that seem like they don't currently target our style:\n\nscript/bitcoinconsensus.h\nprevector.h\nindirectmap.h\nfs.h\ncuckoocache.h\nbloom.h\nbench/*\nminisketch/*\ncrypto/*\ncrc32c/*\nunivalue/*\nsecp256k1/*\nqt/*\nwallet/*\nleveldb/*\ninterfaces/*\nipc/*\narith_uint256.h\ntest/fuzz/*\ntinyformat.h\nreverse_iterator.h\nsupport/allocators/*\n\nPutting that all together (and after changing a bunch of const FOO to constexpr FOO), I get about 900 remaining style errors... For what it's worth, switching MethodCase from CamelCase to camelBack bumps that number up to about 1900 style errors.",
    "body": "> My hope was that by having a well-documented coding style years ago, we could start converging on a single style. If having such a document isn't enough to get people to follow it, then that's a sign we simply don't enforce coding styles.\r\n\r\nWe could use clang-tidy to start making CI error out when the style gets made more inconsistent. It's a bit challenging given we've already got a huge inconsistent mess of styles, but I think the following approach could be made to work.\r\n\r\n1. Pick which modules follow \"our\" coding style, and which ones follow some other style (eg something more like the STL's style with snake_case, or qt/capnproto's lowerCamelCase style, or are imported from upstream like tinyformat or secp256k1 or leveldb)\r\n2. Have different .clang-tidy configs for each style we want to try to be consistent with\r\n3. Have `*IgnoredRegexp` for any exceptions\r\n4. Document the current failures, and have a python script that catches new failures\r\n5. Maybe only run the checks over the .h files initially so we at least trend towards our exported interfaces matching our style guide... (That results in clang-tidy complaining about various things being defined but not used, but that at least seems easy enough to strip out)\r\n\r\nI think a .clang-tidy config something like:\r\n\r\n```yaml\r\nCheckOptions:\r\n  - { key: readability-identifier-naming.NamespaceCase,       value: lower_case }\r\n\r\n  - { key: readability-identifier-naming.NamespaceIgnoredRegexp,       value: '^(Consensus|BCLog|NetMsgType|RPCServer)$' }\r\n\r\n  - { key: readability-identifier-naming.ClassCase,           value: CamelCase }\r\n  - { key: readability-identifier-naming.StructCase,          value: CamelCase }\r\n  - { key: readability-identifier-naming.MethodCase,          value: CamelCase }\r\n  - { key: readability-identifier-naming.EnumCase,            value: CamelCase }\r\n\r\n  - { key: readability-identifier-naming.ClassIgnoredRegexp,  value: '^([a-z0-9]+_error|reverse_lock|base_blob|uint256|uint160)$' }\r\n  - { key: readability-identifier-naming.StructIgnoredRegexp,  value: '^(deserialize_type|bilingual_str|[a-z]+_iter|is_Span.*)$' }\r\n\r\n  - { key: readability-identifier-naming.MethodIgnoredRegexp,         value: '^(data|begin|end|write|read|seek|ignore|empty|size|reserve|eof|release|fclose|resize|rdbuf|in_avail|swap|[A-Z][a-zA-Z]*_)$' }\r\n\r\n  - { key: readability-identifier-naming.ClassMemberCase,     value: lower_case }\r\n  - { key: readability-identifier-naming.ConstantMemberCase,    value: lower_case }\r\n  - { key: readability-identifier-naming.PrivateMemberCase,     value: lower_case }\r\n  - { key: readability-identifier-naming.PrivateMemberPrefix,   value: m_ }\r\n  - { key: readability-identifier-naming.ProtectedMemberCase,   value: lower_case }\r\n  - { key: readability-identifier-naming.ProtectedMemberPrefix, value: m_ }\r\n  - { key: readability-identifier-naming.PublicMemberCase,      value: lower_case }\r\n  - { key: readability-identifier-naming.PublicMemberPrefix,    value: m_ }\r\n\r\n#  - { key: readability-identifier-naming.GlobalConstantCase,  value: lower_case }\r\n  - { key: readability-identifier-naming.StaticConstantCase,  value: lower_case }\r\n\r\n  - { key: readability-identifier-naming.ConstexprVariableCase,  value: UPPER_CASE }\r\n  - { key: readability-identifier-naming.ClassConstantCase,   value: UPPER_CASE }\r\n  - { key: readability-identifier-naming.EnumConstantCase,    value: UPPER_CASE }\r\n\r\n  - { key: readability-identifier-naming.ConstexprVariableIgnoredRegexp,  value: '^(deserialize|GetRandMicros|GetRandMillis)$' }\r\n```\r\n\r\nmight be a plausible start, and I came up with the following list of .h files that seem like they don't currently target our style:\r\n\r\n - script/bitcoinconsensus.h\r\n - prevector.h\r\n - indirectmap.h\r\n - fs.h\r\n - cuckoocache.h\r\n - bloom.h\r\n - bench/*\r\n - minisketch/*\r\n - crypto/*\r\n - crc32c/*\r\n - univalue/*\r\n - secp256k1/*\r\n - qt/*\r\n - wallet/*\r\n - leveldb/*\r\n - interfaces/*\r\n - ipc/*\r\n - arith_uint256.h\r\n - test/fuzz/*\r\n - tinyformat.h\r\n - reverse_iterator.h\r\n - support/allocators/*\r\n\r\nPutting that all together (and after changing a bunch of `const FOO` to `constexpr FOO`), I get about 900 remaining style errors... For what it's worth, switching `MethodCase` from `CamelCase` to `camelBack` bumps that number up to about 1900 style errors.",
    "reactions": {
      "url": "https://api.github.com/repos/bitcoin/bitcoin/issues/comments/1106044131/reactions",
      "total_count": 0,
      "+1": 0,
      "-1": 0,
      "laugh": 0,
      "hooray": 0,
      "confused": 0,
      "heart": 0,
      "rocket": 0,
      "eyes": 0
    },
    "performed_via_github_app": null
  },
  {
    "url": "https://api.github.com/repos/bitcoin/bitcoin/issues/comments/1106050870",
    "html_url": "https://github.com/bitcoin/bitcoin/pull/24846#issuecomment-1106050870",
    "issue_url": "https://api.github.com/repos/bitcoin/bitcoin/issues/24846",
    "id": 1106050870,
    "node_id": "IC_kwDOABII585B7P82",
    "user": {
      "login": "maflcko",
      "id": 6399679,
      "node_id": "MDQ6VXNlcjYzOTk2Nzk=",
      "avatar_url": "https://avatars.githubusercontent.com/u/6399679?v=4",
      "gravatar_id": "",
      "url": "https://api.github.com/users/maflcko",
      "html_url": "https://github.com/maflcko",
      "followers_url": "https://api.github.com/users/maflcko/followers",
      "following_url": "https://api.github.com/users/maflcko/following{/other_user}",
      "gists_url": "https://api.github.com/users/maflcko/gists{/gist_id}",
      "starred_url": "https://api.github.com/users/maflcko/starred{/owner}{/repo}",
      "subscriptions_url": "https://api.github.com/users/maflcko/subscriptions",
      "organizations_url": "https://api.github.com/users/maflcko/orgs",
      "repos_url": "https://api.github.com/users/maflcko/repos",
      "events_url": "https://api.github.com/users/maflcko/events{/privacy}",
      "received_events_url": "https://api.github.com/users/maflcko/received_events",
      "type": "User",
      "site_admin": false
    },
    "created_at": "2022-04-22T06:19:16Z",
    "updated_at": "2022-04-22T06:19:16Z",
    "author_association": "MEMBER",
    "body_html": "<p dir=\"auto\">It seems a bit wasteful to maintain a linter that needs thousands of exceptions for no practical benefit. I'd doubt that the case of the fist character of the name of a function is the reason that end users will see less or more bugs or less or more features. Maybe if you have two function names in the same class or scope that only differ in case, but then a linter to detect those might be better suited.</p>",
    "body_text": "It seems a bit wasteful to maintain a linter that needs thousands of exceptions for no practical benefit. I'd doubt that the case of the fist character of the name of a function is the reason that end users will see less or more bugs or less or more features. Maybe if you have two function names in the same class or scope that only differ in case, but then a linter to detect those might be better suited.",
    "body": "It seems a bit wasteful to maintain a linter that needs thousands of exceptions for no practical benefit. I'd doubt that the case of the fist character of the name of a function is the reason that end users will see less or more bugs or less or more features. Maybe if you have two function names in the same class or scope that only differ in case, but then a linter to detect those might be better suited.",
    "reactions": {
      "url": "https://api.github.com/repos/bitcoin/bitcoin/issues/comments/1106050870/reactions",
      "total_count": 0,
      "+1": 0,
      "-1": 0,
      "laugh": 0,
      "hooray": 0,
      "confused": 0,
      "heart": 0,
      "rocket": 0,
      "eyes": 0
    },
    "performed_via_github_app": null
  },
  {
    "url": "https://api.github.com/repos/bitcoin/bitcoin/issues/comments/1106062336",
    "html_url": "https://github.com/bitcoin/bitcoin/pull/24846#issuecomment-1106062336",
    "issue_url": "https://api.github.com/repos/bitcoin/bitcoin/issues/24846",
    "id": 1106062336,
    "node_id": "IC_kwDOABII585B7SwA",
    "user": {
      "login": "ajtowns",
      "id": 127186,
      "node_id": "MDQ6VXNlcjEyNzE4Ng==",
      "avatar_url": "https://avatars.githubusercontent.com/u/127186?v=4",
      "gravatar_id": "",
      "url": "https://api.github.com/users/ajtowns",
      "html_url": "https://github.com/ajtowns",
      "followers_url": "https://api.github.com/users/ajtowns/followers",
      "following_url": "https://api.github.com/users/ajtowns/following{/other_user}",
      "gists_url": "https://api.github.com/users/ajtowns/gists{/gist_id}",
      "starred_url": "https://api.github.com/users/ajtowns/starred{/owner}{/repo}",
      "subscriptions_url": "https://api.github.com/users/ajtowns/subscriptions",
      "organizations_url": "https://api.github.com/users/ajtowns/orgs",
      "repos_url": "https://api.github.com/users/ajtowns/repos",
      "events_url": "https://api.github.com/users/ajtowns/events{/privacy}",
      "received_events_url": "https://api.github.com/users/ajtowns/received_events",
      "type": "User",
      "site_admin": false
    },
    "created_at": "2022-04-22T06:37:15Z",
    "updated_at": "2022-04-22T06:37:15Z",
    "author_association": "CONTRIBUTOR",
    "body_html": "<blockquote>\n<p dir=\"auto\">It seems a bit wasteful to maintain a linter that needs thousands of exceptions for no practical benefit.</p>\n</blockquote>\n<p dir=\"auto\">The practical benefit is that you don't need to manually review for new style errors that can be automatically caught. If we don't think working towards and then maintaining a consistent style is a practical benefit (personally, I do), then we should drop the style recommendations from the developer notes.</p>",
    "body_text": "It seems a bit wasteful to maintain a linter that needs thousands of exceptions for no practical benefit.\n\nThe practical benefit is that you don't need to manually review for new style errors that can be automatically caught. If we don't think working towards and then maintaining a consistent style is a practical benefit (personally, I do), then we should drop the style recommendations from the developer notes.",
    "body": "> It seems a bit wasteful to maintain a linter that needs thousands of exceptions for no practical benefit.\r\n\r\nThe practical benefit is that you don't need to manually review for new style errors that can be automatically caught. If we don't think working towards and then maintaining a consistent style is a practical benefit (personally, I do), then we should drop the style recommendations from the developer notes.",
    "reactions": {
      "url": "https://api.github.com/repos/bitcoin/bitcoin/issues/comments/1106062336/reactions",
      "total_count": 0,
      "+1": 0,
      "-1": 0,
      "laugh": 0,
      "hooray": 0,
      "confused": 0,
      "heart": 0,
      "rocket": 0,
      "eyes": 0
    },
    "performed_via_github_app": null
  },
  {
    "url": "https://api.github.com/repos/bitcoin/bitcoin/issues/comments/1123112377",
    "html_url": "https://github.com/bitcoin/bitcoin/pull/24846#issuecomment-1123112377",
    "issue_url": "https://api.github.com/repos/bitcoin/bitcoin/issues/24846",
    "id": 1123112377,
    "node_id": "IC_kwDOABII585C8VW5",
    "user": {
      "login": "DrahtBot",
      "id": 39886733,
      "node_id": "MDQ6VXNlcjM5ODg2NzMz",
      "avatar_url": "https://avatars.githubusercontent.com/u/39886733?v=4",
      "gravatar_id": "",
      "url": "https://api.github.com/users/DrahtBot",
      "html_url": "https://github.com/DrahtBot",
      "followers_url": "https://api.github.com/users/DrahtBot/followers",
      "following_url": "https://api.github.com/users/DrahtBot/following{/other_user}",
      "gists_url": "https://api.github.com/users/DrahtBot/gists{/gist_id}",
      "starred_url": "https://api.github.com/users/DrahtBot/starred{/owner}{/repo}",
      "subscriptions_url": "https://api.github.com/users/DrahtBot/subscriptions",
      "organizations_url": "https://api.github.com/users/DrahtBot/orgs",
      "repos_url": "https://api.github.com/users/DrahtBot/repos",
      "events_url": "https://api.github.com/users/DrahtBot/events{/privacy}",
      "received_events_url": "https://api.github.com/users/DrahtBot/received_events",
      "type": "User",
      "site_admin": false
    },
    "created_at": "2022-05-11T02:28:44Z",
    "updated_at": "2022-05-11T02:28:44Z",
    "author_association": "CONTRIBUTOR",
    "body_html": "\n<p dir=\"auto\">The following sections might be updated with supplementary metadata relevant to reviewers and maintainers.</p>\n\n<h3 dir=\"auto\">Conflicts</h3>\n<p dir=\"auto\">Reviewers, this pull request conflicts with the following ones:</p>\n<ul dir=\"auto\">\n<li><a href=\"https://github.com/bitcoin/bitcoin/pull/25092\" data-hovercard-type=\"pull_request\" data-hovercard-url=\"/bitcoin/bitcoin/pull/25092/hovercard\">#25092</a> (doc: various developer notes updates by jonatack)</li>\n</ul>\n<p dir=\"auto\">If you consider this pull request important, please also help to review the conflicting pull requests. Ideally, start with the one that should be merged first.</p>",
    "body_text": "The following sections might be updated with supplementary metadata relevant to reviewers and maintainers.\n\nConflicts\nReviewers, this pull request conflicts with the following ones:\n\n#25092 (doc: various developer notes updates by jonatack)\n\nIf you consider this pull request important, please also help to review the conflicting pull requests. Ideally, start with the one that should be merged first.",
    "body": "<!--e57a25ab6845829454e8d69fc972939a-->\n\nThe following sections might be updated with supplementary metadata relevant to reviewers and maintainers.\n\n<!--174a7506f384e20aa4161008e828411d-->\n### Conflicts\nReviewers, this pull request conflicts with the following ones:\n\n* [#25092](https://github.com/bitcoin/bitcoin/pull/25092) (doc: various developer notes updates by jonatack)\n\nIf you consider this pull request important, please also help to review the conflicting pull requests. Ideally, start with the one that should be merged first.",
    "reactions": {
      "url": "https://api.github.com/repos/bitcoin/bitcoin/issues/comments/1123112377/reactions",
      "total_count": 0,
      "+1": 0,
      "-1": 0,
      "laugh": 0,
      "hooray": 0,
      "confused": 0,
      "heart": 0,
      "rocket": 0,
      "eyes": 0
    },
    "performed_via_github_app": null
  },
  {
    "url": "https://api.github.com/repos/bitcoin/bitcoin/issues/comments/1127402370",
    "html_url": "https://github.com/bitcoin/bitcoin/pull/24846#issuecomment-1127402370",
    "issue_url": "https://api.github.com/repos/bitcoin/bitcoin/issues/24846",
    "id": 1127402370,
    "node_id": "IC_kwDOABII585DMsuC",
    "user": {
      "login": "DrahtBot",
      "id": 39886733,
      "node_id": "MDQ6VXNlcjM5ODg2NzMz",
      "avatar_url": "https://avatars.githubusercontent.com/u/39886733?v=4",
      "gravatar_id": "",
      "url": "https://api.github.com/users/DrahtBot",
      "html_url": "https://github.com/DrahtBot",
      "followers_url": "https://api.github.com/users/DrahtBot/followers",
      "following_url": "https://api.github.com/users/DrahtBot/following{/other_user}",
      "gists_url": "https://api.github.com/users/DrahtBot/gists{/gist_id}",
      "starred_url": "https://api.github.com/users/DrahtBot/starred{/owner}{/repo}",
      "subscriptions_url": "https://api.github.com/users/DrahtBot/subscriptions",
      "organizations_url": "https://api.github.com/users/DrahtBot/orgs",
      "repos_url": "https://api.github.com/users/DrahtBot/repos",
      "events_url": "https://api.github.com/users/DrahtBot/events{/privacy}",
      "received_events_url": "https://api.github.com/users/DrahtBot/received_events",
      "type": "User",
      "site_admin": false
    },
    "created_at": "2022-05-16T08:50:14Z",
    "updated_at": "2022-05-16T08:50:14Z",
    "author_association": "CONTRIBUTOR",
    "body_html": "\n<p dir=\"auto\">🐙 This pull request conflicts with the target branch and <a href=\"https://github.com/bitcoin/bitcoin/blob/master/CONTRIBUTING.md#rebasing-changes\">needs rebase</a>.</p>\n<p dir=\"auto\"><sub>Want to unsubscribe from rebase notifications on this pull request? Just convert this pull request to a \"draft\".</sub></p>",
    "body_text": "🐙 This pull request conflicts with the target branch and needs rebase.\nWant to unsubscribe from rebase notifications on this pull request? Just convert this pull request to a \"draft\".",
    "body": "<!--cf906140f33d8803c4a75a2196329ecb-->\n🐙 This pull request conflicts with the target branch and [needs rebase](https://github.com/bitcoin/bitcoin/blob/master/CONTRIBUTING.md#rebasing-changes).\n\n<sub>Want to unsubscribe from rebase notifications on this pull request? Just convert this pull request to a \"draft\".</sub>",
    "reactions": {
      "url": "https://api.github.com/repos/bitcoin/bitcoin/issues/comments/1127402370/reactions",
      "total_count": 0,
      "+1": 0,
      "-1": 0,
      "laugh": 0,
      "hooray": 0,
      "confused": 0,
      "heart": 0,
      "rocket": 0,
      "eyes": 0
    },
    "performed_via_github_app": null
  }
]
