[
  {
    "url": "https://api.github.com/repos/bitcoin/bitcoin/issues/comments/912306492",
    "html_url": "https://github.com/bitcoin/bitcoin/issues/22869#issuecomment-912306492",
    "issue_url": "https://api.github.com/repos/bitcoin/bitcoin/issues/22869",
    "id": 912306492,
    "node_id": "IC_kwDOABII5842YLE8",
    "user": {
      "login": "maflcko",
      "id": 6399679,
      "node_id": "MDQ6VXNlcjYzOTk2Nzk=",
      "avatar_url": "https://avatars.githubusercontent.com/u/6399679?v=4",
      "gravatar_id": "",
      "url": "https://api.github.com/users/maflcko",
      "html_url": "https://github.com/maflcko",
      "followers_url": "https://api.github.com/users/maflcko/followers",
      "following_url": "https://api.github.com/users/maflcko/following{/other_user}",
      "gists_url": "https://api.github.com/users/maflcko/gists{/gist_id}",
      "starred_url": "https://api.github.com/users/maflcko/starred{/owner}{/repo}",
      "subscriptions_url": "https://api.github.com/users/maflcko/subscriptions",
      "organizations_url": "https://api.github.com/users/maflcko/orgs",
      "repos_url": "https://api.github.com/users/maflcko/repos",
      "events_url": "https://api.github.com/users/maflcko/events{/privacy}",
      "received_events_url": "https://api.github.com/users/maflcko/received_events",
      "type": "User",
      "site_admin": false
    },
    "created_at": "2021-09-03T07:01:35Z",
    "updated_at": "2021-09-03T07:01:35Z",
    "author_association": "MEMBER",
    "body_html": "<p dir=\"auto\">I don't understand this issue. I tried <code class=\"notranslate\">git grep --function-context  'ParseScript('|grep static</code> and didn't find anything.</p>",
    "body_text": "I don't understand this issue. I tried git grep --function-context  'ParseScript('|grep static and didn't find anything.",
    "body": "I don't understand this issue. I tried `git grep --function-context  'ParseScript('|grep static` and didn't find anything.",
    "reactions": {
      "url": "https://api.github.com/repos/bitcoin/bitcoin/issues/comments/912306492/reactions",
      "total_count": 0,
      "+1": 0,
      "-1": 0,
      "laugh": 0,
      "hooray": 0,
      "confused": 0,
      "heart": 0,
      "rocket": 0,
      "eyes": 0
    },
    "performed_via_github_app": null
  },
  {
    "url": "https://api.github.com/repos/bitcoin/bitcoin/issues/comments/912348951",
    "html_url": "https://github.com/bitcoin/bitcoin/issues/22869#issuecomment-912348951",
    "issue_url": "https://api.github.com/repos/bitcoin/bitcoin/issues/22869",
    "id": 912348951,
    "node_id": "IC_kwDOABII5842YVcX",
    "user": {
      "login": "kristapsk",
      "id": 4500994,
      "node_id": "MDQ6VXNlcjQ1MDA5OTQ=",
      "avatar_url": "https://avatars.githubusercontent.com/u/4500994?v=4",
      "gravatar_id": "",
      "url": "https://api.github.com/users/kristapsk",
      "html_url": "https://github.com/kristapsk",
      "followers_url": "https://api.github.com/users/kristapsk/followers",
      "following_url": "https://api.github.com/users/kristapsk/following{/other_user}",
      "gists_url": "https://api.github.com/users/kristapsk/gists{/gist_id}",
      "starred_url": "https://api.github.com/users/kristapsk/starred{/owner}{/repo}",
      "subscriptions_url": "https://api.github.com/users/kristapsk/subscriptions",
      "organizations_url": "https://api.github.com/users/kristapsk/orgs",
      "repos_url": "https://api.github.com/users/kristapsk/repos",
      "events_url": "https://api.github.com/users/kristapsk/events{/privacy}",
      "received_events_url": "https://api.github.com/users/kristapsk/received_events",
      "type": "User",
      "site_admin": false
    },
    "created_at": "2021-09-03T08:11:46Z",
    "updated_at": "2021-09-03T08:11:46Z",
    "author_association": "CONTRIBUTOR",
    "body_html": "<p dir=\"auto\"><a class=\"user-mention notranslate\" data-hovercard-type=\"user\" data-hovercard-url=\"/users/MarcoFalke/hovercard\" data-octo-click=\"hovercard-link-click\" data-octo-dimensions=\"link_type:self\" href=\"https://github.com/MarcoFalke\">@MarcoFalke</a> I found this one:</p>\n<p dir=\"auto\"></p><div class=\"Box Box--condensed my-2\">\n  <div class=\"Box-header f6\">\n    <p class=\"mb-0 text-bold\">\n      <a href=\"https://github.com/bitcoin/bitcoin/blob/458a345b0590fd2fa04c7d8d70beb8d57e34bbc8/src/core_read.cpp#L27\">bitcoin/src/core_read.cpp</a>\n    </p>\n    <p class=\"mb-0 color-fg-muted\">\n         Line 27\n      in\n      <a data-pjax=\"true\" class=\"commit-tease-sha Link--inTextBlock\" href=\"/bitcoin/bitcoin/commit/458a345b0590fd2fa04c7d8d70beb8d57e34bbc8\">458a345</a>\n    </p>\n  </div>\n  <div itemprop=\"text\" class=\"Box-body p-0 blob-wrapper blob-wrapper-embedded data\">\n    <table class=\"highlight tab-size mb-0 js-file-line-container\" data-tab-size=\"8\" data-paste-markdown-skip=\"\">\n\n        <tbody><tr class=\"border-0\">\n          <td id=\"L27\" class=\"blob-num border-0 px-3 py-0 color-bg-default\" data-line-number=\"27\"></td>\n          <td id=\"LC27\" class=\"blob-code border-0 px-3 py-0 color-bg-default blob-code-inner js-file-line\"> <span class=\"pl-k\">static</span> std::map&lt;std::string, opcodetype&gt; mapOpNames; </td>\n        </tr>\n    </tbody></table>\n  </div>\n</div>\n<p></p>\n<p dir=\"auto\">But as it's just a cache, why not just change it to <code class=\"notranslate\">thread_local</code>?</p>",
    "body_text": "@MarcoFalke I found this one:\n\n  \n    \n      bitcoin/src/core_read.cpp\n    \n    \n         Line 27\n      in\n      458a345\n    \n  \n  \n    \n\n        \n          \n           static std::map<std::string, opcodetype> mapOpNames; \n        \n    \n  \n\n\nBut as it's just a cache, why not just change it to thread_local?",
    "body": "@MarcoFalke I found this one:\r\n\r\nhttps://github.com/bitcoin/bitcoin/blob/458a345b0590fd2fa04c7d8d70beb8d57e34bbc8/src/core_read.cpp#L27\r\n\r\nBut as it's just a cache, why not just change it to `thread_local`?",
    "reactions": {
      "url": "https://api.github.com/repos/bitcoin/bitcoin/issues/comments/912348951/reactions",
      "total_count": 0,
      "+1": 0,
      "-1": 0,
      "laugh": 0,
      "hooray": 0,
      "confused": 0,
      "heart": 0,
      "rocket": 0,
      "eyes": 0
    },
    "performed_via_github_app": null
  },
  {
    "url": "https://api.github.com/repos/bitcoin/bitcoin/issues/comments/912354008",
    "html_url": "https://github.com/bitcoin/bitcoin/issues/22869#issuecomment-912354008",
    "issue_url": "https://api.github.com/repos/bitcoin/bitcoin/issues/22869",
    "id": 912354008,
    "node_id": "IC_kwDOABII5842YWrY",
    "user": {
      "login": "maflcko",
      "id": 6399679,
      "node_id": "MDQ6VXNlcjYzOTk2Nzk=",
      "avatar_url": "https://avatars.githubusercontent.com/u/6399679?v=4",
      "gravatar_id": "",
      "url": "https://api.github.com/users/maflcko",
      "html_url": "https://github.com/maflcko",
      "followers_url": "https://api.github.com/users/maflcko/followers",
      "following_url": "https://api.github.com/users/maflcko/following{/other_user}",
      "gists_url": "https://api.github.com/users/maflcko/gists{/gist_id}",
      "starred_url": "https://api.github.com/users/maflcko/starred{/owner}{/repo}",
      "subscriptions_url": "https://api.github.com/users/maflcko/subscriptions",
      "organizations_url": "https://api.github.com/users/maflcko/orgs",
      "repos_url": "https://api.github.com/users/maflcko/repos",
      "events_url": "https://api.github.com/users/maflcko/events{/privacy}",
      "received_events_url": "https://api.github.com/users/maflcko/received_events",
      "type": "User",
      "site_admin": false
    },
    "created_at": "2021-09-03T08:19:24Z",
    "updated_at": "2021-09-03T08:19:24Z",
    "author_association": "MEMBER",
    "body_html": "<p dir=\"auto\">That one seems to be addressed in <a class=\"issue-link js-issue-link\" data-error-text=\"Failed to load title\" data-id=\"987372701\" data-permission-text=\"Title is private\" data-url=\"https://github.com/bitcoin/bitcoin/issues/22875\" data-hovercard-type=\"pull_request\" data-hovercard-url=\"/bitcoin/bitcoin/pull/22875/hovercard\" href=\"https://github.com/bitcoin/bitcoin/pull/22875\">#22875</a> already?</p>\n<p dir=\"auto\">So I think this can be closed.</p>\n<p dir=\"auto\">Also, in the future it would be good to use the good-first-issue template for good first issues.</p>",
    "body_text": "That one seems to be addressed in #22875 already?\nSo I think this can be closed.\nAlso, in the future it would be good to use the good-first-issue template for good first issues.",
    "body": "That one seems to be addressed in #22875 already?\r\n\r\nSo I think this can be closed.\r\n\r\nAlso, in the future it would be good to use the good-first-issue template for good first issues.",
    "reactions": {
      "url": "https://api.github.com/repos/bitcoin/bitcoin/issues/comments/912354008/reactions",
      "total_count": 0,
      "+1": 0,
      "-1": 0,
      "laugh": 0,
      "hooray": 0,
      "confused": 0,
      "heart": 0,
      "rocket": 0,
      "eyes": 0
    },
    "performed_via_github_app": null
  },
  {
    "url": "https://api.github.com/repos/bitcoin/bitcoin/issues/comments/912362360",
    "html_url": "https://github.com/bitcoin/bitcoin/issues/22869#issuecomment-912362360",
    "issue_url": "https://api.github.com/repos/bitcoin/bitcoin/issues/22869",
    "id": 912362360,
    "node_id": "IC_kwDOABII5842YYt4",
    "user": {
      "login": "JeremyRubin",
      "id": 886523,
      "node_id": "MDQ6VXNlcjg4NjUyMw==",
      "avatar_url": "https://avatars.githubusercontent.com/u/886523?v=4",
      "gravatar_id": "",
      "url": "https://api.github.com/users/JeremyRubin",
      "html_url": "https://github.com/JeremyRubin",
      "followers_url": "https://api.github.com/users/JeremyRubin/followers",
      "following_url": "https://api.github.com/users/JeremyRubin/following{/other_user}",
      "gists_url": "https://api.github.com/users/JeremyRubin/gists{/gist_id}",
      "starred_url": "https://api.github.com/users/JeremyRubin/starred{/owner}{/repo}",
      "subscriptions_url": "https://api.github.com/users/JeremyRubin/subscriptions",
      "organizations_url": "https://api.github.com/users/JeremyRubin/orgs",
      "repos_url": "https://api.github.com/users/JeremyRubin/repos",
      "events_url": "https://api.github.com/users/JeremyRubin/events{/privacy}",
      "received_events_url": "https://api.github.com/users/JeremyRubin/received_events",
      "type": "User",
      "site_admin": false
    },
    "created_at": "2021-09-03T08:32:22Z",
    "updated_at": "2021-09-03T08:32:22Z",
    "author_association": "CONTRIBUTOR",
    "body_html": "<p dir=\"auto\">sorry for the confusion here</p>",
    "body_text": "sorry for the confusion here",
    "body": "sorry for the confusion here",
    "reactions": {
      "url": "https://api.github.com/repos/bitcoin/bitcoin/issues/comments/912362360/reactions",
      "total_count": 0,
      "+1": 0,
      "-1": 0,
      "laugh": 0,
      "hooray": 0,
      "confused": 0,
      "heart": 0,
      "rocket": 0,
      "eyes": 0
    },
    "performed_via_github_app": null
  }
]
