[
  {
    "url": "https://api.github.com/repos/bitcoin/bitcoin/issues/comments/1069726307",
    "html_url": "https://github.com/bitcoin/bitcoin/pull/24578#issuecomment-1069726307",
    "issue_url": "https://api.github.com/repos/bitcoin/bitcoin/issues/24578",
    "id": 1069726307,
    "node_id": "IC_kwDOABII584_wrpj",
    "user": {
      "login": "DrahtBot",
      "id": 39886733,
      "node_id": "MDQ6VXNlcjM5ODg2NzMz",
      "avatar_url": "https://avatars.githubusercontent.com/u/39886733?v=4",
      "gravatar_id": "",
      "url": "https://api.github.com/users/DrahtBot",
      "html_url": "https://github.com/DrahtBot",
      "followers_url": "https://api.github.com/users/DrahtBot/followers",
      "following_url": "https://api.github.com/users/DrahtBot/following{/other_user}",
      "gists_url": "https://api.github.com/users/DrahtBot/gists{/gist_id}",
      "starred_url": "https://api.github.com/users/DrahtBot/starred{/owner}{/repo}",
      "subscriptions_url": "https://api.github.com/users/DrahtBot/subscriptions",
      "organizations_url": "https://api.github.com/users/DrahtBot/orgs",
      "repos_url": "https://api.github.com/users/DrahtBot/repos",
      "events_url": "https://api.github.com/users/DrahtBot/events{/privacy}",
      "received_events_url": "https://api.github.com/users/DrahtBot/received_events",
      "type": "User",
      "site_admin": false
    },
    "created_at": "2022-03-16T23:04:45Z",
    "updated_at": "2022-03-16T23:04:45Z",
    "author_association": "CONTRIBUTOR",
    "body_html": "\n<p dir=\"auto\">The following sections might be updated with supplementary metadata relevant to reviewers and maintainers.</p>\n\n<h3 dir=\"auto\">Conflicts</h3>\n<p dir=\"auto\">Reviewers, this pull request conflicts with the following ones:</p>\n<ul dir=\"auto\">\n<li><a href=\"https://github.com/bitcoin/bitcoin/pull/24535\" data-hovercard-type=\"pull_request\" data-hovercard-url=\"/bitcoin/bitcoin/pull/24535/hovercard\">#24535</a> (test: Fix generate calls and comments in feature_segwit by MarcoFalke)</li>\n</ul>\n<p dir=\"auto\">If you consider this pull request important, please also help to review the conflicting pull requests. Ideally, start with the one that should be merged first.</p>",
    "body_text": "The following sections might be updated with supplementary metadata relevant to reviewers and maintainers.\n\nConflicts\nReviewers, this pull request conflicts with the following ones:\n\n#24535 (test: Fix generate calls and comments in feature_segwit by MarcoFalke)\n\nIf you consider this pull request important, please also help to review the conflicting pull requests. Ideally, start with the one that should be merged first.",
    "body": "<!--e57a25ab6845829454e8d69fc972939a-->\n\nThe following sections might be updated with supplementary metadata relevant to reviewers and maintainers.\n\n<!--174a7506f384e20aa4161008e828411d-->\n### Conflicts\nReviewers, this pull request conflicts with the following ones:\n\n* [#24535](https://github.com/bitcoin/bitcoin/pull/24535) (test: Fix generate calls and comments in feature_segwit by MarcoFalke)\n\nIf you consider this pull request important, please also help to review the conflicting pull requests. Ideally, start with the one that should be merged first.",
    "reactions": {
      "url": "https://api.github.com/repos/bitcoin/bitcoin/issues/comments/1069726307/reactions",
      "total_count": 0,
      "+1": 0,
      "-1": 0,
      "laugh": 0,
      "hooray": 0,
      "confused": 0,
      "heart": 0,
      "rocket": 0,
      "eyes": 0
    },
    "performed_via_github_app": null
  },
  {
    "url": "https://api.github.com/repos/bitcoin/bitcoin/issues/comments/1070324802",
    "html_url": "https://github.com/bitcoin/bitcoin/pull/24578#issuecomment-1070324802",
    "issue_url": "https://api.github.com/repos/bitcoin/bitcoin/issues/24578",
    "id": 1070324802,
    "node_id": "IC_kwDOABII584_y9xC",
    "user": {
      "login": "aureleoules",
      "id": 22493292,
      "node_id": "MDQ6VXNlcjIyNDkzMjky",
      "avatar_url": "https://avatars.githubusercontent.com/u/22493292?v=4",
      "gravatar_id": "",
      "url": "https://api.github.com/users/aureleoules",
      "html_url": "https://github.com/aureleoules",
      "followers_url": "https://api.github.com/users/aureleoules/followers",
      "following_url": "https://api.github.com/users/aureleoules/following{/other_user}",
      "gists_url": "https://api.github.com/users/aureleoules/gists{/gist_id}",
      "starred_url": "https://api.github.com/users/aureleoules/starred{/owner}{/repo}",
      "subscriptions_url": "https://api.github.com/users/aureleoules/subscriptions",
      "organizations_url": "https://api.github.com/users/aureleoules/orgs",
      "repos_url": "https://api.github.com/users/aureleoules/repos",
      "events_url": "https://api.github.com/users/aureleoules/events{/privacy}",
      "received_events_url": "https://api.github.com/users/aureleoules/received_events",
      "type": "User",
      "site_admin": false
    },
    "created_at": "2022-03-17T04:52:35Z",
    "updated_at": "2022-03-17T04:52:35Z",
    "author_association": "MEMBER",
    "body_html": "<p dir=\"auto\">tACK <a class=\"commit-link\" data-hovercard-type=\"commit\" data-hovercard-url=\"https://github.com/bitcoin/bitcoin/commit/d6b24e14d2a828ba7328f0cae1d0d7c5f4f6b3bd/hovercard\" href=\"https://github.com/bitcoin/bitcoin/commit/d6b24e14d2a828ba7328f0cae1d0d7c5f4f6b3bd\"><tt>d6b24e1</tt></a>.<br>\nTested on NixOS 22.05 64 bits.</p>\n<p dir=\"auto\">I was able to reproduce the bug (<a class=\"issue-link js-issue-link\" data-error-text=\"Failed to load title\" data-id=\"1147111751\" data-permission-text=\"Title is private\" data-url=\"https://github.com/bitcoin/bitcoin/issues/24421\" data-hovercard-type=\"pull_request\" data-hovercard-url=\"/bitcoin/bitcoin/pull/24421/hovercard?comment_id=1067451667&amp;comment_type=issue_comment\" href=\"https://github.com/bitcoin/bitcoin/pull/24421#issuecomment-1067451667\">#24421 (comment)</a>) prior to this fix using: <code class=\"notranslate\">seq 100 | xargs -i -P 20 python test/functional/feature_segwit.py</code> (100 tests in batches of 20).<br>\nCould not reproduce the bug after this PR using the same command with 1000 tests.</p>",
    "body_text": "tACK d6b24e1.\nTested on NixOS 22.05 64 bits.\nI was able to reproduce the bug (#24421 (comment)) prior to this fix using: seq 100 | xargs -i -P 20 python test/functional/feature_segwit.py (100 tests in batches of 20).\nCould not reproduce the bug after this PR using the same command with 1000 tests.",
    "body": "tACK d6b24e14d2a828ba7328f0cae1d0d7c5f4f6b3bd.\r\nTested on NixOS 22.05 64 bits.\r\n\r\nI was able to reproduce the bug (https://github.com/bitcoin/bitcoin/pull/24421#issuecomment-1067451667) prior to this fix using: `seq 100 | xargs -i -P 20 python test/functional/feature_segwit.py` (100 tests in batches of 20).  \r\nCould not reproduce the bug after this PR using the same command with 1000 tests.",
    "reactions": {
      "url": "https://api.github.com/repos/bitcoin/bitcoin/issues/comments/1070324802/reactions",
      "total_count": 1,
      "+1": 1,
      "-1": 0,
      "laugh": 0,
      "hooray": 0,
      "confused": 0,
      "heart": 0,
      "rocket": 0,
      "eyes": 0
    },
    "performed_via_github_app": null
  },
  {
    "url": "https://api.github.com/repos/bitcoin/bitcoin/issues/comments/1072314252",
    "html_url": "https://github.com/bitcoin/bitcoin/pull/24578#issuecomment-1072314252",
    "issue_url": "https://api.github.com/repos/bitcoin/bitcoin/issues/24578",
    "id": 1072314252,
    "node_id": "IC_kwDOABII584_6jeM",
    "user": {
      "login": "jnewbery",
      "id": 1063656,
      "node_id": "MDQ6VXNlcjEwNjM2NTY=",
      "avatar_url": "https://avatars.githubusercontent.com/u/1063656?v=4",
      "gravatar_id": "",
      "url": "https://api.github.com/users/jnewbery",
      "html_url": "https://github.com/jnewbery",
      "followers_url": "https://api.github.com/users/jnewbery/followers",
      "following_url": "https://api.github.com/users/jnewbery/following{/other_user}",
      "gists_url": "https://api.github.com/users/jnewbery/gists{/gist_id}",
      "starred_url": "https://api.github.com/users/jnewbery/starred{/owner}{/repo}",
      "subscriptions_url": "https://api.github.com/users/jnewbery/subscriptions",
      "organizations_url": "https://api.github.com/users/jnewbery/orgs",
      "repos_url": "https://api.github.com/users/jnewbery/repos",
      "events_url": "https://api.github.com/users/jnewbery/events{/privacy}",
      "received_events_url": "https://api.github.com/users/jnewbery/received_events",
      "type": "User",
      "site_admin": false
    },
    "created_at": "2022-03-18T11:18:07Z",
    "updated_at": "2022-03-18T11:18:07Z",
    "author_association": "CONTRIBUTOR",
    "body_html": "<p dir=\"auto\">Code review ACK <a class=\"commit-link\" data-hovercard-type=\"commit\" data-hovercard-url=\"https://github.com/bitcoin/bitcoin/commit/d6b24e14d2a828ba7328f0cae1d0d7c5f4f6b3bd/hovercard\" href=\"https://github.com/bitcoin/bitcoin/commit/d6b24e14d2a828ba7328f0cae1d0d7c5f4f6b3bd\"><tt>d6b24e1</tt></a></p>\n<p dir=\"auto\">Is there a way to introduce random sleeps into the test logic to flush out other racy test bugs?</p>",
    "body_text": "Code review ACK d6b24e1\nIs there a way to introduce random sleeps into the test logic to flush out other racy test bugs?",
    "body": "Code review ACK d6b24e14d2a828ba7328f0cae1d0d7c5f4f6b3bd\r\n\r\nIs there a way to introduce random sleeps into the test logic to flush out other racy test bugs?",
    "reactions": {
      "url": "https://api.github.com/repos/bitcoin/bitcoin/issues/comments/1072314252/reactions",
      "total_count": 0,
      "+1": 0,
      "-1": 0,
      "laugh": 0,
      "hooray": 0,
      "confused": 0,
      "heart": 0,
      "rocket": 0,
      "eyes": 0
    },
    "performed_via_github_app": null
  },
  {
    "url": "https://api.github.com/repos/bitcoin/bitcoin/issues/comments/1072397831",
    "html_url": "https://github.com/bitcoin/bitcoin/pull/24578#issuecomment-1072397831",
    "issue_url": "https://api.github.com/repos/bitcoin/bitcoin/issues/24578",
    "id": 1072397831,
    "node_id": "IC_kwDOABII584_634H",
    "user": {
      "login": "maflcko",
      "id": 6399679,
      "node_id": "MDQ6VXNlcjYzOTk2Nzk=",
      "avatar_url": "https://avatars.githubusercontent.com/u/6399679?v=4",
      "gravatar_id": "",
      "url": "https://api.github.com/users/maflcko",
      "html_url": "https://github.com/maflcko",
      "followers_url": "https://api.github.com/users/maflcko/followers",
      "following_url": "https://api.github.com/users/maflcko/following{/other_user}",
      "gists_url": "https://api.github.com/users/maflcko/gists{/gist_id}",
      "starred_url": "https://api.github.com/users/maflcko/starred{/owner}{/repo}",
      "subscriptions_url": "https://api.github.com/users/maflcko/subscriptions",
      "organizations_url": "https://api.github.com/users/maflcko/orgs",
      "repos_url": "https://api.github.com/users/maflcko/repos",
      "events_url": "https://api.github.com/users/maflcko/events{/privacy}",
      "received_events_url": "https://api.github.com/users/maflcko/received_events",
      "type": "User",
      "site_admin": false
    },
    "created_at": "2022-03-18T13:13:28Z",
    "updated_at": "2022-03-18T13:13:28Z",
    "author_association": "MEMBER",
    "body_html": "<p dir=\"auto\">Sure, it should be possible to inject a random sleep after sendrawtransaction. Though, I am not sure if this is going to give consistent results either. I think the only way would be to do the same for txs that was done for blocks. (Always sync unless opted out).</p>",
    "body_text": "Sure, it should be possible to inject a random sleep after sendrawtransaction. Though, I am not sure if this is going to give consistent results either. I think the only way would be to do the same for txs that was done for blocks. (Always sync unless opted out).",
    "body": "Sure, it should be possible to inject a random sleep after sendrawtransaction. Though, I am not sure if this is going to give consistent results either. I think the only way would be to do the same for txs that was done for blocks. (Always sync unless opted out).",
    "reactions": {
      "url": "https://api.github.com/repos/bitcoin/bitcoin/issues/comments/1072397831/reactions",
      "total_count": 0,
      "+1": 0,
      "-1": 0,
      "laugh": 0,
      "hooray": 0,
      "confused": 0,
      "heart": 0,
      "rocket": 0,
      "eyes": 0
    },
    "performed_via_github_app": null
  },
  {
    "url": "https://api.github.com/repos/bitcoin/bitcoin/issues/comments/1073005267",
    "html_url": "https://github.com/bitcoin/bitcoin/pull/24578#issuecomment-1073005267",
    "issue_url": "https://api.github.com/repos/bitcoin/bitcoin/issues/24578",
    "id": 1073005267,
    "node_id": "IC_kwDOABII584_9MLT",
    "user": {
      "login": "glozow",
      "id": 25183001,
      "node_id": "MDQ6VXNlcjI1MTgzMDAx",
      "avatar_url": "https://avatars.githubusercontent.com/u/25183001?v=4",
      "gravatar_id": "",
      "url": "https://api.github.com/users/glozow",
      "html_url": "https://github.com/glozow",
      "followers_url": "https://api.github.com/users/glozow/followers",
      "following_url": "https://api.github.com/users/glozow/following{/other_user}",
      "gists_url": "https://api.github.com/users/glozow/gists{/gist_id}",
      "starred_url": "https://api.github.com/users/glozow/starred{/owner}{/repo}",
      "subscriptions_url": "https://api.github.com/users/glozow/subscriptions",
      "organizations_url": "https://api.github.com/users/glozow/orgs",
      "repos_url": "https://api.github.com/users/glozow/repos",
      "events_url": "https://api.github.com/users/glozow/events{/privacy}",
      "received_events_url": "https://api.github.com/users/glozow/received_events",
      "type": "User",
      "site_admin": false
    },
    "created_at": "2022-03-19T12:57:00Z",
    "updated_at": "2022-03-19T12:57:00Z",
    "author_association": "MEMBER",
    "body_html": "<p dir=\"auto\">post merge ACK</p>",
    "body_text": "post merge ACK",
    "body": "post merge ACK",
    "reactions": {
      "url": "https://api.github.com/repos/bitcoin/bitcoin/issues/comments/1073005267/reactions",
      "total_count": 0,
      "+1": 0,
      "-1": 0,
      "laugh": 0,
      "hooray": 0,
      "confused": 0,
      "heart": 0,
      "rocket": 0,
      "eyes": 0
    },
    "performed_via_github_app": null
  }
]
