[
  {
    "url": "https://api.github.com/repos/bitcoin/bitcoin/issues/comments/197963411",
    "html_url": "https://github.com/bitcoin/bitcoin/pull/7705#issuecomment-197963411",
    "issue_url": "https://api.github.com/repos/bitcoin/bitcoin/issues/7705",
    "id": 197963411,
    "node_id": "MDEyOklzc3VlQ29tbWVudDE5Nzk2MzQxMQ==",
    "user": {
      "login": "maflcko",
      "id": 6399679,
      "node_id": "MDQ6VXNlcjYzOTk2Nzk=",
      "avatar_url": "https://avatars.githubusercontent.com/u/6399679?v=4",
      "gravatar_id": "",
      "url": "https://api.github.com/users/maflcko",
      "html_url": "https://github.com/maflcko",
      "followers_url": "https://api.github.com/users/maflcko/followers",
      "following_url": "https://api.github.com/users/maflcko/following{/other_user}",
      "gists_url": "https://api.github.com/users/maflcko/gists{/gist_id}",
      "starred_url": "https://api.github.com/users/maflcko/starred{/owner}{/repo}",
      "subscriptions_url": "https://api.github.com/users/maflcko/subscriptions",
      "organizations_url": "https://api.github.com/users/maflcko/orgs",
      "repos_url": "https://api.github.com/users/maflcko/repos",
      "events_url": "https://api.github.com/users/maflcko/events{/privacy}",
      "received_events_url": "https://api.github.com/users/maflcko/received_events",
      "type": "User",
      "site_admin": false
    },
    "created_at": "2016-03-17T16:35:15Z",
    "updated_at": "2016-03-17T16:35:15Z",
    "author_association": "MEMBER",
    "body_html": "<p dir=\"auto\"><a class=\"user-mention notranslate\" data-hovercard-type=\"user\" data-hovercard-url=\"/users/laanwj/hovercard\" data-octo-click=\"hovercard-link-click\" data-octo-dimensions=\"link_type:self\" href=\"https://github.com/laanwj\">@laanwj</a> raised the concern that it should be mentioned in the release notes, but I would be really surprised if anyone was <a href=\"https://xkcd.com/1172/\" rel=\"nofollow\">relying</a> on this behavior.</p>\n<p dir=\"auto\">Current master fails the unit test (see travis):</p>\n<div class=\"highlight highlight-source-c++ notranslate position-relative overflow-auto\" dir=\"auto\" data-snippet-clipboard-copy-content=\"test/amount_tests.cpp(23): error: check feeRate.GetFee(0) == 0 has failed [1000 != 0]\ntest/amount_tests.cpp(32): error: check feeRate.GetFee(0) == 0 has failed [123 != 0]\ntest/amount_tests.cpp(33): error: check feeRate.GetFee(8) == 1 has failed [123 != 1]\"><pre class=\"notranslate\">test/amount_tests.cpp(<span class=\"pl-c1\">23</span>): error: check feeRate.GetFee(<span class=\"pl-c1\">0</span>) == <span class=\"pl-c1\">0</span> has failed [<span class=\"pl-c1\">1000</span> != <span class=\"pl-c1\">0</span>]\ntest/amount_tests.cpp(<span class=\"pl-c1\">32</span>): error: check feeRate.GetFee(<span class=\"pl-c1\">0</span>) == <span class=\"pl-c1\">0</span> has failed [<span class=\"pl-c1\">123</span> != <span class=\"pl-c1\">0</span>]\ntest/amount_tests.cpp(<span class=\"pl-c1\">33</span>): error: check feeRate.GetFee(<span class=\"pl-c1\">8</span>) == <span class=\"pl-c1\">1</span> has failed [<span class=\"pl-c1\">123</span> != <span class=\"pl-c1\">1</span>]</pre></div>",
    "body_text": "@laanwj raised the concern that it should be mentioned in the release notes, but I would be really surprised if anyone was relying on this behavior.\nCurrent master fails the unit test (see travis):\ntest/amount_tests.cpp(23): error: check feeRate.GetFee(0) == 0 has failed [1000 != 0]\ntest/amount_tests.cpp(32): error: check feeRate.GetFee(0) == 0 has failed [123 != 0]\ntest/amount_tests.cpp(33): error: check feeRate.GetFee(8) == 1 has failed [123 != 1]",
    "body": "@laanwj raised the concern that it should be mentioned in the release notes, but I would be really surprised if anyone was [relying](https://xkcd.com/1172/) on this behavior.\n\nCurrent master fails the unit test (see travis):\n\n``` cpp\ntest/amount_tests.cpp(23): error: check feeRate.GetFee(0) == 0 has failed [1000 != 0]\ntest/amount_tests.cpp(32): error: check feeRate.GetFee(0) == 0 has failed [123 != 0]\ntest/amount_tests.cpp(33): error: check feeRate.GetFee(8) == 1 has failed [123 != 1]\n```\n",
    "reactions": {
      "url": "https://api.github.com/repos/bitcoin/bitcoin/issues/comments/197963411/reactions",
      "total_count": 0,
      "+1": 0,
      "-1": 0,
      "laugh": 0,
      "hooray": 0,
      "confused": 0,
      "heart": 0,
      "rocket": 0,
      "eyes": 0
    },
    "performed_via_github_app": null
  },
  {
    "url": "https://api.github.com/repos/bitcoin/bitcoin/issues/comments/197963625",
    "html_url": "https://github.com/bitcoin/bitcoin/pull/7705#issuecomment-197963625",
    "issue_url": "https://api.github.com/repos/bitcoin/bitcoin/issues/7705",
    "id": 197963625,
    "node_id": "MDEyOklzc3VlQ29tbWVudDE5Nzk2MzYyNQ==",
    "user": {
      "login": "laanwj",
      "id": 126646,
      "node_id": "MDQ6VXNlcjEyNjY0Ng==",
      "avatar_url": "https://avatars.githubusercontent.com/u/126646?v=4",
      "gravatar_id": "",
      "url": "https://api.github.com/users/laanwj",
      "html_url": "https://github.com/laanwj",
      "followers_url": "https://api.github.com/users/laanwj/followers",
      "following_url": "https://api.github.com/users/laanwj/following{/other_user}",
      "gists_url": "https://api.github.com/users/laanwj/gists{/gist_id}",
      "starred_url": "https://api.github.com/users/laanwj/starred{/owner}{/repo}",
      "subscriptions_url": "https://api.github.com/users/laanwj/subscriptions",
      "organizations_url": "https://api.github.com/users/laanwj/orgs",
      "repos_url": "https://api.github.com/users/laanwj/repos",
      "events_url": "https://api.github.com/users/laanwj/events{/privacy}",
      "received_events_url": "https://api.github.com/users/laanwj/received_events",
      "type": "User",
      "site_admin": false
    },
    "created_at": "2016-03-17T16:35:38Z",
    "updated_at": "2016-03-17T16:38:06Z",
    "author_association": "MEMBER",
    "body_html": "<p dir=\"auto\">I'd like some more details here, you left the opening post empty!</p>\n<p dir=\"auto\">What do you mean with \"make GetFee() monotonic\", and what purpose does this have (from a user perspective)?</p>",
    "body_text": "I'd like some more details here, you left the opening post empty!\nWhat do you mean with \"make GetFee() monotonic\", and what purpose does this have (from a user perspective)?",
    "body": "I'd like some more details here, you left the opening post empty!\n\nWhat do you mean with \"make GetFee() monotonic\", and what purpose does this have (from a user perspective)?\n",
    "reactions": {
      "url": "https://api.github.com/repos/bitcoin/bitcoin/issues/comments/197963625/reactions",
      "total_count": 0,
      "+1": 0,
      "-1": 0,
      "laugh": 0,
      "hooray": 0,
      "confused": 0,
      "heart": 0,
      "rocket": 0,
      "eyes": 0
    },
    "performed_via_github_app": null
  },
  {
    "url": "https://api.github.com/repos/bitcoin/bitcoin/issues/comments/197975106",
    "html_url": "https://github.com/bitcoin/bitcoin/pull/7705#issuecomment-197975106",
    "issue_url": "https://api.github.com/repos/bitcoin/bitcoin/issues/7705",
    "id": 197975106,
    "node_id": "MDEyOklzc3VlQ29tbWVudDE5Nzk3NTEwNg==",
    "user": {
      "login": "maflcko",
      "id": 6399679,
      "node_id": "MDQ6VXNlcjYzOTk2Nzk=",
      "avatar_url": "https://avatars.githubusercontent.com/u/6399679?v=4",
      "gravatar_id": "",
      "url": "https://api.github.com/users/maflcko",
      "html_url": "https://github.com/maflcko",
      "followers_url": "https://api.github.com/users/maflcko/followers",
      "following_url": "https://api.github.com/users/maflcko/following{/other_user}",
      "gists_url": "https://api.github.com/users/maflcko/gists{/gist_id}",
      "starred_url": "https://api.github.com/users/maflcko/starred{/owner}{/repo}",
      "subscriptions_url": "https://api.github.com/users/maflcko/subscriptions",
      "organizations_url": "https://api.github.com/users/maflcko/orgs",
      "repos_url": "https://api.github.com/users/maflcko/repos",
      "events_url": "https://api.github.com/users/maflcko/events{/privacy}",
      "received_events_url": "https://api.github.com/users/maflcko/received_events",
      "type": "User",
      "site_admin": false
    },
    "created_at": "2016-03-17T17:02:39Z",
    "updated_at": "2016-03-17T17:02:39Z",
    "author_association": "MEMBER",
    "body_html": "<blockquote>\n<p dir=\"auto\">What do you mean with \"make GetFee() monotonic\",</p>\n</blockquote>\n<p dir=\"auto\">The current behavior of the code is <code class=\"notranslate\">CFeeRate(1000).GetFee(0) == 1000</code> and <code class=\"notranslate\">CFeeRate(123).GetFee(8) == 123</code>, which is obviously wrong. This was introduced in <a class=\"commit-link\" data-hovercard-type=\"commit\" data-hovercard-url=\"https://github.com/bitcoin/bitcoin/commit/d88af560111863c3e9c1ae855dcc287f04dffb02/hovercard\" href=\"https://github.com/bitcoin/bitcoin/commit/d88af560111863c3e9c1ae855dcc287f04dffb02\"><tt>d88af56</tt></a> (<a class=\"issue-link js-issue-link\" data-error-text=\"Failed to load title\" data-id=\"37199263\" data-permission-text=\"Title is private\" data-url=\"https://github.com/bitcoin/bitcoin/issues/4465\" data-hovercard-type=\"pull_request\" data-hovercard-url=\"/bitcoin/bitcoin/pull/4465/hovercard\" href=\"https://github.com/bitcoin/bitcoin/pull/4465\">#4465</a>).</p>\n<blockquote>\n<p dir=\"auto\">monotonic</p>\n</blockquote>\n<p dir=\"auto\">Please have a look at the following sketches:</p>\n<p dir=\"auto\"><code class=\"notranslate\">master</code>:<br>\n<a target=\"_blank\" rel=\"noopener noreferrer nofollow\" href=\"https://cloud.githubusercontent.com/assets/6399679/13854090/20c699be-ec6a-11e5-8119-a61eb0b4dfb8.png\"><img src=\"https://cloud.githubusercontent.com/assets/6399679/13854090/20c699be-ec6a-11e5-8119-a61eb0b4dfb8.png\" alt=\"screenshot from 2016-03-17 17-53-24\" style=\"max-width: 100%;\"></a></p>\n<p dir=\"auto\"><code class=\"notranslate\">patch</code>:<br>\n<a target=\"_blank\" rel=\"noopener noreferrer nofollow\" href=\"https://cloud.githubusercontent.com/assets/6399679/13854102/28fcb0e6-ec6a-11e5-8961-b6acd3b5303f.png\"><img src=\"https://cloud.githubusercontent.com/assets/6399679/13854102/28fcb0e6-ec6a-11e5-8961-b6acd3b5303f.png\" alt=\"screenshot from 2016-03-17 17-53-45\" style=\"max-width: 100%;\"></a></p>\n<blockquote>\n<p dir=\"auto\">what purpose does this have</p>\n</blockquote>\n<p dir=\"auto\">The purpose of this pull is to get rid of unexpected behavior.</p>",
    "body_text": "What do you mean with \"make GetFee() monotonic\",\n\nThe current behavior of the code is CFeeRate(1000).GetFee(0) == 1000 and CFeeRate(123).GetFee(8) == 123, which is obviously wrong. This was introduced in d88af56 (#4465).\n\nmonotonic\n\nPlease have a look at the following sketches:\nmaster:\n\npatch:\n\n\nwhat purpose does this have\n\nThe purpose of this pull is to get rid of unexpected behavior.",
    "body": "> What do you mean with \"make GetFee() monotonic\",\n\nThe current behavior of the code is `CFeeRate(1000).GetFee(0) == 1000` and `CFeeRate(123).GetFee(8) == 123`, which is obviously wrong. This was introduced in d88af56 (#4465).\n\n> monotonic\n\nPlease have a look at the following sketches:\n\n`master`:\n![screenshot from 2016-03-17 17-53-24](https://cloud.githubusercontent.com/assets/6399679/13854090/20c699be-ec6a-11e5-8119-a61eb0b4dfb8.png)\n\n`patch`:\n![screenshot from 2016-03-17 17-53-45](https://cloud.githubusercontent.com/assets/6399679/13854102/28fcb0e6-ec6a-11e5-8961-b6acd3b5303f.png)\n\n> what purpose does this have\n\nThe purpose of this pull is to get rid of unexpected behavior.\n",
    "reactions": {
      "url": "https://api.github.com/repos/bitcoin/bitcoin/issues/comments/197975106/reactions",
      "total_count": 0,
      "+1": 0,
      "-1": 0,
      "laugh": 0,
      "hooray": 0,
      "confused": 0,
      "heart": 0,
      "rocket": 0,
      "eyes": 0
    },
    "performed_via_github_app": null
  },
  {
    "url": "https://api.github.com/repos/bitcoin/bitcoin/issues/comments/197980380",
    "html_url": "https://github.com/bitcoin/bitcoin/pull/7705#issuecomment-197980380",
    "issue_url": "https://api.github.com/repos/bitcoin/bitcoin/issues/7705",
    "id": 197980380,
    "node_id": "MDEyOklzc3VlQ29tbWVudDE5Nzk4MDM4MA==",
    "user": {
      "login": "laanwj",
      "id": 126646,
      "node_id": "MDQ6VXNlcjEyNjY0Ng==",
      "avatar_url": "https://avatars.githubusercontent.com/u/126646?v=4",
      "gravatar_id": "",
      "url": "https://api.github.com/users/laanwj",
      "html_url": "https://github.com/laanwj",
      "followers_url": "https://api.github.com/users/laanwj/followers",
      "following_url": "https://api.github.com/users/laanwj/following{/other_user}",
      "gists_url": "https://api.github.com/users/laanwj/gists{/gist_id}",
      "starred_url": "https://api.github.com/users/laanwj/starred{/owner}{/repo}",
      "subscriptions_url": "https://api.github.com/users/laanwj/subscriptions",
      "organizations_url": "https://api.github.com/users/laanwj/orgs",
      "repos_url": "https://api.github.com/users/laanwj/repos",
      "events_url": "https://api.github.com/users/laanwj/events{/privacy}",
      "received_events_url": "https://api.github.com/users/laanwj/received_events",
      "type": "User",
      "site_admin": false
    },
    "created_at": "2016-03-17T17:15:18Z",
    "updated_at": "2016-03-17T17:15:18Z",
    "author_association": "MEMBER",
    "body_html": "<p dir=\"auto\">Thanks for the plots, that makes things a lot more clear. That outlier around 0 clearly looks wrong.<br>\nYes, this change makes sense.</p>\n<p dir=\"auto\">utACK</p>",
    "body_text": "Thanks for the plots, that makes things a lot more clear. That outlier around 0 clearly looks wrong.\nYes, this change makes sense.\nutACK",
    "body": "Thanks for the plots, that makes things a lot more clear. That outlier around 0 clearly looks wrong.\nYes, this change makes sense.\n\nutACK\n",
    "reactions": {
      "url": "https://api.github.com/repos/bitcoin/bitcoin/issues/comments/197980380/reactions",
      "total_count": 0,
      "+1": 0,
      "-1": 0,
      "laugh": 0,
      "hooray": 0,
      "confused": 0,
      "heart": 0,
      "rocket": 0,
      "eyes": 0
    },
    "performed_via_github_app": null
  },
  {
    "url": "https://api.github.com/repos/bitcoin/bitcoin/issues/comments/198234324",
    "html_url": "https://github.com/bitcoin/bitcoin/pull/7705#issuecomment-198234324",
    "issue_url": "https://api.github.com/repos/bitcoin/bitcoin/issues/7705",
    "id": 198234324,
    "node_id": "MDEyOklzc3VlQ29tbWVudDE5ODIzNDMyNA==",
    "user": {
      "login": "jonasschnelli",
      "id": 178464,
      "node_id": "MDQ6VXNlcjE3ODQ2NA==",
      "avatar_url": "https://avatars.githubusercontent.com/u/178464?v=4",
      "gravatar_id": "",
      "url": "https://api.github.com/users/jonasschnelli",
      "html_url": "https://github.com/jonasschnelli",
      "followers_url": "https://api.github.com/users/jonasschnelli/followers",
      "following_url": "https://api.github.com/users/jonasschnelli/following{/other_user}",
      "gists_url": "https://api.github.com/users/jonasschnelli/gists{/gist_id}",
      "starred_url": "https://api.github.com/users/jonasschnelli/starred{/owner}{/repo}",
      "subscriptions_url": "https://api.github.com/users/jonasschnelli/subscriptions",
      "organizations_url": "https://api.github.com/users/jonasschnelli/orgs",
      "repos_url": "https://api.github.com/users/jonasschnelli/repos",
      "events_url": "https://api.github.com/users/jonasschnelli/events{/privacy}",
      "received_events_url": "https://api.github.com/users/jonasschnelli/received_events",
      "type": "User",
      "site_admin": false
    },
    "created_at": "2016-03-18T07:12:49Z",
    "updated_at": "2016-03-18T07:12:49Z",
    "author_association": "CONTRIBUTOR",
    "body_html": "<p dir=\"auto\">utACK</p>",
    "body_text": "utACK",
    "body": "utACK\n",
    "reactions": {
      "url": "https://api.github.com/repos/bitcoin/bitcoin/issues/comments/198234324/reactions",
      "total_count": 0,
      "+1": 0,
      "-1": 0,
      "laugh": 0,
      "hooray": 0,
      "confused": 0,
      "heart": 0,
      "rocket": 0,
      "eyes": 0
    },
    "performed_via_github_app": null
  },
  {
    "url": "https://api.github.com/repos/bitcoin/bitcoin/issues/comments/198778669",
    "html_url": "https://github.com/bitcoin/bitcoin/pull/7705#issuecomment-198778669",
    "issue_url": "https://api.github.com/repos/bitcoin/bitcoin/issues/7705",
    "id": 198778669,
    "node_id": "MDEyOklzc3VlQ29tbWVudDE5ODc3ODY2OQ==",
    "user": {
      "login": "morcos",
      "id": 4360349,
      "node_id": "MDQ6VXNlcjQzNjAzNDk=",
      "avatar_url": "https://avatars.githubusercontent.com/u/4360349?v=4",
      "gravatar_id": "",
      "url": "https://api.github.com/users/morcos",
      "html_url": "https://github.com/morcos",
      "followers_url": "https://api.github.com/users/morcos/followers",
      "following_url": "https://api.github.com/users/morcos/following{/other_user}",
      "gists_url": "https://api.github.com/users/morcos/gists{/gist_id}",
      "starred_url": "https://api.github.com/users/morcos/starred{/owner}{/repo}",
      "subscriptions_url": "https://api.github.com/users/morcos/subscriptions",
      "organizations_url": "https://api.github.com/users/morcos/orgs",
      "repos_url": "https://api.github.com/users/morcos/repos",
      "events_url": "https://api.github.com/users/morcos/events{/privacy}",
      "received_events_url": "https://api.github.com/users/morcos/received_events",
      "type": "User",
      "site_admin": false
    },
    "created_at": "2016-03-19T20:14:35Z",
    "updated_at": "2016-03-19T20:14:35Z",
    "author_association": "MEMBER",
    "body_html": "<p dir=\"auto\"><a class=\"user-mention notranslate\" data-hovercard-type=\"user\" data-hovercard-url=\"/users/MarcoFalke/hovercard\" data-octo-click=\"hovercard-link-click\" data-octo-dimensions=\"link_type:self\" href=\"https://github.com/MarcoFalke\">@MarcoFalke</a> thanks.</p>\n<p dir=\"auto\">utACK <a class=\"commit-link\" data-hovercard-type=\"commit\" data-hovercard-url=\"https://github.com/bitcoin/bitcoin/commit/fad13b1612b5de16d94c78c1a464d431a4f770bf/hovercard\" href=\"https://github.com/bitcoin/bitcoin/commit/fad13b1612b5de16d94c78c1a464d431a4f770bf\"><tt>fad13b1</tt></a></p>",
    "body_text": "@MarcoFalke thanks.\nutACK fad13b1",
    "body": "@MarcoFalke thanks.\n\nutACK fad13b1\n",
    "reactions": {
      "url": "https://api.github.com/repos/bitcoin/bitcoin/issues/comments/198778669/reactions",
      "total_count": 0,
      "+1": 0,
      "-1": 0,
      "laugh": 0,
      "hooray": 0,
      "confused": 0,
      "heart": 0,
      "rocket": 0,
      "eyes": 0
    },
    "performed_via_github_app": null
  },
  {
    "url": "https://api.github.com/repos/bitcoin/bitcoin/issues/comments/199362441",
    "html_url": "https://github.com/bitcoin/bitcoin/pull/7705#issuecomment-199362441",
    "issue_url": "https://api.github.com/repos/bitcoin/bitcoin/issues/7705",
    "id": 199362441,
    "node_id": "MDEyOklzc3VlQ29tbWVudDE5OTM2MjQ0MQ==",
    "user": {
      "login": "jtimon",
      "id": 1008458,
      "node_id": "MDQ6VXNlcjEwMDg0NTg=",
      "avatar_url": "https://avatars.githubusercontent.com/u/1008458?v=4",
      "gravatar_id": "",
      "url": "https://api.github.com/users/jtimon",
      "html_url": "https://github.com/jtimon",
      "followers_url": "https://api.github.com/users/jtimon/followers",
      "following_url": "https://api.github.com/users/jtimon/following{/other_user}",
      "gists_url": "https://api.github.com/users/jtimon/gists{/gist_id}",
      "starred_url": "https://api.github.com/users/jtimon/starred{/owner}{/repo}",
      "subscriptions_url": "https://api.github.com/users/jtimon/subscriptions",
      "organizations_url": "https://api.github.com/users/jtimon/orgs",
      "repos_url": "https://api.github.com/users/jtimon/repos",
      "events_url": "https://api.github.com/users/jtimon/events{/privacy}",
      "received_events_url": "https://api.github.com/users/jtimon/received_events",
      "type": "User",
      "site_admin": false
    },
    "created_at": "2016-03-21T16:17:56Z",
    "updated_at": "2016-03-21T16:17:56Z",
    "author_association": "CONTRIBUTOR",
    "body_html": "<p dir=\"auto\">Somehow I missed this. Even if it's kind of meaningless now, \"posthumous utACK\".</p>\n<p dir=\"auto\">I'll test this now by rebasing <a class=\"commit-link\" href=\"https://github.com/bitcoin/bitcoin/compare/master...jtimon:0.12.99-feerate\"><tt>master...jtimon:0.12.99-feerate</tt></a> and repeating the rpc tests locally. I still don't know them all that well, does it make sense for me to run the all the rpc tests with the -extended label for anything that could be affected by changes in CFeeRate ?</p>",
    "body_text": "Somehow I missed this. Even if it's kind of meaningless now, \"posthumous utACK\".\nI'll test this now by rebasing master...jtimon:0.12.99-feerate and repeating the rpc tests locally. I still don't know them all that well, does it make sense for me to run the all the rpc tests with the -extended label for anything that could be affected by changes in CFeeRate ?",
    "body": "Somehow I missed this. Even if it's kind of meaningless now, \"posthumous utACK\".\n\nI'll test this now by rebasing https://github.com/bitcoin/bitcoin/compare/master...jtimon:0.12.99-feerate and repeating the rpc tests locally. I still don't know them all that well, does it make sense for me to run the all the rpc tests with the -extended label for anything that could be affected by changes in CFeeRate ?\n",
    "reactions": {
      "url": "https://api.github.com/repos/bitcoin/bitcoin/issues/comments/199362441/reactions",
      "total_count": 0,
      "+1": 0,
      "-1": 0,
      "laugh": 0,
      "hooray": 0,
      "confused": 0,
      "heart": 0,
      "rocket": 0,
      "eyes": 0
    },
    "performed_via_github_app": null
  },
  {
    "url": "https://api.github.com/repos/bitcoin/bitcoin/issues/comments/199372022",
    "html_url": "https://github.com/bitcoin/bitcoin/pull/7705#issuecomment-199372022",
    "issue_url": "https://api.github.com/repos/bitcoin/bitcoin/issues/7705",
    "id": 199372022,
    "node_id": "MDEyOklzc3VlQ29tbWVudDE5OTM3MjAyMg==",
    "user": {
      "login": "laanwj",
      "id": 126646,
      "node_id": "MDQ6VXNlcjEyNjY0Ng==",
      "avatar_url": "https://avatars.githubusercontent.com/u/126646?v=4",
      "gravatar_id": "",
      "url": "https://api.github.com/users/laanwj",
      "html_url": "https://github.com/laanwj",
      "followers_url": "https://api.github.com/users/laanwj/followers",
      "following_url": "https://api.github.com/users/laanwj/following{/other_user}",
      "gists_url": "https://api.github.com/users/laanwj/gists{/gist_id}",
      "starred_url": "https://api.github.com/users/laanwj/starred{/owner}{/repo}",
      "subscriptions_url": "https://api.github.com/users/laanwj/subscriptions",
      "organizations_url": "https://api.github.com/users/laanwj/orgs",
      "repos_url": "https://api.github.com/users/laanwj/repos",
      "events_url": "https://api.github.com/users/laanwj/events{/privacy}",
      "received_events_url": "https://api.github.com/users/laanwj/received_events",
      "type": "User",
      "site_admin": false
    },
    "created_at": "2016-03-21T16:44:10Z",
    "updated_at": "2016-03-21T16:44:10Z",
    "author_association": "MEMBER",
    "body_html": "<blockquote>\n<p dir=\"auto\">Somehow I missed this. Even if it's kind of meaningless now, \"posthumous utACK\".</p>\n</blockquote>\n<p dir=\"auto\">No, it's not meaningless. Reviewing commits that are merged is also essential.</p>",
    "body_text": "Somehow I missed this. Even if it's kind of meaningless now, \"posthumous utACK\".\n\nNo, it's not meaningless. Reviewing commits that are merged is also essential.",
    "body": "> Somehow I missed this. Even if it's kind of meaningless now, \"posthumous utACK\".\n\nNo, it's not meaningless. Reviewing commits that are merged is also essential.\n",
    "reactions": {
      "url": "https://api.github.com/repos/bitcoin/bitcoin/issues/comments/199372022/reactions",
      "total_count": 0,
      "+1": 0,
      "-1": 0,
      "laugh": 0,
      "hooray": 0,
      "confused": 0,
      "heart": 0,
      "rocket": 0,
      "eyes": 0
    },
    "performed_via_github_app": null
  },
  {
    "url": "https://api.github.com/repos/bitcoin/bitcoin/issues/comments/199372642",
    "html_url": "https://github.com/bitcoin/bitcoin/pull/7705#issuecomment-199372642",
    "issue_url": "https://api.github.com/repos/bitcoin/bitcoin/issues/7705",
    "id": 199372642,
    "node_id": "MDEyOklzc3VlQ29tbWVudDE5OTM3MjY0Mg==",
    "user": {
      "login": "maflcko",
      "id": 6399679,
      "node_id": "MDQ6VXNlcjYzOTk2Nzk=",
      "avatar_url": "https://avatars.githubusercontent.com/u/6399679?v=4",
      "gravatar_id": "",
      "url": "https://api.github.com/users/maflcko",
      "html_url": "https://github.com/maflcko",
      "followers_url": "https://api.github.com/users/maflcko/followers",
      "following_url": "https://api.github.com/users/maflcko/following{/other_user}",
      "gists_url": "https://api.github.com/users/maflcko/gists{/gist_id}",
      "starred_url": "https://api.github.com/users/maflcko/starred{/owner}{/repo}",
      "subscriptions_url": "https://api.github.com/users/maflcko/subscriptions",
      "organizations_url": "https://api.github.com/users/maflcko/orgs",
      "repos_url": "https://api.github.com/users/maflcko/repos",
      "events_url": "https://api.github.com/users/maflcko/events{/privacy}",
      "received_events_url": "https://api.github.com/users/maflcko/received_events",
      "type": "User",
      "site_admin": false
    },
    "created_at": "2016-03-21T16:46:24Z",
    "updated_at": "2016-03-21T16:46:24Z",
    "author_association": "MEMBER",
    "body_html": "<blockquote>\n<p dir=\"auto\">repeating the rpc tests locally</p>\n</blockquote>\n<p dir=\"auto\">I can't think of any way your results should be different by rebasing onto this pull. This only has an effect if the size and/or fee rate is really small.</p>",
    "body_text": "repeating the rpc tests locally\n\nI can't think of any way your results should be different by rebasing onto this pull. This only has an effect if the size and/or fee rate is really small.",
    "body": "> repeating the rpc tests locally\n\nI can't think of any way your results should be different by rebasing onto this pull. This only has an effect if the size and/or fee rate is really small.\n",
    "reactions": {
      "url": "https://api.github.com/repos/bitcoin/bitcoin/issues/comments/199372642/reactions",
      "total_count": 0,
      "+1": 0,
      "-1": 0,
      "laugh": 0,
      "hooray": 0,
      "confused": 0,
      "heart": 0,
      "rocket": 0,
      "eyes": 0
    },
    "performed_via_github_app": null
  },
  {
    "url": "https://api.github.com/repos/bitcoin/bitcoin/issues/comments/199450288",
    "html_url": "https://github.com/bitcoin/bitcoin/pull/7705#issuecomment-199450288",
    "issue_url": "https://api.github.com/repos/bitcoin/bitcoin/issues/7705",
    "id": 199450288,
    "node_id": "MDEyOklzc3VlQ29tbWVudDE5OTQ1MDI4OA==",
    "user": {
      "login": "jtimon",
      "id": 1008458,
      "node_id": "MDQ6VXNlcjEwMDg0NTg=",
      "avatar_url": "https://avatars.githubusercontent.com/u/1008458?v=4",
      "gravatar_id": "",
      "url": "https://api.github.com/users/jtimon",
      "html_url": "https://github.com/jtimon",
      "followers_url": "https://api.github.com/users/jtimon/followers",
      "following_url": "https://api.github.com/users/jtimon/following{/other_user}",
      "gists_url": "https://api.github.com/users/jtimon/gists{/gist_id}",
      "starred_url": "https://api.github.com/users/jtimon/starred{/owner}{/repo}",
      "subscriptions_url": "https://api.github.com/users/jtimon/subscriptions",
      "organizations_url": "https://api.github.com/users/jtimon/orgs",
      "repos_url": "https://api.github.com/users/jtimon/repos",
      "events_url": "https://api.github.com/users/jtimon/events{/privacy}",
      "received_events_url": "https://api.github.com/users/jtimon/received_events",
      "type": "User",
      "site_admin": false
    },
    "created_at": "2016-03-21T20:01:31Z",
    "updated_at": "2016-03-21T20:01:31Z",
    "author_association": "CONTRIBUTOR",
    "body_html": "<blockquote>\n<p dir=\"auto\">I can't think of ...</p>\n</blockquote>\n<p dir=\"auto\">Well, I can think of them. That doesn't mean they make sense, see <a class=\"issue-link js-issue-link\" data-error-text=\"Failed to load title\" data-id=\"142448134\" data-permission-text=\"Title is private\" data-url=\"https://github.com/bitcoin/bitcoin/issues/7731\" data-hovercard-type=\"pull_request\" data-hovercard-url=\"/bitcoin/bitcoin/pull/7731/hovercard\" href=\"https://github.com/bitcoin/bitcoin/pull/7731\">#7731</a></p>",
    "body_text": "I can't think of ...\n\nWell, I can think of them. That doesn't mean they make sense, see #7731",
    "body": "> I can't think of ...\n\nWell, I can think of them. That doesn't mean they make sense, see #7731\n",
    "reactions": {
      "url": "https://api.github.com/repos/bitcoin/bitcoin/issues/comments/199450288/reactions",
      "total_count": 0,
      "+1": 0,
      "-1": 0,
      "laugh": 0,
      "hooray": 0,
      "confused": 0,
      "heart": 0,
      "rocket": 0,
      "eyes": 0
    },
    "performed_via_github_app": null
  }
]
