{
  "url": "https://api.github.com/repos/bitcoin/bitcoin/issues/17871",
  "repository_url": "https://api.github.com/repos/bitcoin/bitcoin",
  "labels_url": "https://api.github.com/repos/bitcoin/bitcoin/issues/17871/labels{/name}",
  "comments_url": "https://api.github.com/repos/bitcoin/bitcoin/issues/17871/comments",
  "events_url": "https://api.github.com/repos/bitcoin/bitcoin/issues/17871/events",
  "html_url": "https://github.com/bitcoin/bitcoin/issues/17871",
  "id": 545355307,
  "node_id": "MDU6SXNzdWU1NDUzNTUzMDc=",
  "number": 17871,
  "title": "Send addr to outbound connection",
  "user": {
    "login": "MithrilMan",
    "id": 5107375,
    "node_id": "MDQ6VXNlcjUxMDczNzU=",
    "avatar_url": "https://avatars.githubusercontent.com/u/5107375?v=4",
    "gravatar_id": "",
    "url": "https://api.github.com/users/MithrilMan",
    "html_url": "https://github.com/MithrilMan",
    "followers_url": "https://api.github.com/users/MithrilMan/followers",
    "following_url": "https://api.github.com/users/MithrilMan/following{/other_user}",
    "gists_url": "https://api.github.com/users/MithrilMan/gists{/gist_id}",
    "starred_url": "https://api.github.com/users/MithrilMan/starred{/owner}{/repo}",
    "subscriptions_url": "https://api.github.com/users/MithrilMan/subscriptions",
    "organizations_url": "https://api.github.com/users/MithrilMan/orgs",
    "repos_url": "https://api.github.com/users/MithrilMan/repos",
    "events_url": "https://api.github.com/users/MithrilMan/events{/privacy}",
    "received_events_url": "https://api.github.com/users/MithrilMan/received_events",
    "type": "User",
    "site_admin": false
  },
  "labels": [
    {
      "id": 64583,
      "node_id": "MDU6TGFiZWw2NDU4Mw==",
      "url": "https://api.github.com/repos/bitcoin/bitcoin/labels/Feature",
      "name": "Feature",
      "color": "7cf575",
      "default": false,
      "description": null
    }
  ],
  "state": "closed",
  "locked": true,
  "assignee": null,
  "assignees": [

  ],
  "milestone": null,
  "comments": 5,
  "created_at": "2020-01-05T01:44:38Z",
  "updated_at": "2022-02-15T11:01:50Z",
  "closed_at": "2020-01-10T10:39:30Z",
  "author_association": "NONE",
  "active_lock_reason": "resolved",
  "body_html": "<p dir=\"auto\">Currently there is this logic in place<br>\n</p><div class=\"Box Box--condensed my-2\">\n  <div class=\"Box-header f6\">\n    <p class=\"mb-0 text-bold\">\n      <a href=\"https://github.com/bitcoin/bitcoin/blob/593f5e239f277e3fd917737122c2aed3c615430c/src/net_processing.cpp#L2985-L2994\">bitcoin/src/net_processing.cpp</a>\n    </p>\n    <p class=\"mb-0 color-fg-muted\">\n        Lines 2985 to 2994\n      in\n      <a data-pjax=\"true\" class=\"commit-tease-sha Link--inTextBlock\" href=\"/bitcoin/bitcoin/commit/593f5e239f277e3fd917737122c2aed3c615430c\">593f5e2</a>\n    </p>\n  </div>\n  <div itemprop=\"text\" class=\"Box-body p-0 blob-wrapper blob-wrapper-embedded data\">\n    <table class=\"highlight tab-size mb-0 js-file-line-container\" data-tab-size=\"8\" data-paste-markdown-skip=\"\">\n\n        <tbody><tr class=\"border-0\">\n          <td id=\"L2985\" class=\"blob-num border-0 px-3 py-0 color-bg-default\" data-line-number=\"2985\"></td>\n          <td id=\"LC2985\" class=\"blob-code border-0 px-3 py-0 color-bg-default blob-code-inner js-file-line\"> <span class=\"pl-k\">if</span> (strCommand == NetMsgType::GETADDR) { </td>\n        </tr>\n\n        <tr class=\"border-0\">\n          <td id=\"L2986\" class=\"blob-num border-0 px-3 py-0 color-bg-default\" data-line-number=\"2986\"></td>\n          <td id=\"LC2986\" class=\"blob-code border-0 px-3 py-0 color-bg-default blob-code-inner js-file-line\">     <span class=\"pl-c\"><span class=\"pl-c\">//</span> This asymmetric behavior for inbound and outbound connections was introduced</span> </td>\n        </tr>\n\n        <tr class=\"border-0\">\n          <td id=\"L2987\" class=\"blob-num border-0 px-3 py-0 color-bg-default\" data-line-number=\"2987\"></td>\n          <td id=\"LC2987\" class=\"blob-code border-0 px-3 py-0 color-bg-default blob-code-inner js-file-line\">     <span class=\"pl-c\"><span class=\"pl-c\">//</span> to prevent a fingerprinting attack: an attacker can send specific fake addresses</span> </td>\n        </tr>\n\n        <tr class=\"border-0\">\n          <td id=\"L2988\" class=\"blob-num border-0 px-3 py-0 color-bg-default\" data-line-number=\"2988\"></td>\n          <td id=\"LC2988\" class=\"blob-code border-0 px-3 py-0 color-bg-default blob-code-inner js-file-line\">     <span class=\"pl-c\"><span class=\"pl-c\">//</span> to users' AddrMan and later request them by sending getaddr messages.</span> </td>\n        </tr>\n\n        <tr class=\"border-0\">\n          <td id=\"L2989\" class=\"blob-num border-0 px-3 py-0 color-bg-default\" data-line-number=\"2989\"></td>\n          <td id=\"LC2989\" class=\"blob-code border-0 px-3 py-0 color-bg-default blob-code-inner js-file-line\">     <span class=\"pl-c\"><span class=\"pl-c\">//</span> Making nodes which are behind NAT and can only make outgoing connections ignore</span> </td>\n        </tr>\n\n        <tr class=\"border-0\">\n          <td id=\"L2990\" class=\"blob-num border-0 px-3 py-0 color-bg-default\" data-line-number=\"2990\"></td>\n          <td id=\"LC2990\" class=\"blob-code border-0 px-3 py-0 color-bg-default blob-code-inner js-file-line\">     <span class=\"pl-c\"><span class=\"pl-c\">//</span> the getaddr message mitigates the attack.</span> </td>\n        </tr>\n\n        <tr class=\"border-0\">\n          <td id=\"L2991\" class=\"blob-num border-0 px-3 py-0 color-bg-default\" data-line-number=\"2991\"></td>\n          <td id=\"LC2991\" class=\"blob-code border-0 px-3 py-0 color-bg-default blob-code-inner js-file-line\">     <span class=\"pl-k\">if</span> (!pfrom-&gt;<span class=\"pl-smi\">fInbound</span>) { </td>\n        </tr>\n\n        <tr class=\"border-0\">\n          <td id=\"L2992\" class=\"blob-num border-0 px-3 py-0 color-bg-default\" data-line-number=\"2992\"></td>\n          <td id=\"LC2992\" class=\"blob-code border-0 px-3 py-0 color-bg-default blob-code-inner js-file-line\">         <span class=\"pl-c1\">LogPrint</span>(BCLog::NET, <span class=\"pl-s\"><span class=\"pl-pds\">\"</span>Ignoring <span class=\"pl-cce\">\\\"</span>getaddr<span class=\"pl-cce\">\\\"</span> from outbound connection. peer=%d<span class=\"pl-cce\">\\n</span><span class=\"pl-pds\">\"</span></span>, pfrom-&gt;<span class=\"pl-c1\">GetId</span>()); </td>\n        </tr>\n\n        <tr class=\"border-0\">\n          <td id=\"L2993\" class=\"blob-num border-0 px-3 py-0 color-bg-default\" data-line-number=\"2993\"></td>\n          <td id=\"LC2993\" class=\"blob-code border-0 px-3 py-0 color-bg-default blob-code-inner js-file-line\">         <span class=\"pl-k\">return</span> <span class=\"pl-c1\">true</span>; </td>\n        </tr>\n\n        <tr class=\"border-0\">\n          <td id=\"L2994\" class=\"blob-num border-0 px-3 py-0 color-bg-default\" data-line-number=\"2994\"></td>\n          <td id=\"LC2994\" class=\"blob-code border-0 px-3 py-0 color-bg-default blob-code-inner js-file-line\">     } </td>\n        </tr>\n    </tbody></table>\n  </div>\n</div>\n<p></p>\n<p dir=\"auto\">That prevent a node to send addr to outbound nodes to prevent a fingerprint attack<br>\nIs this still a valid point?</p>\n<p dir=\"auto\">With feeler connections that test address validity, wouldn't be fair to send to outbound connections some addresses we have validated?</p>\n<p dir=\"auto\">I think this would help having a better distributed address propagation, or did I miss some points?</p>",
  "body_text": "Currently there is this logic in place\n\n  \n    \n      bitcoin/src/net_processing.cpp\n    \n    \n        Lines 2985 to 2994\n      in\n      593f5e2\n    \n  \n  \n    \n\n        \n          \n           if (strCommand == NetMsgType::GETADDR) { \n        \n\n        \n          \n               // This asymmetric behavior for inbound and outbound connections was introduced \n        \n\n        \n          \n               // to prevent a fingerprinting attack: an attacker can send specific fake addresses \n        \n\n        \n          \n               // to users' AddrMan and later request them by sending getaddr messages. \n        \n\n        \n          \n               // Making nodes which are behind NAT and can only make outgoing connections ignore \n        \n\n        \n          \n               // the getaddr message mitigates the attack. \n        \n\n        \n          \n               if (!pfrom->fInbound) { \n        \n\n        \n          \n                   LogPrint(BCLog::NET, \"Ignoring \\\"getaddr\\\" from outbound connection. peer=%d\\n\", pfrom->GetId()); \n        \n\n        \n          \n                   return true; \n        \n\n        \n          \n               } \n        \n    \n  \n\n\nThat prevent a node to send addr to outbound nodes to prevent a fingerprint attack\nIs this still a valid point?\nWith feeler connections that test address validity, wouldn't be fair to send to outbound connections some addresses we have validated?\nI think this would help having a better distributed address propagation, or did I miss some points?",
  "body": "Currently there is this logic in place\r\nhttps://github.com/bitcoin/bitcoin/blob/593f5e239f277e3fd917737122c2aed3c615430c/src/net_processing.cpp#L2985-L2994\r\n\r\nThat prevent a node to send addr to outbound nodes to prevent a fingerprint attack\r\nIs this still a valid point?\r\n\r\nWith feeler connections that test address validity, wouldn't be fair to send to outbound connections some addresses we have validated?\r\n\r\nI think this would help having a better distributed address propagation, or did I miss some points?",
  "closed_by": {
    "login": "MithrilMan",
    "id": 5107375,
    "node_id": "MDQ6VXNlcjUxMDczNzU=",
    "avatar_url": "https://avatars.githubusercontent.com/u/5107375?v=4",
    "gravatar_id": "",
    "url": "https://api.github.com/users/MithrilMan",
    "html_url": "https://github.com/MithrilMan",
    "followers_url": "https://api.github.com/users/MithrilMan/followers",
    "following_url": "https://api.github.com/users/MithrilMan/following{/other_user}",
    "gists_url": "https://api.github.com/users/MithrilMan/gists{/gist_id}",
    "starred_url": "https://api.github.com/users/MithrilMan/starred{/owner}{/repo}",
    "subscriptions_url": "https://api.github.com/users/MithrilMan/subscriptions",
    "organizations_url": "https://api.github.com/users/MithrilMan/orgs",
    "repos_url": "https://api.github.com/users/MithrilMan/repos",
    "events_url": "https://api.github.com/users/MithrilMan/events{/privacy}",
    "received_events_url": "https://api.github.com/users/MithrilMan/received_events",
    "type": "User",
    "site_admin": false
  },
  "reactions": {
    "url": "https://api.github.com/repos/bitcoin/bitcoin/issues/17871/reactions",
    "total_count": 1,
    "+1": 1,
    "-1": 0,
    "laugh": 0,
    "hooray": 0,
    "confused": 0,
    "heart": 0,
    "rocket": 0,
    "eyes": 0
  },
  "timeline_url": "https://api.github.com/repos/bitcoin/bitcoin/issues/17871/timeline",
  "performed_via_github_app": null,
  "state_reason": "completed"
}
