{
  "url": "https://api.github.com/repos/bitcoin/bitcoin/issues/14434",
  "repository_url": "https://api.github.com/repos/bitcoin/bitcoin",
  "labels_url": "https://api.github.com/repos/bitcoin/bitcoin/issues/14434/labels{/name}",
  "comments_url": "https://api.github.com/repos/bitcoin/bitcoin/issues/14434/comments",
  "events_url": "https://api.github.com/repos/bitcoin/bitcoin/issues/14434/events",
  "html_url": "https://github.com/bitcoin/bitcoin/pull/14434",
  "id": 367967927,
  "node_id": "MDExOlB1bGxSZXF1ZXN0MjIxMjU0ODA5",
  "number": 14434,
  "title": "Trivial: fix comparison of integers of different signs",
  "user": {
    "login": "j-asefa",
    "id": 13409617,
    "node_id": "MDQ6VXNlcjEzNDA5NjE3",
    "avatar_url": "https://avatars.githubusercontent.com/u/13409617?v=4",
    "gravatar_id": "",
    "url": "https://api.github.com/users/j-asefa",
    "html_url": "https://github.com/j-asefa",
    "followers_url": "https://api.github.com/users/j-asefa/followers",
    "following_url": "https://api.github.com/users/j-asefa/following{/other_user}",
    "gists_url": "https://api.github.com/users/j-asefa/gists{/gist_id}",
    "starred_url": "https://api.github.com/users/j-asefa/starred{/owner}{/repo}",
    "subscriptions_url": "https://api.github.com/users/j-asefa/subscriptions",
    "organizations_url": "https://api.github.com/users/j-asefa/orgs",
    "repos_url": "https://api.github.com/users/j-asefa/repos",
    "events_url": "https://api.github.com/users/j-asefa/events{/privacy}",
    "received_events_url": "https://api.github.com/users/j-asefa/received_events",
    "type": "User",
    "site_admin": false
  },
  "labels": [

  ],
  "state": "closed",
  "locked": true,
  "assignee": null,
  "assignees": [

  ],
  "milestone": null,
  "comments": 1,
  "created_at": "2018-10-08T22:00:50Z",
  "updated_at": "2021-09-08T11:58:34Z",
  "closed_at": "2018-10-08T22:19:46Z",
  "author_association": "NONE",
  "active_lock_reason": "resolved",
  "draft": false,
  "pull_request": {
    "url": "https://api.github.com/repos/bitcoin/bitcoin/pulls/14434",
    "html_url": "https://github.com/bitcoin/bitcoin/pull/14434",
    "diff_url": "https://github.com/bitcoin/bitcoin/pull/14434.diff",
    "patch_url": "https://github.com/bitcoin/bitcoin/pull/14434.patch",
    "merged_at": null
  },
  "body_html": "<p dir=\"auto\">Fixes a sign comparison warning during compilation:</p>\n<p dir=\"auto\">leveldb/util/logging.cc:58:40: warning: comparison of integers of different signs: 'const int' and 'unsigned long long' [-Wsign-compare] (v == kMaxUint64/10 &amp;&amp; delta &gt; kMaxUint64%10)) {</p>",
  "body_text": "Fixes a sign comparison warning during compilation:\nleveldb/util/logging.cc:58:40: warning: comparison of integers of different signs: 'const int' and 'unsigned long long' [-Wsign-compare] (v == kMaxUint64/10 && delta > kMaxUint64%10)) {",
  "body": "Fixes a sign comparison warning during compilation: \r\n\r\nleveldb/util/logging.cc:58:40: warning: comparison of integers of different signs: 'const int' and 'unsigned long long' [-Wsign-compare] (v == kMaxUint64/10 && delta > kMaxUint64%10)) {",
  "closed_by": {
    "login": "fanquake",
    "id": 863730,
    "node_id": "MDQ6VXNlcjg2MzczMA==",
    "avatar_url": "https://avatars.githubusercontent.com/u/863730?v=4",
    "gravatar_id": "",
    "url": "https://api.github.com/users/fanquake",
    "html_url": "https://github.com/fanquake",
    "followers_url": "https://api.github.com/users/fanquake/followers",
    "following_url": "https://api.github.com/users/fanquake/following{/other_user}",
    "gists_url": "https://api.github.com/users/fanquake/gists{/gist_id}",
    "starred_url": "https://api.github.com/users/fanquake/starred{/owner}{/repo}",
    "subscriptions_url": "https://api.github.com/users/fanquake/subscriptions",
    "organizations_url": "https://api.github.com/users/fanquake/orgs",
    "repos_url": "https://api.github.com/users/fanquake/repos",
    "events_url": "https://api.github.com/users/fanquake/events{/privacy}",
    "received_events_url": "https://api.github.com/users/fanquake/received_events",
    "type": "User",
    "site_admin": false
  },
  "reactions": {
    "url": "https://api.github.com/repos/bitcoin/bitcoin/issues/14434/reactions",
    "total_count": 0,
    "+1": 0,
    "-1": 0,
    "laugh": 0,
    "hooray": 0,
    "confused": 0,
    "heart": 0,
    "rocket": 0,
    "eyes": 0
  },
  "timeline_url": "https://api.github.com/repos/bitcoin/bitcoin/issues/14434/timeline",
  "performed_via_github_app": null,
  "state_reason": null
}
