{
  "url": "https://api.github.com/repos/bitcoin/bitcoin/issues/26755",
  "repository_url": "https://api.github.com/repos/bitcoin/bitcoin",
  "labels_url": "https://api.github.com/repos/bitcoin/bitcoin/issues/26755/labels{/name}",
  "comments_url": "https://api.github.com/repos/bitcoin/bitcoin/issues/26755/comments",
  "events_url": "https://api.github.com/repos/bitcoin/bitcoin/issues/26755/events",
  "html_url": "https://github.com/bitcoin/bitcoin/pull/26755",
  "id": 1511223406,
  "node_id": "PR_kwDOABII585GN3i6",
  "number": 26755,
  "title": "p2p: cache compact block message to use for low bandwidth CMPCT_BLOCK",
  "user": {
    "login": "andrewtoth",
    "id": 237213,
    "node_id": "MDQ6VXNlcjIzNzIxMw==",
    "avatar_url": "https://avatars.githubusercontent.com/u/237213?v=4",
    "gravatar_id": "",
    "url": "https://api.github.com/users/andrewtoth",
    "html_url": "https://github.com/andrewtoth",
    "followers_url": "https://api.github.com/users/andrewtoth/followers",
    "following_url": "https://api.github.com/users/andrewtoth/following{/other_user}",
    "gists_url": "https://api.github.com/users/andrewtoth/gists{/gist_id}",
    "starred_url": "https://api.github.com/users/andrewtoth/starred{/owner}{/repo}",
    "subscriptions_url": "https://api.github.com/users/andrewtoth/subscriptions",
    "organizations_url": "https://api.github.com/users/andrewtoth/orgs",
    "repos_url": "https://api.github.com/users/andrewtoth/repos",
    "events_url": "https://api.github.com/users/andrewtoth/events{/privacy}",
    "received_events_url": "https://api.github.com/users/andrewtoth/received_events",
    "type": "User",
    "site_admin": false
  },
  "labels": [
    {
      "id": 98298007,
      "node_id": "MDU6TGFiZWw5ODI5ODAwNw==",
      "url": "https://api.github.com/repos/bitcoin/bitcoin/labels/P2P",
      "name": "P2P",
      "color": "006b75",
      "default": false,
      "description": null
    }
  ],
  "state": "closed",
  "locked": true,
  "assignee": null,
  "assignees": [

  ],
  "milestone": null,
  "comments": 2,
  "created_at": "2022-12-26T20:29:47Z",
  "updated_at": "2023-12-28T12:23:12Z",
  "closed_at": "2022-12-28T18:19:47Z",
  "author_association": "CONTRIBUTOR",
  "active_lock_reason": null,
  "draft": false,
  "pull_request": {
    "url": "https://api.github.com/repos/bitcoin/bitcoin/pulls/26755",
    "html_url": "https://github.com/bitcoin/bitcoin/pull/26755",
    "diff_url": "https://github.com/bitcoin/bitcoin/pull/26755.diff",
    "patch_url": "https://github.com/bitcoin/bitcoin/pull/26755.patch",
    "merged_at": null
  },
  "body_html": "<p dir=\"auto\">Follow-up from <a class=\"issue-link js-issue-link\" data-error-text=\"Failed to load title\" data-id=\"1089368397\" data-permission-text=\"Title is private\" data-url=\"https://github.com/bitcoin/bitcoin/issues/23880\" data-hovercard-type=\"pull_request\" data-hovercard-url=\"/bitcoin/bitcoin/pull/23880/hovercard?comment_id=1078975886&amp;comment_type=issue_comment\" href=\"https://github.com/bitcoin/bitcoin/pull/23880#issuecomment-1078975886\">#23880 (comment)</a>.</p>\n<p dir=\"auto\">This stores the lazy serialized compact block message future for the last seen block, rather than a shared pointer to the compact block itself. Then we don't have to reserialize the message for any incoming CMPCTBLOCK messages from low-bandwidth peers.</p>\n<p dir=\"auto\">It was mentioned there was a speed savings of 25% using this method for sending to high-bandwidth peers <a class=\"issue-link js-issue-link\" data-error-text=\"Failed to load title\" data-id=\"1089368397\" data-permission-text=\"Title is private\" data-url=\"https://github.com/bitcoin/bitcoin/issues/23880\" data-hovercard-type=\"pull_request\" data-hovercard-url=\"/bitcoin/bitcoin/pull/23880/hovercard?comment_id=1086043016&amp;comment_type=issue_comment\" href=\"https://github.com/bitcoin/bitcoin/pull/23880#issuecomment-1086043016\">#23880 (comment)</a>. I've included benchmarks which seems to be an even higher speedup.</p>\n<table role=\"table\">\n<thead>\n<tr>\n<th align=\"right\">ns/op</th>\n<th align=\"right\">op/s</th>\n<th align=\"right\">err%</th>\n<th align=\"right\">ins/op</th>\n<th align=\"right\">cyc/op</th>\n<th align=\"right\">IPC</th>\n<th align=\"right\">bra/op</th>\n<th align=\"right\">miss%</th>\n<th align=\"right\">total</th>\n<th align=\"left\">benchmark</th>\n</tr>\n</thead>\n<tbody>\n<tr>\n<td align=\"right\">38,462.08</td>\n<td align=\"right\">25,999.63</td>\n<td align=\"right\">0.3%</td>\n<td align=\"right\">150,324.88</td>\n<td align=\"right\">84,927.50</td>\n<td align=\"right\">1.770</td>\n<td align=\"right\">34,126.12</td>\n<td align=\"right\">0.1%</td>\n<td align=\"right\">0.01</td>\n<td align=\"left\"><code class=\"notranslate\">SerializeNetMsg</code></td>\n</tr>\n</tbody>\n</table>\n<table role=\"table\">\n<thead>\n<tr>\n<th align=\"right\">ns/op</th>\n<th align=\"right\">op/s</th>\n<th align=\"right\">err%</th>\n<th align=\"right\">ins/op</th>\n<th align=\"right\">cyc/op</th>\n<th align=\"right\">IPC</th>\n<th align=\"right\">bra/op</th>\n<th align=\"right\">miss%</th>\n<th align=\"right\">total</th>\n<th align=\"left\">benchmark</th>\n</tr>\n</thead>\n<tbody>\n<tr>\n<td align=\"right\">616.47</td>\n<td align=\"right\">1,622,135.41</td>\n<td align=\"right\">0.9%</td>\n<td align=\"right\">796.14</td>\n<td align=\"right\">1,359.27</td>\n<td align=\"right\">0.586</td>\n<td align=\"right\">177.03</td>\n<td align=\"right\">0.0%</td>\n<td align=\"right\">0.01</td>\n<td align=\"left\"><code class=\"notranslate\">CacheSerializeNetMsg</code></td>\n</tr>\n</tbody>\n</table>",
  "body_text": "Follow-up from #23880 (comment).\nThis stores the lazy serialized compact block message future for the last seen block, rather than a shared pointer to the compact block itself. Then we don't have to reserialize the message for any incoming CMPCTBLOCK messages from low-bandwidth peers.\nIt was mentioned there was a speed savings of 25% using this method for sending to high-bandwidth peers #23880 (comment). I've included benchmarks which seems to be an even higher speedup.\n\n\n\nns/op\nop/s\nerr%\nins/op\ncyc/op\nIPC\nbra/op\nmiss%\ntotal\nbenchmark\n\n\n\n\n38,462.08\n25,999.63\n0.3%\n150,324.88\n84,927.50\n1.770\n34,126.12\n0.1%\n0.01\nSerializeNetMsg\n\n\n\n\n\n\nns/op\nop/s\nerr%\nins/op\ncyc/op\nIPC\nbra/op\nmiss%\ntotal\nbenchmark\n\n\n\n\n616.47\n1,622,135.41\n0.9%\n796.14\n1,359.27\n0.586\n177.03\n0.0%\n0.01\nCacheSerializeNetMsg",
  "body": "Follow-up from https://github.com/bitcoin/bitcoin/pull/23880#issuecomment-1078975886.\r\n\r\nThis stores the lazy serialized compact block message future for the last seen block, rather than a shared pointer to the compact block itself. Then we don't have to reserialize the message for any incoming CMPCTBLOCK messages from low-bandwidth peers.\r\n\r\nIt was mentioned there was a speed savings of 25% using this method for sending to high-bandwidth peers https://github.com/bitcoin/bitcoin/pull/23880#issuecomment-1086043016. I've included benchmarks which seems to be an even higher speedup.\r\n\r\n|               ns/op |                op/s |    err% |          ins/op |          cyc/op |    IPC |         bra/op |   miss% |     total | benchmark\r\n|--------------------:|--------------------:|--------:|----------------:|----------------:|-------:|---------------:|--------:|----------:|:----------\r\n|           38,462.08 |           25,999.63 |    0.3% |      150,324.88 |       84,927.50 |  1.770 |      34,126.12 |    0.1% |      0.01 | `SerializeNetMsg`\r\n\r\n|               ns/op |                op/s |    err% |          ins/op |          cyc/op |    IPC |         bra/op |   miss% |     total | benchmark\r\n|--------------------:|--------------------:|--------:|----------------:|----------------:|-------:|---------------:|--------:|----------:|:----------\r\n|              616.47 |        1,622,135.41 |    0.9% |          796.14 |        1,359.27 |  0.586 |         177.03 |    0.0% |      0.01 | `CacheSerializeNetMsg`",
  "closed_by": {
    "login": "andrewtoth",
    "id": 237213,
    "node_id": "MDQ6VXNlcjIzNzIxMw==",
    "avatar_url": "https://avatars.githubusercontent.com/u/237213?v=4",
    "gravatar_id": "",
    "url": "https://api.github.com/users/andrewtoth",
    "html_url": "https://github.com/andrewtoth",
    "followers_url": "https://api.github.com/users/andrewtoth/followers",
    "following_url": "https://api.github.com/users/andrewtoth/following{/other_user}",
    "gists_url": "https://api.github.com/users/andrewtoth/gists{/gist_id}",
    "starred_url": "https://api.github.com/users/andrewtoth/starred{/owner}{/repo}",
    "subscriptions_url": "https://api.github.com/users/andrewtoth/subscriptions",
    "organizations_url": "https://api.github.com/users/andrewtoth/orgs",
    "repos_url": "https://api.github.com/users/andrewtoth/repos",
    "events_url": "https://api.github.com/users/andrewtoth/events{/privacy}",
    "received_events_url": "https://api.github.com/users/andrewtoth/received_events",
    "type": "User",
    "site_admin": false
  },
  "reactions": {
    "url": "https://api.github.com/repos/bitcoin/bitcoin/issues/26755/reactions",
    "total_count": 0,
    "+1": 0,
    "-1": 0,
    "laugh": 0,
    "hooray": 0,
    "confused": 0,
    "heart": 0,
    "rocket": 0,
    "eyes": 0
  },
  "timeline_url": "https://api.github.com/repos/bitcoin/bitcoin/issues/26755/timeline",
  "performed_via_github_app": null,
  "state_reason": null
}
