[
  {
    "url": "https://api.github.com/repos/bitcoin/bitcoin/issues/comments/751393083",
    "html_url": "https://github.com/bitcoin/bitcoin/issues/20777#issuecomment-751393083",
    "issue_url": "https://api.github.com/repos/bitcoin/bitcoin/issues/20777",
    "id": 751393083,
    "node_id": "MDEyOklzc3VlQ29tbWVudDc1MTM5MzA4Mw==",
    "user": {
      "login": "maflcko",
      "id": 6399679,
      "node_id": "MDQ6VXNlcjYzOTk2Nzk=",
      "avatar_url": "https://avatars.githubusercontent.com/u/6399679?v=4",
      "gravatar_id": "",
      "url": "https://api.github.com/users/maflcko",
      "html_url": "https://github.com/maflcko",
      "followers_url": "https://api.github.com/users/maflcko/followers",
      "following_url": "https://api.github.com/users/maflcko/following{/other_user}",
      "gists_url": "https://api.github.com/users/maflcko/gists{/gist_id}",
      "starred_url": "https://api.github.com/users/maflcko/starred{/owner}{/repo}",
      "subscriptions_url": "https://api.github.com/users/maflcko/subscriptions",
      "organizations_url": "https://api.github.com/users/maflcko/orgs",
      "repos_url": "https://api.github.com/users/maflcko/repos",
      "events_url": "https://api.github.com/users/maflcko/events{/privacy}",
      "received_events_url": "https://api.github.com/users/maflcko/received_events",
      "type": "User",
      "site_admin": false
    },
    "created_at": "2020-12-26T20:28:42Z",
    "updated_at": "2020-12-26T20:28:42Z",
    "author_association": "MEMBER",
    "body_html": "<p dir=\"auto\">Fixed in <a class=\"issue-link js-issue-link\" data-error-text=\"Failed to load title\" data-id=\"768503421\" data-permission-text=\"Title is private\" data-url=\"https://github.com/bitcoin/bitcoin/issues/20669\" data-hovercard-type=\"pull_request\" data-hovercard-url=\"/bitcoin/bitcoin/pull/20669/hovercard\" href=\"https://github.com/bitcoin/bitcoin/pull/20669\">#20669</a></p>",
    "body_text": "Fixed in #20669",
    "body": "Fixed in #20669 ",
    "reactions": {
      "url": "https://api.github.com/repos/bitcoin/bitcoin/issues/comments/751393083/reactions",
      "total_count": 0,
      "+1": 0,
      "-1": 0,
      "laugh": 0,
      "hooray": 0,
      "confused": 0,
      "heart": 0,
      "rocket": 0,
      "eyes": 0
    },
    "performed_via_github_app": null
  },
  {
    "url": "https://api.github.com/repos/bitcoin/bitcoin/issues/comments/752848765",
    "html_url": "https://github.com/bitcoin/bitcoin/issues/20777#issuecomment-752848765",
    "issue_url": "https://api.github.com/repos/bitcoin/bitcoin/issues/20777",
    "id": 752848765,
    "node_id": "MDEyOklzc3VlQ29tbWVudDc1Mjg0ODc2NQ==",
    "user": {
      "login": "dooglus",
      "id": 573356,
      "node_id": "MDQ6VXNlcjU3MzM1Ng==",
      "avatar_url": "https://avatars.githubusercontent.com/u/573356?v=4",
      "gravatar_id": "",
      "url": "https://api.github.com/users/dooglus",
      "html_url": "https://github.com/dooglus",
      "followers_url": "https://api.github.com/users/dooglus/followers",
      "following_url": "https://api.github.com/users/dooglus/following{/other_user}",
      "gists_url": "https://api.github.com/users/dooglus/gists{/gist_id}",
      "starred_url": "https://api.github.com/users/dooglus/starred{/owner}{/repo}",
      "subscriptions_url": "https://api.github.com/users/dooglus/subscriptions",
      "organizations_url": "https://api.github.com/users/dooglus/orgs",
      "repos_url": "https://api.github.com/users/dooglus/repos",
      "events_url": "https://api.github.com/users/dooglus/events{/privacy}",
      "received_events_url": "https://api.github.com/users/dooglus/received_events",
      "type": "User",
      "site_admin": false
    },
    "created_at": "2020-12-31T05:24:20Z",
    "updated_at": "2020-12-31T05:24:20Z",
    "author_association": "CONTRIBUTOR",
    "body_html": "<p dir=\"auto\">I built the code in that pull request. It does show me more of the hidden text but not all of it:</p>\n<p dir=\"auto\"><a target=\"_blank\" rel=\"noopener noreferrer nofollow\" href=\"https://user-images.githubusercontent.com/573356/103395887-3c072700-4ae5-11eb-86c9-0cb949b88a0b.png\"><img src=\"https://user-images.githubusercontent.com/573356/103395887-3c072700-4ae5-11eb-86c9-0cb949b88a0b.png\" alt=\"Screenshot_2020-12-30_21-22-35\" style=\"max-width: 100%;\"></a></p>",
    "body_text": "I built the code in that pull request. It does show me more of the hidden text but not all of it:",
    "body": "I built the code in that pull request. It does show me more of the hidden text but not all of it:\r\n\r\n![Screenshot_2020-12-30_21-22-35](https://user-images.githubusercontent.com/573356/103395887-3c072700-4ae5-11eb-86c9-0cb949b88a0b.png)\r\n",
    "reactions": {
      "url": "https://api.github.com/repos/bitcoin/bitcoin/issues/comments/752848765/reactions",
      "total_count": 0,
      "+1": 0,
      "-1": 0,
      "laugh": 0,
      "hooray": 0,
      "confused": 0,
      "heart": 0,
      "rocket": 0,
      "eyes": 0
    },
    "performed_via_github_app": null
  },
  {
    "url": "https://api.github.com/repos/bitcoin/bitcoin/issues/comments/753305334",
    "html_url": "https://github.com/bitcoin/bitcoin/issues/20777#issuecomment-753305334",
    "issue_url": "https://api.github.com/repos/bitcoin/bitcoin/issues/20777",
    "id": 753305334,
    "node_id": "MDEyOklzc3VlQ29tbWVudDc1MzMwNTMzNA==",
    "user": {
      "login": "hebasto",
      "id": 32963518,
      "node_id": "MDQ6VXNlcjMyOTYzNTE4",
      "avatar_url": "https://avatars.githubusercontent.com/u/32963518?v=4",
      "gravatar_id": "",
      "url": "https://api.github.com/users/hebasto",
      "html_url": "https://github.com/hebasto",
      "followers_url": "https://api.github.com/users/hebasto/followers",
      "following_url": "https://api.github.com/users/hebasto/following{/other_user}",
      "gists_url": "https://api.github.com/users/hebasto/gists{/gist_id}",
      "starred_url": "https://api.github.com/users/hebasto/starred{/owner}{/repo}",
      "subscriptions_url": "https://api.github.com/users/hebasto/subscriptions",
      "organizations_url": "https://api.github.com/users/hebasto/orgs",
      "repos_url": "https://api.github.com/users/hebasto/repos",
      "events_url": "https://api.github.com/users/hebasto/events{/privacy}",
      "received_events_url": "https://api.github.com/users/hebasto/received_events",
      "type": "User",
      "site_admin": false
    },
    "created_at": "2021-01-01T11:32:56Z",
    "updated_at": "2021-01-01T11:32:56Z",
    "author_association": "MEMBER",
    "body_html": "<p dir=\"auto\"><a class=\"user-mention notranslate\" data-hovercard-type=\"user\" data-hovercard-url=\"/users/dooglus/hovercard\" data-octo-click=\"hovercard-link-click\" data-octo-dimensions=\"link_type:self\" href=\"https://github.com/dooglus\">@dooglus</a></p>\n<p dir=\"auto\">Mind testing <a class=\"issue-link js-issue-link\" data-error-text=\"Failed to load title\" data-id=\"777269774\" data-permission-text=\"Title is private\" data-url=\"https://github.com/bitcoin-core/gui/issues/171\" data-hovercard-type=\"pull_request\" data-hovercard-url=\"/bitcoin-core/gui/pull/171/hovercard\" href=\"https://github.com/bitcoin-core/gui/pull/171\">bitcoin-core/gui#171</a>?</p>",
    "body_text": "@dooglus\nMind testing bitcoin-core/gui#171?",
    "body": "@dooglus \r\n\r\nMind testing https://github.com/bitcoin-core/gui/pull/171?",
    "reactions": {
      "url": "https://api.github.com/repos/bitcoin/bitcoin/issues/comments/753305334/reactions",
      "total_count": 0,
      "+1": 0,
      "-1": 0,
      "laugh": 0,
      "hooray": 0,
      "confused": 0,
      "heart": 0,
      "rocket": 0,
      "eyes": 0
    },
    "performed_via_github_app": null
  },
  {
    "url": "https://api.github.com/repos/bitcoin/bitcoin/issues/comments/753395638",
    "html_url": "https://github.com/bitcoin/bitcoin/issues/20777#issuecomment-753395638",
    "issue_url": "https://api.github.com/repos/bitcoin/bitcoin/issues/20777",
    "id": 753395638,
    "node_id": "MDEyOklzc3VlQ29tbWVudDc1MzM5NTYzOA==",
    "user": {
      "login": "dooglus",
      "id": 573356,
      "node_id": "MDQ6VXNlcjU3MzM1Ng==",
      "avatar_url": "https://avatars.githubusercontent.com/u/573356?v=4",
      "gravatar_id": "",
      "url": "https://api.github.com/users/dooglus",
      "html_url": "https://github.com/dooglus",
      "followers_url": "https://api.github.com/users/dooglus/followers",
      "following_url": "https://api.github.com/users/dooglus/following{/other_user}",
      "gists_url": "https://api.github.com/users/dooglus/gists{/gist_id}",
      "starred_url": "https://api.github.com/users/dooglus/starred{/owner}{/repo}",
      "subscriptions_url": "https://api.github.com/users/dooglus/subscriptions",
      "organizations_url": "https://api.github.com/users/dooglus/orgs",
      "repos_url": "https://api.github.com/users/dooglus/repos",
      "events_url": "https://api.github.com/users/dooglus/events{/privacy}",
      "received_events_url": "https://api.github.com/users/dooglus/received_events",
      "type": "User",
      "site_admin": false
    },
    "created_at": "2021-01-01T22:26:41Z",
    "updated_at": "2021-01-01T22:26:41Z",
    "author_association": "CONTRIBUTOR",
    "body_html": "<p dir=\"auto\">Looks great now:</p>\n<p dir=\"auto\"><a target=\"_blank\" rel=\"noopener noreferrer nofollow\" href=\"https://user-images.githubusercontent.com/573356/103447010-851cbf80-4c3a-11eb-94eb-0eb8c05f5e94.png\"><img src=\"https://user-images.githubusercontent.com/573356/103447010-851cbf80-4c3a-11eb-94eb-0eb8c05f5e94.png\" alt=\"Screenshot_2021-01-01_14-05-35\" style=\"max-width: 100%;\"></a></p>\n<p dir=\"auto\">When I resize the window it redraws like this:</p>\n<p dir=\"auto\"><a target=\"_blank\" rel=\"noopener noreferrer nofollow\" href=\"https://user-images.githubusercontent.com/573356/103447015-906feb00-4c3a-11eb-818f-c00afb4e2777.png\"><img src=\"https://user-images.githubusercontent.com/573356/103447015-906feb00-4c3a-11eb-818f-c00afb4e2777.png\" alt=\"Screenshot_2021-01-01_14-05-52\" style=\"max-width: 100%;\"></a></p>\n<p dir=\"auto\">Since you appear to know your way around the layout engine maybe you'd also be interested in <a class=\"issue-link js-issue-link\" data-error-text=\"Failed to load title\" data-id=\"777363459\" data-permission-text=\"Title is private\" data-url=\"https://github.com/bitcoin/bitcoin/issues/20826\" data-hovercard-type=\"issue\" data-hovercard-url=\"/bitcoin/bitcoin/issues/20826/hovercard\" href=\"https://github.com/bitcoin/bitcoin/issues/20826\">#20826</a> which I just opened.</p>",
    "body_text": "Looks great now:\n\nWhen I resize the window it redraws like this:\n\nSince you appear to know your way around the layout engine maybe you'd also be interested in #20826 which I just opened.",
    "body": "Looks great now:\r\n\r\n![Screenshot_2021-01-01_14-05-35](https://user-images.githubusercontent.com/573356/103447010-851cbf80-4c3a-11eb-94eb-0eb8c05f5e94.png)\r\n\r\nWhen I resize the window it redraws like this:\r\n\r\n![Screenshot_2021-01-01_14-05-52](https://user-images.githubusercontent.com/573356/103447015-906feb00-4c3a-11eb-818f-c00afb4e2777.png)\r\n\r\nSince you appear to know your way around the layout engine maybe you'd also be interested in #20826 which I just opened.",
    "reactions": {
      "url": "https://api.github.com/repos/bitcoin/bitcoin/issues/comments/753395638/reactions",
      "total_count": 0,
      "+1": 0,
      "-1": 0,
      "laugh": 0,
      "hooray": 0,
      "confused": 0,
      "heart": 0,
      "rocket": 0,
      "eyes": 0
    },
    "performed_via_github_app": null
  },
  {
    "url": "https://api.github.com/repos/bitcoin/bitcoin/issues/comments/753401793",
    "html_url": "https://github.com/bitcoin/bitcoin/issues/20777#issuecomment-753401793",
    "issue_url": "https://api.github.com/repos/bitcoin/bitcoin/issues/20777",
    "id": 753401793,
    "node_id": "MDEyOklzc3VlQ29tbWVudDc1MzQwMTc5Mw==",
    "user": {
      "login": "hebasto",
      "id": 32963518,
      "node_id": "MDQ6VXNlcjMyOTYzNTE4",
      "avatar_url": "https://avatars.githubusercontent.com/u/32963518?v=4",
      "gravatar_id": "",
      "url": "https://api.github.com/users/hebasto",
      "html_url": "https://github.com/hebasto",
      "followers_url": "https://api.github.com/users/hebasto/followers",
      "following_url": "https://api.github.com/users/hebasto/following{/other_user}",
      "gists_url": "https://api.github.com/users/hebasto/gists{/gist_id}",
      "starred_url": "https://api.github.com/users/hebasto/starred{/owner}{/repo}",
      "subscriptions_url": "https://api.github.com/users/hebasto/subscriptions",
      "organizations_url": "https://api.github.com/users/hebasto/orgs",
      "repos_url": "https://api.github.com/users/hebasto/repos",
      "events_url": "https://api.github.com/users/hebasto/events{/privacy}",
      "received_events_url": "https://api.github.com/users/hebasto/received_events",
      "type": "User",
      "site_admin": false
    },
    "created_at": "2021-01-01T23:10:39Z",
    "updated_at": "2021-01-01T23:10:39Z",
    "author_association": "MEMBER",
    "body_html": "<p dir=\"auto\"><a class=\"user-mention notranslate\" data-hovercard-type=\"user\" data-hovercard-url=\"/users/dooglus/hovercard\" data-octo-click=\"hovercard-link-click\" data-octo-dimensions=\"link_type:self\" href=\"https://github.com/dooglus\">@dooglus</a></p>\n<blockquote>\n<p dir=\"auto\">Looks great now</p>\n</blockquote>\n<p dir=\"auto\">May I ask you to leave your comment in <a class=\"issue-link js-issue-link\" data-error-text=\"Failed to load title\" data-id=\"777269774\" data-permission-text=\"Title is private\" data-url=\"https://github.com/bitcoin-core/gui/issues/171\" data-hovercard-type=\"pull_request\" data-hovercard-url=\"/bitcoin-core/gui/pull/171/hovercard\" href=\"https://github.com/bitcoin-core/gui/pull/171\">bitcoin-core/gui#171</a>?</p>",
    "body_text": "@dooglus\n\nLooks great now\n\nMay I ask you to leave your comment in bitcoin-core/gui#171?",
    "body": "@dooglus \r\n> Looks great now\r\n\r\nMay I ask you to leave your comment in https://github.com/bitcoin-core/gui/pull/171?",
    "reactions": {
      "url": "https://api.github.com/repos/bitcoin/bitcoin/issues/comments/753401793/reactions",
      "total_count": 0,
      "+1": 0,
      "-1": 0,
      "laugh": 0,
      "hooray": 0,
      "confused": 0,
      "heart": 0,
      "rocket": 0,
      "eyes": 0
    },
    "performed_via_github_app": null
  },
  {
    "url": "https://api.github.com/repos/bitcoin/bitcoin/issues/comments/753413242",
    "html_url": "https://github.com/bitcoin/bitcoin/issues/20777#issuecomment-753413242",
    "issue_url": "https://api.github.com/repos/bitcoin/bitcoin/issues/20777",
    "id": 753413242,
    "node_id": "MDEyOklzc3VlQ29tbWVudDc1MzQxMzI0Mg==",
    "user": {
      "login": "dooglus",
      "id": 573356,
      "node_id": "MDQ6VXNlcjU3MzM1Ng==",
      "avatar_url": "https://avatars.githubusercontent.com/u/573356?v=4",
      "gravatar_id": "",
      "url": "https://api.github.com/users/dooglus",
      "html_url": "https://github.com/dooglus",
      "followers_url": "https://api.github.com/users/dooglus/followers",
      "following_url": "https://api.github.com/users/dooglus/following{/other_user}",
      "gists_url": "https://api.github.com/users/dooglus/gists{/gist_id}",
      "starred_url": "https://api.github.com/users/dooglus/starred{/owner}{/repo}",
      "subscriptions_url": "https://api.github.com/users/dooglus/subscriptions",
      "organizations_url": "https://api.github.com/users/dooglus/orgs",
      "repos_url": "https://api.github.com/users/dooglus/repos",
      "events_url": "https://api.github.com/users/dooglus/events{/privacy}",
      "received_events_url": "https://api.github.com/users/dooglus/received_events",
      "type": "User",
      "site_admin": false
    },
    "created_at": "2021-01-02T01:12:19Z",
    "updated_at": "2021-01-02T01:12:19Z",
    "author_association": "CONTRIBUTOR",
    "body_html": "<p dir=\"auto\">Sure.</p>",
    "body_text": "Sure.",
    "body": "Sure.",
    "reactions": {
      "url": "https://api.github.com/repos/bitcoin/bitcoin/issues/comments/753413242/reactions",
      "total_count": 0,
      "+1": 0,
      "-1": 0,
      "laugh": 0,
      "hooray": 0,
      "confused": 0,
      "heart": 0,
      "rocket": 0,
      "eyes": 0
    },
    "performed_via_github_app": null
  }
]
