{
  "url": "https://api.github.com/repos/bitcoin/bitcoin/issues/26020",
  "repository_url": "https://api.github.com/repos/bitcoin/bitcoin",
  "labels_url": "https://api.github.com/repos/bitcoin/bitcoin/issues/26020/labels{/name}",
  "comments_url": "https://api.github.com/repos/bitcoin/bitcoin/issues/26020/comments",
  "events_url": "https://api.github.com/repos/bitcoin/bitcoin/issues/26020/events",
  "html_url": "https://github.com/bitcoin/bitcoin/pull/26020",
  "id": 1363172608,
  "node_id": "PR_kwDOABII584-bxRC",
  "number": 26020,
  "title": "test: Change coinselection parameter location to make tests independent",
  "user": {
    "login": "yancyribbens",
    "id": 817736,
    "node_id": "MDQ6VXNlcjgxNzczNg==",
    "avatar_url": "https://avatars.githubusercontent.com/u/817736?v=4",
    "gravatar_id": "",
    "url": "https://api.github.com/users/yancyribbens",
    "html_url": "https://github.com/yancyribbens",
    "followers_url": "https://api.github.com/users/yancyribbens/followers",
    "following_url": "https://api.github.com/users/yancyribbens/following{/other_user}",
    "gists_url": "https://api.github.com/users/yancyribbens/gists{/gist_id}",
    "starred_url": "https://api.github.com/users/yancyribbens/starred{/owner}{/repo}",
    "subscriptions_url": "https://api.github.com/users/yancyribbens/subscriptions",
    "organizations_url": "https://api.github.com/users/yancyribbens/orgs",
    "repos_url": "https://api.github.com/users/yancyribbens/repos",
    "events_url": "https://api.github.com/users/yancyribbens/events{/privacy}",
    "received_events_url": "https://api.github.com/users/yancyribbens/received_events",
    "type": "User",
    "site_admin": false
  },
  "labels": [
    {
      "id": 149424,
      "node_id": "MDU6TGFiZWwxNDk0MjQ=",
      "url": "https://api.github.com/repos/bitcoin/bitcoin/labels/Wallet",
      "name": "Wallet",
      "color": "08a781",
      "default": false,
      "description": null
    },
    {
      "id": 62963516,
      "node_id": "MDU6TGFiZWw2Mjk2MzUxNg==",
      "url": "https://api.github.com/repos/bitcoin/bitcoin/labels/Tests",
      "name": "Tests",
      "color": "d4c5f9",
      "default": false,
      "description": null
    }
  ],
  "state": "closed",
  "locked": true,
  "assignee": null,
  "assignees": [

  ],
  "milestone": null,
  "comments": 4,
  "created_at": "2022-09-06T12:01:16Z",
  "updated_at": "2024-01-04T12:23:47Z",
  "closed_at": "2023-01-04T17:42:14Z",
  "author_association": "CONTRIBUTOR",
  "active_lock_reason": null,
  "draft": false,
  "pull_request": {
    "url": "https://api.github.com/repos/bitcoin/bitcoin/pulls/26020",
    "html_url": "https://github.com/bitcoin/bitcoin/pull/26020",
    "diff_url": "https://github.com/bitcoin/bitcoin/pull/26020.diff",
    "patch_url": "https://github.com/bitcoin/bitcoin/pull/26020.patch",
    "merged_at": "2023-01-04T17:42:14Z"
  },
  "body_html": "<p dir=\"auto\">the <code class=\"notranslate\">subtract_fee_outputs</code> param is expected to be <code class=\"notranslate\">true</code> for all subsequent tests.  It should be defined outside of a single test so that if it's removed or changed, all subsequent tests won't fail.  Currently if you remove this <a href=\"https://github.com/bitcoin/bitcoin/blob/master/src/wallet/test/coinselector_tests.cpp#L304:L325\">test</a> the following <a href=\"https://github.com/bitcoin/bitcoin/blob/master/src/wallet/test/coinselector_tests.cpp#L327:L345\">test</a> fails.  This change makes the tests independent.</p>",
  "body_text": "the subtract_fee_outputs param is expected to be true for all subsequent tests.  It should be defined outside of a single test so that if it's removed or changed, all subsequent tests won't fail.  Currently if you remove this test the following test fails.  This change makes the tests independent.",
  "body": "the `subtract_fee_outputs` param is expected to be `true` for all subsequent tests.  It should be defined outside of a single test so that if it's removed or changed, all subsequent tests won't fail.  Currently if you remove this [test](https://github.com/bitcoin/bitcoin/blob/master/src/wallet/test/coinselector_tests.cpp#L304:L325) the following [test](https://github.com/bitcoin/bitcoin/blob/master/src/wallet/test/coinselector_tests.cpp#L327:L345) fails.  This change makes the tests independent.",
  "closed_by": {
    "login": "achow101",
    "id": 3782274,
    "node_id": "MDQ6VXNlcjM3ODIyNzQ=",
    "avatar_url": "https://avatars.githubusercontent.com/u/3782274?v=4",
    "gravatar_id": "",
    "url": "https://api.github.com/users/achow101",
    "html_url": "https://github.com/achow101",
    "followers_url": "https://api.github.com/users/achow101/followers",
    "following_url": "https://api.github.com/users/achow101/following{/other_user}",
    "gists_url": "https://api.github.com/users/achow101/gists{/gist_id}",
    "starred_url": "https://api.github.com/users/achow101/starred{/owner}{/repo}",
    "subscriptions_url": "https://api.github.com/users/achow101/subscriptions",
    "organizations_url": "https://api.github.com/users/achow101/orgs",
    "repos_url": "https://api.github.com/users/achow101/repos",
    "events_url": "https://api.github.com/users/achow101/events{/privacy}",
    "received_events_url": "https://api.github.com/users/achow101/received_events",
    "type": "User",
    "site_admin": false
  },
  "reactions": {
    "url": "https://api.github.com/repos/bitcoin/bitcoin/issues/26020/reactions",
    "total_count": 0,
    "+1": 0,
    "-1": 0,
    "laugh": 0,
    "hooray": 0,
    "confused": 0,
    "heart": 0,
    "rocket": 0,
    "eyes": 0
  },
  "timeline_url": "https://api.github.com/repos/bitcoin/bitcoin/issues/26020/timeline",
  "performed_via_github_app": null,
  "state_reason": null
}
