[
  {
    "url": "https://api.github.com/repos/bitcoin/bitcoin/issues/comments/18388830",
    "html_url": "https://github.com/bitcoin/bitcoin/issues/2689#issuecomment-18388830",
    "issue_url": "https://api.github.com/repos/bitcoin/bitcoin/issues/2689",
    "id": 18388830,
    "node_id": "MDEyOklzc3VlQ29tbWVudDE4Mzg4ODMw",
    "user": {
      "login": "Diapolo",
      "id": 1419649,
      "node_id": "MDQ6VXNlcjE0MTk2NDk=",
      "avatar_url": "https://avatars.githubusercontent.com/u/1419649?v=4",
      "gravatar_id": "",
      "url": "https://api.github.com/users/Diapolo",
      "html_url": "https://github.com/Diapolo",
      "followers_url": "https://api.github.com/users/Diapolo/followers",
      "following_url": "https://api.github.com/users/Diapolo/following{/other_user}",
      "gists_url": "https://api.github.com/users/Diapolo/gists{/gist_id}",
      "starred_url": "https://api.github.com/users/Diapolo/starred{/owner}{/repo}",
      "subscriptions_url": "https://api.github.com/users/Diapolo/subscriptions",
      "organizations_url": "https://api.github.com/users/Diapolo/orgs",
      "repos_url": "https://api.github.com/users/Diapolo/repos",
      "events_url": "https://api.github.com/users/Diapolo/events{/privacy}",
      "received_events_url": "https://api.github.com/users/Diapolo/received_events",
      "type": "User",
      "site_admin": false
    },
    "created_at": "2013-05-24T06:36:09Z",
    "updated_at": "2013-05-24T06:36:09Z",
    "author_association": "NONE",
    "body_html": "<p dir=\"auto\">At least the UAC stuff is pointless, as you never need to run it with Admin-token :). I agree on the later 2 points.</p>",
    "body_text": "At least the UAC stuff is pointless, as you never need to run it with Admin-token :). I agree on the later 2 points.",
    "body": "At least the UAC stuff is pointless, as you never need to run it with Admin-token :). I agree on the later 2 points.\n",
    "reactions": {
      "url": "https://api.github.com/repos/bitcoin/bitcoin/issues/comments/18388830/reactions",
      "total_count": 0,
      "+1": 0,
      "-1": 0,
      "laugh": 0,
      "hooray": 0,
      "confused": 0,
      "heart": 0,
      "rocket": 0,
      "eyes": 0
    },
    "performed_via_github_app": null
  },
  {
    "url": "https://api.github.com/repos/bitcoin/bitcoin/issues/comments/18710472",
    "html_url": "https://github.com/bitcoin/bitcoin/issues/2689#issuecomment-18710472",
    "issue_url": "https://api.github.com/repos/bitcoin/bitcoin/issues/2689",
    "id": 18710472,
    "node_id": "MDEyOklzc3VlQ29tbWVudDE4NzEwNDcy",
    "user": {
      "login": "grue0",
      "id": 1332097,
      "node_id": "MDQ6VXNlcjEzMzIwOTc=",
      "avatar_url": "https://avatars.githubusercontent.com/u/1332097?v=4",
      "gravatar_id": "",
      "url": "https://api.github.com/users/grue0",
      "html_url": "https://github.com/grue0",
      "followers_url": "https://api.github.com/users/grue0/followers",
      "following_url": "https://api.github.com/users/grue0/following{/other_user}",
      "gists_url": "https://api.github.com/users/grue0/gists{/gist_id}",
      "starred_url": "https://api.github.com/users/grue0/starred{/owner}{/repo}",
      "subscriptions_url": "https://api.github.com/users/grue0/subscriptions",
      "organizations_url": "https://api.github.com/users/grue0/orgs",
      "repos_url": "https://api.github.com/users/grue0/repos",
      "events_url": "https://api.github.com/users/grue0/events{/privacy}",
      "received_events_url": "https://api.github.com/users/grue0/received_events",
      "type": "User",
      "site_admin": false
    },
    "created_at": "2013-05-30T21:44:06Z",
    "updated_at": "2013-05-30T21:44:06Z",
    "author_association": "NONE",
    "body_html": "<p dir=\"auto\">bump: 0.8.2 binaries are still not signed.</p>",
    "body_text": "bump: 0.8.2 binaries are still not signed.",
    "body": "bump: 0.8.2 binaries are still not signed.\n",
    "reactions": {
      "url": "https://api.github.com/repos/bitcoin/bitcoin/issues/comments/18710472/reactions",
      "total_count": 0,
      "+1": 0,
      "-1": 0,
      "laugh": 0,
      "hooray": 0,
      "confused": 0,
      "heart": 0,
      "rocket": 0,
      "eyes": 0
    },
    "performed_via_github_app": null
  },
  {
    "url": "https://api.github.com/repos/bitcoin/bitcoin/issues/comments/18723737",
    "html_url": "https://github.com/bitcoin/bitcoin/issues/2689#issuecomment-18723737",
    "issue_url": "https://api.github.com/repos/bitcoin/bitcoin/issues/2689",
    "id": 18723737,
    "node_id": "MDEyOklzc3VlQ29tbWVudDE4NzIzNzM3",
    "user": {
      "login": "laanwj",
      "id": 126646,
      "node_id": "MDQ6VXNlcjEyNjY0Ng==",
      "avatar_url": "https://avatars.githubusercontent.com/u/126646?v=4",
      "gravatar_id": "",
      "url": "https://api.github.com/users/laanwj",
      "html_url": "https://github.com/laanwj",
      "followers_url": "https://api.github.com/users/laanwj/followers",
      "following_url": "https://api.github.com/users/laanwj/following{/other_user}",
      "gists_url": "https://api.github.com/users/laanwj/gists{/gist_id}",
      "starred_url": "https://api.github.com/users/laanwj/starred{/owner}{/repo}",
      "subscriptions_url": "https://api.github.com/users/laanwj/subscriptions",
      "organizations_url": "https://api.github.com/users/laanwj/orgs",
      "repos_url": "https://api.github.com/users/laanwj/repos",
      "events_url": "https://api.github.com/users/laanwj/events{/privacy}",
      "received_events_url": "https://api.github.com/users/laanwj/received_events",
      "type": "User",
      "site_admin": false
    },
    "created_at": "2013-05-31T05:13:46Z",
    "updated_at": "2013-05-31T05:33:03Z",
    "author_association": "MEMBER",
    "body_html": "<p dir=\"auto\">Don't bump your issues, it makes you look like an impatient ass and won't help you get them implemented any faster. If you really want something implemented do it yourself. In this case add code signing to gitian.</p>\n<p dir=\"auto\">This is harder than it seems, as the determinism verification would have to ignore the developer specific signature...</p>\n<p dir=\"auto\">Also this will mean that the outer installer can no longer be checked with the trusted build process, as it includes an executable signed with the developer's key so it will always differ. Overall, this may make everything less secure instead of more secure.</p>",
    "body_text": "Don't bump your issues, it makes you look like an impatient ass and won't help you get them implemented any faster. If you really want something implemented do it yourself. In this case add code signing to gitian.\nThis is harder than it seems, as the determinism verification would have to ignore the developer specific signature...\nAlso this will mean that the outer installer can no longer be checked with the trusted build process, as it includes an executable signed with the developer's key so it will always differ. Overall, this may make everything less secure instead of more secure.",
    "body": "Don't bump your issues, it makes you look like an impatient ass and won't help you get them implemented any faster. If you really want something implemented do it yourself. In this case add code signing to gitian.\n\nThis is harder than it seems, as the determinism verification would have to ignore the developer specific signature...\n\nAlso this will mean that the outer installer can no longer be checked with the trusted build process, as it includes an executable signed with the developer's key so it will always differ. Overall, this may make everything less secure instead of more secure.\n",
    "reactions": {
      "url": "https://api.github.com/repos/bitcoin/bitcoin/issues/comments/18723737/reactions",
      "total_count": 0,
      "+1": 0,
      "-1": 0,
      "laugh": 0,
      "hooray": 0,
      "confused": 0,
      "heart": 0,
      "rocket": 0,
      "eyes": 0
    },
    "performed_via_github_app": null
  }
]
