[
  {
    "url": "https://api.github.com/repos/bitcoin/bitcoin/issues/comments/246326897",
    "html_url": "https://github.com/bitcoin/bitcoin/pull/8699#issuecomment-246326897",
    "issue_url": "https://api.github.com/repos/bitcoin/bitcoin/issues/8699",
    "id": 246326897,
    "node_id": "MDEyOklzc3VlQ29tbWVudDI0NjMyNjg5Nw==",
    "user": {
      "login": "btcdrak",
      "id": 7275704,
      "node_id": "MDQ6VXNlcjcyNzU3MDQ=",
      "avatar_url": "https://avatars.githubusercontent.com/u/7275704?v=4",
      "gravatar_id": "",
      "url": "https://api.github.com/users/btcdrak",
      "html_url": "https://github.com/btcdrak",
      "followers_url": "https://api.github.com/users/btcdrak/followers",
      "following_url": "https://api.github.com/users/btcdrak/following{/other_user}",
      "gists_url": "https://api.github.com/users/btcdrak/gists{/gist_id}",
      "starred_url": "https://api.github.com/users/btcdrak/starred{/owner}{/repo}",
      "subscriptions_url": "https://api.github.com/users/btcdrak/subscriptions",
      "organizations_url": "https://api.github.com/users/btcdrak/orgs",
      "repos_url": "https://api.github.com/users/btcdrak/repos",
      "events_url": "https://api.github.com/users/btcdrak/events{/privacy}",
      "received_events_url": "https://api.github.com/users/btcdrak/received_events",
      "type": "User",
      "site_admin": false
    },
    "created_at": "2016-09-12T12:04:05Z",
    "updated_at": "2016-09-12T12:04:14Z",
    "author_association": "CONTRIBUTOR",
    "body_html": "<p dir=\"auto\">utACK <a class=\"commit-link\" data-hovercard-type=\"commit\" data-hovercard-url=\"https://github.com/bitcoin/bitcoin/commit/656c2adb7bca785a26ac100ad083d2fa79b50f0c/hovercard\" href=\"https://github.com/bitcoin/bitcoin/commit/656c2adb7bca785a26ac100ad083d2fa79b50f0c\"><tt>656c2ad</tt></a></p>",
    "body_text": "utACK 656c2ad",
    "body": "utACK 656c2ad\n",
    "reactions": {
      "url": "https://api.github.com/repos/bitcoin/bitcoin/issues/comments/246326897/reactions",
      "total_count": 0,
      "+1": 0,
      "-1": 0,
      "laugh": 0,
      "hooray": 0,
      "confused": 0,
      "heart": 0,
      "rocket": 0,
      "eyes": 0
    },
    "performed_via_github_app": null
  },
  {
    "url": "https://api.github.com/repos/bitcoin/bitcoin/issues/comments/246565347",
    "html_url": "https://github.com/bitcoin/bitcoin/pull/8699#issuecomment-246565347",
    "issue_url": "https://api.github.com/repos/bitcoin/bitcoin/issues/8699",
    "id": 246565347,
    "node_id": "MDEyOklzc3VlQ29tbWVudDI0NjU2NTM0Nw==",
    "user": {
      "login": "jl2012",
      "id": 8403418,
      "node_id": "MDQ6VXNlcjg0MDM0MTg=",
      "avatar_url": "https://avatars.githubusercontent.com/u/8403418?v=4",
      "gravatar_id": "",
      "url": "https://api.github.com/users/jl2012",
      "html_url": "https://github.com/jl2012",
      "followers_url": "https://api.github.com/users/jl2012/followers",
      "following_url": "https://api.github.com/users/jl2012/following{/other_user}",
      "gists_url": "https://api.github.com/users/jl2012/gists{/gist_id}",
      "starred_url": "https://api.github.com/users/jl2012/starred{/owner}{/repo}",
      "subscriptions_url": "https://api.github.com/users/jl2012/subscriptions",
      "organizations_url": "https://api.github.com/users/jl2012/orgs",
      "repos_url": "https://api.github.com/users/jl2012/repos",
      "events_url": "https://api.github.com/users/jl2012/events{/privacy}",
      "received_events_url": "https://api.github.com/users/jl2012/received_events",
      "type": "User",
      "site_admin": false
    },
    "created_at": "2016-09-13T03:44:51Z",
    "updated_at": "2016-09-13T03:44:51Z",
    "author_association": "CONTRIBUTOR",
    "body_html": "<p dir=\"auto\">Revised to simply remove the command</p>",
    "body_text": "Revised to simply remove the command",
    "body": "Revised to simply remove the command\n",
    "reactions": {
      "url": "https://api.github.com/repos/bitcoin/bitcoin/issues/comments/246565347/reactions",
      "total_count": 0,
      "+1": 0,
      "-1": 0,
      "laugh": 0,
      "hooray": 0,
      "confused": 0,
      "heart": 0,
      "rocket": 0,
      "eyes": 0
    },
    "performed_via_github_app": null
  },
  {
    "url": "https://api.github.com/repos/bitcoin/bitcoin/issues/comments/246624024",
    "html_url": "https://github.com/bitcoin/bitcoin/pull/8699#issuecomment-246624024",
    "issue_url": "https://api.github.com/repos/bitcoin/bitcoin/issues/8699",
    "id": 246624024,
    "node_id": "MDEyOklzc3VlQ29tbWVudDI0NjYyNDAyNA==",
    "user": {
      "login": "laanwj",
      "id": 126646,
      "node_id": "MDQ6VXNlcjEyNjY0Ng==",
      "avatar_url": "https://avatars.githubusercontent.com/u/126646?v=4",
      "gravatar_id": "",
      "url": "https://api.github.com/users/laanwj",
      "html_url": "https://github.com/laanwj",
      "followers_url": "https://api.github.com/users/laanwj/followers",
      "following_url": "https://api.github.com/users/laanwj/following{/other_user}",
      "gists_url": "https://api.github.com/users/laanwj/gists{/gist_id}",
      "starred_url": "https://api.github.com/users/laanwj/starred{/owner}{/repo}",
      "subscriptions_url": "https://api.github.com/users/laanwj/subscriptions",
      "organizations_url": "https://api.github.com/users/laanwj/orgs",
      "repos_url": "https://api.github.com/users/laanwj/repos",
      "events_url": "https://api.github.com/users/laanwj/events{/privacy}",
      "received_events_url": "https://api.github.com/users/laanwj/received_events",
      "type": "User",
      "site_admin": false
    },
    "created_at": "2016-09-13T09:19:05Z",
    "updated_at": "2016-09-13T09:19:05Z",
    "author_association": "MEMBER",
    "body_html": "<p dir=\"auto\">I'm a bit confused by the description. Is this only for 0.13.1? Should this be merged into master/0.14 at all?</p>\n<blockquote>\n<p dir=\"auto\">It should be disabled on mainnet</p>\n</blockquote>\n<p dir=\"auto\">Does it have value on testnet/regtest?</p>",
    "body_text": "I'm a bit confused by the description. Is this only for 0.13.1? Should this be merged into master/0.14 at all?\n\nIt should be disabled on mainnet\n\nDoes it have value on testnet/regtest?",
    "body": "I'm a bit confused by the description. Is this only for 0.13.1? Should this be merged into master/0.14 at all?\n\n> It should be disabled on mainnet\n\nDoes it have value on testnet/regtest?\n",
    "reactions": {
      "url": "https://api.github.com/repos/bitcoin/bitcoin/issues/comments/246624024/reactions",
      "total_count": 0,
      "+1": 0,
      "-1": 0,
      "laugh": 0,
      "hooray": 0,
      "confused": 0,
      "heart": 0,
      "rocket": 0,
      "eyes": 0
    },
    "performed_via_github_app": null
  },
  {
    "url": "https://api.github.com/repos/bitcoin/bitcoin/issues/comments/246627260",
    "html_url": "https://github.com/bitcoin/bitcoin/pull/8699#issuecomment-246627260",
    "issue_url": "https://api.github.com/repos/bitcoin/bitcoin/issues/8699",
    "id": 246627260,
    "node_id": "MDEyOklzc3VlQ29tbWVudDI0NjYyNzI2MA==",
    "user": {
      "login": "maflcko",
      "id": 6399679,
      "node_id": "MDQ6VXNlcjYzOTk2Nzk=",
      "avatar_url": "https://avatars.githubusercontent.com/u/6399679?v=4",
      "gravatar_id": "",
      "url": "https://api.github.com/users/maflcko",
      "html_url": "https://github.com/maflcko",
      "followers_url": "https://api.github.com/users/maflcko/followers",
      "following_url": "https://api.github.com/users/maflcko/following{/other_user}",
      "gists_url": "https://api.github.com/users/maflcko/gists{/gist_id}",
      "starred_url": "https://api.github.com/users/maflcko/starred{/owner}{/repo}",
      "subscriptions_url": "https://api.github.com/users/maflcko/subscriptions",
      "organizations_url": "https://api.github.com/users/maflcko/orgs",
      "repos_url": "https://api.github.com/users/maflcko/repos",
      "events_url": "https://api.github.com/users/maflcko/events{/privacy}",
      "received_events_url": "https://api.github.com/users/maflcko/received_events",
      "type": "User",
      "site_admin": false
    },
    "created_at": "2016-09-13T09:32:21Z",
    "updated_at": "2016-09-13T09:32:21Z",
    "author_association": "MEMBER",
    "body_html": "<p dir=\"auto\"><a class=\"user-mention notranslate\" data-hovercard-type=\"user\" data-hovercard-url=\"/users/laanwj/hovercard\" data-octo-click=\"hovercard-link-click\" data-octo-dimensions=\"link_type:self\" href=\"https://github.com/laanwj\">@laanwj</a> If this is merged, it is meant for all branches.</p>",
    "body_text": "@laanwj If this is merged, it is meant for all branches.",
    "body": "@laanwj If this is merged, it is meant for all branches.\n",
    "reactions": {
      "url": "https://api.github.com/repos/bitcoin/bitcoin/issues/comments/246627260/reactions",
      "total_count": 0,
      "+1": 0,
      "-1": 0,
      "laugh": 0,
      "hooray": 0,
      "confused": 0,
      "heart": 0,
      "rocket": 0,
      "eyes": 0
    },
    "performed_via_github_app": null
  },
  {
    "url": "https://api.github.com/repos/bitcoin/bitcoin/issues/comments/246627475",
    "html_url": "https://github.com/bitcoin/bitcoin/pull/8699#issuecomment-246627475",
    "issue_url": "https://api.github.com/repos/bitcoin/bitcoin/issues/8699",
    "id": 246627475,
    "node_id": "MDEyOklzc3VlQ29tbWVudDI0NjYyNzQ3NQ==",
    "user": {
      "login": "laanwj",
      "id": 126646,
      "node_id": "MDQ6VXNlcjEyNjY0Ng==",
      "avatar_url": "https://avatars.githubusercontent.com/u/126646?v=4",
      "gravatar_id": "",
      "url": "https://api.github.com/users/laanwj",
      "html_url": "https://github.com/laanwj",
      "followers_url": "https://api.github.com/users/laanwj/followers",
      "following_url": "https://api.github.com/users/laanwj/following{/other_user}",
      "gists_url": "https://api.github.com/users/laanwj/gists{/gist_id}",
      "starred_url": "https://api.github.com/users/laanwj/starred{/owner}{/repo}",
      "subscriptions_url": "https://api.github.com/users/laanwj/subscriptions",
      "organizations_url": "https://api.github.com/users/laanwj/orgs",
      "repos_url": "https://api.github.com/users/laanwj/repos",
      "events_url": "https://api.github.com/users/laanwj/events{/privacy}",
      "received_events_url": "https://api.github.com/users/laanwj/received_events",
      "type": "User",
      "site_admin": false
    },
    "created_at": "2016-09-13T09:33:14Z",
    "updated_at": "2016-09-13T09:33:45Z",
    "author_association": "MEMBER",
    "body_html": "<p dir=\"auto\">So we want that RPC call to disappear forever, not just disable it on mainnet pending segwit rollout?</p>",
    "body_text": "So we want that RPC call to disappear forever, not just disable it on mainnet pending segwit rollout?",
    "body": "So we want that RPC call to disappear forever, not just disable it on mainnet pending segwit rollout?\n",
    "reactions": {
      "url": "https://api.github.com/repos/bitcoin/bitcoin/issues/comments/246627475/reactions",
      "total_count": 0,
      "+1": 0,
      "-1": 0,
      "laugh": 0,
      "hooray": 0,
      "confused": 0,
      "heart": 0,
      "rocket": 0,
      "eyes": 0
    },
    "performed_via_github_app": null
  },
  {
    "url": "https://api.github.com/repos/bitcoin/bitcoin/issues/comments/246636955",
    "html_url": "https://github.com/bitcoin/bitcoin/pull/8699#issuecomment-246636955",
    "issue_url": "https://api.github.com/repos/bitcoin/bitcoin/issues/8699",
    "id": 246636955,
    "node_id": "MDEyOklzc3VlQ29tbWVudDI0NjYzNjk1NQ==",
    "user": {
      "login": "jl2012",
      "id": 8403418,
      "node_id": "MDQ6VXNlcjg0MDM0MTg=",
      "avatar_url": "https://avatars.githubusercontent.com/u/8403418?v=4",
      "gravatar_id": "",
      "url": "https://api.github.com/users/jl2012",
      "html_url": "https://github.com/jl2012",
      "followers_url": "https://api.github.com/users/jl2012/followers",
      "following_url": "https://api.github.com/users/jl2012/following{/other_user}",
      "gists_url": "https://api.github.com/users/jl2012/gists{/gist_id}",
      "starred_url": "https://api.github.com/users/jl2012/starred{/owner}{/repo}",
      "subscriptions_url": "https://api.github.com/users/jl2012/subscriptions",
      "organizations_url": "https://api.github.com/users/jl2012/orgs",
      "repos_url": "https://api.github.com/users/jl2012/repos",
      "events_url": "https://api.github.com/users/jl2012/events{/privacy}",
      "received_events_url": "https://api.github.com/users/jl2012/received_events",
      "type": "User",
      "site_admin": false
    },
    "created_at": "2016-09-13T10:12:46Z",
    "updated_at": "2016-09-13T10:12:46Z",
    "author_association": "CONTRIBUTOR",
    "body_html": "<p dir=\"auto\">I think it should never be allowed on mainnet. In principle we should not generate any address that may likely be unspendable.</p>\n<p dir=\"auto\">Also, I don't think it's very useful for testing. It is not used by any RPC test, and a witness address could be generated trivially with python.</p>",
    "body_text": "I think it should never be allowed on mainnet. In principle we should not generate any address that may likely be unspendable.\nAlso, I don't think it's very useful for testing. It is not used by any RPC test, and a witness address could be generated trivially with python.",
    "body": "I think it should never be allowed on mainnet. In principle we should not generate any address that may likely be unspendable.\n\nAlso, I don't think it's very useful for testing. It is not used by any RPC test, and a witness address could be generated trivially with python. \n",
    "reactions": {
      "url": "https://api.github.com/repos/bitcoin/bitcoin/issues/comments/246636955/reactions",
      "total_count": 1,
      "+1": 1,
      "-1": 0,
      "laugh": 0,
      "hooray": 0,
      "confused": 0,
      "heart": 0,
      "rocket": 0,
      "eyes": 0
    },
    "performed_via_github_app": null
  },
  {
    "url": "https://api.github.com/repos/bitcoin/bitcoin/issues/comments/246710439",
    "html_url": "https://github.com/bitcoin/bitcoin/pull/8699#issuecomment-246710439",
    "issue_url": "https://api.github.com/repos/bitcoin/bitcoin/issues/8699",
    "id": 246710439,
    "node_id": "MDEyOklzc3VlQ29tbWVudDI0NjcxMDQzOQ==",
    "user": {
      "login": "laanwj",
      "id": 126646,
      "node_id": "MDQ6VXNlcjEyNjY0Ng==",
      "avatar_url": "https://avatars.githubusercontent.com/u/126646?v=4",
      "gravatar_id": "",
      "url": "https://api.github.com/users/laanwj",
      "html_url": "https://github.com/laanwj",
      "followers_url": "https://api.github.com/users/laanwj/followers",
      "following_url": "https://api.github.com/users/laanwj/following{/other_user}",
      "gists_url": "https://api.github.com/users/laanwj/gists{/gist_id}",
      "starred_url": "https://api.github.com/users/laanwj/starred{/owner}{/repo}",
      "subscriptions_url": "https://api.github.com/users/laanwj/subscriptions",
      "organizations_url": "https://api.github.com/users/laanwj/orgs",
      "repos_url": "https://api.github.com/users/laanwj/repos",
      "events_url": "https://api.github.com/users/laanwj/events{/privacy}",
      "received_events_url": "https://api.github.com/users/laanwj/received_events",
      "type": "User",
      "site_admin": false
    },
    "created_at": "2016-09-13T14:59:07Z",
    "updated_at": "2016-09-13T15:01:01Z",
    "author_association": "MEMBER",
    "body_html": "<p dir=\"auto\">If it is never useful, sorry to ask, but why did this command make it into a release in the first place?</p>\n<p dir=\"auto\">Edit: obviously ACK on removing it</p>",
    "body_text": "If it is never useful, sorry to ask, but why did this command make it into a release in the first place?\nEdit: obviously ACK on removing it",
    "body": "If it is never useful, sorry to ask, but why did this command make it into a release in the first place?\n\nEdit: obviously ACK on removing it\n",
    "reactions": {
      "url": "https://api.github.com/repos/bitcoin/bitcoin/issues/comments/246710439/reactions",
      "total_count": 0,
      "+1": 0,
      "-1": 0,
      "laugh": 0,
      "hooray": 0,
      "confused": 0,
      "heart": 0,
      "rocket": 0,
      "eyes": 0
    },
    "performed_via_github_app": null
  },
  {
    "url": "https://api.github.com/repos/bitcoin/bitcoin/issues/comments/246711160",
    "html_url": "https://github.com/bitcoin/bitcoin/pull/8699#issuecomment-246711160",
    "issue_url": "https://api.github.com/repos/bitcoin/bitcoin/issues/8699",
    "id": 246711160,
    "node_id": "MDEyOklzc3VlQ29tbWVudDI0NjcxMTE2MA==",
    "user": {
      "login": "sipa",
      "id": 548488,
      "node_id": "MDQ6VXNlcjU0ODQ4OA==",
      "avatar_url": "https://avatars.githubusercontent.com/u/548488?v=4",
      "gravatar_id": "",
      "url": "https://api.github.com/users/sipa",
      "html_url": "https://github.com/sipa",
      "followers_url": "https://api.github.com/users/sipa/followers",
      "following_url": "https://api.github.com/users/sipa/following{/other_user}",
      "gists_url": "https://api.github.com/users/sipa/gists{/gist_id}",
      "starred_url": "https://api.github.com/users/sipa/starred{/owner}{/repo}",
      "subscriptions_url": "https://api.github.com/users/sipa/subscriptions",
      "organizations_url": "https://api.github.com/users/sipa/orgs",
      "repos_url": "https://api.github.com/users/sipa/repos",
      "events_url": "https://api.github.com/users/sipa/events{/privacy}",
      "received_events_url": "https://api.github.com/users/sipa/received_events",
      "type": "User",
      "site_admin": false
    },
    "created_at": "2016-09-13T15:01:13Z",
    "updated_at": "2016-09-13T15:01:13Z",
    "author_association": "MEMBER",
    "body_html": "<div class=\"email-fragment\">It was part of the segwit pull request, and just added to mimick\ncreatemultisig/addmultisigaddress. However, we only now realized that it's\npretty dangerous as it can't guarantee the returned address is valid. Maybe\nit's still useful, but it at least needs a big warning.</div>",
    "body_text": "It was part of the segwit pull request, and just added to mimick\ncreatemultisig/addmultisigaddress. However, we only now realized that it's\npretty dangerous as it can't guarantee the returned address is valid. Maybe\nit's still useful, but it at least needs a big warning.",
    "body": "It was part of the segwit pull request, and just added to mimick\ncreatemultisig/addmultisigaddress. However, we only now realized that it's\npretty dangerous as it can't guarantee the returned address is valid. Maybe\nit's still useful, but it at least needs a big warning.\n",
    "reactions": {
      "url": "https://api.github.com/repos/bitcoin/bitcoin/issues/comments/246711160/reactions",
      "total_count": 0,
      "+1": 0,
      "-1": 0,
      "laugh": 0,
      "hooray": 0,
      "confused": 0,
      "heart": 0,
      "rocket": 0,
      "eyes": 0
    },
    "performed_via_github_app": null
  },
  {
    "url": "https://api.github.com/repos/bitcoin/bitcoin/issues/comments/249595247",
    "html_url": "https://github.com/bitcoin/bitcoin/pull/8699#issuecomment-249595247",
    "issue_url": "https://api.github.com/repos/bitcoin/bitcoin/issues/8699",
    "id": 249595247,
    "node_id": "MDEyOklzc3VlQ29tbWVudDI0OTU5NTI0Nw==",
    "user": {
      "login": "laanwj",
      "id": 126646,
      "node_id": "MDQ6VXNlcjEyNjY0Ng==",
      "avatar_url": "https://avatars.githubusercontent.com/u/126646?v=4",
      "gravatar_id": "",
      "url": "https://api.github.com/users/laanwj",
      "html_url": "https://github.com/laanwj",
      "followers_url": "https://api.github.com/users/laanwj/followers",
      "following_url": "https://api.github.com/users/laanwj/following{/other_user}",
      "gists_url": "https://api.github.com/users/laanwj/gists{/gist_id}",
      "starred_url": "https://api.github.com/users/laanwj/starred{/owner}{/repo}",
      "subscriptions_url": "https://api.github.com/users/laanwj/subscriptions",
      "organizations_url": "https://api.github.com/users/laanwj/orgs",
      "repos_url": "https://api.github.com/users/laanwj/repos",
      "events_url": "https://api.github.com/users/laanwj/events{/privacy}",
      "received_events_url": "https://api.github.com/users/laanwj/received_events",
      "type": "User",
      "site_admin": false
    },
    "created_at": "2016-09-26T14:58:31Z",
    "updated_at": "2016-09-26T14:58:31Z",
    "author_association": "MEMBER",
    "body_html": "<p dir=\"auto\">This is backported in <a class=\"issue-link js-issue-link\" data-error-text=\"Failed to load title\" data-id=\"179251379\" data-permission-text=\"Title is private\" data-url=\"https://github.com/bitcoin/bitcoin/issues/8815\" data-hovercard-type=\"pull_request\" data-hovercard-url=\"/bitcoin/bitcoin/pull/8815/hovercard\" href=\"https://github.com/bitcoin/bitcoin/pull/8815\">#8815</a>, removing tag</p>",
    "body_text": "This is backported in #8815, removing tag",
    "body": "This is backported in #8815, removing tag\n",
    "reactions": {
      "url": "https://api.github.com/repos/bitcoin/bitcoin/issues/comments/249595247/reactions",
      "total_count": 0,
      "+1": 0,
      "-1": 0,
      "laugh": 0,
      "hooray": 0,
      "confused": 0,
      "heart": 0,
      "rocket": 0,
      "eyes": 0
    },
    "performed_via_github_app": null
  }
]
