{
  "url": "https://api.github.com/repos/bitcoin/bitcoin/issues/26250",
  "repository_url": "https://api.github.com/repos/bitcoin/bitcoin",
  "labels_url": "https://api.github.com/repos/bitcoin/bitcoin/issues/26250/labels{/name}",
  "comments_url": "https://api.github.com/repos/bitcoin/bitcoin/issues/26250/comments",
  "events_url": "https://api.github.com/repos/bitcoin/bitcoin/issues/26250/events",
  "html_url": "https://github.com/bitcoin/bitcoin/pull/26250",
  "id": 1396414477,
  "node_id": "PR_kwDOABII585AJIFt",
  "number": 26250,
  "title": "fuzz: add mempool_utils.cpp",
  "user": {
    "login": "fanquake",
    "id": 863730,
    "node_id": "MDQ6VXNlcjg2MzczMA==",
    "avatar_url": "https://avatars.githubusercontent.com/u/863730?v=4",
    "gravatar_id": "",
    "url": "https://api.github.com/users/fanquake",
    "html_url": "https://github.com/fanquake",
    "followers_url": "https://api.github.com/users/fanquake/followers",
    "following_url": "https://api.github.com/users/fanquake/following{/other_user}",
    "gists_url": "https://api.github.com/users/fanquake/gists{/gist_id}",
    "starred_url": "https://api.github.com/users/fanquake/starred{/owner}{/repo}",
    "subscriptions_url": "https://api.github.com/users/fanquake/subscriptions",
    "organizations_url": "https://api.github.com/users/fanquake/orgs",
    "repos_url": "https://api.github.com/users/fanquake/repos",
    "events_url": "https://api.github.com/users/fanquake/events{/privacy}",
    "received_events_url": "https://api.github.com/users/fanquake/received_events",
    "type": "User",
    "site_admin": false
  },
  "labels": [
    {
      "id": 62963516,
      "node_id": "MDU6TGFiZWw2Mjk2MzUxNg==",
      "url": "https://api.github.com/repos/bitcoin/bitcoin/labels/Tests",
      "name": "Tests",
      "color": "d4c5f9",
      "default": false,
      "description": null
    }
  ],
  "state": "closed",
  "locked": true,
  "assignee": null,
  "assignees": [

  ],
  "milestone": null,
  "comments": 1,
  "created_at": "2022-10-04T14:49:55Z",
  "updated_at": "2023-10-10T12:13:45Z",
  "closed_at": "2022-10-05T08:31:16Z",
  "author_association": "MEMBER",
  "active_lock_reason": null,
  "draft": false,
  "pull_request": {
    "url": "https://api.github.com/repos/bitcoin/bitcoin/pulls/26250",
    "html_url": "https://github.com/bitcoin/bitcoin/pull/26250",
    "diff_url": "https://github.com/bitcoin/bitcoin/pull/26250.diff",
    "patch_url": "https://github.com/bitcoin/bitcoin/pull/26250.patch",
    "merged_at": "2022-10-05T08:31:16Z"
  },
  "body_html": "<p dir=\"auto\">Moving the heavy (Boost) mempool code out of fuzz/util.h. Means that (for ex) a crypto_common fuzz unit doesn't need to care about seeing endless Boost headers. This results in a ~10% speedup (for me) when compiling the fuzz tests. Your results may vary.</p>",
  "body_text": "Moving the heavy (Boost) mempool code out of fuzz/util.h. Means that (for ex) a crypto_common fuzz unit doesn't need to care about seeing endless Boost headers. This results in a ~10% speedup (for me) when compiling the fuzz tests. Your results may vary.",
  "body": "Moving the heavy (Boost) mempool code out of fuzz/util.h. Means that (for ex) a crypto_common fuzz unit doesn't need to care about seeing endless Boost headers. This results in a ~10% speedup (for me) when compiling the fuzz tests. Your results may vary.",
  "closed_by": {
    "login": "maflcko",
    "id": 6399679,
    "node_id": "MDQ6VXNlcjYzOTk2Nzk=",
    "avatar_url": "https://avatars.githubusercontent.com/u/6399679?v=4",
    "gravatar_id": "",
    "url": "https://api.github.com/users/maflcko",
    "html_url": "https://github.com/maflcko",
    "followers_url": "https://api.github.com/users/maflcko/followers",
    "following_url": "https://api.github.com/users/maflcko/following{/other_user}",
    "gists_url": "https://api.github.com/users/maflcko/gists{/gist_id}",
    "starred_url": "https://api.github.com/users/maflcko/starred{/owner}{/repo}",
    "subscriptions_url": "https://api.github.com/users/maflcko/subscriptions",
    "organizations_url": "https://api.github.com/users/maflcko/orgs",
    "repos_url": "https://api.github.com/users/maflcko/repos",
    "events_url": "https://api.github.com/users/maflcko/events{/privacy}",
    "received_events_url": "https://api.github.com/users/maflcko/received_events",
    "type": "User",
    "site_admin": false
  },
  "reactions": {
    "url": "https://api.github.com/repos/bitcoin/bitcoin/issues/26250/reactions",
    "total_count": 0,
    "+1": 0,
    "-1": 0,
    "laugh": 0,
    "hooray": 0,
    "confused": 0,
    "heart": 0,
    "rocket": 0,
    "eyes": 0
  },
  "timeline_url": "https://api.github.com/repos/bitcoin/bitcoin/issues/26250/timeline",
  "performed_via_github_app": null,
  "state_reason": null
}
