[
  {
    "url": "https://api.github.com/repos/bitcoin/bitcoin/issues/comments/447093412",
    "html_url": "https://github.com/bitcoin/bitcoin/pull/14953#issuecomment-447093412",
    "issue_url": "https://api.github.com/repos/bitcoin/bitcoin/issues/14953",
    "id": 447093412,
    "node_id": "MDEyOklzc3VlQ29tbWVudDQ0NzA5MzQxMg==",
    "user": {
      "login": "sipa",
      "id": 548488,
      "node_id": "MDQ6VXNlcjU0ODQ4OA==",
      "avatar_url": "https://avatars.githubusercontent.com/u/548488?v=4",
      "gravatar_id": "",
      "url": "https://api.github.com/users/sipa",
      "html_url": "https://github.com/sipa",
      "followers_url": "https://api.github.com/users/sipa/followers",
      "following_url": "https://api.github.com/users/sipa/following{/other_user}",
      "gists_url": "https://api.github.com/users/sipa/gists{/gist_id}",
      "starred_url": "https://api.github.com/users/sipa/starred{/owner}{/repo}",
      "subscriptions_url": "https://api.github.com/users/sipa/subscriptions",
      "organizations_url": "https://api.github.com/users/sipa/orgs",
      "repos_url": "https://api.github.com/users/sipa/repos",
      "events_url": "https://api.github.com/users/sipa/events{/privacy}",
      "received_events_url": "https://api.github.com/users/sipa/received_events",
      "type": "User",
      "site_admin": false
    },
    "created_at": "2018-12-13T19:36:44Z",
    "updated_at": "2018-12-13T19:40:14Z",
    "author_association": "MEMBER",
    "body_html": "<p dir=\"auto\">This seems overkill, as most tests are single-threaded. The multi-threaded test could just have one RNG per thread?</p>\n<p dir=\"auto\">By that I mean having an explicit \"FastRandomContext rng(true);\" in each of the threads.</p>",
    "body_text": "This seems overkill, as most tests are single-threaded. The multi-threaded test could just have one RNG per thread?\nBy that I mean having an explicit \"FastRandomContext rng(true);\" in each of the threads.",
    "body": "This seems overkill, as most tests are single-threaded. The multi-threaded test could just have one RNG per thread?\r\n\r\nBy that I mean having an explicit \"FastRandomContext rng(true);\" in each of the threads.",
    "reactions": {
      "url": "https://api.github.com/repos/bitcoin/bitcoin/issues/comments/447093412/reactions",
      "total_count": 0,
      "+1": 0,
      "-1": 0,
      "laugh": 0,
      "hooray": 0,
      "confused": 0,
      "heart": 0,
      "rocket": 0,
      "eyes": 0
    },
    "performed_via_github_app": null
  },
  {
    "url": "https://api.github.com/repos/bitcoin/bitcoin/issues/comments/447099142",
    "html_url": "https://github.com/bitcoin/bitcoin/pull/14953#issuecomment-447099142",
    "issue_url": "https://api.github.com/repos/bitcoin/bitcoin/issues/14953",
    "id": 447099142,
    "node_id": "MDEyOklzc3VlQ29tbWVudDQ0NzA5OTE0Mg==",
    "user": {
      "login": "maflcko",
      "id": 6399679,
      "node_id": "MDQ6VXNlcjYzOTk2Nzk=",
      "avatar_url": "https://avatars.githubusercontent.com/u/6399679?v=4",
      "gravatar_id": "",
      "url": "https://api.github.com/users/maflcko",
      "html_url": "https://github.com/maflcko",
      "followers_url": "https://api.github.com/users/maflcko/followers",
      "following_url": "https://api.github.com/users/maflcko/following{/other_user}",
      "gists_url": "https://api.github.com/users/maflcko/gists{/gist_id}",
      "starred_url": "https://api.github.com/users/maflcko/starred{/owner}{/repo}",
      "subscriptions_url": "https://api.github.com/users/maflcko/subscriptions",
      "organizations_url": "https://api.github.com/users/maflcko/orgs",
      "repos_url": "https://api.github.com/users/maflcko/repos",
      "events_url": "https://api.github.com/users/maflcko/events{/privacy}",
      "received_events_url": "https://api.github.com/users/maflcko/received_events",
      "type": "User",
      "site_admin": false
    },
    "created_at": "2018-12-13T19:54:28Z",
    "updated_at": "2018-12-13T19:54:28Z",
    "author_association": "MEMBER",
    "body_html": "<p dir=\"auto\">The alternative you suggest (only give each thread their own randomness context when they are multithreaded) would involve (re)writing the <code class=\"notranslate\">InsecureRandRange</code> helpers. I'd prefer to just add the thread_local keyword unless there are observable performance regressions.</p>",
    "body_text": "The alternative you suggest (only give each thread their own randomness context when they are multithreaded) would involve (re)writing the InsecureRandRange helpers. I'd prefer to just add the thread_local keyword unless there are observable performance regressions.",
    "body": "The alternative you suggest (only give each thread their own randomness context when they are multithreaded) would involve (re)writing the `InsecureRandRange` helpers. I'd prefer to just add the thread_local keyword unless there are observable performance regressions.",
    "reactions": {
      "url": "https://api.github.com/repos/bitcoin/bitcoin/issues/comments/447099142/reactions",
      "total_count": 0,
      "+1": 0,
      "-1": 0,
      "laugh": 0,
      "hooray": 0,
      "confused": 0,
      "heart": 0,
      "rocket": 0,
      "eyes": 0
    },
    "performed_via_github_app": null
  },
  {
    "url": "https://api.github.com/repos/bitcoin/bitcoin/issues/comments/447099394",
    "html_url": "https://github.com/bitcoin/bitcoin/pull/14953#issuecomment-447099394",
    "issue_url": "https://api.github.com/repos/bitcoin/bitcoin/issues/14953",
    "id": 447099394,
    "node_id": "MDEyOklzc3VlQ29tbWVudDQ0NzA5OTM5NA==",
    "user": {
      "login": "sipa",
      "id": 548488,
      "node_id": "MDQ6VXNlcjU0ODQ4OA==",
      "avatar_url": "https://avatars.githubusercontent.com/u/548488?v=4",
      "gravatar_id": "",
      "url": "https://api.github.com/users/sipa",
      "html_url": "https://github.com/sipa",
      "followers_url": "https://api.github.com/users/sipa/followers",
      "following_url": "https://api.github.com/users/sipa/following{/other_user}",
      "gists_url": "https://api.github.com/users/sipa/gists{/gist_id}",
      "starred_url": "https://api.github.com/users/sipa/starred{/owner}{/repo}",
      "subscriptions_url": "https://api.github.com/users/sipa/subscriptions",
      "organizations_url": "https://api.github.com/users/sipa/orgs",
      "repos_url": "https://api.github.com/users/sipa/repos",
      "events_url": "https://api.github.com/users/sipa/events{/privacy}",
      "received_events_url": "https://api.github.com/users/sipa/received_events",
      "type": "User",
      "site_admin": false
    },
    "created_at": "2018-12-13T19:55:19Z",
    "updated_at": "2018-12-13T19:55:19Z",
    "author_association": "MEMBER",
    "body_html": "<p dir=\"auto\">Oh, I forgot about the wrappers for the global test RNG. Objection withdrawn.</p>",
    "body_text": "Oh, I forgot about the wrappers for the global test RNG. Objection withdrawn.",
    "body": "Oh, I forgot about the wrappers for the global test RNG. Objection withdrawn.",
    "reactions": {
      "url": "https://api.github.com/repos/bitcoin/bitcoin/issues/comments/447099394/reactions",
      "total_count": 0,
      "+1": 0,
      "-1": 0,
      "laugh": 0,
      "hooray": 0,
      "confused": 0,
      "heart": 0,
      "rocket": 0,
      "eyes": 0
    },
    "performed_via_github_app": null
  },
  {
    "url": "https://api.github.com/repos/bitcoin/bitcoin/issues/comments/447124239",
    "html_url": "https://github.com/bitcoin/bitcoin/pull/14953#issuecomment-447124239",
    "issue_url": "https://api.github.com/repos/bitcoin/bitcoin/issues/14953",
    "id": 447124239,
    "node_id": "MDEyOklzc3VlQ29tbWVudDQ0NzEyNDIzOQ==",
    "user": {
      "login": "gmaxwell",
      "id": 858454,
      "node_id": "MDQ6VXNlcjg1ODQ1NA==",
      "avatar_url": "https://avatars.githubusercontent.com/u/858454?v=4",
      "gravatar_id": "",
      "url": "https://api.github.com/users/gmaxwell",
      "html_url": "https://github.com/gmaxwell",
      "followers_url": "https://api.github.com/users/gmaxwell/followers",
      "following_url": "https://api.github.com/users/gmaxwell/following{/other_user}",
      "gists_url": "https://api.github.com/users/gmaxwell/gists{/gist_id}",
      "starred_url": "https://api.github.com/users/gmaxwell/starred{/owner}{/repo}",
      "subscriptions_url": "https://api.github.com/users/gmaxwell/subscriptions",
      "organizations_url": "https://api.github.com/users/gmaxwell/orgs",
      "repos_url": "https://api.github.com/users/gmaxwell/repos",
      "events_url": "https://api.github.com/users/gmaxwell/events{/privacy}",
      "received_events_url": "https://api.github.com/users/gmaxwell/received_events",
      "type": "User",
      "site_admin": false
    },
    "created_at": "2018-12-13T21:18:59Z",
    "updated_at": "2018-12-13T21:18:59Z",
    "author_association": "CONTRIBUTOR",
    "body_html": "<p dir=\"auto\">utACK</p>",
    "body_text": "utACK",
    "body": "utACK",
    "reactions": {
      "url": "https://api.github.com/repos/bitcoin/bitcoin/issues/comments/447124239/reactions",
      "total_count": 0,
      "+1": 0,
      "-1": 0,
      "laugh": 0,
      "hooray": 0,
      "confused": 0,
      "heart": 0,
      "rocket": 0,
      "eyes": 0
    },
    "performed_via_github_app": null
  },
  {
    "url": "https://api.github.com/repos/bitcoin/bitcoin/issues/comments/447130212",
    "html_url": "https://github.com/bitcoin/bitcoin/pull/14953#issuecomment-447130212",
    "issue_url": "https://api.github.com/repos/bitcoin/bitcoin/issues/14953",
    "id": 447130212,
    "node_id": "MDEyOklzc3VlQ29tbWVudDQ0NzEzMDIxMg==",
    "user": {
      "login": "DrahtBot",
      "id": 39886733,
      "node_id": "MDQ6VXNlcjM5ODg2NzMz",
      "avatar_url": "https://avatars.githubusercontent.com/u/39886733?v=4",
      "gravatar_id": "",
      "url": "https://api.github.com/users/DrahtBot",
      "html_url": "https://github.com/DrahtBot",
      "followers_url": "https://api.github.com/users/DrahtBot/followers",
      "following_url": "https://api.github.com/users/DrahtBot/following{/other_user}",
      "gists_url": "https://api.github.com/users/DrahtBot/gists{/gist_id}",
      "starred_url": "https://api.github.com/users/DrahtBot/starred{/owner}{/repo}",
      "subscriptions_url": "https://api.github.com/users/DrahtBot/subscriptions",
      "organizations_url": "https://api.github.com/users/DrahtBot/orgs",
      "repos_url": "https://api.github.com/users/DrahtBot/repos",
      "events_url": "https://api.github.com/users/DrahtBot/events{/privacy}",
      "received_events_url": "https://api.github.com/users/DrahtBot/received_events",
      "type": "User",
      "site_admin": false
    },
    "created_at": "2018-12-13T21:39:23Z",
    "updated_at": "2018-12-13T21:39:23Z",
    "author_association": "CONTRIBUTOR",
    "body_html": "\n<p dir=\"auto\">The following sections might be updated with supplementary metadata relevant to reviewers and maintainers.</p>\n\n<h3 dir=\"auto\">Conflicts</h3>\n<p dir=\"auto\">Reviewers, this pull request conflicts with the following ones:</p>\n<ul dir=\"auto\">\n<li><a href=\"https://drahtbot.github.io/bitcoin_core_issue_redirect/r/14464.html\" rel=\"nofollow\">#14464</a> (refactor: make checkqueue manage the threads by itself (also removed some boost dependencies) by ken2812221)</li>\n<li><a href=\"https://drahtbot.github.io/bitcoin_core_issue_redirect/r/14193.html\" rel=\"nofollow\">#14193</a> (validation: Add missing mempool locks by MarcoFalke)</li>\n<li><a href=\"https://drahtbot.github.io/bitcoin_core_issue_redirect/r/13804.html\" rel=\"nofollow\">#13804</a> (WIP: Transaction Pool Layer by MarcoFalke)</li>\n</ul>\n<p dir=\"auto\">If you consider this pull request important, please also help to review the conflicting pull requests. Ideally, start with the one that should be merged first.</p>",
    "body_text": "The following sections might be updated with supplementary metadata relevant to reviewers and maintainers.\n\nConflicts\nReviewers, this pull request conflicts with the following ones:\n\n#14464 (refactor: make checkqueue manage the threads by itself (also removed some boost dependencies) by ken2812221)\n#14193 (validation: Add missing mempool locks by MarcoFalke)\n#13804 (WIP: Transaction Pool Layer by MarcoFalke)\n\nIf you consider this pull request important, please also help to review the conflicting pull requests. Ideally, start with the one that should be merged first.",
    "body": "<!--e57a25ab6845829454e8d69fc972939a-->\n\nThe following sections might be updated with supplementary metadata relevant to reviewers and maintainers.\n\n<!--174a7506f384e20aa4161008e828411d-->\n### Conflicts\nReviewers, this pull request conflicts with the following ones:\n\n* [#14464](https://drahtbot.github.io/bitcoin_core_issue_redirect/r/14464.html) (refactor: make checkqueue manage the threads by itself (also removed some boost dependencies) by ken2812221)\n* [#14193](https://drahtbot.github.io/bitcoin_core_issue_redirect/r/14193.html) (validation: Add missing mempool locks by MarcoFalke)\n* [#13804](https://drahtbot.github.io/bitcoin_core_issue_redirect/r/13804.html) (WIP: Transaction Pool Layer by MarcoFalke)\n\nIf you consider this pull request important, please also help to review the conflicting pull requests. Ideally, start with the one that should be merged first.",
    "reactions": {
      "url": "https://api.github.com/repos/bitcoin/bitcoin/issues/comments/447130212/reactions",
      "total_count": 0,
      "+1": 0,
      "-1": 0,
      "laugh": 0,
      "hooray": 0,
      "confused": 0,
      "heart": 0,
      "rocket": 0,
      "eyes": 0
    },
    "performed_via_github_app": null
  },
  {
    "url": "https://api.github.com/repos/bitcoin/bitcoin/issues/comments/447545253",
    "html_url": "https://github.com/bitcoin/bitcoin/pull/14953#issuecomment-447545253",
    "issue_url": "https://api.github.com/repos/bitcoin/bitcoin/issues/14953",
    "id": 447545253,
    "node_id": "MDEyOklzc3VlQ29tbWVudDQ0NzU0NTI1Mw==",
    "user": {
      "login": "laanwj",
      "id": 126646,
      "node_id": "MDQ6VXNlcjEyNjY0Ng==",
      "avatar_url": "https://avatars.githubusercontent.com/u/126646?v=4",
      "gravatar_id": "",
      "url": "https://api.github.com/users/laanwj",
      "html_url": "https://github.com/laanwj",
      "followers_url": "https://api.github.com/users/laanwj/followers",
      "following_url": "https://api.github.com/users/laanwj/following{/other_user}",
      "gists_url": "https://api.github.com/users/laanwj/gists{/gist_id}",
      "starred_url": "https://api.github.com/users/laanwj/starred{/owner}{/repo}",
      "subscriptions_url": "https://api.github.com/users/laanwj/subscriptions",
      "organizations_url": "https://api.github.com/users/laanwj/orgs",
      "repos_url": "https://api.github.com/users/laanwj/repos",
      "events_url": "https://api.github.com/users/laanwj/events{/privacy}",
      "received_events_url": "https://api.github.com/users/laanwj/received_events",
      "type": "User",
      "site_admin": false
    },
    "created_at": "2018-12-15T07:28:32Z",
    "updated_at": "2018-12-15T07:28:32Z",
    "author_association": "MEMBER",
    "body_html": "<p dir=\"auto\">No idea if this is significant, but mentioning just in case:</p>\n<p dir=\"auto\">Thread-local support used to be optional before this (was only used in sync.h in debug mode optionally). This change ignores <code class=\"notranslate\">HAVE_THREAD_LOCAL</code> and makes it mandatory.</p>",
    "body_text": "No idea if this is significant, but mentioning just in case:\nThread-local support used to be optional before this (was only used in sync.h in debug mode optionally). This change ignores HAVE_THREAD_LOCAL and makes it mandatory.",
    "body": "No idea if this is significant, but mentioning just in case:\r\n\r\nThread-local support used to be optional before this (was only used in sync.h in debug mode optionally). This change ignores `HAVE_THREAD_LOCAL` and makes it mandatory.",
    "reactions": {
      "url": "https://api.github.com/repos/bitcoin/bitcoin/issues/comments/447545253/reactions",
      "total_count": 0,
      "+1": 0,
      "-1": 0,
      "laugh": 0,
      "hooray": 0,
      "confused": 0,
      "heart": 0,
      "rocket": 0,
      "eyes": 0
    },
    "performed_via_github_app": null
  },
  {
    "url": "https://api.github.com/repos/bitcoin/bitcoin/issues/comments/447558439",
    "html_url": "https://github.com/bitcoin/bitcoin/pull/14953#issuecomment-447558439",
    "issue_url": "https://api.github.com/repos/bitcoin/bitcoin/issues/14953",
    "id": 447558439,
    "node_id": "MDEyOklzc3VlQ29tbWVudDQ0NzU1ODQzOQ==",
    "user": {
      "login": "Sjors",
      "id": 10217,
      "node_id": "MDQ6VXNlcjEwMjE3",
      "avatar_url": "https://avatars.githubusercontent.com/u/10217?v=4",
      "gravatar_id": "",
      "url": "https://api.github.com/users/Sjors",
      "html_url": "https://github.com/Sjors",
      "followers_url": "https://api.github.com/users/Sjors/followers",
      "following_url": "https://api.github.com/users/Sjors/following{/other_user}",
      "gists_url": "https://api.github.com/users/Sjors/gists{/gist_id}",
      "starred_url": "https://api.github.com/users/Sjors/starred{/owner}{/repo}",
      "subscriptions_url": "https://api.github.com/users/Sjors/subscriptions",
      "organizations_url": "https://api.github.com/users/Sjors/orgs",
      "repos_url": "https://api.github.com/users/Sjors/repos",
      "events_url": "https://api.github.com/users/Sjors/events{/privacy}",
      "received_events_url": "https://api.github.com/users/Sjors/received_events",
      "type": "User",
      "site_admin": false
    },
    "created_at": "2018-12-15T10:37:51Z",
    "updated_at": "2018-12-15T10:54:27Z",
    "author_association": "MEMBER",
    "body_html": "<p dir=\"auto\">Should those tests perhaps fail explicitly, like in <code class=\"notranslate\">sync.cpp</code>?</p>\n<div class=\"snippet-clipboard-content notranslate position-relative overflow-auto\" data-snippet-clipboard-copy-content=\"#if !defined(HAVE_THREAD_LOCAL)\nstatic_assert(false, &quot;thread_local is not supported&quot;);\n#endif\"><pre class=\"notranslate\"><code class=\"notranslate\">#if !defined(HAVE_THREAD_LOCAL)\nstatic_assert(false, \"thread_local is not supported\");\n#endif\n</code></pre></div>\n<p dir=\"auto\">Or should we make it mandatory in <code class=\"notranslate\">./configure</code>?</p>\n<p dir=\"auto\">Some earlier related discussion:</p>\n<ul dir=\"auto\">\n<li><a class=\"issue-link js-issue-link\" data-error-text=\"Failed to load title\" data-id=\"320429108\" data-permission-text=\"Title is private\" data-url=\"https://github.com/bitcoin/bitcoin/issues/13168\" data-hovercard-type=\"pull_request\" data-hovercard-url=\"/bitcoin/bitcoin/pull/13168/hovercard?comment_id=389957916&amp;comment_type=issue_comment\" href=\"https://github.com/bitcoin/bitcoin/pull/13168#issuecomment-389957916\">#13168 (comment)</a></li>\n<li><a class=\"issue-link js-issue-link\" data-error-text=\"Failed to load title\" data-id=\"275104075\" data-permission-text=\"Title is private\" data-url=\"https://github.com/bitcoin/bitcoin/issues/11722\" data-hovercard-type=\"pull_request\" data-hovercard-url=\"/bitcoin/bitcoin/pull/11722/hovercard\" href=\"https://github.com/bitcoin/bitcoin/pull/11722\">#11722</a></li>\n</ul>\n<p dir=\"auto\">We bumped the requirement from <code class=\"notranslate\">g++ 4.7</code> to <code class=\"notranslate\">g++ 4.8</code> in <a class=\"issue-link js-issue-link\" data-error-text=\"Failed to load title\" data-id=\"276237195\" data-permission-text=\"Title is private\" data-url=\"https://github.com/bitcoin/bitcoin/issues/11755\" data-hovercard-type=\"pull_request\" data-hovercard-url=\"/bitcoin/bitcoin/pull/11755/hovercard\" href=\"https://github.com/bitcoin/bitcoin/pull/11755\">#11755</a></p>\n<p dir=\"auto\"><a class=\"user-mention notranslate\" data-hovercard-type=\"user\" data-hovercard-url=\"/users/theuni/hovercard\" data-octo-click=\"hovercard-link-click\" data-octo-dimensions=\"link_type:self\" href=\"https://github.com/theuni\">@theuni</a> wrote there:</p>\n<blockquote>\n<p dir=\"auto\">thread_local was also off-limits due to missing support in osx's clang. It's been added as of XCode 8 on September 13, 2016. I'm uneasy with that as a minimum requirement.</p>\n</blockquote>\n<p dir=\"auto\">From <a href=\"https://developer.apple.com/library/archive/documentation/DeveloperTools/Conceptual/WhatsNewXcode/Chapters/xcode_8_0.html#//apple_ref/doc/uid/TP40004635-SW1\" rel=\"nofollow\">Apple docs</a>:  \"Xcode 8.1 requires a Mac running macOS 10.11.5 or later\". We still support <a href=\"https://github.com/chaincoin/chaincoin/pull/573\" data-hovercard-type=\"pull_request\" data-hovercard-url=\"/chaincoin/chaincoin/pull/573/hovercard\">macOS 10.10</a>. We could consider bumping that to 10.11.5, or accept that some tests won't run.</p>\n<blockquote>\n<p dir=\"auto\">Additionally, last time I checked this, the use of thread_local causes new symbols to be pulled in from glibc on Linux, meaning that we would lose back-compat with older versions. I'd have to re-test to see where the break lies.</p>\n</blockquote>\n<p dir=\"auto\">So perhaps this depends on if we drop e.g. Ubuntu Trusty 14.04 in the next release.</p>",
    "body_text": "Should those tests perhaps fail explicitly, like in sync.cpp?\n#if !defined(HAVE_THREAD_LOCAL)\nstatic_assert(false, \"thread_local is not supported\");\n#endif\n\nOr should we make it mandatory in ./configure?\nSome earlier related discussion:\n\n#13168 (comment)\n#11722\n\nWe bumped the requirement from g++ 4.7 to g++ 4.8 in #11755\n@theuni wrote there:\n\nthread_local was also off-limits due to missing support in osx's clang. It's been added as of XCode 8 on September 13, 2016. I'm uneasy with that as a minimum requirement.\n\nFrom Apple docs:  \"Xcode 8.1 requires a Mac running macOS 10.11.5 or later\". We still support macOS 10.10. We could consider bumping that to 10.11.5, or accept that some tests won't run.\n\nAdditionally, last time I checked this, the use of thread_local causes new symbols to be pulled in from glibc on Linux, meaning that we would lose back-compat with older versions. I'd have to re-test to see where the break lies.\n\nSo perhaps this depends on if we drop e.g. Ubuntu Trusty 14.04 in the next release.",
    "body": "Should those tests perhaps fail explicitly, like in `sync.cpp`?\r\n```\r\n#if !defined(HAVE_THREAD_LOCAL)\r\nstatic_assert(false, \"thread_local is not supported\");\r\n#endif\r\n```\r\nOr should we make it mandatory in `./configure`?\r\n\r\nSome earlier related discussion:\r\n* https://github.com/bitcoin/bitcoin/pull/13168#issuecomment-389957916\r\n* https://github.com/bitcoin/bitcoin/pull/11722\r\n\r\nWe bumped the requirement from `g++ 4.7` to `g++ 4.8` in https://github.com/bitcoin/bitcoin/pull/11755\r\n\r\n@theuni wrote there:\r\n> thread_local was also off-limits due to missing support in osx's clang. It's been added as of XCode 8 on September 13, 2016. I'm uneasy with that as a minimum requirement.\r\n\r\nFrom [Apple docs](https://developer.apple.com/library/archive/documentation/DeveloperTools/Conceptual/WhatsNewXcode/Chapters/xcode_8_0.html#//apple_ref/doc/uid/TP40004635-SW1):  \"Xcode 8.1 requires a Mac running macOS 10.11.5 or later\". We still support [macOS 10.10](https://github.com/chaincoin/chaincoin/pull/573). We could consider bumping that to 10.11.5, or accept that some tests won't run.\r\n\r\n> Additionally, last time I checked this, the use of thread_local causes new symbols to be pulled in from glibc on Linux, meaning that we would lose back-compat with older versions. I'd have to re-test to see where the break lies.\r\n\r\nSo perhaps this depends on if we drop e.g. Ubuntu Trusty 14.04 in the next release.",
    "reactions": {
      "url": "https://api.github.com/repos/bitcoin/bitcoin/issues/comments/447558439/reactions",
      "total_count": 0,
      "+1": 0,
      "-1": 0,
      "laugh": 0,
      "hooray": 0,
      "confused": 0,
      "heart": 0,
      "rocket": 0,
      "eyes": 0
    },
    "performed_via_github_app": null
  },
  {
    "url": "https://api.github.com/repos/bitcoin/bitcoin/issues/comments/447662551",
    "html_url": "https://github.com/bitcoin/bitcoin/pull/14953#issuecomment-447662551",
    "issue_url": "https://api.github.com/repos/bitcoin/bitcoin/issues/14953",
    "id": 447662551,
    "node_id": "MDEyOklzc3VlQ29tbWVudDQ0NzY2MjU1MQ==",
    "user": {
      "login": "maflcko",
      "id": 6399679,
      "node_id": "MDQ6VXNlcjYzOTk2Nzk=",
      "avatar_url": "https://avatars.githubusercontent.com/u/6399679?v=4",
      "gravatar_id": "",
      "url": "https://api.github.com/users/maflcko",
      "html_url": "https://github.com/maflcko",
      "followers_url": "https://api.github.com/users/maflcko/followers",
      "following_url": "https://api.github.com/users/maflcko/following{/other_user}",
      "gists_url": "https://api.github.com/users/maflcko/gists{/gist_id}",
      "starred_url": "https://api.github.com/users/maflcko/starred{/owner}{/repo}",
      "subscriptions_url": "https://api.github.com/users/maflcko/subscriptions",
      "organizations_url": "https://api.github.com/users/maflcko/orgs",
      "repos_url": "https://api.github.com/users/maflcko/repos",
      "events_url": "https://api.github.com/users/maflcko/events{/privacy}",
      "received_events_url": "https://api.github.com/users/maflcko/received_events",
      "type": "User",
      "site_admin": false
    },
    "created_at": "2018-12-16T17:52:23Z",
    "updated_at": "2018-12-16T17:52:23Z",
    "author_association": "MEMBER",
    "body_html": "<p dir=\"auto\"><code class=\"notranslate\">thread_local</code> was added in C++11, which we require right now and we are about to switch to C++14 soon, so a compiler not supporting it shouldn't be a problem.</p>",
    "body_text": "thread_local was added in C++11, which we require right now and we are about to switch to C++14 soon, so a compiler not supporting it shouldn't be a problem.",
    "body": "`thread_local` was added in C++11, which we require right now and we are about to switch to C++14 soon, so a compiler not supporting it shouldn't be a problem.",
    "reactions": {
      "url": "https://api.github.com/repos/bitcoin/bitcoin/issues/comments/447662551/reactions",
      "total_count": 0,
      "+1": 0,
      "-1": 0,
      "laugh": 0,
      "hooray": 0,
      "confused": 0,
      "heart": 0,
      "rocket": 0,
      "eyes": 0
    },
    "performed_via_github_app": null
  },
  {
    "url": "https://api.github.com/repos/bitcoin/bitcoin/issues/comments/447665955",
    "html_url": "https://github.com/bitcoin/bitcoin/pull/14953#issuecomment-447665955",
    "issue_url": "https://api.github.com/repos/bitcoin/bitcoin/issues/14953",
    "id": 447665955,
    "node_id": "MDEyOklzc3VlQ29tbWVudDQ0NzY2NTk1NQ==",
    "user": {
      "login": "sipa",
      "id": 548488,
      "node_id": "MDQ6VXNlcjU0ODQ4OA==",
      "avatar_url": "https://avatars.githubusercontent.com/u/548488?v=4",
      "gravatar_id": "",
      "url": "https://api.github.com/users/sipa",
      "html_url": "https://github.com/sipa",
      "followers_url": "https://api.github.com/users/sipa/followers",
      "following_url": "https://api.github.com/users/sipa/following{/other_user}",
      "gists_url": "https://api.github.com/users/sipa/gists{/gist_id}",
      "starred_url": "https://api.github.com/users/sipa/starred{/owner}{/repo}",
      "subscriptions_url": "https://api.github.com/users/sipa/subscriptions",
      "organizations_url": "https://api.github.com/users/sipa/orgs",
      "repos_url": "https://api.github.com/users/sipa/repos",
      "events_url": "https://api.github.com/users/sipa/events{/privacy}",
      "received_events_url": "https://api.github.com/users/sipa/received_events",
      "type": "User",
      "site_admin": false
    },
    "created_at": "2018-12-16T18:42:10Z",
    "updated_at": "2018-12-16T18:42:10Z",
    "author_association": "MEMBER",
    "body_html": "<p dir=\"auto\"><a class=\"user-mention notranslate\" data-hovercard-type=\"user\" data-hovercard-url=\"/users/MarcoFalke/hovercard\" data-octo-click=\"hovercard-link-click\" data-octo-dimensions=\"link_type:self\" href=\"https://github.com/MarcoFalke\">@MarcoFalke</a> That reasoning seems backwards. We identify what C++ version (and features) we can use based on the platforms we want to support. I don't mean to say that this particular change is a problem, but just because we're considering C++14 does not mean we should drop support for every platform that doesn't support every feature from C++11 or C++14.</p>\n<p dir=\"auto\">Does this mean we have now removed support for OSX 10.10 for the unit tests with this change?</p>",
    "body_text": "@MarcoFalke That reasoning seems backwards. We identify what C++ version (and features) we can use based on the platforms we want to support. I don't mean to say that this particular change is a problem, but just because we're considering C++14 does not mean we should drop support for every platform that doesn't support every feature from C++11 or C++14.\nDoes this mean we have now removed support for OSX 10.10 for the unit tests with this change?",
    "body": "@MarcoFalke That reasoning seems backwards. We identify what C++ version (and features) we can use based on the platforms we want to support. I don't mean to say that this particular change is a problem, but just because we're considering C++14 does not mean we should drop support for every platform that doesn't support every feature from C++11 or C++14.\n\nDoes this mean we have now removed support for OSX 10.10 for the unit tests with this change?",
    "reactions": {
      "url": "https://api.github.com/repos/bitcoin/bitcoin/issues/comments/447665955/reactions",
      "total_count": 0,
      "+1": 0,
      "-1": 0,
      "laugh": 0,
      "hooray": 0,
      "confused": 0,
      "heart": 0,
      "rocket": 0,
      "eyes": 0
    },
    "performed_via_github_app": null
  },
  {
    "url": "https://api.github.com/repos/bitcoin/bitcoin/issues/comments/447692615",
    "html_url": "https://github.com/bitcoin/bitcoin/pull/14953#issuecomment-447692615",
    "issue_url": "https://api.github.com/repos/bitcoin/bitcoin/issues/14953",
    "id": 447692615,
    "node_id": "MDEyOklzc3VlQ29tbWVudDQ0NzY5MjYxNQ==",
    "user": {
      "login": "maflcko",
      "id": 6399679,
      "node_id": "MDQ6VXNlcjYzOTk2Nzk=",
      "avatar_url": "https://avatars.githubusercontent.com/u/6399679?v=4",
      "gravatar_id": "",
      "url": "https://api.github.com/users/maflcko",
      "html_url": "https://github.com/maflcko",
      "followers_url": "https://api.github.com/users/maflcko/followers",
      "following_url": "https://api.github.com/users/maflcko/following{/other_user}",
      "gists_url": "https://api.github.com/users/maflcko/gists{/gist_id}",
      "starred_url": "https://api.github.com/users/maflcko/starred{/owner}{/repo}",
      "subscriptions_url": "https://api.github.com/users/maflcko/subscriptions",
      "organizations_url": "https://api.github.com/users/maflcko/orgs",
      "repos_url": "https://api.github.com/users/maflcko/repos",
      "events_url": "https://api.github.com/users/maflcko/events{/privacy}",
      "received_events_url": "https://api.github.com/users/maflcko/received_events",
      "type": "User",
      "site_admin": false
    },
    "created_at": "2018-12-17T00:50:27Z",
    "updated_at": "2018-12-17T00:50:27Z",
    "author_association": "MEMBER",
    "body_html": "<p dir=\"auto\">It would be easier to decide which C++11 (or C++14) features are acceptable to use when there was a guideline/process that defines compatibility requirements we want to achieve.</p>",
    "body_text": "It would be easier to decide which C++11 (or C++14) features are acceptable to use when there was a guideline/process that defines compatibility requirements we want to achieve.",
    "body": "It would be easier to decide which C++11 (or C++14) features are acceptable to use when there was a guideline/process that defines compatibility requirements we want to achieve.",
    "reactions": {
      "url": "https://api.github.com/repos/bitcoin/bitcoin/issues/comments/447692615/reactions",
      "total_count": 0,
      "+1": 0,
      "-1": 0,
      "laugh": 0,
      "hooray": 0,
      "confused": 0,
      "heart": 0,
      "rocket": 0,
      "eyes": 0
    },
    "performed_via_github_app": null
  },
  {
    "url": "https://api.github.com/repos/bitcoin/bitcoin/issues/comments/447872878",
    "html_url": "https://github.com/bitcoin/bitcoin/pull/14953#issuecomment-447872878",
    "issue_url": "https://api.github.com/repos/bitcoin/bitcoin/issues/14953",
    "id": 447872878,
    "node_id": "MDEyOklzc3VlQ29tbWVudDQ0Nzg3Mjg3OA==",
    "user": {
      "login": "Sjors",
      "id": 10217,
      "node_id": "MDQ6VXNlcjEwMjE3",
      "avatar_url": "https://avatars.githubusercontent.com/u/10217?v=4",
      "gravatar_id": "",
      "url": "https://api.github.com/users/Sjors",
      "html_url": "https://github.com/Sjors",
      "followers_url": "https://api.github.com/users/Sjors/followers",
      "following_url": "https://api.github.com/users/Sjors/following{/other_user}",
      "gists_url": "https://api.github.com/users/Sjors/gists{/gist_id}",
      "starred_url": "https://api.github.com/users/Sjors/starred{/owner}{/repo}",
      "subscriptions_url": "https://api.github.com/users/Sjors/subscriptions",
      "organizations_url": "https://api.github.com/users/Sjors/orgs",
      "repos_url": "https://api.github.com/users/Sjors/repos",
      "events_url": "https://api.github.com/users/Sjors/events{/privacy}",
      "received_events_url": "https://api.github.com/users/Sjors/received_events",
      "type": "User",
      "site_admin": false
    },
    "created_at": "2018-12-17T14:54:14Z",
    "updated_at": "2018-12-17T14:54:14Z",
    "author_association": "MEMBER",
    "body_html": "<blockquote>\n<p dir=\"auto\">We identify what C++ version (and features) we can use based on the platforms we want to support.</p>\n</blockquote>\n<p dir=\"auto\">It's probably a bit of both. It's easier to support older platforms if it only causes minor inconveniences.</p>\n<p dir=\"auto\">This change indeed breaks macOS 10.10 support for the unit tests. Afaik it takes a patch with an <code class=\"notranslate\">ifdef</code> to restore support for the majority of tests. <a class=\"user-mention notranslate\" data-hovercard-type=\"user\" data-hovercard-url=\"/users/jonasschnelli/hovercard\" data-octo-click=\"hovercard-link-click\" data-octo-dimensions=\"link_type:self\" href=\"https://github.com/jonasschnelli\">@jonasschnelli</a> might be able to confirm since he has VMs with older macOS versions.</p>",
    "body_text": "We identify what C++ version (and features) we can use based on the platforms we want to support.\n\nIt's probably a bit of both. It's easier to support older platforms if it only causes minor inconveniences.\nThis change indeed breaks macOS 10.10 support for the unit tests. Afaik it takes a patch with an ifdef to restore support for the majority of tests. @jonasschnelli might be able to confirm since he has VMs with older macOS versions.",
    "body": "> We identify what C++ version (and features) we can use based on the platforms we want to support.\r\n\r\nIt's probably a bit of both. It's easier to support older platforms if it only causes minor inconveniences.\r\n\r\nThis change indeed breaks macOS 10.10 support for the unit tests. Afaik it takes a patch with an `ifdef` to restore support for the majority of tests. @jonasschnelli might be able to confirm since he has VMs with older macOS versions.",
    "reactions": {
      "url": "https://api.github.com/repos/bitcoin/bitcoin/issues/comments/447872878/reactions",
      "total_count": 0,
      "+1": 0,
      "-1": 0,
      "laugh": 0,
      "hooray": 0,
      "confused": 0,
      "heart": 0,
      "rocket": 0,
      "eyes": 0
    },
    "performed_via_github_app": null
  }
]
