{
  "url": "https://api.github.com/repos/bitcoin/bitcoin/issues/2311",
  "repository_url": "https://api.github.com/repos/bitcoin/bitcoin",
  "labels_url": "https://api.github.com/repos/bitcoin/bitcoin/issues/2311/labels{/name}",
  "comments_url": "https://api.github.com/repos/bitcoin/bitcoin/issues/2311/comments",
  "events_url": "https://api.github.com/repos/bitcoin/bitcoin/issues/2311/events",
  "html_url": "https://github.com/bitcoin/bitcoin/pull/2311",
  "id": 11048834,
  "node_id": "MDExOlB1bGxSZXF1ZXN0NDE3MDE2MA==",
  "number": 2311,
  "title": "Pass compiler flags to leveldb make",
  "user": {
    "login": "gavinandresen",
    "id": 331997,
    "node_id": "MDQ6VXNlcjMzMTk5Nw==",
    "avatar_url": "https://avatars.githubusercontent.com/u/331997?v=4",
    "gravatar_id": "",
    "url": "https://api.github.com/users/gavinandresen",
    "html_url": "https://github.com/gavinandresen",
    "followers_url": "https://api.github.com/users/gavinandresen/followers",
    "following_url": "https://api.github.com/users/gavinandresen/following{/other_user}",
    "gists_url": "https://api.github.com/users/gavinandresen/gists{/gist_id}",
    "starred_url": "https://api.github.com/users/gavinandresen/starred{/owner}{/repo}",
    "subscriptions_url": "https://api.github.com/users/gavinandresen/subscriptions",
    "organizations_url": "https://api.github.com/users/gavinandresen/orgs",
    "repos_url": "https://api.github.com/users/gavinandresen/repos",
    "events_url": "https://api.github.com/users/gavinandresen/events{/privacy}",
    "received_events_url": "https://api.github.com/users/gavinandresen/received_events",
    "type": "User",
    "site_admin": false
  },
  "labels": [

  ],
  "state": "closed",
  "locked": true,
  "assignee": null,
  "assignees": [

  ],
  "milestone": null,
  "comments": 2,
  "created_at": "2013-02-15T19:30:48Z",
  "updated_at": "2021-09-08T10:19:47Z",
  "closed_at": "2013-02-18T22:31:53Z",
  "author_association": "CONTRIBUTOR",
  "active_lock_reason": "resolved",
  "draft": false,
  "pull_request": {
    "url": "https://api.github.com/repos/bitcoin/bitcoin/pulls/2311",
    "html_url": "https://github.com/bitcoin/bitcoin/pull/2311",
    "diff_url": "https://github.com/bitcoin/bitcoin/pull/2311.diff",
    "patch_url": "https://github.com/bitcoin/bitcoin/pull/2311.patch",
    "merged_at": "2013-02-18T22:31:53Z"
  },
  "body_html": "<p dir=\"auto\">Fixes issue#2288. Includes cleanups from Luke's pull 2243.</p>\n<p dir=\"auto\">Tested on OSX, Linux, and cross-compiling in gitian.</p>\n<p dir=\"auto\">\"We\" should refactor all of the common makefile code into a makefile.common, and include it from the other makefiles.  There is an odd mix of CFLAGS / CXXFLAGS / xCXXFLAGS in our makefiles.</p>",
  "body_text": "Fixes issue#2288. Includes cleanups from Luke's pull 2243.\nTested on OSX, Linux, and cross-compiling in gitian.\n\"We\" should refactor all of the common makefile code into a makefile.common, and include it from the other makefiles.  There is an odd mix of CFLAGS / CXXFLAGS / xCXXFLAGS in our makefiles.",
  "body": "Fixes issue#2288. Includes cleanups from Luke's pull 2243.\n\nTested on OSX, Linux, and cross-compiling in gitian.\n\n\"We\" should refactor all of the common makefile code into a makefile.common, and include it from the other makefiles.  There is an odd mix of CFLAGS / CXXFLAGS / xCXXFLAGS in our makefiles.\n",
  "closed_by": {
    "login": "gavinandresen",
    "id": 331997,
    "node_id": "MDQ6VXNlcjMzMTk5Nw==",
    "avatar_url": "https://avatars.githubusercontent.com/u/331997?v=4",
    "gravatar_id": "",
    "url": "https://api.github.com/users/gavinandresen",
    "html_url": "https://github.com/gavinandresen",
    "followers_url": "https://api.github.com/users/gavinandresen/followers",
    "following_url": "https://api.github.com/users/gavinandresen/following{/other_user}",
    "gists_url": "https://api.github.com/users/gavinandresen/gists{/gist_id}",
    "starred_url": "https://api.github.com/users/gavinandresen/starred{/owner}{/repo}",
    "subscriptions_url": "https://api.github.com/users/gavinandresen/subscriptions",
    "organizations_url": "https://api.github.com/users/gavinandresen/orgs",
    "repos_url": "https://api.github.com/users/gavinandresen/repos",
    "events_url": "https://api.github.com/users/gavinandresen/events{/privacy}",
    "received_events_url": "https://api.github.com/users/gavinandresen/received_events",
    "type": "User",
    "site_admin": false
  },
  "reactions": {
    "url": "https://api.github.com/repos/bitcoin/bitcoin/issues/2311/reactions",
    "total_count": 0,
    "+1": 0,
    "-1": 0,
    "laugh": 0,
    "hooray": 0,
    "confused": 0,
    "heart": 0,
    "rocket": 0,
    "eyes": 0
  },
  "timeline_url": "https://api.github.com/repos/bitcoin/bitcoin/issues/2311/timeline",
  "performed_via_github_app": null,
  "state_reason": null
}
