[
  {
    "url": "https://api.github.com/repos/bitcoin/bitcoin/issues/comments/784637543",
    "html_url": "https://github.com/bitcoin/bitcoin/pull/21286#issuecomment-784637543",
    "issue_url": "https://api.github.com/repos/bitcoin/bitcoin/issues/21286",
    "id": 784637543,
    "node_id": "MDEyOklzc3VlQ29tbWVudDc4NDYzNzU0Mw==",
    "user": {
      "login": "DrahtBot",
      "id": 39886733,
      "node_id": "MDQ6VXNlcjM5ODg2NzMz",
      "avatar_url": "https://avatars.githubusercontent.com/u/39886733?v=4",
      "gravatar_id": "",
      "url": "https://api.github.com/users/DrahtBot",
      "html_url": "https://github.com/DrahtBot",
      "followers_url": "https://api.github.com/users/DrahtBot/followers",
      "following_url": "https://api.github.com/users/DrahtBot/following{/other_user}",
      "gists_url": "https://api.github.com/users/DrahtBot/gists{/gist_id}",
      "starred_url": "https://api.github.com/users/DrahtBot/starred{/owner}{/repo}",
      "subscriptions_url": "https://api.github.com/users/DrahtBot/subscriptions",
      "organizations_url": "https://api.github.com/users/DrahtBot/orgs",
      "repos_url": "https://api.github.com/users/DrahtBot/repos",
      "events_url": "https://api.github.com/users/DrahtBot/events{/privacy}",
      "received_events_url": "https://api.github.com/users/DrahtBot/received_events",
      "type": "User",
      "site_admin": false
    },
    "created_at": "2021-02-24T00:34:25Z",
    "updated_at": "2021-02-24T00:34:25Z",
    "author_association": "CONTRIBUTOR",
    "body_html": "\n<p dir=\"auto\">The following sections might be updated with supplementary metadata relevant to reviewers and maintainers.</p>\n\n<h3 dir=\"auto\">Conflicts</h3>\n<p dir=\"auto\">Reviewers, this pull request conflicts with the following ones:</p>\n<ul dir=\"auto\">\n<li><a class=\"issue-link js-issue-link\" data-error-text=\"Failed to load title\" data-id=\"511332363\" data-permission-text=\"Title is private\" data-url=\"https://github.com/bitcoin/bitcoin/issues/17227\" data-hovercard-type=\"pull_request\" data-hovercard-url=\"/bitcoin/bitcoin/pull/17227/hovercard\" href=\"https://github.com/bitcoin/bitcoin/pull/17227\">#17227</a> (Qt: Add Android packaging support by icota)</li>\n</ul>\n<p dir=\"auto\">If you consider this pull request important, please also help to review the conflicting pull requests. Ideally, start with the one that should be merged first.</p>",
    "body_text": "The following sections might be updated with supplementary metadata relevant to reviewers and maintainers.\n\nConflicts\nReviewers, this pull request conflicts with the following ones:\n\n#17227 (Qt: Add Android packaging support by icota)\n\nIf you consider this pull request important, please also help to review the conflicting pull requests. Ideally, start with the one that should be merged first.",
    "body": "<!--e57a25ab6845829454e8d69fc972939a-->\n\nThe following sections might be updated with supplementary metadata relevant to reviewers and maintainers.\n\n<!--174a7506f384e20aa4161008e828411d-->\n### Conflicts\nReviewers, this pull request conflicts with the following ones:\n\n* #17227 (Qt: Add Android packaging support by icota)\n\nIf you consider this pull request important, please also help to review the conflicting pull requests. Ideally, start with the one that should be merged first.",
    "reactions": {
      "url": "https://api.github.com/repos/bitcoin/bitcoin/issues/comments/784637543/reactions",
      "total_count": 0,
      "+1": 0,
      "-1": 0,
      "laugh": 0,
      "hooray": 0,
      "confused": 0,
      "heart": 0,
      "rocket": 0,
      "eyes": 0
    },
    "performed_via_github_app": null
  },
  {
    "url": "https://api.github.com/repos/bitcoin/bitcoin/issues/comments/786540271",
    "html_url": "https://github.com/bitcoin/bitcoin/pull/21286#issuecomment-786540271",
    "issue_url": "https://api.github.com/repos/bitcoin/bitcoin/issues/21286",
    "id": 786540271,
    "node_id": "MDEyOklzc3VlQ29tbWVudDc4NjU0MDI3MQ==",
    "user": {
      "login": "laanwj",
      "id": 126646,
      "node_id": "MDQ6VXNlcjEyNjY0Ng==",
      "avatar_url": "https://avatars.githubusercontent.com/u/126646?v=4",
      "gravatar_id": "",
      "url": "https://api.github.com/users/laanwj",
      "html_url": "https://github.com/laanwj",
      "followers_url": "https://api.github.com/users/laanwj/followers",
      "following_url": "https://api.github.com/users/laanwj/following{/other_user}",
      "gists_url": "https://api.github.com/users/laanwj/gists{/gist_id}",
      "starred_url": "https://api.github.com/users/laanwj/starred{/owner}{/repo}",
      "subscriptions_url": "https://api.github.com/users/laanwj/subscriptions",
      "organizations_url": "https://api.github.com/users/laanwj/orgs",
      "repos_url": "https://api.github.com/users/laanwj/repos",
      "events_url": "https://api.github.com/users/laanwj/events{/privacy}",
      "received_events_url": "https://api.github.com/users/laanwj/received_events",
      "type": "User",
      "site_admin": false
    },
    "created_at": "2021-02-26T09:55:52Z",
    "updated_at": "2021-02-26T09:56:17Z",
    "author_association": "MEMBER",
    "body_html": "<p dir=\"auto\">Code review ACK <a class=\"commit-link\" data-hovercard-type=\"commit\" data-hovercard-url=\"https://github.com/bitcoin/bitcoin/commit/faa06ecc9c357428f3fa7a8f86b41b1220809951/hovercard\" href=\"https://github.com/bitcoin/bitcoin/commit/faa06ecc9c357428f3fa7a8f86b41b1220809951\"><tt>faa06ec</tt></a></p>",
    "body_text": "Code review ACK faa06ec",
    "body": "Code review ACK faa06ecc9c357428f3fa7a8f86b41b1220809951",
    "reactions": {
      "url": "https://api.github.com/repos/bitcoin/bitcoin/issues/comments/786540271/reactions",
      "total_count": 1,
      "+1": 0,
      "-1": 0,
      "laugh": 0,
      "hooray": 0,
      "confused": 0,
      "heart": 1,
      "rocket": 0,
      "eyes": 0
    },
    "performed_via_github_app": null
  },
  {
    "url": "https://api.github.com/repos/bitcoin/bitcoin/issues/comments/786792783",
    "html_url": "https://github.com/bitcoin/bitcoin/pull/21286#issuecomment-786792783",
    "issue_url": "https://api.github.com/repos/bitcoin/bitcoin/issues/21286",
    "id": 786792783,
    "node_id": "MDEyOklzc3VlQ29tbWVudDc4Njc5Mjc4Mw==",
    "user": {
      "login": "DrahtBot",
      "id": 39886733,
      "node_id": "MDQ6VXNlcjM5ODg2NzMz",
      "avatar_url": "https://avatars.githubusercontent.com/u/39886733?v=4",
      "gravatar_id": "",
      "url": "https://api.github.com/users/DrahtBot",
      "html_url": "https://github.com/DrahtBot",
      "followers_url": "https://api.github.com/users/DrahtBot/followers",
      "following_url": "https://api.github.com/users/DrahtBot/following{/other_user}",
      "gists_url": "https://api.github.com/users/DrahtBot/gists{/gist_id}",
      "starred_url": "https://api.github.com/users/DrahtBot/starred{/owner}{/repo}",
      "subscriptions_url": "https://api.github.com/users/DrahtBot/subscriptions",
      "organizations_url": "https://api.github.com/users/DrahtBot/orgs",
      "repos_url": "https://api.github.com/users/DrahtBot/repos",
      "events_url": "https://api.github.com/users/DrahtBot/events{/privacy}",
      "received_events_url": "https://api.github.com/users/DrahtBot/received_events",
      "type": "User",
      "site_admin": false
    },
    "created_at": "2021-02-26T17:41:35Z",
    "updated_at": "2021-02-26T17:41:35Z",
    "author_association": "CONTRIBUTOR",
    "body_html": "\n<h3 dir=\"auto\">Gitian builds</h3>\n<table role=\"table\">\n<thead>\n<tr>\n<th>File</th>\n<th>commit <a class=\"commit-link\" data-hovercard-type=\"commit\" data-hovercard-url=\"https://github.com/bitcoin/bitcoin/commit/e49117470b77fb7d53be122c6490ba163c6e304d/hovercard\" href=\"https://github.com/bitcoin/bitcoin/commit/e49117470b77fb7d53be122c6490ba163c6e304d\"><tt>e491174</tt></a><br>(master)</th>\n<th>commit <a class=\"commit-link\" data-hovercard-type=\"commit\" data-hovercard-url=\"https://github.com/bitcoin/bitcoin/commit/0f05fa987196a9900d4cd2b96f8a03e7a777cdcf/hovercard\" href=\"https://github.com/bitcoin/bitcoin/commit/0f05fa987196a9900d4cd2b96f8a03e7a777cdcf\"><tt>0f05fa9</tt></a><br>(master and this pull)</th>\n</tr>\n</thead>\n<tbody>\n<tr>\n<td>bitcoin-core-linux-22-res.yml</td>\n<td><a href=\"https://drahtbot.space/gitian/bitcoin/bitcoin/e49117470b77fb7d53be122c6490ba163c6e304d/bitcoin-core-linux-22-res.yml\" rel=\"nofollow\"><code class=\"notranslate\">b9850adaf9f27982...</code></a></td>\n<td><a href=\"https://drahtbot.space/gitian/bitcoin/bitcoin/0f05fa987196a9900d4cd2b96f8a03e7a777cdcf/bitcoin-core-linux-22-res.yml\" rel=\"nofollow\"><code class=\"notranslate\">4092722e289ea6a1...</code></a></td>\n</tr>\n<tr>\n<td>bitcoin-core-osx-22-res.yml</td>\n<td><a href=\"https://drahtbot.space/gitian/bitcoin/bitcoin/e49117470b77fb7d53be122c6490ba163c6e304d/bitcoin-core-osx-22-res.yml\" rel=\"nofollow\"><code class=\"notranslate\">8f4c8e3ecd95fdb4...</code></a></td>\n<td><a href=\"https://drahtbot.space/gitian/bitcoin/bitcoin/0f05fa987196a9900d4cd2b96f8a03e7a777cdcf/bitcoin-core-osx-22-res.yml\" rel=\"nofollow\"><code class=\"notranslate\">df6b606aeb399dff...</code></a></td>\n</tr>\n<tr>\n<td>bitcoin-core-win-22-res.yml</td>\n<td><a href=\"https://drahtbot.space/gitian/bitcoin/bitcoin/e49117470b77fb7d53be122c6490ba163c6e304d/bitcoin-core-win-22-res.yml\" rel=\"nofollow\"><code class=\"notranslate\">59bb108c34ab3b30...</code></a></td>\n<td><a href=\"https://drahtbot.space/gitian/bitcoin/bitcoin/0f05fa987196a9900d4cd2b96f8a03e7a777cdcf/bitcoin-core-win-22-res.yml\" rel=\"nofollow\"><code class=\"notranslate\">d568f227691a9f18...</code></a></td>\n</tr>\n<tr>\n<td>*-aarch64-linux-gnu-debug.tar.gz</td>\n<td><a href=\"https://drahtbot.space/gitian/bitcoin/bitcoin/e49117470b77fb7d53be122c6490ba163c6e304d/bitcoin-e49117470b77-aarch64-linux-gnu-debug.tar.gz\" rel=\"nofollow\"><code class=\"notranslate\">2f8c5e874767048e...</code></a></td>\n<td><a href=\"https://drahtbot.space/gitian/bitcoin/bitcoin/0f05fa987196a9900d4cd2b96f8a03e7a777cdcf/bitcoin-0f05fa987196-aarch64-linux-gnu-debug.tar.gz\" rel=\"nofollow\"><code class=\"notranslate\">ee5a5b156a968447...</code></a></td>\n</tr>\n<tr>\n<td>*-aarch64-linux-gnu.tar.gz</td>\n<td><a href=\"https://drahtbot.space/gitian/bitcoin/bitcoin/e49117470b77fb7d53be122c6490ba163c6e304d/bitcoin-e49117470b77-aarch64-linux-gnu.tar.gz\" rel=\"nofollow\"><code class=\"notranslate\">3f458d5458ca7473...</code></a></td>\n<td><a href=\"https://drahtbot.space/gitian/bitcoin/bitcoin/0f05fa987196a9900d4cd2b96f8a03e7a777cdcf/bitcoin-0f05fa987196-aarch64-linux-gnu.tar.gz\" rel=\"nofollow\"><code class=\"notranslate\">77b0dcdad4974a51...</code></a></td>\n</tr>\n<tr>\n<td>*-arm-linux-gnueabihf-debug.tar.gz</td>\n<td><a href=\"https://drahtbot.space/gitian/bitcoin/bitcoin/e49117470b77fb7d53be122c6490ba163c6e304d/bitcoin-e49117470b77-arm-linux-gnueabihf-debug.tar.gz\" rel=\"nofollow\"><code class=\"notranslate\">050351b02e3cc5f3...</code></a></td>\n<td><a href=\"https://drahtbot.space/gitian/bitcoin/bitcoin/0f05fa987196a9900d4cd2b96f8a03e7a777cdcf/bitcoin-0f05fa987196-arm-linux-gnueabihf-debug.tar.gz\" rel=\"nofollow\"><code class=\"notranslate\">a74cfa08281ee995...</code></a></td>\n</tr>\n<tr>\n<td>*-arm-linux-gnueabihf.tar.gz</td>\n<td><a href=\"https://drahtbot.space/gitian/bitcoin/bitcoin/e49117470b77fb7d53be122c6490ba163c6e304d/bitcoin-e49117470b77-arm-linux-gnueabihf.tar.gz\" rel=\"nofollow\"><code class=\"notranslate\">13fc85186764f69e...</code></a></td>\n<td><a href=\"https://drahtbot.space/gitian/bitcoin/bitcoin/0f05fa987196a9900d4cd2b96f8a03e7a777cdcf/bitcoin-0f05fa987196-arm-linux-gnueabihf.tar.gz\" rel=\"nofollow\"><code class=\"notranslate\">dc56d1c14a76272a...</code></a></td>\n</tr>\n<tr>\n<td>*-osx-unsigned.dmg</td>\n<td><a href=\"https://drahtbot.space/gitian/bitcoin/bitcoin/e49117470b77fb7d53be122c6490ba163c6e304d/bitcoin-e49117470b77-osx-unsigned.dmg\" rel=\"nofollow\"><code class=\"notranslate\">fd9e494a5e930369...</code></a></td>\n<td><a href=\"https://drahtbot.space/gitian/bitcoin/bitcoin/0f05fa987196a9900d4cd2b96f8a03e7a777cdcf/bitcoin-0f05fa987196-osx-unsigned.dmg\" rel=\"nofollow\"><code class=\"notranslate\">39559f21bd7075fd...</code></a></td>\n</tr>\n<tr>\n<td>*-osx64.tar.gz</td>\n<td><a href=\"https://drahtbot.space/gitian/bitcoin/bitcoin/e49117470b77fb7d53be122c6490ba163c6e304d/bitcoin-e49117470b77-osx64.tar.gz\" rel=\"nofollow\"><code class=\"notranslate\">e6ee47f0a3afa9bb...</code></a></td>\n<td><a href=\"https://drahtbot.space/gitian/bitcoin/bitcoin/0f05fa987196a9900d4cd2b96f8a03e7a777cdcf/bitcoin-0f05fa987196-osx64.tar.gz\" rel=\"nofollow\"><code class=\"notranslate\">e8eae1f6180a1aad...</code></a></td>\n</tr>\n<tr>\n<td>*-powerpc64-linux-gnu-debug.tar.gz</td>\n<td><a href=\"https://drahtbot.space/gitian/bitcoin/bitcoin/e49117470b77fb7d53be122c6490ba163c6e304d/bitcoin-e49117470b77-powerpc64-linux-gnu-debug.tar.gz\" rel=\"nofollow\"><code class=\"notranslate\">306a8e93142d7513...</code></a></td>\n<td><a href=\"https://drahtbot.space/gitian/bitcoin/bitcoin/0f05fa987196a9900d4cd2b96f8a03e7a777cdcf/bitcoin-0f05fa987196-powerpc64-linux-gnu-debug.tar.gz\" rel=\"nofollow\"><code class=\"notranslate\">856a72d78acb628f...</code></a></td>\n</tr>\n<tr>\n<td>*-powerpc64-linux-gnu.tar.gz</td>\n<td><a href=\"https://drahtbot.space/gitian/bitcoin/bitcoin/e49117470b77fb7d53be122c6490ba163c6e304d/bitcoin-e49117470b77-powerpc64-linux-gnu.tar.gz\" rel=\"nofollow\"><code class=\"notranslate\">805c27ed96afe625...</code></a></td>\n<td><a href=\"https://drahtbot.space/gitian/bitcoin/bitcoin/0f05fa987196a9900d4cd2b96f8a03e7a777cdcf/bitcoin-0f05fa987196-powerpc64-linux-gnu.tar.gz\" rel=\"nofollow\"><code class=\"notranslate\">0381efa3bd4527f0...</code></a></td>\n</tr>\n<tr>\n<td>*-powerpc64le-linux-gnu-debug.tar.gz</td>\n<td><a href=\"https://drahtbot.space/gitian/bitcoin/bitcoin/e49117470b77fb7d53be122c6490ba163c6e304d/bitcoin-e49117470b77-powerpc64le-linux-gnu-debug.tar.gz\" rel=\"nofollow\"><code class=\"notranslate\">5fc166a2ae1460c1...</code></a></td>\n<td><a href=\"https://drahtbot.space/gitian/bitcoin/bitcoin/0f05fa987196a9900d4cd2b96f8a03e7a777cdcf/bitcoin-0f05fa987196-powerpc64le-linux-gnu-debug.tar.gz\" rel=\"nofollow\"><code class=\"notranslate\">60418bf10d2e491d...</code></a></td>\n</tr>\n<tr>\n<td>*-powerpc64le-linux-gnu.tar.gz</td>\n<td><a href=\"https://drahtbot.space/gitian/bitcoin/bitcoin/e49117470b77fb7d53be122c6490ba163c6e304d/bitcoin-e49117470b77-powerpc64le-linux-gnu.tar.gz\" rel=\"nofollow\"><code class=\"notranslate\">3c625482160d6dcb...</code></a></td>\n<td><a href=\"https://drahtbot.space/gitian/bitcoin/bitcoin/0f05fa987196a9900d4cd2b96f8a03e7a777cdcf/bitcoin-0f05fa987196-powerpc64le-linux-gnu.tar.gz\" rel=\"nofollow\"><code class=\"notranslate\">886b4db2e26bb4cb...</code></a></td>\n</tr>\n<tr>\n<td>*-riscv64-linux-gnu-debug.tar.gz</td>\n<td><a href=\"https://drahtbot.space/gitian/bitcoin/bitcoin/e49117470b77fb7d53be122c6490ba163c6e304d/bitcoin-e49117470b77-riscv64-linux-gnu-debug.tar.gz\" rel=\"nofollow\"><code class=\"notranslate\">8c04cc3cd05fc965...</code></a></td>\n<td><a href=\"https://drahtbot.space/gitian/bitcoin/bitcoin/0f05fa987196a9900d4cd2b96f8a03e7a777cdcf/bitcoin-0f05fa987196-riscv64-linux-gnu-debug.tar.gz\" rel=\"nofollow\"><code class=\"notranslate\">b75a14c0dcacab2f...</code></a></td>\n</tr>\n<tr>\n<td>*-riscv64-linux-gnu.tar.gz</td>\n<td><a href=\"https://drahtbot.space/gitian/bitcoin/bitcoin/e49117470b77fb7d53be122c6490ba163c6e304d/bitcoin-e49117470b77-riscv64-linux-gnu.tar.gz\" rel=\"nofollow\"><code class=\"notranslate\">68917240c47f8df4...</code></a></td>\n<td><a href=\"https://drahtbot.space/gitian/bitcoin/bitcoin/0f05fa987196a9900d4cd2b96f8a03e7a777cdcf/bitcoin-0f05fa987196-riscv64-linux-gnu.tar.gz\" rel=\"nofollow\"><code class=\"notranslate\">c817254c9766e77a...</code></a></td>\n</tr>\n<tr>\n<td>*-win64-debug.zip</td>\n<td><a href=\"https://drahtbot.space/gitian/bitcoin/bitcoin/e49117470b77fb7d53be122c6490ba163c6e304d/bitcoin-e49117470b77-win64-debug.zip\" rel=\"nofollow\"><code class=\"notranslate\">4b9e9ab881581e9a...</code></a></td>\n<td><a href=\"https://drahtbot.space/gitian/bitcoin/bitcoin/0f05fa987196a9900d4cd2b96f8a03e7a777cdcf/bitcoin-0f05fa987196-win64-debug.zip\" rel=\"nofollow\"><code class=\"notranslate\">cb0167212732a7d5...</code></a></td>\n</tr>\n<tr>\n<td>*-win64-setup-unsigned.exe</td>\n<td><a href=\"https://drahtbot.space/gitian/bitcoin/bitcoin/e49117470b77fb7d53be122c6490ba163c6e304d/bitcoin-e49117470b77-win64-setup-unsigned.exe\" rel=\"nofollow\"><code class=\"notranslate\">bc114ee020582a81...</code></a></td>\n<td><a href=\"https://drahtbot.space/gitian/bitcoin/bitcoin/0f05fa987196a9900d4cd2b96f8a03e7a777cdcf/bitcoin-0f05fa987196-win64-setup-unsigned.exe\" rel=\"nofollow\"><code class=\"notranslate\">f93ac7f7ee129572...</code></a></td>\n</tr>\n<tr>\n<td>*-win64.zip</td>\n<td><a href=\"https://drahtbot.space/gitian/bitcoin/bitcoin/e49117470b77fb7d53be122c6490ba163c6e304d/bitcoin-e49117470b77-win64.zip\" rel=\"nofollow\"><code class=\"notranslate\">98ad412d7173db47...</code></a></td>\n<td><a href=\"https://drahtbot.space/gitian/bitcoin/bitcoin/0f05fa987196a9900d4cd2b96f8a03e7a777cdcf/bitcoin-0f05fa987196-win64.zip\" rel=\"nofollow\"><code class=\"notranslate\">03356ce9b99d3564...</code></a></td>\n</tr>\n<tr>\n<td>*-x86_64-linux-gnu-debug.tar.gz</td>\n<td><a href=\"https://drahtbot.space/gitian/bitcoin/bitcoin/e49117470b77fb7d53be122c6490ba163c6e304d/bitcoin-e49117470b77-x86_64-linux-gnu-debug.tar.gz\" rel=\"nofollow\"><code class=\"notranslate\">dfaed490268534e6...</code></a></td>\n<td><a href=\"https://drahtbot.space/gitian/bitcoin/bitcoin/0f05fa987196a9900d4cd2b96f8a03e7a777cdcf/bitcoin-0f05fa987196-x86_64-linux-gnu-debug.tar.gz\" rel=\"nofollow\"><code class=\"notranslate\">2286a52dbf817b05...</code></a></td>\n</tr>\n<tr>\n<td>*-x86_64-linux-gnu.tar.gz</td>\n<td><a href=\"https://drahtbot.space/gitian/bitcoin/bitcoin/e49117470b77fb7d53be122c6490ba163c6e304d/bitcoin-e49117470b77-x86_64-linux-gnu.tar.gz\" rel=\"nofollow\"><code class=\"notranslate\">c3073d99069a38d5...</code></a></td>\n<td><a href=\"https://drahtbot.space/gitian/bitcoin/bitcoin/0f05fa987196a9900d4cd2b96f8a03e7a777cdcf/bitcoin-0f05fa987196-x86_64-linux-gnu.tar.gz\" rel=\"nofollow\"><code class=\"notranslate\">3fac69d3590960f1...</code></a></td>\n</tr>\n<tr>\n<td>*.tar.gz</td>\n<td><a href=\"https://drahtbot.space/gitian/bitcoin/bitcoin/e49117470b77fb7d53be122c6490ba163c6e304d/bitcoin-e49117470b77.tar.gz\" rel=\"nofollow\"><code class=\"notranslate\">7de28abb89c8d5e0...</code></a></td>\n<td><a href=\"https://drahtbot.space/gitian/bitcoin/bitcoin/0f05fa987196a9900d4cd2b96f8a03e7a777cdcf/bitcoin-0f05fa987196.tar.gz\" rel=\"nofollow\"><code class=\"notranslate\">f387a081b3e63f02...</code></a></td>\n</tr>\n<tr>\n<td>linux-build.log</td>\n<td><a href=\"https://drahtbot.space/gitian/bitcoin/bitcoin/e49117470b77fb7d53be122c6490ba163c6e304d/linux-build.log\" rel=\"nofollow\"><code class=\"notranslate\">66532e7c9f4900c1...</code></a></td>\n<td><a href=\"https://drahtbot.space/gitian/bitcoin/bitcoin/0f05fa987196a9900d4cd2b96f8a03e7a777cdcf/linux-build.log\" rel=\"nofollow\"><code class=\"notranslate\">cb055812c36f3cfe...</code></a></td>\n</tr>\n<tr>\n<td>osx-build.log</td>\n<td><a href=\"https://drahtbot.space/gitian/bitcoin/bitcoin/e49117470b77fb7d53be122c6490ba163c6e304d/osx-build.log\" rel=\"nofollow\"><code class=\"notranslate\">563ba182fefab33c...</code></a></td>\n<td><a href=\"https://drahtbot.space/gitian/bitcoin/bitcoin/0f05fa987196a9900d4cd2b96f8a03e7a777cdcf/osx-build.log\" rel=\"nofollow\"><code class=\"notranslate\">d1fc44b82b46f37b...</code></a></td>\n</tr>\n<tr>\n<td>win-build.log</td>\n<td><a href=\"https://drahtbot.space/gitian/bitcoin/bitcoin/e49117470b77fb7d53be122c6490ba163c6e304d/win-build.log\" rel=\"nofollow\"><code class=\"notranslate\">9ce23f7489c3448d...</code></a></td>\n<td><a href=\"https://drahtbot.space/gitian/bitcoin/bitcoin/0f05fa987196a9900d4cd2b96f8a03e7a777cdcf/win-build.log\" rel=\"nofollow\"><code class=\"notranslate\">4ac6e85c204b9bfa...</code></a></td>\n</tr>\n<tr>\n<td>bitcoin-core-linux-22-res.yml.diff</td>\n<td></td>\n<td><a href=\"https://drahtbot.space/gitian/bitcoin/bitcoin/0f05fa987196a9900d4cd2b96f8a03e7a777cdcf/bitcoin-core-linux-22-res.yml.diff\" rel=\"nofollow\"><code class=\"notranslate\">3598035eeadeb1c5...</code></a></td>\n</tr>\n<tr>\n<td>bitcoin-core-osx-22-res.yml.diff</td>\n<td></td>\n<td><a href=\"https://drahtbot.space/gitian/bitcoin/bitcoin/0f05fa987196a9900d4cd2b96f8a03e7a777cdcf/bitcoin-core-osx-22-res.yml.diff\" rel=\"nofollow\"><code class=\"notranslate\">fedcc1c833a73a43...</code></a></td>\n</tr>\n<tr>\n<td>bitcoin-core-win-22-res.yml.diff</td>\n<td></td>\n<td><a href=\"https://drahtbot.space/gitian/bitcoin/bitcoin/0f05fa987196a9900d4cd2b96f8a03e7a777cdcf/bitcoin-core-win-22-res.yml.diff\" rel=\"nofollow\"><code class=\"notranslate\">72bc170dd5c99283...</code></a></td>\n</tr>\n<tr>\n<td>linux-build.log.diff</td>\n<td></td>\n<td><a href=\"https://drahtbot.space/gitian/bitcoin/bitcoin/0f05fa987196a9900d4cd2b96f8a03e7a777cdcf/linux-build.log.diff\" rel=\"nofollow\"><code class=\"notranslate\">c78430ab322635d0...</code></a></td>\n</tr>\n<tr>\n<td>osx-build.log.diff</td>\n<td></td>\n<td><a href=\"https://drahtbot.space/gitian/bitcoin/bitcoin/0f05fa987196a9900d4cd2b96f8a03e7a777cdcf/osx-build.log.diff\" rel=\"nofollow\"><code class=\"notranslate\">8abaa19bac5ca3ac...</code></a></td>\n</tr>\n<tr>\n<td>win-build.log.diff</td>\n<td></td>\n<td><a href=\"https://drahtbot.space/gitian/bitcoin/bitcoin/0f05fa987196a9900d4cd2b96f8a03e7a777cdcf/win-build.log.diff\" rel=\"nofollow\"><code class=\"notranslate\">7ea7163905fb4926...</code></a></td>\n</tr>\n</tbody>\n</table>",
    "body_text": "Gitian builds\n\n\n\nFile\ncommit e491174(master)\ncommit 0f05fa9(master and this pull)\n\n\n\n\nbitcoin-core-linux-22-res.yml\nb9850adaf9f27982...\n4092722e289ea6a1...\n\n\nbitcoin-core-osx-22-res.yml\n8f4c8e3ecd95fdb4...\ndf6b606aeb399dff...\n\n\nbitcoin-core-win-22-res.yml\n59bb108c34ab3b30...\nd568f227691a9f18...\n\n\n*-aarch64-linux-gnu-debug.tar.gz\n2f8c5e874767048e...\nee5a5b156a968447...\n\n\n*-aarch64-linux-gnu.tar.gz\n3f458d5458ca7473...\n77b0dcdad4974a51...\n\n\n*-arm-linux-gnueabihf-debug.tar.gz\n050351b02e3cc5f3...\na74cfa08281ee995...\n\n\n*-arm-linux-gnueabihf.tar.gz\n13fc85186764f69e...\ndc56d1c14a76272a...\n\n\n*-osx-unsigned.dmg\nfd9e494a5e930369...\n39559f21bd7075fd...\n\n\n*-osx64.tar.gz\ne6ee47f0a3afa9bb...\ne8eae1f6180a1aad...\n\n\n*-powerpc64-linux-gnu-debug.tar.gz\n306a8e93142d7513...\n856a72d78acb628f...\n\n\n*-powerpc64-linux-gnu.tar.gz\n805c27ed96afe625...\n0381efa3bd4527f0...\n\n\n*-powerpc64le-linux-gnu-debug.tar.gz\n5fc166a2ae1460c1...\n60418bf10d2e491d...\n\n\n*-powerpc64le-linux-gnu.tar.gz\n3c625482160d6dcb...\n886b4db2e26bb4cb...\n\n\n*-riscv64-linux-gnu-debug.tar.gz\n8c04cc3cd05fc965...\nb75a14c0dcacab2f...\n\n\n*-riscv64-linux-gnu.tar.gz\n68917240c47f8df4...\nc817254c9766e77a...\n\n\n*-win64-debug.zip\n4b9e9ab881581e9a...\ncb0167212732a7d5...\n\n\n*-win64-setup-unsigned.exe\nbc114ee020582a81...\nf93ac7f7ee129572...\n\n\n*-win64.zip\n98ad412d7173db47...\n03356ce9b99d3564...\n\n\n*-x86_64-linux-gnu-debug.tar.gz\ndfaed490268534e6...\n2286a52dbf817b05...\n\n\n*-x86_64-linux-gnu.tar.gz\nc3073d99069a38d5...\n3fac69d3590960f1...\n\n\n*.tar.gz\n7de28abb89c8d5e0...\nf387a081b3e63f02...\n\n\nlinux-build.log\n66532e7c9f4900c1...\ncb055812c36f3cfe...\n\n\nosx-build.log\n563ba182fefab33c...\nd1fc44b82b46f37b...\n\n\nwin-build.log\n9ce23f7489c3448d...\n4ac6e85c204b9bfa...\n\n\nbitcoin-core-linux-22-res.yml.diff\n\n3598035eeadeb1c5...\n\n\nbitcoin-core-osx-22-res.yml.diff\n\nfedcc1c833a73a43...\n\n\nbitcoin-core-win-22-res.yml.diff\n\n72bc170dd5c99283...\n\n\nlinux-build.log.diff\n\nc78430ab322635d0...\n\n\nosx-build.log.diff\n\n8abaa19bac5ca3ac...\n\n\nwin-build.log.diff\n\n7ea7163905fb4926...",
    "body": "<!--a722867cd34abeea1fadc8d60700f111-->\n### Gitian builds\n\n| File | commit e49117470b77fb7d53be122c6490ba163c6e304d<br>(master) | commit 0f05fa987196a9900d4cd2b96f8a03e7a777cdcf<br>(master and this pull) |\n|--|--|--|\n| bitcoin-core-linux-22-res.yml | [`b9850adaf9f27982...`](https://drahtbot.space/gitian/bitcoin/bitcoin/e49117470b77fb7d53be122c6490ba163c6e304d/bitcoin-core-linux-22-res.yml) | [`4092722e289ea6a1...`](https://drahtbot.space/gitian/bitcoin/bitcoin/0f05fa987196a9900d4cd2b96f8a03e7a777cdcf/bitcoin-core-linux-22-res.yml) |\n| bitcoin-core-osx-22-res.yml | [`8f4c8e3ecd95fdb4...`](https://drahtbot.space/gitian/bitcoin/bitcoin/e49117470b77fb7d53be122c6490ba163c6e304d/bitcoin-core-osx-22-res.yml) | [`df6b606aeb399dff...`](https://drahtbot.space/gitian/bitcoin/bitcoin/0f05fa987196a9900d4cd2b96f8a03e7a777cdcf/bitcoin-core-osx-22-res.yml) |\n| bitcoin-core-win-22-res.yml | [`59bb108c34ab3b30...`](https://drahtbot.space/gitian/bitcoin/bitcoin/e49117470b77fb7d53be122c6490ba163c6e304d/bitcoin-core-win-22-res.yml) | [`d568f227691a9f18...`](https://drahtbot.space/gitian/bitcoin/bitcoin/0f05fa987196a9900d4cd2b96f8a03e7a777cdcf/bitcoin-core-win-22-res.yml) |\n| *-aarch64-linux-gnu-debug.tar.gz | [`2f8c5e874767048e...`](https://drahtbot.space/gitian/bitcoin/bitcoin/e49117470b77fb7d53be122c6490ba163c6e304d/bitcoin-e49117470b77-aarch64-linux-gnu-debug.tar.gz) | [`ee5a5b156a968447...`](https://drahtbot.space/gitian/bitcoin/bitcoin/0f05fa987196a9900d4cd2b96f8a03e7a777cdcf/bitcoin-0f05fa987196-aarch64-linux-gnu-debug.tar.gz) |\n| *-aarch64-linux-gnu.tar.gz | [`3f458d5458ca7473...`](https://drahtbot.space/gitian/bitcoin/bitcoin/e49117470b77fb7d53be122c6490ba163c6e304d/bitcoin-e49117470b77-aarch64-linux-gnu.tar.gz) | [`77b0dcdad4974a51...`](https://drahtbot.space/gitian/bitcoin/bitcoin/0f05fa987196a9900d4cd2b96f8a03e7a777cdcf/bitcoin-0f05fa987196-aarch64-linux-gnu.tar.gz) |\n| *-arm-linux-gnueabihf-debug.tar.gz | [`050351b02e3cc5f3...`](https://drahtbot.space/gitian/bitcoin/bitcoin/e49117470b77fb7d53be122c6490ba163c6e304d/bitcoin-e49117470b77-arm-linux-gnueabihf-debug.tar.gz) | [`a74cfa08281ee995...`](https://drahtbot.space/gitian/bitcoin/bitcoin/0f05fa987196a9900d4cd2b96f8a03e7a777cdcf/bitcoin-0f05fa987196-arm-linux-gnueabihf-debug.tar.gz) |\n| *-arm-linux-gnueabihf.tar.gz | [`13fc85186764f69e...`](https://drahtbot.space/gitian/bitcoin/bitcoin/e49117470b77fb7d53be122c6490ba163c6e304d/bitcoin-e49117470b77-arm-linux-gnueabihf.tar.gz) | [`dc56d1c14a76272a...`](https://drahtbot.space/gitian/bitcoin/bitcoin/0f05fa987196a9900d4cd2b96f8a03e7a777cdcf/bitcoin-0f05fa987196-arm-linux-gnueabihf.tar.gz) |\n| *-osx-unsigned.dmg | [`fd9e494a5e930369...`](https://drahtbot.space/gitian/bitcoin/bitcoin/e49117470b77fb7d53be122c6490ba163c6e304d/bitcoin-e49117470b77-osx-unsigned.dmg) | [`39559f21bd7075fd...`](https://drahtbot.space/gitian/bitcoin/bitcoin/0f05fa987196a9900d4cd2b96f8a03e7a777cdcf/bitcoin-0f05fa987196-osx-unsigned.dmg) |\n| *-osx64.tar.gz | [`e6ee47f0a3afa9bb...`](https://drahtbot.space/gitian/bitcoin/bitcoin/e49117470b77fb7d53be122c6490ba163c6e304d/bitcoin-e49117470b77-osx64.tar.gz) | [`e8eae1f6180a1aad...`](https://drahtbot.space/gitian/bitcoin/bitcoin/0f05fa987196a9900d4cd2b96f8a03e7a777cdcf/bitcoin-0f05fa987196-osx64.tar.gz) |\n| *-powerpc64-linux-gnu-debug.tar.gz | [`306a8e93142d7513...`](https://drahtbot.space/gitian/bitcoin/bitcoin/e49117470b77fb7d53be122c6490ba163c6e304d/bitcoin-e49117470b77-powerpc64-linux-gnu-debug.tar.gz) | [`856a72d78acb628f...`](https://drahtbot.space/gitian/bitcoin/bitcoin/0f05fa987196a9900d4cd2b96f8a03e7a777cdcf/bitcoin-0f05fa987196-powerpc64-linux-gnu-debug.tar.gz) |\n| *-powerpc64-linux-gnu.tar.gz | [`805c27ed96afe625...`](https://drahtbot.space/gitian/bitcoin/bitcoin/e49117470b77fb7d53be122c6490ba163c6e304d/bitcoin-e49117470b77-powerpc64-linux-gnu.tar.gz) | [`0381efa3bd4527f0...`](https://drahtbot.space/gitian/bitcoin/bitcoin/0f05fa987196a9900d4cd2b96f8a03e7a777cdcf/bitcoin-0f05fa987196-powerpc64-linux-gnu.tar.gz) |\n| *-powerpc64le-linux-gnu-debug.tar.gz | [`5fc166a2ae1460c1...`](https://drahtbot.space/gitian/bitcoin/bitcoin/e49117470b77fb7d53be122c6490ba163c6e304d/bitcoin-e49117470b77-powerpc64le-linux-gnu-debug.tar.gz) | [`60418bf10d2e491d...`](https://drahtbot.space/gitian/bitcoin/bitcoin/0f05fa987196a9900d4cd2b96f8a03e7a777cdcf/bitcoin-0f05fa987196-powerpc64le-linux-gnu-debug.tar.gz) |\n| *-powerpc64le-linux-gnu.tar.gz | [`3c625482160d6dcb...`](https://drahtbot.space/gitian/bitcoin/bitcoin/e49117470b77fb7d53be122c6490ba163c6e304d/bitcoin-e49117470b77-powerpc64le-linux-gnu.tar.gz) | [`886b4db2e26bb4cb...`](https://drahtbot.space/gitian/bitcoin/bitcoin/0f05fa987196a9900d4cd2b96f8a03e7a777cdcf/bitcoin-0f05fa987196-powerpc64le-linux-gnu.tar.gz) |\n| *-riscv64-linux-gnu-debug.tar.gz | [`8c04cc3cd05fc965...`](https://drahtbot.space/gitian/bitcoin/bitcoin/e49117470b77fb7d53be122c6490ba163c6e304d/bitcoin-e49117470b77-riscv64-linux-gnu-debug.tar.gz) | [`b75a14c0dcacab2f...`](https://drahtbot.space/gitian/bitcoin/bitcoin/0f05fa987196a9900d4cd2b96f8a03e7a777cdcf/bitcoin-0f05fa987196-riscv64-linux-gnu-debug.tar.gz) |\n| *-riscv64-linux-gnu.tar.gz | [`68917240c47f8df4...`](https://drahtbot.space/gitian/bitcoin/bitcoin/e49117470b77fb7d53be122c6490ba163c6e304d/bitcoin-e49117470b77-riscv64-linux-gnu.tar.gz) | [`c817254c9766e77a...`](https://drahtbot.space/gitian/bitcoin/bitcoin/0f05fa987196a9900d4cd2b96f8a03e7a777cdcf/bitcoin-0f05fa987196-riscv64-linux-gnu.tar.gz) |\n| *-win64-debug.zip | [`4b9e9ab881581e9a...`](https://drahtbot.space/gitian/bitcoin/bitcoin/e49117470b77fb7d53be122c6490ba163c6e304d/bitcoin-e49117470b77-win64-debug.zip) | [`cb0167212732a7d5...`](https://drahtbot.space/gitian/bitcoin/bitcoin/0f05fa987196a9900d4cd2b96f8a03e7a777cdcf/bitcoin-0f05fa987196-win64-debug.zip) |\n| *-win64-setup-unsigned.exe | [`bc114ee020582a81...`](https://drahtbot.space/gitian/bitcoin/bitcoin/e49117470b77fb7d53be122c6490ba163c6e304d/bitcoin-e49117470b77-win64-setup-unsigned.exe) | [`f93ac7f7ee129572...`](https://drahtbot.space/gitian/bitcoin/bitcoin/0f05fa987196a9900d4cd2b96f8a03e7a777cdcf/bitcoin-0f05fa987196-win64-setup-unsigned.exe) |\n| *-win64.zip | [`98ad412d7173db47...`](https://drahtbot.space/gitian/bitcoin/bitcoin/e49117470b77fb7d53be122c6490ba163c6e304d/bitcoin-e49117470b77-win64.zip) | [`03356ce9b99d3564...`](https://drahtbot.space/gitian/bitcoin/bitcoin/0f05fa987196a9900d4cd2b96f8a03e7a777cdcf/bitcoin-0f05fa987196-win64.zip) |\n| *-x86_64-linux-gnu-debug.tar.gz | [`dfaed490268534e6...`](https://drahtbot.space/gitian/bitcoin/bitcoin/e49117470b77fb7d53be122c6490ba163c6e304d/bitcoin-e49117470b77-x86_64-linux-gnu-debug.tar.gz) | [`2286a52dbf817b05...`](https://drahtbot.space/gitian/bitcoin/bitcoin/0f05fa987196a9900d4cd2b96f8a03e7a777cdcf/bitcoin-0f05fa987196-x86_64-linux-gnu-debug.tar.gz) |\n| *-x86_64-linux-gnu.tar.gz | [`c3073d99069a38d5...`](https://drahtbot.space/gitian/bitcoin/bitcoin/e49117470b77fb7d53be122c6490ba163c6e304d/bitcoin-e49117470b77-x86_64-linux-gnu.tar.gz) | [`3fac69d3590960f1...`](https://drahtbot.space/gitian/bitcoin/bitcoin/0f05fa987196a9900d4cd2b96f8a03e7a777cdcf/bitcoin-0f05fa987196-x86_64-linux-gnu.tar.gz) |\n| *.tar.gz | [`7de28abb89c8d5e0...`](https://drahtbot.space/gitian/bitcoin/bitcoin/e49117470b77fb7d53be122c6490ba163c6e304d/bitcoin-e49117470b77.tar.gz) | [`f387a081b3e63f02...`](https://drahtbot.space/gitian/bitcoin/bitcoin/0f05fa987196a9900d4cd2b96f8a03e7a777cdcf/bitcoin-0f05fa987196.tar.gz) |\n| linux-build.log | [`66532e7c9f4900c1...`](https://drahtbot.space/gitian/bitcoin/bitcoin/e49117470b77fb7d53be122c6490ba163c6e304d/linux-build.log) | [`cb055812c36f3cfe...`](https://drahtbot.space/gitian/bitcoin/bitcoin/0f05fa987196a9900d4cd2b96f8a03e7a777cdcf/linux-build.log) |\n| osx-build.log | [`563ba182fefab33c...`](https://drahtbot.space/gitian/bitcoin/bitcoin/e49117470b77fb7d53be122c6490ba163c6e304d/osx-build.log) | [`d1fc44b82b46f37b...`](https://drahtbot.space/gitian/bitcoin/bitcoin/0f05fa987196a9900d4cd2b96f8a03e7a777cdcf/osx-build.log) |\n| win-build.log | [`9ce23f7489c3448d...`](https://drahtbot.space/gitian/bitcoin/bitcoin/e49117470b77fb7d53be122c6490ba163c6e304d/win-build.log) | [`4ac6e85c204b9bfa...`](https://drahtbot.space/gitian/bitcoin/bitcoin/0f05fa987196a9900d4cd2b96f8a03e7a777cdcf/win-build.log) |\n| bitcoin-core-linux-22-res.yml.diff |  | [`3598035eeadeb1c5...`](https://drahtbot.space/gitian/bitcoin/bitcoin/0f05fa987196a9900d4cd2b96f8a03e7a777cdcf/bitcoin-core-linux-22-res.yml.diff) |\n| bitcoin-core-osx-22-res.yml.diff |  | [`fedcc1c833a73a43...`](https://drahtbot.space/gitian/bitcoin/bitcoin/0f05fa987196a9900d4cd2b96f8a03e7a777cdcf/bitcoin-core-osx-22-res.yml.diff) |\n| bitcoin-core-win-22-res.yml.diff |  | [`72bc170dd5c99283...`](https://drahtbot.space/gitian/bitcoin/bitcoin/0f05fa987196a9900d4cd2b96f8a03e7a777cdcf/bitcoin-core-win-22-res.yml.diff) |\n| linux-build.log.diff |  | [`c78430ab322635d0...`](https://drahtbot.space/gitian/bitcoin/bitcoin/0f05fa987196a9900d4cd2b96f8a03e7a777cdcf/linux-build.log.diff) |\n| osx-build.log.diff |  | [`8abaa19bac5ca3ac...`](https://drahtbot.space/gitian/bitcoin/bitcoin/0f05fa987196a9900d4cd2b96f8a03e7a777cdcf/osx-build.log.diff) |\n| win-build.log.diff |  | [`7ea7163905fb4926...`](https://drahtbot.space/gitian/bitcoin/bitcoin/0f05fa987196a9900d4cd2b96f8a03e7a777cdcf/win-build.log.diff) |\n\n",
    "reactions": {
      "url": "https://api.github.com/repos/bitcoin/bitcoin/issues/comments/786792783/reactions",
      "total_count": 0,
      "+1": 0,
      "-1": 0,
      "laugh": 0,
      "hooray": 0,
      "confused": 0,
      "heart": 0,
      "rocket": 0,
      "eyes": 0
    },
    "performed_via_github_app": null
  },
  {
    "url": "https://api.github.com/repos/bitcoin/bitcoin/issues/comments/787914833",
    "html_url": "https://github.com/bitcoin/bitcoin/pull/21286#issuecomment-787914833",
    "issue_url": "https://api.github.com/repos/bitcoin/bitcoin/issues/21286",
    "id": 787914833,
    "node_id": "MDEyOklzc3VlQ29tbWVudDc4NzkxNDgzMw==",
    "user": {
      "login": "DrahtBot",
      "id": 39886733,
      "node_id": "MDQ6VXNlcjM5ODg2NzMz",
      "avatar_url": "https://avatars.githubusercontent.com/u/39886733?v=4",
      "gravatar_id": "",
      "url": "https://api.github.com/users/DrahtBot",
      "html_url": "https://github.com/DrahtBot",
      "followers_url": "https://api.github.com/users/DrahtBot/followers",
      "following_url": "https://api.github.com/users/DrahtBot/following{/other_user}",
      "gists_url": "https://api.github.com/users/DrahtBot/gists{/gist_id}",
      "starred_url": "https://api.github.com/users/DrahtBot/starred{/owner}{/repo}",
      "subscriptions_url": "https://api.github.com/users/DrahtBot/subscriptions",
      "organizations_url": "https://api.github.com/users/DrahtBot/orgs",
      "repos_url": "https://api.github.com/users/DrahtBot/repos",
      "events_url": "https://api.github.com/users/DrahtBot/events{/privacy}",
      "received_events_url": "https://api.github.com/users/DrahtBot/received_events",
      "type": "User",
      "site_admin": false
    },
    "created_at": "2021-03-01T12:33:28Z",
    "updated_at": "2021-03-01T12:33:28Z",
    "author_association": "CONTRIBUTOR",
    "body_html": "\n<h3 dir=\"auto\">Guix builds</h3>\n<table role=\"table\">\n<thead>\n<tr>\n<th>File</th>\n<th>commit <a class=\"commit-link\" data-hovercard-type=\"commit\" data-hovercard-url=\"https://github.com/bitcoin/bitcoin/commit/5ba5becbb5d8c794efe579caeea7eea64f895a13/hovercard\" href=\"https://github.com/bitcoin/bitcoin/commit/5ba5becbb5d8c794efe579caeea7eea64f895a13\"><tt>5ba5bec</tt></a><br>(master)</th>\n<th>commit <a class=\"commit-link\" data-hovercard-type=\"commit\" data-hovercard-url=\"https://github.com/bitcoin/bitcoin/commit/12babf6c42858a189660c53c607255d1d05bc70c/hovercard\" href=\"https://github.com/bitcoin/bitcoin/commit/12babf6c42858a189660c53c607255d1d05bc70c\"><tt>12babf6</tt></a><br>(master and this pull)</th>\n</tr>\n</thead>\n<tbody>\n<tr>\n<td>*-aarch64-linux-gnu-debug.tar.gz</td>\n<td><a href=\"https://drahtbot.space/guix/bitcoin/bitcoin/5ba5becbb5d8c794efe579caeea7eea64f895a13/bitcoin-5ba5becbb5d8-aarch64-linux-gnu-debug.tar.gz\" rel=\"nofollow\"><code class=\"notranslate\">5f74435231e17632...</code></a></td>\n<td><a href=\"https://drahtbot.space/guix/bitcoin/bitcoin/12babf6c42858a189660c53c607255d1d05bc70c/bitcoin-12babf6c4285-aarch64-linux-gnu-debug.tar.gz\" rel=\"nofollow\"><code class=\"notranslate\">28d969a25e215ce4...</code></a></td>\n</tr>\n<tr>\n<td>*-aarch64-linux-gnu.tar.gz</td>\n<td><a href=\"https://drahtbot.space/guix/bitcoin/bitcoin/5ba5becbb5d8c794efe579caeea7eea64f895a13/bitcoin-5ba5becbb5d8-aarch64-linux-gnu.tar.gz\" rel=\"nofollow\"><code class=\"notranslate\">a71e54c9b627c295...</code></a></td>\n<td><a href=\"https://drahtbot.space/guix/bitcoin/bitcoin/12babf6c42858a189660c53c607255d1d05bc70c/bitcoin-12babf6c4285-aarch64-linux-gnu.tar.gz\" rel=\"nofollow\"><code class=\"notranslate\">92cf21ba642fb0b8...</code></a></td>\n</tr>\n<tr>\n<td>*-arm-linux-gnueabihf-debug.tar.gz</td>\n<td><a href=\"https://drahtbot.space/guix/bitcoin/bitcoin/5ba5becbb5d8c794efe579caeea7eea64f895a13/bitcoin-5ba5becbb5d8-arm-linux-gnueabihf-debug.tar.gz\" rel=\"nofollow\"><code class=\"notranslate\">adf10a3ead42e9ba...</code></a></td>\n<td><a href=\"https://drahtbot.space/guix/bitcoin/bitcoin/12babf6c42858a189660c53c607255d1d05bc70c/bitcoin-12babf6c4285-arm-linux-gnueabihf-debug.tar.gz\" rel=\"nofollow\"><code class=\"notranslate\">c562e1119ea36963...</code></a></td>\n</tr>\n<tr>\n<td>*-arm-linux-gnueabihf.tar.gz</td>\n<td><a href=\"https://drahtbot.space/guix/bitcoin/bitcoin/5ba5becbb5d8c794efe579caeea7eea64f895a13/bitcoin-5ba5becbb5d8-arm-linux-gnueabihf.tar.gz\" rel=\"nofollow\"><code class=\"notranslate\">382c9a8f3d796ba3...</code></a></td>\n<td><a href=\"https://drahtbot.space/guix/bitcoin/bitcoin/12babf6c42858a189660c53c607255d1d05bc70c/bitcoin-12babf6c4285-arm-linux-gnueabihf.tar.gz\" rel=\"nofollow\"><code class=\"notranslate\">32b25b632a6b87be...</code></a></td>\n</tr>\n<tr>\n<td>*-osx-unsigned.dmg</td>\n<td><a href=\"https://drahtbot.space/guix/bitcoin/bitcoin/5ba5becbb5d8c794efe579caeea7eea64f895a13/bitcoin-5ba5becbb5d8-osx-unsigned.dmg\" rel=\"nofollow\"><code class=\"notranslate\">751e49d27e9dccd4...</code></a></td>\n<td><a href=\"https://drahtbot.space/guix/bitcoin/bitcoin/12babf6c42858a189660c53c607255d1d05bc70c/bitcoin-12babf6c4285-osx-unsigned.dmg\" rel=\"nofollow\"><code class=\"notranslate\">72094a9acb15ef2b...</code></a></td>\n</tr>\n<tr>\n<td>*-osx-unsigned.tar.gz</td>\n<td><a href=\"https://drahtbot.space/guix/bitcoin/bitcoin/5ba5becbb5d8c794efe579caeea7eea64f895a13/bitcoin-5ba5becbb5d8-osx-unsigned.tar.gz\" rel=\"nofollow\"><code class=\"notranslate\">4a9c99658847a4cc...</code></a></td>\n<td><a href=\"https://drahtbot.space/guix/bitcoin/bitcoin/12babf6c42858a189660c53c607255d1d05bc70c/bitcoin-12babf6c4285-osx-unsigned.tar.gz\" rel=\"nofollow\"><code class=\"notranslate\">2ed9931044734fc6...</code></a></td>\n</tr>\n<tr>\n<td>*-osx64.tar.gz</td>\n<td><a href=\"https://drahtbot.space/guix/bitcoin/bitcoin/5ba5becbb5d8c794efe579caeea7eea64f895a13/bitcoin-5ba5becbb5d8-osx64.tar.gz\" rel=\"nofollow\"><code class=\"notranslate\">6151d4880a9f291d...</code></a></td>\n<td><a href=\"https://drahtbot.space/guix/bitcoin/bitcoin/12babf6c42858a189660c53c607255d1d05bc70c/bitcoin-12babf6c4285-osx64.tar.gz\" rel=\"nofollow\"><code class=\"notranslate\">cb50f693536b28d6...</code></a></td>\n</tr>\n<tr>\n<td>*-powerpc64-linux-gnu-debug.tar.gz</td>\n<td><a href=\"https://drahtbot.space/guix/bitcoin/bitcoin/5ba5becbb5d8c794efe579caeea7eea64f895a13/bitcoin-5ba5becbb5d8-powerpc64-linux-gnu-debug.tar.gz\" rel=\"nofollow\"><code class=\"notranslate\">4b78706c37822742...</code></a></td>\n<td><a href=\"https://drahtbot.space/guix/bitcoin/bitcoin/12babf6c42858a189660c53c607255d1d05bc70c/bitcoin-12babf6c4285-powerpc64-linux-gnu-debug.tar.gz\" rel=\"nofollow\"><code class=\"notranslate\">d1916b998767e700...</code></a></td>\n</tr>\n<tr>\n<td>*-powerpc64-linux-gnu.tar.gz</td>\n<td><a href=\"https://drahtbot.space/guix/bitcoin/bitcoin/5ba5becbb5d8c794efe579caeea7eea64f895a13/bitcoin-5ba5becbb5d8-powerpc64-linux-gnu.tar.gz\" rel=\"nofollow\"><code class=\"notranslate\">9a4d5bf59567ef5d...</code></a></td>\n<td><a href=\"https://drahtbot.space/guix/bitcoin/bitcoin/12babf6c42858a189660c53c607255d1d05bc70c/bitcoin-12babf6c4285-powerpc64-linux-gnu.tar.gz\" rel=\"nofollow\"><code class=\"notranslate\">bb2b1e0e682158e0...</code></a></td>\n</tr>\n<tr>\n<td>*-powerpc64le-linux-gnu-debug.tar.gz</td>\n<td><a href=\"https://drahtbot.space/guix/bitcoin/bitcoin/5ba5becbb5d8c794efe579caeea7eea64f895a13/bitcoin-5ba5becbb5d8-powerpc64le-linux-gnu-debug.tar.gz\" rel=\"nofollow\"><code class=\"notranslate\">f2e6b7c6ab0370e4...</code></a></td>\n<td><a href=\"https://drahtbot.space/guix/bitcoin/bitcoin/12babf6c42858a189660c53c607255d1d05bc70c/bitcoin-12babf6c4285-powerpc64le-linux-gnu-debug.tar.gz\" rel=\"nofollow\"><code class=\"notranslate\">43a5c55f162405d8...</code></a></td>\n</tr>\n<tr>\n<td>*-powerpc64le-linux-gnu.tar.gz</td>\n<td><a href=\"https://drahtbot.space/guix/bitcoin/bitcoin/5ba5becbb5d8c794efe579caeea7eea64f895a13/bitcoin-5ba5becbb5d8-powerpc64le-linux-gnu.tar.gz\" rel=\"nofollow\"><code class=\"notranslate\">335d84ca8cba4211...</code></a></td>\n<td><a href=\"https://drahtbot.space/guix/bitcoin/bitcoin/12babf6c42858a189660c53c607255d1d05bc70c/bitcoin-12babf6c4285-powerpc64le-linux-gnu.tar.gz\" rel=\"nofollow\"><code class=\"notranslate\">9d1662ea65fa16ff...</code></a></td>\n</tr>\n<tr>\n<td>*-riscv64-linux-gnu-debug.tar.gz</td>\n<td><a href=\"https://drahtbot.space/guix/bitcoin/bitcoin/5ba5becbb5d8c794efe579caeea7eea64f895a13/bitcoin-5ba5becbb5d8-riscv64-linux-gnu-debug.tar.gz\" rel=\"nofollow\"><code class=\"notranslate\">e7eb25c4573e8cce...</code></a></td>\n<td><a href=\"https://drahtbot.space/guix/bitcoin/bitcoin/12babf6c42858a189660c53c607255d1d05bc70c/bitcoin-12babf6c4285-riscv64-linux-gnu-debug.tar.gz\" rel=\"nofollow\"><code class=\"notranslate\">3f78955cc798355b...</code></a></td>\n</tr>\n<tr>\n<td>*-riscv64-linux-gnu.tar.gz</td>\n<td><a href=\"https://drahtbot.space/guix/bitcoin/bitcoin/5ba5becbb5d8c794efe579caeea7eea64f895a13/bitcoin-5ba5becbb5d8-riscv64-linux-gnu.tar.gz\" rel=\"nofollow\"><code class=\"notranslate\">f41946c7ae5c3350...</code></a></td>\n<td><a href=\"https://drahtbot.space/guix/bitcoin/bitcoin/12babf6c42858a189660c53c607255d1d05bc70c/bitcoin-12babf6c4285-riscv64-linux-gnu.tar.gz\" rel=\"nofollow\"><code class=\"notranslate\">6f080f0d264b928f...</code></a></td>\n</tr>\n<tr>\n<td>*-win-unsigned.tar.gz</td>\n<td><a href=\"https://drahtbot.space/guix/bitcoin/bitcoin/5ba5becbb5d8c794efe579caeea7eea64f895a13/bitcoin-5ba5becbb5d8-win-unsigned.tar.gz\" rel=\"nofollow\"><code class=\"notranslate\">243be5c40837f82e...</code></a></td>\n<td><a href=\"https://drahtbot.space/guix/bitcoin/bitcoin/12babf6c42858a189660c53c607255d1d05bc70c/bitcoin-12babf6c4285-win-unsigned.tar.gz\" rel=\"nofollow\"><code class=\"notranslate\">dc46a3e822e8cee7...</code></a></td>\n</tr>\n<tr>\n<td>*-win64-debug.zip</td>\n<td><a href=\"https://drahtbot.space/guix/bitcoin/bitcoin/5ba5becbb5d8c794efe579caeea7eea64f895a13/bitcoin-5ba5becbb5d8-win64-debug.zip\" rel=\"nofollow\"><code class=\"notranslate\">5f954f624f268072...</code></a></td>\n<td><a href=\"https://drahtbot.space/guix/bitcoin/bitcoin/12babf6c42858a189660c53c607255d1d05bc70c/bitcoin-12babf6c4285-win64-debug.zip\" rel=\"nofollow\"><code class=\"notranslate\">24aefa146db5c652...</code></a></td>\n</tr>\n<tr>\n<td>*-win64-setup-unsigned.exe</td>\n<td><a href=\"https://drahtbot.space/guix/bitcoin/bitcoin/5ba5becbb5d8c794efe579caeea7eea64f895a13/bitcoin-5ba5becbb5d8-win64-setup-unsigned.exe\" rel=\"nofollow\"><code class=\"notranslate\">780312bdd9940cfb...</code></a></td>\n<td><a href=\"https://drahtbot.space/guix/bitcoin/bitcoin/12babf6c42858a189660c53c607255d1d05bc70c/bitcoin-12babf6c4285-win64-setup-unsigned.exe\" rel=\"nofollow\"><code class=\"notranslate\">1b8074549d53cffa...</code></a></td>\n</tr>\n<tr>\n<td>*-win64.zip</td>\n<td><a href=\"https://drahtbot.space/guix/bitcoin/bitcoin/5ba5becbb5d8c794efe579caeea7eea64f895a13/bitcoin-5ba5becbb5d8-win64.zip\" rel=\"nofollow\"><code class=\"notranslate\">2e3e1e98973df7de...</code></a></td>\n<td><a href=\"https://drahtbot.space/guix/bitcoin/bitcoin/12babf6c42858a189660c53c607255d1d05bc70c/bitcoin-12babf6c4285-win64.zip\" rel=\"nofollow\"><code class=\"notranslate\">4fc4c8e6456edc52...</code></a></td>\n</tr>\n<tr>\n<td>*-x86_64-linux-gnu-debug.tar.gz</td>\n<td><a href=\"https://drahtbot.space/guix/bitcoin/bitcoin/5ba5becbb5d8c794efe579caeea7eea64f895a13/bitcoin-5ba5becbb5d8-x86_64-linux-gnu-debug.tar.gz\" rel=\"nofollow\"><code class=\"notranslate\">83181be936b817e5...</code></a></td>\n<td><a href=\"https://drahtbot.space/guix/bitcoin/bitcoin/12babf6c42858a189660c53c607255d1d05bc70c/bitcoin-12babf6c4285-x86_64-linux-gnu-debug.tar.gz\" rel=\"nofollow\"><code class=\"notranslate\">9224ffe83742bf71...</code></a></td>\n</tr>\n<tr>\n<td>*-x86_64-linux-gnu.tar.gz</td>\n<td><a href=\"https://drahtbot.space/guix/bitcoin/bitcoin/5ba5becbb5d8c794efe579caeea7eea64f895a13/bitcoin-5ba5becbb5d8-x86_64-linux-gnu.tar.gz\" rel=\"nofollow\"><code class=\"notranslate\">b79145fbd0267974...</code></a></td>\n<td><a href=\"https://drahtbot.space/guix/bitcoin/bitcoin/12babf6c42858a189660c53c607255d1d05bc70c/bitcoin-12babf6c4285-x86_64-linux-gnu.tar.gz\" rel=\"nofollow\"><code class=\"notranslate\">4d65f519fbc23c9c...</code></a></td>\n</tr>\n<tr>\n<td>*.tar.gz</td>\n<td><a href=\"https://drahtbot.space/guix/bitcoin/bitcoin/5ba5becbb5d8c794efe579caeea7eea64f895a13/bitcoin-5ba5becbb5d8.tar.gz\" rel=\"nofollow\"><code class=\"notranslate\">0784b3d773e5761f...</code></a></td>\n<td><a href=\"https://drahtbot.space/guix/bitcoin/bitcoin/12babf6c42858a189660c53c607255d1d05bc70c/bitcoin-12babf6c4285.tar.gz\" rel=\"nofollow\"><code class=\"notranslate\">44f9d4f37f35560a...</code></a></td>\n</tr>\n<tr>\n<td>guix_build.log</td>\n<td><a href=\"https://drahtbot.space/guix/bitcoin/bitcoin/5ba5becbb5d8c794efe579caeea7eea64f895a13/guix_build.log\" rel=\"nofollow\"><code class=\"notranslate\">752e44aa2f570812...</code></a></td>\n<td><a href=\"https://drahtbot.space/guix/bitcoin/bitcoin/12babf6c42858a189660c53c607255d1d05bc70c/guix_build.log\" rel=\"nofollow\"><code class=\"notranslate\">374c62f72616a5ba...</code></a></td>\n</tr>\n<tr>\n<td>guix_build.log.diff</td>\n<td></td>\n<td><a href=\"https://drahtbot.space/guix/bitcoin/bitcoin/12babf6c42858a189660c53c607255d1d05bc70c/guix_build.log.diff\" rel=\"nofollow\"><code class=\"notranslate\">da791863e96701a5...</code></a></td>\n</tr>\n</tbody>\n</table>",
    "body_text": "Guix builds\n\n\n\nFile\ncommit 5ba5bec(master)\ncommit 12babf6(master and this pull)\n\n\n\n\n*-aarch64-linux-gnu-debug.tar.gz\n5f74435231e17632...\n28d969a25e215ce4...\n\n\n*-aarch64-linux-gnu.tar.gz\na71e54c9b627c295...\n92cf21ba642fb0b8...\n\n\n*-arm-linux-gnueabihf-debug.tar.gz\nadf10a3ead42e9ba...\nc562e1119ea36963...\n\n\n*-arm-linux-gnueabihf.tar.gz\n382c9a8f3d796ba3...\n32b25b632a6b87be...\n\n\n*-osx-unsigned.dmg\n751e49d27e9dccd4...\n72094a9acb15ef2b...\n\n\n*-osx-unsigned.tar.gz\n4a9c99658847a4cc...\n2ed9931044734fc6...\n\n\n*-osx64.tar.gz\n6151d4880a9f291d...\ncb50f693536b28d6...\n\n\n*-powerpc64-linux-gnu-debug.tar.gz\n4b78706c37822742...\nd1916b998767e700...\n\n\n*-powerpc64-linux-gnu.tar.gz\n9a4d5bf59567ef5d...\nbb2b1e0e682158e0...\n\n\n*-powerpc64le-linux-gnu-debug.tar.gz\nf2e6b7c6ab0370e4...\n43a5c55f162405d8...\n\n\n*-powerpc64le-linux-gnu.tar.gz\n335d84ca8cba4211...\n9d1662ea65fa16ff...\n\n\n*-riscv64-linux-gnu-debug.tar.gz\ne7eb25c4573e8cce...\n3f78955cc798355b...\n\n\n*-riscv64-linux-gnu.tar.gz\nf41946c7ae5c3350...\n6f080f0d264b928f...\n\n\n*-win-unsigned.tar.gz\n243be5c40837f82e...\ndc46a3e822e8cee7...\n\n\n*-win64-debug.zip\n5f954f624f268072...\n24aefa146db5c652...\n\n\n*-win64-setup-unsigned.exe\n780312bdd9940cfb...\n1b8074549d53cffa...\n\n\n*-win64.zip\n2e3e1e98973df7de...\n4fc4c8e6456edc52...\n\n\n*-x86_64-linux-gnu-debug.tar.gz\n83181be936b817e5...\n9224ffe83742bf71...\n\n\n*-x86_64-linux-gnu.tar.gz\nb79145fbd0267974...\n4d65f519fbc23c9c...\n\n\n*.tar.gz\n0784b3d773e5761f...\n44f9d4f37f35560a...\n\n\nguix_build.log\n752e44aa2f570812...\n374c62f72616a5ba...\n\n\nguix_build.log.diff\n\nda791863e96701a5...",
    "body": "<!--9cd9c72976c961c55c7acef8f6ba82cd-->\n### Guix builds\n\n| File | commit 5ba5becbb5d8c794efe579caeea7eea64f895a13<br>(master) | commit 12babf6c42858a189660c53c607255d1d05bc70c<br>(master and this pull) |\n|--|--|--|\n| *-aarch64-linux-gnu-debug.tar.gz | [`5f74435231e17632...`](https://drahtbot.space/guix/bitcoin/bitcoin/5ba5becbb5d8c794efe579caeea7eea64f895a13/bitcoin-5ba5becbb5d8-aarch64-linux-gnu-debug.tar.gz) | [`28d969a25e215ce4...`](https://drahtbot.space/guix/bitcoin/bitcoin/12babf6c42858a189660c53c607255d1d05bc70c/bitcoin-12babf6c4285-aarch64-linux-gnu-debug.tar.gz) |\n| *-aarch64-linux-gnu.tar.gz | [`a71e54c9b627c295...`](https://drahtbot.space/guix/bitcoin/bitcoin/5ba5becbb5d8c794efe579caeea7eea64f895a13/bitcoin-5ba5becbb5d8-aarch64-linux-gnu.tar.gz) | [`92cf21ba642fb0b8...`](https://drahtbot.space/guix/bitcoin/bitcoin/12babf6c42858a189660c53c607255d1d05bc70c/bitcoin-12babf6c4285-aarch64-linux-gnu.tar.gz) |\n| *-arm-linux-gnueabihf-debug.tar.gz | [`adf10a3ead42e9ba...`](https://drahtbot.space/guix/bitcoin/bitcoin/5ba5becbb5d8c794efe579caeea7eea64f895a13/bitcoin-5ba5becbb5d8-arm-linux-gnueabihf-debug.tar.gz) | [`c562e1119ea36963...`](https://drahtbot.space/guix/bitcoin/bitcoin/12babf6c42858a189660c53c607255d1d05bc70c/bitcoin-12babf6c4285-arm-linux-gnueabihf-debug.tar.gz) |\n| *-arm-linux-gnueabihf.tar.gz | [`382c9a8f3d796ba3...`](https://drahtbot.space/guix/bitcoin/bitcoin/5ba5becbb5d8c794efe579caeea7eea64f895a13/bitcoin-5ba5becbb5d8-arm-linux-gnueabihf.tar.gz) | [`32b25b632a6b87be...`](https://drahtbot.space/guix/bitcoin/bitcoin/12babf6c42858a189660c53c607255d1d05bc70c/bitcoin-12babf6c4285-arm-linux-gnueabihf.tar.gz) |\n| *-osx-unsigned.dmg | [`751e49d27e9dccd4...`](https://drahtbot.space/guix/bitcoin/bitcoin/5ba5becbb5d8c794efe579caeea7eea64f895a13/bitcoin-5ba5becbb5d8-osx-unsigned.dmg) | [`72094a9acb15ef2b...`](https://drahtbot.space/guix/bitcoin/bitcoin/12babf6c42858a189660c53c607255d1d05bc70c/bitcoin-12babf6c4285-osx-unsigned.dmg) |\n| *-osx-unsigned.tar.gz | [`4a9c99658847a4cc...`](https://drahtbot.space/guix/bitcoin/bitcoin/5ba5becbb5d8c794efe579caeea7eea64f895a13/bitcoin-5ba5becbb5d8-osx-unsigned.tar.gz) | [`2ed9931044734fc6...`](https://drahtbot.space/guix/bitcoin/bitcoin/12babf6c42858a189660c53c607255d1d05bc70c/bitcoin-12babf6c4285-osx-unsigned.tar.gz) |\n| *-osx64.tar.gz | [`6151d4880a9f291d...`](https://drahtbot.space/guix/bitcoin/bitcoin/5ba5becbb5d8c794efe579caeea7eea64f895a13/bitcoin-5ba5becbb5d8-osx64.tar.gz) | [`cb50f693536b28d6...`](https://drahtbot.space/guix/bitcoin/bitcoin/12babf6c42858a189660c53c607255d1d05bc70c/bitcoin-12babf6c4285-osx64.tar.gz) |\n| *-powerpc64-linux-gnu-debug.tar.gz | [`4b78706c37822742...`](https://drahtbot.space/guix/bitcoin/bitcoin/5ba5becbb5d8c794efe579caeea7eea64f895a13/bitcoin-5ba5becbb5d8-powerpc64-linux-gnu-debug.tar.gz) | [`d1916b998767e700...`](https://drahtbot.space/guix/bitcoin/bitcoin/12babf6c42858a189660c53c607255d1d05bc70c/bitcoin-12babf6c4285-powerpc64-linux-gnu-debug.tar.gz) |\n| *-powerpc64-linux-gnu.tar.gz | [`9a4d5bf59567ef5d...`](https://drahtbot.space/guix/bitcoin/bitcoin/5ba5becbb5d8c794efe579caeea7eea64f895a13/bitcoin-5ba5becbb5d8-powerpc64-linux-gnu.tar.gz) | [`bb2b1e0e682158e0...`](https://drahtbot.space/guix/bitcoin/bitcoin/12babf6c42858a189660c53c607255d1d05bc70c/bitcoin-12babf6c4285-powerpc64-linux-gnu.tar.gz) |\n| *-powerpc64le-linux-gnu-debug.tar.gz | [`f2e6b7c6ab0370e4...`](https://drahtbot.space/guix/bitcoin/bitcoin/5ba5becbb5d8c794efe579caeea7eea64f895a13/bitcoin-5ba5becbb5d8-powerpc64le-linux-gnu-debug.tar.gz) | [`43a5c55f162405d8...`](https://drahtbot.space/guix/bitcoin/bitcoin/12babf6c42858a189660c53c607255d1d05bc70c/bitcoin-12babf6c4285-powerpc64le-linux-gnu-debug.tar.gz) |\n| *-powerpc64le-linux-gnu.tar.gz | [`335d84ca8cba4211...`](https://drahtbot.space/guix/bitcoin/bitcoin/5ba5becbb5d8c794efe579caeea7eea64f895a13/bitcoin-5ba5becbb5d8-powerpc64le-linux-gnu.tar.gz) | [`9d1662ea65fa16ff...`](https://drahtbot.space/guix/bitcoin/bitcoin/12babf6c42858a189660c53c607255d1d05bc70c/bitcoin-12babf6c4285-powerpc64le-linux-gnu.tar.gz) |\n| *-riscv64-linux-gnu-debug.tar.gz | [`e7eb25c4573e8cce...`](https://drahtbot.space/guix/bitcoin/bitcoin/5ba5becbb5d8c794efe579caeea7eea64f895a13/bitcoin-5ba5becbb5d8-riscv64-linux-gnu-debug.tar.gz) | [`3f78955cc798355b...`](https://drahtbot.space/guix/bitcoin/bitcoin/12babf6c42858a189660c53c607255d1d05bc70c/bitcoin-12babf6c4285-riscv64-linux-gnu-debug.tar.gz) |\n| *-riscv64-linux-gnu.tar.gz | [`f41946c7ae5c3350...`](https://drahtbot.space/guix/bitcoin/bitcoin/5ba5becbb5d8c794efe579caeea7eea64f895a13/bitcoin-5ba5becbb5d8-riscv64-linux-gnu.tar.gz) | [`6f080f0d264b928f...`](https://drahtbot.space/guix/bitcoin/bitcoin/12babf6c42858a189660c53c607255d1d05bc70c/bitcoin-12babf6c4285-riscv64-linux-gnu.tar.gz) |\n| *-win-unsigned.tar.gz | [`243be5c40837f82e...`](https://drahtbot.space/guix/bitcoin/bitcoin/5ba5becbb5d8c794efe579caeea7eea64f895a13/bitcoin-5ba5becbb5d8-win-unsigned.tar.gz) | [`dc46a3e822e8cee7...`](https://drahtbot.space/guix/bitcoin/bitcoin/12babf6c42858a189660c53c607255d1d05bc70c/bitcoin-12babf6c4285-win-unsigned.tar.gz) |\n| *-win64-debug.zip | [`5f954f624f268072...`](https://drahtbot.space/guix/bitcoin/bitcoin/5ba5becbb5d8c794efe579caeea7eea64f895a13/bitcoin-5ba5becbb5d8-win64-debug.zip) | [`24aefa146db5c652...`](https://drahtbot.space/guix/bitcoin/bitcoin/12babf6c42858a189660c53c607255d1d05bc70c/bitcoin-12babf6c4285-win64-debug.zip) |\n| *-win64-setup-unsigned.exe | [`780312bdd9940cfb...`](https://drahtbot.space/guix/bitcoin/bitcoin/5ba5becbb5d8c794efe579caeea7eea64f895a13/bitcoin-5ba5becbb5d8-win64-setup-unsigned.exe) | [`1b8074549d53cffa...`](https://drahtbot.space/guix/bitcoin/bitcoin/12babf6c42858a189660c53c607255d1d05bc70c/bitcoin-12babf6c4285-win64-setup-unsigned.exe) |\n| *-win64.zip | [`2e3e1e98973df7de...`](https://drahtbot.space/guix/bitcoin/bitcoin/5ba5becbb5d8c794efe579caeea7eea64f895a13/bitcoin-5ba5becbb5d8-win64.zip) | [`4fc4c8e6456edc52...`](https://drahtbot.space/guix/bitcoin/bitcoin/12babf6c42858a189660c53c607255d1d05bc70c/bitcoin-12babf6c4285-win64.zip) |\n| *-x86_64-linux-gnu-debug.tar.gz | [`83181be936b817e5...`](https://drahtbot.space/guix/bitcoin/bitcoin/5ba5becbb5d8c794efe579caeea7eea64f895a13/bitcoin-5ba5becbb5d8-x86_64-linux-gnu-debug.tar.gz) | [`9224ffe83742bf71...`](https://drahtbot.space/guix/bitcoin/bitcoin/12babf6c42858a189660c53c607255d1d05bc70c/bitcoin-12babf6c4285-x86_64-linux-gnu-debug.tar.gz) |\n| *-x86_64-linux-gnu.tar.gz | [`b79145fbd0267974...`](https://drahtbot.space/guix/bitcoin/bitcoin/5ba5becbb5d8c794efe579caeea7eea64f895a13/bitcoin-5ba5becbb5d8-x86_64-linux-gnu.tar.gz) | [`4d65f519fbc23c9c...`](https://drahtbot.space/guix/bitcoin/bitcoin/12babf6c42858a189660c53c607255d1d05bc70c/bitcoin-12babf6c4285-x86_64-linux-gnu.tar.gz) |\n| *.tar.gz | [`0784b3d773e5761f...`](https://drahtbot.space/guix/bitcoin/bitcoin/5ba5becbb5d8c794efe579caeea7eea64f895a13/bitcoin-5ba5becbb5d8.tar.gz) | [`44f9d4f37f35560a...`](https://drahtbot.space/guix/bitcoin/bitcoin/12babf6c42858a189660c53c607255d1d05bc70c/bitcoin-12babf6c4285.tar.gz) |\n| guix_build.log | [`752e44aa2f570812...`](https://drahtbot.space/guix/bitcoin/bitcoin/5ba5becbb5d8c794efe579caeea7eea64f895a13/guix_build.log) | [`374c62f72616a5ba...`](https://drahtbot.space/guix/bitcoin/bitcoin/12babf6c42858a189660c53c607255d1d05bc70c/guix_build.log) |\n| guix_build.log.diff |  | [`da791863e96701a5...`](https://drahtbot.space/guix/bitcoin/bitcoin/12babf6c42858a189660c53c607255d1d05bc70c/guix_build.log.diff) |\n\n",
    "reactions": {
      "url": "https://api.github.com/repos/bitcoin/bitcoin/issues/comments/787914833/reactions",
      "total_count": 0,
      "+1": 0,
      "-1": 0,
      "laugh": 0,
      "hooray": 0,
      "confused": 0,
      "heart": 0,
      "rocket": 0,
      "eyes": 0
    },
    "performed_via_github_app": null
  }
]
