[
  {
    "url": "https://api.github.com/repos/bitcoin/bitcoin/issues/comments/562857767",
    "html_url": "https://github.com/bitcoin/bitcoin/pull/17688#issuecomment-562857767",
    "issue_url": "https://api.github.com/repos/bitcoin/bitcoin/issues/17688",
    "id": 562857767,
    "node_id": "MDEyOklzc3VlQ29tbWVudDU2Mjg1Nzc2Nw==",
    "user": {
      "login": "maflcko",
      "id": 6399679,
      "node_id": "MDQ6VXNlcjYzOTk2Nzk=",
      "avatar_url": "https://avatars.githubusercontent.com/u/6399679?v=4",
      "gravatar_id": "",
      "url": "https://api.github.com/users/maflcko",
      "html_url": "https://github.com/maflcko",
      "followers_url": "https://api.github.com/users/maflcko/followers",
      "following_url": "https://api.github.com/users/maflcko/following{/other_user}",
      "gists_url": "https://api.github.com/users/maflcko/gists{/gist_id}",
      "starred_url": "https://api.github.com/users/maflcko/starred{/owner}{/repo}",
      "subscriptions_url": "https://api.github.com/users/maflcko/subscriptions",
      "organizations_url": "https://api.github.com/users/maflcko/orgs",
      "repos_url": "https://api.github.com/users/maflcko/repos",
      "events_url": "https://api.github.com/users/maflcko/events{/privacy}",
      "received_events_url": "https://api.github.com/users/maflcko/received_events",
      "type": "User",
      "site_admin": false
    },
    "created_at": "2019-12-07T14:54:22Z",
    "updated_at": "2019-12-07T14:54:22Z",
    "author_association": "MEMBER",
    "body_html": "<p dir=\"auto\">Oh, I wasn't aware that <code class=\"notranslate\">build</code> is used for ci changes as well. I saw <code class=\"notranslate\">ci</code> mostly as a slightly more specific <code class=\"notranslate\">tests</code> or <code class=\"notranslate\">qa</code>.</p>",
    "body_text": "Oh, I wasn't aware that build is used for ci changes as well. I saw ci mostly as a slightly more specific tests or qa.",
    "body": "Oh, I wasn't aware that `build` is used for ci changes as well. I saw `ci` mostly as a slightly more specific `tests` or `qa`.",
    "reactions": {
      "url": "https://api.github.com/repos/bitcoin/bitcoin/issues/comments/562857767/reactions",
      "total_count": 0,
      "+1": 0,
      "-1": 0,
      "laugh": 0,
      "hooray": 0,
      "confused": 0,
      "heart": 0,
      "rocket": 0,
      "eyes": 0
    },
    "performed_via_github_app": null
  },
  {
    "url": "https://api.github.com/repos/bitcoin/bitcoin/issues/comments/562860035",
    "html_url": "https://github.com/bitcoin/bitcoin/pull/17688#issuecomment-562860035",
    "issue_url": "https://api.github.com/repos/bitcoin/bitcoin/issues/17688",
    "id": 562860035,
    "node_id": "MDEyOklzc3VlQ29tbWVudDU2Mjg2MDAzNQ==",
    "user": {
      "login": "hebasto",
      "id": 32963518,
      "node_id": "MDQ6VXNlcjMyOTYzNTE4",
      "avatar_url": "https://avatars.githubusercontent.com/u/32963518?v=4",
      "gravatar_id": "",
      "url": "https://api.github.com/users/hebasto",
      "html_url": "https://github.com/hebasto",
      "followers_url": "https://api.github.com/users/hebasto/followers",
      "following_url": "https://api.github.com/users/hebasto/following{/other_user}",
      "gists_url": "https://api.github.com/users/hebasto/gists{/gist_id}",
      "starred_url": "https://api.github.com/users/hebasto/starred{/owner}{/repo}",
      "subscriptions_url": "https://api.github.com/users/hebasto/subscriptions",
      "organizations_url": "https://api.github.com/users/hebasto/orgs",
      "repos_url": "https://api.github.com/users/hebasto/repos",
      "events_url": "https://api.github.com/users/hebasto/events{/privacy}",
      "received_events_url": "https://api.github.com/users/hebasto/received_events",
      "type": "User",
      "site_admin": false
    },
    "created_at": "2019-12-07T15:21:39Z",
    "updated_at": "2019-12-07T15:21:39Z",
    "author_association": "MEMBER",
    "body_html": "<p dir=\"auto\"><a class=\"user-mention notranslate\" data-hovercard-type=\"user\" data-hovercard-url=\"/users/MarcoFalke/hovercard\" data-octo-click=\"hovercard-link-click\" data-octo-dimensions=\"link_type:self\" href=\"https://github.com/MarcoFalke\">@MarcoFalke</a></p>\n<blockquote>\n<p dir=\"auto\">Oh, I wasn't aware that <code class=\"notranslate\">build</code> is used for ci changes as well. I saw <code class=\"notranslate\">ci</code> mostly as a slightly more specific <code class=\"notranslate\">tests</code> or <code class=\"notranslate\">qa</code>.</p>\n</blockquote>\n<p dir=\"auto\">Does it mean something like this:</p>\n<div class=\"snippet-clipboard-content notranslate position-relative overflow-auto\" data-snippet-clipboard-copy-content=\"  - `test`, `qa` or `ci` for changes to the unit tests, QA tests or CI code\"><pre class=\"notranslate\"><code class=\"notranslate\">  - `test`, `qa` or `ci` for changes to the unit tests, QA tests or CI code\n</code></pre></div>\n<p dir=\"auto\">?</p>",
    "body_text": "@MarcoFalke\n\nOh, I wasn't aware that build is used for ci changes as well. I saw ci mostly as a slightly more specific tests or qa.\n\nDoes it mean something like this:\n  - `test`, `qa` or `ci` for changes to the unit tests, QA tests or CI code\n\n?",
    "body": "@MarcoFalke \r\n\r\n> Oh, I wasn't aware that `build` is used for ci changes as well. I saw `ci` mostly as a slightly more specific `tests` or `qa`.\r\n\r\nDoes it mean something like this:\r\n```\r\n  - `test`, `qa` or `ci` for changes to the unit tests, QA tests or CI code\r\n```\r\n?",
    "reactions": {
      "url": "https://api.github.com/repos/bitcoin/bitcoin/issues/comments/562860035/reactions",
      "total_count": 0,
      "+1": 0,
      "-1": 0,
      "laugh": 0,
      "hooray": 0,
      "confused": 0,
      "heart": 0,
      "rocket": 0,
      "eyes": 0
    },
    "performed_via_github_app": null
  },
  {
    "url": "https://api.github.com/repos/bitcoin/bitcoin/issues/comments/564500438",
    "html_url": "https://github.com/bitcoin/bitcoin/pull/17688#issuecomment-564500438",
    "issue_url": "https://api.github.com/repos/bitcoin/bitcoin/issues/17688",
    "id": 564500438,
    "node_id": "MDEyOklzc3VlQ29tbWVudDU2NDUwMDQzOA==",
    "user": {
      "login": "laanwj",
      "id": 126646,
      "node_id": "MDQ6VXNlcjEyNjY0Ng==",
      "avatar_url": "https://avatars.githubusercontent.com/u/126646?v=4",
      "gravatar_id": "",
      "url": "https://api.github.com/users/laanwj",
      "html_url": "https://github.com/laanwj",
      "followers_url": "https://api.github.com/users/laanwj/followers",
      "following_url": "https://api.github.com/users/laanwj/following{/other_user}",
      "gists_url": "https://api.github.com/users/laanwj/gists{/gist_id}",
      "starred_url": "https://api.github.com/users/laanwj/starred{/owner}{/repo}",
      "subscriptions_url": "https://api.github.com/users/laanwj/subscriptions",
      "organizations_url": "https://api.github.com/users/laanwj/orgs",
      "repos_url": "https://api.github.com/users/laanwj/repos",
      "events_url": "https://api.github.com/users/laanwj/events{/privacy}",
      "received_events_url": "https://api.github.com/users/laanwj/received_events",
      "type": "User",
      "site_admin": false
    },
    "created_at": "2019-12-11T11:32:12Z",
    "updated_at": "2019-12-11T11:33:13Z",
    "author_association": "MEMBER",
    "body_html": "<p dir=\"auto\">yes, CI refers to tests (it's a generalized \"travis\"), metadata such as <code class=\"notranslate\">.travis.yml</code> and the things under the <code class=\"notranslate\">ci/</code> directory</p>\n<p dir=\"auto\">(of course, this overlaps with \"build\" often, the categorization is by no means exclusive)</p>",
    "body_text": "yes, CI refers to tests (it's a generalized \"travis\"), metadata such as .travis.yml and the things under the ci/ directory\n(of course, this overlaps with \"build\" often, the categorization is by no means exclusive)",
    "body": "yes, CI refers to tests (it's a generalized \"travis\"), metadata such as `.travis.yml` and the things under the `ci/` directory\r\n\r\n(of course, this overlaps with \"build\" often, the categorization is by no means exclusive)",
    "reactions": {
      "url": "https://api.github.com/repos/bitcoin/bitcoin/issues/comments/564500438/reactions",
      "total_count": 0,
      "+1": 0,
      "-1": 0,
      "laugh": 0,
      "hooray": 0,
      "confused": 0,
      "heart": 0,
      "rocket": 0,
      "eyes": 0
    },
    "performed_via_github_app": null
  },
  {
    "url": "https://api.github.com/repos/bitcoin/bitcoin/issues/comments/565839211",
    "html_url": "https://github.com/bitcoin/bitcoin/pull/17688#issuecomment-565839211",
    "issue_url": "https://api.github.com/repos/bitcoin/bitcoin/issues/17688",
    "id": 565839211,
    "node_id": "MDEyOklzc3VlQ29tbWVudDU2NTgzOTIxMQ==",
    "user": {
      "login": "hebasto",
      "id": 32963518,
      "node_id": "MDQ6VXNlcjMyOTYzNTE4",
      "avatar_url": "https://avatars.githubusercontent.com/u/32963518?v=4",
      "gravatar_id": "",
      "url": "https://api.github.com/users/hebasto",
      "html_url": "https://github.com/hebasto",
      "followers_url": "https://api.github.com/users/hebasto/followers",
      "following_url": "https://api.github.com/users/hebasto/following{/other_user}",
      "gists_url": "https://api.github.com/users/hebasto/gists{/gist_id}",
      "starred_url": "https://api.github.com/users/hebasto/starred{/owner}{/repo}",
      "subscriptions_url": "https://api.github.com/users/hebasto/subscriptions",
      "organizations_url": "https://api.github.com/users/hebasto/orgs",
      "repos_url": "https://api.github.com/users/hebasto/repos",
      "events_url": "https://api.github.com/users/hebasto/events{/privacy}",
      "received_events_url": "https://api.github.com/users/hebasto/received_events",
      "type": "User",
      "site_admin": false
    },
    "created_at": "2019-12-15T19:31:59Z",
    "updated_at": "2019-12-15T19:31:59Z",
    "author_association": "MEMBER",
    "body_html": "<p dir=\"auto\"><a class=\"user-mention notranslate\" data-hovercard-type=\"user\" data-hovercard-url=\"/users/MarcoFalke/hovercard\" data-octo-click=\"hovercard-link-click\" data-octo-dimensions=\"link_type:self\" href=\"https://github.com/MarcoFalke\">@MarcoFalke</a></p>\n<blockquote>\n<p dir=\"auto\">I saw <code class=\"notranslate\">ci</code> mostly as a slightly more specific <code class=\"notranslate\">tests</code> or <code class=\"notranslate\">qa</code>.</p>\n</blockquote>\n<p dir=\"auto\">Done.</p>",
    "body_text": "@MarcoFalke\n\nI saw ci mostly as a slightly more specific tests or qa.\n\nDone.",
    "body": "@MarcoFalke \r\n>  I saw `ci` mostly as a slightly more specific `tests` or `qa`.\r\n\r\nDone.",
    "reactions": {
      "url": "https://api.github.com/repos/bitcoin/bitcoin/issues/comments/565839211/reactions",
      "total_count": 0,
      "+1": 0,
      "-1": 0,
      "laugh": 0,
      "hooray": 0,
      "confused": 0,
      "heart": 0,
      "rocket": 0,
      "eyes": 0
    },
    "performed_via_github_app": null
  }
]
