{
  "url": "https://api.github.com/repos/bitcoin/bitcoin/issues/15343",
  "repository_url": "https://api.github.com/repos/bitcoin/bitcoin",
  "labels_url": "https://api.github.com/repos/bitcoin/bitcoin/issues/15343/labels{/name}",
  "comments_url": "https://api.github.com/repos/bitcoin/bitcoin/issues/15343/comments",
  "events_url": "https://api.github.com/repos/bitcoin/bitcoin/issues/15343/events",
  "html_url": "https://github.com/bitcoin/bitcoin/pull/15343",
  "id": 406420450,
  "node_id": "MDExOlB1bGxSZXF1ZXN0MjUwMTIyMzg2",
  "number": 15343,
  "title": "[doc] netaddress: Make IPv4 loopback comment more descriptive",
  "user": {
    "login": "dongcarl",
    "id": 3445290,
    "node_id": "MDQ6VXNlcjM0NDUyOTA=",
    "avatar_url": "https://avatars.githubusercontent.com/u/3445290?v=4",
    "gravatar_id": "",
    "url": "https://api.github.com/users/dongcarl",
    "html_url": "https://github.com/dongcarl",
    "followers_url": "https://api.github.com/users/dongcarl/followers",
    "following_url": "https://api.github.com/users/dongcarl/following{/other_user}",
    "gists_url": "https://api.github.com/users/dongcarl/gists{/gist_id}",
    "starred_url": "https://api.github.com/users/dongcarl/starred{/owner}{/repo}",
    "subscriptions_url": "https://api.github.com/users/dongcarl/subscriptions",
    "organizations_url": "https://api.github.com/users/dongcarl/orgs",
    "repos_url": "https://api.github.com/users/dongcarl/repos",
    "events_url": "https://api.github.com/users/dongcarl/events{/privacy}",
    "received_events_url": "https://api.github.com/users/dongcarl/received_events",
    "type": "User",
    "site_admin": false
  },
  "labels": [
    {
      "id": 148216,
      "node_id": "MDU6TGFiZWwxNDgyMTY=",
      "url": "https://api.github.com/repos/bitcoin/bitcoin/labels/Docs",
      "name": "Docs",
      "color": "02d7e1",
      "default": false,
      "description": null
    }
  ],
  "state": "closed",
  "locked": true,
  "assignee": null,
  "assignees": [

  ],
  "milestone": null,
  "comments": 2,
  "created_at": "2019-02-04T16:49:01Z",
  "updated_at": "2021-12-16T13:54:34Z",
  "closed_at": "2019-02-06T21:48:40Z",
  "author_association": "CONTRIBUTOR",
  "active_lock_reason": "resolved",
  "draft": false,
  "pull_request": {
    "url": "https://api.github.com/repos/bitcoin/bitcoin/pulls/15343",
    "html_url": "https://github.com/bitcoin/bitcoin/pull/15343",
    "diff_url": "https://github.com/bitcoin/bitcoin/pull/15343.diff",
    "patch_url": "https://github.com/bitcoin/bitcoin/pull/15343.patch",
    "merged_at": "2019-02-06T21:48:40Z"
  },
  "body_html": "<p dir=\"auto\">This also makes the comment match the IPv6 comment just below this hunk.</p>",
  "body_text": "This also makes the comment match the IPv6 comment just below this hunk.",
  "body": "This also makes the comment match the IPv6 comment just below this hunk.",
  "closed_by": {
    "login": "laanwj",
    "id": 126646,
    "node_id": "MDQ6VXNlcjEyNjY0Ng==",
    "avatar_url": "https://avatars.githubusercontent.com/u/126646?v=4",
    "gravatar_id": "",
    "url": "https://api.github.com/users/laanwj",
    "html_url": "https://github.com/laanwj",
    "followers_url": "https://api.github.com/users/laanwj/followers",
    "following_url": "https://api.github.com/users/laanwj/following{/other_user}",
    "gists_url": "https://api.github.com/users/laanwj/gists{/gist_id}",
    "starred_url": "https://api.github.com/users/laanwj/starred{/owner}{/repo}",
    "subscriptions_url": "https://api.github.com/users/laanwj/subscriptions",
    "organizations_url": "https://api.github.com/users/laanwj/orgs",
    "repos_url": "https://api.github.com/users/laanwj/repos",
    "events_url": "https://api.github.com/users/laanwj/events{/privacy}",
    "received_events_url": "https://api.github.com/users/laanwj/received_events",
    "type": "User",
    "site_admin": false
  },
  "reactions": {
    "url": "https://api.github.com/repos/bitcoin/bitcoin/issues/15343/reactions",
    "total_count": 0,
    "+1": 0,
    "-1": 0,
    "laugh": 0,
    "hooray": 0,
    "confused": 0,
    "heart": 0,
    "rocket": 0,
    "eyes": 0
  },
  "timeline_url": "https://api.github.com/repos/bitcoin/bitcoin/issues/15343/timeline",
  "performed_via_github_app": null,
  "state_reason": null
}
