[
  {
    "url": "https://api.github.com/repos/bitcoin/bitcoin/issues/comments/385243248",
    "html_url": "https://github.com/bitcoin/bitcoin/pull/13112#issuecomment-385243248",
    "issue_url": "https://api.github.com/repos/bitcoin/bitcoin/issues/13112",
    "id": 385243248,
    "node_id": "MDEyOklzc3VlQ29tbWVudDM4NTI0MzI0OA==",
    "user": {
      "login": "maflcko",
      "id": 6399679,
      "node_id": "MDQ6VXNlcjYzOTk2Nzk=",
      "avatar_url": "https://avatars.githubusercontent.com/u/6399679?v=4",
      "gravatar_id": "",
      "url": "https://api.github.com/users/maflcko",
      "html_url": "https://github.com/maflcko",
      "followers_url": "https://api.github.com/users/maflcko/followers",
      "following_url": "https://api.github.com/users/maflcko/following{/other_user}",
      "gists_url": "https://api.github.com/users/maflcko/gists{/gist_id}",
      "starred_url": "https://api.github.com/users/maflcko/starred{/owner}{/repo}",
      "subscriptions_url": "https://api.github.com/users/maflcko/subscriptions",
      "organizations_url": "https://api.github.com/users/maflcko/orgs",
      "repos_url": "https://api.github.com/users/maflcko/repos",
      "events_url": "https://api.github.com/users/maflcko/events{/privacy}",
      "received_events_url": "https://api.github.com/users/maflcko/received_events",
      "type": "User",
      "site_admin": false
    },
    "created_at": "2018-04-29T11:06:20Z",
    "updated_at": "2018-04-29T11:06:20Z",
    "author_association": "MEMBER",
    "body_html": "<p dir=\"auto\">Ping <a class=\"user-mention notranslate\" data-hovercard-type=\"user\" data-hovercard-url=\"/users/meshcollider/hovercard\" data-octo-click=\"hovercard-link-click\" data-octo-dimensions=\"link_type:self\" href=\"https://github.com/meshcollider\">@meshcollider</a> who has been working on something similar.</p>",
    "body_text": "Ping @meshcollider who has been working on something similar.",
    "body": "Ping @MeshCollider who has been working on something similar.",
    "reactions": {
      "url": "https://api.github.com/repos/bitcoin/bitcoin/issues/comments/385243248/reactions",
      "total_count": 0,
      "+1": 0,
      "-1": 0,
      "laugh": 0,
      "hooray": 0,
      "confused": 0,
      "heart": 0,
      "rocket": 0,
      "eyes": 0
    },
    "performed_via_github_app": null
  },
  {
    "url": "https://api.github.com/repos/bitcoin/bitcoin/issues/comments/385244064",
    "html_url": "https://github.com/bitcoin/bitcoin/pull/13112#issuecomment-385244064",
    "issue_url": "https://api.github.com/repos/bitcoin/bitcoin/issues/13112",
    "id": 385244064,
    "node_id": "MDEyOklzc3VlQ29tbWVudDM4NTI0NDA2NA==",
    "user": {
      "login": "maflcko",
      "id": 6399679,
      "node_id": "MDQ6VXNlcjYzOTk2Nzk=",
      "avatar_url": "https://avatars.githubusercontent.com/u/6399679?v=4",
      "gravatar_id": "",
      "url": "https://api.github.com/users/maflcko",
      "html_url": "https://github.com/maflcko",
      "followers_url": "https://api.github.com/users/maflcko/followers",
      "following_url": "https://api.github.com/users/maflcko/following{/other_user}",
      "gists_url": "https://api.github.com/users/maflcko/gists{/gist_id}",
      "starred_url": "https://api.github.com/users/maflcko/starred{/owner}{/repo}",
      "subscriptions_url": "https://api.github.com/users/maflcko/subscriptions",
      "organizations_url": "https://api.github.com/users/maflcko/orgs",
      "repos_url": "https://api.github.com/users/maflcko/repos",
      "events_url": "https://api.github.com/users/maflcko/events{/privacy}",
      "received_events_url": "https://api.github.com/users/maflcko/received_events",
      "type": "User",
      "site_admin": false
    },
    "created_at": "2018-04-29T11:23:44Z",
    "updated_at": "2018-04-29T11:23:44Z",
    "author_association": "MEMBER",
    "body_html": "<p dir=\"auto\">Compile error due to missing override in <a href=\"https://github.com/achow101/bitcoin/blob/67699a9fd9a4c279c31f1d61ef44a16032739375/src/init.cpp#L79\">https://github.com/achow101/bitcoin/blob/67699a9fd9a4c279c31f1d61ef44a16032739375/src/init.cpp#L79</a>, I presume.</p>",
    "body_text": "Compile error due to missing override in https://github.com/achow101/bitcoin/blob/67699a9fd9a4c279c31f1d61ef44a16032739375/src/init.cpp#L79, I presume.",
    "body": "Compile error due to missing override in https://github.com/achow101/bitcoin/blob/67699a9fd9a4c279c31f1d61ef44a16032739375/src/init.cpp#L79, I presume.",
    "reactions": {
      "url": "https://api.github.com/repos/bitcoin/bitcoin/issues/comments/385244064/reactions",
      "total_count": 0,
      "+1": 0,
      "-1": 0,
      "laugh": 0,
      "hooray": 0,
      "confused": 0,
      "heart": 0,
      "rocket": 0,
      "eyes": 0
    },
    "performed_via_github_app": null
  },
  {
    "url": "https://api.github.com/repos/bitcoin/bitcoin/issues/comments/385258339",
    "html_url": "https://github.com/bitcoin/bitcoin/pull/13112#issuecomment-385258339",
    "issue_url": "https://api.github.com/repos/bitcoin/bitcoin/issues/13112",
    "id": 385258339,
    "node_id": "MDEyOklzc3VlQ29tbWVudDM4NTI1ODMzOQ==",
    "user": {
      "login": "achow101",
      "id": 3782274,
      "node_id": "MDQ6VXNlcjM3ODIyNzQ=",
      "avatar_url": "https://avatars.githubusercontent.com/u/3782274?v=4",
      "gravatar_id": "",
      "url": "https://api.github.com/users/achow101",
      "html_url": "https://github.com/achow101",
      "followers_url": "https://api.github.com/users/achow101/followers",
      "following_url": "https://api.github.com/users/achow101/following{/other_user}",
      "gists_url": "https://api.github.com/users/achow101/gists{/gist_id}",
      "starred_url": "https://api.github.com/users/achow101/starred{/owner}{/repo}",
      "subscriptions_url": "https://api.github.com/users/achow101/subscriptions",
      "organizations_url": "https://api.github.com/users/achow101/orgs",
      "repos_url": "https://api.github.com/users/achow101/repos",
      "events_url": "https://api.github.com/users/achow101/events{/privacy}",
      "received_events_url": "https://api.github.com/users/achow101/received_events",
      "type": "User",
      "site_admin": false
    },
    "created_at": "2018-04-29T15:13:31Z",
    "updated_at": "2018-04-29T15:13:31Z",
    "author_association": "MEMBER",
    "body_html": "<blockquote>\n<p dir=\"auto\">What about known but not used arguments? For instance, <code class=\"notranslate\">-disablewallet -changetype=bech32</code> should fail or nor?</p>\n</blockquote>\n<p dir=\"auto\">This will not fail since <code class=\"notranslate\">-changetype</code> is a valid argument independent of <code class=\"notranslate\">-disablewallet</code>. The checker currently does not consider parameter interactions. Essentially it just checks for whether an argument is part of the help text.</p>\n<blockquote>\n<p dir=\"auto\">Compile error due to missing override in <a href=\"https://github.com/achow101/bitcoin/blob/67699a9fd9a4c279c31f1d61ef44a16032739375/src/init.cpp#L79\">https://github.com/achow101/bitcoin/blob/67699a9fd9a4c279c31f1d61ef44a16032739375/src/init.cpp#L79</a>, I presume.</p>\n</blockquote>\n<p dir=\"auto\">Fixed I think.</p>",
    "body_text": "What about known but not used arguments? For instance, -disablewallet -changetype=bech32 should fail or nor?\n\nThis will not fail since -changetype is a valid argument independent of -disablewallet. The checker currently does not consider parameter interactions. Essentially it just checks for whether an argument is part of the help text.\n\nCompile error due to missing override in https://github.com/achow101/bitcoin/blob/67699a9fd9a4c279c31f1d61ef44a16032739375/src/init.cpp#L79, I presume.\n\nFixed I think.",
    "body": "> What about known but not used arguments? For instance, `-disablewallet -changetype=bech32` should fail or nor?\r\n\r\nThis will not fail since `-changetype` is a valid argument independent of `-disablewallet`. The checker currently does not consider parameter interactions. Essentially it just checks for whether an argument is part of the help text.\r\n\r\n> Compile error due to missing override in https://github.com/achow101/bitcoin/blob/67699a9fd9a4c279c31f1d61ef44a16032739375/src/init.cpp#L79, I presume.\r\n\r\nFixed I think.",
    "reactions": {
      "url": "https://api.github.com/repos/bitcoin/bitcoin/issues/comments/385258339/reactions",
      "total_count": 0,
      "+1": 0,
      "-1": 0,
      "laugh": 0,
      "hooray": 0,
      "confused": 0,
      "heart": 0,
      "rocket": 0,
      "eyes": 0
    },
    "performed_via_github_app": null
  },
  {
    "url": "https://api.github.com/repos/bitcoin/bitcoin/issues/comments/385337526",
    "html_url": "https://github.com/bitcoin/bitcoin/pull/13112#issuecomment-385337526",
    "issue_url": "https://api.github.com/repos/bitcoin/bitcoin/issues/13112",
    "id": 385337526,
    "node_id": "MDEyOklzc3VlQ29tbWVudDM4NTMzNzUyNg==",
    "user": {
      "login": "promag",
      "id": 3534524,
      "node_id": "MDQ6VXNlcjM1MzQ1MjQ=",
      "avatar_url": "https://avatars.githubusercontent.com/u/3534524?v=4",
      "gravatar_id": "",
      "url": "https://api.github.com/users/promag",
      "html_url": "https://github.com/promag",
      "followers_url": "https://api.github.com/users/promag/followers",
      "following_url": "https://api.github.com/users/promag/following{/other_user}",
      "gists_url": "https://api.github.com/users/promag/gists{/gist_id}",
      "starred_url": "https://api.github.com/users/promag/starred{/owner}{/repo}",
      "subscriptions_url": "https://api.github.com/users/promag/subscriptions",
      "organizations_url": "https://api.github.com/users/promag/orgs",
      "repos_url": "https://api.github.com/users/promag/repos",
      "events_url": "https://api.github.com/users/promag/events{/privacy}",
      "received_events_url": "https://api.github.com/users/promag/received_events",
      "type": "User",
      "site_admin": false
    },
    "created_at": "2018-04-30T08:22:50Z",
    "updated_at": "2018-04-30T08:22:50Z",
    "author_association": "MEMBER",
    "body_html": "<blockquote>\n<p dir=\"auto\">The checker currently does not consider parameter interactions.</p>\n</blockquote>\n<p dir=\"auto\">Got it.</p>",
    "body_text": "The checker currently does not consider parameter interactions.\n\nGot it.",
    "body": ">The checker currently does not consider parameter interactions.\r\n\r\nGot it.",
    "reactions": {
      "url": "https://api.github.com/repos/bitcoin/bitcoin/issues/comments/385337526/reactions",
      "total_count": 0,
      "+1": 0,
      "-1": 0,
      "laugh": 0,
      "hooray": 0,
      "confused": 0,
      "heart": 0,
      "rocket": 0,
      "eyes": 0
    },
    "performed_via_github_app": null
  },
  {
    "url": "https://api.github.com/repos/bitcoin/bitcoin/issues/comments/385391115",
    "html_url": "https://github.com/bitcoin/bitcoin/pull/13112#issuecomment-385391115",
    "issue_url": "https://api.github.com/repos/bitcoin/bitcoin/issues/13112",
    "id": 385391115,
    "node_id": "MDEyOklzc3VlQ29tbWVudDM4NTM5MTExNQ==",
    "user": {
      "login": "jnewbery",
      "id": 1063656,
      "node_id": "MDQ6VXNlcjEwNjM2NTY=",
      "avatar_url": "https://avatars.githubusercontent.com/u/1063656?v=4",
      "gravatar_id": "",
      "url": "https://api.github.com/users/jnewbery",
      "html_url": "https://github.com/jnewbery",
      "followers_url": "https://api.github.com/users/jnewbery/followers",
      "following_url": "https://api.github.com/users/jnewbery/following{/other_user}",
      "gists_url": "https://api.github.com/users/jnewbery/gists{/gist_id}",
      "starred_url": "https://api.github.com/users/jnewbery/starred{/owner}{/repo}",
      "subscriptions_url": "https://api.github.com/users/jnewbery/subscriptions",
      "organizations_url": "https://api.github.com/users/jnewbery/orgs",
      "repos_url": "https://api.github.com/users/jnewbery/repos",
      "events_url": "https://api.github.com/users/jnewbery/events{/privacy}",
      "received_events_url": "https://api.github.com/users/jnewbery/received_events",
      "type": "User",
      "site_admin": false
    },
    "created_at": "2018-04-30T13:00:06Z",
    "updated_at": "2018-04-30T13:00:06Z",
    "author_association": "CONTRIBUTOR",
    "body_html": "<p dir=\"auto\">Concept ACK</p>",
    "body_text": "Concept ACK",
    "body": "Concept ACK",
    "reactions": {
      "url": "https://api.github.com/repos/bitcoin/bitcoin/issues/comments/385391115/reactions",
      "total_count": 0,
      "+1": 0,
      "-1": 0,
      "laugh": 0,
      "hooray": 0,
      "confused": 0,
      "heart": 0,
      "rocket": 0,
      "eyes": 0
    },
    "performed_via_github_app": null
  },
  {
    "url": "https://api.github.com/repos/bitcoin/bitcoin/issues/comments/385428727",
    "html_url": "https://github.com/bitcoin/bitcoin/pull/13112#issuecomment-385428727",
    "issue_url": "https://api.github.com/repos/bitcoin/bitcoin/issues/13112",
    "id": 385428727,
    "node_id": "MDEyOklzc3VlQ29tbWVudDM4NTQyODcyNw==",
    "user": {
      "login": "achow101",
      "id": 3782274,
      "node_id": "MDQ6VXNlcjM3ODIyNzQ=",
      "avatar_url": "https://avatars.githubusercontent.com/u/3782274?v=4",
      "gravatar_id": "",
      "url": "https://api.github.com/users/achow101",
      "html_url": "https://github.com/achow101",
      "followers_url": "https://api.github.com/users/achow101/followers",
      "following_url": "https://api.github.com/users/achow101/following{/other_user}",
      "gists_url": "https://api.github.com/users/achow101/gists{/gist_id}",
      "starred_url": "https://api.github.com/users/achow101/starred{/owner}{/repo}",
      "subscriptions_url": "https://api.github.com/users/achow101/subscriptions",
      "organizations_url": "https://api.github.com/users/achow101/orgs",
      "repos_url": "https://api.github.com/users/achow101/repos",
      "events_url": "https://api.github.com/users/achow101/events{/privacy}",
      "received_events_url": "https://api.github.com/users/achow101/received_events",
      "type": "User",
      "site_admin": false
    },
    "created_at": "2018-04-30T15:11:07Z",
    "updated_at": "2018-04-30T15:11:07Z",
    "author_association": "MEMBER",
    "body_html": "<blockquote>\n<p dir=\"auto\">Should old arguments be in a legacy category? Otherwise launching with an outdated configuration might unnecessarily throw an error.</p>\n</blockquote>\n<p dir=\"auto\">There could be a deprecated category where a warning is given if any arguments are in that category. Then we can remove the arguments entirely later.</p>",
    "body_text": "Should old arguments be in a legacy category? Otherwise launching with an outdated configuration might unnecessarily throw an error.\n\nThere could be a deprecated category where a warning is given if any arguments are in that category. Then we can remove the arguments entirely later.",
    "body": "> Should old arguments be in a legacy category? Otherwise launching with an outdated configuration might unnecessarily throw an error.\r\n\r\nThere could be a deprecated category where a warning is given if any arguments are in that category. Then we can remove the arguments entirely later.",
    "reactions": {
      "url": "https://api.github.com/repos/bitcoin/bitcoin/issues/comments/385428727/reactions",
      "total_count": 1,
      "+1": 1,
      "-1": 0,
      "laugh": 0,
      "hooray": 0,
      "confused": 0,
      "heart": 0,
      "rocket": 0,
      "eyes": 0
    },
    "performed_via_github_app": null
  },
  {
    "url": "https://api.github.com/repos/bitcoin/bitcoin/issues/comments/385910494",
    "html_url": "https://github.com/bitcoin/bitcoin/pull/13112#issuecomment-385910494",
    "issue_url": "https://api.github.com/repos/bitcoin/bitcoin/issues/13112",
    "id": 385910494,
    "node_id": "MDEyOklzc3VlQ29tbWVudDM4NTkxMDQ5NA==",
    "user": {
      "login": "meshcollider",
      "id": 3211283,
      "node_id": "MDQ6VXNlcjMyMTEyODM=",
      "avatar_url": "https://avatars.githubusercontent.com/u/3211283?v=4",
      "gravatar_id": "",
      "url": "https://api.github.com/users/meshcollider",
      "html_url": "https://github.com/meshcollider",
      "followers_url": "https://api.github.com/users/meshcollider/followers",
      "following_url": "https://api.github.com/users/meshcollider/following{/other_user}",
      "gists_url": "https://api.github.com/users/meshcollider/gists{/gist_id}",
      "starred_url": "https://api.github.com/users/meshcollider/starred{/owner}{/repo}",
      "subscriptions_url": "https://api.github.com/users/meshcollider/subscriptions",
      "organizations_url": "https://api.github.com/users/meshcollider/orgs",
      "repos_url": "https://api.github.com/users/meshcollider/repos",
      "events_url": "https://api.github.com/users/meshcollider/events{/privacy}",
      "received_events_url": "https://api.github.com/users/meshcollider/received_events",
      "type": "User",
      "site_admin": false
    },
    "created_at": "2018-05-02T08:58:30Z",
    "updated_at": "2018-05-02T08:59:59Z",
    "author_association": "CONTRIBUTOR",
    "body_html": "<p dir=\"auto\">Apologies for the delay in replying, I'm very swamped with work at the moment.<br>\nIt's clear that something needs to be done to fix the arguments being silently ignored, I'm fine with this approach over the one I've been working on since it is an immediate fix. If my rework would still be useful for other reasons it could still be done after this is merged anyway. Either way this seems like a nice cleanup of the helptext output at the same time.<br>\nSo Concept ACK from me.</p>",
    "body_text": "Apologies for the delay in replying, I'm very swamped with work at the moment.\nIt's clear that something needs to be done to fix the arguments being silently ignored, I'm fine with this approach over the one I've been working on since it is an immediate fix. If my rework would still be useful for other reasons it could still be done after this is merged anyway. Either way this seems like a nice cleanup of the helptext output at the same time.\nSo Concept ACK from me.",
    "body": "Apologies for the delay in replying, I'm very swamped with work at the moment.\r\nIt's clear that something needs to be done to fix the arguments being silently ignored, I'm fine with this approach over the one I've been working on since it is an immediate fix. If my rework would still be useful for other reasons it could still be done after this is merged anyway. Either way this seems like a nice cleanup of the helptext output at the same time.\r\nSo Concept ACK from me.",
    "reactions": {
      "url": "https://api.github.com/repos/bitcoin/bitcoin/issues/comments/385910494/reactions",
      "total_count": 1,
      "+1": 1,
      "-1": 0,
      "laugh": 0,
      "hooray": 0,
      "confused": 0,
      "heart": 0,
      "rocket": 0,
      "eyes": 0
    },
    "performed_via_github_app": null
  },
  {
    "url": "https://api.github.com/repos/bitcoin/bitcoin/issues/comments/386780688",
    "html_url": "https://github.com/bitcoin/bitcoin/pull/13112#issuecomment-386780688",
    "issue_url": "https://api.github.com/repos/bitcoin/bitcoin/issues/13112",
    "id": 386780688,
    "node_id": "MDEyOklzc3VlQ29tbWVudDM4Njc4MDY4OA==",
    "user": {
      "login": "achow101",
      "id": 3782274,
      "node_id": "MDQ6VXNlcjM3ODIyNzQ=",
      "avatar_url": "https://avatars.githubusercontent.com/u/3782274?v=4",
      "gravatar_id": "",
      "url": "https://api.github.com/users/achow101",
      "html_url": "https://github.com/achow101",
      "followers_url": "https://api.github.com/users/achow101/followers",
      "following_url": "https://api.github.com/users/achow101/following{/other_user}",
      "gists_url": "https://api.github.com/users/achow101/gists{/gist_id}",
      "starred_url": "https://api.github.com/users/achow101/starred{/owner}{/repo}",
      "subscriptions_url": "https://api.github.com/users/achow101/subscriptions",
      "organizations_url": "https://api.github.com/users/achow101/orgs",
      "repos_url": "https://api.github.com/users/achow101/repos",
      "events_url": "https://api.github.com/users/achow101/events{/privacy}",
      "received_events_url": "https://api.github.com/users/achow101/received_events",
      "type": "User",
      "site_admin": false
    },
    "created_at": "2018-05-05T05:25:49Z",
    "updated_at": "2018-05-05T05:25:49Z",
    "author_association": "MEMBER",
    "body_html": "<p dir=\"auto\">Rebased</p>",
    "body_text": "Rebased",
    "body": "Rebased",
    "reactions": {
      "url": "https://api.github.com/repos/bitcoin/bitcoin/issues/comments/386780688/reactions",
      "total_count": 0,
      "+1": 0,
      "-1": 0,
      "laugh": 0,
      "hooray": 0,
      "confused": 0,
      "heart": 0,
      "rocket": 0,
      "eyes": 0
    },
    "performed_via_github_app": null
  },
  {
    "url": "https://api.github.com/repos/bitcoin/bitcoin/issues/comments/387497792",
    "html_url": "https://github.com/bitcoin/bitcoin/pull/13112#issuecomment-387497792",
    "issue_url": "https://api.github.com/repos/bitcoin/bitcoin/issues/13112",
    "id": 387497792,
    "node_id": "MDEyOklzc3VlQ29tbWVudDM4NzQ5Nzc5Mg==",
    "user": {
      "login": "achow101",
      "id": 3782274,
      "node_id": "MDQ6VXNlcjM3ODIyNzQ=",
      "avatar_url": "https://avatars.githubusercontent.com/u/3782274?v=4",
      "gravatar_id": "",
      "url": "https://api.github.com/users/achow101",
      "html_url": "https://github.com/achow101",
      "followers_url": "https://api.github.com/users/achow101/followers",
      "following_url": "https://api.github.com/users/achow101/following{/other_user}",
      "gists_url": "https://api.github.com/users/achow101/gists{/gist_id}",
      "starred_url": "https://api.github.com/users/achow101/starred{/owner}{/repo}",
      "subscriptions_url": "https://api.github.com/users/achow101/subscriptions",
      "organizations_url": "https://api.github.com/users/achow101/orgs",
      "repos_url": "https://api.github.com/users/achow101/repos",
      "events_url": "https://api.github.com/users/achow101/events{/privacy}",
      "received_events_url": "https://api.github.com/users/achow101/received_events",
      "type": "User",
      "site_admin": false
    },
    "created_at": "2018-05-08T18:28:00Z",
    "updated_at": "2018-05-08T18:28:00Z",
    "author_association": "MEMBER",
    "body_html": "<p dir=\"auto\">Addressed all of <a class=\"user-mention notranslate\" data-hovercard-type=\"user\" data-hovercard-url=\"/users/MarcoFalke/hovercard\" data-octo-click=\"hovercard-link-click\" data-octo-dimensions=\"link_type:self\" href=\"https://github.com/MarcoFalke\">@MarcoFalke</a>'s comments.</p>\n<p dir=\"auto\">I've separated the first commit of this PR into <a class=\"issue-link js-issue-link\" data-error-text=\"Failed to load title\" data-id=\"321296297\" data-permission-text=\"Title is private\" data-url=\"https://github.com/bitcoin/bitcoin/issues/13190\" data-hovercard-type=\"pull_request\" data-hovercard-url=\"/bitcoin/bitcoin/pull/13190/hovercard\" href=\"https://github.com/bitcoin/bitcoin/pull/13190\">#13190</a> and so this is now on top of that.</p>",
    "body_text": "Addressed all of @MarcoFalke's comments.\nI've separated the first commit of this PR into #13190 and so this is now on top of that.",
    "body": "Addressed all of @MarcoFalke's comments.\r\n\r\nI've separated the first commit of this PR into #13190 and so this is now on top of that.",
    "reactions": {
      "url": "https://api.github.com/repos/bitcoin/bitcoin/issues/comments/387497792/reactions",
      "total_count": 0,
      "+1": 0,
      "-1": 0,
      "laugh": 0,
      "hooray": 0,
      "confused": 0,
      "heart": 0,
      "rocket": 0,
      "eyes": 0
    },
    "performed_via_github_app": null
  },
  {
    "url": "https://api.github.com/repos/bitcoin/bitcoin/issues/comments/387838034",
    "html_url": "https://github.com/bitcoin/bitcoin/pull/13112#issuecomment-387838034",
    "issue_url": "https://api.github.com/repos/bitcoin/bitcoin/issues/13112",
    "id": 387838034,
    "node_id": "MDEyOklzc3VlQ29tbWVudDM4NzgzODAzNA==",
    "user": {
      "login": "achow101",
      "id": 3782274,
      "node_id": "MDQ6VXNlcjM3ODIyNzQ=",
      "avatar_url": "https://avatars.githubusercontent.com/u/3782274?v=4",
      "gravatar_id": "",
      "url": "https://api.github.com/users/achow101",
      "html_url": "https://github.com/achow101",
      "followers_url": "https://api.github.com/users/achow101/followers",
      "following_url": "https://api.github.com/users/achow101/following{/other_user}",
      "gists_url": "https://api.github.com/users/achow101/gists{/gist_id}",
      "starred_url": "https://api.github.com/users/achow101/starred{/owner}{/repo}",
      "subscriptions_url": "https://api.github.com/users/achow101/subscriptions",
      "organizations_url": "https://api.github.com/users/achow101/orgs",
      "repos_url": "https://api.github.com/users/achow101/repos",
      "events_url": "https://api.github.com/users/achow101/events{/privacy}",
      "received_events_url": "https://api.github.com/users/achow101/received_events",
      "type": "User",
      "site_admin": false
    },
    "created_at": "2018-05-09T18:46:51Z",
    "updated_at": "2018-05-09T18:46:51Z",
    "author_association": "MEMBER",
    "body_html": "<p dir=\"auto\">Rebased onto master following merge of <a class=\"issue-link js-issue-link\" data-error-text=\"Failed to load title\" data-id=\"321296297\" data-permission-text=\"Title is private\" data-url=\"https://github.com/bitcoin/bitcoin/issues/13190\" data-hovercard-type=\"pull_request\" data-hovercard-url=\"/bitcoin/bitcoin/pull/13190/hovercard\" href=\"https://github.com/bitcoin/bitcoin/pull/13190\">#13190</a></p>",
    "body_text": "Rebased onto master following merge of #13190",
    "body": "Rebased onto master following merge of #13190 ",
    "reactions": {
      "url": "https://api.github.com/repos/bitcoin/bitcoin/issues/comments/387838034/reactions",
      "total_count": 0,
      "+1": 0,
      "-1": 0,
      "laugh": 0,
      "hooray": 0,
      "confused": 0,
      "heart": 0,
      "rocket": 0,
      "eyes": 0
    },
    "performed_via_github_app": null
  },
  {
    "url": "https://api.github.com/repos/bitcoin/bitcoin/issues/comments/387941641",
    "html_url": "https://github.com/bitcoin/bitcoin/pull/13112#issuecomment-387941641",
    "issue_url": "https://api.github.com/repos/bitcoin/bitcoin/issues/13112",
    "id": 387941641,
    "node_id": "MDEyOklzc3VlQ29tbWVudDM4Nzk0MTY0MQ==",
    "user": {
      "login": "maflcko",
      "id": 6399679,
      "node_id": "MDQ6VXNlcjYzOTk2Nzk=",
      "avatar_url": "https://avatars.githubusercontent.com/u/6399679?v=4",
      "gravatar_id": "",
      "url": "https://api.github.com/users/maflcko",
      "html_url": "https://github.com/maflcko",
      "followers_url": "https://api.github.com/users/maflcko/followers",
      "following_url": "https://api.github.com/users/maflcko/following{/other_user}",
      "gists_url": "https://api.github.com/users/maflcko/gists{/gist_id}",
      "starred_url": "https://api.github.com/users/maflcko/starred{/owner}{/repo}",
      "subscriptions_url": "https://api.github.com/users/maflcko/subscriptions",
      "organizations_url": "https://api.github.com/users/maflcko/orgs",
      "repos_url": "https://api.github.com/users/maflcko/repos",
      "events_url": "https://api.github.com/users/maflcko/events{/privacy}",
      "received_events_url": "https://api.github.com/users/maflcko/received_events",
      "type": "User",
      "site_admin": false
    },
    "created_at": "2018-05-10T03:31:57Z",
    "updated_at": "2018-05-10T03:31:57Z",
    "author_association": "MEMBER",
    "body_html": "<p dir=\"auto\">Note that <code class=\"notranslate\">git checkout b819262a5f5b9b07b0375e5573d3e66b5c555aa8  &amp;&amp; make check</code> fails and breaks bisect.</p>",
    "body_text": "Note that git checkout b819262a5f5b9b07b0375e5573d3e66b5c555aa8  && make check fails and breaks bisect.",
    "body": "Note that `git checkout b819262a5f5b9b07b0375e5573d3e66b5c555aa8  && make check` fails and breaks bisect.",
    "reactions": {
      "url": "https://api.github.com/repos/bitcoin/bitcoin/issues/comments/387941641/reactions",
      "total_count": 0,
      "+1": 0,
      "-1": 0,
      "laugh": 0,
      "hooray": 0,
      "confused": 0,
      "heart": 0,
      "rocket": 0,
      "eyes": 0
    },
    "performed_via_github_app": null
  },
  {
    "url": "https://api.github.com/repos/bitcoin/bitcoin/issues/comments/387959268",
    "html_url": "https://github.com/bitcoin/bitcoin/pull/13112#issuecomment-387959268",
    "issue_url": "https://api.github.com/repos/bitcoin/bitcoin/issues/13112",
    "id": 387959268,
    "node_id": "MDEyOklzc3VlQ29tbWVudDM4Nzk1OTI2OA==",
    "user": {
      "login": "achow101",
      "id": 3782274,
      "node_id": "MDQ6VXNlcjM3ODIyNzQ=",
      "avatar_url": "https://avatars.githubusercontent.com/u/3782274?v=4",
      "gravatar_id": "",
      "url": "https://api.github.com/users/achow101",
      "html_url": "https://github.com/achow101",
      "followers_url": "https://api.github.com/users/achow101/followers",
      "following_url": "https://api.github.com/users/achow101/following{/other_user}",
      "gists_url": "https://api.github.com/users/achow101/gists{/gist_id}",
      "starred_url": "https://api.github.com/users/achow101/starred{/owner}{/repo}",
      "subscriptions_url": "https://api.github.com/users/achow101/subscriptions",
      "organizations_url": "https://api.github.com/users/achow101/orgs",
      "repos_url": "https://api.github.com/users/achow101/repos",
      "events_url": "https://api.github.com/users/achow101/events{/privacy}",
      "received_events_url": "https://api.github.com/users/achow101/received_events",
      "type": "User",
      "site_admin": false
    },
    "created_at": "2018-05-10T05:52:31Z",
    "updated_at": "2018-05-10T05:52:31Z",
    "author_association": "MEMBER",
    "body_html": "<p dir=\"auto\">Squashed 81557f4fef79bd7eb3028933dd484fa14790ed3f into b819262a5f5b9b07b0375e5573d3e66b5c555aa8 which fixes the make check failure.</p>",
    "body_text": "Squashed 81557f4fef79bd7eb3028933dd484fa14790ed3f into b819262a5f5b9b07b0375e5573d3e66b5c555aa8 which fixes the make check failure.",
    "body": "Squashed 81557f4fef79bd7eb3028933dd484fa14790ed3f into b819262a5f5b9b07b0375e5573d3e66b5c555aa8 which fixes the make check failure.",
    "reactions": {
      "url": "https://api.github.com/repos/bitcoin/bitcoin/issues/comments/387959268/reactions",
      "total_count": 0,
      "+1": 0,
      "-1": 0,
      "laugh": 0,
      "hooray": 0,
      "confused": 0,
      "heart": 0,
      "rocket": 0,
      "eyes": 0
    },
    "performed_via_github_app": null
  },
  {
    "url": "https://api.github.com/repos/bitcoin/bitcoin/issues/comments/388067062",
    "html_url": "https://github.com/bitcoin/bitcoin/pull/13112#issuecomment-388067062",
    "issue_url": "https://api.github.com/repos/bitcoin/bitcoin/issues/13112",
    "id": 388067062,
    "node_id": "MDEyOklzc3VlQ29tbWVudDM4ODA2NzA2Mg==",
    "user": {
      "login": "maflcko",
      "id": 6399679,
      "node_id": "MDQ6VXNlcjYzOTk2Nzk=",
      "avatar_url": "https://avatars.githubusercontent.com/u/6399679?v=4",
      "gravatar_id": "",
      "url": "https://api.github.com/users/maflcko",
      "html_url": "https://github.com/maflcko",
      "followers_url": "https://api.github.com/users/maflcko/followers",
      "following_url": "https://api.github.com/users/maflcko/following{/other_user}",
      "gists_url": "https://api.github.com/users/maflcko/gists{/gist_id}",
      "starred_url": "https://api.github.com/users/maflcko/starred{/owner}{/repo}",
      "subscriptions_url": "https://api.github.com/users/maflcko/subscriptions",
      "organizations_url": "https://api.github.com/users/maflcko/orgs",
      "repos_url": "https://api.github.com/users/maflcko/repos",
      "events_url": "https://api.github.com/users/maflcko/events{/privacy}",
      "received_events_url": "https://api.github.com/users/maflcko/received_events",
      "type": "User",
      "site_admin": false
    },
    "created_at": "2018-05-10T14:17:35Z",
    "updated_at": "2018-05-10T14:17:35Z",
    "author_association": "MEMBER",
    "body_html": "<p dir=\"auto\">Note that <code class=\"notranslate\">git checkout 0ff0ea83ef4b1f1b94988e98602adc7648d114c4 &amp;&amp; ./test/functional/test_runner.py</code> fails and breaks bisect.</p>",
    "body_text": "Note that git checkout 0ff0ea83ef4b1f1b94988e98602adc7648d114c4 && ./test/functional/test_runner.py fails and breaks bisect.",
    "body": "Note that `git checkout 0ff0ea83ef4b1f1b94988e98602adc7648d114c4 && ./test/functional/test_runner.py` fails and breaks bisect.",
    "reactions": {
      "url": "https://api.github.com/repos/bitcoin/bitcoin/issues/comments/388067062/reactions",
      "total_count": 0,
      "+1": 0,
      "-1": 0,
      "laugh": 0,
      "hooray": 0,
      "confused": 0,
      "heart": 0,
      "rocket": 0,
      "eyes": 0
    },
    "performed_via_github_app": null
  },
  {
    "url": "https://api.github.com/repos/bitcoin/bitcoin/issues/comments/388105690",
    "html_url": "https://github.com/bitcoin/bitcoin/pull/13112#issuecomment-388105690",
    "issue_url": "https://api.github.com/repos/bitcoin/bitcoin/issues/13112",
    "id": 388105690,
    "node_id": "MDEyOklzc3VlQ29tbWVudDM4ODEwNTY5MA==",
    "user": {
      "login": "achow101",
      "id": 3782274,
      "node_id": "MDQ6VXNlcjM3ODIyNzQ=",
      "avatar_url": "https://avatars.githubusercontent.com/u/3782274?v=4",
      "gravatar_id": "",
      "url": "https://api.github.com/users/achow101",
      "html_url": "https://github.com/achow101",
      "followers_url": "https://api.github.com/users/achow101/followers",
      "following_url": "https://api.github.com/users/achow101/following{/other_user}",
      "gists_url": "https://api.github.com/users/achow101/gists{/gist_id}",
      "starred_url": "https://api.github.com/users/achow101/starred{/owner}{/repo}",
      "subscriptions_url": "https://api.github.com/users/achow101/subscriptions",
      "organizations_url": "https://api.github.com/users/achow101/orgs",
      "repos_url": "https://api.github.com/users/achow101/repos",
      "events_url": "https://api.github.com/users/achow101/events{/privacy}",
      "received_events_url": "https://api.github.com/users/achow101/received_events",
      "type": "User",
      "site_admin": false
    },
    "created_at": "2018-05-10T16:22:49Z",
    "updated_at": "2018-05-10T16:22:49Z",
    "author_association": "MEMBER",
    "body_html": "<p dir=\"auto\">I've squashed down most of the commits as most were related to fixing tests.</p>",
    "body_text": "I've squashed down most of the commits as most were related to fixing tests.",
    "body": "I've squashed down most of the commits as most were related to fixing tests.",
    "reactions": {
      "url": "https://api.github.com/repos/bitcoin/bitcoin/issues/comments/388105690/reactions",
      "total_count": 0,
      "+1": 0,
      "-1": 0,
      "laugh": 0,
      "hooray": 0,
      "confused": 0,
      "heart": 0,
      "rocket": 0,
      "eyes": 0
    },
    "performed_via_github_app": null
  },
  {
    "url": "https://api.github.com/repos/bitcoin/bitcoin/issues/comments/388617356",
    "html_url": "https://github.com/bitcoin/bitcoin/pull/13112#issuecomment-388617356",
    "issue_url": "https://api.github.com/repos/bitcoin/bitcoin/issues/13112",
    "id": 388617356,
    "node_id": "MDEyOklzc3VlQ29tbWVudDM4ODYxNzM1Ng==",
    "user": {
      "login": "promag",
      "id": 3534524,
      "node_id": "MDQ6VXNlcjM1MzQ1MjQ=",
      "avatar_url": "https://avatars.githubusercontent.com/u/3534524?v=4",
      "gravatar_id": "",
      "url": "https://api.github.com/users/promag",
      "html_url": "https://github.com/promag",
      "followers_url": "https://api.github.com/users/promag/followers",
      "following_url": "https://api.github.com/users/promag/following{/other_user}",
      "gists_url": "https://api.github.com/users/promag/gists{/gist_id}",
      "starred_url": "https://api.github.com/users/promag/starred{/owner}{/repo}",
      "subscriptions_url": "https://api.github.com/users/promag/subscriptions",
      "organizations_url": "https://api.github.com/users/promag/orgs",
      "repos_url": "https://api.github.com/users/promag/repos",
      "events_url": "https://api.github.com/users/promag/events{/privacy}",
      "received_events_url": "https://api.github.com/users/promag/received_events",
      "type": "User",
      "site_admin": false
    },
    "created_at": "2018-05-13T10:40:24Z",
    "updated_at": "2018-05-13T10:40:24Z",
    "author_association": "MEMBER",
    "body_html": "<p dir=\"auto\">Needs rebase.</p>",
    "body_text": "Needs rebase.",
    "body": "Needs rebase.",
    "reactions": {
      "url": "https://api.github.com/repos/bitcoin/bitcoin/issues/comments/388617356/reactions",
      "total_count": 0,
      "+1": 0,
      "-1": 0,
      "laugh": 0,
      "hooray": 0,
      "confused": 0,
      "heart": 0,
      "rocket": 0,
      "eyes": 0
    },
    "performed_via_github_app": null
  },
  {
    "url": "https://api.github.com/repos/bitcoin/bitcoin/issues/comments/388637855",
    "html_url": "https://github.com/bitcoin/bitcoin/pull/13112#issuecomment-388637855",
    "issue_url": "https://api.github.com/repos/bitcoin/bitcoin/issues/13112",
    "id": 388637855,
    "node_id": "MDEyOklzc3VlQ29tbWVudDM4ODYzNzg1NQ==",
    "user": {
      "login": "achow101",
      "id": 3782274,
      "node_id": "MDQ6VXNlcjM3ODIyNzQ=",
      "avatar_url": "https://avatars.githubusercontent.com/u/3782274?v=4",
      "gravatar_id": "",
      "url": "https://api.github.com/users/achow101",
      "html_url": "https://github.com/achow101",
      "followers_url": "https://api.github.com/users/achow101/followers",
      "following_url": "https://api.github.com/users/achow101/following{/other_user}",
      "gists_url": "https://api.github.com/users/achow101/gists{/gist_id}",
      "starred_url": "https://api.github.com/users/achow101/starred{/owner}{/repo}",
      "subscriptions_url": "https://api.github.com/users/achow101/subscriptions",
      "organizations_url": "https://api.github.com/users/achow101/orgs",
      "repos_url": "https://api.github.com/users/achow101/repos",
      "events_url": "https://api.github.com/users/achow101/events{/privacy}",
      "received_events_url": "https://api.github.com/users/achow101/received_events",
      "type": "User",
      "site_admin": false
    },
    "created_at": "2018-05-13T16:10:35Z",
    "updated_at": "2018-05-13T16:10:35Z",
    "author_association": "MEMBER",
    "body_html": "<p dir=\"auto\">Rebased</p>",
    "body_text": "Rebased",
    "body": "Rebased",
    "reactions": {
      "url": "https://api.github.com/repos/bitcoin/bitcoin/issues/comments/388637855/reactions",
      "total_count": 0,
      "+1": 0,
      "-1": 0,
      "laugh": 0,
      "hooray": 0,
      "confused": 0,
      "heart": 0,
      "rocket": 0,
      "eyes": 0
    },
    "performed_via_github_app": null
  },
  {
    "url": "https://api.github.com/repos/bitcoin/bitcoin/issues/comments/389407047",
    "html_url": "https://github.com/bitcoin/bitcoin/pull/13112#issuecomment-389407047",
    "issue_url": "https://api.github.com/repos/bitcoin/bitcoin/issues/13112",
    "id": 389407047,
    "node_id": "MDEyOklzc3VlQ29tbWVudDM4OTQwNzA0Nw==",
    "user": {
      "login": "jonasschnelli",
      "id": 178464,
      "node_id": "MDQ6VXNlcjE3ODQ2NA==",
      "avatar_url": "https://avatars.githubusercontent.com/u/178464?v=4",
      "gravatar_id": "",
      "url": "https://api.github.com/users/jonasschnelli",
      "html_url": "https://github.com/jonasschnelli",
      "followers_url": "https://api.github.com/users/jonasschnelli/followers",
      "following_url": "https://api.github.com/users/jonasschnelli/following{/other_user}",
      "gists_url": "https://api.github.com/users/jonasschnelli/gists{/gist_id}",
      "starred_url": "https://api.github.com/users/jonasschnelli/starred{/owner}{/repo}",
      "subscriptions_url": "https://api.github.com/users/jonasschnelli/subscriptions",
      "organizations_url": "https://api.github.com/users/jonasschnelli/orgs",
      "repos_url": "https://api.github.com/users/jonasschnelli/repos",
      "events_url": "https://api.github.com/users/jonasschnelli/events{/privacy}",
      "received_events_url": "https://api.github.com/users/jonasschnelli/received_events",
      "type": "User",
      "site_admin": false
    },
    "created_at": "2018-05-16T06:16:46Z",
    "updated_at": "2018-05-16T06:16:46Z",
    "author_association": "CONTRIBUTOR",
    "body_html": "<p dir=\"auto\">Concept ACK</p>",
    "body_text": "Concept ACK",
    "body": "Concept ACK",
    "reactions": {
      "url": "https://api.github.com/repos/bitcoin/bitcoin/issues/comments/389407047/reactions",
      "total_count": 0,
      "+1": 0,
      "-1": 0,
      "laugh": 0,
      "hooray": 0,
      "confused": 0,
      "heart": 0,
      "rocket": 0,
      "eyes": 0
    },
    "performed_via_github_app": null
  },
  {
    "url": "https://api.github.com/repos/bitcoin/bitcoin/issues/comments/392362489",
    "html_url": "https://github.com/bitcoin/bitcoin/pull/13112#issuecomment-392362489",
    "issue_url": "https://api.github.com/repos/bitcoin/bitcoin/issues/13112",
    "id": 392362489,
    "node_id": "MDEyOklzc3VlQ29tbWVudDM5MjM2MjQ4OQ==",
    "user": {
      "login": "sipa",
      "id": 548488,
      "node_id": "MDQ6VXNlcjU0ODQ4OA==",
      "avatar_url": "https://avatars.githubusercontent.com/u/548488?v=4",
      "gravatar_id": "",
      "url": "https://api.github.com/users/sipa",
      "html_url": "https://github.com/sipa",
      "followers_url": "https://api.github.com/users/sipa/followers",
      "following_url": "https://api.github.com/users/sipa/following{/other_user}",
      "gists_url": "https://api.github.com/users/sipa/gists{/gist_id}",
      "starred_url": "https://api.github.com/users/sipa/starred{/owner}{/repo}",
      "subscriptions_url": "https://api.github.com/users/sipa/subscriptions",
      "organizations_url": "https://api.github.com/users/sipa/orgs",
      "repos_url": "https://api.github.com/users/sipa/repos",
      "events_url": "https://api.github.com/users/sipa/events{/privacy}",
      "received_events_url": "https://api.github.com/users/sipa/received_events",
      "type": "User",
      "site_admin": false
    },
    "created_at": "2018-05-27T20:07:48Z",
    "updated_at": "2018-05-27T20:07:48Z",
    "author_association": "MEMBER",
    "body_html": "<p dir=\"auto\">utACK 22143e4c837e89de0dc6d94943dc791124d1532b. Only difference is addressing my last comment.</p>",
    "body_text": "utACK 22143e4c837e89de0dc6d94943dc791124d1532b. Only difference is addressing my last comment.",
    "body": "utACK 22143e4c837e89de0dc6d94943dc791124d1532b. Only difference is addressing my last comment.",
    "reactions": {
      "url": "https://api.github.com/repos/bitcoin/bitcoin/issues/comments/392362489/reactions",
      "total_count": 0,
      "+1": 0,
      "-1": 0,
      "laugh": 0,
      "hooray": 0,
      "confused": 0,
      "heart": 0,
      "rocket": 0,
      "eyes": 0
    },
    "performed_via_github_app": null
  },
  {
    "url": "https://api.github.com/repos/bitcoin/bitcoin/issues/comments/393171831",
    "html_url": "https://github.com/bitcoin/bitcoin/pull/13112#issuecomment-393171831",
    "issue_url": "https://api.github.com/repos/bitcoin/bitcoin/issues/13112",
    "id": 393171831,
    "node_id": "MDEyOklzc3VlQ29tbWVudDM5MzE3MTgzMQ==",
    "user": {
      "login": "laanwj",
      "id": 126646,
      "node_id": "MDQ6VXNlcjEyNjY0Ng==",
      "avatar_url": "https://avatars.githubusercontent.com/u/126646?v=4",
      "gravatar_id": "",
      "url": "https://api.github.com/users/laanwj",
      "html_url": "https://github.com/laanwj",
      "followers_url": "https://api.github.com/users/laanwj/followers",
      "following_url": "https://api.github.com/users/laanwj/following{/other_user}",
      "gists_url": "https://api.github.com/users/laanwj/gists{/gist_id}",
      "starred_url": "https://api.github.com/users/laanwj/starred{/owner}{/repo}",
      "subscriptions_url": "https://api.github.com/users/laanwj/subscriptions",
      "organizations_url": "https://api.github.com/users/laanwj/orgs",
      "repos_url": "https://api.github.com/users/laanwj/repos",
      "events_url": "https://api.github.com/users/laanwj/events{/privacy}",
      "received_events_url": "https://api.github.com/users/laanwj/received_events",
      "type": "User",
      "site_admin": false
    },
    "created_at": "2018-05-30T13:57:31Z",
    "updated_at": "2018-05-30T14:09:14Z",
    "author_association": "MEMBER",
    "body_html": "<p dir=\"auto\">This is beautiful ✨ , you almost timed this on my issue <a class=\"issue-link js-issue-link\" data-error-text=\"Failed to load title\" data-id=\"3992901\" data-permission-text=\"Title is private\" data-url=\"https://github.com/bitcoin/bitcoin/issues/1044\" data-hovercard-type=\"issue\" data-hovercard-url=\"/bitcoin/bitcoin/issues/1044/hovercard\" href=\"https://github.com/bitcoin/bitcoin/issues/1044\">#1044</a>'s sixth birthday, why didn't I see this before.</p>\n<div class=\"highlight highlight-source-shell notranslate position-relative overflow-auto\" dir=\"auto\" data-snippet-clipboard-copy-content=\"(13112)$ src/bitcoind -esfsfjkshf\nError parsing command line arguments: Invalid parameter -esfsfjkshf\n(13112)$ src/bitcoind -sdfasdf -daemon\nError parsing command line arguments: Invalid parameter -sdfasdf\n(13112)$ src/bitcoind -sdfasdf=2342984 -daemon\nError parsing command line arguments: Invalid parameter -sdfasdf\n(13112)$ vim ~/.bitcoin/bitcoin.conf  # introduce invalid option sfdsf\n(13112)$ src/bitcoind\nError reading configuration file: Invalid configuration value sfdsf\n(13112)$ DISPLAY=:10.0 src/qt/bitcoin-qt -sdfs\n[gives a warning in GUI, after clicking OK it exits]\nSegmentation fault (core dumped)\n#0  QString::~QString ()\n#1  PlatformStyle::~PlatformStyle ()\n    at /.../bitcoin/src/qt/platformstyle.h:13\n#2  BitcoinApplication::~BitcoinApplication (this=0x7fffffffdfb0) at /.../bitcoin/src/qt/bitcoin.cpp:357\n#3  0x00005555555d9d58 in main (argc=&lt;optimized out&gt;, argv=&lt;optimized out&gt;) at /.../bitcoin/src/qt/bitcoin.cpp:760\"><pre class=\"notranslate\">(13112)$ src/bitcoind -esfsfjkshf\nError parsing <span class=\"pl-c1\">command</span> line arguments: Invalid parameter -esfsfjkshf\n(13112)$ src/bitcoind -sdfasdf -daemon\nError parsing <span class=\"pl-c1\">command</span> line arguments: Invalid parameter -sdfasdf\n(13112)$ src/bitcoind -sdfasdf=2342984 -daemon\nError parsing <span class=\"pl-c1\">command</span> line arguments: Invalid parameter -sdfasdf\n(13112)$ vim <span class=\"pl-k\">~</span>/.bitcoin/bitcoin.conf  <span class=\"pl-c\"><span class=\"pl-c\">#</span> introduce invalid option sfdsf</span>\n(13112)$ src/bitcoind\nError reading configuration file: Invalid configuration value sfdsf\n(13112)$ DISPLAY=:10.0 src/qt/bitcoin-qt -sdfs\n[gives a warning <span class=\"pl-k\">in</span> GUI, after clicking OK it exits]\nSegmentation fault (core dumped)\n<span class=\"pl-c\"><span class=\"pl-c\">#</span>0  QString::~QString ()</span>\n<span class=\"pl-c\"><span class=\"pl-c\">#</span>1  PlatformStyle::~PlatformStyle ()</span>\n    at /.../bitcoin/src/qt/platformstyle.h:13\n<span class=\"pl-c\"><span class=\"pl-c\">#</span>2  BitcoinApplication::~BitcoinApplication (this=0x7fffffffdfb0) at /.../bitcoin/src/qt/bitcoin.cpp:357</span>\n<span class=\"pl-c\"><span class=\"pl-c\">#</span>3  0x00005555555d9d58 in main (argc=&lt;optimized out&gt;, argv=&lt;optimized out&gt;) at /.../bitcoin/src/qt/bitcoin.cpp:760</span></pre></div>\n<p dir=\"auto\">So everything works as expected, except there's a segmentation fault in the GUI on early exit (not sure if this is new with this PR, but it's triggered here).</p>\n<p dir=\"auto\">Also needs rebase after <a class=\"issue-link js-issue-link\" data-error-text=\"Failed to load title\" data-id=\"327406491\" data-permission-text=\"Title is private\" data-url=\"https://github.com/bitcoin/bitcoin/issues/13341\" data-hovercard-type=\"pull_request\" data-hovercard-url=\"/bitcoin/bitcoin/pull/13341/hovercard\" href=\"https://github.com/bitcoin/bitcoin/pull/13341\">#13341</a>.</p>",
    "body_text": "This is beautiful ✨ , you almost timed this on my issue #1044's sixth birthday, why didn't I see this before.\n(13112)$ src/bitcoind -esfsfjkshf\nError parsing command line arguments: Invalid parameter -esfsfjkshf\n(13112)$ src/bitcoind -sdfasdf -daemon\nError parsing command line arguments: Invalid parameter -sdfasdf\n(13112)$ src/bitcoind -sdfasdf=2342984 -daemon\nError parsing command line arguments: Invalid parameter -sdfasdf\n(13112)$ vim ~/.bitcoin/bitcoin.conf  # introduce invalid option sfdsf\n(13112)$ src/bitcoind\nError reading configuration file: Invalid configuration value sfdsf\n(13112)$ DISPLAY=:10.0 src/qt/bitcoin-qt -sdfs\n[gives a warning in GUI, after clicking OK it exits]\nSegmentation fault (core dumped)\n#0  QString::~QString ()\n#1  PlatformStyle::~PlatformStyle ()\n    at /.../bitcoin/src/qt/platformstyle.h:13\n#2  BitcoinApplication::~BitcoinApplication (this=0x7fffffffdfb0) at /.../bitcoin/src/qt/bitcoin.cpp:357\n#3  0x00005555555d9d58 in main (argc=<optimized out>, argv=<optimized out>) at /.../bitcoin/src/qt/bitcoin.cpp:760\nSo everything works as expected, except there's a segmentation fault in the GUI on early exit (not sure if this is new with this PR, but it's triggered here).\nAlso needs rebase after #13341.",
    "body": "This is beautiful ✨ , you almost timed this on my issue #1044's sixth birthday, why didn't I see this before.\r\n```bash\r\n(13112)$ src/bitcoind -esfsfjkshf\r\nError parsing command line arguments: Invalid parameter -esfsfjkshf\r\n(13112)$ src/bitcoind -sdfasdf -daemon\r\nError parsing command line arguments: Invalid parameter -sdfasdf\r\n(13112)$ src/bitcoind -sdfasdf=2342984 -daemon\r\nError parsing command line arguments: Invalid parameter -sdfasdf\r\n(13112)$ vim ~/.bitcoin/bitcoin.conf  # introduce invalid option sfdsf\r\n(13112)$ src/bitcoind\r\nError reading configuration file: Invalid configuration value sfdsf\r\n(13112)$ DISPLAY=:10.0 src/qt/bitcoin-qt -sdfs\r\n[gives a warning in GUI, after clicking OK it exits]\r\nSegmentation fault (core dumped)\r\n#0  QString::~QString ()\r\n#1  PlatformStyle::~PlatformStyle ()\r\n    at /.../bitcoin/src/qt/platformstyle.h:13\r\n#2  BitcoinApplication::~BitcoinApplication (this=0x7fffffffdfb0) at /.../bitcoin/src/qt/bitcoin.cpp:357\r\n#3  0x00005555555d9d58 in main (argc=<optimized out>, argv=<optimized out>) at /.../bitcoin/src/qt/bitcoin.cpp:760\r\n```\r\nSo everything works as expected, except there's a segmentation fault in the GUI on early exit (not sure if this is new with this PR, but it's triggered here).\r\n\r\nAlso needs rebase after #13341.",
    "reactions": {
      "url": "https://api.github.com/repos/bitcoin/bitcoin/issues/comments/393171831/reactions",
      "total_count": 0,
      "+1": 0,
      "-1": 0,
      "laugh": 0,
      "hooray": 0,
      "confused": 0,
      "heart": 0,
      "rocket": 0,
      "eyes": 0
    },
    "performed_via_github_app": null
  },
  {
    "url": "https://api.github.com/repos/bitcoin/bitcoin/issues/comments/393206140",
    "html_url": "https://github.com/bitcoin/bitcoin/pull/13112#issuecomment-393206140",
    "issue_url": "https://api.github.com/repos/bitcoin/bitcoin/issues/13112",
    "id": 393206140,
    "node_id": "MDEyOklzc3VlQ29tbWVudDM5MzIwNjE0MA==",
    "user": {
      "login": "achow101",
      "id": 3782274,
      "node_id": "MDQ6VXNlcjM3ODIyNzQ=",
      "avatar_url": "https://avatars.githubusercontent.com/u/3782274?v=4",
      "gravatar_id": "",
      "url": "https://api.github.com/users/achow101",
      "html_url": "https://github.com/achow101",
      "followers_url": "https://api.github.com/users/achow101/followers",
      "following_url": "https://api.github.com/users/achow101/following{/other_user}",
      "gists_url": "https://api.github.com/users/achow101/gists{/gist_id}",
      "starred_url": "https://api.github.com/users/achow101/starred{/owner}{/repo}",
      "subscriptions_url": "https://api.github.com/users/achow101/subscriptions",
      "organizations_url": "https://api.github.com/users/achow101/orgs",
      "repos_url": "https://api.github.com/users/achow101/repos",
      "events_url": "https://api.github.com/users/achow101/events{/privacy}",
      "received_events_url": "https://api.github.com/users/achow101/received_events",
      "type": "User",
      "site_admin": false
    },
    "created_at": "2018-05-30T15:28:16Z",
    "updated_at": "2018-05-30T15:28:16Z",
    "author_association": "MEMBER",
    "body_html": "<p dir=\"auto\">Rebased and fixed the segfault.</p>",
    "body_text": "Rebased and fixed the segfault.",
    "body": "Rebased and fixed the segfault.",
    "reactions": {
      "url": "https://api.github.com/repos/bitcoin/bitcoin/issues/comments/393206140/reactions",
      "total_count": 0,
      "+1": 0,
      "-1": 0,
      "laugh": 0,
      "hooray": 0,
      "confused": 0,
      "heart": 0,
      "rocket": 0,
      "eyes": 0
    },
    "performed_via_github_app": null
  },
  {
    "url": "https://api.github.com/repos/bitcoin/bitcoin/issues/comments/393240185",
    "html_url": "https://github.com/bitcoin/bitcoin/pull/13112#issuecomment-393240185",
    "issue_url": "https://api.github.com/repos/bitcoin/bitcoin/issues/13112",
    "id": 393240185,
    "node_id": "MDEyOklzc3VlQ29tbWVudDM5MzI0MDE4NQ==",
    "user": {
      "login": "laanwj",
      "id": 126646,
      "node_id": "MDQ6VXNlcjEyNjY0Ng==",
      "avatar_url": "https://avatars.githubusercontent.com/u/126646?v=4",
      "gravatar_id": "",
      "url": "https://api.github.com/users/laanwj",
      "html_url": "https://github.com/laanwj",
      "followers_url": "https://api.github.com/users/laanwj/followers",
      "following_url": "https://api.github.com/users/laanwj/following{/other_user}",
      "gists_url": "https://api.github.com/users/laanwj/gists{/gist_id}",
      "starred_url": "https://api.github.com/users/laanwj/starred{/owner}{/repo}",
      "subscriptions_url": "https://api.github.com/users/laanwj/subscriptions",
      "organizations_url": "https://api.github.com/users/laanwj/orgs",
      "repos_url": "https://api.github.com/users/laanwj/repos",
      "events_url": "https://api.github.com/users/laanwj/events{/privacy}",
      "received_events_url": "https://api.github.com/users/laanwj/received_events",
      "type": "User",
      "site_admin": false
    },
    "created_at": "2018-05-30T17:07:46Z",
    "updated_at": "2018-05-30T17:07:46Z",
    "author_association": "MEMBER",
    "body_html": "<p dir=\"auto\">tested ACK <a class=\"commit-link\" data-hovercard-type=\"commit\" data-hovercard-url=\"https://github.com/bitcoin/bitcoin/commit/903055730b57ae7c8d12aca2e3fd0951f12f7e9c/hovercard\" href=\"https://github.com/bitcoin/bitcoin/commit/903055730b57ae7c8d12aca2e3fd0951f12f7e9c\"><tt>9030557</tt></a> (can confirm the gui crash is gone)</p>",
    "body_text": "tested ACK 9030557 (can confirm the gui crash is gone)",
    "body": "tested ACK 903055730b57ae7c8d12aca2e3fd0951f12f7e9c (can confirm the gui crash is gone)",
    "reactions": {
      "url": "https://api.github.com/repos/bitcoin/bitcoin/issues/comments/393240185/reactions",
      "total_count": 0,
      "+1": 0,
      "-1": 0,
      "laugh": 0,
      "hooray": 0,
      "confused": 0,
      "heart": 0,
      "rocket": 0,
      "eyes": 0
    },
    "performed_via_github_app": null
  },
  {
    "url": "https://api.github.com/repos/bitcoin/bitcoin/issues/comments/393251762",
    "html_url": "https://github.com/bitcoin/bitcoin/pull/13112#issuecomment-393251762",
    "issue_url": "https://api.github.com/repos/bitcoin/bitcoin/issues/13112",
    "id": 393251762,
    "node_id": "MDEyOklzc3VlQ29tbWVudDM5MzI1MTc2Mg==",
    "user": {
      "login": "maflcko",
      "id": 6399679,
      "node_id": "MDQ6VXNlcjYzOTk2Nzk=",
      "avatar_url": "https://avatars.githubusercontent.com/u/6399679?v=4",
      "gravatar_id": "",
      "url": "https://api.github.com/users/maflcko",
      "html_url": "https://github.com/maflcko",
      "followers_url": "https://api.github.com/users/maflcko/followers",
      "following_url": "https://api.github.com/users/maflcko/following{/other_user}",
      "gists_url": "https://api.github.com/users/maflcko/gists{/gist_id}",
      "starred_url": "https://api.github.com/users/maflcko/starred{/owner}{/repo}",
      "subscriptions_url": "https://api.github.com/users/maflcko/subscriptions",
      "organizations_url": "https://api.github.com/users/maflcko/orgs",
      "repos_url": "https://api.github.com/users/maflcko/repos",
      "events_url": "https://api.github.com/users/maflcko/events{/privacy}",
      "received_events_url": "https://api.github.com/users/maflcko/received_events",
      "type": "User",
      "site_admin": false
    },
    "created_at": "2018-05-30T17:36:33Z",
    "updated_at": "2018-05-30T17:36:33Z",
    "author_association": "MEMBER",
    "body_html": "<p dir=\"auto\">utACK <a class=\"commit-link\" data-hovercard-type=\"commit\" data-hovercard-url=\"https://github.com/bitcoin/bitcoin/commit/903055730b57ae7c8d12aca2e3fd0951f12f7e9c/hovercard\" href=\"https://github.com/bitcoin/bitcoin/commit/903055730b57ae7c8d12aca2e3fd0951f12f7e9c\"><tt>9030557</tt></a></p>",
    "body_text": "utACK 9030557",
    "body": "utACK 903055730b57ae7c8d12aca2e3fd0951f12f7e9c",
    "reactions": {
      "url": "https://api.github.com/repos/bitcoin/bitcoin/issues/comments/393251762/reactions",
      "total_count": 0,
      "+1": 0,
      "-1": 0,
      "laugh": 0,
      "hooray": 0,
      "confused": 0,
      "heart": 0,
      "rocket": 0,
      "eyes": 0
    },
    "performed_via_github_app": null
  },
  {
    "url": "https://api.github.com/repos/bitcoin/bitcoin/issues/comments/393428043",
    "html_url": "https://github.com/bitcoin/bitcoin/pull/13112#issuecomment-393428043",
    "issue_url": "https://api.github.com/repos/bitcoin/bitcoin/issues/13112",
    "id": 393428043,
    "node_id": "MDEyOklzc3VlQ29tbWVudDM5MzQyODA0Mw==",
    "user": {
      "login": "Sjors",
      "id": 10217,
      "node_id": "MDQ6VXNlcjEwMjE3",
      "avatar_url": "https://avatars.githubusercontent.com/u/10217?v=4",
      "gravatar_id": "",
      "url": "https://api.github.com/users/Sjors",
      "html_url": "https://github.com/Sjors",
      "followers_url": "https://api.github.com/users/Sjors/followers",
      "following_url": "https://api.github.com/users/Sjors/following{/other_user}",
      "gists_url": "https://api.github.com/users/Sjors/gists{/gist_id}",
      "starred_url": "https://api.github.com/users/Sjors/starred{/owner}{/repo}",
      "subscriptions_url": "https://api.github.com/users/Sjors/subscriptions",
      "organizations_url": "https://api.github.com/users/Sjors/orgs",
      "repos_url": "https://api.github.com/users/Sjors/repos",
      "events_url": "https://api.github.com/users/Sjors/events{/privacy}",
      "received_events_url": "https://api.github.com/users/Sjors/received_events",
      "type": "User",
      "site_admin": false
    },
    "created_at": "2018-05-31T06:57:34Z",
    "updated_at": "2018-05-31T06:57:34Z",
    "author_association": "MEMBER",
    "body_html": "<p dir=\"auto\">This might break one or two Docker containers that use $NETWORK=1 where that’s either “testnet” or “bitcoin”. Cc <a class=\"user-mention notranslate\" data-hovercard-type=\"user\" data-hovercard-url=\"/users/NicolasDorier/hovercard\" data-octo-click=\"hovercard-link-click\" data-octo-dimensions=\"link_type:self\" href=\"https://github.com/NicolasDorier\">@NicolasDorier</a> I’ve seen that in some lightning related stuff, though not sure if that was yours.</p>\n<p dir=\"auto\">Anyway, problems like that would be immediately obvious upon the first launch after upgrading.</p>",
    "body_text": "This might break one or two Docker containers that use $NETWORK=1 where that’s either “testnet” or “bitcoin”. Cc @NicolasDorier I’ve seen that in some lightning related stuff, though not sure if that was yours.\nAnyway, problems like that would be immediately obvious upon the first launch after upgrading.",
    "body": "This might break one or two Docker containers that use $NETWORK=1 where that’s either “testnet” or “bitcoin”. Cc @NicolasDorier I’ve seen that in some lightning related stuff, though not sure if that was yours.\r\n\r\nAnyway, problems like that would be immediately obvious upon the first launch after upgrading.",
    "reactions": {
      "url": "https://api.github.com/repos/bitcoin/bitcoin/issues/comments/393428043/reactions",
      "total_count": 0,
      "+1": 0,
      "-1": 0,
      "laugh": 0,
      "hooray": 0,
      "confused": 0,
      "heart": 0,
      "rocket": 0,
      "eyes": 0
    },
    "performed_via_github_app": null
  }
]
