{
  "url": "https://api.github.com/repos/bitcoin/bitcoin/issues/16345",
  "repository_url": "https://api.github.com/repos/bitcoin/bitcoin",
  "labels_url": "https://api.github.com/repos/bitcoin/bitcoin/issues/16345/labels{/name}",
  "comments_url": "https://api.github.com/repos/bitcoin/bitcoin/issues/16345/comments",
  "events_url": "https://api.github.com/repos/bitcoin/bitcoin/issues/16345/events",
  "html_url": "https://github.com/bitcoin/bitcoin/pull/16345",
  "id": 464720320,
  "node_id": "MDExOlB1bGxSZXF1ZXN0Mjk0OTQwNTUw",
  "number": 16345,
  "title": "rpc: Add getblockbyheight method",
  "user": {
    "login": "emilengler",
    "id": 12272949,
    "node_id": "MDQ6VXNlcjEyMjcyOTQ5",
    "avatar_url": "https://avatars.githubusercontent.com/u/12272949?v=4",
    "gravatar_id": "",
    "url": "https://api.github.com/users/emilengler",
    "html_url": "https://github.com/emilengler",
    "followers_url": "https://api.github.com/users/emilengler/followers",
    "following_url": "https://api.github.com/users/emilengler/following{/other_user}",
    "gists_url": "https://api.github.com/users/emilengler/gists{/gist_id}",
    "starred_url": "https://api.github.com/users/emilengler/starred{/owner}{/repo}",
    "subscriptions_url": "https://api.github.com/users/emilengler/subscriptions",
    "organizations_url": "https://api.github.com/users/emilengler/orgs",
    "repos_url": "https://api.github.com/users/emilengler/repos",
    "events_url": "https://api.github.com/users/emilengler/events{/privacy}",
    "received_events_url": "https://api.github.com/users/emilengler/received_events",
    "type": "User",
    "site_admin": false
  },
  "labels": [
    {
      "id": 64583,
      "node_id": "MDU6TGFiZWw2NDU4Mw==",
      "url": "https://api.github.com/repos/bitcoin/bitcoin/labels/Feature",
      "name": "Feature",
      "color": "7cf575",
      "default": false,
      "description": null
    },
    {
      "id": 98279177,
      "node_id": "MDU6TGFiZWw5ODI3OTE3Nw==",
      "url": "https://api.github.com/repos/bitcoin/bitcoin/labels/RPC/REST/ZMQ",
      "name": "RPC/REST/ZMQ",
      "color": "0052cc",
      "default": false,
      "description": null
    }
  ],
  "state": "closed",
  "locked": true,
  "assignee": null,
  "assignees": [

  ],
  "milestone": null,
  "comments": 46,
  "created_at": "2019-07-05T17:16:35Z",
  "updated_at": "2021-12-16T14:11:14Z",
  "closed_at": "2019-10-14T15:27:53Z",
  "author_association": "CONTRIBUTOR",
  "active_lock_reason": "resolved",
  "draft": false,
  "pull_request": {
    "url": "https://api.github.com/repos/bitcoin/bitcoin/pulls/16345",
    "html_url": "https://github.com/bitcoin/bitcoin/pull/16345",
    "diff_url": "https://github.com/bitcoin/bitcoin/pull/16345.diff",
    "patch_url": "https://github.com/bitcoin/bitcoin/pull/16345.patch",
    "merged_at": null
  },
  "body_html": "<p dir=\"auto\">As such a feature get requested a lot (<a class=\"issue-link js-issue-link\" data-error-text=\"Failed to load title\" data-id=\"462359785\" data-permission-text=\"Title is private\" data-url=\"https://github.com/bitcoin/bitcoin/issues/16317\" data-hovercard-type=\"pull_request\" data-hovercard-url=\"/bitcoin/bitcoin/pull/16317/hovercard\" href=\"https://github.com/bitcoin/bitcoin/pull/16317\">#16317</a>, <a class=\"issue-link js-issue-link\" data-error-text=\"Failed to load title\" data-id=\"386590186\" data-permission-text=\"Title is private\" data-url=\"https://github.com/bitcoin/bitcoin/issues/14858\" data-hovercard-type=\"pull_request\" data-hovercard-url=\"/bitcoin/bitcoin/pull/14858/hovercard\" href=\"https://github.com/bitcoin/bitcoin/pull/14858\">#14858</a> and <a class=\"issue-link js-issue-link\" data-error-text=\"Failed to load title\" data-id=\"169416033\" data-permission-text=\"Title is private\" data-url=\"https://github.com/bitcoin/bitcoin/issues/8457\" data-hovercard-type=\"pull_request\" data-hovercard-url=\"/bitcoin/bitcoin/pull/8457/hovercard\" href=\"https://github.com/bitcoin/bitcoin/pull/8457\">#8457</a>), I've implemented it into a <strong>new</strong> RPC call called <code class=\"notranslate\">getblockbyheight</code> as it was discussed in <a class=\"issue-link js-issue-link\" data-error-text=\"Failed to load title\" data-id=\"462359785\" data-permission-text=\"Title is private\" data-url=\"https://github.com/bitcoin/bitcoin/issues/16317\" data-hovercard-type=\"pull_request\" data-hovercard-url=\"/bitcoin/bitcoin/pull/16317/hovercard\" href=\"https://github.com/bitcoin/bitcoin/pull/16317\">#16317</a><br>\nIn the past this feature got requested for the <code class=\"notranslate\">getblock</code> command but it isn't a good idea to interpret a string as a number because it breaks API consistency.</p>\n<p dir=\"auto\">The function is basically just a duplicate of <code class=\"notranslate\">getblock</code> with the exception that it gets the hash by the height (first parameter) and not by the hash as a parameter.</p>\n<p dir=\"auto\">It also checks if the block exists by comparing the height with the total height or if the block is negative.</p>\n<p dir=\"auto\">EDIT: I improved the code with the help of fqlx so it no longer contains some of the getblock legacy.</p>",
  "body_text": "As such a feature get requested a lot (#16317, #14858 and #8457), I've implemented it into a new RPC call called getblockbyheight as it was discussed in #16317\nIn the past this feature got requested for the getblock command but it isn't a good idea to interpret a string as a number because it breaks API consistency.\nThe function is basically just a duplicate of getblock with the exception that it gets the hash by the height (first parameter) and not by the hash as a parameter.\nIt also checks if the block exists by comparing the height with the total height or if the block is negative.\nEDIT: I improved the code with the help of fqlx so it no longer contains some of the getblock legacy.",
  "body": "As such a feature get requested a lot (#16317, #14858 and #8457), I've implemented it into a **new** RPC call called `getblockbyheight` as it was discussed in #16317 \r\nIn the past this feature got requested for the `getblock` command but it isn't a good idea to interpret a string as a number because it breaks API consistency.\r\n\r\nThe function is basically just a duplicate of `getblock` with the exception that it gets the hash by the height (first parameter) and not by the hash as a parameter.\r\n\r\nIt also checks if the block exists by comparing the height with the total height or if the block is negative.\r\n\r\nEDIT: I improved the code with the help of fqlx so it no longer contains some of the getblock legacy.",
  "closed_by": {
    "login": "emilengler",
    "id": 12272949,
    "node_id": "MDQ6VXNlcjEyMjcyOTQ5",
    "avatar_url": "https://avatars.githubusercontent.com/u/12272949?v=4",
    "gravatar_id": "",
    "url": "https://api.github.com/users/emilengler",
    "html_url": "https://github.com/emilengler",
    "followers_url": "https://api.github.com/users/emilengler/followers",
    "following_url": "https://api.github.com/users/emilengler/following{/other_user}",
    "gists_url": "https://api.github.com/users/emilengler/gists{/gist_id}",
    "starred_url": "https://api.github.com/users/emilengler/starred{/owner}{/repo}",
    "subscriptions_url": "https://api.github.com/users/emilengler/subscriptions",
    "organizations_url": "https://api.github.com/users/emilengler/orgs",
    "repos_url": "https://api.github.com/users/emilengler/repos",
    "events_url": "https://api.github.com/users/emilengler/events{/privacy}",
    "received_events_url": "https://api.github.com/users/emilengler/received_events",
    "type": "User",
    "site_admin": false
  },
  "reactions": {
    "url": "https://api.github.com/repos/bitcoin/bitcoin/issues/16345/reactions",
    "total_count": 0,
    "+1": 0,
    "-1": 0,
    "laugh": 0,
    "hooray": 0,
    "confused": 0,
    "heart": 0,
    "rocket": 0,
    "eyes": 0
  },
  "timeline_url": "https://api.github.com/repos/bitcoin/bitcoin/issues/16345/timeline",
  "performed_via_github_app": null,
  "state_reason": null
}
