{
  "url": "https://api.github.com/repos/bitcoin/bitcoin/issues/8315",
  "repository_url": "https://api.github.com/repos/bitcoin/bitcoin",
  "labels_url": "https://api.github.com/repos/bitcoin/bitcoin/issues/8315/labels{/name}",
  "comments_url": "https://api.github.com/repos/bitcoin/bitcoin/issues/8315/comments",
  "events_url": "https://api.github.com/repos/bitcoin/bitcoin/issues/8315/events",
  "html_url": "https://github.com/bitcoin/bitcoin/pull/8315",
  "id": 164435220,
  "node_id": "MDExOlB1bGxSZXF1ZXN0NzY2ODU1MjQ=",
  "number": 8315,
  "title": "gitian: Don't require sudo for Linux.",
  "user": {
    "login": "theuni",
    "id": 417043,
    "node_id": "MDQ6VXNlcjQxNzA0Mw==",
    "avatar_url": "https://avatars.githubusercontent.com/u/417043?v=4",
    "gravatar_id": "",
    "url": "https://api.github.com/users/theuni",
    "html_url": "https://github.com/theuni",
    "followers_url": "https://api.github.com/users/theuni/followers",
    "following_url": "https://api.github.com/users/theuni/following{/other_user}",
    "gists_url": "https://api.github.com/users/theuni/gists{/gist_id}",
    "starred_url": "https://api.github.com/users/theuni/starred{/owner}{/repo}",
    "subscriptions_url": "https://api.github.com/users/theuni/subscriptions",
    "organizations_url": "https://api.github.com/users/theuni/orgs",
    "repos_url": "https://api.github.com/users/theuni/repos",
    "events_url": "https://api.github.com/users/theuni/events{/privacy}",
    "received_events_url": "https://api.github.com/users/theuni/received_events",
    "type": "User",
    "site_admin": false
  },
  "labels": [
    {
      "id": 61889416,
      "node_id": "MDU6TGFiZWw2MTg4OTQxNg==",
      "url": "https://api.github.com/repos/bitcoin/bitcoin/labels/Build%20system",
      "name": "Build system",
      "color": "5319e7",
      "default": false,
      "description": null
    }
  ],
  "state": "closed",
  "locked": true,
  "assignee": null,
  "assignees": [

  ],
  "milestone": {
    "url": "https://api.github.com/repos/bitcoin/bitcoin/milestones/20",
    "html_url": "https://github.com/bitcoin/bitcoin/milestone/20",
    "labels_url": "https://api.github.com/repos/bitcoin/bitcoin/milestones/20/labels",
    "id": 1441894,
    "node_id": "MDk6TWlsZXN0b25lMTQ0MTg5NA==",
    "number": 20,
    "title": "0.13.0",
    "description": "",
    "creator": {
      "login": "laanwj",
      "id": 126646,
      "node_id": "MDQ6VXNlcjEyNjY0Ng==",
      "avatar_url": "https://avatars.githubusercontent.com/u/126646?v=4",
      "gravatar_id": "",
      "url": "https://api.github.com/users/laanwj",
      "html_url": "https://github.com/laanwj",
      "followers_url": "https://api.github.com/users/laanwj/followers",
      "following_url": "https://api.github.com/users/laanwj/following{/other_user}",
      "gists_url": "https://api.github.com/users/laanwj/gists{/gist_id}",
      "starred_url": "https://api.github.com/users/laanwj/starred{/owner}{/repo}",
      "subscriptions_url": "https://api.github.com/users/laanwj/subscriptions",
      "organizations_url": "https://api.github.com/users/laanwj/orgs",
      "repos_url": "https://api.github.com/users/laanwj/repos",
      "events_url": "https://api.github.com/users/laanwj/events{/privacy}",
      "received_events_url": "https://api.github.com/users/laanwj/received_events",
      "type": "User",
      "site_admin": false
    },
    "open_issues": 0,
    "closed_issues": 66,
    "state": "closed",
    "created_at": "2015-12-03T11:07:58Z",
    "updated_at": "2016-08-25T08:49:42Z",
    "due_on": null,
    "closed_at": "2016-08-25T08:49:42Z"
  },
  "comments": 3,
  "created_at": "2016-07-08T00:16:18Z",
  "updated_at": "2021-09-08T11:41:07Z",
  "closed_at": "2016-07-08T10:03:00Z",
  "author_association": "MEMBER",
  "active_lock_reason": "resolved",
  "draft": false,
  "pull_request": {
    "url": "https://api.github.com/repos/bitcoin/bitcoin/pulls/8315",
    "html_url": "https://github.com/bitcoin/bitcoin/pull/8315",
    "diff_url": "https://github.com/bitcoin/bitcoin/pull/8315.diff",
    "patch_url": "https://github.com/bitcoin/bitcoin/pull/8315.patch",
    "merged_at": "2016-07-08T10:03:00Z"
  },
  "body_html": "<p dir=\"auto\"><span class=\"issue-keyword tooltipped tooltipped-se\" aria-label=\"This pull request closes issue #8212.\">Fixes</span> <a class=\"issue-link js-issue-link\" data-error-text=\"Failed to load title\" data-id=\"160832322\" data-permission-text=\"Title is private\" data-url=\"https://github.com/bitcoin/bitcoin/issues/8212\" data-hovercard-type=\"issue\" data-hovercard-url=\"/bitcoin/bitcoin/issues/8212/hovercard\" href=\"https://github.com/bitcoin/bitcoin/issues/8212\">#8212</a>. See commit message for details.</p>\n<p dir=\"auto\">This simply wraps gcc/g++ rather than requiring a new descriptor.</p>",
  "body_text": "Fixes #8212. See commit message for details.\nThis simply wraps gcc/g++ rather than requiring a new descriptor.",
  "body": "Fixes #8212. See commit message for details.\n\nThis simply wraps gcc/g++ rather than requiring a new descriptor.\n",
  "closed_by": {
    "login": "laanwj",
    "id": 126646,
    "node_id": "MDQ6VXNlcjEyNjY0Ng==",
    "avatar_url": "https://avatars.githubusercontent.com/u/126646?v=4",
    "gravatar_id": "",
    "url": "https://api.github.com/users/laanwj",
    "html_url": "https://github.com/laanwj",
    "followers_url": "https://api.github.com/users/laanwj/followers",
    "following_url": "https://api.github.com/users/laanwj/following{/other_user}",
    "gists_url": "https://api.github.com/users/laanwj/gists{/gist_id}",
    "starred_url": "https://api.github.com/users/laanwj/starred{/owner}{/repo}",
    "subscriptions_url": "https://api.github.com/users/laanwj/subscriptions",
    "organizations_url": "https://api.github.com/users/laanwj/orgs",
    "repos_url": "https://api.github.com/users/laanwj/repos",
    "events_url": "https://api.github.com/users/laanwj/events{/privacy}",
    "received_events_url": "https://api.github.com/users/laanwj/received_events",
    "type": "User",
    "site_admin": false
  },
  "reactions": {
    "url": "https://api.github.com/repos/bitcoin/bitcoin/issues/8315/reactions",
    "total_count": 0,
    "+1": 0,
    "-1": 0,
    "laugh": 0,
    "hooray": 0,
    "confused": 0,
    "heart": 0,
    "rocket": 0,
    "eyes": 0
  },
  "timeline_url": "https://api.github.com/repos/bitcoin/bitcoin/issues/8315/timeline",
  "performed_via_github_app": null,
  "state_reason": null
}
