{
  "url": "https://api.github.com/repos/bitcoin/bitcoin/issues/17044",
  "repository_url": "https://api.github.com/repos/bitcoin/bitcoin",
  "labels_url": "https://api.github.com/repos/bitcoin/bitcoin/issues/17044/labels{/name}",
  "comments_url": "https://api.github.com/repos/bitcoin/bitcoin/issues/17044/comments",
  "events_url": "https://api.github.com/repos/bitcoin/bitcoin/issues/17044/events",
  "html_url": "https://github.com/bitcoin/bitcoin/pull/17044",
  "id": 502240499,
  "node_id": "MDExOlB1bGxSZXF1ZXN0MzI0MzYwODEy",
  "number": 17044,
  "title": "init: Remove auto-import of `bootstrap.dat` and associated code",
  "user": {
    "login": "fjahr",
    "id": 1322187,
    "node_id": "MDQ6VXNlcjEzMjIxODc=",
    "avatar_url": "https://avatars.githubusercontent.com/u/1322187?v=4",
    "gravatar_id": "",
    "url": "https://api.github.com/users/fjahr",
    "html_url": "https://github.com/fjahr",
    "followers_url": "https://api.github.com/users/fjahr/followers",
    "following_url": "https://api.github.com/users/fjahr/following{/other_user}",
    "gists_url": "https://api.github.com/users/fjahr/gists{/gist_id}",
    "starred_url": "https://api.github.com/users/fjahr/starred{/owner}{/repo}",
    "subscriptions_url": "https://api.github.com/users/fjahr/subscriptions",
    "organizations_url": "https://api.github.com/users/fjahr/orgs",
    "repos_url": "https://api.github.com/users/fjahr/repos",
    "events_url": "https://api.github.com/users/fjahr/events{/privacy}",
    "received_events_url": "https://api.github.com/users/fjahr/received_events",
    "type": "User",
    "site_admin": false
  },
  "labels": [
    {
      "id": 219890555,
      "node_id": "MDU6TGFiZWwyMTk4OTA1NTU=",
      "url": "https://api.github.com/repos/bitcoin/bitcoin/labels/Block%20storage",
      "name": "Block storage",
      "color": "000000",
      "default": false,
      "description": null
    }
  ],
  "state": "closed",
  "locked": true,
  "assignee": null,
  "assignees": [

  ],
  "milestone": null,
  "comments": 8,
  "created_at": "2019-10-03T19:00:31Z",
  "updated_at": "2021-12-16T14:54:51Z",
  "closed_at": "2019-11-05T18:25:46Z",
  "author_association": "CONTRIBUTOR",
  "active_lock_reason": "resolved",
  "draft": false,
  "pull_request": {
    "url": "https://api.github.com/repos/bitcoin/bitcoin/pulls/17044",
    "html_url": "https://github.com/bitcoin/bitcoin/pull/17044",
    "diff_url": "https://github.com/bitcoin/bitcoin/pull/17044.diff",
    "patch_url": "https://github.com/bitcoin/bitcoin/pull/17044.patch",
    "merged_at": "2019-11-05T18:25:46Z"
  },
  "body_html": "<p dir=\"auto\">This picks up <a class=\"issue-link js-issue-link\" data-error-text=\"Failed to load title\" data-id=\"440391835\" data-permission-text=\"Title is private\" data-url=\"https://github.com/bitcoin/bitcoin/issues/15954\" data-hovercard-type=\"pull_request\" data-hovercard-url=\"/bitcoin/bitcoin/pull/15954/hovercard\" href=\"https://github.com/bitcoin/bitcoin/pull/15954\">#15954</a></p>\n<p dir=\"auto\">I fixed the code and added at a functional test utilizing the scripts in <code class=\"notranslate\">contrib/linearize</code> as suggested by <a class=\"user-mention notranslate\" data-hovercard-type=\"user\" data-hovercard-url=\"/users/MarcoFalke/hovercard\" data-octo-click=\"hovercard-link-click\" data-octo-dimensions=\"link_type:self\" href=\"https://github.com/MarcoFalke\">@MarcoFalke</a> .</p>",
  "body_text": "This picks up #15954\nI fixed the code and added at a functional test utilizing the scripts in contrib/linearize as suggested by @MarcoFalke .",
  "body": "This picks up #15954 \r\n\r\nI fixed the code and added at a functional test utilizing the scripts in `contrib/linearize` as suggested by @MarcoFalke .",
  "closed_by": {
    "login": "laanwj",
    "id": 126646,
    "node_id": "MDQ6VXNlcjEyNjY0Ng==",
    "avatar_url": "https://avatars.githubusercontent.com/u/126646?v=4",
    "gravatar_id": "",
    "url": "https://api.github.com/users/laanwj",
    "html_url": "https://github.com/laanwj",
    "followers_url": "https://api.github.com/users/laanwj/followers",
    "following_url": "https://api.github.com/users/laanwj/following{/other_user}",
    "gists_url": "https://api.github.com/users/laanwj/gists{/gist_id}",
    "starred_url": "https://api.github.com/users/laanwj/starred{/owner}{/repo}",
    "subscriptions_url": "https://api.github.com/users/laanwj/subscriptions",
    "organizations_url": "https://api.github.com/users/laanwj/orgs",
    "repos_url": "https://api.github.com/users/laanwj/repos",
    "events_url": "https://api.github.com/users/laanwj/events{/privacy}",
    "received_events_url": "https://api.github.com/users/laanwj/received_events",
    "type": "User",
    "site_admin": false
  },
  "reactions": {
    "url": "https://api.github.com/repos/bitcoin/bitcoin/issues/17044/reactions",
    "total_count": 0,
    "+1": 0,
    "-1": 0,
    "laugh": 0,
    "hooray": 0,
    "confused": 0,
    "heart": 0,
    "rocket": 0,
    "eyes": 0
  },
  "timeline_url": "https://api.github.com/repos/bitcoin/bitcoin/issues/17044/timeline",
  "performed_via_github_app": null,
  "state_reason": null
}
