[
  {
    "url": "https://api.github.com/repos/bitcoin/bitcoin/issues/comments/1494262483",
    "html_url": "https://github.com/bitcoin/bitcoin/pull/27405#issuecomment-1494262483",
    "issue_url": "https://api.github.com/repos/bitcoin/bitcoin/issues/27405",
    "id": 1494262483,
    "node_id": "IC_kwDOABII585ZEKLT",
    "user": {
      "login": "DrahtBot",
      "id": 39886733,
      "node_id": "MDQ6VXNlcjM5ODg2NzMz",
      "avatar_url": "https://avatars.githubusercontent.com/u/39886733?v=4",
      "gravatar_id": "",
      "url": "https://api.github.com/users/DrahtBot",
      "html_url": "https://github.com/DrahtBot",
      "followers_url": "https://api.github.com/users/DrahtBot/followers",
      "following_url": "https://api.github.com/users/DrahtBot/following{/other_user}",
      "gists_url": "https://api.github.com/users/DrahtBot/gists{/gist_id}",
      "starred_url": "https://api.github.com/users/DrahtBot/starred{/owner}{/repo}",
      "subscriptions_url": "https://api.github.com/users/DrahtBot/subscriptions",
      "organizations_url": "https://api.github.com/users/DrahtBot/orgs",
      "repos_url": "https://api.github.com/users/DrahtBot/repos",
      "events_url": "https://api.github.com/users/DrahtBot/events{/privacy}",
      "received_events_url": "https://api.github.com/users/DrahtBot/received_events",
      "type": "User",
      "site_admin": false
    },
    "created_at": "2023-04-03T12:47:44Z",
    "updated_at": "2023-05-05T18:32:12Z",
    "author_association": "CONTRIBUTOR",
    "body_html": "\n<p dir=\"auto\">The following sections might be updated with supplementary metadata relevant to reviewers and maintainers.</p>\n\n<h3 dir=\"auto\">Reviews</h3>\n<p dir=\"auto\">See <a href=\"https://github.com/bitcoin/bitcoin/blob/master/CONTRIBUTING.md#code-review\">the guideline</a> for information on the review process.</p>\n<table role=\"table\">\n<thead>\n<tr>\n<th>Type</th>\n<th>Reviewers</th>\n</tr>\n</thead>\n<tbody>\n<tr>\n<td>ACK</td>\n<td><a href=\"https://github.com/bitcoin/bitcoin/pull/27405#issuecomment-1535999135\" data-hovercard-type=\"pull_request\" data-hovercard-url=\"/bitcoin/bitcoin/pull/27405/hovercard\">willcl-ark</a>, <a href=\"https://github.com/bitcoin/bitcoin/pull/27405#pullrequestreview-1415266523\" data-hovercard-type=\"pull_request\" data-hovercard-url=\"/bitcoin/bitcoin/pull/27405/hovercard\">martinus</a></td>\n</tr>\n<tr>\n<td>Concept ACK</td>\n<td><a href=\"https://github.com/bitcoin/bitcoin/pull/27405#issuecomment-1494263678\" data-hovercard-type=\"pull_request\" data-hovercard-url=\"/bitcoin/bitcoin/pull/27405/hovercard\">dergoegge</a>, <a href=\"https://github.com/bitcoin/bitcoin/pull/27405#issuecomment-1495674216\" data-hovercard-type=\"pull_request\" data-hovercard-url=\"/bitcoin/bitcoin/pull/27405/hovercard\">fanquake</a>, <a href=\"https://github.com/bitcoin/bitcoin/pull/27405#issuecomment-1536244850\" data-hovercard-type=\"pull_request\" data-hovercard-url=\"/bitcoin/bitcoin/pull/27405/hovercard\">RandyMcMillan</a></td>\n</tr>\n</tbody>\n</table>\n<p dir=\"auto\">If your review is incorrectly listed, please react with 👎 to this comment and the bot will ignore it on the next update.</p>\n\n<h3 dir=\"auto\">Conflicts</h3>\n<p dir=\"auto\">No conflicts as of last run.</p>",
    "body_text": "The following sections might be updated with supplementary metadata relevant to reviewers and maintainers.\n\nReviews\nSee the guideline for information on the review process.\n\n\n\nType\nReviewers\n\n\n\n\nACK\nwillcl-ark, martinus\n\n\nConcept ACK\ndergoegge, fanquake, RandyMcMillan\n\n\n\nIf your review is incorrectly listed, please react with 👎 to this comment and the bot will ignore it on the next update.\n\nConflicts\nNo conflicts as of last run.",
    "body": "<!--e57a25ab6845829454e8d69fc972939a-->\n\nThe following sections might be updated with supplementary metadata relevant to reviewers and maintainers.\n\n<!--021abf342d371248e50ceaed478a90ca-->\n### Reviews\nSee [the guideline](https://github.com/bitcoin/bitcoin/blob/master/CONTRIBUTING.md#code-review) for information on the review process.\n| Type | Reviewers |\n| ---- | --------- |\n| ACK | [willcl-ark](https://github.com/bitcoin/bitcoin/pull/27405#issuecomment-1535999135), [martinus](https://github.com/bitcoin/bitcoin/pull/27405#pullrequestreview-1415266523) |\n| Concept ACK | [dergoegge](https://github.com/bitcoin/bitcoin/pull/27405#issuecomment-1494263678), [fanquake](https://github.com/bitcoin/bitcoin/pull/27405#issuecomment-1495674216), [RandyMcMillan](https://github.com/bitcoin/bitcoin/pull/27405#issuecomment-1536244850) |\n\nIf your review is incorrectly listed, please react with 👎 to this comment and the bot will ignore it on the next update.\n<!--174a7506f384e20aa4161008e828411d-->\n### Conflicts\nNo conflicts as of last run.\n",
    "reactions": {
      "url": "https://api.github.com/repos/bitcoin/bitcoin/issues/comments/1494262483/reactions",
      "total_count": 0,
      "+1": 0,
      "-1": 0,
      "laugh": 0,
      "hooray": 0,
      "confused": 0,
      "heart": 0,
      "rocket": 0,
      "eyes": 0
    },
    "performed_via_github_app": null
  },
  {
    "url": "https://api.github.com/repos/bitcoin/bitcoin/issues/comments/1494263678",
    "html_url": "https://github.com/bitcoin/bitcoin/pull/27405#issuecomment-1494263678",
    "issue_url": "https://api.github.com/repos/bitcoin/bitcoin/issues/27405",
    "id": 1494263678,
    "node_id": "IC_kwDOABII585ZEKd-",
    "user": {
      "login": "dergoegge",
      "id": 8077169,
      "node_id": "MDQ6VXNlcjgwNzcxNjk=",
      "avatar_url": "https://avatars.githubusercontent.com/u/8077169?v=4",
      "gravatar_id": "",
      "url": "https://api.github.com/users/dergoegge",
      "html_url": "https://github.com/dergoegge",
      "followers_url": "https://api.github.com/users/dergoegge/followers",
      "following_url": "https://api.github.com/users/dergoegge/following{/other_user}",
      "gists_url": "https://api.github.com/users/dergoegge/gists{/gist_id}",
      "starred_url": "https://api.github.com/users/dergoegge/starred{/owner}{/repo}",
      "subscriptions_url": "https://api.github.com/users/dergoegge/subscriptions",
      "organizations_url": "https://api.github.com/users/dergoegge/orgs",
      "repos_url": "https://api.github.com/users/dergoegge/repos",
      "events_url": "https://api.github.com/users/dergoegge/events{/privacy}",
      "received_events_url": "https://api.github.com/users/dergoegge/received_events",
      "type": "User",
      "site_admin": false
    },
    "created_at": "2023-04-03T12:48:40Z",
    "updated_at": "2023-04-03T12:48:40Z",
    "author_association": "MEMBER",
    "body_html": "<p dir=\"auto\">Concept ACK</p>",
    "body_text": "Concept ACK",
    "body": "Concept ACK",
    "reactions": {
      "url": "https://api.github.com/repos/bitcoin/bitcoin/issues/comments/1494263678/reactions",
      "total_count": 1,
      "+1": 0,
      "-1": 0,
      "laugh": 0,
      "hooray": 0,
      "confused": 0,
      "heart": 0,
      "rocket": 1,
      "eyes": 0
    },
    "performed_via_github_app": null
  },
  {
    "url": "https://api.github.com/repos/bitcoin/bitcoin/issues/comments/1495674216",
    "html_url": "https://github.com/bitcoin/bitcoin/pull/27405#issuecomment-1495674216",
    "issue_url": "https://api.github.com/repos/bitcoin/bitcoin/issues/27405",
    "id": 1495674216,
    "node_id": "IC_kwDOABII585ZJi1o",
    "user": {
      "login": "fanquake",
      "id": 863730,
      "node_id": "MDQ6VXNlcjg2MzczMA==",
      "avatar_url": "https://avatars.githubusercontent.com/u/863730?v=4",
      "gravatar_id": "",
      "url": "https://api.github.com/users/fanquake",
      "html_url": "https://github.com/fanquake",
      "followers_url": "https://api.github.com/users/fanquake/followers",
      "following_url": "https://api.github.com/users/fanquake/following{/other_user}",
      "gists_url": "https://api.github.com/users/fanquake/gists{/gist_id}",
      "starred_url": "https://api.github.com/users/fanquake/starred{/owner}{/repo}",
      "subscriptions_url": "https://api.github.com/users/fanquake/subscriptions",
      "organizations_url": "https://api.github.com/users/fanquake/orgs",
      "repos_url": "https://api.github.com/users/fanquake/repos",
      "events_url": "https://api.github.com/users/fanquake/events{/privacy}",
      "received_events_url": "https://api.github.com/users/fanquake/received_events",
      "type": "User",
      "site_admin": false
    },
    "created_at": "2023-04-04T09:50:42Z",
    "updated_at": "2023-04-04T09:50:42Z",
    "author_association": "MEMBER",
    "body_html": "<p dir=\"auto\">Concept ACK</p>",
    "body_text": "Concept ACK",
    "body": "Concept ACK",
    "reactions": {
      "url": "https://api.github.com/repos/bitcoin/bitcoin/issues/comments/1495674216/reactions",
      "total_count": 0,
      "+1": 0,
      "-1": 0,
      "laugh": 0,
      "hooray": 0,
      "confused": 0,
      "heart": 0,
      "rocket": 0,
      "eyes": 0
    },
    "performed_via_github_app": null
  },
  {
    "url": "https://api.github.com/repos/bitcoin/bitcoin/issues/comments/1535999135",
    "html_url": "https://github.com/bitcoin/bitcoin/pull/27405#issuecomment-1535999135",
    "issue_url": "https://api.github.com/repos/bitcoin/bitcoin/issues/27405",
    "id": 1535999135,
    "node_id": "IC_kwDOABII585bjXyf",
    "user": {
      "login": "willcl-ark",
      "id": 6606587,
      "node_id": "MDQ6VXNlcjY2MDY1ODc=",
      "avatar_url": "https://avatars.githubusercontent.com/u/6606587?v=4",
      "gravatar_id": "",
      "url": "https://api.github.com/users/willcl-ark",
      "html_url": "https://github.com/willcl-ark",
      "followers_url": "https://api.github.com/users/willcl-ark/followers",
      "following_url": "https://api.github.com/users/willcl-ark/following{/other_user}",
      "gists_url": "https://api.github.com/users/willcl-ark/gists{/gist_id}",
      "starred_url": "https://api.github.com/users/willcl-ark/starred{/owner}{/repo}",
      "subscriptions_url": "https://api.github.com/users/willcl-ark/subscriptions",
      "organizations_url": "https://api.github.com/users/willcl-ark/orgs",
      "repos_url": "https://api.github.com/users/willcl-ark/repos",
      "events_url": "https://api.github.com/users/willcl-ark/events{/privacy}",
      "received_events_url": "https://api.github.com/users/willcl-ark/received_events",
      "type": "User",
      "site_admin": false
    },
    "created_at": "2023-05-05T09:42:32Z",
    "updated_at": "2023-05-05T09:42:32Z",
    "author_association": "MEMBER",
    "body_html": "<p dir=\"auto\">ACK <a class=\"commit-link\" data-hovercard-type=\"commit\" data-hovercard-url=\"https://github.com/bitcoin/bitcoin/commit/fa83fb31619c19a1a30b4181486601a944941b16/hovercard\" href=\"https://github.com/bitcoin/bitcoin/commit/fa83fb31619c19a1a30b4181486601a944941b16\"><tt>fa83fb3</tt></a></p>\n<p dir=\"auto\">This is a nice cleanup to the clocks.</p>\n<p dir=\"auto\">There are a few time values left as other types in the codebase, but it doesn't make sense to change them as they are being used as those types by other components (mainly libevent it seems).</p>",
    "body_text": "ACK fa83fb3\nThis is a nice cleanup to the clocks.\nThere are a few time values left as other types in the codebase, but it doesn't make sense to change them as they are being used as those types by other components (mainly libevent it seems).",
    "body": "ACK fa83fb3161\r\n\r\nThis is a nice cleanup to the clocks.\r\n\r\nThere are a few time values left as other types in the codebase, but it doesn't make sense to change them as they are being used as those types by other components (mainly libevent it seems).",
    "reactions": {
      "url": "https://api.github.com/repos/bitcoin/bitcoin/issues/comments/1535999135/reactions",
      "total_count": 1,
      "+1": 0,
      "-1": 0,
      "laugh": 0,
      "hooray": 0,
      "confused": 0,
      "heart": 0,
      "rocket": 0,
      "eyes": 1
    },
    "performed_via_github_app": null
  },
  {
    "url": "https://api.github.com/repos/bitcoin/bitcoin/issues/comments/1536244850",
    "html_url": "https://github.com/bitcoin/bitcoin/pull/27405#issuecomment-1536244850",
    "issue_url": "https://api.github.com/repos/bitcoin/bitcoin/issues/27405",
    "id": 1536244850,
    "node_id": "IC_kwDOABII585bkTxy",
    "user": {
      "login": "RandyMcMillan",
      "id": 152159,
      "node_id": "MDQ6VXNlcjE1MjE1OQ==",
      "avatar_url": "https://avatars.githubusercontent.com/u/152159?v=4",
      "gravatar_id": "",
      "url": "https://api.github.com/users/RandyMcMillan",
      "html_url": "https://github.com/RandyMcMillan",
      "followers_url": "https://api.github.com/users/RandyMcMillan/followers",
      "following_url": "https://api.github.com/users/RandyMcMillan/following{/other_user}",
      "gists_url": "https://api.github.com/users/RandyMcMillan/gists{/gist_id}",
      "starred_url": "https://api.github.com/users/RandyMcMillan/starred{/owner}{/repo}",
      "subscriptions_url": "https://api.github.com/users/RandyMcMillan/subscriptions",
      "organizations_url": "https://api.github.com/users/RandyMcMillan/orgs",
      "repos_url": "https://api.github.com/users/RandyMcMillan/repos",
      "events_url": "https://api.github.com/users/RandyMcMillan/events{/privacy}",
      "received_events_url": "https://api.github.com/users/RandyMcMillan/received_events",
      "type": "User",
      "site_admin": false
    },
    "created_at": "2023-05-05T13:13:21Z",
    "updated_at": "2023-05-05T13:13:21Z",
    "author_association": "CONTRIBUTOR",
    "body_html": "<p dir=\"auto\">Concept ACK</p>",
    "body_text": "Concept ACK",
    "body": "Concept ACK",
    "reactions": {
      "url": "https://api.github.com/repos/bitcoin/bitcoin/issues/comments/1536244850/reactions",
      "total_count": 0,
      "+1": 0,
      "-1": 0,
      "laugh": 0,
      "hooray": 0,
      "confused": 0,
      "heart": 0,
      "rocket": 0,
      "eyes": 0
    },
    "performed_via_github_app": null
  }
]
