{
  "url": "https://api.github.com/repos/bitcoin/bitcoin/issues/6551",
  "repository_url": "https://api.github.com/repos/bitcoin/bitcoin",
  "labels_url": "https://api.github.com/repos/bitcoin/bitcoin/issues/6551/labels{/name}",
  "comments_url": "https://api.github.com/repos/bitcoin/bitcoin/issues/6551/comments",
  "events_url": "https://api.github.com/repos/bitcoin/bitcoin/issues/6551/events",
  "html_url": "https://github.com/bitcoin/bitcoin/pull/6551",
  "id": 100660639,
  "node_id": "MDExOlB1bGxSZXF1ZXN0NDIzMDI1MTU=",
  "number": 6551,
  "title": "Handle leveldb::DestroyDB() errors on wipe failure",
  "user": {
    "login": "ajweiss",
    "id": 430315,
    "node_id": "MDQ6VXNlcjQzMDMxNQ==",
    "avatar_url": "https://avatars.githubusercontent.com/u/430315?v=4",
    "gravatar_id": "",
    "url": "https://api.github.com/users/ajweiss",
    "html_url": "https://github.com/ajweiss",
    "followers_url": "https://api.github.com/users/ajweiss/followers",
    "following_url": "https://api.github.com/users/ajweiss/following{/other_user}",
    "gists_url": "https://api.github.com/users/ajweiss/gists{/gist_id}",
    "starred_url": "https://api.github.com/users/ajweiss/starred{/owner}{/repo}",
    "subscriptions_url": "https://api.github.com/users/ajweiss/subscriptions",
    "organizations_url": "https://api.github.com/users/ajweiss/orgs",
    "repos_url": "https://api.github.com/users/ajweiss/repos",
    "events_url": "https://api.github.com/users/ajweiss/events{/privacy}",
    "received_events_url": "https://api.github.com/users/ajweiss/received_events",
    "type": "User",
    "site_admin": false
  },
  "labels": [

  ],
  "state": "closed",
  "locked": true,
  "assignee": null,
  "assignees": [

  ],
  "milestone": null,
  "comments": 12,
  "created_at": "2015-08-12T23:53:28Z",
  "updated_at": "2021-09-08T11:39:13Z",
  "closed_at": "2015-08-17T14:52:59Z",
  "author_association": "CONTRIBUTOR",
  "active_lock_reason": "resolved",
  "draft": false,
  "pull_request": {
    "url": "https://api.github.com/repos/bitcoin/bitcoin/pulls/6551",
    "html_url": "https://github.com/bitcoin/bitcoin/pull/6551",
    "diff_url": "https://github.com/bitcoin/bitcoin/pull/6551.diff",
    "patch_url": "https://github.com/bitcoin/bitcoin/pull/6551.patch",
    "merged_at": "2015-08-17T14:52:59Z"
  },
  "body_html": "<p dir=\"auto\">Add error checking to CLevelDBWrapper for errors from<br>\nleveldb::DestroyDB().  Without it, if unlink() or DeleteFileW() fail to<br>\ndelete files, they will fail silent.  If they fail to delete any files,<br>\nCLevelDBWrapper will silently open and read the existing database.</p>\n<p dir=\"auto\">Typically any permissions issues would be caught by leveldb as it churns<br>\nthrough many files as part of its compaction process, but it is<br>\nconceivable that this could cause problems on Windows with anti-virus<br>\nand indexing software.</p>",
  "body_text": "Add error checking to CLevelDBWrapper for errors from\nleveldb::DestroyDB().  Without it, if unlink() or DeleteFileW() fail to\ndelete files, they will fail silent.  If they fail to delete any files,\nCLevelDBWrapper will silently open and read the existing database.\nTypically any permissions issues would be caught by leveldb as it churns\nthrough many files as part of its compaction process, but it is\nconceivable that this could cause problems on Windows with anti-virus\nand indexing software.",
  "body": "Add error checking to CLevelDBWrapper for errors from\nleveldb::DestroyDB().  Without it, if unlink() or DeleteFileW() fail to\ndelete files, they will fail silent.  If they fail to delete any files,\nCLevelDBWrapper will silently open and read the existing database.\n\nTypically any permissions issues would be caught by leveldb as it churns\nthrough many files as part of its compaction process, but it is\nconceivable that this could cause problems on Windows with anti-virus\nand indexing software.\n",
  "closed_by": {
    "login": "laanwj",
    "id": 126646,
    "node_id": "MDQ6VXNlcjEyNjY0Ng==",
    "avatar_url": "https://avatars.githubusercontent.com/u/126646?v=4",
    "gravatar_id": "",
    "url": "https://api.github.com/users/laanwj",
    "html_url": "https://github.com/laanwj",
    "followers_url": "https://api.github.com/users/laanwj/followers",
    "following_url": "https://api.github.com/users/laanwj/following{/other_user}",
    "gists_url": "https://api.github.com/users/laanwj/gists{/gist_id}",
    "starred_url": "https://api.github.com/users/laanwj/starred{/owner}{/repo}",
    "subscriptions_url": "https://api.github.com/users/laanwj/subscriptions",
    "organizations_url": "https://api.github.com/users/laanwj/orgs",
    "repos_url": "https://api.github.com/users/laanwj/repos",
    "events_url": "https://api.github.com/users/laanwj/events{/privacy}",
    "received_events_url": "https://api.github.com/users/laanwj/received_events",
    "type": "User",
    "site_admin": false
  },
  "reactions": {
    "url": "https://api.github.com/repos/bitcoin/bitcoin/issues/6551/reactions",
    "total_count": 0,
    "+1": 0,
    "-1": 0,
    "laugh": 0,
    "hooray": 0,
    "confused": 0,
    "heart": 0,
    "rocket": 0,
    "eyes": 0
  },
  "timeline_url": "https://api.github.com/repos/bitcoin/bitcoin/issues/6551/timeline",
  "performed_via_github_app": null,
  "state_reason": null
}
