{
  "url": "https://api.github.com/repos/bitcoin/bitcoin/issues/18445",
  "repository_url": "https://api.github.com/repos/bitcoin/bitcoin",
  "labels_url": "https://api.github.com/repos/bitcoin/bitcoin/issues/18445/labels{/name}",
  "comments_url": "https://api.github.com/repos/bitcoin/bitcoin/issues/18445/comments",
  "events_url": "https://api.github.com/repos/bitcoin/bitcoin/issues/18445/events",
  "html_url": "https://github.com/bitcoin/bitcoin/pull/18445",
  "id": 588738363,
  "node_id": "MDExOlB1bGxSZXF1ZXN0Mzk0NDMxMzg4",
  "number": 18445,
  "title": "tests: Add fuzzing harnesses for functions/classes in chain.h and protocol.h",
  "user": {
    "login": "practicalswift",
    "id": 7826565,
    "node_id": "MDQ6VXNlcjc4MjY1NjU=",
    "avatar_url": "https://avatars.githubusercontent.com/u/7826565?v=4",
    "gravatar_id": "",
    "url": "https://api.github.com/users/practicalswift",
    "html_url": "https://github.com/practicalswift",
    "followers_url": "https://api.github.com/users/practicalswift/followers",
    "following_url": "https://api.github.com/users/practicalswift/following{/other_user}",
    "gists_url": "https://api.github.com/users/practicalswift/gists{/gist_id}",
    "starred_url": "https://api.github.com/users/practicalswift/starred{/owner}{/repo}",
    "subscriptions_url": "https://api.github.com/users/practicalswift/subscriptions",
    "organizations_url": "https://api.github.com/users/practicalswift/orgs",
    "repos_url": "https://api.github.com/users/practicalswift/repos",
    "events_url": "https://api.github.com/users/practicalswift/events{/privacy}",
    "received_events_url": "https://api.github.com/users/practicalswift/received_events",
    "type": "User",
    "site_admin": false
  },
  "labels": [
    {
      "id": 62963516,
      "node_id": "MDU6TGFiZWw2Mjk2MzUxNg==",
      "url": "https://api.github.com/repos/bitcoin/bitcoin/labels/Tests",
      "name": "Tests",
      "color": "d4c5f9",
      "default": false,
      "description": null
    }
  ],
  "state": "closed",
  "locked": true,
  "assignee": null,
  "assignees": [

  ],
  "milestone": null,
  "comments": 0,
  "created_at": "2020-03-26T21:23:33Z",
  "updated_at": "2022-08-18T18:22:42Z",
  "closed_at": "2020-03-27T00:39:06Z",
  "author_association": "CONTRIBUTOR",
  "active_lock_reason": "resolved",
  "draft": false,
  "pull_request": {
    "url": "https://api.github.com/repos/bitcoin/bitcoin/pulls/18445",
    "html_url": "https://github.com/bitcoin/bitcoin/pull/18445",
    "diff_url": "https://github.com/bitcoin/bitcoin/pull/18445.diff",
    "patch_url": "https://github.com/bitcoin/bitcoin/pull/18445.patch",
    "merged_at": "2020-03-27T00:39:05Z"
  },
  "body_html": "<p dir=\"auto\">Add fuzzing harnesses for functions/classes in <code class=\"notranslate\">chain.h</code> and <code class=\"notranslate\">protocol.h</code>.</p>",
  "body_text": "Add fuzzing harnesses for functions/classes in chain.h and protocol.h.",
  "body": "Add fuzzing harnesses for functions/classes in `chain.h` and `protocol.h`.",
  "closed_by": {
    "login": "maflcko",
    "id": 6399679,
    "node_id": "MDQ6VXNlcjYzOTk2Nzk=",
    "avatar_url": "https://avatars.githubusercontent.com/u/6399679?v=4",
    "gravatar_id": "",
    "url": "https://api.github.com/users/maflcko",
    "html_url": "https://github.com/maflcko",
    "followers_url": "https://api.github.com/users/maflcko/followers",
    "following_url": "https://api.github.com/users/maflcko/following{/other_user}",
    "gists_url": "https://api.github.com/users/maflcko/gists{/gist_id}",
    "starred_url": "https://api.github.com/users/maflcko/starred{/owner}{/repo}",
    "subscriptions_url": "https://api.github.com/users/maflcko/subscriptions",
    "organizations_url": "https://api.github.com/users/maflcko/orgs",
    "repos_url": "https://api.github.com/users/maflcko/repos",
    "events_url": "https://api.github.com/users/maflcko/events{/privacy}",
    "received_events_url": "https://api.github.com/users/maflcko/received_events",
    "type": "User",
    "site_admin": false
  },
  "reactions": {
    "url": "https://api.github.com/repos/bitcoin/bitcoin/issues/18445/reactions",
    "total_count": 0,
    "+1": 0,
    "-1": 0,
    "laugh": 0,
    "hooray": 0,
    "confused": 0,
    "heart": 0,
    "rocket": 0,
    "eyes": 0
  },
  "timeline_url": "https://api.github.com/repos/bitcoin/bitcoin/issues/18445/timeline",
  "performed_via_github_app": null,
  "state_reason": null
}
