[
  {
    "url": "https://api.github.com/repos/bitcoin/bitcoin/issues/comments/465830412",
    "html_url": "https://github.com/bitcoin/bitcoin/pull/15445#issuecomment-465830412",
    "issue_url": "https://api.github.com/repos/bitcoin/bitcoin/issues/15445",
    "id": 465830412,
    "node_id": "MDEyOklzc3VlQ29tbWVudDQ2NTgzMDQxMg==",
    "user": {
      "login": "fanquake",
      "id": 863730,
      "node_id": "MDQ6VXNlcjg2MzczMA==",
      "avatar_url": "https://avatars.githubusercontent.com/u/863730?v=4",
      "gravatar_id": "",
      "url": "https://api.github.com/users/fanquake",
      "html_url": "https://github.com/fanquake",
      "followers_url": "https://api.github.com/users/fanquake/followers",
      "following_url": "https://api.github.com/users/fanquake/following{/other_user}",
      "gists_url": "https://api.github.com/users/fanquake/gists{/gist_id}",
      "starred_url": "https://api.github.com/users/fanquake/starred{/owner}{/repo}",
      "subscriptions_url": "https://api.github.com/users/fanquake/subscriptions",
      "organizations_url": "https://api.github.com/users/fanquake/orgs",
      "repos_url": "https://api.github.com/users/fanquake/repos",
      "events_url": "https://api.github.com/users/fanquake/events{/privacy}",
      "received_events_url": "https://api.github.com/users/fanquake/received_events",
      "type": "User",
      "site_admin": false
    },
    "created_at": "2019-02-21T01:57:40Z",
    "updated_at": "2019-02-21T04:52:09Z",
    "author_association": "MEMBER",
    "body_html": "<p dir=\"auto\"><a class=\"user-mention notranslate\" data-hovercard-type=\"user\" data-hovercard-url=\"/users/hebasto/hovercard\" data-octo-click=\"hovercard-link-click\" data-octo-dimensions=\"link_type:self\" href=\"https://github.com/hebasto\">@hebasto</a> This is missing the <code class=\"notranslate\">Github-Pull:</code> and <code class=\"notranslate\">Rebased-From:</code> info for each commit. See the <a href=\"https://github.com/bitcoin-core/bitcoin-maintainer-tools/blob/master/backport.py\">backport.py</a> script.</p>",
    "body_text": "@hebasto This is missing the Github-Pull: and Rebased-From: info for each commit. See the backport.py script.",
    "body": "@hebasto This is missing the `Github-Pull:` and `Rebased-From:` info for each commit. See the [backport.py](https://github.com/bitcoin-core/bitcoin-maintainer-tools/blob/master/backport.py) script.",
    "reactions": {
      "url": "https://api.github.com/repos/bitcoin/bitcoin/issues/comments/465830412/reactions",
      "total_count": 0,
      "+1": 0,
      "-1": 0,
      "laugh": 0,
      "hooray": 0,
      "confused": 0,
      "heart": 0,
      "rocket": 0,
      "eyes": 0
    },
    "performed_via_github_app": null
  },
  {
    "url": "https://api.github.com/repos/bitcoin/bitcoin/issues/comments/466516750",
    "html_url": "https://github.com/bitcoin/bitcoin/pull/15445#issuecomment-466516750",
    "issue_url": "https://api.github.com/repos/bitcoin/bitcoin/issues/15445",
    "id": 466516750,
    "node_id": "MDEyOklzc3VlQ29tbWVudDQ2NjUxNjc1MA==",
    "user": {
      "login": "hebasto",
      "id": 32963518,
      "node_id": "MDQ6VXNlcjMyOTYzNTE4",
      "avatar_url": "https://avatars.githubusercontent.com/u/32963518?v=4",
      "gravatar_id": "",
      "url": "https://api.github.com/users/hebasto",
      "html_url": "https://github.com/hebasto",
      "followers_url": "https://api.github.com/users/hebasto/followers",
      "following_url": "https://api.github.com/users/hebasto/following{/other_user}",
      "gists_url": "https://api.github.com/users/hebasto/gists{/gist_id}",
      "starred_url": "https://api.github.com/users/hebasto/starred{/owner}{/repo}",
      "subscriptions_url": "https://api.github.com/users/hebasto/subscriptions",
      "organizations_url": "https://api.github.com/users/hebasto/orgs",
      "repos_url": "https://api.github.com/users/hebasto/repos",
      "events_url": "https://api.github.com/users/hebasto/events{/privacy}",
      "received_events_url": "https://api.github.com/users/hebasto/received_events",
      "type": "User",
      "site_admin": false
    },
    "created_at": "2019-02-22T19:26:14Z",
    "updated_at": "2019-02-22T19:26:14Z",
    "author_association": "MEMBER",
    "body_html": "<p dir=\"auto\"><a class=\"user-mention notranslate\" data-hovercard-type=\"user\" data-hovercard-url=\"/users/fanquake/hovercard\" data-octo-click=\"hovercard-link-click\" data-octo-dimensions=\"link_type:self\" href=\"https://github.com/fanquake\">@fanquake</a></p>\n<blockquote>\n<p dir=\"auto\">This is missing the <code class=\"notranslate\">Github-Pull:</code> and <code class=\"notranslate\">Rebased-From:</code> info for each commit. See the <a href=\"https://github.com/bitcoin-core/bitcoin-maintainer-tools/blob/master/backport.py\">backport.py</a> script.</p>\n</blockquote>\n<p dir=\"auto\">Thank you. Fixed.</p>",
    "body_text": "@fanquake\n\nThis is missing the Github-Pull: and Rebased-From: info for each commit. See the backport.py script.\n\nThank you. Fixed.",
    "body": "@fanquake \r\n> This is missing the `Github-Pull:` and `Rebased-From:` info for each commit. See the [backport.py](https://github.com/bitcoin-core/bitcoin-maintainer-tools/blob/master/backport.py) script.\r\n\r\nThank you. Fixed.",
    "reactions": {
      "url": "https://api.github.com/repos/bitcoin/bitcoin/issues/comments/466516750/reactions",
      "total_count": 0,
      "+1": 0,
      "-1": 0,
      "laugh": 0,
      "hooray": 0,
      "confused": 0,
      "heart": 0,
      "rocket": 0,
      "eyes": 0
    },
    "performed_via_github_app": null
  },
  {
    "url": "https://api.github.com/repos/bitcoin/bitcoin/issues/comments/466620992",
    "html_url": "https://github.com/bitcoin/bitcoin/pull/15445#issuecomment-466620992",
    "issue_url": "https://api.github.com/repos/bitcoin/bitcoin/issues/15445",
    "id": 466620992,
    "node_id": "MDEyOklzc3VlQ29tbWVudDQ2NjYyMDk5Mg==",
    "user": {
      "login": "hebasto",
      "id": 32963518,
      "node_id": "MDQ6VXNlcjMyOTYzNTE4",
      "avatar_url": "https://avatars.githubusercontent.com/u/32963518?v=4",
      "gravatar_id": "",
      "url": "https://api.github.com/users/hebasto",
      "html_url": "https://github.com/hebasto",
      "followers_url": "https://api.github.com/users/hebasto/followers",
      "following_url": "https://api.github.com/users/hebasto/following{/other_user}",
      "gists_url": "https://api.github.com/users/hebasto/gists{/gist_id}",
      "starred_url": "https://api.github.com/users/hebasto/starred{/owner}{/repo}",
      "subscriptions_url": "https://api.github.com/users/hebasto/subscriptions",
      "organizations_url": "https://api.github.com/users/hebasto/orgs",
      "repos_url": "https://api.github.com/users/hebasto/repos",
      "events_url": "https://api.github.com/users/hebasto/events{/privacy}",
      "received_events_url": "https://api.github.com/users/hebasto/received_events",
      "type": "User",
      "site_admin": false
    },
    "created_at": "2019-02-23T06:10:08Z",
    "updated_at": "2019-02-25T08:05:32Z",
    "author_association": "MEMBER",
    "body_html": "<p dir=\"auto\"><a class=\"user-mention notranslate\" data-hovercard-type=\"user\" data-hovercard-url=\"/users/fanquake/hovercard\" data-octo-click=\"hovercard-link-click\" data-octo-dimensions=\"link_type:self\" href=\"https://github.com/fanquake\">@fanquake</a></p>\n<p dir=\"auto\"><del>Is there a way to fix \"The job exceeded the maximum time limit for jobs, and has been terminated.\" error in <a href=\"https://travis-ci.org/bitcoin/bitcoin/jobs/497191864\" rel=\"nofollow\">Travis job</a>?</del></p>",
    "body_text": "@fanquake\nIs there a way to fix \"The job exceeded the maximum time limit for jobs, and has been terminated.\" error in Travis job?",
    "body": "@fanquake \r\n\r\n~~Is there a way to fix \"The job exceeded the maximum time limit for jobs, and has been terminated.\" error in [Travis job](https://travis-ci.org/bitcoin/bitcoin/jobs/497191864)?~~",
    "reactions": {
      "url": "https://api.github.com/repos/bitcoin/bitcoin/issues/comments/466620992/reactions",
      "total_count": 0,
      "+1": 0,
      "-1": 0,
      "laugh": 0,
      "hooray": 0,
      "confused": 0,
      "heart": 0,
      "rocket": 0,
      "eyes": 0
    },
    "performed_via_github_app": null
  },
  {
    "url": "https://api.github.com/repos/bitcoin/bitcoin/issues/comments/468104339",
    "html_url": "https://github.com/bitcoin/bitcoin/pull/15445#issuecomment-468104339",
    "issue_url": "https://api.github.com/repos/bitcoin/bitcoin/issues/15445",
    "id": 468104339,
    "node_id": "MDEyOklzc3VlQ29tbWVudDQ2ODEwNDMzOQ==",
    "user": {
      "login": "ken2812221",
      "id": 11154118,
      "node_id": "MDQ6VXNlcjExMTU0MTE4",
      "avatar_url": "https://avatars.githubusercontent.com/u/11154118?v=4",
      "gravatar_id": "",
      "url": "https://api.github.com/users/ken2812221",
      "html_url": "https://github.com/ken2812221",
      "followers_url": "https://api.github.com/users/ken2812221/followers",
      "following_url": "https://api.github.com/users/ken2812221/following{/other_user}",
      "gists_url": "https://api.github.com/users/ken2812221/gists{/gist_id}",
      "starred_url": "https://api.github.com/users/ken2812221/starred{/owner}{/repo}",
      "subscriptions_url": "https://api.github.com/users/ken2812221/subscriptions",
      "organizations_url": "https://api.github.com/users/ken2812221/orgs",
      "repos_url": "https://api.github.com/users/ken2812221/repos",
      "events_url": "https://api.github.com/users/ken2812221/events{/privacy}",
      "received_events_url": "https://api.github.com/users/ken2812221/received_events",
      "type": "User",
      "site_admin": false
    },
    "created_at": "2019-02-28T01:53:28Z",
    "updated_at": "2019-02-28T01:57:37Z",
    "author_association": "CONTRIBUTOR",
    "body_html": "<p dir=\"auto\">Is is necessary to be backported? It seems like a breaking change.</p>",
    "body_text": "Is is necessary to be backported? It seems like a breaking change.",
    "body": "Is is necessary to be backported? It seems like a breaking change.",
    "reactions": {
      "url": "https://api.github.com/repos/bitcoin/bitcoin/issues/comments/468104339/reactions",
      "total_count": 0,
      "+1": 0,
      "-1": 0,
      "laugh": 0,
      "hooray": 0,
      "confused": 0,
      "heart": 0,
      "rocket": 0,
      "eyes": 0
    },
    "performed_via_github_app": null
  },
  {
    "url": "https://api.github.com/repos/bitcoin/bitcoin/issues/comments/468340414",
    "html_url": "https://github.com/bitcoin/bitcoin/pull/15445#issuecomment-468340414",
    "issue_url": "https://api.github.com/repos/bitcoin/bitcoin/issues/15445",
    "id": 468340414,
    "node_id": "MDEyOklzc3VlQ29tbWVudDQ2ODM0MDQxNA==",
    "user": {
      "login": "maflcko",
      "id": 6399679,
      "node_id": "MDQ6VXNlcjYzOTk2Nzk=",
      "avatar_url": "https://avatars.githubusercontent.com/u/6399679?v=4",
      "gravatar_id": "",
      "url": "https://api.github.com/users/maflcko",
      "html_url": "https://github.com/maflcko",
      "followers_url": "https://api.github.com/users/maflcko/followers",
      "following_url": "https://api.github.com/users/maflcko/following{/other_user}",
      "gists_url": "https://api.github.com/users/maflcko/gists{/gist_id}",
      "starred_url": "https://api.github.com/users/maflcko/starred{/owner}{/repo}",
      "subscriptions_url": "https://api.github.com/users/maflcko/subscriptions",
      "organizations_url": "https://api.github.com/users/maflcko/orgs",
      "repos_url": "https://api.github.com/users/maflcko/repos",
      "events_url": "https://api.github.com/users/maflcko/events{/privacy}",
      "received_events_url": "https://api.github.com/users/maflcko/received_events",
      "type": "User",
      "site_admin": false
    },
    "created_at": "2019-02-28T16:31:27Z",
    "updated_at": "2019-02-28T16:31:27Z",
    "author_association": "MEMBER",
    "body_html": "<p dir=\"auto\">I don't think this is a breaking change. Otherwise this was missed in the original review</p>",
    "body_text": "I don't think this is a breaking change. Otherwise this was missed in the original review",
    "body": "I don't think this is a breaking change. Otherwise this was missed in the original review",
    "reactions": {
      "url": "https://api.github.com/repos/bitcoin/bitcoin/issues/comments/468340414/reactions",
      "total_count": 0,
      "+1": 0,
      "-1": 0,
      "laugh": 0,
      "hooray": 0,
      "confused": 0,
      "heart": 0,
      "rocket": 0,
      "eyes": 0
    },
    "performed_via_github_app": null
  },
  {
    "url": "https://api.github.com/repos/bitcoin/bitcoin/issues/comments/531443759",
    "html_url": "https://github.com/bitcoin/bitcoin/pull/15445#issuecomment-531443759",
    "issue_url": "https://api.github.com/repos/bitcoin/bitcoin/issues/15445",
    "id": 531443759,
    "node_id": "MDEyOklzc3VlQ29tbWVudDUzMTQ0Mzc1OQ==",
    "user": {
      "login": "fanquake",
      "id": 863730,
      "node_id": "MDQ6VXNlcjg2MzczMA==",
      "avatar_url": "https://avatars.githubusercontent.com/u/863730?v=4",
      "gravatar_id": "",
      "url": "https://api.github.com/users/fanquake",
      "html_url": "https://github.com/fanquake",
      "followers_url": "https://api.github.com/users/fanquake/followers",
      "following_url": "https://api.github.com/users/fanquake/following{/other_user}",
      "gists_url": "https://api.github.com/users/fanquake/gists{/gist_id}",
      "starred_url": "https://api.github.com/users/fanquake/starred{/owner}{/repo}",
      "subscriptions_url": "https://api.github.com/users/fanquake/subscriptions",
      "organizations_url": "https://api.github.com/users/fanquake/orgs",
      "repos_url": "https://api.github.com/users/fanquake/repos",
      "events_url": "https://api.github.com/users/fanquake/events{/privacy}",
      "received_events_url": "https://api.github.com/users/fanquake/received_events",
      "type": "User",
      "site_admin": false
    },
    "created_at": "2019-09-14T03:15:27Z",
    "updated_at": "2019-09-14T03:15:27Z",
    "author_association": "MEMBER",
    "body_html": "<p dir=\"auto\">Thanks, however I don't think this needs backporting into 0.17.2.</p>",
    "body_text": "Thanks, however I don't think this needs backporting into 0.17.2.",
    "body": "Thanks, however I don't think this needs backporting into 0.17.2.",
    "reactions": {
      "url": "https://api.github.com/repos/bitcoin/bitcoin/issues/comments/531443759/reactions",
      "total_count": 0,
      "+1": 0,
      "-1": 0,
      "laugh": 0,
      "hooray": 0,
      "confused": 0,
      "heart": 0,
      "rocket": 0,
      "eyes": 0
    },
    "performed_via_github_app": null
  }
]
