{
  "url": "https://api.github.com/repos/bitcoin/bitcoin/issues/11827",
  "repository_url": "https://api.github.com/repos/bitcoin/bitcoin",
  "labels_url": "https://api.github.com/repos/bitcoin/bitcoin/issues/11827/labels{/name}",
  "comments_url": "https://api.github.com/repos/bitcoin/bitcoin/issues/11827/comments",
  "events_url": "https://api.github.com/repos/bitcoin/bitcoin/issues/11827/events",
  "html_url": "https://github.com/bitcoin/bitcoin/issues/11827",
  "id": 279273164,
  "node_id": "MDU6SXNzdWUyNzkyNzMxNjQ=",
  "number": 11827,
  "title": "Address changes should be visible to the user",
  "user": {
    "login": "IndieRobert",
    "id": 7798540,
    "node_id": "MDQ6VXNlcjc3OTg1NDA=",
    "avatar_url": "https://avatars.githubusercontent.com/u/7798540?v=4",
    "gravatar_id": "",
    "url": "https://api.github.com/users/IndieRobert",
    "html_url": "https://github.com/IndieRobert",
    "followers_url": "https://api.github.com/users/IndieRobert/followers",
    "following_url": "https://api.github.com/users/IndieRobert/following{/other_user}",
    "gists_url": "https://api.github.com/users/IndieRobert/gists{/gist_id}",
    "starred_url": "https://api.github.com/users/IndieRobert/starred{/owner}{/repo}",
    "subscriptions_url": "https://api.github.com/users/IndieRobert/subscriptions",
    "organizations_url": "https://api.github.com/users/IndieRobert/orgs",
    "repos_url": "https://api.github.com/users/IndieRobert/repos",
    "events_url": "https://api.github.com/users/IndieRobert/events{/privacy}",
    "received_events_url": "https://api.github.com/users/IndieRobert/received_events",
    "type": "User",
    "site_admin": false
  },
  "labels": [
    {
      "id": 135946,
      "node_id": "MDU6TGFiZWwxMzU5NDY=",
      "url": "https://api.github.com/repos/bitcoin/bitcoin/labels/GUI",
      "name": "GUI",
      "color": "02d7e1",
      "default": false,
      "description": null
    },
    {
      "id": 477890092,
      "node_id": "MDU6TGFiZWw0Nzc4OTAwOTI=",
      "url": "https://api.github.com/repos/bitcoin/bitcoin/labels/Questions%20and%20Help",
      "name": "Questions and Help",
      "color": "006688",
      "default": false,
      "description": null
    }
  ],
  "state": "closed",
  "locked": true,
  "assignee": null,
  "assignees": [

  ],
  "milestone": null,
  "comments": 12,
  "created_at": "2017-12-05T07:28:29Z",
  "updated_at": "2021-12-16T15:10:44Z",
  "closed_at": "2019-12-15T09:26:18Z",
  "author_association": "NONE",
  "active_lock_reason": "resolved",
  "body_html": "<p dir=\"auto\">Hi,</p>\n<p dir=\"auto\">I lost a significant amount of bitcoin because bitcoinqt made transactions I never gave permission to: address changes. I assumed this software was unix-like, that basically it was good software. But because of the address changes, which are not signalled to the user, it is not.</p>\n<p dir=\"auto\">Issue:</p>\n<p dir=\"auto\">Bitcoin private keys are artefacts of the bitcoin network. This is what the user own and is entitled too when he gets bitcoin.<br>\nBitcoin wallets are NOT artefacts of the network, they are not part of the network at all. From the point of view of the network, they are artefact of a 3rd party software. The user may use them, but he doesnt own bitcoin because he owns a wallet, the user owns bitcoins because he owns private keys.</p>\n<p dir=\"auto\">Therefore, when bitcoinqt makes transaction - address changes - without warning the user, it is a clear breach of unix-like trust - for a lack of better terms.</p>\n<p dir=\"auto\">Bitcoinqt should be unix-like. It should be fully transparent to the user, and not try to appeal to the mass. It should not be up to another software to fulfill that role.</p>\n<p dir=\"auto\">Solution:</p>\n<p dir=\"auto\">Just make the address changes visible.</p>\n<p dir=\"auto\">Conclusion:</p>\n<p dir=\"auto\">I can understand the mistake has been made at the beginning of bitcoin. Bitcoin was supposed to appeal to the mass in order to be used in mass consumption. It is still a mistake, but it is understandable. Today, we know it will never be used to buy a macdonald meal (beside the use of 3rd party software which make you think you do).</p>",
  "body_text": "Hi,\nI lost a significant amount of bitcoin because bitcoinqt made transactions I never gave permission to: address changes. I assumed this software was unix-like, that basically it was good software. But because of the address changes, which are not signalled to the user, it is not.\nIssue:\nBitcoin private keys are artefacts of the bitcoin network. This is what the user own and is entitled too when he gets bitcoin.\nBitcoin wallets are NOT artefacts of the network, they are not part of the network at all. From the point of view of the network, they are artefact of a 3rd party software. The user may use them, but he doesnt own bitcoin because he owns a wallet, the user owns bitcoins because he owns private keys.\nTherefore, when bitcoinqt makes transaction - address changes - without warning the user, it is a clear breach of unix-like trust - for a lack of better terms.\nBitcoinqt should be unix-like. It should be fully transparent to the user, and not try to appeal to the mass. It should not be up to another software to fulfill that role.\nSolution:\nJust make the address changes visible.\nConclusion:\nI can understand the mistake has been made at the beginning of bitcoin. Bitcoin was supposed to appeal to the mass in order to be used in mass consumption. It is still a mistake, but it is understandable. Today, we know it will never be used to buy a macdonald meal (beside the use of 3rd party software which make you think you do).",
  "body": "Hi,\r\n\r\nI lost a significant amount of bitcoin because bitcoinqt made transactions I never gave permission to: address changes. I assumed this software was unix-like, that basically it was good software. But because of the address changes, which are not signalled to the user, it is not.\r\n\r\nIssue:\r\n\r\nBitcoin private keys are artefacts of the bitcoin network. This is what the user own and is entitled too when he gets bitcoin.\r\nBitcoin wallets are NOT artefacts of the network, they are not part of the network at all. From the point of view of the network, they are artefact of a 3rd party software. The user may use them, but he doesnt own bitcoin because he owns a wallet, the user owns bitcoins because he owns private keys.\r\n\r\nTherefore, when bitcoinqt makes transaction - address changes - without warning the user, it is a clear breach of unix-like trust - for a lack of better terms.\r\n\r\nBitcoinqt should be unix-like. It should be fully transparent to the user, and not try to appeal to the mass. It should not be up to another software to fulfill that role.\r\n\r\nSolution:\r\n\r\nJust make the address changes visible.\r\n\r\nConclusion:\r\n\r\nI can understand the mistake has been made at the beginning of bitcoin. Bitcoin was supposed to appeal to the mass in order to be used in mass consumption. It is still a mistake, but it is understandable. Today, we know it will never be used to buy a macdonald meal (beside the use of 3rd party software which make you think you do).",
  "closed_by": {
    "login": "laanwj",
    "id": 126646,
    "node_id": "MDQ6VXNlcjEyNjY0Ng==",
    "avatar_url": "https://avatars.githubusercontent.com/u/126646?v=4",
    "gravatar_id": "",
    "url": "https://api.github.com/users/laanwj",
    "html_url": "https://github.com/laanwj",
    "followers_url": "https://api.github.com/users/laanwj/followers",
    "following_url": "https://api.github.com/users/laanwj/following{/other_user}",
    "gists_url": "https://api.github.com/users/laanwj/gists{/gist_id}",
    "starred_url": "https://api.github.com/users/laanwj/starred{/owner}{/repo}",
    "subscriptions_url": "https://api.github.com/users/laanwj/subscriptions",
    "organizations_url": "https://api.github.com/users/laanwj/orgs",
    "repos_url": "https://api.github.com/users/laanwj/repos",
    "events_url": "https://api.github.com/users/laanwj/events{/privacy}",
    "received_events_url": "https://api.github.com/users/laanwj/received_events",
    "type": "User",
    "site_admin": false
  },
  "reactions": {
    "url": "https://api.github.com/repos/bitcoin/bitcoin/issues/11827/reactions",
    "total_count": 0,
    "+1": 0,
    "-1": 0,
    "laugh": 0,
    "hooray": 0,
    "confused": 0,
    "heart": 0,
    "rocket": 0,
    "eyes": 0
  },
  "timeline_url": "https://api.github.com/repos/bitcoin/bitcoin/issues/11827/timeline",
  "performed_via_github_app": null,
  "state_reason": "completed"
}
