[
  {
    "url": "https://api.github.com/repos/bitcoin/bitcoin/issues/comments/13249460",
    "html_url": "https://github.com/bitcoin/bitcoin/issues/2285#issuecomment-13249460",
    "issue_url": "https://api.github.com/repos/bitcoin/bitcoin/issues/2285",
    "id": 13249460,
    "node_id": "MDEyOklzc3VlQ29tbWVudDEzMjQ5NDYw",
    "user": {
      "login": "luke-jr",
      "id": 1095675,
      "node_id": "MDQ6VXNlcjEwOTU2NzU=",
      "avatar_url": "https://avatars.githubusercontent.com/u/1095675?v=4",
      "gravatar_id": "",
      "url": "https://api.github.com/users/luke-jr",
      "html_url": "https://github.com/luke-jr",
      "followers_url": "https://api.github.com/users/luke-jr/followers",
      "following_url": "https://api.github.com/users/luke-jr/following{/other_user}",
      "gists_url": "https://api.github.com/users/luke-jr/gists{/gist_id}",
      "starred_url": "https://api.github.com/users/luke-jr/starred{/owner}{/repo}",
      "subscriptions_url": "https://api.github.com/users/luke-jr/subscriptions",
      "organizations_url": "https://api.github.com/users/luke-jr/orgs",
      "repos_url": "https://api.github.com/users/luke-jr/repos",
      "events_url": "https://api.github.com/users/luke-jr/events{/privacy}",
      "received_events_url": "https://api.github.com/users/luke-jr/received_events",
      "type": "User",
      "site_admin": false
    },
    "created_at": "2013-02-07T17:42:11Z",
    "updated_at": "2013-02-07T17:42:11Z",
    "author_association": "MEMBER",
    "body_html": "<p dir=\"auto\">Perhaps:</p>\n<div class=\"snippet-clipboard-content notranslate position-relative overflow-auto\" data-snippet-clipboard-copy-content=\"int index_in_template = i - 1;\"><pre class=\"notranslate\"><code class=\"notranslate\">int index_in_template = i - 1;\n</code></pre></div>",
    "body_text": "Perhaps:\nint index_in_template = i - 1;",
    "body": "Perhaps:\n\n```\nint index_in_template = i - 1;\n```\n",
    "reactions": {
      "url": "https://api.github.com/repos/bitcoin/bitcoin/issues/comments/13249460/reactions",
      "total_count": 0,
      "+1": 0,
      "-1": 0,
      "laugh": 0,
      "hooray": 0,
      "confused": 0,
      "heart": 0,
      "rocket": 0,
      "eyes": 0
    },
    "performed_via_github_app": null
  },
  {
    "url": "https://api.github.com/repos/bitcoin/bitcoin/issues/comments/13267968",
    "html_url": "https://github.com/bitcoin/bitcoin/issues/2285#issuecomment-13267968",
    "issue_url": "https://api.github.com/repos/bitcoin/bitcoin/issues/2285",
    "id": 13267968,
    "node_id": "MDEyOklzc3VlQ29tbWVudDEzMjY3OTY4",
    "user": {
      "login": "gavinandresen",
      "id": 331997,
      "node_id": "MDQ6VXNlcjMzMTk5Nw==",
      "avatar_url": "https://avatars.githubusercontent.com/u/331997?v=4",
      "gravatar_id": "",
      "url": "https://api.github.com/users/gavinandresen",
      "html_url": "https://github.com/gavinandresen",
      "followers_url": "https://api.github.com/users/gavinandresen/followers",
      "following_url": "https://api.github.com/users/gavinandresen/following{/other_user}",
      "gists_url": "https://api.github.com/users/gavinandresen/gists{/gist_id}",
      "starred_url": "https://api.github.com/users/gavinandresen/starred{/owner}{/repo}",
      "subscriptions_url": "https://api.github.com/users/gavinandresen/subscriptions",
      "organizations_url": "https://api.github.com/users/gavinandresen/orgs",
      "repos_url": "https://api.github.com/users/gavinandresen/repos",
      "events_url": "https://api.github.com/users/gavinandresen/events{/privacy}",
      "received_events_url": "https://api.github.com/users/gavinandresen/received_events",
      "type": "User",
      "site_admin": false
    },
    "created_at": "2013-02-07T23:15:03Z",
    "updated_at": "2013-02-07T23:15:03Z",
    "author_association": "CONTRIBUTOR",
    "body_html": "<p dir=\"auto\">Grrr...  .data() is \"since C++11\"  although it must be a g++ extension....</p>",
    "body_text": "Grrr...  .data() is \"since C++11\"  although it must be a g++ extension....",
    "body": "Grrr...  .data() is \"since C++11\"  although it must be a g++ extension....\n",
    "reactions": {
      "url": "https://api.github.com/repos/bitcoin/bitcoin/issues/comments/13267968/reactions",
      "total_count": 0,
      "+1": 0,
      "-1": 0,
      "laugh": 0,
      "hooray": 0,
      "confused": 0,
      "heart": 0,
      "rocket": 0,
      "eyes": 0
    },
    "performed_via_github_app": null
  }
]
