{
  "url": "https://api.github.com/repos/bitcoin/bitcoin/issues/3289",
  "repository_url": "https://api.github.com/repos/bitcoin/bitcoin",
  "labels_url": "https://api.github.com/repos/bitcoin/bitcoin/issues/3289/labels{/name}",
  "comments_url": "https://api.github.com/repos/bitcoin/bitcoin/issues/3289/comments",
  "events_url": "https://api.github.com/repos/bitcoin/bitcoin/issues/3289/events",
  "html_url": "https://github.com/bitcoin/bitcoin/issues/3289",
  "id": 23009041,
  "node_id": "MDU6SXNzdWUyMzAwOTA0MQ==",
  "number": 3289,
  "title": "[qt] cannot read block",
  "user": {
    "login": "Commissar0617",
    "id": 5993529,
    "node_id": "MDQ6VXNlcjU5OTM1Mjk=",
    "avatar_url": "https://avatars.githubusercontent.com/u/5993529?v=4",
    "gravatar_id": "",
    "url": "https://api.github.com/users/Commissar0617",
    "html_url": "https://github.com/Commissar0617",
    "followers_url": "https://api.github.com/users/Commissar0617/followers",
    "following_url": "https://api.github.com/users/Commissar0617/following{/other_user}",
    "gists_url": "https://api.github.com/users/Commissar0617/gists{/gist_id}",
    "starred_url": "https://api.github.com/users/Commissar0617/starred{/owner}{/repo}",
    "subscriptions_url": "https://api.github.com/users/Commissar0617/subscriptions",
    "organizations_url": "https://api.github.com/users/Commissar0617/orgs",
    "repos_url": "https://api.github.com/users/Commissar0617/repos",
    "events_url": "https://api.github.com/users/Commissar0617/events{/privacy}",
    "received_events_url": "https://api.github.com/users/Commissar0617/received_events",
    "type": "User",
    "site_admin": false
  },
  "labels": [
    {
      "id": 64585,
      "node_id": "MDU6TGFiZWw2NDU4NQ==",
      "url": "https://api.github.com/repos/bitcoin/bitcoin/labels/Bug",
      "name": "Bug",
      "color": "FBBAAB",
      "default": false,
      "description": null
    }
  ],
  "state": "closed",
  "locked": true,
  "assignee": null,
  "assignees": [

  ],
  "milestone": null,
  "comments": 3,
  "created_at": "2013-11-20T17:57:30Z",
  "updated_at": "2021-09-08T12:19:37Z",
  "closed_at": "2014-01-25T10:29:03Z",
  "author_association": "NONE",
  "active_lock_reason": "resolved",
  "body_html": "<p dir=\"auto\">both my desktop, running win8 pro, and my laptop, running win7, throw \"cannot read block\", or \"failed to write block\" or \"failed to write undo data\". this happenes with litecoin-qt as well....<br>\ni've tried reindex, and deleting... these are fresh installs as of midnight, last night...</p>",
  "body_text": "both my desktop, running win8 pro, and my laptop, running win7, throw \"cannot read block\", or \"failed to write block\" or \"failed to write undo data\". this happenes with litecoin-qt as well....\ni've tried reindex, and deleting... these are fresh installs as of midnight, last night...",
  "body": "both my desktop, running win8 pro, and my laptop, running win7, throw \"cannot read block\", or \"failed to write block\" or \"failed to write undo data\". this happenes with litecoin-qt as well....\ni've tried reindex, and deleting... these are fresh installs as of midnight, last night...\n",
  "closed_by": {
    "login": "laanwj",
    "id": 126646,
    "node_id": "MDQ6VXNlcjEyNjY0Ng==",
    "avatar_url": "https://avatars.githubusercontent.com/u/126646?v=4",
    "gravatar_id": "",
    "url": "https://api.github.com/users/laanwj",
    "html_url": "https://github.com/laanwj",
    "followers_url": "https://api.github.com/users/laanwj/followers",
    "following_url": "https://api.github.com/users/laanwj/following{/other_user}",
    "gists_url": "https://api.github.com/users/laanwj/gists{/gist_id}",
    "starred_url": "https://api.github.com/users/laanwj/starred{/owner}{/repo}",
    "subscriptions_url": "https://api.github.com/users/laanwj/subscriptions",
    "organizations_url": "https://api.github.com/users/laanwj/orgs",
    "repos_url": "https://api.github.com/users/laanwj/repos",
    "events_url": "https://api.github.com/users/laanwj/events{/privacy}",
    "received_events_url": "https://api.github.com/users/laanwj/received_events",
    "type": "User",
    "site_admin": false
  },
  "reactions": {
    "url": "https://api.github.com/repos/bitcoin/bitcoin/issues/3289/reactions",
    "total_count": 0,
    "+1": 0,
    "-1": 0,
    "laugh": 0,
    "hooray": 0,
    "confused": 0,
    "heart": 0,
    "rocket": 0,
    "eyes": 0
  },
  "timeline_url": "https://api.github.com/repos/bitcoin/bitcoin/issues/3289/timeline",
  "performed_via_github_app": null,
  "state_reason": "completed"
}
