{
  "url": "https://api.github.com/repos/bitcoin/bitcoin/issues/3389",
  "repository_url": "https://api.github.com/repos/bitcoin/bitcoin",
  "labels_url": "https://api.github.com/repos/bitcoin/bitcoin/issues/3389/labels{/name}",
  "comments_url": "https://api.github.com/repos/bitcoin/bitcoin/issues/3389/comments",
  "events_url": "https://api.github.com/repos/bitcoin/bitcoin/issues/3389/events",
  "html_url": "https://github.com/bitcoin/bitcoin/pull/3389",
  "id": 24084612,
  "node_id": "MDExOlB1bGxSZXF1ZXN0MTA3MTM4NTg=",
  "number": 3389,
  "title": "Update build-osx.md",
  "user": {
    "login": "xtech9",
    "id": 5559249,
    "node_id": "MDQ6VXNlcjU1NTkyNDk=",
    "avatar_url": "https://avatars.githubusercontent.com/u/5559249?v=4",
    "gravatar_id": "",
    "url": "https://api.github.com/users/xtech9",
    "html_url": "https://github.com/xtech9",
    "followers_url": "https://api.github.com/users/xtech9/followers",
    "following_url": "https://api.github.com/users/xtech9/following{/other_user}",
    "gists_url": "https://api.github.com/users/xtech9/gists{/gist_id}",
    "starred_url": "https://api.github.com/users/xtech9/starred{/owner}{/repo}",
    "subscriptions_url": "https://api.github.com/users/xtech9/subscriptions",
    "organizations_url": "https://api.github.com/users/xtech9/orgs",
    "repos_url": "https://api.github.com/users/xtech9/repos",
    "events_url": "https://api.github.com/users/xtech9/events{/privacy}",
    "received_events_url": "https://api.github.com/users/xtech9/received_events",
    "type": "User",
    "site_admin": false
  },
  "labels": [

  ],
  "state": "closed",
  "locked": true,
  "assignee": null,
  "assignees": [

  ],
  "milestone": null,
  "comments": 2,
  "created_at": "2013-12-11T03:58:23Z",
  "updated_at": "2021-09-08T10:28:13Z",
  "closed_at": "2013-12-11T08:13:28Z",
  "author_association": "NONE",
  "active_lock_reason": "resolved",
  "draft": false,
  "pull_request": {
    "url": "https://api.github.com/repos/bitcoin/bitcoin/pulls/3389",
    "html_url": "https://github.com/bitcoin/bitcoin/pull/3389",
    "diff_url": "https://github.com/bitcoin/bitcoin/pull/3389.diff",
    "patch_url": "https://github.com/bitcoin/bitcoin/pull/3389.patch",
    "merged_at": "2013-12-11T08:13:28Z"
  },
  "body_html": "",
  "body_text": "",
  "body": "",
  "closed_by": {
    "login": "gavinandresen",
    "id": 331997,
    "node_id": "MDQ6VXNlcjMzMTk5Nw==",
    "avatar_url": "https://avatars.githubusercontent.com/u/331997?v=4",
    "gravatar_id": "",
    "url": "https://api.github.com/users/gavinandresen",
    "html_url": "https://github.com/gavinandresen",
    "followers_url": "https://api.github.com/users/gavinandresen/followers",
    "following_url": "https://api.github.com/users/gavinandresen/following{/other_user}",
    "gists_url": "https://api.github.com/users/gavinandresen/gists{/gist_id}",
    "starred_url": "https://api.github.com/users/gavinandresen/starred{/owner}{/repo}",
    "subscriptions_url": "https://api.github.com/users/gavinandresen/subscriptions",
    "organizations_url": "https://api.github.com/users/gavinandresen/orgs",
    "repos_url": "https://api.github.com/users/gavinandresen/repos",
    "events_url": "https://api.github.com/users/gavinandresen/events{/privacy}",
    "received_events_url": "https://api.github.com/users/gavinandresen/received_events",
    "type": "User",
    "site_admin": false
  },
  "reactions": {
    "url": "https://api.github.com/repos/bitcoin/bitcoin/issues/3389/reactions",
    "total_count": 0,
    "+1": 0,
    "-1": 0,
    "laugh": 0,
    "hooray": 0,
    "confused": 0,
    "heart": 0,
    "rocket": 0,
    "eyes": 0
  },
  "timeline_url": "https://api.github.com/repos/bitcoin/bitcoin/issues/3389/timeline",
  "performed_via_github_app": null,
  "state_reason": null
}
