[
  {
    "url": "https://api.github.com/repos/bitcoin/bitcoin/issues/comments/426504734",
    "html_url": "https://github.com/bitcoin/bitcoin/issues/14376#issuecomment-426504734",
    "issue_url": "https://api.github.com/repos/bitcoin/bitcoin/issues/14376",
    "id": 426504734,
    "node_id": "MDEyOklzc3VlQ29tbWVudDQyNjUwNDczNA==",
    "user": {
      "login": "maflcko",
      "id": 6399679,
      "node_id": "MDQ6VXNlcjYzOTk2Nzk=",
      "avatar_url": "https://avatars.githubusercontent.com/u/6399679?v=4",
      "gravatar_id": "",
      "url": "https://api.github.com/users/maflcko",
      "html_url": "https://github.com/maflcko",
      "followers_url": "https://api.github.com/users/maflcko/followers",
      "following_url": "https://api.github.com/users/maflcko/following{/other_user}",
      "gists_url": "https://api.github.com/users/maflcko/gists{/gist_id}",
      "starred_url": "https://api.github.com/users/maflcko/starred{/owner}{/repo}",
      "subscriptions_url": "https://api.github.com/users/maflcko/subscriptions",
      "organizations_url": "https://api.github.com/users/maflcko/orgs",
      "repos_url": "https://api.github.com/users/maflcko/repos",
      "events_url": "https://api.github.com/users/maflcko/events{/privacy}",
      "received_events_url": "https://api.github.com/users/maflcko/received_events",
      "type": "User",
      "site_admin": false
    },
    "created_at": "2018-10-03T04:01:49Z",
    "updated_at": "2018-10-03T04:01:49Z",
    "author_association": "MEMBER",
    "body_html": "<p dir=\"auto\">The rpc interface is not hardened against attackers and should only be called from internal, well-behaving code and not exposed to the outside directly.</p>",
    "body_text": "The rpc interface is not hardened against attackers and should only be called from internal, well-behaving code and not exposed to the outside directly.",
    "body": "The rpc interface is not hardened against attackers and should only be called from internal, well-behaving code and not exposed to the outside directly.",
    "reactions": {
      "url": "https://api.github.com/repos/bitcoin/bitcoin/issues/comments/426504734/reactions",
      "total_count": 0,
      "+1": 0,
      "-1": 0,
      "laugh": 0,
      "hooray": 0,
      "confused": 0,
      "heart": 0,
      "rocket": 0,
      "eyes": 0
    },
    "performed_via_github_app": null
  },
  {
    "url": "https://api.github.com/repos/bitcoin/bitcoin/issues/comments/426505312",
    "html_url": "https://github.com/bitcoin/bitcoin/issues/14376#issuecomment-426505312",
    "issue_url": "https://api.github.com/repos/bitcoin/bitcoin/issues/14376",
    "id": 426505312,
    "node_id": "MDEyOklzc3VlQ29tbWVudDQyNjUwNTMxMg==",
    "user": {
      "login": "etscrivner",
      "id": 69561,
      "node_id": "MDQ6VXNlcjY5NTYx",
      "avatar_url": "https://avatars.githubusercontent.com/u/69561?v=4",
      "gravatar_id": "",
      "url": "https://api.github.com/users/etscrivner",
      "html_url": "https://github.com/etscrivner",
      "followers_url": "https://api.github.com/users/etscrivner/followers",
      "following_url": "https://api.github.com/users/etscrivner/following{/other_user}",
      "gists_url": "https://api.github.com/users/etscrivner/gists{/gist_id}",
      "starred_url": "https://api.github.com/users/etscrivner/starred{/owner}{/repo}",
      "subscriptions_url": "https://api.github.com/users/etscrivner/subscriptions",
      "organizations_url": "https://api.github.com/users/etscrivner/orgs",
      "repos_url": "https://api.github.com/users/etscrivner/repos",
      "events_url": "https://api.github.com/users/etscrivner/events{/privacy}",
      "received_events_url": "https://api.github.com/users/etscrivner/received_events",
      "type": "User",
      "site_admin": false
    },
    "created_at": "2018-10-03T04:06:29Z",
    "updated_at": "2018-10-03T04:06:29Z",
    "author_association": "CONTRIBUTOR",
    "body_html": "<p dir=\"auto\"><a class=\"user-mention notranslate\" data-hovercard-type=\"user\" data-hovercard-url=\"/users/MarcoFalke/hovercard\" data-octo-click=\"hovercard-link-click\" data-octo-dimensions=\"link_type:self\" href=\"https://github.com/MarcoFalke\">@MarcoFalke</a> Absolutely agree that RPC interfaces are quite risky to expose publicly, but one can never guarantee the code interfacing with a node - even if trusted - is \"well-behaving\". This issue was discovered when a trusted internal network user accidentally ran a script overnight requesting overly large batches of blocks from a Bitcoin node.</p>",
    "body_text": "@MarcoFalke Absolutely agree that RPC interfaces are quite risky to expose publicly, but one can never guarantee the code interfacing with a node - even if trusted - is \"well-behaving\". This issue was discovered when a trusted internal network user accidentally ran a script overnight requesting overly large batches of blocks from a Bitcoin node.",
    "body": "@MarcoFalke Absolutely agree that RPC interfaces are quite risky to expose publicly, but one can never guarantee the code interfacing with a node - even if trusted - is \"well-behaving\". This issue was discovered when a trusted internal network user accidentally ran a script overnight requesting overly large batches of blocks from a Bitcoin node.",
    "reactions": {
      "url": "https://api.github.com/repos/bitcoin/bitcoin/issues/comments/426505312/reactions",
      "total_count": 0,
      "+1": 0,
      "-1": 0,
      "laugh": 0,
      "hooray": 0,
      "confused": 0,
      "heart": 0,
      "rocket": 0,
      "eyes": 0
    },
    "performed_via_github_app": null
  },
  {
    "url": "https://api.github.com/repos/bitcoin/bitcoin/issues/comments/426513274",
    "html_url": "https://github.com/bitcoin/bitcoin/issues/14376#issuecomment-426513274",
    "issue_url": "https://api.github.com/repos/bitcoin/bitcoin/issues/14376",
    "id": 426513274,
    "node_id": "MDEyOklzc3VlQ29tbWVudDQyNjUxMzI3NA==",
    "user": {
      "login": "sipa",
      "id": 548488,
      "node_id": "MDQ6VXNlcjU0ODQ4OA==",
      "avatar_url": "https://avatars.githubusercontent.com/u/548488?v=4",
      "gravatar_id": "",
      "url": "https://api.github.com/users/sipa",
      "html_url": "https://github.com/sipa",
      "followers_url": "https://api.github.com/users/sipa/followers",
      "following_url": "https://api.github.com/users/sipa/following{/other_user}",
      "gists_url": "https://api.github.com/users/sipa/gists{/gist_id}",
      "starred_url": "https://api.github.com/users/sipa/starred{/owner}{/repo}",
      "subscriptions_url": "https://api.github.com/users/sipa/subscriptions",
      "organizations_url": "https://api.github.com/users/sipa/orgs",
      "repos_url": "https://api.github.com/users/sipa/repos",
      "events_url": "https://api.github.com/users/sipa/events{/privacy}",
      "received_events_url": "https://api.github.com/users/sipa/received_events",
      "type": "User",
      "site_admin": false
    },
    "created_at": "2018-10-03T05:09:13Z",
    "updated_at": "2018-10-03T05:09:13Z",
    "author_association": "MEMBER",
    "body_html": "<p dir=\"auto\">Agree with <a class=\"user-mention notranslate\" data-hovercard-type=\"user\" data-hovercard-url=\"/users/MarcoFalke/hovercard\" data-octo-click=\"hovercard-link-click\" data-octo-dimensions=\"link_type:self\" href=\"https://github.com/MarcoFalke\">@MarcoFalke</a> that this is not a critical issue as RPC clients are assumed to be trusted.</p>\n<p dir=\"auto\">That doesn't mean we shouldn't fix this issue, though.</p>",
    "body_text": "Agree with @MarcoFalke that this is not a critical issue as RPC clients are assumed to be trusted.\nThat doesn't mean we shouldn't fix this issue, though.",
    "body": "Agree with @MarcoFalke that this is not a critical issue as RPC clients are assumed to be trusted.\n\nThat doesn't mean we shouldn't fix this issue, though.",
    "reactions": {
      "url": "https://api.github.com/repos/bitcoin/bitcoin/issues/comments/426513274/reactions",
      "total_count": 0,
      "+1": 0,
      "-1": 0,
      "laugh": 0,
      "hooray": 0,
      "confused": 0,
      "heart": 0,
      "rocket": 0,
      "eyes": 0
    },
    "performed_via_github_app": null
  },
  {
    "url": "https://api.github.com/repos/bitcoin/bitcoin/issues/comments/426521107",
    "html_url": "https://github.com/bitcoin/bitcoin/issues/14376#issuecomment-426521107",
    "issue_url": "https://api.github.com/repos/bitcoin/bitcoin/issues/14376",
    "id": 426521107,
    "node_id": "MDEyOklzc3VlQ29tbWVudDQyNjUyMTEwNw==",
    "user": {
      "login": "maflcko",
      "id": 6399679,
      "node_id": "MDQ6VXNlcjYzOTk2Nzk=",
      "avatar_url": "https://avatars.githubusercontent.com/u/6399679?v=4",
      "gravatar_id": "",
      "url": "https://api.github.com/users/maflcko",
      "html_url": "https://github.com/maflcko",
      "followers_url": "https://api.github.com/users/maflcko/followers",
      "following_url": "https://api.github.com/users/maflcko/following{/other_user}",
      "gists_url": "https://api.github.com/users/maflcko/gists{/gist_id}",
      "starred_url": "https://api.github.com/users/maflcko/starred{/owner}{/repo}",
      "subscriptions_url": "https://api.github.com/users/maflcko/subscriptions",
      "organizations_url": "https://api.github.com/users/maflcko/orgs",
      "repos_url": "https://api.github.com/users/maflcko/repos",
      "events_url": "https://api.github.com/users/maflcko/events{/privacy}",
      "received_events_url": "https://api.github.com/users/maflcko/received_events",
      "type": "User",
      "site_admin": false
    },
    "created_at": "2018-10-03T06:01:54Z",
    "updated_at": "2018-10-03T06:01:54Z",
    "author_association": "MEMBER",
    "body_html": "<p dir=\"auto\">Sure, if there is a way to prevent the crash lets do it, but I am not sure if we can efficiently estimate memory usage for each request.</p>",
    "body_text": "Sure, if there is a way to prevent the crash lets do it, but I am not sure if we can efficiently estimate memory usage for each request.",
    "body": "Sure, if there is a way to prevent the crash lets do it, but I am not sure if we can efficiently estimate memory usage for each request.",
    "reactions": {
      "url": "https://api.github.com/repos/bitcoin/bitcoin/issues/comments/426521107/reactions",
      "total_count": 0,
      "+1": 0,
      "-1": 0,
      "laugh": 0,
      "hooray": 0,
      "confused": 0,
      "heart": 0,
      "rocket": 0,
      "eyes": 0
    },
    "performed_via_github_app": null
  },
  {
    "url": "https://api.github.com/repos/bitcoin/bitcoin/issues/comments/426564512",
    "html_url": "https://github.com/bitcoin/bitcoin/issues/14376#issuecomment-426564512",
    "issue_url": "https://api.github.com/repos/bitcoin/bitcoin/issues/14376",
    "id": 426564512,
    "node_id": "MDEyOklzc3VlQ29tbWVudDQyNjU2NDUxMg==",
    "user": {
      "login": "jonasschnelli",
      "id": 178464,
      "node_id": "MDQ6VXNlcjE3ODQ2NA==",
      "avatar_url": "https://avatars.githubusercontent.com/u/178464?v=4",
      "gravatar_id": "",
      "url": "https://api.github.com/users/jonasschnelli",
      "html_url": "https://github.com/jonasschnelli",
      "followers_url": "https://api.github.com/users/jonasschnelli/followers",
      "following_url": "https://api.github.com/users/jonasschnelli/following{/other_user}",
      "gists_url": "https://api.github.com/users/jonasschnelli/gists{/gist_id}",
      "starred_url": "https://api.github.com/users/jonasschnelli/starred{/owner}{/repo}",
      "subscriptions_url": "https://api.github.com/users/jonasschnelli/subscriptions",
      "organizations_url": "https://api.github.com/users/jonasschnelli/orgs",
      "repos_url": "https://api.github.com/users/jonasschnelli/repos",
      "events_url": "https://api.github.com/users/jonasschnelli/events{/privacy}",
      "received_events_url": "https://api.github.com/users/jonasschnelli/received_events",
      "type": "User",
      "site_admin": false
    },
    "created_at": "2018-10-03T09:08:23Z",
    "updated_at": "2018-10-03T09:08:23Z",
    "author_association": "CONTRIBUTOR",
    "body_html": "<p dir=\"auto\">Agree with <a class=\"user-mention notranslate\" data-hovercard-type=\"user\" data-hovercard-url=\"/users/sipa/hovercard\" data-octo-click=\"hovercard-link-click\" data-octo-dimensions=\"link_type:self\" href=\"https://github.com/sipa\">@sipa</a> and <a class=\"user-mention notranslate\" data-hovercard-type=\"user\" data-hovercard-url=\"/users/MarcoFalke/hovercard\" data-octo-click=\"hovercard-link-click\" data-octo-dimensions=\"link_type:self\" href=\"https://github.com/MarcoFalke\">@MarcoFalke</a>. There is no need for too much hand holding on the RPC interface. Its assumed authenticated/trusted,... you can \"shutdown\" bitcoind more efficient with a <code class=\"notranslate\">stop</code> command then with sending 20k getblockhash requests in a single batch. :-)</p>\n<p dir=\"auto\">Of course we could make is more sane as <a class=\"user-mention notranslate\" data-hovercard-type=\"user\" data-hovercard-url=\"/users/sipa/hovercard\" data-octo-click=\"hovercard-link-click\" data-octo-dimensions=\"link_type:self\" href=\"https://github.com/sipa\">@sipa</a> said,... but I also don't see a pressing need for this.</p>",
    "body_text": "Agree with @sipa and @MarcoFalke. There is no need for too much hand holding on the RPC interface. Its assumed authenticated/trusted,... you can \"shutdown\" bitcoind more efficient with a stop command then with sending 20k getblockhash requests in a single batch. :-)\nOf course we could make is more sane as @sipa said,... but I also don't see a pressing need for this.",
    "body": "Agree with @sipa and @MarcoFalke. There is no need for too much hand holding on the RPC interface. Its assumed authenticated/trusted,... you can \"shutdown\" bitcoind more efficient with a `stop` command then with sending 20k getblockhash requests in a single batch. :-)\r\n\r\nOf course we could make is more sane as @sipa said,... but I also don't see a pressing need for this.",
    "reactions": {
      "url": "https://api.github.com/repos/bitcoin/bitcoin/issues/comments/426564512/reactions",
      "total_count": 0,
      "+1": 0,
      "-1": 0,
      "laugh": 0,
      "hooray": 0,
      "confused": 0,
      "heart": 0,
      "rocket": 0,
      "eyes": 0
    },
    "performed_via_github_app": null
  },
  {
    "url": "https://api.github.com/repos/bitcoin/bitcoin/issues/comments/426693841",
    "html_url": "https://github.com/bitcoin/bitcoin/issues/14376#issuecomment-426693841",
    "issue_url": "https://api.github.com/repos/bitcoin/bitcoin/issues/14376",
    "id": 426693841,
    "node_id": "MDEyOklzc3VlQ29tbWVudDQyNjY5Mzg0MQ==",
    "user": {
      "login": "etscrivner",
      "id": 69561,
      "node_id": "MDQ6VXNlcjY5NTYx",
      "avatar_url": "https://avatars.githubusercontent.com/u/69561?v=4",
      "gravatar_id": "",
      "url": "https://api.github.com/users/etscrivner",
      "html_url": "https://github.com/etscrivner",
      "followers_url": "https://api.github.com/users/etscrivner/followers",
      "following_url": "https://api.github.com/users/etscrivner/following{/other_user}",
      "gists_url": "https://api.github.com/users/etscrivner/gists{/gist_id}",
      "starred_url": "https://api.github.com/users/etscrivner/starred{/owner}{/repo}",
      "subscriptions_url": "https://api.github.com/users/etscrivner/subscriptions",
      "organizations_url": "https://api.github.com/users/etscrivner/orgs",
      "repos_url": "https://api.github.com/users/etscrivner/repos",
      "events_url": "https://api.github.com/users/etscrivner/events{/privacy}",
      "received_events_url": "https://api.github.com/users/etscrivner/received_events",
      "type": "User",
      "site_admin": false
    },
    "created_at": "2018-10-03T16:02:45Z",
    "updated_at": "2018-10-12T18:50:06Z",
    "author_association": "CONTRIBUTOR",
    "body_html": "<p dir=\"auto\">Yeah, I don't think this is urgent by any means, but I believe it could be improved without too much work. I'm happy to take a crack at a fix but wanted to leave room for some comments first.</p>\n<p dir=\"auto\">One simple proposal I've considered that I'd be interested in feedback on:</p>\n<p dir=\"auto\"><strong>PROPOSAL</strong><br>\nAdd a new configuration option <code class=\"notranslate\">-rpcmaxbatchsize=&lt;numrequests&gt;</code>:</p>\n<ul dir=\"auto\">\n<li>Takes the maximum number of requests allowed in a single RPC batch request.</li>\n<li>Default: unlimited <code class=\"notranslate\">(-1)</code> - the current configuration.</li>\n<li>When <code class=\"notranslate\">0</code> - either disable batching entirely or trigger a configuration error, no preference here.</li>\n<li>When <code class=\"notranslate\">&lt;-1</code> - Trigger a configuration error and ignore.</li>\n</ul>\n<p dir=\"auto\">When <code class=\"notranslate\">rpcmaxbatchsize</code> is configured AND <code class=\"notranslate\"># of requests in batch &gt; rpcmaxbatchsize</code>:</p>\n<ul dir=\"auto\">\n<li>Throw a <code class=\"notranslate\">JSONRPCError</code> with type <code class=\"notranslate\">RPC_INVAILD_PARAMETER</code> and message <code class=\"notranslate\">Number of requests in batch exceeds rpcmaxbatchsize</code>.</li>\n</ul>\n<p dir=\"auto\">Enforcing this would be as simple as adding a guard clause at the top of <a href=\"https://github.com/bitcoin/bitcoin/blob/master/src/rpc/server.cpp#L413\"><code class=\"notranslate\">JSONRPCExecBatch</code></a> that checks <code class=\"notranslate\">vReq.size()</code>.</p>\n<p dir=\"auto\"><strong>UPSIDES</strong></p>\n<ul dir=\"auto\">\n<li>Simple to implement and enforce.</li>\n<li>Provides some degree of crash safety in the presence of malfunctioning or misconfigured software interacting with a node over RPC.</li>\n</ul>\n<p dir=\"auto\"><strong>DOWNSIDES</strong></p>\n<ul dir=\"auto\">\n<li>Because the enforcement is on batch request size and not on memory used, this would disallow some large batch requests that would otherwise be able to succeed. However, the equivalent information can always just be aggregated from multiple smaller batch requests.</li>\n<li>Requires node administrators to do some back of the envelope math to configure a reasonable <code class=\"notranslate\">rpcmaxbatchsize</code> based on available system memory and number of RPC threads.</li>\n</ul>",
    "body_text": "Yeah, I don't think this is urgent by any means, but I believe it could be improved without too much work. I'm happy to take a crack at a fix but wanted to leave room for some comments first.\nOne simple proposal I've considered that I'd be interested in feedback on:\nPROPOSAL\nAdd a new configuration option -rpcmaxbatchsize=<numrequests>:\n\nTakes the maximum number of requests allowed in a single RPC batch request.\nDefault: unlimited (-1) - the current configuration.\nWhen 0 - either disable batching entirely or trigger a configuration error, no preference here.\nWhen <-1 - Trigger a configuration error and ignore.\n\nWhen rpcmaxbatchsize is configured AND # of requests in batch > rpcmaxbatchsize:\n\nThrow a JSONRPCError with type RPC_INVAILD_PARAMETER and message Number of requests in batch exceeds rpcmaxbatchsize.\n\nEnforcing this would be as simple as adding a guard clause at the top of JSONRPCExecBatch that checks vReq.size().\nUPSIDES\n\nSimple to implement and enforce.\nProvides some degree of crash safety in the presence of malfunctioning or misconfigured software interacting with a node over RPC.\n\nDOWNSIDES\n\nBecause the enforcement is on batch request size and not on memory used, this would disallow some large batch requests that would otherwise be able to succeed. However, the equivalent information can always just be aggregated from multiple smaller batch requests.\nRequires node administrators to do some back of the envelope math to configure a reasonable rpcmaxbatchsize based on available system memory and number of RPC threads.",
    "body": "Yeah, I don't think this is urgent by any means, but I believe it could be improved without too much work. I'm happy to take a crack at a fix but wanted to leave room for some comments first.\r\n\r\nOne simple proposal I've considered that I'd be interested in feedback on:\r\n\r\n**PROPOSAL**\r\nAdd a new configuration option `-rpcmaxbatchsize=<numrequests>`:\r\n* Takes the maximum number of requests allowed in a single RPC batch request.\r\n* Default: unlimited `(-1)` - the current configuration.\r\n* When `0` - either disable batching entirely or trigger a configuration error, no preference here.\r\n* When `<-1` - Trigger a configuration error and ignore.\r\n\r\nWhen `rpcmaxbatchsize` is configured AND `# of requests in batch > rpcmaxbatchsize`:\r\n* Throw a `JSONRPCError` with type `RPC_INVAILD_PARAMETER` and message `Number of requests in batch exceeds rpcmaxbatchsize`.\r\n\r\nEnforcing this would be as simple as adding a guard clause at the top of [`JSONRPCExecBatch`](https://github.com/bitcoin/bitcoin/blob/master/src/rpc/server.cpp#L413) that checks `vReq.size()`.\r\n\r\n**UPSIDES**\r\n* Simple to implement and enforce.\r\n* Provides some degree of crash safety in the presence of malfunctioning or misconfigured software interacting with a node over RPC.\r\n\r\n**DOWNSIDES**\r\n* Because the enforcement is on batch request size and not on memory used, this would disallow some large batch requests that would otherwise be able to succeed. However, the equivalent information can always just be aggregated from multiple smaller batch requests.\r\n* Requires node administrators to do some back of the envelope math to configure a reasonable `rpcmaxbatchsize` based on available system memory and number of RPC threads.",
    "reactions": {
      "url": "https://api.github.com/repos/bitcoin/bitcoin/issues/comments/426693841/reactions",
      "total_count": 0,
      "+1": 0,
      "-1": 0,
      "laugh": 0,
      "hooray": 0,
      "confused": 0,
      "heart": 0,
      "rocket": 0,
      "eyes": 0
    },
    "performed_via_github_app": null
  },
  {
    "url": "https://api.github.com/repos/bitcoin/bitcoin/issues/comments/429166482",
    "html_url": "https://github.com/bitcoin/bitcoin/issues/14376#issuecomment-429166482",
    "issue_url": "https://api.github.com/repos/bitcoin/bitcoin/issues/14376",
    "id": 429166482,
    "node_id": "MDEyOklzc3VlQ29tbWVudDQyOTE2NjQ4Mg==",
    "user": {
      "login": "promag",
      "id": 3534524,
      "node_id": "MDQ6VXNlcjM1MzQ1MjQ=",
      "avatar_url": "https://avatars.githubusercontent.com/u/3534524?v=4",
      "gravatar_id": "",
      "url": "https://api.github.com/users/promag",
      "html_url": "https://github.com/promag",
      "followers_url": "https://api.github.com/users/promag/followers",
      "following_url": "https://api.github.com/users/promag/following{/other_user}",
      "gists_url": "https://api.github.com/users/promag/gists{/gist_id}",
      "starred_url": "https://api.github.com/users/promag/starred{/owner}{/repo}",
      "subscriptions_url": "https://api.github.com/users/promag/subscriptions",
      "organizations_url": "https://api.github.com/users/promag/orgs",
      "repos_url": "https://api.github.com/users/promag/repos",
      "events_url": "https://api.github.com/users/promag/events{/privacy}",
      "received_events_url": "https://api.github.com/users/promag/received_events",
      "type": "User",
      "site_admin": false
    },
    "created_at": "2018-10-12T00:39:34Z",
    "updated_at": "2018-10-12T00:39:34Z",
    "author_association": "MEMBER",
    "body_html": "<p dir=\"auto\">The OOM happens because the batch is processed as a whole: the json batch is parsed in one go, the full response is written in one go. Instead it should be \"streamed\"?</p>",
    "body_text": "The OOM happens because the batch is processed as a whole: the json batch is parsed in one go, the full response is written in one go. Instead it should be \"streamed\"?",
    "body": "The OOM happens because the batch is processed as a whole: the json batch is parsed in one go, the full response is written in one go. Instead it should be \"streamed\"?",
    "reactions": {
      "url": "https://api.github.com/repos/bitcoin/bitcoin/issues/comments/429166482/reactions",
      "total_count": 0,
      "+1": 0,
      "-1": 0,
      "laugh": 0,
      "hooray": 0,
      "confused": 0,
      "heart": 0,
      "rocket": 0,
      "eyes": 0
    },
    "performed_via_github_app": null
  },
  {
    "url": "https://api.github.com/repos/bitcoin/bitcoin/issues/comments/429423803",
    "html_url": "https://github.com/bitcoin/bitcoin/issues/14376#issuecomment-429423803",
    "issue_url": "https://api.github.com/repos/bitcoin/bitcoin/issues/14376",
    "id": 429423803,
    "node_id": "MDEyOklzc3VlQ29tbWVudDQyOTQyMzgwMw==",
    "user": {
      "login": "etscrivner",
      "id": 69561,
      "node_id": "MDQ6VXNlcjY5NTYx",
      "avatar_url": "https://avatars.githubusercontent.com/u/69561?v=4",
      "gravatar_id": "",
      "url": "https://api.github.com/users/etscrivner",
      "html_url": "https://github.com/etscrivner",
      "followers_url": "https://api.github.com/users/etscrivner/followers",
      "following_url": "https://api.github.com/users/etscrivner/following{/other_user}",
      "gists_url": "https://api.github.com/users/etscrivner/gists{/gist_id}",
      "starred_url": "https://api.github.com/users/etscrivner/starred{/owner}{/repo}",
      "subscriptions_url": "https://api.github.com/users/etscrivner/subscriptions",
      "organizations_url": "https://api.github.com/users/etscrivner/orgs",
      "repos_url": "https://api.github.com/users/etscrivner/repos",
      "events_url": "https://api.github.com/users/etscrivner/events{/privacy}",
      "received_events_url": "https://api.github.com/users/etscrivner/received_events",
      "type": "User",
      "site_admin": false
    },
    "created_at": "2018-10-12T18:48:58Z",
    "updated_at": "2018-10-18T17:56:37Z",
    "author_association": "CONTRIBUTOR",
    "body_html": "<p dir=\"auto\"><a class=\"user-mention notranslate\" data-hovercard-type=\"user\" data-hovercard-url=\"/users/promag/hovercard\" data-octo-click=\"hovercard-link-click\" data-octo-dimensions=\"link_type:self\" href=\"https://github.com/promag\">@promag</a> AFAICT there are several ways to tackle this with varying levels of complexity and therefore cost and inherited complexity:</p>\n<ol dir=\"auto\">\n<li>Use a simple cap on number of requests per batch (See my proposal above)</li>\n<li>Try to calculate exact memory usage and return an out of memory error if this is exceeded when answering a query.</li>\n<li>Figured out how to use <a href=\"https://en.wikipedia.org/wiki/Chunked_transfer_encoding\" rel=\"nofollow\">chunked transfer encoding</a> which is <a href=\"https://www.monkey.org/~provos/libevent/doxygen-2.0.1/http_8h.html#3dd375d81eac9baabc53749ed025ec12\" rel=\"nofollow\">possible with libevent</a> but entails some significant changes to the Bitcoin HTTP server.</li>\n</ol>\n<p dir=\"auto\">I'd be interested in additional ideas as well as what folks think about the trade-offs inherent in each.</p>",
    "body_text": "@promag AFAICT there are several ways to tackle this with varying levels of complexity and therefore cost and inherited complexity:\n\nUse a simple cap on number of requests per batch (See my proposal above)\nTry to calculate exact memory usage and return an out of memory error if this is exceeded when answering a query.\nFigured out how to use chunked transfer encoding which is possible with libevent but entails some significant changes to the Bitcoin HTTP server.\n\nI'd be interested in additional ideas as well as what folks think about the trade-offs inherent in each.",
    "body": "@promag AFAICT there are several ways to tackle this with varying levels of complexity and therefore cost and inherited complexity:\r\n\r\n1. Use a simple cap on number of requests per batch (See my proposal above)\r\n2. Try to calculate exact memory usage and return an out of memory error if this is exceeded when answering a query.\r\n3. Figured out how to use [chunked transfer encoding](https://en.wikipedia.org/wiki/Chunked_transfer_encoding) which is [possible with libevent](https://www.monkey.org/~provos/libevent/doxygen-2.0.1/http_8h.html#3dd375d81eac9baabc53749ed025ec12) but entails some significant changes to the Bitcoin HTTP server.\r\n\r\nI'd be interested in additional ideas as well as what folks think about the trade-offs inherent in each.",
    "reactions": {
      "url": "https://api.github.com/repos/bitcoin/bitcoin/issues/comments/429423803/reactions",
      "total_count": 0,
      "+1": 0,
      "-1": 0,
      "laugh": 0,
      "hooray": 0,
      "confused": 0,
      "heart": 0,
      "rocket": 0,
      "eyes": 0
    },
    "performed_via_github_app": null
  },
  {
    "url": "https://api.github.com/repos/bitcoin/bitcoin/issues/comments/429613022",
    "html_url": "https://github.com/bitcoin/bitcoin/issues/14376#issuecomment-429613022",
    "issue_url": "https://api.github.com/repos/bitcoin/bitcoin/issues/14376",
    "id": 429613022,
    "node_id": "MDEyOklzc3VlQ29tbWVudDQyOTYxMzAyMg==",
    "user": {
      "login": "meshcollider",
      "id": 3211283,
      "node_id": "MDQ6VXNlcjMyMTEyODM=",
      "avatar_url": "https://avatars.githubusercontent.com/u/3211283?v=4",
      "gravatar_id": "",
      "url": "https://api.github.com/users/meshcollider",
      "html_url": "https://github.com/meshcollider",
      "followers_url": "https://api.github.com/users/meshcollider/followers",
      "following_url": "https://api.github.com/users/meshcollider/following{/other_user}",
      "gists_url": "https://api.github.com/users/meshcollider/gists{/gist_id}",
      "starred_url": "https://api.github.com/users/meshcollider/starred{/owner}{/repo}",
      "subscriptions_url": "https://api.github.com/users/meshcollider/subscriptions",
      "organizations_url": "https://api.github.com/users/meshcollider/orgs",
      "repos_url": "https://api.github.com/users/meshcollider/repos",
      "events_url": "https://api.github.com/users/meshcollider/events{/privacy}",
      "received_events_url": "https://api.github.com/users/meshcollider/received_events",
      "type": "User",
      "site_admin": false
    },
    "created_at": "2018-10-14T10:22:09Z",
    "updated_at": "2018-10-14T10:22:09Z",
    "author_association": "CONTRIBUTOR",
    "body_html": "<p dir=\"auto\">Possibly related <a class=\"issue-link js-issue-link\" data-error-text=\"Failed to load title\" data-id=\"257452522\" data-permission-text=\"Title is private\" data-url=\"https://github.com/bitcoin/bitcoin/issues/11322\" data-hovercard-type=\"issue\" data-hovercard-url=\"/bitcoin/bitcoin/issues/11322/hovercard\" href=\"https://github.com/bitcoin/bitcoin/issues/11322\">#11322</a> and <a class=\"issue-link js-issue-link\" data-error-text=\"Failed to load title\" data-id=\"258769262\" data-permission-text=\"Title is private\" data-url=\"https://github.com/bitcoin/bitcoin/issues/11368\" data-hovercard-type=\"issue\" data-hovercard-url=\"/bitcoin/bitcoin/issues/11368/hovercard\" href=\"https://github.com/bitcoin/bitcoin/issues/11368\">#11368</a>?</p>",
    "body_text": "Possibly related #11322 and #11368?",
    "body": "Possibly related #11322 and #11368?",
    "reactions": {
      "url": "https://api.github.com/repos/bitcoin/bitcoin/issues/comments/429613022/reactions",
      "total_count": 0,
      "+1": 0,
      "-1": 0,
      "laugh": 0,
      "hooray": 0,
      "confused": 0,
      "heart": 0,
      "rocket": 0,
      "eyes": 0
    },
    "performed_via_github_app": null
  },
  {
    "url": "https://api.github.com/repos/bitcoin/bitcoin/issues/comments/430897235",
    "html_url": "https://github.com/bitcoin/bitcoin/issues/14376#issuecomment-430897235",
    "issue_url": "https://api.github.com/repos/bitcoin/bitcoin/issues/14376",
    "id": 430897235,
    "node_id": "MDEyOklzc3VlQ29tbWVudDQzMDg5NzIzNQ==",
    "user": {
      "login": "promag",
      "id": 3534524,
      "node_id": "MDQ6VXNlcjM1MzQ1MjQ=",
      "avatar_url": "https://avatars.githubusercontent.com/u/3534524?v=4",
      "gravatar_id": "",
      "url": "https://api.github.com/users/promag",
      "html_url": "https://github.com/promag",
      "followers_url": "https://api.github.com/users/promag/followers",
      "following_url": "https://api.github.com/users/promag/following{/other_user}",
      "gists_url": "https://api.github.com/users/promag/gists{/gist_id}",
      "starred_url": "https://api.github.com/users/promag/starred{/owner}{/repo}",
      "subscriptions_url": "https://api.github.com/users/promag/subscriptions",
      "organizations_url": "https://api.github.com/users/promag/orgs",
      "repos_url": "https://api.github.com/users/promag/repos",
      "events_url": "https://api.github.com/users/promag/events{/privacy}",
      "received_events_url": "https://api.github.com/users/promag/received_events",
      "type": "User",
      "site_admin": false
    },
    "created_at": "2018-10-18T07:00:16Z",
    "updated_at": "2018-11-21T18:38:29Z",
    "author_association": "MEMBER",
    "body_html": "<p dir=\"auto\"><a class=\"user-mention notranslate\" data-hovercard-type=\"user\" data-hovercard-url=\"/users/etscrivner/hovercard\" data-octo-click=\"hovercard-link-click\" data-octo-dimensions=\"link_type:self\" href=\"https://github.com/etscrivner\">@etscrivner</a> of course, and to support streaming it would require changes to how the JSON is parsed.</p>\n<p dir=\"auto\">Regarding <a class=\"issue-link js-issue-link\" data-error-text=\"Failed to load title\" data-id=\"366165627\" data-permission-text=\"Title is private\" data-url=\"https://github.com/bitcoin/bitcoin/issues/14376\" data-hovercard-type=\"issue\" data-hovercard-url=\"/bitcoin/bitcoin/issues/14376/hovercard?comment_id=429423803&amp;comment_type=issue_comment\" href=\"https://github.com/bitcoin/bitcoin/issues/14376#issuecomment-429423803\">#14376 (comment)</a>:</p>\n<ol dir=\"auto\">\n<li>Requires parsing the whole JSON request</li>\n<li>I don't know how you could do that, and also the same as 1.</li>\n<li>Maybe not worth the effort.</li>\n</ol>\n<p dir=\"auto\">Maybe with multi process separation, with RPC workers as separate processes, we could avoid OOM the main process.</p>\n<p dir=\"auto\">IMO we should not limit the batch size, it defeats the purpose of batches. If the node can handle consecutive requests it should also handle the same requests in a batch.</p>",
    "body_text": "@etscrivner of course, and to support streaming it would require changes to how the JSON is parsed.\nRegarding #14376 (comment):\n\nRequires parsing the whole JSON request\nI don't know how you could do that, and also the same as 1.\nMaybe not worth the effort.\n\nMaybe with multi process separation, with RPC workers as separate processes, we could avoid OOM the main process.\nIMO we should not limit the batch size, it defeats the purpose of batches. If the node can handle consecutive requests it should also handle the same requests in a batch.",
    "body": "@etscrivner of course, and to support streaming it would require changes to how the JSON is parsed.\r\n\r\nRegarding https://github.com/bitcoin/bitcoin/issues/14376#issuecomment-429423803:\r\n\r\n 1. Requires parsing the whole JSON request\r\n 2. I don't know how you could do that, and also the same as 1.\r\n 3. Maybe not worth the effort.\r\n\r\nMaybe with multi process separation, with RPC workers as separate processes, we could avoid OOM the main process.\r\n\r\nIMO we should not limit the batch size, it defeats the purpose of batches. If the node can handle consecutive requests it should also handle the same requests in a batch.",
    "reactions": {
      "url": "https://api.github.com/repos/bitcoin/bitcoin/issues/comments/430897235/reactions",
      "total_count": 0,
      "+1": 0,
      "-1": 0,
      "laugh": 0,
      "hooray": 0,
      "confused": 0,
      "heart": 0,
      "rocket": 0,
      "eyes": 0
    },
    "performed_via_github_app": null
  },
  {
    "url": "https://api.github.com/repos/bitcoin/bitcoin/issues/comments/431114968",
    "html_url": "https://github.com/bitcoin/bitcoin/issues/14376#issuecomment-431114968",
    "issue_url": "https://api.github.com/repos/bitcoin/bitcoin/issues/14376",
    "id": 431114968,
    "node_id": "MDEyOklzc3VlQ29tbWVudDQzMTExNDk2OA==",
    "user": {
      "login": "etscrivner",
      "id": 69561,
      "node_id": "MDQ6VXNlcjY5NTYx",
      "avatar_url": "https://avatars.githubusercontent.com/u/69561?v=4",
      "gravatar_id": "",
      "url": "https://api.github.com/users/etscrivner",
      "html_url": "https://github.com/etscrivner",
      "followers_url": "https://api.github.com/users/etscrivner/followers",
      "following_url": "https://api.github.com/users/etscrivner/following{/other_user}",
      "gists_url": "https://api.github.com/users/etscrivner/gists{/gist_id}",
      "starred_url": "https://api.github.com/users/etscrivner/starred{/owner}{/repo}",
      "subscriptions_url": "https://api.github.com/users/etscrivner/subscriptions",
      "organizations_url": "https://api.github.com/users/etscrivner/orgs",
      "repos_url": "https://api.github.com/users/etscrivner/repos",
      "events_url": "https://api.github.com/users/etscrivner/events{/privacy}",
      "received_events_url": "https://api.github.com/users/etscrivner/received_events",
      "type": "User",
      "site_admin": false
    },
    "created_at": "2018-10-18T18:30:55Z",
    "updated_at": "2018-10-18T18:33:58Z",
    "author_association": "CONTRIBUTOR",
    "body_html": "<p dir=\"auto\"><a class=\"user-mention notranslate\" data-hovercard-type=\"user\" data-hovercard-url=\"/users/promag/hovercard\" data-octo-click=\"hovercard-link-click\" data-octo-dimensions=\"link_type:self\" href=\"https://github.com/promag\">@promag</a> Thanks for the thoughtful response here.</p>\n<p dir=\"auto\">One small point of clarification here: As I see it, the issue here isn't really with JSON request parsing (since the requests here are very small, see original bug report). It is instead with the size of the response objects. Essentially, it is possible to make bitcoind consume 10+ GB of memory from ~1-2MB of request JSON. Though I take your point that the requests themselves could also be excessively large, causing the same issue, but this seems less likely given the trusted multi-user configuration described below. Instead it is this non-linear relationship between</p>\n<p dir=\"auto\">Many businesses deploy bitcoin nodes in a multi-user configuration - where one or several full nodes are accessed by trusted individuals across many departments. This simplifies deployment and maintenance of the nodes and also lowers costs by trading off trust for convenience.</p>\n<p dir=\"auto\">Capping the batch size helps indirectly prevent this explosion of memory usage for multi-user full clients may accidentally attempt to run request batches that are simply too large.</p>\n<p dir=\"auto\">P.S. Whoops accidentally closed this issue.</p>",
    "body_text": "@promag Thanks for the thoughtful response here.\nOne small point of clarification here: As I see it, the issue here isn't really with JSON request parsing (since the requests here are very small, see original bug report). It is instead with the size of the response objects. Essentially, it is possible to make bitcoind consume 10+ GB of memory from ~1-2MB of request JSON. Though I take your point that the requests themselves could also be excessively large, causing the same issue, but this seems less likely given the trusted multi-user configuration described below. Instead it is this non-linear relationship between\nMany businesses deploy bitcoin nodes in a multi-user configuration - where one or several full nodes are accessed by trusted individuals across many departments. This simplifies deployment and maintenance of the nodes and also lowers costs by trading off trust for convenience.\nCapping the batch size helps indirectly prevent this explosion of memory usage for multi-user full clients may accidentally attempt to run request batches that are simply too large.\nP.S. Whoops accidentally closed this issue.",
    "body": "@promag Thanks for the thoughtful response here.\r\n\r\nOne small point of clarification here: As I see it, the issue here isn't really with JSON request parsing (since the requests here are very small, see original bug report). It is instead with the size of the response objects. Essentially, it is possible to make bitcoind consume 10+ GB of memory from ~1-2MB of request JSON. Though I take your point that the requests themselves could also be excessively large, causing the same issue, but this seems less likely given the trusted multi-user configuration described below. Instead it is this non-linear relationship between \r\n\r\nMany businesses deploy bitcoin nodes in a multi-user configuration - where one or several full nodes are accessed by trusted individuals across many departments. This simplifies deployment and maintenance of the nodes and also lowers costs by trading off trust for convenience.\r\n\r\nCapping the batch size helps indirectly prevent this explosion of memory usage for multi-user full clients may accidentally attempt to run request batches that are simply too large.\r\n\r\nP.S. Whoops accidentally closed this issue.",
    "reactions": {
      "url": "https://api.github.com/repos/bitcoin/bitcoin/issues/comments/431114968/reactions",
      "total_count": 0,
      "+1": 0,
      "-1": 0,
      "laugh": 0,
      "hooray": 0,
      "confused": 0,
      "heart": 0,
      "rocket": 0,
      "eyes": 0
    },
    "performed_via_github_app": null
  }
]
