[
  {
    "url": "https://api.github.com/repos/bitcoin/bitcoin/issues/comments/6161085",
    "html_url": "https://github.com/bitcoin/bitcoin/issues/1428#issuecomment-6161085",
    "issue_url": "https://api.github.com/repos/bitcoin/bitcoin/issues/1428",
    "id": 6161085,
    "node_id": "MDEyOklzc3VlQ29tbWVudDYxNjEwODU=",
    "user": {
      "login": "gmaxwell",
      "id": 858454,
      "node_id": "MDQ6VXNlcjg1ODQ1NA==",
      "avatar_url": "https://avatars.githubusercontent.com/u/858454?v=4",
      "gravatar_id": "",
      "url": "https://api.github.com/users/gmaxwell",
      "html_url": "https://github.com/gmaxwell",
      "followers_url": "https://api.github.com/users/gmaxwell/followers",
      "following_url": "https://api.github.com/users/gmaxwell/following{/other_user}",
      "gists_url": "https://api.github.com/users/gmaxwell/gists{/gist_id}",
      "starred_url": "https://api.github.com/users/gmaxwell/starred{/owner}{/repo}",
      "subscriptions_url": "https://api.github.com/users/gmaxwell/subscriptions",
      "organizations_url": "https://api.github.com/users/gmaxwell/orgs",
      "repos_url": "https://api.github.com/users/gmaxwell/repos",
      "events_url": "https://api.github.com/users/gmaxwell/events{/privacy}",
      "received_events_url": "https://api.github.com/users/gmaxwell/received_events",
      "type": "User",
      "site_admin": false
    },
    "created_at": "2012-06-06T20:00:55Z",
    "updated_at": "2012-06-06T20:00:55Z",
    "author_association": "CONTRIBUTOR",
    "body_html": "<p dir=\"auto\">\"Because the first transaction seen by most miners is Trx B, they will reject the block from Evil miner for being invalid and eventually the blockchain will confirm Trx B.\"</p>\n<p dir=\"auto\">I stopped reading here.  This isn't how bitcoin works. Blocks always superseed hearing transactions not in blocks.</p>\n<p dir=\"auto\">Also I suspect you think a txn will still show confirmation 1 when its no longer in the longest chain. This isn't so, if the block the txn was confirmed in falls out of the longest chain the confirms will go back to zero.</p>\n<p dir=\"auto\">Also, the client will not spend inputs with less than 6 confirms if it has a choice.</p>",
    "body_text": "\"Because the first transaction seen by most miners is Trx B, they will reject the block from Evil miner for being invalid and eventually the blockchain will confirm Trx B.\"\nI stopped reading here.  This isn't how bitcoin works. Blocks always superseed hearing transactions not in blocks.\nAlso I suspect you think a txn will still show confirmation 1 when its no longer in the longest chain. This isn't so, if the block the txn was confirmed in falls out of the longest chain the confirms will go back to zero.\nAlso, the client will not spend inputs with less than 6 confirms if it has a choice.",
    "body": "\"Because the first transaction seen by most miners is Trx B, they will reject the block from Evil miner for being invalid and eventually the blockchain will confirm Trx B.\"\n\nI stopped reading here.  This isn't how bitcoin works. Blocks always superseed hearing transactions not in blocks.\n\nAlso I suspect you think a txn will still show confirmation 1 when its no longer in the longest chain. This isn't so, if the block the txn was confirmed in falls out of the longest chain the confirms will go back to zero.\n\nAlso, the client will not spend inputs with less than 6 confirms if it has a choice.\n",
    "reactions": {
      "url": "https://api.github.com/repos/bitcoin/bitcoin/issues/comments/6161085/reactions",
      "total_count": 0,
      "+1": 0,
      "-1": 0,
      "laugh": 0,
      "hooray": 0,
      "confused": 0,
      "heart": 0,
      "rocket": 0,
      "eyes": 0
    },
    "performed_via_github_app": null
  },
  {
    "url": "https://api.github.com/repos/bitcoin/bitcoin/issues/comments/6168673",
    "html_url": "https://github.com/bitcoin/bitcoin/issues/1428#issuecomment-6168673",
    "issue_url": "https://api.github.com/repos/bitcoin/bitcoin/issues/1428",
    "id": 6168673,
    "node_id": "MDEyOklzc3VlQ29tbWVudDYxNjg2NzM=",
    "user": {
      "login": "sgornick",
      "id": 24884,
      "node_id": "MDQ6VXNlcjI0ODg0",
      "avatar_url": "https://avatars.githubusercontent.com/u/24884?v=4",
      "gravatar_id": "",
      "url": "https://api.github.com/users/sgornick",
      "html_url": "https://github.com/sgornick",
      "followers_url": "https://api.github.com/users/sgornick/followers",
      "following_url": "https://api.github.com/users/sgornick/following{/other_user}",
      "gists_url": "https://api.github.com/users/sgornick/gists{/gist_id}",
      "starred_url": "https://api.github.com/users/sgornick/starred{/owner}{/repo}",
      "subscriptions_url": "https://api.github.com/users/sgornick/subscriptions",
      "organizations_url": "https://api.github.com/users/sgornick/orgs",
      "repos_url": "https://api.github.com/users/sgornick/repos",
      "events_url": "https://api.github.com/users/sgornick/events{/privacy}",
      "received_events_url": "https://api.github.com/users/sgornick/received_events",
      "type": "User",
      "site_admin": false
    },
    "created_at": "2012-06-07T04:38:45Z",
    "updated_at": "2012-06-07T05:02:41Z",
    "author_association": "NONE",
    "body_html": "<blockquote>\n<p dir=\"auto\">Blocks always superseed hearing transactions not in blocks.</p>\n</blockquote>\n<p dir=\"auto\">Yup, after re-reading vector76's post I see where I goofed on the details.  But the problem is still there.</p>\n<p dir=\"auto\">So now Evil miner holds off on broadcasting his block which includes Trx A until he learns that a block at the same height has been mined elsewhere.  Immediately then Evil miner races his block with Trx A directly to Bob and then at the same time broadcasts Trx B to well connected nodes.</p>\n<p dir=\"auto\">So the problem remains.  Bob sees the block with Trx A, rejects the block which has the same height when it finally arrives from elsewhere and rejects Trx B when that arrives as well.</p>\n<p dir=\"auto\">I've edited the report above to reflect this missing detail of Evil miner holding onto the block until it has been solved elsewhere.</p>\n<p dir=\"auto\">As far as the client will not spend inputs with less than 6 confirms, that's why I clarified that \"Bob doesn't keep much of a balance\".  With security fears keeping coins in cold storage, the online (hot) wallet will frequently be completely spent.  If the intent is to grief Bob, Evil miner can withdraw coins to cause the hot wallet to run low or out, so it isn't like this scenario is one that won't ever occur.   There is no risk to Evil miner too  If Bob learns of the block from the network before Evil miner's block arrives, then simply Bob will never see Trx A.  Or if Evil miner's block to Bob propagates and is the one that gets built instead of being orphaned, the Trx B is rejected and Evil miner's transaction with Bob gets processed as a normal transaction.  So there's no risk to Evil miner to keep doing this over and over until Bob gets harmed.</p>",
    "body_text": "Blocks always superseed hearing transactions not in blocks.\n\nYup, after re-reading vector76's post I see where I goofed on the details.  But the problem is still there.\nSo now Evil miner holds off on broadcasting his block which includes Trx A until he learns that a block at the same height has been mined elsewhere.  Immediately then Evil miner races his block with Trx A directly to Bob and then at the same time broadcasts Trx B to well connected nodes.\nSo the problem remains.  Bob sees the block with Trx A, rejects the block which has the same height when it finally arrives from elsewhere and rejects Trx B when that arrives as well.\nI've edited the report above to reflect this missing detail of Evil miner holding onto the block until it has been solved elsewhere.\nAs far as the client will not spend inputs with less than 6 confirms, that's why I clarified that \"Bob doesn't keep much of a balance\".  With security fears keeping coins in cold storage, the online (hot) wallet will frequently be completely spent.  If the intent is to grief Bob, Evil miner can withdraw coins to cause the hot wallet to run low or out, so it isn't like this scenario is one that won't ever occur.   There is no risk to Evil miner too  If Bob learns of the block from the network before Evil miner's block arrives, then simply Bob will never see Trx A.  Or if Evil miner's block to Bob propagates and is the one that gets built instead of being orphaned, the Trx B is rejected and Evil miner's transaction with Bob gets processed as a normal transaction.  So there's no risk to Evil miner to keep doing this over and over until Bob gets harmed.",
    "body": "> Blocks always superseed hearing transactions not in blocks.\n\nYup, after re-reading vector76's post I see where I goofed on the details.  But the problem is still there.\n\nSo now Evil miner holds off on broadcasting his block which includes Trx A until he learns that a block at the same height has been mined elsewhere.  Immediately then Evil miner races his block with Trx A directly to Bob and then at the same time broadcasts Trx B to well connected nodes.\n\nSo the problem remains.  Bob sees the block with Trx A, rejects the block which has the same height when it finally arrives from elsewhere and rejects Trx B when that arrives as well.\n\nI've edited the report above to reflect this missing detail of Evil miner holding onto the block until it has been solved elsewhere.\n\nAs far as the client will not spend inputs with less than 6 confirms, that's why I clarified that \"Bob doesn't keep much of a balance\".  With security fears keeping coins in cold storage, the online (hot) wallet will frequently be completely spent.  If the intent is to grief Bob, Evil miner can withdraw coins to cause the hot wallet to run low or out, so it isn't like this scenario is one that won't ever occur.   There is no risk to Evil miner too  If Bob learns of the block from the network before Evil miner's block arrives, then simply Bob will never see Trx A.  Or if Evil miner's block to Bob propagates and is the one that gets built instead of being orphaned, the Trx B is rejected and Evil miner's transaction with Bob gets processed as a normal transaction.  So there's no risk to Evil miner to keep doing this over and over until Bob gets harmed.\n",
    "reactions": {
      "url": "https://api.github.com/repos/bitcoin/bitcoin/issues/comments/6168673/reactions",
      "total_count": 0,
      "+1": 0,
      "-1": 0,
      "laugh": 0,
      "hooray": 0,
      "confused": 0,
      "heart": 0,
      "rocket": 0,
      "eyes": 0
    },
    "performed_via_github_app": null
  },
  {
    "url": "https://api.github.com/repos/bitcoin/bitcoin/issues/comments/56799798",
    "html_url": "https://github.com/bitcoin/bitcoin/issues/1428#issuecomment-56799798",
    "issue_url": "https://api.github.com/repos/bitcoin/bitcoin/issues/1428",
    "id": 56799798,
    "node_id": "MDEyOklzc3VlQ29tbWVudDU2Nzk5Nzk4",
    "user": {
      "login": "laanwj",
      "id": 126646,
      "node_id": "MDQ6VXNlcjEyNjY0Ng==",
      "avatar_url": "https://avatars.githubusercontent.com/u/126646?v=4",
      "gravatar_id": "",
      "url": "https://api.github.com/users/laanwj",
      "html_url": "https://github.com/laanwj",
      "followers_url": "https://api.github.com/users/laanwj/followers",
      "following_url": "https://api.github.com/users/laanwj/following{/other_user}",
      "gists_url": "https://api.github.com/users/laanwj/gists{/gist_id}",
      "starred_url": "https://api.github.com/users/laanwj/starred{/owner}{/repo}",
      "subscriptions_url": "https://api.github.com/users/laanwj/subscriptions",
      "organizations_url": "https://api.github.com/users/laanwj/orgs",
      "repos_url": "https://api.github.com/users/laanwj/repos",
      "events_url": "https://api.github.com/users/laanwj/events{/privacy}",
      "received_events_url": "https://api.github.com/users/laanwj/received_events",
      "type": "User",
      "site_admin": false
    },
    "created_at": "2014-09-25T10:19:47Z",
    "updated_at": "2014-09-25T10:19:47Z",
    "author_association": "MEMBER",
    "body_html": "<p dir=\"auto\">Closing this.</p>\n<p dir=\"auto\">The wallet will not spend recent outputs (&lt;6 confirms) unless there is no other choice. So this is just a matter of waiting until there is enough balance 'old enough'.</p>",
    "body_text": "Closing this.\nThe wallet will not spend recent outputs (<6 confirms) unless there is no other choice. So this is just a matter of waiting until there is enough balance 'old enough'.",
    "body": "Closing this.\n\nThe wallet will not spend recent outputs (<6 confirms) unless there is no other choice. So this is just a matter of waiting until there is enough balance 'old enough'.\n",
    "reactions": {
      "url": "https://api.github.com/repos/bitcoin/bitcoin/issues/comments/56799798/reactions",
      "total_count": 0,
      "+1": 0,
      "-1": 0,
      "laugh": 0,
      "hooray": 0,
      "confused": 0,
      "heart": 0,
      "rocket": 0,
      "eyes": 0
    },
    "performed_via_github_app": null
  }
]
