[
  {
    "url": "https://api.github.com/repos/bitcoin/bitcoin/issues/comments/716186072",
    "html_url": "https://github.com/bitcoin/bitcoin/issues/20219#issuecomment-716186072",
    "issue_url": "https://api.github.com/repos/bitcoin/bitcoin/issues/20219",
    "id": 716186072,
    "node_id": "MDEyOklzc3VlQ29tbWVudDcxNjE4NjA3Mg==",
    "user": {
      "login": "jonatack",
      "id": 2415484,
      "node_id": "MDQ6VXNlcjI0MTU0ODQ=",
      "avatar_url": "https://avatars.githubusercontent.com/u/2415484?v=4",
      "gravatar_id": "",
      "url": "https://api.github.com/users/jonatack",
      "html_url": "https://github.com/jonatack",
      "followers_url": "https://api.github.com/users/jonatack/followers",
      "following_url": "https://api.github.com/users/jonatack/following{/other_user}",
      "gists_url": "https://api.github.com/users/jonatack/gists{/gist_id}",
      "starred_url": "https://api.github.com/users/jonatack/starred{/owner}{/repo}",
      "subscriptions_url": "https://api.github.com/users/jonatack/subscriptions",
      "organizations_url": "https://api.github.com/users/jonatack/orgs",
      "repos_url": "https://api.github.com/users/jonatack/repos",
      "events_url": "https://api.github.com/users/jonatack/events{/privacy}",
      "received_events_url": "https://api.github.com/users/jonatack/received_events",
      "type": "User",
      "site_admin": false
    },
    "created_at": "2020-10-25T17:56:14Z",
    "updated_at": "2020-10-25T17:56:14Z",
    "author_association": "CONTRIBUTOR",
    "body_html": "<p dir=\"auto\">Issue can be reproduced with the following code:</p>\n<div class=\"highlight highlight-source-diff notranslate position-relative overflow-auto\" dir=\"auto\" data-snippet-clipboard-copy-content=\"diff --git a/test/functional/wallet_bumpfee.py b/test/functional/wallet_bumpfee.py\n+++ b/test/functional/wallet_bumpfee.py\n@@ -17,7 +17,7 @@ from decimal import Decimal\n-from test_framework.messages import BIP125_SEQUENCE_NUMBER, CTransaction\n+from test_framework.messages import BIP125_SEQUENCE_NUMBER, COIN, CTransaction\n from test_framework.test_framework import BitcoinTestFramework\n@@ -36,6 +36,8 @@ NORMAL       = 0.00100000\n TOO_HIGH     = 1.00000000\n \n+BTC_MODE = &quot;BTC/kB&quot;\n+SAT_MODE = &quot;sat/B&quot;\n \n@@ -77,8 +79,8 @@ class BumpFeeTest(BitcoinTestFramework):\n         self.test_invalid_parameters(rbf_node, dest_address)\n-        test_simple_bumpfee_succeeds(self, &quot;default&quot;, rbf_node, peer_node, dest_address)\n-        test_simple_bumpfee_succeeds(self, &quot;fee_rate&quot;, rbf_node, peer_node, dest_address)\n+        for mode in [&quot;default&quot;, &quot;fee_rate&quot;, BTC_MODE, SAT_MODE]:\n+            test_simple_bumpfee_succeeds(self, mode, rbf_node, peer_node, dest_address)\n         test_feerate_args(self, rbf_node, peer_node, dest_address)\n@@ -132,6 +134,13 @@ def test_simple_bumpfee_succeeds(self, mode, rbf_node, peer_node, dest_address):\n     if mode == &quot;fee_rate&quot;:\n         bumped_psbt = rbf_node.psbtbumpfee(rbfid, {&quot;fee_rate&quot;: NORMAL})\n         bumped_tx = rbf_node.bumpfee(rbfid, {&quot;fee_rate&quot;: NORMAL})\n+    elif mode == BTC_MODE:\n+        bumped_psbt = rbf_node.psbtbumpfee(rbfid, {&quot;conf_target&quot;: NORMAL, &quot;estimate_mode&quot;: BTC_MODE})\n+        bumped_tx = rbf_node.bumpfee(rbfid, {&quot;conf_target&quot;: NORMAL, &quot;estimate_mode&quot;: BTC_MODE})\n+    elif mode == SAT_MODE:\n+        sat_fee = NORMAL * COIN / 1000  # convert NORMAL from BTC/kB to sat/B\n+        bumped_psbt = rbf_node.psbtbumpfee(rbfid, {&quot;conf_target&quot;: sat_fee, &quot;estimate_mode&quot;: SAT_MODE})\n+        bumped_tx = rbf_node.bumpfee(rbfid, {&quot;conf_target&quot;: sat_fee, &quot;estimate_mode&quot;: SAT_MODE})\n     else:\n         bumped_psbt = rbf_node.psbtbumpfee(rbfid)\n         bumped_tx = rbf_node.bumpfee(rbfid)\"><pre class=\"notranslate\"><span class=\"pl-c1\">diff --git a/test/functional/wallet_bumpfee.py b/test/functional/wallet_bumpfee.py</span>\n<span class=\"pl-mi1\">+++ b/test/functional/wallet_bumpfee.py</span>\n<span class=\"pl-mdr\">@@ -17,7 +17,7 @@</span> from decimal import Decimal\n<span class=\"pl-md\"><span class=\"pl-md\">-</span>from test_framework.messages import BIP125_SEQUENCE_NUMBER, CTransaction</span>\n<span class=\"pl-mi1\"><span class=\"pl-mi1\">+</span>from test_framework.messages import BIP125_SEQUENCE_NUMBER, COIN, CTransaction</span>\n from test_framework.test_framework import BitcoinTestFramework\n<span class=\"pl-mdr\">@@ -36,6 +36,8 @@</span> NORMAL       = 0.00100000\n TOO_HIGH     = 1.00000000\n \n<span class=\"pl-mi1\"><span class=\"pl-mi1\">+</span>BTC_MODE = \"BTC/kB\"</span>\n<span class=\"pl-mi1\"><span class=\"pl-mi1\">+</span>SAT_MODE = \"sat/B\"</span>\n \n<span class=\"pl-mdr\">@@ -77,8 +79,8 @@</span> class BumpFeeTest(BitcoinTestFramework):\n         self.test_invalid_parameters(rbf_node, dest_address)\n<span class=\"pl-md\"><span class=\"pl-md\">-</span>        test_simple_bumpfee_succeeds(self, \"default\", rbf_node, peer_node, dest_address)</span>\n<span class=\"pl-md\"><span class=\"pl-md\">-</span>        test_simple_bumpfee_succeeds(self, \"fee_rate\", rbf_node, peer_node, dest_address)</span>\n<span class=\"pl-mi1\"><span class=\"pl-mi1\">+</span>        for mode in [\"default\", \"fee_rate\", BTC_MODE, SAT_MODE]:</span>\n<span class=\"pl-mi1\"><span class=\"pl-mi1\">+</span>            test_simple_bumpfee_succeeds(self, mode, rbf_node, peer_node, dest_address)</span>\n         test_feerate_args(self, rbf_node, peer_node, dest_address)\n<span class=\"pl-mdr\">@@ -132,6 +134,13 @@</span> def test_simple_bumpfee_succeeds(self, mode, rbf_node, peer_node, dest_address):\n     if mode == \"fee_rate\":\n         bumped_psbt = rbf_node.psbtbumpfee(rbfid, {\"fee_rate\": NORMAL})\n         bumped_tx = rbf_node.bumpfee(rbfid, {\"fee_rate\": NORMAL})\n<span class=\"pl-mi1\"><span class=\"pl-mi1\">+</span>    elif mode == BTC_MODE:</span>\n<span class=\"pl-mi1\"><span class=\"pl-mi1\">+</span>        bumped_psbt = rbf_node.psbtbumpfee(rbfid, {\"conf_target\": NORMAL, \"estimate_mode\": BTC_MODE})</span>\n<span class=\"pl-mi1\"><span class=\"pl-mi1\">+</span>        bumped_tx = rbf_node.bumpfee(rbfid, {\"conf_target\": NORMAL, \"estimate_mode\": BTC_MODE})</span>\n<span class=\"pl-mi1\"><span class=\"pl-mi1\">+</span>    elif mode == SAT_MODE:</span>\n<span class=\"pl-mi1\"><span class=\"pl-mi1\">+</span>        sat_fee = NORMAL * COIN / 1000  # convert NORMAL from BTC/kB to sat/B</span>\n<span class=\"pl-mi1\"><span class=\"pl-mi1\">+</span>        bumped_psbt = rbf_node.psbtbumpfee(rbfid, {\"conf_target\": sat_fee, \"estimate_mode\": SAT_MODE})</span>\n<span class=\"pl-mi1\"><span class=\"pl-mi1\">+</span>        bumped_tx = rbf_node.bumpfee(rbfid, {\"conf_target\": sat_fee, \"estimate_mode\": SAT_MODE})</span>\n     else:\n         bumped_psbt = rbf_node.psbtbumpfee(rbfid)\n         bumped_tx = rbf_node.bumpfee(rbfid)</pre></div>",
    "body_text": "Issue can be reproduced with the following code:\ndiff --git a/test/functional/wallet_bumpfee.py b/test/functional/wallet_bumpfee.py\n+++ b/test/functional/wallet_bumpfee.py\n@@ -17,7 +17,7 @@ from decimal import Decimal\n-from test_framework.messages import BIP125_SEQUENCE_NUMBER, CTransaction\n+from test_framework.messages import BIP125_SEQUENCE_NUMBER, COIN, CTransaction\n from test_framework.test_framework import BitcoinTestFramework\n@@ -36,6 +36,8 @@ NORMAL       = 0.00100000\n TOO_HIGH     = 1.00000000\n \n+BTC_MODE = \"BTC/kB\"\n+SAT_MODE = \"sat/B\"\n \n@@ -77,8 +79,8 @@ class BumpFeeTest(BitcoinTestFramework):\n         self.test_invalid_parameters(rbf_node, dest_address)\n-        test_simple_bumpfee_succeeds(self, \"default\", rbf_node, peer_node, dest_address)\n-        test_simple_bumpfee_succeeds(self, \"fee_rate\", rbf_node, peer_node, dest_address)\n+        for mode in [\"default\", \"fee_rate\", BTC_MODE, SAT_MODE]:\n+            test_simple_bumpfee_succeeds(self, mode, rbf_node, peer_node, dest_address)\n         test_feerate_args(self, rbf_node, peer_node, dest_address)\n@@ -132,6 +134,13 @@ def test_simple_bumpfee_succeeds(self, mode, rbf_node, peer_node, dest_address):\n     if mode == \"fee_rate\":\n         bumped_psbt = rbf_node.psbtbumpfee(rbfid, {\"fee_rate\": NORMAL})\n         bumped_tx = rbf_node.bumpfee(rbfid, {\"fee_rate\": NORMAL})\n+    elif mode == BTC_MODE:\n+        bumped_psbt = rbf_node.psbtbumpfee(rbfid, {\"conf_target\": NORMAL, \"estimate_mode\": BTC_MODE})\n+        bumped_tx = rbf_node.bumpfee(rbfid, {\"conf_target\": NORMAL, \"estimate_mode\": BTC_MODE})\n+    elif mode == SAT_MODE:\n+        sat_fee = NORMAL * COIN / 1000  # convert NORMAL from BTC/kB to sat/B\n+        bumped_psbt = rbf_node.psbtbumpfee(rbfid, {\"conf_target\": sat_fee, \"estimate_mode\": SAT_MODE})\n+        bumped_tx = rbf_node.bumpfee(rbfid, {\"conf_target\": sat_fee, \"estimate_mode\": SAT_MODE})\n     else:\n         bumped_psbt = rbf_node.psbtbumpfee(rbfid)\n         bumped_tx = rbf_node.bumpfee(rbfid)",
    "body": "Issue can be reproduced with the following code:\r\n```diff\r\ndiff --git a/test/functional/wallet_bumpfee.py b/test/functional/wallet_bumpfee.py\r\n+++ b/test/functional/wallet_bumpfee.py\r\n@@ -17,7 +17,7 @@ from decimal import Decimal\r\n-from test_framework.messages import BIP125_SEQUENCE_NUMBER, CTransaction\r\n+from test_framework.messages import BIP125_SEQUENCE_NUMBER, COIN, CTransaction\r\n from test_framework.test_framework import BitcoinTestFramework\r\n@@ -36,6 +36,8 @@ NORMAL       = 0.00100000\r\n TOO_HIGH     = 1.00000000\r\n \r\n+BTC_MODE = \"BTC/kB\"\r\n+SAT_MODE = \"sat/B\"\r\n \r\n@@ -77,8 +79,8 @@ class BumpFeeTest(BitcoinTestFramework):\r\n         self.test_invalid_parameters(rbf_node, dest_address)\r\n-        test_simple_bumpfee_succeeds(self, \"default\", rbf_node, peer_node, dest_address)\r\n-        test_simple_bumpfee_succeeds(self, \"fee_rate\", rbf_node, peer_node, dest_address)\r\n+        for mode in [\"default\", \"fee_rate\", BTC_MODE, SAT_MODE]:\r\n+            test_simple_bumpfee_succeeds(self, mode, rbf_node, peer_node, dest_address)\r\n         test_feerate_args(self, rbf_node, peer_node, dest_address)\r\n@@ -132,6 +134,13 @@ def test_simple_bumpfee_succeeds(self, mode, rbf_node, peer_node, dest_address):\r\n     if mode == \"fee_rate\":\r\n         bumped_psbt = rbf_node.psbtbumpfee(rbfid, {\"fee_rate\": NORMAL})\r\n         bumped_tx = rbf_node.bumpfee(rbfid, {\"fee_rate\": NORMAL})\r\n+    elif mode == BTC_MODE:\r\n+        bumped_psbt = rbf_node.psbtbumpfee(rbfid, {\"conf_target\": NORMAL, \"estimate_mode\": BTC_MODE})\r\n+        bumped_tx = rbf_node.bumpfee(rbfid, {\"conf_target\": NORMAL, \"estimate_mode\": BTC_MODE})\r\n+    elif mode == SAT_MODE:\r\n+        sat_fee = NORMAL * COIN / 1000  # convert NORMAL from BTC/kB to sat/B\r\n+        bumped_psbt = rbf_node.psbtbumpfee(rbfid, {\"conf_target\": sat_fee, \"estimate_mode\": SAT_MODE})\r\n+        bumped_tx = rbf_node.bumpfee(rbfid, {\"conf_target\": sat_fee, \"estimate_mode\": SAT_MODE})\r\n     else:\r\n         bumped_psbt = rbf_node.psbtbumpfee(rbfid)\r\n         bumped_tx = rbf_node.bumpfee(rbfid)\r\n```\r\n",
    "reactions": {
      "url": "https://api.github.com/repos/bitcoin/bitcoin/issues/comments/716186072/reactions",
      "total_count": 0,
      "+1": 0,
      "-1": 0,
      "laugh": 0,
      "hooray": 0,
      "confused": 0,
      "heart": 0,
      "rocket": 0,
      "eyes": 0
    },
    "performed_via_github_app": null
  },
  {
    "url": "https://api.github.com/repos/bitcoin/bitcoin/issues/comments/721592575",
    "html_url": "https://github.com/bitcoin/bitcoin/issues/20219#issuecomment-721592575",
    "issue_url": "https://api.github.com/repos/bitcoin/bitcoin/issues/20219",
    "id": 721592575,
    "node_id": "MDEyOklzc3VlQ29tbWVudDcyMTU5MjU3NQ==",
    "user": {
      "login": "jonatack",
      "id": 2415484,
      "node_id": "MDQ6VXNlcjI0MTU0ODQ=",
      "avatar_url": "https://avatars.githubusercontent.com/u/2415484?v=4",
      "gravatar_id": "",
      "url": "https://api.github.com/users/jonatack",
      "html_url": "https://github.com/jonatack",
      "followers_url": "https://api.github.com/users/jonatack/followers",
      "following_url": "https://api.github.com/users/jonatack/following{/other_user}",
      "gists_url": "https://api.github.com/users/jonatack/gists{/gist_id}",
      "starred_url": "https://api.github.com/users/jonatack/starred{/owner}{/repo}",
      "subscriptions_url": "https://api.github.com/users/jonatack/subscriptions",
      "organizations_url": "https://api.github.com/users/jonatack/orgs",
      "repos_url": "https://api.github.com/users/jonatack/repos",
      "events_url": "https://api.github.com/users/jonatack/events{/privacy}",
      "received_events_url": "https://api.github.com/users/jonatack/received_events",
      "type": "User",
      "site_admin": false
    },
    "created_at": "2020-11-04T08:39:58Z",
    "updated_at": "2020-11-04T08:39:58Z",
    "author_association": "CONTRIBUTOR",
    "body_html": "<p dir=\"auto\">Fixed by <a class=\"issue-link js-issue-link\" data-error-text=\"Failed to load title\" data-id=\"727562573\" data-permission-text=\"Title is private\" data-url=\"https://github.com/bitcoin/bitcoin/issues/20220\" data-hovercard-type=\"pull_request\" data-hovercard-url=\"/bitcoin/bitcoin/pull/20220/hovercard\" href=\"https://github.com/bitcoin/bitcoin/pull/20220\">#20220</a>.</p>",
    "body_text": "Fixed by #20220.",
    "body": "Fixed by #20220.",
    "reactions": {
      "url": "https://api.github.com/repos/bitcoin/bitcoin/issues/comments/721592575/reactions",
      "total_count": 0,
      "+1": 0,
      "-1": 0,
      "laugh": 0,
      "hooray": 0,
      "confused": 0,
      "heart": 0,
      "rocket": 0,
      "eyes": 0
    },
    "performed_via_github_app": null
  }
]
