[
  {
    "url": "https://api.github.com/repos/bitcoin/bitcoin/issues/comments/861488800",
    "html_url": "https://github.com/bitcoin/bitcoin/pull/22251#issuecomment-861488800",
    "issue_url": "https://api.github.com/repos/bitcoin/bitcoin/issues/22251",
    "id": 861488800,
    "node_id": "MDEyOklzc3VlQ29tbWVudDg2MTQ4ODgwMA==",
    "user": {
      "login": "hebasto",
      "id": 32963518,
      "node_id": "MDQ6VXNlcjMyOTYzNTE4",
      "avatar_url": "https://avatars.githubusercontent.com/u/32963518?v=4",
      "gravatar_id": "",
      "url": "https://api.github.com/users/hebasto",
      "html_url": "https://github.com/hebasto",
      "followers_url": "https://api.github.com/users/hebasto/followers",
      "following_url": "https://api.github.com/users/hebasto/following{/other_user}",
      "gists_url": "https://api.github.com/users/hebasto/gists{/gist_id}",
      "starred_url": "https://api.github.com/users/hebasto/starred{/owner}{/repo}",
      "subscriptions_url": "https://api.github.com/users/hebasto/subscriptions",
      "organizations_url": "https://api.github.com/users/hebasto/orgs",
      "repos_url": "https://api.github.com/users/hebasto/repos",
      "events_url": "https://api.github.com/users/hebasto/events{/privacy}",
      "received_events_url": "https://api.github.com/users/hebasto/received_events",
      "type": "User",
      "site_admin": false
    },
    "created_at": "2021-06-15T13:15:55Z",
    "updated_at": "2021-06-15T13:15:55Z",
    "author_association": "MEMBER",
    "body_html": "<p dir=\"auto\">Does it make the <code class=\"notranslate\">ci/test/04_install.sh</code> Cirrus-specific? What if we will be forced to migrate from it?</p>",
    "body_text": "Does it make the ci/test/04_install.sh Cirrus-specific? What if we will be forced to migrate from it?",
    "body": "Does it make the `ci/test/04_install.sh` Cirrus-specific? What if we will be forced to migrate from it?",
    "reactions": {
      "url": "https://api.github.com/repos/bitcoin/bitcoin/issues/comments/861488800/reactions",
      "total_count": 0,
      "+1": 0,
      "-1": 0,
      "laugh": 0,
      "hooray": 0,
      "confused": 0,
      "heart": 0,
      "rocket": 0,
      "eyes": 0
    },
    "performed_via_github_app": null
  },
  {
    "url": "https://api.github.com/repos/bitcoin/bitcoin/issues/comments/861560514",
    "html_url": "https://github.com/bitcoin/bitcoin/pull/22251#issuecomment-861560514",
    "issue_url": "https://api.github.com/repos/bitcoin/bitcoin/issues/22251",
    "id": 861560514,
    "node_id": "MDEyOklzc3VlQ29tbWVudDg2MTU2MDUxNA==",
    "user": {
      "login": "maflcko",
      "id": 6399679,
      "node_id": "MDQ6VXNlcjYzOTk2Nzk=",
      "avatar_url": "https://avatars.githubusercontent.com/u/6399679?v=4",
      "gravatar_id": "",
      "url": "https://api.github.com/users/maflcko",
      "html_url": "https://github.com/maflcko",
      "followers_url": "https://api.github.com/users/maflcko/followers",
      "following_url": "https://api.github.com/users/maflcko/following{/other_user}",
      "gists_url": "https://api.github.com/users/maflcko/gists{/gist_id}",
      "starred_url": "https://api.github.com/users/maflcko/starred{/owner}{/repo}",
      "subscriptions_url": "https://api.github.com/users/maflcko/subscriptions",
      "organizations_url": "https://api.github.com/users/maflcko/orgs",
      "repos_url": "https://api.github.com/users/maflcko/repos",
      "events_url": "https://api.github.com/users/maflcko/events{/privacy}",
      "received_events_url": "https://api.github.com/users/maflcko/received_events",
      "type": "User",
      "site_admin": false
    },
    "created_at": "2021-06-15T14:43:40Z",
    "updated_at": "2021-06-15T14:43:40Z",
    "author_association": "MEMBER",
    "body_html": "<blockquote>\n<p dir=\"auto\">Does it make the <code class=\"notranslate\">ci/test/04_install.sh</code> Cirrus-specific? What if we will be forced to migrate from it?</p>\n</blockquote>\n<p dir=\"auto\">It shouldn't. The scripts still work locally and inside docker, also on third party hardware.</p>",
    "body_text": "Does it make the ci/test/04_install.sh Cirrus-specific? What if we will be forced to migrate from it?\n\nIt shouldn't. The scripts still work locally and inside docker, also on third party hardware.",
    "body": "> Does it make the `ci/test/04_install.sh` Cirrus-specific? What if we will be forced to migrate from it?\r\n\r\nIt shouldn't. The scripts still work locally and inside docker, also on third party hardware.",
    "reactions": {
      "url": "https://api.github.com/repos/bitcoin/bitcoin/issues/comments/861560514/reactions",
      "total_count": 0,
      "+1": 0,
      "-1": 0,
      "laugh": 0,
      "hooray": 0,
      "confused": 0,
      "heart": 0,
      "rocket": 0,
      "eyes": 0
    },
    "performed_via_github_app": null
  },
  {
    "url": "https://api.github.com/repos/bitcoin/bitcoin/issues/comments/861561467",
    "html_url": "https://github.com/bitcoin/bitcoin/pull/22251#issuecomment-861561467",
    "issue_url": "https://api.github.com/repos/bitcoin/bitcoin/issues/22251",
    "id": 861561467,
    "node_id": "MDEyOklzc3VlQ29tbWVudDg2MTU2MTQ2Nw==",
    "user": {
      "login": "maflcko",
      "id": 6399679,
      "node_id": "MDQ6VXNlcjYzOTk2Nzk=",
      "avatar_url": "https://avatars.githubusercontent.com/u/6399679?v=4",
      "gravatar_id": "",
      "url": "https://api.github.com/users/maflcko",
      "html_url": "https://github.com/maflcko",
      "followers_url": "https://api.github.com/users/maflcko/followers",
      "following_url": "https://api.github.com/users/maflcko/following{/other_user}",
      "gists_url": "https://api.github.com/users/maflcko/gists{/gist_id}",
      "starred_url": "https://api.github.com/users/maflcko/starred{/owner}{/repo}",
      "subscriptions_url": "https://api.github.com/users/maflcko/subscriptions",
      "organizations_url": "https://api.github.com/users/maflcko/orgs",
      "repos_url": "https://api.github.com/users/maflcko/repos",
      "events_url": "https://api.github.com/users/maflcko/events{/privacy}",
      "received_events_url": "https://api.github.com/users/maflcko/received_events",
      "type": "User",
      "site_admin": false
    },
    "created_at": "2021-06-15T14:44:52Z",
    "updated_at": "2021-06-15T14:44:52Z",
    "author_association": "MEMBER",
    "body_html": "<p dir=\"auto\">Closing because it works, but there is no pressing need to change this right now.</p>",
    "body_text": "Closing because it works, but there is no pressing need to change this right now.",
    "body": "Closing because it works, but there is no pressing need to change this right now.",
    "reactions": {
      "url": "https://api.github.com/repos/bitcoin/bitcoin/issues/comments/861561467/reactions",
      "total_count": 0,
      "+1": 0,
      "-1": 0,
      "laugh": 0,
      "hooray": 0,
      "confused": 0,
      "heart": 0,
      "rocket": 0,
      "eyes": 0
    },
    "performed_via_github_app": null
  }
]
