{
  "url": "https://api.github.com/repos/bitcoin/bitcoin/issues/9844",
  "repository_url": "https://api.github.com/repos/bitcoin/bitcoin",
  "labels_url": "https://api.github.com/repos/bitcoin/bitcoin/issues/9844/labels{/name}",
  "comments_url": "https://api.github.com/repos/bitcoin/bitcoin/issues/9844/comments",
  "events_url": "https://api.github.com/repos/bitcoin/bitcoin/issues/9844/events",
  "html_url": "https://github.com/bitcoin/bitcoin/issues/9844",
  "id": 209914066,
  "node_id": "MDU6SXNzdWUyMDk5MTQwNjY=",
  "number": 9844,
  "title": "encrypt public wallet data",
  "user": {
    "login": "praxeology-guy",
    "id": 25991988,
    "node_id": "MDQ6VXNlcjI1OTkxOTg4",
    "avatar_url": "https://avatars.githubusercontent.com/u/25991988?v=4",
    "gravatar_id": "",
    "url": "https://api.github.com/users/praxeology-guy",
    "html_url": "https://github.com/praxeology-guy",
    "followers_url": "https://api.github.com/users/praxeology-guy/followers",
    "following_url": "https://api.github.com/users/praxeology-guy/following{/other_user}",
    "gists_url": "https://api.github.com/users/praxeology-guy/gists{/gist_id}",
    "starred_url": "https://api.github.com/users/praxeology-guy/starred{/owner}{/repo}",
    "subscriptions_url": "https://api.github.com/users/praxeology-guy/subscriptions",
    "organizations_url": "https://api.github.com/users/praxeology-guy/orgs",
    "repos_url": "https://api.github.com/users/praxeology-guy/repos",
    "events_url": "https://api.github.com/users/praxeology-guy/events{/privacy}",
    "received_events_url": "https://api.github.com/users/praxeology-guy/received_events",
    "type": "User",
    "site_admin": false
  },
  "labels": [
    {
      "id": 64583,
      "node_id": "MDU6TGFiZWw2NDU4Mw==",
      "url": "https://api.github.com/repos/bitcoin/bitcoin/labels/Feature",
      "name": "Feature",
      "color": "7cf575",
      "default": false,
      "description": null
    }
  ],
  "state": "closed",
  "locked": true,
  "assignee": null,
  "assignees": [

  ],
  "milestone": null,
  "comments": 8,
  "created_at": "2017-02-23T23:17:27Z",
  "updated_at": "2022-02-15T10:45:03Z",
  "closed_at": "2020-05-08T19:22:51Z",
  "author_association": "NONE",
  "active_lock_reason": "resolved",
  "body_html": "<h3 dir=\"auto\">Describe the issue</h3>\n<p dir=\"auto\">People want to backup their wallet at insecure locations.  bitcoin core currently does not encypt public key/transaction history in the wallet.  People have to use an external program such as 7-zip to encrypt the public key data.</p>\n<h3 dir=\"auto\">Expected behaviour</h3>\n<p dir=\"auto\">Two options:</p>\n<ol dir=\"auto\">\n<li>Create an extra feature where a password is required to even open the public data part of the wallet.  When this feature is activated, password is required to open the wallet on bitcoin client startup. This could be implemented to also decrypt the private keys of the wallet, so that no further password entry is required to spend.  Another decision would be whether the password should be different or the same to temporarily decrypt the private keys.</li>\n<li>Add an \"export encrypted wallet\" menu option. User clicks this and a dialog prompts the user for where to save and then a password.</li>\n</ol>\n<h3 dir=\"auto\">Actual behaviour</h3>\n<p dir=\"auto\">Bitcoin core does not currently encrypt public data in the wallet.</p>\n<h3 dir=\"auto\">What version of bitcoin-core are you using?</h3>\n<p dir=\"auto\">0.13.2</p>",
  "body_text": "Describe the issue\nPeople want to backup their wallet at insecure locations.  bitcoin core currently does not encypt public key/transaction history in the wallet.  People have to use an external program such as 7-zip to encrypt the public key data.\nExpected behaviour\nTwo options:\n\nCreate an extra feature where a password is required to even open the public data part of the wallet.  When this feature is activated, password is required to open the wallet on bitcoin client startup. This could be implemented to also decrypt the private keys of the wallet, so that no further password entry is required to spend.  Another decision would be whether the password should be different or the same to temporarily decrypt the private keys.\nAdd an \"export encrypted wallet\" menu option. User clicks this and a dialog prompts the user for where to save and then a password.\n\nActual behaviour\nBitcoin core does not currently encrypt public data in the wallet.\nWhat version of bitcoin-core are you using?\n0.13.2",
  "body": "### Describe the issue\r\nPeople want to backup their wallet at insecure locations.  bitcoin core currently does not encypt public key/transaction history in the wallet.  People have to use an external program such as 7-zip to encrypt the public key data.\r\n\r\n### Expected behaviour\r\nTwo options:\r\n1. Create an extra feature where a password is required to even open the public data part of the wallet.  When this feature is activated, password is required to open the wallet on bitcoin client startup. This could be implemented to also decrypt the private keys of the wallet, so that no further password entry is required to spend.  Another decision would be whether the password should be different or the same to temporarily decrypt the private keys.\r\n2. Add an \"export encrypted wallet\" menu option. User clicks this and a dialog prompts the user for where to save and then a password. \r\n\r\n### Actual behaviour\r\nBitcoin core does not currently encrypt public data in the wallet.\r\n\r\n### What version of bitcoin-core are you using?\r\n0.13.2",
  "closed_by": {
    "login": "maflcko",
    "id": 6399679,
    "node_id": "MDQ6VXNlcjYzOTk2Nzk=",
    "avatar_url": "https://avatars.githubusercontent.com/u/6399679?v=4",
    "gravatar_id": "",
    "url": "https://api.github.com/users/maflcko",
    "html_url": "https://github.com/maflcko",
    "followers_url": "https://api.github.com/users/maflcko/followers",
    "following_url": "https://api.github.com/users/maflcko/following{/other_user}",
    "gists_url": "https://api.github.com/users/maflcko/gists{/gist_id}",
    "starred_url": "https://api.github.com/users/maflcko/starred{/owner}{/repo}",
    "subscriptions_url": "https://api.github.com/users/maflcko/subscriptions",
    "organizations_url": "https://api.github.com/users/maflcko/orgs",
    "repos_url": "https://api.github.com/users/maflcko/repos",
    "events_url": "https://api.github.com/users/maflcko/events{/privacy}",
    "received_events_url": "https://api.github.com/users/maflcko/received_events",
    "type": "User",
    "site_admin": false
  },
  "reactions": {
    "url": "https://api.github.com/repos/bitcoin/bitcoin/issues/9844/reactions",
    "total_count": 0,
    "+1": 0,
    "-1": 0,
    "laugh": 0,
    "hooray": 0,
    "confused": 0,
    "heart": 0,
    "rocket": 0,
    "eyes": 0
  },
  "timeline_url": "https://api.github.com/repos/bitcoin/bitcoin/issues/9844/timeline",
  "performed_via_github_app": null,
  "state_reason": "completed"
}
