{
  "url": "https://api.github.com/repos/bitcoin/bitcoin/issues/29356",
  "repository_url": "https://api.github.com/repos/bitcoin/bitcoin",
  "labels_url": "https://api.github.com/repos/bitcoin/bitcoin/issues/29356/labels{/name}",
  "comments_url": "https://api.github.com/repos/bitcoin/bitcoin/issues/29356/comments",
  "events_url": "https://api.github.com/repos/bitcoin/bitcoin/issues/29356/events",
  "html_url": "https://github.com/bitcoin/bitcoin/pull/29356",
  "id": 2110265260,
  "node_id": "PR_kwDOABII585llHBw",
  "number": 29356,
  "title": "test: make v2transport arg in addconnection mandatory and few cleanups",
  "user": {
    "login": "stratospher",
    "id": 44024636,
    "node_id": "MDQ6VXNlcjQ0MDI0NjM2",
    "avatar_url": "https://avatars.githubusercontent.com/u/44024636?v=4",
    "gravatar_id": "",
    "url": "https://api.github.com/users/stratospher",
    "html_url": "https://github.com/stratospher",
    "followers_url": "https://api.github.com/users/stratospher/followers",
    "following_url": "https://api.github.com/users/stratospher/following{/other_user}",
    "gists_url": "https://api.github.com/users/stratospher/gists{/gist_id}",
    "starred_url": "https://api.github.com/users/stratospher/starred{/owner}{/repo}",
    "subscriptions_url": "https://api.github.com/users/stratospher/subscriptions",
    "organizations_url": "https://api.github.com/users/stratospher/orgs",
    "repos_url": "https://api.github.com/users/stratospher/repos",
    "events_url": "https://api.github.com/users/stratospher/events{/privacy}",
    "received_events_url": "https://api.github.com/users/stratospher/received_events",
    "type": "User",
    "site_admin": false
  },
  "labels": [
    {
      "id": 62963516,
      "node_id": "MDU6TGFiZWw2Mjk2MzUxNg==",
      "url": "https://api.github.com/repos/bitcoin/bitcoin/labels/Tests",
      "name": "Tests",
      "color": "d4c5f9",
      "default": false,
      "description": null
    }
  ],
  "state": "closed",
  "locked": false,
  "assignee": null,
  "assignees": [

  ],
  "milestone": {
    "url": "https://api.github.com/repos/bitcoin/bitcoin/milestones/61",
    "html_url": "https://github.com/bitcoin/bitcoin/milestone/61",
    "labels_url": "https://api.github.com/repos/bitcoin/bitcoin/milestones/61/labels",
    "id": 9334188,
    "node_id": "MI_kwDOABII584Ajm2s",
    "number": 61,
    "title": "27.0",
    "description": "",
    "creator": {
      "login": "sipa",
      "id": 548488,
      "node_id": "MDQ6VXNlcjU0ODQ4OA==",
      "avatar_url": "https://avatars.githubusercontent.com/u/548488?v=4",
      "gravatar_id": "",
      "url": "https://api.github.com/users/sipa",
      "html_url": "https://github.com/sipa",
      "followers_url": "https://api.github.com/users/sipa/followers",
      "following_url": "https://api.github.com/users/sipa/following{/other_user}",
      "gists_url": "https://api.github.com/users/sipa/gists{/gist_id}",
      "starred_url": "https://api.github.com/users/sipa/starred{/owner}{/repo}",
      "subscriptions_url": "https://api.github.com/users/sipa/subscriptions",
      "organizations_url": "https://api.github.com/users/sipa/orgs",
      "repos_url": "https://api.github.com/users/sipa/repos",
      "events_url": "https://api.github.com/users/sipa/events{/privacy}",
      "received_events_url": "https://api.github.com/users/sipa/received_events",
      "type": "User",
      "site_admin": false
    },
    "open_issues": 0,
    "closed_issues": 69,
    "state": "closed",
    "created_at": "2023-04-27T08:01:57Z",
    "updated_at": "2024-04-16T08:33:17Z",
    "due_on": null,
    "closed_at": "2024-04-16T08:33:17Z"
  },
  "comments": 7,
  "created_at": "2024-01-31T14:48:10Z",
  "updated_at": "2024-02-06T23:16:24Z",
  "closed_at": "2024-02-06T11:03:05Z",
  "author_association": "CONTRIBUTOR",
  "active_lock_reason": null,
  "draft": false,
  "pull_request": {
    "url": "https://api.github.com/repos/bitcoin/bitcoin/pulls/29356",
    "html_url": "https://github.com/bitcoin/bitcoin/pull/29356",
    "diff_url": "https://github.com/bitcoin/bitcoin/pull/29356.diff",
    "patch_url": "https://github.com/bitcoin/bitcoin/pull/29356.patch",
    "merged_at": "2024-02-06T11:03:05Z"
  },
  "body_html": "<ul dir=\"auto\">\n<li>make <code class=\"notranslate\">v2transport</code> argument in <code class=\"notranslate\">addconnection</code> regression-testing only RPC mandatory. <a class=\"issue-link js-issue-link\" data-error-text=\"Failed to load title\" data-id=\"1191033673\" data-permission-text=\"Title is private\" data-url=\"https://github.com/bitcoin/bitcoin/issues/24748\" data-hovercard-type=\"pull_request\" data-hovercard-url=\"/bitcoin/bitcoin/pull/24748/hovercard?comment_id=1470738750&amp;comment_type=review_comment\" href=\"https://github.com/bitcoin/bitcoin/pull/24748#discussion_r1470738750\">#24748 (comment)</a>\n<ul dir=\"auto\">\n<li>previously it was an optional arg with default <code class=\"notranslate\">false</code> value.</li>\n<li>only place this RPC is used is in the <a href=\"https://github.com/bitcoin/bitcoin/blob/11b436a66af3ceaebb0f907878715f331516a0bc/test/functional/test_framework/test_node.py#L742\">functional tests</a> where we always pass the appropriate <code class=\"notranslate\">v2transport</code> option to the RPC anyways. (and that too just for python dummy peer(<code class=\"notranslate\">P2PInterface</code>) and bitcoind(<code class=\"notranslate\">TestNode</code>) interactions)</li>\n</ul>\n</li>\n<li>rename <code class=\"notranslate\">v2_handshake()</code> to <code class=\"notranslate\">_on_data_v2_handshake()</code> <a class=\"issue-link js-issue-link\" data-error-text=\"Failed to load title\" data-id=\"1191033673\" data-permission-text=\"Title is private\" data-url=\"https://github.com/bitcoin/bitcoin/issues/24748\" data-hovercard-type=\"pull_request\" data-hovercard-url=\"/bitcoin/bitcoin/pull/24748/hovercard?comment_id=1466958424&amp;comment_type=review_comment\" href=\"https://github.com/bitcoin/bitcoin/pull/24748#discussion_r1466958424\">#24748 (comment)</a></li>\n<li>more compact return statement in <code class=\"notranslate\">wait_for_reconnect()</code> <a class=\"issue-link js-issue-link\" data-error-text=\"Failed to load title\" data-id=\"1191033673\" data-permission-text=\"Title is private\" data-url=\"https://github.com/bitcoin/bitcoin/issues/24748\" data-hovercard-type=\"pull_request\" data-hovercard-url=\"/bitcoin/bitcoin/pull/24748/hovercard?comment_id=1466979708&amp;comment_type=review_comment\" href=\"https://github.com/bitcoin/bitcoin/pull/24748#discussion_r1466979708\">#24748 (comment)</a></li>\n<li>assertion to check that empty version packets are received from <code class=\"notranslate\">TestNode</code>.</li>\n</ul>",
  "body_text": "make v2transport argument in addconnection regression-testing only RPC mandatory. #24748 (comment)\n\npreviously it was an optional arg with default false value.\nonly place this RPC is used is in the functional tests where we always pass the appropriate v2transport option to the RPC anyways. (and that too just for python dummy peer(P2PInterface) and bitcoind(TestNode) interactions)\n\n\nrename v2_handshake() to _on_data_v2_handshake() #24748 (comment)\nmore compact return statement in wait_for_reconnect() #24748 (comment)\nassertion to check that empty version packets are received from TestNode.",
  "body": "- make `v2transport` argument in `addconnection` regression-testing only RPC mandatory. https://github.com/bitcoin/bitcoin/pull/24748#discussion_r1470738750\r\n\t- previously it was an optional arg with default `false` value.\r\n\t- only place this RPC is used is in the [functional tests](https://github.com/bitcoin/bitcoin/blob/11b436a66af3ceaebb0f907878715f331516a0bc/test/functional/test_framework/test_node.py#L742) where we always pass the appropriate `v2transport` option to the RPC anyways. (and that too just for python dummy peer(`P2PInterface`) and bitcoind(`TestNode`) interactions)\r\n- rename `v2_handshake()` to `_on_data_v2_handshake()` https://github.com/bitcoin/bitcoin/pull/24748#discussion_r1466958424\r\n- more compact return statement in `wait_for_reconnect()` https://github.com/bitcoin/bitcoin/pull/24748#discussion_r1466979708\r\n- assertion to check that empty version packets are received from `TestNode`.",
  "closed_by": {
    "login": "glozow",
    "id": 25183001,
    "node_id": "MDQ6VXNlcjI1MTgzMDAx",
    "avatar_url": "https://avatars.githubusercontent.com/u/25183001?v=4",
    "gravatar_id": "",
    "url": "https://api.github.com/users/glozow",
    "html_url": "https://github.com/glozow",
    "followers_url": "https://api.github.com/users/glozow/followers",
    "following_url": "https://api.github.com/users/glozow/following{/other_user}",
    "gists_url": "https://api.github.com/users/glozow/gists{/gist_id}",
    "starred_url": "https://api.github.com/users/glozow/starred{/owner}{/repo}",
    "subscriptions_url": "https://api.github.com/users/glozow/subscriptions",
    "organizations_url": "https://api.github.com/users/glozow/orgs",
    "repos_url": "https://api.github.com/users/glozow/repos",
    "events_url": "https://api.github.com/users/glozow/events{/privacy}",
    "received_events_url": "https://api.github.com/users/glozow/received_events",
    "type": "User",
    "site_admin": false
  },
  "reactions": {
    "url": "https://api.github.com/repos/bitcoin/bitcoin/issues/29356/reactions",
    "total_count": 1,
    "+1": 1,
    "-1": 0,
    "laugh": 0,
    "hooray": 0,
    "confused": 0,
    "heart": 0,
    "rocket": 0,
    "eyes": 0
  },
  "timeline_url": "https://api.github.com/repos/bitcoin/bitcoin/issues/29356/timeline",
  "performed_via_github_app": null,
  "state_reason": null
}
