{
  "url": "https://api.github.com/repos/bitcoin/bitcoin/issues/3593",
  "repository_url": "https://api.github.com/repos/bitcoin/bitcoin",
  "labels_url": "https://api.github.com/repos/bitcoin/bitcoin/issues/3593/labels{/name}",
  "comments_url": "https://api.github.com/repos/bitcoin/bitcoin/issues/3593/comments",
  "events_url": "https://api.github.com/repos/bitcoin/bitcoin/issues/3593/events",
  "html_url": "https://github.com/bitcoin/bitcoin/pull/3593",
  "id": 26424749,
  "node_id": "MDExOlB1bGxSZXF1ZXN0MTE5Mzc4Mjc=",
  "number": 3593,
  "title": "Add check for valid keys in `importprivkey`",
  "user": {
    "login": "laanwj",
    "id": 126646,
    "node_id": "MDQ6VXNlcjEyNjY0Ng==",
    "avatar_url": "https://avatars.githubusercontent.com/u/126646?v=4",
    "gravatar_id": "",
    "url": "https://api.github.com/users/laanwj",
    "html_url": "https://github.com/laanwj",
    "followers_url": "https://api.github.com/users/laanwj/followers",
    "following_url": "https://api.github.com/users/laanwj/following{/other_user}",
    "gists_url": "https://api.github.com/users/laanwj/gists{/gist_id}",
    "starred_url": "https://api.github.com/users/laanwj/starred{/owner}{/repo}",
    "subscriptions_url": "https://api.github.com/users/laanwj/subscriptions",
    "organizations_url": "https://api.github.com/users/laanwj/orgs",
    "repos_url": "https://api.github.com/users/laanwj/repos",
    "events_url": "https://api.github.com/users/laanwj/events{/privacy}",
    "received_events_url": "https://api.github.com/users/laanwj/received_events",
    "type": "User",
    "site_admin": false
  },
  "labels": [

  ],
  "state": "closed",
  "locked": true,
  "assignee": null,
  "assignees": [

  ],
  "milestone": null,
  "comments": 3,
  "created_at": "2014-01-28T09:06:50Z",
  "updated_at": "2021-09-08T10:29:59Z",
  "closed_at": "2014-01-28T17:38:39Z",
  "author_association": "MEMBER",
  "active_lock_reason": "resolved",
  "draft": false,
  "pull_request": {
    "url": "https://api.github.com/repos/bitcoin/bitcoin/pulls/3593",
    "html_url": "https://github.com/bitcoin/bitcoin/pull/3593",
    "diff_url": "https://github.com/bitcoin/bitcoin/pull/3593.diff",
    "patch_url": "https://github.com/bitcoin/bitcoin/pull/3593.patch",
    "merged_at": "2014-01-28T17:38:39Z"
  },
  "body_html": "<p dir=\"auto\">The base58 armoring was checked, but not the resulting private key, which could be out of range. Fix this by adding a check.</p>\n<p dir=\"auto\">check errors due to wrong encoding</p>\n<div class=\"snippet-clipboard-content notranslate position-relative overflow-auto\" data-snippet-clipboard-copy-content=\"importprivkey foo\nerror: {&quot;code&quot;:-5,&quot;message&quot;:&quot;Invalid private key encoding&quot;}\"><pre class=\"notranslate\"><code class=\"notranslate\">importprivkey foo\nerror: {\"code\":-5,\"message\":\"Invalid private key encoding\"}\n</code></pre></div>\n<p dir=\"auto\">=0x00....</p>\n<div class=\"snippet-clipboard-content notranslate position-relative overflow-auto\" data-snippet-clipboard-copy-content=\"importprivkey cMahea7zqjxrtgAbB7LSGbcQUr1uX1ojuat9jZodMN87J7g8rY9t\nerror: {&quot;code&quot;:-5,&quot;message&quot;:&quot;Private key outside allowed range&quot;}\"><pre class=\"notranslate\"><code class=\"notranslate\">importprivkey cMahea7zqjxrtgAbB7LSGbcQUr1uX1ojuat9jZodMN87J7g8rY9t\nerror: {\"code\":-5,\"message\":\"Private key outside allowed range\"}\n</code></pre></div>\n<p dir=\"auto\">=0xFF....</p>\n<div class=\"snippet-clipboard-content notranslate position-relative overflow-auto\" data-snippet-clipboard-copy-content=\"importprivkey cWALDjUu1tszsCBMjBjL4mhtjHDZMS5U52WHJ29iqqspZx2Er6J2\nerror: {&quot;code&quot;:-5,&quot;message&quot;:&quot;Private key outside allowed range&quot;}\"><pre class=\"notranslate\"><code class=\"notranslate\">importprivkey cWALDjUu1tszsCBMjBjL4mhtjHDZMS5U52WHJ29iqqspZx2Er6J2\nerror: {\"code\":-5,\"message\":\"Private key outside allowed range\"}\n</code></pre></div>\n<p dir=\"auto\">=n-1</p>\n<div class=\"snippet-clipboard-content notranslate position-relative overflow-auto\" data-snippet-clipboard-copy-content=\"importprivkey cWALDjUu1tszsCBMjBjL4mhYj2wHUWYDR8Q8aSjLKzjkW5eBtpzu\n(ok)\"><pre class=\"notranslate\"><code class=\"notranslate\">importprivkey cWALDjUu1tszsCBMjBjL4mhYj2wHUWYDR8Q8aSjLKzjkW5eBtpzu\n(ok)\n</code></pre></div>\n<p dir=\"auto\">=n</p>\n<div class=\"snippet-clipboard-content notranslate position-relative overflow-auto\" data-snippet-clipboard-copy-content=\"importprivkey cWALDjUu1tszsCBMjBjL4mhYj2wHUWYDR8Q8aSjLKzjkWaXMLRaY\nerror: {&quot;code&quot;:-5,&quot;message&quot;:&quot;Private key outside allowed range&quot;}\"><pre class=\"notranslate\"><code class=\"notranslate\">importprivkey cWALDjUu1tszsCBMjBjL4mhYj2wHUWYDR8Q8aSjLKzjkWaXMLRaY\nerror: {\"code\":-5,\"message\":\"Private key outside allowed range\"}\n</code></pre></div>",
  "body_text": "The base58 armoring was checked, but not the resulting private key, which could be out of range. Fix this by adding a check.\ncheck errors due to wrong encoding\nimportprivkey foo\nerror: {\"code\":-5,\"message\":\"Invalid private key encoding\"}\n\n=0x00....\nimportprivkey cMahea7zqjxrtgAbB7LSGbcQUr1uX1ojuat9jZodMN87J7g8rY9t\nerror: {\"code\":-5,\"message\":\"Private key outside allowed range\"}\n\n=0xFF....\nimportprivkey cWALDjUu1tszsCBMjBjL4mhtjHDZMS5U52WHJ29iqqspZx2Er6J2\nerror: {\"code\":-5,\"message\":\"Private key outside allowed range\"}\n\n=n-1\nimportprivkey cWALDjUu1tszsCBMjBjL4mhYj2wHUWYDR8Q8aSjLKzjkW5eBtpzu\n(ok)\n\n=n\nimportprivkey cWALDjUu1tszsCBMjBjL4mhYj2wHUWYDR8Q8aSjLKzjkWaXMLRaY\nerror: {\"code\":-5,\"message\":\"Private key outside allowed range\"}",
  "body": "The base58 armoring was checked, but not the resulting private key, which could be out of range. Fix this by adding a check.\n\ncheck errors due to wrong encoding\n\n```\nimportprivkey foo\nerror: {\"code\":-5,\"message\":\"Invalid private key encoding\"}\n```\n\n=0x00....\n\n```\nimportprivkey cMahea7zqjxrtgAbB7LSGbcQUr1uX1ojuat9jZodMN87J7g8rY9t\nerror: {\"code\":-5,\"message\":\"Private key outside allowed range\"}\n```\n\n=0xFF....\n\n```\nimportprivkey cWALDjUu1tszsCBMjBjL4mhtjHDZMS5U52WHJ29iqqspZx2Er6J2\nerror: {\"code\":-5,\"message\":\"Private key outside allowed range\"}\n```\n\n=n-1\n\n```\nimportprivkey cWALDjUu1tszsCBMjBjL4mhYj2wHUWYDR8Q8aSjLKzjkW5eBtpzu\n(ok)\n```\n\n=n\n\n```\nimportprivkey cWALDjUu1tszsCBMjBjL4mhYj2wHUWYDR8Q8aSjLKzjkWaXMLRaY\nerror: {\"code\":-5,\"message\":\"Private key outside allowed range\"}\n```\n",
  "closed_by": {
    "login": "laanwj",
    "id": 126646,
    "node_id": "MDQ6VXNlcjEyNjY0Ng==",
    "avatar_url": "https://avatars.githubusercontent.com/u/126646?v=4",
    "gravatar_id": "",
    "url": "https://api.github.com/users/laanwj",
    "html_url": "https://github.com/laanwj",
    "followers_url": "https://api.github.com/users/laanwj/followers",
    "following_url": "https://api.github.com/users/laanwj/following{/other_user}",
    "gists_url": "https://api.github.com/users/laanwj/gists{/gist_id}",
    "starred_url": "https://api.github.com/users/laanwj/starred{/owner}{/repo}",
    "subscriptions_url": "https://api.github.com/users/laanwj/subscriptions",
    "organizations_url": "https://api.github.com/users/laanwj/orgs",
    "repos_url": "https://api.github.com/users/laanwj/repos",
    "events_url": "https://api.github.com/users/laanwj/events{/privacy}",
    "received_events_url": "https://api.github.com/users/laanwj/received_events",
    "type": "User",
    "site_admin": false
  },
  "reactions": {
    "url": "https://api.github.com/repos/bitcoin/bitcoin/issues/3593/reactions",
    "total_count": 0,
    "+1": 0,
    "-1": 0,
    "laugh": 0,
    "hooray": 0,
    "confused": 0,
    "heart": 0,
    "rocket": 0,
    "eyes": 0
  },
  "timeline_url": "https://api.github.com/repos/bitcoin/bitcoin/issues/3593/timeline",
  "performed_via_github_app": null,
  "state_reason": null
}
