[
  {
    "url": "https://api.github.com/repos/bitcoin/bitcoin/issues/comments/6494845",
    "html_url": "https://github.com/bitcoin/bitcoin/pull/1489#issuecomment-6494845",
    "issue_url": "https://api.github.com/repos/bitcoin/bitcoin/issues/1489",
    "id": 6494845,
    "node_id": "MDEyOklzc3VlQ29tbWVudDY0OTQ4NDU=",
    "user": {
      "login": "luke-jr",
      "id": 1095675,
      "node_id": "MDQ6VXNlcjEwOTU2NzU=",
      "avatar_url": "https://avatars.githubusercontent.com/u/1095675?v=4",
      "gravatar_id": "",
      "url": "https://api.github.com/users/luke-jr",
      "html_url": "https://github.com/luke-jr",
      "followers_url": "https://api.github.com/users/luke-jr/followers",
      "following_url": "https://api.github.com/users/luke-jr/following{/other_user}",
      "gists_url": "https://api.github.com/users/luke-jr/gists{/gist_id}",
      "starred_url": "https://api.github.com/users/luke-jr/starred{/owner}{/repo}",
      "subscriptions_url": "https://api.github.com/users/luke-jr/subscriptions",
      "organizations_url": "https://api.github.com/users/luke-jr/orgs",
      "repos_url": "https://api.github.com/users/luke-jr/repos",
      "events_url": "https://api.github.com/users/luke-jr/events{/privacy}",
      "received_events_url": "https://api.github.com/users/luke-jr/received_events",
      "type": "User",
      "site_admin": false
    },
    "created_at": "2012-06-21T21:23:36Z",
    "updated_at": "2012-06-21T21:23:57Z",
    "author_association": "MEMBER",
    "body_html": "<p dir=\"auto\">Neither getwork nor getmemorypool should be even trying to call CreateNewBlock in parallel... they cache its results.</p>\n<p dir=\"auto\">(Not that there's anything wrong with this  optimization.)</p>",
    "body_text": "Neither getwork nor getmemorypool should be even trying to call CreateNewBlock in parallel... they cache its results.\n(Not that there's anything wrong with this  optimization.)",
    "body": "Neither getwork nor getmemorypool should be even trying to call CreateNewBlock in parallel... they cache its results.\n\n(Not that there's anything wrong with this  optimization.)\n",
    "reactions": {
      "url": "https://api.github.com/repos/bitcoin/bitcoin/issues/comments/6494845/reactions",
      "total_count": 0,
      "+1": 0,
      "-1": 0,
      "laugh": 0,
      "hooray": 0,
      "confused": 0,
      "heart": 0,
      "rocket": 0,
      "eyes": 0
    },
    "performed_via_github_app": null
  },
  {
    "url": "https://api.github.com/repos/bitcoin/bitcoin/issues/comments/6496026",
    "html_url": "https://github.com/bitcoin/bitcoin/pull/1489#issuecomment-6496026",
    "issue_url": "https://api.github.com/repos/bitcoin/bitcoin/issues/1489",
    "id": 6496026,
    "node_id": "MDEyOklzc3VlQ29tbWVudDY0OTYwMjY=",
    "user": {
      "login": "jgarzik",
      "id": 494411,
      "node_id": "MDQ6VXNlcjQ5NDQxMQ==",
      "avatar_url": "https://avatars.githubusercontent.com/u/494411?v=4",
      "gravatar_id": "",
      "url": "https://api.github.com/users/jgarzik",
      "html_url": "https://github.com/jgarzik",
      "followers_url": "https://api.github.com/users/jgarzik/followers",
      "following_url": "https://api.github.com/users/jgarzik/following{/other_user}",
      "gists_url": "https://api.github.com/users/jgarzik/gists{/gist_id}",
      "starred_url": "https://api.github.com/users/jgarzik/starred{/owner}{/repo}",
      "subscriptions_url": "https://api.github.com/users/jgarzik/subscriptions",
      "organizations_url": "https://api.github.com/users/jgarzik/orgs",
      "repos_url": "https://api.github.com/users/jgarzik/repos",
      "events_url": "https://api.github.com/users/jgarzik/events{/privacy}",
      "received_events_url": "https://api.github.com/users/jgarzik/received_events",
      "type": "User",
      "site_admin": false
    },
    "created_at": "2012-06-21T22:18:31Z",
    "updated_at": "2012-06-21T22:18:31Z",
    "author_association": "CONTRIBUTOR",
    "body_html": "<p dir=\"auto\">The former does not follow from the latter.</p>",
    "body_text": "The former does not follow from the latter.",
    "body": "The former does not follow from the latter.\n",
    "reactions": {
      "url": "https://api.github.com/repos/bitcoin/bitcoin/issues/comments/6496026/reactions",
      "total_count": 0,
      "+1": 0,
      "-1": 0,
      "laugh": 0,
      "hooray": 0,
      "confused": 0,
      "heart": 0,
      "rocket": 0,
      "eyes": 0
    },
    "performed_via_github_app": null
  },
  {
    "url": "https://api.github.com/repos/bitcoin/bitcoin/issues/comments/6496621",
    "html_url": "https://github.com/bitcoin/bitcoin/pull/1489#issuecomment-6496621",
    "issue_url": "https://api.github.com/repos/bitcoin/bitcoin/issues/1489",
    "id": 6496621,
    "node_id": "MDEyOklzc3VlQ29tbWVudDY0OTY2MjE=",
    "user": {
      "login": "luke-jr",
      "id": 1095675,
      "node_id": "MDQ6VXNlcjEwOTU2NzU=",
      "avatar_url": "https://avatars.githubusercontent.com/u/1095675?v=4",
      "gravatar_id": "",
      "url": "https://api.github.com/users/luke-jr",
      "html_url": "https://github.com/luke-jr",
      "followers_url": "https://api.github.com/users/luke-jr/followers",
      "following_url": "https://api.github.com/users/luke-jr/following{/other_user}",
      "gists_url": "https://api.github.com/users/luke-jr/gists{/gist_id}",
      "starred_url": "https://api.github.com/users/luke-jr/starred{/owner}{/repo}",
      "subscriptions_url": "https://api.github.com/users/luke-jr/subscriptions",
      "organizations_url": "https://api.github.com/users/luke-jr/orgs",
      "repos_url": "https://api.github.com/users/luke-jr/repos",
      "events_url": "https://api.github.com/users/luke-jr/events{/privacy}",
      "received_events_url": "https://api.github.com/users/luke-jr/received_events",
      "type": "User",
      "site_admin": false
    },
    "created_at": "2012-06-21T22:49:38Z",
    "updated_at": "2012-06-21T22:49:38Z",
    "author_association": "MEMBER",
    "body_html": "<p dir=\"auto\"><a class=\"user-mention notranslate\" data-hovercard-type=\"user\" data-hovercard-url=\"/users/jgarzik/hovercard\" data-octo-click=\"hovercard-link-click\" data-octo-dimensions=\"link_type:self\" href=\"https://github.com/jgarzik\">@jgarzik</a> There should be a mutex on the cache, so I'm not sure how you'd get into CreateNewBlock concurrently. Unless you're thinking of getwork and getmemorypool at the same time, but I can't think of any reason to support that...</p>",
    "body_text": "@jgarzik There should be a mutex on the cache, so I'm not sure how you'd get into CreateNewBlock concurrently. Unless you're thinking of getwork and getmemorypool at the same time, but I can't think of any reason to support that...",
    "body": "@jgarzik There should be a mutex on the cache, so I'm not sure how you'd get into CreateNewBlock concurrently. Unless you're thinking of getwork and getmemorypool at the same time, but I can't think of any reason to support that...\n",
    "reactions": {
      "url": "https://api.github.com/repos/bitcoin/bitcoin/issues/comments/6496621/reactions",
      "total_count": 0,
      "+1": 0,
      "-1": 0,
      "laugh": 0,
      "hooray": 0,
      "confused": 0,
      "heart": 0,
      "rocket": 0,
      "eyes": 0
    },
    "performed_via_github_app": null
  },
  {
    "url": "https://api.github.com/repos/bitcoin/bitcoin/issues/comments/6497558",
    "html_url": "https://github.com/bitcoin/bitcoin/pull/1489#issuecomment-6497558",
    "issue_url": "https://api.github.com/repos/bitcoin/bitcoin/issues/1489",
    "id": 6497558,
    "node_id": "MDEyOklzc3VlQ29tbWVudDY0OTc1NTg=",
    "user": {
      "login": "luke-jr",
      "id": 1095675,
      "node_id": "MDQ6VXNlcjEwOTU2NzU=",
      "avatar_url": "https://avatars.githubusercontent.com/u/1095675?v=4",
      "gravatar_id": "",
      "url": "https://api.github.com/users/luke-jr",
      "html_url": "https://github.com/luke-jr",
      "followers_url": "https://api.github.com/users/luke-jr/followers",
      "following_url": "https://api.github.com/users/luke-jr/following{/other_user}",
      "gists_url": "https://api.github.com/users/luke-jr/gists{/gist_id}",
      "starred_url": "https://api.github.com/users/luke-jr/starred{/owner}{/repo}",
      "subscriptions_url": "https://api.github.com/users/luke-jr/subscriptions",
      "organizations_url": "https://api.github.com/users/luke-jr/orgs",
      "repos_url": "https://api.github.com/users/luke-jr/repos",
      "events_url": "https://api.github.com/users/luke-jr/events{/privacy}",
      "received_events_url": "https://api.github.com/users/luke-jr/received_events",
      "type": "User",
      "site_admin": false
    },
    "created_at": "2012-06-21T23:50:40Z",
    "updated_at": "2012-06-21T23:50:40Z",
    "author_association": "MEMBER",
    "body_html": "<p dir=\"auto\">This also conflicts with <a class=\"issue-link js-issue-link\" data-error-text=\"Failed to load title\" data-id=\"4492595\" data-permission-text=\"Title is private\" data-url=\"https://github.com/bitcoin/bitcoin/issues/1240\" data-hovercard-type=\"pull_request\" data-hovercard-url=\"/bitcoin/bitcoin/pull/1240/hovercard\" href=\"https://github.com/bitcoin/bitcoin/pull/1240\">#1240</a> as-is: can copyFinal return map&lt;uint256, CTransaction&gt; instead?</p>",
    "body_text": "This also conflicts with #1240 as-is: can copyFinal return map<uint256, CTransaction> instead?",
    "body": "This also conflicts with #1240 as-is: can copyFinal return map<uint256, CTransaction> instead?\n",
    "reactions": {
      "url": "https://api.github.com/repos/bitcoin/bitcoin/issues/comments/6497558/reactions",
      "total_count": 0,
      "+1": 0,
      "-1": 0,
      "laugh": 0,
      "hooray": 0,
      "confused": 0,
      "heart": 0,
      "rocket": 0,
      "eyes": 0
    },
    "performed_via_github_app": null
  },
  {
    "url": "https://api.github.com/repos/bitcoin/bitcoin/issues/comments/6497564",
    "html_url": "https://github.com/bitcoin/bitcoin/pull/1489#issuecomment-6497564",
    "issue_url": "https://api.github.com/repos/bitcoin/bitcoin/issues/1489",
    "id": 6497564,
    "node_id": "MDEyOklzc3VlQ29tbWVudDY0OTc1NjQ=",
    "user": {
      "login": "jgarzik",
      "id": 494411,
      "node_id": "MDQ6VXNlcjQ5NDQxMQ==",
      "avatar_url": "https://avatars.githubusercontent.com/u/494411?v=4",
      "gravatar_id": "",
      "url": "https://api.github.com/users/jgarzik",
      "html_url": "https://github.com/jgarzik",
      "followers_url": "https://api.github.com/users/jgarzik/followers",
      "following_url": "https://api.github.com/users/jgarzik/following{/other_user}",
      "gists_url": "https://api.github.com/users/jgarzik/gists{/gist_id}",
      "starred_url": "https://api.github.com/users/jgarzik/starred{/owner}{/repo}",
      "subscriptions_url": "https://api.github.com/users/jgarzik/subscriptions",
      "organizations_url": "https://api.github.com/users/jgarzik/orgs",
      "repos_url": "https://api.github.com/users/jgarzik/repos",
      "events_url": "https://api.github.com/users/jgarzik/events{/privacy}",
      "received_events_url": "https://api.github.com/users/jgarzik/received_events",
      "type": "User",
      "site_admin": false
    },
    "created_at": "2012-06-21T23:51:18Z",
    "updated_at": "2012-06-21T23:51:18Z",
    "author_association": "CONTRIBUTOR",
    "body_html": "<p dir=\"auto\">The cache is only accessed when you think it would be accessed: quickly upon read, or after building a block.  The cache's lock need not be held while building a new block.</p>",
    "body_text": "The cache is only accessed when you think it would be accessed: quickly upon read, or after building a block.  The cache's lock need not be held while building a new block.",
    "body": "The cache is only accessed when you think it would be accessed: quickly upon read, or after building a block.  The cache's lock need not be held while building a new block.\n",
    "reactions": {
      "url": "https://api.github.com/repos/bitcoin/bitcoin/issues/comments/6497564/reactions",
      "total_count": 0,
      "+1": 0,
      "-1": 0,
      "laugh": 0,
      "hooray": 0,
      "confused": 0,
      "heart": 0,
      "rocket": 0,
      "eyes": 0
    },
    "performed_via_github_app": null
  },
  {
    "url": "https://api.github.com/repos/bitcoin/bitcoin/issues/comments/6497691",
    "html_url": "https://github.com/bitcoin/bitcoin/pull/1489#issuecomment-6497691",
    "issue_url": "https://api.github.com/repos/bitcoin/bitcoin/issues/1489",
    "id": 6497691,
    "node_id": "MDEyOklzc3VlQ29tbWVudDY0OTc2OTE=",
    "user": {
      "login": "luke-jr",
      "id": 1095675,
      "node_id": "MDQ6VXNlcjEwOTU2NzU=",
      "avatar_url": "https://avatars.githubusercontent.com/u/1095675?v=4",
      "gravatar_id": "",
      "url": "https://api.github.com/users/luke-jr",
      "html_url": "https://github.com/luke-jr",
      "followers_url": "https://api.github.com/users/luke-jr/followers",
      "following_url": "https://api.github.com/users/luke-jr/following{/other_user}",
      "gists_url": "https://api.github.com/users/luke-jr/gists{/gist_id}",
      "starred_url": "https://api.github.com/users/luke-jr/starred{/owner}{/repo}",
      "subscriptions_url": "https://api.github.com/users/luke-jr/subscriptions",
      "organizations_url": "https://api.github.com/users/luke-jr/orgs",
      "repos_url": "https://api.github.com/users/luke-jr/repos",
      "events_url": "https://api.github.com/users/luke-jr/events{/privacy}",
      "received_events_url": "https://api.github.com/users/luke-jr/received_events",
      "type": "User",
      "site_admin": false
    },
    "created_at": "2012-06-22T00:00:21Z",
    "updated_at": "2012-06-22T00:00:21Z",
    "author_association": "MEMBER",
    "body_html": "<p dir=\"auto\">IMO, it's better to hold it while building a new block: instead of having 20 parallel CreateNewBlock running at potentially 1/20th the speed each for no benefit, you get a single one that finishes in 1/20th the time and the rest use the cached value from...</p>",
    "body_text": "IMO, it's better to hold it while building a new block: instead of having 20 parallel CreateNewBlock running at potentially 1/20th the speed each for no benefit, you get a single one that finishes in 1/20th the time and the rest use the cached value from...",
    "body": "IMO, it's better to hold it while building a new block: instead of having 20 parallel CreateNewBlock running at potentially 1/20th the speed each for no benefit, you get a single one that finishes in 1/20th the time and the rest use the cached value from...\n",
    "reactions": {
      "url": "https://api.github.com/repos/bitcoin/bitcoin/issues/comments/6497691/reactions",
      "total_count": 0,
      "+1": 0,
      "-1": 0,
      "laugh": 0,
      "hooray": 0,
      "confused": 0,
      "heart": 0,
      "rocket": 0,
      "eyes": 0
    },
    "performed_via_github_app": null
  },
  {
    "url": "https://api.github.com/repos/bitcoin/bitcoin/issues/comments/6607226",
    "html_url": "https://github.com/bitcoin/bitcoin/pull/1489#issuecomment-6607226",
    "issue_url": "https://api.github.com/repos/bitcoin/bitcoin/issues/1489",
    "id": 6607226,
    "node_id": "MDEyOklzc3VlQ29tbWVudDY2MDcyMjY=",
    "user": {
      "login": "jgarzik",
      "id": 494411,
      "node_id": "MDQ6VXNlcjQ5NDQxMQ==",
      "avatar_url": "https://avatars.githubusercontent.com/u/494411?v=4",
      "gravatar_id": "",
      "url": "https://api.github.com/users/jgarzik",
      "html_url": "https://github.com/jgarzik",
      "followers_url": "https://api.github.com/users/jgarzik/followers",
      "following_url": "https://api.github.com/users/jgarzik/following{/other_user}",
      "gists_url": "https://api.github.com/users/jgarzik/gists{/gist_id}",
      "starred_url": "https://api.github.com/users/jgarzik/starred{/owner}{/repo}",
      "subscriptions_url": "https://api.github.com/users/jgarzik/subscriptions",
      "organizations_url": "https://api.github.com/users/jgarzik/orgs",
      "repos_url": "https://api.github.com/users/jgarzik/repos",
      "events_url": "https://api.github.com/users/jgarzik/events{/privacy}",
      "received_events_url": "https://api.github.com/users/jgarzik/received_events",
      "type": "User",
      "site_admin": false
    },
    "created_at": "2012-06-27T15:51:33Z",
    "updated_at": "2012-06-27T15:51:33Z",
    "author_association": "CONTRIBUTOR",
    "body_html": "<p dir=\"auto\">Closing, not enough interest.  It remains a valid technique if we want to explore this avenue in the future.</p>",
    "body_text": "Closing, not enough interest.  It remains a valid technique if we want to explore this avenue in the future.",
    "body": "Closing, not enough interest.  It remains a valid technique if we want to explore this avenue in the future.\n",
    "reactions": {
      "url": "https://api.github.com/repos/bitcoin/bitcoin/issues/comments/6607226/reactions",
      "total_count": 0,
      "+1": 0,
      "-1": 0,
      "laugh": 0,
      "hooray": 0,
      "confused": 0,
      "heart": 0,
      "rocket": 0,
      "eyes": 0
    },
    "performed_via_github_app": null
  }
]
