{
  "url": "https://api.github.com/repos/bitcoin/bitcoin/issues/16411",
  "repository_url": "https://api.github.com/repos/bitcoin/bitcoin",
  "labels_url": "https://api.github.com/repos/bitcoin/bitcoin/issues/16411/labels{/name}",
  "comments_url": "https://api.github.com/repos/bitcoin/bitcoin/issues/16411/comments",
  "events_url": "https://api.github.com/repos/bitcoin/bitcoin/issues/16411/events",
  "html_url": "https://github.com/bitcoin/bitcoin/pull/16411",
  "id": 469573354,
  "node_id": "MDExOlB1bGxSZXF1ZXN0Mjk4NzU3OTE4",
  "number": 16411,
  "title": "BIP-325: Signet support",
  "user": {
    "login": "kallewoof",
    "id": 250224,
    "node_id": "MDQ6VXNlcjI1MDIyNA==",
    "avatar_url": "https://avatars.githubusercontent.com/u/250224?v=4",
    "gravatar_id": "",
    "url": "https://api.github.com/users/kallewoof",
    "html_url": "https://github.com/kallewoof",
    "followers_url": "https://api.github.com/users/kallewoof/followers",
    "following_url": "https://api.github.com/users/kallewoof/following{/other_user}",
    "gists_url": "https://api.github.com/users/kallewoof/gists{/gist_id}",
    "starred_url": "https://api.github.com/users/kallewoof/starred{/owner}{/repo}",
    "subscriptions_url": "https://api.github.com/users/kallewoof/subscriptions",
    "organizations_url": "https://api.github.com/users/kallewoof/orgs",
    "repos_url": "https://api.github.com/users/kallewoof/repos",
    "events_url": "https://api.github.com/users/kallewoof/events{/privacy}",
    "received_events_url": "https://api.github.com/users/kallewoof/received_events",
    "type": "User",
    "site_admin": false
  },
  "labels": [
    {
      "id": 64583,
      "node_id": "MDU6TGFiZWw2NDU4Mw==",
      "url": "https://api.github.com/repos/bitcoin/bitcoin/labels/Feature",
      "name": "Feature",
      "color": "7cf575",
      "default": false,
      "description": null
    },
    {
      "id": 62963516,
      "node_id": "MDU6TGFiZWw2Mjk2MzUxNg==",
      "url": "https://api.github.com/repos/bitcoin/bitcoin/labels/Tests",
      "name": "Tests",
      "color": "d4c5f9",
      "default": false,
      "description": null
    },
    {
      "id": 955867938,
      "node_id": "MDU6TGFiZWw5NTU4Njc5Mzg=",
      "url": "https://api.github.com/repos/bitcoin/bitcoin/labels/Needs%20rebase",
      "name": "Needs rebase",
      "color": "cccccc",
      "default": false,
      "description": ""
    }
  ],
  "state": "closed",
  "locked": true,
  "assignee": null,
  "assignees": [

  ],
  "milestone": null,
  "comments": 72,
  "created_at": "2019-07-18T05:11:55Z",
  "updated_at": "2022-02-15T10:30:52Z",
  "closed_at": "2020-03-24T03:39:30Z",
  "author_association": "MEMBER",
  "active_lock_reason": "resolved",
  "draft": false,
  "pull_request": {
    "url": "https://api.github.com/repos/bitcoin/bitcoin/pulls/16411",
    "html_url": "https://github.com/bitcoin/bitcoin/pull/16411",
    "diff_url": "https://github.com/bitcoin/bitcoin/pull/16411.diff",
    "patch_url": "https://github.com/bitcoin/bitcoin/pull/16411.patch",
    "merged_at": null
  },
  "body_html": "<p dir=\"auto\">This PR implements BIP 325 (<a href=\"https://github.com/bitcoin/bips/blob/master/bip-0325.mediawiki\">https://github.com/bitcoin/bips/blob/master/bip-0325.mediawiki</a>) -- Signet support.</p>\n<p dir=\"auto\"><strong>Note:</strong> This PR is being split into more bite-sized PR's, the first of which is <a class=\"issue-link js-issue-link\" data-error-text=\"Failed to load title\" data-id=\"576041503\" data-permission-text=\"Title is private\" data-url=\"https://github.com/bitcoin/bitcoin/issues/18267\" data-hovercard-type=\"pull_request\" data-hovercard-url=\"/bitcoin/bitcoin/pull/18267/hovercard\" href=\"https://github.com/bitcoin/bitcoin/pull/18267\">#18267</a>.</p>\n<p dir=\"auto\">Merged check boxes:</p>\n<ul class=\"contains-task-list\">\n<li class=\"task-list-item\"><input type=\"checkbox\" id=\"\" disabled=\"\" class=\"task-list-item-checkbox\"> Signet consensus: <a class=\"issue-link js-issue-link\" data-error-text=\"Failed to load title\" data-id=\"576041503\" data-permission-text=\"Title is private\" data-url=\"https://github.com/bitcoin/bitcoin/issues/18267\" data-hovercard-type=\"pull_request\" data-hovercard-url=\"/bitcoin/bitcoin/pull/18267/hovercard\" href=\"https://github.com/bitcoin/bitcoin/pull/18267\">#18267</a></li>\n<li class=\"task-list-item\"><input type=\"checkbox\" id=\"\" disabled=\"\" class=\"task-list-item-checkbox\"> Signet RPC tools: pending consensus merge</li>\n<li class=\"task-list-item\"><input type=\"checkbox\" id=\"\" disabled=\"\" class=\"task-list-item-checkbox\"> Signet utility scripts (contrib/signet): pending RPC tool merge</li>\n</ul>\n<p dir=\"auto\">Signet is a proposed new type of test network that requires a signature in the blocks. While this kind of network is centralized, it allows for properties that are desirable in a test network, which testnet alone cannot provide.</p>\n<p dir=\"auto\">Signet has a default global testnet baked in for easy usage, but is built around the concept of there being multiple simultaneous signets. Someone is already working on a signet with bip-taproot etc patched on top of it. When new features are tested globally, starting a temporary signet for that purpose is trivial.</p>\n<p dir=\"auto\">See also: <a href=\"https://en.bitcoin.it/wiki/Signet\" rel=\"nofollow\">https://en.bitcoin.it/wiki/Signet</a></p>\n<p dir=\"auto\">Noteworthy:</p>\n<ul dir=\"auto\">\n<li><del>proof of work check now skips genesis block for all networks, including mainnet</del></li>\n<li>a new global \"is signet\" flag is added, which affects consensus: it adds a new enforcement that all blocks must have a valid signature for the \"signet block script\", a global script</li>\n<li><code class=\"notranslate\">DecodeHexBlk</code> will now attempt to load the block data from a file whose filename is the hex string argument, if it turns out to not be a valid hex string; this has the odd caveat of the relative directory being relative to the execution of <code class=\"notranslate\">bitcoind</code>, not <code class=\"notranslate\">bitcoin-cli</code> (see <code class=\"notranslate\">contrib/signet/mkblock.sh</code>)</li>\n</ul>\n<p dir=\"auto\">Update: proof of work check is back in place; instead, Signet now requires an additional <code class=\"notranslate\">-signet_genesisnonce</code> parameter to operate.</p>",
  "body_text": "This PR implements BIP 325 (https://github.com/bitcoin/bips/blob/master/bip-0325.mediawiki) -- Signet support.\nNote: This PR is being split into more bite-sized PR's, the first of which is #18267.\nMerged check boxes:\n\n Signet consensus: #18267\n Signet RPC tools: pending consensus merge\n Signet utility scripts (contrib/signet): pending RPC tool merge\n\nSignet is a proposed new type of test network that requires a signature in the blocks. While this kind of network is centralized, it allows for properties that are desirable in a test network, which testnet alone cannot provide.\nSignet has a default global testnet baked in for easy usage, but is built around the concept of there being multiple simultaneous signets. Someone is already working on a signet with bip-taproot etc patched on top of it. When new features are tested globally, starting a temporary signet for that purpose is trivial.\nSee also: https://en.bitcoin.it/wiki/Signet\nNoteworthy:\n\nproof of work check now skips genesis block for all networks, including mainnet\na new global \"is signet\" flag is added, which affects consensus: it adds a new enforcement that all blocks must have a valid signature for the \"signet block script\", a global script\nDecodeHexBlk will now attempt to load the block data from a file whose filename is the hex string argument, if it turns out to not be a valid hex string; this has the odd caveat of the relative directory being relative to the execution of bitcoind, not bitcoin-cli (see contrib/signet/mkblock.sh)\n\nUpdate: proof of work check is back in place; instead, Signet now requires an additional -signet_genesisnonce parameter to operate.",
  "body": "This PR implements BIP 325 (https://github.com/bitcoin/bips/blob/master/bip-0325.mediawiki) -- Signet support.\r\n\r\n**Note:** This PR is being split into more bite-sized PR's, the first of which is #18267.\r\n\r\nMerged check boxes:\r\n* [ ] Signet consensus: #18267\r\n* [ ] Signet RPC tools: pending consensus merge\r\n* [ ] Signet utility scripts (contrib/signet): pending RPC tool merge\r\n\r\nSignet is a proposed new type of test network that requires a signature in the blocks. While this kind of network is centralized, it allows for properties that are desirable in a test network, which testnet alone cannot provide.\r\n\r\nSignet has a default global testnet baked in for easy usage, but is built around the concept of there being multiple simultaneous signets. Someone is already working on a signet with bip-taproot etc patched on top of it. When new features are tested globally, starting a temporary signet for that purpose is trivial.\r\n\r\nSee also: https://en.bitcoin.it/wiki/Signet\r\n\r\nNoteworthy:\r\n* ~~proof of work check now skips genesis block for all networks, including mainnet~~\r\n* a new global \"is signet\" flag is added, which affects consensus: it adds a new enforcement that all blocks must have a valid signature for the \"signet block script\", a global script\r\n* `DecodeHexBlk` will now attempt to load the block data from a file whose filename is the hex string argument, if it turns out to not be a valid hex string; this has the odd caveat of the relative directory being relative to the execution of `bitcoind`, not `bitcoin-cli` (see `contrib/signet/mkblock.sh`)\r\n\r\nUpdate: proof of work check is back in place; instead, Signet now requires an additional `-signet_genesisnonce` parameter to operate.",
  "closed_by": {
    "login": "kallewoof",
    "id": 250224,
    "node_id": "MDQ6VXNlcjI1MDIyNA==",
    "avatar_url": "https://avatars.githubusercontent.com/u/250224?v=4",
    "gravatar_id": "",
    "url": "https://api.github.com/users/kallewoof",
    "html_url": "https://github.com/kallewoof",
    "followers_url": "https://api.github.com/users/kallewoof/followers",
    "following_url": "https://api.github.com/users/kallewoof/following{/other_user}",
    "gists_url": "https://api.github.com/users/kallewoof/gists{/gist_id}",
    "starred_url": "https://api.github.com/users/kallewoof/starred{/owner}{/repo}",
    "subscriptions_url": "https://api.github.com/users/kallewoof/subscriptions",
    "organizations_url": "https://api.github.com/users/kallewoof/orgs",
    "repos_url": "https://api.github.com/users/kallewoof/repos",
    "events_url": "https://api.github.com/users/kallewoof/events{/privacy}",
    "received_events_url": "https://api.github.com/users/kallewoof/received_events",
    "type": "User",
    "site_admin": false
  },
  "reactions": {
    "url": "https://api.github.com/repos/bitcoin/bitcoin/issues/16411/reactions",
    "total_count": 1,
    "+1": 0,
    "-1": 0,
    "laugh": 0,
    "hooray": 0,
    "confused": 0,
    "heart": 0,
    "rocket": 1,
    "eyes": 0
  },
  "timeline_url": "https://api.github.com/repos/bitcoin/bitcoin/issues/16411/timeline",
  "performed_via_github_app": null,
  "state_reason": null
}
