[
  {
    "url": "https://api.github.com/repos/bitcoin/bitcoin/issues/comments/904465972",
    "html_url": "https://github.com/bitcoin/bitcoin/pull/22782#issuecomment-904465972",
    "issue_url": "https://api.github.com/repos/bitcoin/bitcoin/issues/22782",
    "id": 904465972,
    "node_id": "IC_kwDOABII58416Q40",
    "user": {
      "login": "DrahtBot",
      "id": 39886733,
      "node_id": "MDQ6VXNlcjM5ODg2NzMz",
      "avatar_url": "https://avatars.githubusercontent.com/u/39886733?v=4",
      "gravatar_id": "",
      "url": "https://api.github.com/users/DrahtBot",
      "html_url": "https://github.com/DrahtBot",
      "followers_url": "https://api.github.com/users/DrahtBot/followers",
      "following_url": "https://api.github.com/users/DrahtBot/following{/other_user}",
      "gists_url": "https://api.github.com/users/DrahtBot/gists{/gist_id}",
      "starred_url": "https://api.github.com/users/DrahtBot/starred{/owner}{/repo}",
      "subscriptions_url": "https://api.github.com/users/DrahtBot/subscriptions",
      "organizations_url": "https://api.github.com/users/DrahtBot/orgs",
      "repos_url": "https://api.github.com/users/DrahtBot/repos",
      "events_url": "https://api.github.com/users/DrahtBot/events{/privacy}",
      "received_events_url": "https://api.github.com/users/DrahtBot/received_events",
      "type": "User",
      "site_admin": false
    },
    "created_at": "2021-08-24T09:09:41Z",
    "updated_at": "2021-08-26T00:31:31Z",
    "author_association": "CONTRIBUTOR",
    "body_html": "\n<p dir=\"auto\">The following sections might be updated with supplementary metadata relevant to reviewers and maintainers.</p>\n\n<h3 dir=\"auto\">Conflicts</h3>\n<p dir=\"auto\">Reviewers, this pull request conflicts with the following ones:</p>\n<ul dir=\"auto\">\n<li><a href=\"https://github.com/bitcoin/bitcoin/pull/21878\" data-hovercard-type=\"pull_request\" data-hovercard-url=\"/bitcoin/bitcoin/pull/21878/hovercard\">#21878</a> (Make all networking code mockable by vasild)</li>\n<li><a href=\"https://github.com/bitcoin/bitcoin/pull/21160\" data-hovercard-type=\"pull_request\" data-hovercard-url=\"/bitcoin/bitcoin/pull/21160/hovercard\">#21160</a> (net/net processing: Move tx inventory into net_processing by jnewbery)</li>\n<li><a href=\"https://github.com/bitcoin/bitcoin/pull/19757\" data-hovercard-type=\"pull_request\" data-hovercard-url=\"/bitcoin/bitcoin/pull/19757/hovercard\">#19757</a> (net/net_processing: Convert net std::list buffers to std::forward_list by JeremyRubin)</li>\n</ul>\n<p dir=\"auto\">If you consider this pull request important, please also help to review the conflicting pull requests. Ideally, start with the one that should be merged first.</p>",
    "body_text": "The following sections might be updated with supplementary metadata relevant to reviewers and maintainers.\n\nConflicts\nReviewers, this pull request conflicts with the following ones:\n\n#21878 (Make all networking code mockable by vasild)\n#21160 (net/net processing: Move tx inventory into net_processing by jnewbery)\n#19757 (net/net_processing: Convert net std::list buffers to std::forward_list by JeremyRubin)\n\nIf you consider this pull request important, please also help to review the conflicting pull requests. Ideally, start with the one that should be merged first.",
    "body": "<!--e57a25ab6845829454e8d69fc972939a-->\n\nThe following sections might be updated with supplementary metadata relevant to reviewers and maintainers.\n\n<!--174a7506f384e20aa4161008e828411d-->\n### Conflicts\nReviewers, this pull request conflicts with the following ones:\n\n* [#21878](https://github.com/bitcoin/bitcoin/pull/21878) (Make all networking code mockable by vasild)\n* [#21160](https://github.com/bitcoin/bitcoin/pull/21160) (net/net processing: Move tx inventory into net_processing by jnewbery)\n* [#19757](https://github.com/bitcoin/bitcoin/pull/19757) (net/net_processing: Convert net std::list buffers to std::forward_list by JeremyRubin)\n\nIf you consider this pull request important, please also help to review the conflicting pull requests. Ideally, start with the one that should be merged first.",
    "reactions": {
      "url": "https://api.github.com/repos/bitcoin/bitcoin/issues/comments/904465972/reactions",
      "total_count": 0,
      "+1": 0,
      "-1": 0,
      "laugh": 0,
      "hooray": 0,
      "confused": 0,
      "heart": 0,
      "rocket": 0,
      "eyes": 0
    },
    "performed_via_github_app": null
  },
  {
    "url": "https://api.github.com/repos/bitcoin/bitcoin/issues/comments/904608174",
    "html_url": "https://github.com/bitcoin/bitcoin/pull/22782#issuecomment-904608174",
    "issue_url": "https://api.github.com/repos/bitcoin/bitcoin/issues/22782",
    "id": 904608174,
    "node_id": "IC_kwDOABII58416zmu",
    "user": {
      "login": "jnewbery",
      "id": 1063656,
      "node_id": "MDQ6VXNlcjEwNjM2NTY=",
      "avatar_url": "https://avatars.githubusercontent.com/u/1063656?v=4",
      "gravatar_id": "",
      "url": "https://api.github.com/users/jnewbery",
      "html_url": "https://github.com/jnewbery",
      "followers_url": "https://api.github.com/users/jnewbery/followers",
      "following_url": "https://api.github.com/users/jnewbery/following{/other_user}",
      "gists_url": "https://api.github.com/users/jnewbery/gists{/gist_id}",
      "starred_url": "https://api.github.com/users/jnewbery/starred{/owner}{/repo}",
      "subscriptions_url": "https://api.github.com/users/jnewbery/subscriptions",
      "organizations_url": "https://api.github.com/users/jnewbery/orgs",
      "repos_url": "https://api.github.com/users/jnewbery/repos",
      "events_url": "https://api.github.com/users/jnewbery/events{/privacy}",
      "received_events_url": "https://api.github.com/users/jnewbery/received_events",
      "type": "User",
      "site_admin": false
    },
    "created_at": "2021-08-24T12:45:32Z",
    "updated_at": "2021-08-24T12:45:32Z",
    "author_association": "CONTRIBUTOR",
    "body_html": "<p dir=\"auto\">Concept ACK.</p>\n<p dir=\"auto\">This was introduced in <a class=\"commit-link\" data-hovercard-type=\"commit\" data-hovercard-url=\"https://github.com/bitcoin/bitcoin/commit/f9f5cfc50637f2cd1540923caf337e2651ec1625/hovercard\" href=\"https://github.com/bitcoin/bitcoin/commit/f9f5cfc50637f2cd1540923caf337e2651ec1625\"><tt>f9f5cfc</tt></a>, and it looks like it would never work as intended, since the <code class=\"notranslate\">CNode</code> ctor has always set the <code class=\"notranslate\">addrName</code> to a non-empty string.</p>\n<p dir=\"auto\">The comment above explains the intention here: <code class=\"notranslate\">Also store the name we used to connect in that CNode, so that future FindNode() calls to that name catch this early.</code>. That comment should be removed if we get rid of this code.</p>",
    "body_text": "Concept ACK.\nThis was introduced in f9f5cfc, and it looks like it would never work as intended, since the CNode ctor has always set the addrName to a non-empty string.\nThe comment above explains the intention here: Also store the name we used to connect in that CNode, so that future FindNode() calls to that name catch this early.. That comment should be removed if we get rid of this code.",
    "body": "Concept ACK.\r\n\r\nThis was introduced in https://github.com/bitcoin/bitcoin/commit/f9f5cfc50637f2cd1540923caf337e2651ec1625, and it looks like it would never work as intended, since the `CNode` ctor has always set the `addrName` to a non-empty string.\r\n\r\nThe comment above explains the intention here: `Also store the name we used to connect in that CNode, so that future FindNode() calls to that name catch this early.`. That comment should be removed if we get rid of this code.",
    "reactions": {
      "url": "https://api.github.com/repos/bitcoin/bitcoin/issues/comments/904608174/reactions",
      "total_count": 0,
      "+1": 0,
      "-1": 0,
      "laugh": 0,
      "hooray": 0,
      "confused": 0,
      "heart": 0,
      "rocket": 0,
      "eyes": 0
    },
    "performed_via_github_app": null
  },
  {
    "url": "https://api.github.com/repos/bitcoin/bitcoin/issues/comments/906205139",
    "html_url": "https://github.com/bitcoin/bitcoin/pull/22782#issuecomment-906205139",
    "issue_url": "https://api.github.com/repos/bitcoin/bitcoin/issues/22782",
    "id": 906205139,
    "node_id": "IC_kwDOABII5842A5fT",
    "user": {
      "login": "maflcko",
      "id": 6399679,
      "node_id": "MDQ6VXNlcjYzOTk2Nzk=",
      "avatar_url": "https://avatars.githubusercontent.com/u/6399679?v=4",
      "gravatar_id": "",
      "url": "https://api.github.com/users/maflcko",
      "html_url": "https://github.com/maflcko",
      "followers_url": "https://api.github.com/users/maflcko/followers",
      "following_url": "https://api.github.com/users/maflcko/following{/other_user}",
      "gists_url": "https://api.github.com/users/maflcko/gists{/gist_id}",
      "starred_url": "https://api.github.com/users/maflcko/starred{/owner}{/repo}",
      "subscriptions_url": "https://api.github.com/users/maflcko/subscriptions",
      "organizations_url": "https://api.github.com/users/maflcko/orgs",
      "repos_url": "https://api.github.com/users/maflcko/repos",
      "events_url": "https://api.github.com/users/maflcko/events{/privacy}",
      "received_events_url": "https://api.github.com/users/maflcko/received_events",
      "type": "User",
      "site_admin": false
    },
    "created_at": "2021-08-26T08:30:37Z",
    "updated_at": "2021-08-26T08:30:37Z",
    "author_association": "MEMBER",
    "body_html": "<p dir=\"auto\">I've force pushed to address a review comment. Happy to revert to the version that had two ACKs, just let me know.</p>",
    "body_text": "I've force pushed to address a review comment. Happy to revert to the version that had two ACKs, just let me know.",
    "body": "I've force pushed to address a review comment. Happy to revert to the version that had two ACKs, just let me know.",
    "reactions": {
      "url": "https://api.github.com/repos/bitcoin/bitcoin/issues/comments/906205139/reactions",
      "total_count": 0,
      "+1": 0,
      "-1": 0,
      "laugh": 0,
      "hooray": 0,
      "confused": 0,
      "heart": 0,
      "rocket": 0,
      "eyes": 0
    },
    "performed_via_github_app": null
  },
  {
    "url": "https://api.github.com/repos/bitcoin/bitcoin/issues/comments/906242658",
    "html_url": "https://github.com/bitcoin/bitcoin/pull/22782#issuecomment-906242658",
    "issue_url": "https://api.github.com/repos/bitcoin/bitcoin/issues/22782",
    "id": 906242658,
    "node_id": "IC_kwDOABII5842BCpi",
    "user": {
      "login": "jnewbery",
      "id": 1063656,
      "node_id": "MDQ6VXNlcjEwNjM2NTY=",
      "avatar_url": "https://avatars.githubusercontent.com/u/1063656?v=4",
      "gravatar_id": "",
      "url": "https://api.github.com/users/jnewbery",
      "html_url": "https://github.com/jnewbery",
      "followers_url": "https://api.github.com/users/jnewbery/followers",
      "following_url": "https://api.github.com/users/jnewbery/following{/other_user}",
      "gists_url": "https://api.github.com/users/jnewbery/gists{/gist_id}",
      "starred_url": "https://api.github.com/users/jnewbery/starred{/owner}{/repo}",
      "subscriptions_url": "https://api.github.com/users/jnewbery/subscriptions",
      "organizations_url": "https://api.github.com/users/jnewbery/orgs",
      "repos_url": "https://api.github.com/users/jnewbery/repos",
      "events_url": "https://api.github.com/users/jnewbery/events{/privacy}",
      "received_events_url": "https://api.github.com/users/jnewbery/received_events",
      "type": "User",
      "site_admin": false
    },
    "created_at": "2021-08-26T09:24:35Z",
    "updated_at": "2021-08-26T09:24:35Z",
    "author_association": "CONTRIBUTOR",
    "body_html": "<p dir=\"auto\">Code review ACK <a class=\"commit-link\" data-hovercard-type=\"commit\" data-hovercard-url=\"https://github.com/bitcoin/bitcoin/commit/fa9eade142964d5482fe8d2109fb67a9556ae93d/hovercard\" href=\"https://github.com/bitcoin/bitcoin/commit/fa9eade142964d5482fe8d2109fb67a9556ae93d\"><tt>fa9eade</tt></a></p>",
    "body_text": "Code review ACK fa9eade",
    "body": "Code review ACK fa9eade142964d5482fe8d2109fb67a9556ae93d",
    "reactions": {
      "url": "https://api.github.com/repos/bitcoin/bitcoin/issues/comments/906242658/reactions",
      "total_count": 0,
      "+1": 0,
      "-1": 0,
      "laugh": 0,
      "hooray": 0,
      "confused": 0,
      "heart": 0,
      "rocket": 0,
      "eyes": 0
    },
    "performed_via_github_app": null
  },
  {
    "url": "https://api.github.com/repos/bitcoin/bitcoin/issues/comments/906324256",
    "html_url": "https://github.com/bitcoin/bitcoin/pull/22782#issuecomment-906324256",
    "issue_url": "https://api.github.com/repos/bitcoin/bitcoin/issues/22782",
    "id": 906324256,
    "node_id": "IC_kwDOABII5842BWkg",
    "user": {
      "login": "naumenkogs",
      "id": 7975071,
      "node_id": "MDQ6VXNlcjc5NzUwNzE=",
      "avatar_url": "https://avatars.githubusercontent.com/u/7975071?v=4",
      "gravatar_id": "",
      "url": "https://api.github.com/users/naumenkogs",
      "html_url": "https://github.com/naumenkogs",
      "followers_url": "https://api.github.com/users/naumenkogs/followers",
      "following_url": "https://api.github.com/users/naumenkogs/following{/other_user}",
      "gists_url": "https://api.github.com/users/naumenkogs/gists{/gist_id}",
      "starred_url": "https://api.github.com/users/naumenkogs/starred{/owner}{/repo}",
      "subscriptions_url": "https://api.github.com/users/naumenkogs/subscriptions",
      "organizations_url": "https://api.github.com/users/naumenkogs/orgs",
      "repos_url": "https://api.github.com/users/naumenkogs/repos",
      "events_url": "https://api.github.com/users/naumenkogs/events{/privacy}",
      "received_events_url": "https://api.github.com/users/naumenkogs/received_events",
      "type": "User",
      "site_admin": false
    },
    "created_at": "2021-08-26T11:31:24Z",
    "updated_at": "2021-08-26T11:31:24Z",
    "author_association": "MEMBER",
    "body_html": "<p dir=\"auto\">utACK <a class=\"commit-link\" data-hovercard-type=\"commit\" data-hovercard-url=\"https://github.com/bitcoin/bitcoin/commit/fa9eade142964d5482fe8d2109fb67a9556ae93d/hovercard\" href=\"https://github.com/bitcoin/bitcoin/commit/fa9eade142964d5482fe8d2109fb67a9556ae93d\"><tt>fa9eade</tt></a></p>",
    "body_text": "utACK fa9eade",
    "body": "utACK fa9eade142964d5482fe8d2109fb67a9556ae93d",
    "reactions": {
      "url": "https://api.github.com/repos/bitcoin/bitcoin/issues/comments/906324256/reactions",
      "total_count": 0,
      "+1": 0,
      "-1": 0,
      "laugh": 0,
      "hooray": 0,
      "confused": 0,
      "heart": 0,
      "rocket": 0,
      "eyes": 0
    },
    "performed_via_github_app": null
  }
]
