{
  "url": "https://api.github.com/repos/bitcoin/bitcoin/issues/21748",
  "repository_url": "https://api.github.com/repos/bitcoin/bitcoin",
  "labels_url": "https://api.github.com/repos/bitcoin/bitcoin/issues/21748/labels{/name}",
  "comments_url": "https://api.github.com/repos/bitcoin/bitcoin/issues/21748/comments",
  "events_url": "https://api.github.com/repos/bitcoin/bitcoin/issues/21748/events",
  "html_url": "https://github.com/bitcoin/bitcoin/pull/21748",
  "id": 864527372,
  "node_id": "MDExOlB1bGxSZXF1ZXN0NjIwNzQ3NzUy",
  "number": 21748,
  "title": ".",
  "user": {
    "login": "widecoin-project",
    "id": 81142262,
    "node_id": "MDEyOk9yZ2FuaXphdGlvbjgxMTQyMjYy",
    "avatar_url": "https://avatars.githubusercontent.com/u/81142262?v=4",
    "gravatar_id": "",
    "url": "https://api.github.com/users/widecoin-project",
    "html_url": "https://github.com/widecoin-project",
    "followers_url": "https://api.github.com/users/widecoin-project/followers",
    "following_url": "https://api.github.com/users/widecoin-project/following{/other_user}",
    "gists_url": "https://api.github.com/users/widecoin-project/gists{/gist_id}",
    "starred_url": "https://api.github.com/users/widecoin-project/starred{/owner}{/repo}",
    "subscriptions_url": "https://api.github.com/users/widecoin-project/subscriptions",
    "organizations_url": "https://api.github.com/users/widecoin-project/orgs",
    "repos_url": "https://api.github.com/users/widecoin-project/repos",
    "events_url": "https://api.github.com/users/widecoin-project/events{/privacy}",
    "received_events_url": "https://api.github.com/users/widecoin-project/received_events",
    "type": "Organization",
    "site_admin": false
  },
  "labels": [

  ],
  "state": "closed",
  "locked": true,
  "assignee": null,
  "assignees": [

  ],
  "milestone": null,
  "comments": 1,
  "created_at": "2021-04-22T04:28:25Z",
  "updated_at": "2021-04-23T02:06:59Z",
  "closed_at": "2021-04-22T04:28:57Z",
  "author_association": "NONE",
  "active_lock_reason": null,
  "draft": false,
  "pull_request": {
    "url": "https://api.github.com/repos/bitcoin/bitcoin/pulls/21748",
    "html_url": "https://github.com/bitcoin/bitcoin/pull/21748",
    "diff_url": "https://github.com/bitcoin/bitcoin/pull/21748.diff",
    "patch_url": "https://github.com/bitcoin/bitcoin/pull/21748.patch",
    "merged_at": null
  },
  "body_html": "\n\n",
  "body_text": "",
  "body": "<!--\r\n*** Please remove the following help text before submitting: ***\r\n\r\nPull requests without a rationale and clear improvement may be closed\r\nimmediately.\r\n\r\nGUI-related pull requests should be opened against\r\nhttps://github.com/bitcoin-core/gui\r\nfirst. See CONTRIBUTING.md\r\n-->\r\n\r\n<!--\r\nPlease provide clear motivation for your patch and explain how it improves\r\nBitcoin Core user experience or Bitcoin Core developer experience\r\nsignificantly:\r\n\r\n* Any test improvements or new tests that improve coverage are always welcome.\r\n* All other changes should have accompanying unit tests (see `src/test/`) or\r\n  functional tests (see `test/`). Contributors should note which tests cover\r\n  modified code. If no tests exist for a region of modified code, new tests\r\n  should accompany the change.\r\n* Bug fixes are most welcome when they come with steps to reproduce or an\r\n  explanation of the potential issue as well as reasoning for the way the bug\r\n  was fixed.\r\n* Features are welcome, but might be rejected due to design or scope issues.\r\n  If a feature is based on a lot of dependencies, contributors should first\r\n  consider building the system outside of Bitcoin Core, if possible.\r\n* Refactoring changes are only accepted if they are required for a feature or\r\n  bug fix or otherwise improve developer experience significantly. For example,\r\n  most \"code style\" refactoring changes require a thorough explanation why they\r\n  are useful, what downsides they have and why they *significantly* improve\r\n  developer experience or avoid serious programming bugs. Note that code style\r\n  is often a subjective matter. Unless they are explicitly mentioned to be\r\n  preferred in the [developer notes](/doc/developer-notes.md), stylistic code\r\n  changes are usually rejected.\r\n-->\r\n\r\n<!--\r\nBitcoin Core has a thorough review process and even the most trivial change\r\nneeds to pass a lot of eyes and requires non-zero or even substantial time\r\neffort to review. There is a huge lack of active reviewers on the project, so\r\npatches often sit for a long time.\r\n-->\r\n",
  "closed_by": {
    "login": "fanquake",
    "id": 863730,
    "node_id": "MDQ6VXNlcjg2MzczMA==",
    "avatar_url": "https://avatars.githubusercontent.com/u/863730?v=4",
    "gravatar_id": "",
    "url": "https://api.github.com/users/fanquake",
    "html_url": "https://github.com/fanquake",
    "followers_url": "https://api.github.com/users/fanquake/followers",
    "following_url": "https://api.github.com/users/fanquake/following{/other_user}",
    "gists_url": "https://api.github.com/users/fanquake/gists{/gist_id}",
    "starred_url": "https://api.github.com/users/fanquake/starred{/owner}{/repo}",
    "subscriptions_url": "https://api.github.com/users/fanquake/subscriptions",
    "organizations_url": "https://api.github.com/users/fanquake/orgs",
    "repos_url": "https://api.github.com/users/fanquake/repos",
    "events_url": "https://api.github.com/users/fanquake/events{/privacy}",
    "received_events_url": "https://api.github.com/users/fanquake/received_events",
    "type": "User",
    "site_admin": false
  },
  "reactions": {
    "url": "https://api.github.com/repos/bitcoin/bitcoin/issues/21748/reactions",
    "total_count": 0,
    "+1": 0,
    "-1": 0,
    "laugh": 0,
    "hooray": 0,
    "confused": 0,
    "heart": 0,
    "rocket": 0,
    "eyes": 0
  },
  "timeline_url": "https://api.github.com/repos/bitcoin/bitcoin/issues/21748/timeline",
  "performed_via_github_app": null,
  "state_reason": null
}
