[
  {
    "url": "https://api.github.com/repos/bitcoin/bitcoin/issues/comments/1342670292",
    "html_url": "https://github.com/bitcoin/bitcoin/issues/26655#issuecomment-1342670292",
    "issue_url": "https://api.github.com/repos/bitcoin/bitcoin/issues/26655",
    "id": 1342670292,
    "node_id": "IC_kwDOABII585QB4XU",
    "user": {
      "login": "fanquake",
      "id": 863730,
      "node_id": "MDQ6VXNlcjg2MzczMA==",
      "avatar_url": "https://avatars.githubusercontent.com/u/863730?v=4",
      "gravatar_id": "",
      "url": "https://api.github.com/users/fanquake",
      "html_url": "https://github.com/fanquake",
      "followers_url": "https://api.github.com/users/fanquake/followers",
      "following_url": "https://api.github.com/users/fanquake/following{/other_user}",
      "gists_url": "https://api.github.com/users/fanquake/gists{/gist_id}",
      "starred_url": "https://api.github.com/users/fanquake/starred{/owner}{/repo}",
      "subscriptions_url": "https://api.github.com/users/fanquake/subscriptions",
      "organizations_url": "https://api.github.com/users/fanquake/orgs",
      "repos_url": "https://api.github.com/users/fanquake/repos",
      "events_url": "https://api.github.com/users/fanquake/events{/privacy}",
      "received_events_url": "https://api.github.com/users/fanquake/received_events",
      "type": "User",
      "site_admin": false
    },
    "created_at": "2022-12-08T12:40:24Z",
    "updated_at": "2022-12-08T12:40:24Z",
    "author_association": "MEMBER",
    "body_html": "<p dir=\"auto\">cc <a class=\"user-mention notranslate\" data-hovercard-type=\"user\" data-hovercard-url=\"/users/achow101/hovercard\" data-octo-click=\"hovercard-link-click\" data-octo-dimensions=\"link_type:self\" href=\"https://github.com/achow101\">@achow101</a></p>",
    "body_text": "cc @achow101",
    "body": "cc @achow101 ",
    "reactions": {
      "url": "https://api.github.com/repos/bitcoin/bitcoin/issues/comments/1342670292/reactions",
      "total_count": 0,
      "+1": 0,
      "-1": 0,
      "laugh": 0,
      "hooray": 0,
      "confused": 0,
      "heart": 0,
      "rocket": 0,
      "eyes": 0
    },
    "performed_via_github_app": null
  },
  {
    "url": "https://api.github.com/repos/bitcoin/bitcoin/issues/comments/1342977631",
    "html_url": "https://github.com/bitcoin/bitcoin/issues/26655#issuecomment-1342977631",
    "issue_url": "https://api.github.com/repos/bitcoin/bitcoin/issues/26655",
    "id": 1342977631,
    "node_id": "IC_kwDOABII585QDDZf",
    "user": {
      "login": "john-moffett",
      "id": 116917595,
      "node_id": "U_kgDOBvgFWw",
      "avatar_url": "https://avatars.githubusercontent.com/u/116917595?v=4",
      "gravatar_id": "",
      "url": "https://api.github.com/users/john-moffett",
      "html_url": "https://github.com/john-moffett",
      "followers_url": "https://api.github.com/users/john-moffett/followers",
      "following_url": "https://api.github.com/users/john-moffett/following{/other_user}",
      "gists_url": "https://api.github.com/users/john-moffett/gists{/gist_id}",
      "starred_url": "https://api.github.com/users/john-moffett/starred{/owner}{/repo}",
      "subscriptions_url": "https://api.github.com/users/john-moffett/subscriptions",
      "organizations_url": "https://api.github.com/users/john-moffett/orgs",
      "repos_url": "https://api.github.com/users/john-moffett/repos",
      "events_url": "https://api.github.com/users/john-moffett/events{/privacy}",
      "received_events_url": "https://api.github.com/users/john-moffett/received_events",
      "type": "User",
      "site_admin": false
    },
    "created_at": "2022-12-08T16:24:37Z",
    "updated_at": "2022-12-08T16:24:37Z",
    "author_association": "CONTRIBUTOR",
    "body_html": "<blockquote>\n<p dir=\"auto\">Even though the wallet just got created.</p>\n</blockquote>\n<p dir=\"auto\">How was it initially created? Was it with the <code class=\"notranslate\">bitcoin-wallet</code> <code class=\"notranslate\">create</code> command like in your reproduction steps?</p>",
    "body_text": "Even though the wallet just got created.\n\nHow was it initially created? Was it with the bitcoin-wallet create command like in your reproduction steps?",
    "body": "> Even though the wallet just got created.\r\n\r\nHow was it initially created? Was it with the `bitcoin-wallet` `create` command like in your reproduction steps?\r\n\r\n",
    "reactions": {
      "url": "https://api.github.com/repos/bitcoin/bitcoin/issues/comments/1342977631/reactions",
      "total_count": 0,
      "+1": 0,
      "-1": 0,
      "laugh": 0,
      "hooray": 0,
      "confused": 0,
      "heart": 0,
      "rocket": 0,
      "eyes": 0
    },
    "performed_via_github_app": null
  },
  {
    "url": "https://api.github.com/repos/bitcoin/bitcoin/issues/comments/1343019326",
    "html_url": "https://github.com/bitcoin/bitcoin/issues/26655#issuecomment-1343019326",
    "issue_url": "https://api.github.com/repos/bitcoin/bitcoin/issues/26655",
    "id": 1343019326,
    "node_id": "IC_kwDOABII585QDNk-",
    "user": {
      "login": "achow101",
      "id": 3782274,
      "node_id": "MDQ6VXNlcjM3ODIyNzQ=",
      "avatar_url": "https://avatars.githubusercontent.com/u/3782274?v=4",
      "gravatar_id": "",
      "url": "https://api.github.com/users/achow101",
      "html_url": "https://github.com/achow101",
      "followers_url": "https://api.github.com/users/achow101/followers",
      "following_url": "https://api.github.com/users/achow101/following{/other_user}",
      "gists_url": "https://api.github.com/users/achow101/gists{/gist_id}",
      "starred_url": "https://api.github.com/users/achow101/starred{/owner}{/repo}",
      "subscriptions_url": "https://api.github.com/users/achow101/subscriptions",
      "organizations_url": "https://api.github.com/users/achow101/orgs",
      "repos_url": "https://api.github.com/users/achow101/repos",
      "events_url": "https://api.github.com/users/achow101/events{/privacy}",
      "received_events_url": "https://api.github.com/users/achow101/received_events",
      "type": "User",
      "site_admin": false
    },
    "created_at": "2022-12-08T16:58:36Z",
    "updated_at": "2022-12-08T16:58:36Z",
    "author_association": "MEMBER",
    "body_html": "<p dir=\"auto\">The provided wallet lacks a <code class=\"notranslate\">bestblock</code> record which is used to inform Bitcoin Core of the chain that was last scanned with this wallet. Without this record, we assume the worst case which is that a rescan from genesis is required. As pruned nodes are unable to perform a rescan from genesis, such wallets will result in the error shown. However archival nodes may not observe a full rescan as after checking the <code class=\"notranslate\">bestblock</code> record, we will check the key birthdays to determine the scope of the rescan.</p>\n<p dir=\"auto\">Wallets lacking a <code class=\"notranslate\">bestblock</code> record can be created using wallet tool <code class=\"notranslate\">bitcoin-wallet</code>. This is because the wallet tool is a contextless tool - it does not have access to the blockchain. Thus it is unable to insert a correct <code class=\"notranslate\">bestblock</code> record into newly created wallets. Given that your reproduction steps include the usage of the wallet tool, I suspect that the reason for this error is that the user is creating wallets with the wallet tool and then trying to load them into a pruned node.</p>\n<p dir=\"auto\">If the user only needs to create new wallets, they can do so with the <code class=\"notranslate\">createwallet</code> RPC. This should avoid this problem. If the issue is that they need to load a particular wallet that was creating using the wallet tool, then a workaround would be to load the wallet into an archival node to get the <code class=\"notranslate\">bestblock</code> record written, then load the wallet into the pruned node. Alternatively, they could modify the database directly and insert a <code class=\"notranslate\">bestblock</code> record borrowed from a different wallet that could be loaded.</p>",
    "body_text": "The provided wallet lacks a bestblock record which is used to inform Bitcoin Core of the chain that was last scanned with this wallet. Without this record, we assume the worst case which is that a rescan from genesis is required. As pruned nodes are unable to perform a rescan from genesis, such wallets will result in the error shown. However archival nodes may not observe a full rescan as after checking the bestblock record, we will check the key birthdays to determine the scope of the rescan.\nWallets lacking a bestblock record can be created using wallet tool bitcoin-wallet. This is because the wallet tool is a contextless tool - it does not have access to the blockchain. Thus it is unable to insert a correct bestblock record into newly created wallets. Given that your reproduction steps include the usage of the wallet tool, I suspect that the reason for this error is that the user is creating wallets with the wallet tool and then trying to load them into a pruned node.\nIf the user only needs to create new wallets, they can do so with the createwallet RPC. This should avoid this problem. If the issue is that they need to load a particular wallet that was creating using the wallet tool, then a workaround would be to load the wallet into an archival node to get the bestblock record written, then load the wallet into the pruned node. Alternatively, they could modify the database directly and insert a bestblock record borrowed from a different wallet that could be loaded.",
    "body": "The provided wallet lacks a `bestblock` record which is used to inform Bitcoin Core of the chain that was last scanned with this wallet. Without this record, we assume the worst case which is that a rescan from genesis is required. As pruned nodes are unable to perform a rescan from genesis, such wallets will result in the error shown. However archival nodes may not observe a full rescan as after checking the `bestblock` record, we will check the key birthdays to determine the scope of the rescan.\r\n\r\nWallets lacking a `bestblock` record can be created using wallet tool `bitcoin-wallet`. This is because the wallet tool is a contextless tool - it does not have access to the blockchain. Thus it is unable to insert a correct `bestblock` record into newly created wallets. Given that your reproduction steps include the usage of the wallet tool, I suspect that the reason for this error is that the user is creating wallets with the wallet tool and then trying to load them into a pruned node.\r\n\r\nIf the user only needs to create new wallets, they can do so with the `createwallet` RPC. This should avoid this problem. If the issue is that they need to load a particular wallet that was creating using the wallet tool, then a workaround would be to load the wallet into an archival node to get the `bestblock` record written, then load the wallet into the pruned node. Alternatively, they could modify the database directly and insert a `bestblock` record borrowed from a different wallet that could be loaded.",
    "reactions": {
      "url": "https://api.github.com/repos/bitcoin/bitcoin/issues/comments/1343019326/reactions",
      "total_count": 0,
      "+1": 0,
      "-1": 0,
      "laugh": 0,
      "hooray": 0,
      "confused": 0,
      "heart": 0,
      "rocket": 0,
      "eyes": 0
    },
    "performed_via_github_app": null
  },
  {
    "url": "https://api.github.com/repos/bitcoin/bitcoin/issues/comments/1343046729",
    "html_url": "https://github.com/bitcoin/bitcoin/issues/26655#issuecomment-1343046729",
    "issue_url": "https://api.github.com/repos/bitcoin/bitcoin/issues/26655",
    "id": 1343046729,
    "node_id": "IC_kwDOABII585QDURJ",
    "user": {
      "login": "maflcko",
      "id": 6399679,
      "node_id": "MDQ6VXNlcjYzOTk2Nzk=",
      "avatar_url": "https://avatars.githubusercontent.com/u/6399679?v=4",
      "gravatar_id": "",
      "url": "https://api.github.com/users/maflcko",
      "html_url": "https://github.com/maflcko",
      "followers_url": "https://api.github.com/users/maflcko/followers",
      "following_url": "https://api.github.com/users/maflcko/following{/other_user}",
      "gists_url": "https://api.github.com/users/maflcko/gists{/gist_id}",
      "starred_url": "https://api.github.com/users/maflcko/starred{/owner}{/repo}",
      "subscriptions_url": "https://api.github.com/users/maflcko/subscriptions",
      "organizations_url": "https://api.github.com/users/maflcko/orgs",
      "repos_url": "https://api.github.com/users/maflcko/repos",
      "events_url": "https://api.github.com/users/maflcko/events{/privacy}",
      "received_events_url": "https://api.github.com/users/maflcko/received_events",
      "type": "User",
      "site_admin": false
    },
    "created_at": "2022-12-08T17:18:31Z",
    "updated_at": "2022-12-08T17:18:31Z",
    "author_association": "MEMBER",
    "body_html": "<p dir=\"auto\">Maybe the wallet could write a bestblock itself, if the birthday is after the last pruned block?</p>",
    "body_text": "Maybe the wallet could write a bestblock itself, if the birthday is after the last pruned block?",
    "body": "Maybe the wallet could write a bestblock itself, if the birthday is after the last pruned block?",
    "reactions": {
      "url": "https://api.github.com/repos/bitcoin/bitcoin/issues/comments/1343046729/reactions",
      "total_count": 0,
      "+1": 0,
      "-1": 0,
      "laugh": 0,
      "hooray": 0,
      "confused": 0,
      "heart": 0,
      "rocket": 0,
      "eyes": 0
    },
    "performed_via_github_app": null
  },
  {
    "url": "https://api.github.com/repos/bitcoin/bitcoin/issues/comments/1343474429",
    "html_url": "https://github.com/bitcoin/bitcoin/issues/26655#issuecomment-1343474429",
    "issue_url": "https://api.github.com/repos/bitcoin/bitcoin/issues/26655",
    "id": 1343474429,
    "node_id": "IC_kwDOABII585QE8r9",
    "user": {
      "login": "achow101",
      "id": 3782274,
      "node_id": "MDQ6VXNlcjM3ODIyNzQ=",
      "avatar_url": "https://avatars.githubusercontent.com/u/3782274?v=4",
      "gravatar_id": "",
      "url": "https://api.github.com/users/achow101",
      "html_url": "https://github.com/achow101",
      "followers_url": "https://api.github.com/users/achow101/followers",
      "following_url": "https://api.github.com/users/achow101/following{/other_user}",
      "gists_url": "https://api.github.com/users/achow101/gists{/gist_id}",
      "starred_url": "https://api.github.com/users/achow101/starred{/owner}{/repo}",
      "subscriptions_url": "https://api.github.com/users/achow101/subscriptions",
      "organizations_url": "https://api.github.com/users/achow101/orgs",
      "repos_url": "https://api.github.com/users/achow101/repos",
      "events_url": "https://api.github.com/users/achow101/events{/privacy}",
      "received_events_url": "https://api.github.com/users/achow101/received_events",
      "type": "User",
      "site_admin": false
    },
    "created_at": "2022-12-08T22:51:20Z",
    "updated_at": "2022-12-08T22:51:20Z",
    "author_association": "MEMBER",
    "body_html": "<blockquote>\n<p dir=\"auto\">Maybe the wallet could write a bestblock itself, if the birthday is after the last pruned block?</p>\n</blockquote>\n<p dir=\"auto\">We should just do the birthday check first.</p>",
    "body_text": "Maybe the wallet could write a bestblock itself, if the birthday is after the last pruned block?\n\nWe should just do the birthday check first.",
    "body": "> Maybe the wallet could write a bestblock itself, if the birthday is after the last pruned block?\r\n\r\nWe should just do the birthday check first.",
    "reactions": {
      "url": "https://api.github.com/repos/bitcoin/bitcoin/issues/comments/1343474429/reactions",
      "total_count": 0,
      "+1": 0,
      "-1": 0,
      "laugh": 0,
      "hooray": 0,
      "confused": 0,
      "heart": 0,
      "rocket": 0,
      "eyes": 0
    },
    "performed_via_github_app": null
  },
  {
    "url": "https://api.github.com/repos/bitcoin/bitcoin/issues/comments/1343981447",
    "html_url": "https://github.com/bitcoin/bitcoin/issues/26655#issuecomment-1343981447",
    "issue_url": "https://api.github.com/repos/bitcoin/bitcoin/issues/26655",
    "id": 1343981447,
    "node_id": "IC_kwDOABII585QG4eH",
    "user": {
      "login": "NicolasDorier",
      "id": 3020646,
      "node_id": "MDQ6VXNlcjMwMjA2NDY=",
      "avatar_url": "https://avatars.githubusercontent.com/u/3020646?v=4",
      "gravatar_id": "",
      "url": "https://api.github.com/users/NicolasDorier",
      "html_url": "https://github.com/NicolasDorier",
      "followers_url": "https://api.github.com/users/NicolasDorier/followers",
      "following_url": "https://api.github.com/users/NicolasDorier/following{/other_user}",
      "gists_url": "https://api.github.com/users/NicolasDorier/gists{/gist_id}",
      "starred_url": "https://api.github.com/users/NicolasDorier/starred{/owner}{/repo}",
      "subscriptions_url": "https://api.github.com/users/NicolasDorier/subscriptions",
      "organizations_url": "https://api.github.com/users/NicolasDorier/orgs",
      "repos_url": "https://api.github.com/users/NicolasDorier/repos",
      "events_url": "https://api.github.com/users/NicolasDorier/events{/privacy}",
      "received_events_url": "https://api.github.com/users/NicolasDorier/received_events",
      "type": "User",
      "site_admin": false
    },
    "created_at": "2022-12-09T08:07:46Z",
    "updated_at": "2022-12-09T08:08:22Z",
    "author_association": "CONTRIBUTOR",
    "body_html": "<p dir=\"auto\"><a class=\"user-mention notranslate\" data-hovercard-type=\"user\" data-hovercard-url=\"/users/achow101/hovercard\" data-octo-click=\"hovercard-link-click\" data-octo-dimensions=\"link_type:self\" href=\"https://github.com/achow101\">@achow101</a> this make sense, but now what doesn't make sense is: Why there is no rescan on any other server?</p>\n<p dir=\"auto\">On my own server, following the same steps, there is no issue in restarting. Even if my node is pruned.</p>",
    "body_text": "@achow101 this make sense, but now what doesn't make sense is: Why there is no rescan on any other server?\nOn my own server, following the same steps, there is no issue in restarting. Even if my node is pruned.",
    "body": "@achow101 this make sense, but now what doesn't make sense is: Why there is no rescan on any other server?\r\n\r\nOn my own server, following the same steps, there is no issue in restarting. Even if my node is pruned.\r\n",
    "reactions": {
      "url": "https://api.github.com/repos/bitcoin/bitcoin/issues/comments/1343981447/reactions",
      "total_count": 0,
      "+1": 0,
      "-1": 0,
      "laugh": 0,
      "hooray": 0,
      "confused": 0,
      "heart": 0,
      "rocket": 0,
      "eyes": 0
    },
    "performed_via_github_app": null
  },
  {
    "url": "https://api.github.com/repos/bitcoin/bitcoin/issues/comments/1344824450",
    "html_url": "https://github.com/bitcoin/bitcoin/issues/26655#issuecomment-1344824450",
    "issue_url": "https://api.github.com/repos/bitcoin/bitcoin/issues/26655",
    "id": 1344824450,
    "node_id": "IC_kwDOABII585QKGSC",
    "user": {
      "login": "achow101",
      "id": 3782274,
      "node_id": "MDQ6VXNlcjM3ODIyNzQ=",
      "avatar_url": "https://avatars.githubusercontent.com/u/3782274?v=4",
      "gravatar_id": "",
      "url": "https://api.github.com/users/achow101",
      "html_url": "https://github.com/achow101",
      "followers_url": "https://api.github.com/users/achow101/followers",
      "following_url": "https://api.github.com/users/achow101/following{/other_user}",
      "gists_url": "https://api.github.com/users/achow101/gists{/gist_id}",
      "starred_url": "https://api.github.com/users/achow101/starred{/owner}{/repo}",
      "subscriptions_url": "https://api.github.com/users/achow101/subscriptions",
      "organizations_url": "https://api.github.com/users/achow101/orgs",
      "repos_url": "https://api.github.com/users/achow101/repos",
      "events_url": "https://api.github.com/users/achow101/events{/privacy}",
      "received_events_url": "https://api.github.com/users/achow101/received_events",
      "type": "User",
      "site_admin": false
    },
    "created_at": "2022-12-09T22:06:22Z",
    "updated_at": "2022-12-09T22:06:22Z",
    "author_association": "MEMBER",
    "body_html": "<blockquote>\n<p dir=\"auto\">Why there is no rescan on any other server?</p>\n<p dir=\"auto\">On my own server, following the same steps, there is no issue in restarting. Even if my node is pruned.</p>\n</blockquote>\n<p dir=\"auto\">That's odd. I'm able to replicate the issue.</p>",
    "body_text": "Why there is no rescan on any other server?\nOn my own server, following the same steps, there is no issue in restarting. Even if my node is pruned.\n\nThat's odd. I'm able to replicate the issue.",
    "body": "> Why there is no rescan on any other server?\r\n> \r\n> On my own server, following the same steps, there is no issue in restarting. Even if my node is pruned.\r\n\r\nThat's odd. I'm able to replicate the issue.",
    "reactions": {
      "url": "https://api.github.com/repos/bitcoin/bitcoin/issues/comments/1344824450/reactions",
      "total_count": 0,
      "+1": 0,
      "-1": 0,
      "laugh": 0,
      "hooray": 0,
      "confused": 0,
      "heart": 0,
      "rocket": 0,
      "eyes": 0
    },
    "performed_via_github_app": null
  },
  {
    "url": "https://api.github.com/repos/bitcoin/bitcoin/issues/comments/1345243554",
    "html_url": "https://github.com/bitcoin/bitcoin/issues/26655#issuecomment-1345243554",
    "issue_url": "https://api.github.com/repos/bitcoin/bitcoin/issues/26655",
    "id": 1345243554,
    "node_id": "IC_kwDOABII585QLsmi",
    "user": {
      "login": "NicolasDorier",
      "id": 3020646,
      "node_id": "MDQ6VXNlcjMwMjA2NDY=",
      "avatar_url": "https://avatars.githubusercontent.com/u/3020646?v=4",
      "gravatar_id": "",
      "url": "https://api.github.com/users/NicolasDorier",
      "html_url": "https://github.com/NicolasDorier",
      "followers_url": "https://api.github.com/users/NicolasDorier/followers",
      "following_url": "https://api.github.com/users/NicolasDorier/following{/other_user}",
      "gists_url": "https://api.github.com/users/NicolasDorier/gists{/gist_id}",
      "starred_url": "https://api.github.com/users/NicolasDorier/starred{/owner}{/repo}",
      "subscriptions_url": "https://api.github.com/users/NicolasDorier/subscriptions",
      "organizations_url": "https://api.github.com/users/NicolasDorier/orgs",
      "repos_url": "https://api.github.com/users/NicolasDorier/repos",
      "events_url": "https://api.github.com/users/NicolasDorier/events{/privacy}",
      "received_events_url": "https://api.github.com/users/NicolasDorier/received_events",
      "type": "User",
      "site_admin": false
    },
    "created_at": "2022-12-10T11:27:02Z",
    "updated_at": "2022-12-10T11:28:44Z",
    "author_association": "CONTRIBUTOR",
    "body_html": "<p dir=\"auto\"><a class=\"user-mention notranslate\" data-hovercard-type=\"user\" data-hovercard-url=\"/users/achow101/hovercard\" data-octo-click=\"hovercard-link-click\" data-octo-dimensions=\"link_type:self\" href=\"https://github.com/achow101\">@achow101</a> I confirm I could reproduce on another server.<br>\nI don't know why on some server I couldn't.</p>\n<p dir=\"auto\">I am also surprised I only saw this problem once.</p>",
    "body_text": "@achow101 I confirm I could reproduce on another server.\nI don't know why on some server I couldn't.\nI am also surprised I only saw this problem once.",
    "body": "@achow101 I confirm I could reproduce on another server.\r\nI don't know why on some server I couldn't.\r\n\r\nI am also surprised I only saw this problem once.",
    "reactions": {
      "url": "https://api.github.com/repos/bitcoin/bitcoin/issues/comments/1345243554/reactions",
      "total_count": 0,
      "+1": 0,
      "-1": 0,
      "laugh": 0,
      "hooray": 0,
      "confused": 0,
      "heart": 0,
      "rocket": 0,
      "eyes": 0
    },
    "performed_via_github_app": null
  },
  {
    "url": "https://api.github.com/repos/bitcoin/bitcoin/issues/comments/1345244573",
    "html_url": "https://github.com/bitcoin/bitcoin/issues/26655#issuecomment-1345244573",
    "issue_url": "https://api.github.com/repos/bitcoin/bitcoin/issues/26655",
    "id": 1345244573,
    "node_id": "IC_kwDOABII585QLs2d",
    "user": {
      "login": "NicolasDorier",
      "id": 3020646,
      "node_id": "MDQ6VXNlcjMwMjA2NDY=",
      "avatar_url": "https://avatars.githubusercontent.com/u/3020646?v=4",
      "gravatar_id": "",
      "url": "https://api.github.com/users/NicolasDorier",
      "html_url": "https://github.com/NicolasDorier",
      "followers_url": "https://api.github.com/users/NicolasDorier/followers",
      "following_url": "https://api.github.com/users/NicolasDorier/following{/other_user}",
      "gists_url": "https://api.github.com/users/NicolasDorier/gists{/gist_id}",
      "starred_url": "https://api.github.com/users/NicolasDorier/starred{/owner}{/repo}",
      "subscriptions_url": "https://api.github.com/users/NicolasDorier/subscriptions",
      "organizations_url": "https://api.github.com/users/NicolasDorier/orgs",
      "repos_url": "https://api.github.com/users/NicolasDorier/repos",
      "events_url": "https://api.github.com/users/NicolasDorier/events{/privacy}",
      "received_events_url": "https://api.github.com/users/NicolasDorier/received_events",
      "type": "User",
      "site_admin": false
    },
    "created_at": "2022-12-10T11:32:46Z",
    "updated_at": "2022-12-10T11:32:46Z",
    "author_association": "CONTRIBUTOR",
    "body_html": "<p dir=\"auto\">I think I will switch to use the RPC API to create the wallet rather than the utility.</p>",
    "body_text": "I think I will switch to use the RPC API to create the wallet rather than the utility.",
    "body": "I think I will switch to use the RPC API to create the wallet rather than the utility.",
    "reactions": {
      "url": "https://api.github.com/repos/bitcoin/bitcoin/issues/comments/1345244573/reactions",
      "total_count": 0,
      "+1": 0,
      "-1": 0,
      "laugh": 0,
      "hooray": 0,
      "confused": 0,
      "heart": 0,
      "rocket": 0,
      "eyes": 0
    },
    "performed_via_github_app": null
  },
  {
    "url": "https://api.github.com/repos/bitcoin/bitcoin/issues/comments/1346040983",
    "html_url": "https://github.com/bitcoin/bitcoin/issues/26655#issuecomment-1346040983",
    "issue_url": "https://api.github.com/repos/bitcoin/bitcoin/issues/26655",
    "id": 1346040983,
    "node_id": "IC_kwDOABII585QOvSX",
    "user": {
      "login": "NicolasDorier",
      "id": 3020646,
      "node_id": "MDQ6VXNlcjMwMjA2NDY=",
      "avatar_url": "https://avatars.githubusercontent.com/u/3020646?v=4",
      "gravatar_id": "",
      "url": "https://api.github.com/users/NicolasDorier",
      "html_url": "https://github.com/NicolasDorier",
      "followers_url": "https://api.github.com/users/NicolasDorier/followers",
      "following_url": "https://api.github.com/users/NicolasDorier/following{/other_user}",
      "gists_url": "https://api.github.com/users/NicolasDorier/gists{/gist_id}",
      "starred_url": "https://api.github.com/users/NicolasDorier/starred{/owner}{/repo}",
      "subscriptions_url": "https://api.github.com/users/NicolasDorier/subscriptions",
      "organizations_url": "https://api.github.com/users/NicolasDorier/orgs",
      "repos_url": "https://api.github.com/users/NicolasDorier/repos",
      "events_url": "https://api.github.com/users/NicolasDorier/events{/privacy}",
      "received_events_url": "https://api.github.com/users/NicolasDorier/received_events",
      "type": "User",
      "site_admin": false
    },
    "created_at": "2022-12-12T08:01:48Z",
    "updated_at": "2022-12-12T08:01:48Z",
    "author_association": "CONTRIBUTOR",
    "body_html": "<p dir=\"auto\">Just here to confirm: I switched from creating the wallet through <code class=\"notranslate\">bitcoin-wallet</code> utility to using RPC.<br>\nIt fixes our issue, though it should never have been an issue on the first place and <a class=\"issue-link js-issue-link\" data-error-text=\"Failed to load title\" data-id=\"1487548732\" data-permission-text=\"Title is private\" data-url=\"https://github.com/bitcoin/bitcoin/issues/26679\" data-hovercard-type=\"pull_request\" data-hovercard-url=\"/bitcoin/bitcoin/pull/26679/hovercard\" href=\"https://github.com/bitcoin/bitcoin/pull/26679\">#26679</a> seems to fix it. (didn't tested it though)</p>",
    "body_text": "Just here to confirm: I switched from creating the wallet through bitcoin-wallet utility to using RPC.\nIt fixes our issue, though it should never have been an issue on the first place and #26679 seems to fix it. (didn't tested it though)",
    "body": "Just here to confirm: I switched from creating the wallet through `bitcoin-wallet` utility to using RPC.\r\nIt fixes our issue, though it should never have been an issue on the first place and #26679 seems to fix it. (didn't tested it though)",
    "reactions": {
      "url": "https://api.github.com/repos/bitcoin/bitcoin/issues/comments/1346040983/reactions",
      "total_count": 0,
      "+1": 0,
      "-1": 0,
      "laugh": 0,
      "hooray": 0,
      "confused": 0,
      "heart": 0,
      "rocket": 0,
      "eyes": 0
    },
    "performed_via_github_app": null
  }
]
