{
  "url": "https://api.github.com/repos/bitcoin/bitcoin/issues/8055",
  "repository_url": "https://api.github.com/repos/bitcoin/bitcoin",
  "labels_url": "https://api.github.com/repos/bitcoin/bitcoin/issues/8055/labels{/name}",
  "comments_url": "https://api.github.com/repos/bitcoin/bitcoin/issues/8055/comments",
  "events_url": "https://api.github.com/repos/bitcoin/bitcoin/issues/8055/events",
  "html_url": "https://github.com/bitcoin/bitcoin/pull/8055",
  "id": 154888474,
  "node_id": "MDExOlB1bGxSZXF1ZXN0NzAxMTExMTI=",
  "number": 8055,
  "title": "[Wallet] Improve Wallet API Encapsulation",
  "user": {
    "login": "pstratem",
    "id": 620611,
    "node_id": "MDQ6VXNlcjYyMDYxMQ==",
    "avatar_url": "https://avatars.githubusercontent.com/u/620611?v=4",
    "gravatar_id": "",
    "url": "https://api.github.com/users/pstratem",
    "html_url": "https://github.com/pstratem",
    "followers_url": "https://api.github.com/users/pstratem/followers",
    "following_url": "https://api.github.com/users/pstratem/following{/other_user}",
    "gists_url": "https://api.github.com/users/pstratem/gists{/gist_id}",
    "starred_url": "https://api.github.com/users/pstratem/starred{/owner}{/repo}",
    "subscriptions_url": "https://api.github.com/users/pstratem/subscriptions",
    "organizations_url": "https://api.github.com/users/pstratem/orgs",
    "repos_url": "https://api.github.com/users/pstratem/repos",
    "events_url": "https://api.github.com/users/pstratem/events{/privacy}",
    "received_events_url": "https://api.github.com/users/pstratem/received_events",
    "type": "User",
    "site_admin": false
  },
  "labels": [
    {
      "id": 135961,
      "node_id": "MDU6TGFiZWwxMzU5NjE=",
      "url": "https://api.github.com/repos/bitcoin/bitcoin/labels/Refactoring",
      "name": "Refactoring",
      "color": "E6F6D6",
      "default": false,
      "description": null
    }
  ],
  "state": "closed",
  "locked": true,
  "assignee": null,
  "assignees": [

  ],
  "milestone": null,
  "comments": 2,
  "created_at": "2016-05-15T03:41:57Z",
  "updated_at": "2021-09-08T11:01:29Z",
  "closed_at": "2016-05-16T23:06:43Z",
  "author_association": "CONTRIBUTOR",
  "active_lock_reason": "resolved",
  "draft": false,
  "pull_request": {
    "url": "https://api.github.com/repos/bitcoin/bitcoin/pulls/8055",
    "html_url": "https://github.com/bitcoin/bitcoin/pull/8055",
    "diff_url": "https://github.com/bitcoin/bitcoin/pull/8055.diff",
    "patch_url": "https://github.com/bitcoin/bitcoin/pull/8055.patch",
    "merged_at": null
  },
  "body_html": "<p dir=\"auto\">The principle goal here is to make CWalletDB an internal implementation detail of CWallet.</p>\n<p dir=\"auto\">The only remaining reference to CWalletDB in the API are for accounting tests, which can be cleaned up in a future PR.</p>",
  "body_text": "The principle goal here is to make CWalletDB an internal implementation detail of CWallet.\nThe only remaining reference to CWalletDB in the API are for accounting tests, which can be cleaned up in a future PR.",
  "body": "The principle goal here is to make CWalletDB an internal implementation detail of CWallet.\n\nThe only remaining reference to CWalletDB in the API are for accounting tests, which can be cleaned up in a future PR.\n",
  "closed_by": {
    "login": "pstratem",
    "id": 620611,
    "node_id": "MDQ6VXNlcjYyMDYxMQ==",
    "avatar_url": "https://avatars.githubusercontent.com/u/620611?v=4",
    "gravatar_id": "",
    "url": "https://api.github.com/users/pstratem",
    "html_url": "https://github.com/pstratem",
    "followers_url": "https://api.github.com/users/pstratem/followers",
    "following_url": "https://api.github.com/users/pstratem/following{/other_user}",
    "gists_url": "https://api.github.com/users/pstratem/gists{/gist_id}",
    "starred_url": "https://api.github.com/users/pstratem/starred{/owner}{/repo}",
    "subscriptions_url": "https://api.github.com/users/pstratem/subscriptions",
    "organizations_url": "https://api.github.com/users/pstratem/orgs",
    "repos_url": "https://api.github.com/users/pstratem/repos",
    "events_url": "https://api.github.com/users/pstratem/events{/privacy}",
    "received_events_url": "https://api.github.com/users/pstratem/received_events",
    "type": "User",
    "site_admin": false
  },
  "reactions": {
    "url": "https://api.github.com/repos/bitcoin/bitcoin/issues/8055/reactions",
    "total_count": 0,
    "+1": 0,
    "-1": 0,
    "laugh": 0,
    "hooray": 0,
    "confused": 0,
    "heart": 0,
    "rocket": 0,
    "eyes": 0
  },
  "timeline_url": "https://api.github.com/repos/bitcoin/bitcoin/issues/8055/timeline",
  "performed_via_github_app": null,
  "state_reason": null
}
