[
  {
    "url": "https://api.github.com/repos/bitcoin/bitcoin/issues/comments/9448925",
    "html_url": "https://github.com/bitcoin/bitcoin/pull/1934#issuecomment-9448925",
    "issue_url": "https://api.github.com/repos/bitcoin/bitcoin/issues/1934",
    "id": 9448925,
    "node_id": "MDEyOklzc3VlQ29tbWVudDk0NDg5MjU=",
    "user": {
      "login": "sipa",
      "id": 548488,
      "node_id": "MDQ6VXNlcjU0ODQ4OA==",
      "avatar_url": "https://avatars.githubusercontent.com/u/548488?v=4",
      "gravatar_id": "",
      "url": "https://api.github.com/users/sipa",
      "html_url": "https://github.com/sipa",
      "followers_url": "https://api.github.com/users/sipa/followers",
      "following_url": "https://api.github.com/users/sipa/following{/other_user}",
      "gists_url": "https://api.github.com/users/sipa/gists{/gist_id}",
      "starred_url": "https://api.github.com/users/sipa/starred{/owner}{/repo}",
      "subscriptions_url": "https://api.github.com/users/sipa/subscriptions",
      "organizations_url": "https://api.github.com/users/sipa/orgs",
      "repos_url": "https://api.github.com/users/sipa/repos",
      "events_url": "https://api.github.com/users/sipa/events{/privacy}",
      "received_events_url": "https://api.github.com/users/sipa/received_events",
      "type": "User",
      "site_admin": false
    },
    "created_at": "2012-10-15T15:23:15Z",
    "updated_at": "2012-10-15T15:23:15Z",
    "author_association": "MEMBER",
    "body_html": "<p dir=\"auto\">I don't see why this is a bugfix. The result of c_str is guaranteed to remain accessible as long as the backing string isn't modified.</p>",
    "body_text": "I don't see why this is a bugfix. The result of c_str is guaranteed to remain accessible as long as the backing string isn't modified.",
    "body": "I don't see why this is a bugfix. The result of c_str is guaranteed to remain accessible as long as the backing string isn't modified.\n",
    "reactions": {
      "url": "https://api.github.com/repos/bitcoin/bitcoin/issues/comments/9448925/reactions",
      "total_count": 0,
      "+1": 0,
      "-1": 0,
      "laugh": 0,
      "hooray": 0,
      "confused": 0,
      "heart": 0,
      "rocket": 0,
      "eyes": 0
    },
    "performed_via_github_app": null
  },
  {
    "url": "https://api.github.com/repos/bitcoin/bitcoin/issues/comments/9449548",
    "html_url": "https://github.com/bitcoin/bitcoin/pull/1934#issuecomment-9449548",
    "issue_url": "https://api.github.com/repos/bitcoin/bitcoin/issues/1934",
    "id": 9449548,
    "node_id": "MDEyOklzc3VlQ29tbWVudDk0NDk1NDg=",
    "user": {
      "login": "luke-jr",
      "id": 1095675,
      "node_id": "MDQ6VXNlcjEwOTU2NzU=",
      "avatar_url": "https://avatars.githubusercontent.com/u/1095675?v=4",
      "gravatar_id": "",
      "url": "https://api.github.com/users/luke-jr",
      "html_url": "https://github.com/luke-jr",
      "followers_url": "https://api.github.com/users/luke-jr/followers",
      "following_url": "https://api.github.com/users/luke-jr/following{/other_user}",
      "gists_url": "https://api.github.com/users/luke-jr/gists{/gist_id}",
      "starred_url": "https://api.github.com/users/luke-jr/starred{/owner}{/repo}",
      "subscriptions_url": "https://api.github.com/users/luke-jr/subscriptions",
      "organizations_url": "https://api.github.com/users/luke-jr/orgs",
      "repos_url": "https://api.github.com/users/luke-jr/repos",
      "events_url": "https://api.github.com/users/luke-jr/events{/privacy}",
      "received_events_url": "https://api.github.com/users/luke-jr/received_events",
      "type": "User",
      "site_admin": false
    },
    "created_at": "2012-10-15T15:38:25Z",
    "updated_at": "2012-10-15T15:38:25Z",
    "author_association": "MEMBER",
    "body_html": "<p dir=\"auto\">Hmm, didn't know that. Okay.</p>",
    "body_text": "Hmm, didn't know that. Okay.",
    "body": "Hmm, didn't know that. Okay.\n",
    "reactions": {
      "url": "https://api.github.com/repos/bitcoin/bitcoin/issues/comments/9449548/reactions",
      "total_count": 0,
      "+1": 0,
      "-1": 0,
      "laugh": 0,
      "hooray": 0,
      "confused": 0,
      "heart": 0,
      "rocket": 0,
      "eyes": 0
    },
    "performed_via_github_app": null
  },
  {
    "url": "https://api.github.com/repos/bitcoin/bitcoin/issues/comments/9450768",
    "html_url": "https://github.com/bitcoin/bitcoin/pull/1934#issuecomment-9450768",
    "issue_url": "https://api.github.com/repos/bitcoin/bitcoin/issues/1934",
    "id": 9450768,
    "node_id": "MDEyOklzc3VlQ29tbWVudDk0NTA3Njg=",
    "user": {
      "login": "laanwj",
      "id": 126646,
      "node_id": "MDQ6VXNlcjEyNjY0Ng==",
      "avatar_url": "https://avatars.githubusercontent.com/u/126646?v=4",
      "gravatar_id": "",
      "url": "https://api.github.com/users/laanwj",
      "html_url": "https://github.com/laanwj",
      "followers_url": "https://api.github.com/users/laanwj/followers",
      "following_url": "https://api.github.com/users/laanwj/following{/other_user}",
      "gists_url": "https://api.github.com/users/laanwj/gists{/gist_id}",
      "starred_url": "https://api.github.com/users/laanwj/starred{/owner}{/repo}",
      "subscriptions_url": "https://api.github.com/users/laanwj/subscriptions",
      "organizations_url": "https://api.github.com/users/laanwj/orgs",
      "repos_url": "https://api.github.com/users/laanwj/repos",
      "events_url": "https://api.github.com/users/laanwj/events{/privacy}",
      "received_events_url": "https://api.github.com/users/laanwj/received_events",
      "type": "User",
      "site_admin": false
    },
    "created_at": "2012-10-15T16:09:33Z",
    "updated_at": "2012-10-15T16:09:33Z",
    "author_association": "MEMBER",
    "body_html": "<p dir=\"auto\">I agree that in general it's bad form to store the result of c_str(), as it makes for fragile code, but in this case it's a constant parameter so it's ok.</p>",
    "body_text": "I agree that in general it's bad form to store the result of c_str(), as it makes for fragile code, but in this case it's a constant parameter so it's ok.",
    "body": "I agree that in general it's bad form to store the result of c_str(), as it makes for fragile code, but in this case it's a constant parameter so it's ok.\n",
    "reactions": {
      "url": "https://api.github.com/repos/bitcoin/bitcoin/issues/comments/9450768/reactions",
      "total_count": 0,
      "+1": 0,
      "-1": 0,
      "laugh": 0,
      "hooray": 0,
      "confused": 0,
      "heart": 0,
      "rocket": 0,
      "eyes": 0
    },
    "performed_via_github_app": null
  }
]
