[
  {
    "url": "https://api.github.com/repos/bitcoin/bitcoin/issues/comments/1463634306",
    "html_url": "https://github.com/bitcoin/bitcoin/pull/27238#issuecomment-1463634306",
    "issue_url": "https://api.github.com/repos/bitcoin/bitcoin/issues/27238",
    "id": 1463634306,
    "node_id": "IC_kwDOABII585XPUmC",
    "user": {
      "login": "DrahtBot",
      "id": 39886733,
      "node_id": "MDQ6VXNlcjM5ODg2NzMz",
      "avatar_url": "https://avatars.githubusercontent.com/u/39886733?v=4",
      "gravatar_id": "",
      "url": "https://api.github.com/users/DrahtBot",
      "html_url": "https://github.com/DrahtBot",
      "followers_url": "https://api.github.com/users/DrahtBot/followers",
      "following_url": "https://api.github.com/users/DrahtBot/following{/other_user}",
      "gists_url": "https://api.github.com/users/DrahtBot/gists{/gist_id}",
      "starred_url": "https://api.github.com/users/DrahtBot/starred{/owner}{/repo}",
      "subscriptions_url": "https://api.github.com/users/DrahtBot/subscriptions",
      "organizations_url": "https://api.github.com/users/DrahtBot/orgs",
      "repos_url": "https://api.github.com/users/DrahtBot/repos",
      "events_url": "https://api.github.com/users/DrahtBot/events{/privacy}",
      "received_events_url": "https://api.github.com/users/DrahtBot/received_events",
      "type": "User",
      "site_admin": false
    },
    "created_at": "2023-03-10T10:59:29Z",
    "updated_at": "2023-03-13T16:35:31Z",
    "author_association": "CONTRIBUTOR",
    "body_html": "\n<p dir=\"auto\">The following sections might be updated with supplementary metadata relevant to reviewers and maintainers.</p>\n\n<h3 dir=\"auto\">Reviews</h3>\n<p dir=\"auto\">See <a href=\"https://github.com/bitcoin/bitcoin/blob/master/CONTRIBUTING.md#code-review\">the guideline</a> for information on the review process.</p>\n<table role=\"table\">\n<thead>\n<tr>\n<th>Type</th>\n<th>Reviewers</th>\n</tr>\n</thead>\n<tbody>\n<tr>\n<td>ACK</td>\n<td><a href=\"https://github.com/bitcoin/bitcoin/pull/27238#issuecomment-1466487829\" data-hovercard-type=\"pull_request\" data-hovercard-url=\"/bitcoin/bitcoin/pull/27238/hovercard\">MarcoFalke</a></td>\n</tr>\n<tr>\n<td>Concept ACK</td>\n<td><a href=\"https://github.com/bitcoin/bitcoin/pull/27238#issuecomment-1463871792\" data-hovercard-type=\"pull_request\" data-hovercard-url=\"/bitcoin/bitcoin/pull/27238/hovercard\">fanquake</a></td>\n</tr>\n<tr>\n<td>Stale ACK</td>\n<td><a href=\"https://github.com/bitcoin/bitcoin/pull/27238#issuecomment-1464927718\" data-hovercard-type=\"pull_request\" data-hovercard-url=\"/bitcoin/bitcoin/pull/27238/hovercard\">davidgumberg</a></td>\n</tr>\n</tbody>\n</table>\n<p dir=\"auto\">If your review is incorrectly listed, please react with 👎 to this comment and the bot will ignore it on the next update.</p>\n\n<h3 dir=\"auto\">Conflicts</h3>\n<p dir=\"auto\">Reviewers, this pull request conflicts with the following ones:</p>\n<ul dir=\"auto\">\n<li><a href=\"https://github.com/bitcoin/bitcoin/pull/26177\" data-hovercard-type=\"pull_request\" data-hovercard-url=\"/bitcoin/bitcoin/pull/26177/hovercard\">#26177</a> (refactor / kernel: Move non-gArgs chainparams functionality to kernel by TheCharlatan)</li>\n</ul>\n<p dir=\"auto\">If you consider this pull request important, please also help to review the conflicting pull requests. Ideally, start with the one that should be merged first.</p>",
    "body_text": "The following sections might be updated with supplementary metadata relevant to reviewers and maintainers.\n\nReviews\nSee the guideline for information on the review process.\n\n\n\nType\nReviewers\n\n\n\n\nACK\nMarcoFalke\n\n\nConcept ACK\nfanquake\n\n\nStale ACK\ndavidgumberg\n\n\n\nIf your review is incorrectly listed, please react with 👎 to this comment and the bot will ignore it on the next update.\n\nConflicts\nReviewers, this pull request conflicts with the following ones:\n\n#26177 (refactor / kernel: Move non-gArgs chainparams functionality to kernel by TheCharlatan)\n\nIf you consider this pull request important, please also help to review the conflicting pull requests. Ideally, start with the one that should be merged first.",
    "body": "<!--e57a25ab6845829454e8d69fc972939a-->\n\nThe following sections might be updated with supplementary metadata relevant to reviewers and maintainers.\n\n<!--021abf342d371248e50ceaed478a90ca-->\n### Reviews\nSee [the guideline](https://github.com/bitcoin/bitcoin/blob/master/CONTRIBUTING.md#code-review) for information on the review process.\n| Type | Reviewers |\n| ---- | --------- |\n| ACK | [MarcoFalke](https://github.com/bitcoin/bitcoin/pull/27238#issuecomment-1466487829) |\n| Concept ACK | [fanquake](https://github.com/bitcoin/bitcoin/pull/27238#issuecomment-1463871792) |\n| Stale ACK | [davidgumberg](https://github.com/bitcoin/bitcoin/pull/27238#issuecomment-1464927718) |\n\nIf your review is incorrectly listed, please react with 👎 to this comment and the bot will ignore it on the next update.\n<!--174a7506f384e20aa4161008e828411d-->\n### Conflicts\nReviewers, this pull request conflicts with the following ones:\n\n* [#26177](https://github.com/bitcoin/bitcoin/pull/26177) (refactor / kernel: Move non-gArgs chainparams functionality to kernel by TheCharlatan)\n\nIf you consider this pull request important, please also help to review the conflicting pull requests. Ideally, start with the one that should be merged first.\n",
    "reactions": {
      "url": "https://api.github.com/repos/bitcoin/bitcoin/issues/comments/1463634306/reactions",
      "total_count": 0,
      "+1": 0,
      "-1": 0,
      "laugh": 0,
      "hooray": 0,
      "confused": 0,
      "heart": 0,
      "rocket": 0,
      "eyes": 0
    },
    "performed_via_github_app": null
  },
  {
    "url": "https://api.github.com/repos/bitcoin/bitcoin/issues/comments/1463871792",
    "html_url": "https://github.com/bitcoin/bitcoin/pull/27238#issuecomment-1463871792",
    "issue_url": "https://api.github.com/repos/bitcoin/bitcoin/issues/27238",
    "id": 1463871792,
    "node_id": "IC_kwDOABII585XQOkw",
    "user": {
      "login": "fanquake",
      "id": 863730,
      "node_id": "MDQ6VXNlcjg2MzczMA==",
      "avatar_url": "https://avatars.githubusercontent.com/u/863730?v=4",
      "gravatar_id": "",
      "url": "https://api.github.com/users/fanquake",
      "html_url": "https://github.com/fanquake",
      "followers_url": "https://api.github.com/users/fanquake/followers",
      "following_url": "https://api.github.com/users/fanquake/following{/other_user}",
      "gists_url": "https://api.github.com/users/fanquake/gists{/gist_id}",
      "starred_url": "https://api.github.com/users/fanquake/starred{/owner}{/repo}",
      "subscriptions_url": "https://api.github.com/users/fanquake/subscriptions",
      "organizations_url": "https://api.github.com/users/fanquake/orgs",
      "repos_url": "https://api.github.com/users/fanquake/repos",
      "events_url": "https://api.github.com/users/fanquake/events{/privacy}",
      "received_events_url": "https://api.github.com/users/fanquake/received_events",
      "type": "User",
      "site_admin": false
    },
    "created_at": "2023-03-10T14:20:07Z",
    "updated_at": "2023-03-10T14:20:07Z",
    "author_association": "MEMBER",
    "body_html": "<p dir=\"auto\">Concept ACK</p>",
    "body_text": "Concept ACK",
    "body": "Concept ACK",
    "reactions": {
      "url": "https://api.github.com/repos/bitcoin/bitcoin/issues/comments/1463871792/reactions",
      "total_count": 0,
      "+1": 0,
      "-1": 0,
      "laugh": 0,
      "hooray": 0,
      "confused": 0,
      "heart": 0,
      "rocket": 0,
      "eyes": 0
    },
    "performed_via_github_app": null
  },
  {
    "url": "https://api.github.com/repos/bitcoin/bitcoin/issues/comments/1464927718",
    "html_url": "https://github.com/bitcoin/bitcoin/pull/27238#issuecomment-1464927718",
    "issue_url": "https://api.github.com/repos/bitcoin/bitcoin/issues/27238",
    "id": 1464927718,
    "node_id": "IC_kwDOABII585XUQXm",
    "user": {
      "login": "davidgumberg",
      "id": 2257631,
      "node_id": "MDQ6VXNlcjIyNTc2MzE=",
      "avatar_url": "https://avatars.githubusercontent.com/u/2257631?v=4",
      "gravatar_id": "",
      "url": "https://api.github.com/users/davidgumberg",
      "html_url": "https://github.com/davidgumberg",
      "followers_url": "https://api.github.com/users/davidgumberg/followers",
      "following_url": "https://api.github.com/users/davidgumberg/following{/other_user}",
      "gists_url": "https://api.github.com/users/davidgumberg/gists{/gist_id}",
      "starred_url": "https://api.github.com/users/davidgumberg/starred{/owner}{/repo}",
      "subscriptions_url": "https://api.github.com/users/davidgumberg/subscriptions",
      "organizations_url": "https://api.github.com/users/davidgumberg/orgs",
      "repos_url": "https://api.github.com/users/davidgumberg/repos",
      "events_url": "https://api.github.com/users/davidgumberg/events{/privacy}",
      "received_events_url": "https://api.github.com/users/davidgumberg/received_events",
      "type": "User",
      "site_admin": false
    },
    "created_at": "2023-03-11T14:51:11Z",
    "updated_at": "2023-03-11T14:51:11Z",
    "author_association": "CONTRIBUTOR",
    "body_html": "<p dir=\"auto\">ACK <a class=\"commit-link\" data-hovercard-type=\"commit\" data-hovercard-url=\"https://github.com/bitcoin/bitcoin/commit/485ea8d400241506a6abe485b7b71b0cacfdc853/hovercard\" href=\"https://github.com/bitcoin/bitcoin/commit/485ea8d400241506a6abe485b7b71b0cacfdc853\"><tt>485ea8d</tt></a></p>",
    "body_text": "ACK 485ea8d",
    "body": "ACK https://github.com/bitcoin/bitcoin/pull/27238/commits/485ea8d400241506a6abe485b7b71b0cacfdc853",
    "reactions": {
      "url": "https://api.github.com/repos/bitcoin/bitcoin/issues/comments/1464927718/reactions",
      "total_count": 0,
      "+1": 0,
      "-1": 0,
      "laugh": 0,
      "hooray": 0,
      "confused": 0,
      "heart": 0,
      "rocket": 0,
      "eyes": 0
    },
    "performed_via_github_app": null
  },
  {
    "url": "https://api.github.com/repos/bitcoin/bitcoin/issues/comments/1466482704",
    "html_url": "https://github.com/bitcoin/bitcoin/pull/27238#issuecomment-1466482704",
    "issue_url": "https://api.github.com/repos/bitcoin/bitcoin/issues/27238",
    "id": 1466482704,
    "node_id": "IC_kwDOABII585XaMAQ",
    "user": {
      "login": "TheCharlatan",
      "id": 8421793,
      "node_id": "MDQ6VXNlcjg0MjE3OTM=",
      "avatar_url": "https://avatars.githubusercontent.com/u/8421793?v=4",
      "gravatar_id": "",
      "url": "https://api.github.com/users/TheCharlatan",
      "html_url": "https://github.com/TheCharlatan",
      "followers_url": "https://api.github.com/users/TheCharlatan/followers",
      "following_url": "https://api.github.com/users/TheCharlatan/following{/other_user}",
      "gists_url": "https://api.github.com/users/TheCharlatan/gists{/gist_id}",
      "starred_url": "https://api.github.com/users/TheCharlatan/starred{/owner}{/repo}",
      "subscriptions_url": "https://api.github.com/users/TheCharlatan/subscriptions",
      "organizations_url": "https://api.github.com/users/TheCharlatan/orgs",
      "repos_url": "https://api.github.com/users/TheCharlatan/repos",
      "events_url": "https://api.github.com/users/TheCharlatan/events{/privacy}",
      "received_events_url": "https://api.github.com/users/TheCharlatan/received_events",
      "type": "User",
      "site_admin": false
    },
    "created_at": "2023-03-13T16:32:08Z",
    "updated_at": "2023-03-13T16:32:08Z",
    "author_association": "CONTRIBUTOR",
    "body_html": "<p dir=\"auto\">Updated  <a href=\"https://github.com/bitcoin/bitcoin/pull/27238/commits/4aa0ec6a8617ac77a19e49d8cf081b7a7f6404ae\">4aa0ec6</a> -&gt; <a class=\"commit-link\" data-hovercard-type=\"commit\" data-hovercard-url=\"https://github.com/bitcoin/bitcoin/commit/aaced5633b81b2f08b993106a527e2a0e1d663c1/hovercard\" href=\"https://github.com/bitcoin/bitcoin/commit/aaced5633b81b2f08b993106a527e2a0e1d663c1\"><tt>aaced56</tt></a> (<a href=\"https://github.com/TheCharlatan/bitcoin/tree/splitSystemLogging_0\">splitSystemLogging_0</a> -&gt; <a href=\"https://github.com/TheCharlatan/bitcoin/tree/splitSystemLogging_1\">splitSystemLogging_1</a>, <a href=\"https://github.com/TheCharlatan/bitcoin/compare/splitSystemLogging_0..splitSystemLogging_1\">compare</a>)  to fix header inclusion order addressing <a class=\"user-mention notranslate\" data-hovercard-type=\"user\" data-hovercard-url=\"/users/MarcoFalke/hovercard\" data-octo-click=\"hovercard-link-click\" data-octo-dimensions=\"link_type:self\" href=\"https://github.com/MarcoFalke\">@MarcoFalke</a>'s <a class=\"issue-link js-issue-link\" data-error-text=\"Failed to load title\" data-id=\"1618790798\" data-permission-text=\"Title is private\" data-url=\"https://github.com/bitcoin/bitcoin/issues/27238\" data-hovercard-type=\"pull_request\" data-hovercard-url=\"/bitcoin/bitcoin/pull/27238/hovercard?comment_id=1337368491&amp;comment_type=review\" href=\"https://github.com/bitcoin/bitcoin/pull/27238#pullrequestreview-1337368491\">#27238 (review)</a>.</p>",
    "body_text": "Updated  4aa0ec6 -> aaced56 (splitSystemLogging_0 -> splitSystemLogging_1, compare)  to fix header inclusion order addressing @MarcoFalke's #27238 (review).",
    "body": "Updated  [4aa0ec6](https://github.com/bitcoin/bitcoin/pull/27238/commits/4aa0ec6a8617ac77a19e49d8cf081b7a7f6404ae) -> aaced5633b81b2f08b993106a527e2a0e1d663c1 ([splitSystemLogging_0](https://github.com/TheCharlatan/bitcoin/tree/splitSystemLogging_0) -> [splitSystemLogging_1](https://github.com/TheCharlatan/bitcoin/tree/splitSystemLogging_1), [compare](https://github.com/TheCharlatan/bitcoin/compare/splitSystemLogging_0..splitSystemLogging_1))  to fix header inclusion order addressing @MarcoFalke's https://github.com/bitcoin/bitcoin/pull/27238#pullrequestreview-1337368491.",
    "reactions": {
      "url": "https://api.github.com/repos/bitcoin/bitcoin/issues/comments/1466482704/reactions",
      "total_count": 0,
      "+1": 0,
      "-1": 0,
      "laugh": 0,
      "hooray": 0,
      "confused": 0,
      "heart": 0,
      "rocket": 0,
      "eyes": 0
    },
    "performed_via_github_app": null
  },
  {
    "url": "https://api.github.com/repos/bitcoin/bitcoin/issues/comments/1466487829",
    "html_url": "https://github.com/bitcoin/bitcoin/pull/27238#issuecomment-1466487829",
    "issue_url": "https://api.github.com/repos/bitcoin/bitcoin/issues/27238",
    "id": 1466487829,
    "node_id": "IC_kwDOABII585XaNQV",
    "user": {
      "login": "maflcko",
      "id": 6399679,
      "node_id": "MDQ6VXNlcjYzOTk2Nzk=",
      "avatar_url": "https://avatars.githubusercontent.com/u/6399679?v=4",
      "gravatar_id": "",
      "url": "https://api.github.com/users/maflcko",
      "html_url": "https://github.com/maflcko",
      "followers_url": "https://api.github.com/users/maflcko/followers",
      "following_url": "https://api.github.com/users/maflcko/following{/other_user}",
      "gists_url": "https://api.github.com/users/maflcko/gists{/gist_id}",
      "starred_url": "https://api.github.com/users/maflcko/starred{/owner}{/repo}",
      "subscriptions_url": "https://api.github.com/users/maflcko/subscriptions",
      "organizations_url": "https://api.github.com/users/maflcko/orgs",
      "repos_url": "https://api.github.com/users/maflcko/repos",
      "events_url": "https://api.github.com/users/maflcko/events{/privacy}",
      "received_events_url": "https://api.github.com/users/maflcko/received_events",
      "type": "User",
      "site_admin": false
    },
    "created_at": "2023-03-13T16:35:28Z",
    "updated_at": "2023-03-13T16:35:28Z",
    "author_association": "MEMBER",
    "body_html": "<p dir=\"auto\">re-ACK <a class=\"commit-link\" data-hovercard-type=\"commit\" data-hovercard-url=\"https://github.com/bitcoin/bitcoin/commit/aaced5633b81b2f08b993106a527e2a0e1d663c1/hovercard\" href=\"https://github.com/bitcoin/bitcoin/commit/aaced5633b81b2f08b993106a527e2a0e1d663c1\"><tt>aaced56</tt></a> 🐍</p>\n<details><summary>Show signature</summary>\n<p dir=\"auto\">Signature:</p>\n<div class=\"snippet-clipboard-content notranslate position-relative overflow-auto\" data-snippet-clipboard-copy-content=\"untrusted comment: signature from minisign secret key on empty file; verify via: minisign -Vm &quot;${path_to_any_empty_file}&quot; -P RWTRmVTMeKV5noAMqVlsMugDDCyyTSbA3Re5AkUrhvLVln0tSaFWglOw -x &quot;${path_to_this_whole_four_line_signature_blob}&quot;\nRUTRmVTMeKV5npGrKx1nqXCw5zeVHdtdYURB/KlyA/LMFgpNCs+SkW9a8N95d+U4AP1RJMi+krxU1A3Yux4bpwZNLvVBKy0wLgM=\ntrusted comment: re-ACK aaced5633b81b2f08b993106a527e2a0e1d663c1 🐍\nqOnBQIyWxM4Wdga+t5Kp/TH3mEC8A8Rq0S+G4hMBYPBENLw7mwmhC9r3o1wUw9NWbmakHCuycScGpqGf0603Bg==\"><pre class=\"notranslate\"><code class=\"notranslate\">untrusted comment: signature from minisign secret key on empty file; verify via: minisign -Vm \"${path_to_any_empty_file}\" -P RWTRmVTMeKV5noAMqVlsMugDDCyyTSbA3Re5AkUrhvLVln0tSaFWglOw -x \"${path_to_this_whole_four_line_signature_blob}\"\nRUTRmVTMeKV5npGrKx1nqXCw5zeVHdtdYURB/KlyA/LMFgpNCs+SkW9a8N95d+U4AP1RJMi+krxU1A3Yux4bpwZNLvVBKy0wLgM=\ntrusted comment: re-ACK aaced5633b81b2f08b993106a527e2a0e1d663c1 🐍\nqOnBQIyWxM4Wdga+t5Kp/TH3mEC8A8Rq0S+G4hMBYPBENLw7mwmhC9r3o1wUw9NWbmakHCuycScGpqGf0603Bg==\n</code></pre></div>\n</details>",
    "body_text": "re-ACK aaced56 🐍\nShow signature\nSignature:\nuntrusted comment: signature from minisign secret key on empty file; verify via: minisign -Vm \"${path_to_any_empty_file}\" -P RWTRmVTMeKV5noAMqVlsMugDDCyyTSbA3Re5AkUrhvLVln0tSaFWglOw -x \"${path_to_this_whole_four_line_signature_blob}\"\nRUTRmVTMeKV5npGrKx1nqXCw5zeVHdtdYURB/KlyA/LMFgpNCs+SkW9a8N95d+U4AP1RJMi+krxU1A3Yux4bpwZNLvVBKy0wLgM=\ntrusted comment: re-ACK aaced5633b81b2f08b993106a527e2a0e1d663c1 🐍\nqOnBQIyWxM4Wdga+t5Kp/TH3mEC8A8Rq0S+G4hMBYPBENLw7mwmhC9r3o1wUw9NWbmakHCuycScGpqGf0603Bg==",
    "body": "re-ACK aaced5633b81b2f08b993106a527e2a0e1d663c1 🐍\r\n\r\n<details><summary>Show signature</summary>\r\n\r\nSignature:\r\n\r\n```\r\nuntrusted comment: signature from minisign secret key on empty file; verify via: minisign -Vm \"${path_to_any_empty_file}\" -P RWTRmVTMeKV5noAMqVlsMugDDCyyTSbA3Re5AkUrhvLVln0tSaFWglOw -x \"${path_to_this_whole_four_line_signature_blob}\"\r\nRUTRmVTMeKV5npGrKx1nqXCw5zeVHdtdYURB/KlyA/LMFgpNCs+SkW9a8N95d+U4AP1RJMi+krxU1A3Yux4bpwZNLvVBKy0wLgM=\r\ntrusted comment: re-ACK aaced5633b81b2f08b993106a527e2a0e1d663c1 🐍\r\nqOnBQIyWxM4Wdga+t5Kp/TH3mEC8A8Rq0S+G4hMBYPBENLw7mwmhC9r3o1wUw9NWbmakHCuycScGpqGf0603Bg==\r\n```\r\n\r\n</details>\r\n",
    "reactions": {
      "url": "https://api.github.com/repos/bitcoin/bitcoin/issues/comments/1466487829/reactions",
      "total_count": 0,
      "+1": 0,
      "-1": 0,
      "laugh": 0,
      "hooray": 0,
      "confused": 0,
      "heart": 0,
      "rocket": 0,
      "eyes": 0
    },
    "performed_via_github_app": null
  },
  {
    "url": "https://api.github.com/repos/bitcoin/bitcoin/issues/comments/1468541697",
    "html_url": "https://github.com/bitcoin/bitcoin/pull/27238#issuecomment-1468541697",
    "issue_url": "https://api.github.com/repos/bitcoin/bitcoin/issues/27238",
    "id": 1468541697,
    "node_id": "IC_kwDOABII585XiCsB",
    "user": {
      "login": "Empact",
      "id": 5470,
      "node_id": "MDQ6VXNlcjU0NzA=",
      "avatar_url": "https://avatars.githubusercontent.com/u/5470?v=4",
      "gravatar_id": "",
      "url": "https://api.github.com/users/Empact",
      "html_url": "https://github.com/Empact",
      "followers_url": "https://api.github.com/users/Empact/followers",
      "following_url": "https://api.github.com/users/Empact/following{/other_user}",
      "gists_url": "https://api.github.com/users/Empact/gists{/gist_id}",
      "starred_url": "https://api.github.com/users/Empact/starred{/owner}{/repo}",
      "subscriptions_url": "https://api.github.com/users/Empact/subscriptions",
      "organizations_url": "https://api.github.com/users/Empact/orgs",
      "repos_url": "https://api.github.com/users/Empact/repos",
      "events_url": "https://api.github.com/users/Empact/events{/privacy}",
      "received_events_url": "https://api.github.com/users/Empact/received_events",
      "type": "User",
      "site_admin": false
    },
    "created_at": "2023-03-14T17:37:35Z",
    "updated_at": "2023-03-14T17:37:35Z",
    "author_association": "MEMBER",
    "body_html": "<p dir=\"auto\">Thanks <a class=\"user-mention notranslate\" data-hovercard-type=\"user\" data-hovercard-url=\"/users/TheCharlatan/hovercard\" data-octo-click=\"hovercard-link-click\" data-octo-dimensions=\"link_type:self\" href=\"https://github.com/TheCharlatan\">@TheCharlatan</a> for picking this up. 👍</p>",
    "body_text": "Thanks @TheCharlatan for picking this up. 👍",
    "body": "Thanks @TheCharlatan for picking this up. 👍 ",
    "reactions": {
      "url": "https://api.github.com/repos/bitcoin/bitcoin/issues/comments/1468541697/reactions",
      "total_count": 0,
      "+1": 0,
      "-1": 0,
      "laugh": 0,
      "hooray": 0,
      "confused": 0,
      "heart": 0,
      "rocket": 0,
      "eyes": 0
    },
    "performed_via_github_app": null
  }
]
