{
  "url": "https://api.github.com/repos/bitcoin/bitcoin/issues/15419",
  "repository_url": "https://api.github.com/repos/bitcoin/bitcoin",
  "labels_url": "https://api.github.com/repos/bitcoin/bitcoin/issues/15419/labels{/name}",
  "comments_url": "https://api.github.com/repos/bitcoin/bitcoin/issues/15419/comments",
  "events_url": "https://api.github.com/repos/bitcoin/bitcoin/issues/15419/events",
  "html_url": "https://github.com/bitcoin/bitcoin/pull/15419",
  "id": 410799444,
  "node_id": "MDExOlB1bGxSZXF1ZXN0MjUzNDUxMjYz",
  "number": 15419,
  "title": "qa: Always refresh cache to be out of ibd",
  "user": {
    "login": "maflcko",
    "id": 6399679,
    "node_id": "MDQ6VXNlcjYzOTk2Nzk=",
    "avatar_url": "https://avatars.githubusercontent.com/u/6399679?v=4",
    "gravatar_id": "",
    "url": "https://api.github.com/users/maflcko",
    "html_url": "https://github.com/maflcko",
    "followers_url": "https://api.github.com/users/maflcko/followers",
    "following_url": "https://api.github.com/users/maflcko/following{/other_user}",
    "gists_url": "https://api.github.com/users/maflcko/gists{/gist_id}",
    "starred_url": "https://api.github.com/users/maflcko/starred{/owner}{/repo}",
    "subscriptions_url": "https://api.github.com/users/maflcko/subscriptions",
    "organizations_url": "https://api.github.com/users/maflcko/orgs",
    "repos_url": "https://api.github.com/users/maflcko/repos",
    "events_url": "https://api.github.com/users/maflcko/events{/privacy}",
    "received_events_url": "https://api.github.com/users/maflcko/received_events",
    "type": "User",
    "site_admin": false
  },
  "labels": [
    {
      "id": 62963516,
      "node_id": "MDU6TGFiZWw2Mjk2MzUxNg==",
      "url": "https://api.github.com/repos/bitcoin/bitcoin/labels/Tests",
      "name": "Tests",
      "color": "d4c5f9",
      "default": false,
      "description": null
    }
  ],
  "state": "closed",
  "locked": true,
  "assignee": null,
  "assignees": [

  ],
  "milestone": null,
  "comments": 14,
  "created_at": "2019-02-15T14:42:36Z",
  "updated_at": "2021-12-16T14:06:11Z",
  "closed_at": "2019-02-25T16:46:04Z",
  "author_association": "MEMBER",
  "active_lock_reason": "resolved",
  "draft": false,
  "pull_request": {
    "url": "https://api.github.com/repos/bitcoin/bitcoin/pulls/15419",
    "html_url": "https://github.com/bitcoin/bitcoin/pull/15419",
    "diff_url": "https://github.com/bitcoin/bitcoin/pull/15419.diff",
    "patch_url": "https://github.com/bitcoin/bitcoin/pull/15419.patch",
    "merged_at": "2019-02-25T16:46:04Z"
  },
  "body_html": "<p dir=\"auto\">When starting a test, we are always in IBD because the timestamps on cached blocks are in the past. Usually, we solve that by generating a block at the beginning of the test.</p>\n<p dir=\"auto\">That is clumsy and might even lead to other problems such as <a class=\"issue-link js-issue-link\" data-error-text=\"Failed to load title\" data-id=\"407478905\" data-permission-text=\"Title is private\" data-url=\"https://github.com/bitcoin/bitcoin/issues/15360\" data-hovercard-type=\"pull_request\" data-hovercard-url=\"/bitcoin/bitcoin/pull/15360/hovercard\" href=\"https://github.com/bitcoin/bitcoin/pull/15360\">#15360</a> and <a class=\"issue-link js-issue-link\" data-error-text=\"Failed to load title\" data-id=\"368297630\" data-permission-text=\"Title is private\" data-url=\"https://github.com/bitcoin/bitcoin/issues/14446\" data-hovercard-type=\"issue\" data-hovercard-url=\"/bitcoin/bitcoin/issues/14446/hovercard?comment_id=461926598&amp;comment_type=issue_comment\" href=\"https://github.com/bitcoin/bitcoin/issues/14446#issuecomment-461926598\">#14446 (comment)</a></p>\n<p dir=\"auto\">So fix that by getting rid of mocktime and always refreshing the last block of the cache when starting the test framework.</p>\n<p dir=\"auto\">Should <span class=\"issue-keyword tooltipped tooltipped-se\" aria-label=\"This pull request closes issue #14446.\">fix</span> <a class=\"issue-link js-issue-link\" data-error-text=\"Failed to load title\" data-id=\"368297630\" data-permission-text=\"Title is private\" data-url=\"https://github.com/bitcoin/bitcoin/issues/14446\" data-hovercard-type=\"issue\" data-hovercard-url=\"/bitcoin/bitcoin/issues/14446/hovercard\" href=\"https://github.com/bitcoin/bitcoin/issues/14446\">#14446</a></p>",
  "body_text": "When starting a test, we are always in IBD because the timestamps on cached blocks are in the past. Usually, we solve that by generating a block at the beginning of the test.\nThat is clumsy and might even lead to other problems such as #15360 and #14446 (comment)\nSo fix that by getting rid of mocktime and always refreshing the last block of the cache when starting the test framework.\nShould fix #14446",
  "body": "When starting a test, we are always in IBD because the timestamps on cached blocks are in the past. Usually, we solve that by generating a block at the beginning of the test.\r\n\r\nThat is clumsy and might even lead to other problems such as #15360 and https://github.com/bitcoin/bitcoin/issues/14446#issuecomment-461926598\r\n\r\nSo fix that by getting rid of mocktime and always refreshing the last block of the cache when starting the test framework.\r\n\r\nShould fix #14446",
  "closed_by": {
    "login": "maflcko",
    "id": 6399679,
    "node_id": "MDQ6VXNlcjYzOTk2Nzk=",
    "avatar_url": "https://avatars.githubusercontent.com/u/6399679?v=4",
    "gravatar_id": "",
    "url": "https://api.github.com/users/maflcko",
    "html_url": "https://github.com/maflcko",
    "followers_url": "https://api.github.com/users/maflcko/followers",
    "following_url": "https://api.github.com/users/maflcko/following{/other_user}",
    "gists_url": "https://api.github.com/users/maflcko/gists{/gist_id}",
    "starred_url": "https://api.github.com/users/maflcko/starred{/owner}{/repo}",
    "subscriptions_url": "https://api.github.com/users/maflcko/subscriptions",
    "organizations_url": "https://api.github.com/users/maflcko/orgs",
    "repos_url": "https://api.github.com/users/maflcko/repos",
    "events_url": "https://api.github.com/users/maflcko/events{/privacy}",
    "received_events_url": "https://api.github.com/users/maflcko/received_events",
    "type": "User",
    "site_admin": false
  },
  "reactions": {
    "url": "https://api.github.com/repos/bitcoin/bitcoin/issues/15419/reactions",
    "total_count": 0,
    "+1": 0,
    "-1": 0,
    "laugh": 0,
    "hooray": 0,
    "confused": 0,
    "heart": 0,
    "rocket": 0,
    "eyes": 0
  },
  "timeline_url": "https://api.github.com/repos/bitcoin/bitcoin/issues/15419/timeline",
  "performed_via_github_app": null,
  "state_reason": null
}
