{
  "url": "https://api.github.com/repos/bitcoin/bitcoin/issues/28087",
  "repository_url": "https://api.github.com/repos/bitcoin/bitcoin",
  "labels_url": "https://api.github.com/repos/bitcoin/bitcoin/issues/28087/labels{/name}",
  "comments_url": "https://api.github.com/repos/bitcoin/bitcoin/issues/28087/comments",
  "events_url": "https://api.github.com/repos/bitcoin/bitcoin/issues/28087/events",
  "html_url": "https://github.com/bitcoin/bitcoin/pull/28087",
  "id": 1807441671,
  "node_id": "PR_kwDOABII585Vp0PL",
  "number": 28087,
  "title": "ci: Use qemu-user through container engine",
  "user": {
    "login": "maflcko",
    "id": 6399679,
    "node_id": "MDQ6VXNlcjYzOTk2Nzk=",
    "avatar_url": "https://avatars.githubusercontent.com/u/6399679?v=4",
    "gravatar_id": "",
    "url": "https://api.github.com/users/maflcko",
    "html_url": "https://github.com/maflcko",
    "followers_url": "https://api.github.com/users/maflcko/followers",
    "following_url": "https://api.github.com/users/maflcko/following{/other_user}",
    "gists_url": "https://api.github.com/users/maflcko/gists{/gist_id}",
    "starred_url": "https://api.github.com/users/maflcko/starred{/owner}{/repo}",
    "subscriptions_url": "https://api.github.com/users/maflcko/subscriptions",
    "organizations_url": "https://api.github.com/users/maflcko/orgs",
    "repos_url": "https://api.github.com/users/maflcko/repos",
    "events_url": "https://api.github.com/users/maflcko/events{/privacy}",
    "received_events_url": "https://api.github.com/users/maflcko/received_events",
    "type": "User",
    "site_admin": false
  },
  "labels": [
    {
      "id": 62963516,
      "node_id": "MDU6TGFiZWw2Mjk2MzUxNg==",
      "url": "https://api.github.com/repos/bitcoin/bitcoin/labels/Tests",
      "name": "Tests",
      "color": "d4c5f9",
      "default": false,
      "description": null
    }
  ],
  "state": "closed",
  "locked": false,
  "assignee": null,
  "assignees": [

  ],
  "milestone": null,
  "comments": 19,
  "created_at": "2023-07-17T10:15:33Z",
  "updated_at": "2023-12-04T22:50:58Z",
  "closed_at": "2023-08-09T10:09:13Z",
  "author_association": "MEMBER",
  "active_lock_reason": null,
  "draft": false,
  "pull_request": {
    "url": "https://api.github.com/repos/bitcoin/bitcoin/pulls/28087",
    "html_url": "https://github.com/bitcoin/bitcoin/pull/28087",
    "diff_url": "https://github.com/bitcoin/bitcoin/pull/28087.diff",
    "patch_url": "https://github.com/bitcoin/bitcoin/pull/28087.patch",
    "merged_at": "2023-08-09T10:09:13Z"
  },
  "body_html": "<p dir=\"auto\">Currently the CI containers always run on the host architecture, and only wrap <code class=\"notranslate\">bitcoind</code> into <code class=\"notranslate\">qemu-user</code> when needed. This has many issues:</p>\n<ul dir=\"auto\">\n<li>The <code class=\"notranslate\">i386</code> tasks can not be run on non-x86 hosts.</li>\n<li><code class=\"notranslate\">config.guess</code> isn't present when building the CI image, which is fine. But it prints a warning, see <a class=\"issue-link js-issue-link\" data-error-text=\"Failed to load title\" data-id=\"1723920220\" data-permission-text=\"Title is private\" data-url=\"https://github.com/bitcoin/bitcoin/issues/27739\" data-hovercard-type=\"pull_request\" data-hovercard-url=\"/bitcoin/bitcoin/pull/27739/hovercard?comment_id=1446580353&amp;comment_type=review\" href=\"https://github.com/bitcoin/bitcoin/pull/27739#pullrequestreview-1446580353\">#27739 (review)</a></li>\n<li>The python tests are run on the host architecture, making it harder to find architecture specific bugs. See for example <a class=\"issue-link js-issue-link\" data-error-text=\"Failed to load title\" data-id=\"1682535119\" data-permission-text=\"Title is private\" data-url=\"https://github.com/bitcoin/bitcoin/issues/27529\" data-hovercard-type=\"pull_request\" data-hovercard-url=\"/bitcoin/bitcoin/pull/27529/hovercard?comment_id=1521387810&amp;comment_type=issue_comment\" href=\"https://github.com/bitcoin/bitcoin/pull/27529#issuecomment-1521387810\">#27529 (comment)</a></li>\n<li>All modern container engines support automatic dispatch to qemu-user, so it seems redundant to re-invent the wheel.</li>\n</ul>\n<p dir=\"auto\">Fix all issues by:</p>\n<ul dir=\"auto\">\n<li>removing <code class=\"notranslate\">HOST</code> from <code class=\"notranslate\">ci/test/00_setup_env.sh</code>.</li>\n<li>removing <code class=\"notranslate\">QEMU_USER_CMD</code> and <code class=\"notranslate\">ci/test/wrap-qemu.sh</code>.</li>\n<li>removing <code class=\"notranslate\">DPKG_ADD_ARCH</code> where possible, and pruning <code class=\"notranslate\">PACKAGES</code> where possible.</li>\n<li>specifying the architecture in <code class=\"notranslate\">CI_IMAGE_NAME_TAG</code> to be used by the container engine.</li>\n</ul>",
  "body_text": "Currently the CI containers always run on the host architecture, and only wrap bitcoind into qemu-user when needed. This has many issues:\n\nThe i386 tasks can not be run on non-x86 hosts.\nconfig.guess isn't present when building the CI image, which is fine. But it prints a warning, see #27739 (review)\nThe python tests are run on the host architecture, making it harder to find architecture specific bugs. See for example #27529 (comment)\nAll modern container engines support automatic dispatch to qemu-user, so it seems redundant to re-invent the wheel.\n\nFix all issues by:\n\nremoving HOST from ci/test/00_setup_env.sh.\nremoving QEMU_USER_CMD and ci/test/wrap-qemu.sh.\nremoving DPKG_ADD_ARCH where possible, and pruning PACKAGES where possible.\nspecifying the architecture in CI_IMAGE_NAME_TAG to be used by the container engine.",
  "body": "Currently the CI containers always run on the host architecture, and only wrap `bitcoind` into `qemu-user` when needed. This has many issues:\r\n\r\n* The `i386` tasks can not be run on non-x86 hosts.\r\n* `config.guess` isn't present when building the CI image, which is fine. But it prints a warning, see https://github.com/bitcoin/bitcoin/pull/27739#pullrequestreview-1446580353\r\n* The python tests are run on the host architecture, making it harder to find architecture specific bugs. See for example https://github.com/bitcoin/bitcoin/pull/27529#issuecomment-1521387810\r\n* All modern container engines support automatic dispatch to qemu-user, so it seems redundant to re-invent the wheel.\r\n\r\nFix all issues by:\r\n* removing `HOST` from `ci/test/00_setup_env.sh`.\r\n* removing `QEMU_USER_CMD` and `ci/test/wrap-qemu.sh`.\r\n* removing `DPKG_ADD_ARCH` where possible, and pruning `PACKAGES` where possible.\r\n* specifying the architecture in `CI_IMAGE_NAME_TAG` to be used by the container engine.",
  "closed_by": {
    "login": "fanquake",
    "id": 863730,
    "node_id": "MDQ6VXNlcjg2MzczMA==",
    "avatar_url": "https://avatars.githubusercontent.com/u/863730?v=4",
    "gravatar_id": "",
    "url": "https://api.github.com/users/fanquake",
    "html_url": "https://github.com/fanquake",
    "followers_url": "https://api.github.com/users/fanquake/followers",
    "following_url": "https://api.github.com/users/fanquake/following{/other_user}",
    "gists_url": "https://api.github.com/users/fanquake/gists{/gist_id}",
    "starred_url": "https://api.github.com/users/fanquake/starred{/owner}{/repo}",
    "subscriptions_url": "https://api.github.com/users/fanquake/subscriptions",
    "organizations_url": "https://api.github.com/users/fanquake/orgs",
    "repos_url": "https://api.github.com/users/fanquake/repos",
    "events_url": "https://api.github.com/users/fanquake/events{/privacy}",
    "received_events_url": "https://api.github.com/users/fanquake/received_events",
    "type": "User",
    "site_admin": false
  },
  "reactions": {
    "url": "https://api.github.com/repos/bitcoin/bitcoin/issues/28087/reactions",
    "total_count": 0,
    "+1": 0,
    "-1": 0,
    "laugh": 0,
    "hooray": 0,
    "confused": 0,
    "heart": 0,
    "rocket": 0,
    "eyes": 0
  },
  "timeline_url": "https://api.github.com/repos/bitcoin/bitcoin/issues/28087/timeline",
  "performed_via_github_app": null,
  "state_reason": null
}
