[
  {
    "url": "https://api.github.com/repos/bitcoin/bitcoin/issues/comments/619130328",
    "html_url": "https://github.com/bitcoin/bitcoin/pull/18756#issuecomment-619130328",
    "issue_url": "https://api.github.com/repos/bitcoin/bitcoin/issues/18756",
    "id": 619130328,
    "node_id": "MDEyOklzc3VlQ29tbWVudDYxOTEzMDMyOA==",
    "user": {
      "login": "robot-visions",
      "id": 63171930,
      "node_id": "MDQ6VXNlcjYzMTcxOTMw",
      "avatar_url": "https://avatars.githubusercontent.com/u/63171930?v=4",
      "gravatar_id": "",
      "url": "https://api.github.com/users/robot-visions",
      "html_url": "https://github.com/robot-visions",
      "followers_url": "https://api.github.com/users/robot-visions/followers",
      "following_url": "https://api.github.com/users/robot-visions/following{/other_user}",
      "gists_url": "https://api.github.com/users/robot-visions/gists{/gist_id}",
      "starred_url": "https://api.github.com/users/robot-visions/starred{/owner}{/repo}",
      "subscriptions_url": "https://api.github.com/users/robot-visions/subscriptions",
      "organizations_url": "https://api.github.com/users/robot-visions/orgs",
      "repos_url": "https://api.github.com/users/robot-visions/repos",
      "events_url": "https://api.github.com/users/robot-visions/events{/privacy}",
      "received_events_url": "https://api.github.com/users/robot-visions/received_events",
      "type": "User",
      "site_admin": false
    },
    "created_at": "2020-04-24T16:57:17Z",
    "updated_at": "2020-04-24T16:57:17Z",
    "author_association": "CONTRIBUTOR",
    "body_html": "<p dir=\"auto\">ACK <a class=\"commit-link\" data-hovercard-type=\"commit\" data-hovercard-url=\"https://github.com/bitcoin/bitcoin/commit/c4027e735072c3de4b4ffb20eecd7187ff36bad7/hovercard\" href=\"https://github.com/bitcoin/bitcoin/commit/c4027e735072c3de4b4ffb20eecd7187ff36bad7\"><tt>c4027e7</tt></a></p>\n<p dir=\"auto\">Ran <code class=\"notranslate\">p2p_unrequested_blocks.py</code> locally, still passes.  Thanks for cleaning this up!</p>",
    "body_text": "ACK c4027e7\nRan p2p_unrequested_blocks.py locally, still passes.  Thanks for cleaning this up!",
    "body": "ACK c4027e735072c3de4b4ffb20eecd7187ff36bad7\r\n\r\nRan `p2p_unrequested_blocks.py` locally, still passes.  Thanks for cleaning this up!",
    "reactions": {
      "url": "https://api.github.com/repos/bitcoin/bitcoin/issues/comments/619130328/reactions",
      "total_count": 0,
      "+1": 0,
      "-1": 0,
      "laugh": 0,
      "hooray": 0,
      "confused": 0,
      "heart": 0,
      "rocket": 0,
      "eyes": 0
    },
    "performed_via_github_app": null
  }
]
