[
  {
    "url": "https://api.github.com/repos/bitcoin/bitcoin/issues/comments/259372006",
    "html_url": "https://github.com/bitcoin/bitcoin/issues/9110#issuecomment-259372006",
    "issue_url": "https://api.github.com/repos/bitcoin/bitcoin/issues/9110",
    "id": 259372006,
    "node_id": "MDEyOklzc3VlQ29tbWVudDI1OTM3MjAwNg==",
    "user": {
      "login": "laanwj",
      "id": 126646,
      "node_id": "MDQ6VXNlcjEyNjY0Ng==",
      "avatar_url": "https://avatars.githubusercontent.com/u/126646?v=4",
      "gravatar_id": "",
      "url": "https://api.github.com/users/laanwj",
      "html_url": "https://github.com/laanwj",
      "followers_url": "https://api.github.com/users/laanwj/followers",
      "following_url": "https://api.github.com/users/laanwj/following{/other_user}",
      "gists_url": "https://api.github.com/users/laanwj/gists{/gist_id}",
      "starred_url": "https://api.github.com/users/laanwj/starred{/owner}{/repo}",
      "subscriptions_url": "https://api.github.com/users/laanwj/subscriptions",
      "organizations_url": "https://api.github.com/users/laanwj/orgs",
      "repos_url": "https://api.github.com/users/laanwj/repos",
      "events_url": "https://api.github.com/users/laanwj/events{/privacy}",
      "received_events_url": "https://api.github.com/users/laanwj/received_events",
      "type": "User",
      "site_admin": false
    },
    "created_at": "2016-11-09T09:41:38Z",
    "updated_at": "2016-11-09T09:58:38Z",
    "author_association": "MEMBER",
    "body_html": "<p dir=\"auto\">I'm able to reproduce this error in the log by enabling <code class=\"notranslate\">debug=net</code> and sending an invalid inv type:</p>\n<div class=\"snippet-clipboard-content notranslate position-relative overflow-auto\" data-snippet-clipboard-copy-content=\"2016-11-09 09:40:27 \n\n************************\nEXCEPTION: St12out_of_range       \nCInv::GetCommand(): type=666 unknown type       \nbitcoin in ProcessMessages()       \n\n2016-11-09 09:40:27 ProcessMessages(inv, 37 bytes) FAILED peer=7\"><pre class=\"notranslate\"><code class=\"notranslate\">2016-11-09 09:40:27 \n\n************************\nEXCEPTION: St12out_of_range       \nCInv::GetCommand(): type=666 unknown type       \nbitcoin in ProcessMessages()       \n\n2016-11-09 09:40:27 ProcessMessages(inv, 37 bytes) FAILED peer=7\n</code></pre></div>\n<p dir=\"auto\">However the exception is caught and printed, the process does not crash. It also appears without <code class=\"notranslate\">debug=net</code>.</p>\n<p dir=\"auto\">Having a <code class=\"notranslate\">ToString</code> function raise an exception is kind of unexpected. I think we should change CInv::ToString to catch the exception and return something like <code class=\"notranslate\">unknown: %d</code> instead, for better troubleshooting. But it does not result in a crash right now.</p>",
    "body_text": "I'm able to reproduce this error in the log by enabling debug=net and sending an invalid inv type:\n2016-11-09 09:40:27 \n\n************************\nEXCEPTION: St12out_of_range       \nCInv::GetCommand(): type=666 unknown type       \nbitcoin in ProcessMessages()       \n\n2016-11-09 09:40:27 ProcessMessages(inv, 37 bytes) FAILED peer=7\n\nHowever the exception is caught and printed, the process does not crash. It also appears without debug=net.\nHaving a ToString function raise an exception is kind of unexpected. I think we should change CInv::ToString to catch the exception and return something like unknown: %d instead, for better troubleshooting. But it does not result in a crash right now.",
    "body": "I'm able to reproduce this error in the log by enabling `debug=net` and sending an invalid inv type:\n\n```\n2016-11-09 09:40:27 \n\n************************\nEXCEPTION: St12out_of_range       \nCInv::GetCommand(): type=666 unknown type       \nbitcoin in ProcessMessages()       \n\n2016-11-09 09:40:27 ProcessMessages(inv, 37 bytes) FAILED peer=7\n```\n\nHowever the exception is caught and printed, the process does not crash. It also appears without `debug=net`.\n\nHaving a `ToString` function raise an exception is kind of unexpected. I think we should change CInv::ToString to catch the exception and return something like `unknown: %d` instead, for better troubleshooting. But it does not result in a crash right now.\n",
    "reactions": {
      "url": "https://api.github.com/repos/bitcoin/bitcoin/issues/comments/259372006/reactions",
      "total_count": 0,
      "+1": 0,
      "-1": 0,
      "laugh": 0,
      "hooray": 0,
      "confused": 0,
      "heart": 0,
      "rocket": 0,
      "eyes": 0
    },
    "performed_via_github_app": null
  },
  {
    "url": "https://api.github.com/repos/bitcoin/bitcoin/issues/comments/259383221",
    "html_url": "https://github.com/bitcoin/bitcoin/issues/9110#issuecomment-259383221",
    "issue_url": "https://api.github.com/repos/bitcoin/bitcoin/issues/9110",
    "id": 259383221,
    "node_id": "MDEyOklzc3VlQ29tbWVudDI1OTM4MzIyMQ==",
    "user": {
      "login": "paveljanik",
      "id": 6848764,
      "node_id": "MDQ6VXNlcjY4NDg3NjQ=",
      "avatar_url": "https://avatars.githubusercontent.com/u/6848764?v=4",
      "gravatar_id": "",
      "url": "https://api.github.com/users/paveljanik",
      "html_url": "https://github.com/paveljanik",
      "followers_url": "https://api.github.com/users/paveljanik/followers",
      "following_url": "https://api.github.com/users/paveljanik/following{/other_user}",
      "gists_url": "https://api.github.com/users/paveljanik/gists{/gist_id}",
      "starred_url": "https://api.github.com/users/paveljanik/starred{/owner}{/repo}",
      "subscriptions_url": "https://api.github.com/users/paveljanik/subscriptions",
      "organizations_url": "https://api.github.com/users/paveljanik/orgs",
      "repos_url": "https://api.github.com/users/paveljanik/repos",
      "events_url": "https://api.github.com/users/paveljanik/events{/privacy}",
      "received_events_url": "https://api.github.com/users/paveljanik/received_events",
      "type": "User",
      "site_admin": false
    },
    "created_at": "2016-11-09T10:35:18Z",
    "updated_at": "2016-11-09T10:35:18Z",
    "author_association": "CONTRIBUTOR",
    "body_html": "<p dir=\"auto\"><a class=\"user-mention notranslate\" data-hovercard-type=\"user\" data-hovercard-url=\"/users/rebroad/hovercard\" data-octo-click=\"hovercard-link-click\" data-octo-dimensions=\"link_type:self\" href=\"https://github.com/rebroad\">@rebroad</a>: so what \"to cause the program to end?\"? Was it some local change on your side? Did <code class=\"notranslate\">bitcoind</code> really stopped at all?</p>",
    "body_text": "@rebroad: so what \"to cause the program to end?\"? Was it some local change on your side? Did bitcoind really stopped at all?",
    "body": "@rebroad: so what \"to cause the program to end?\"? Was it some local change on your side? Did `bitcoind` really stopped at all?\n",
    "reactions": {
      "url": "https://api.github.com/repos/bitcoin/bitcoin/issues/comments/259383221/reactions",
      "total_count": 0,
      "+1": 0,
      "-1": 0,
      "laugh": 0,
      "hooray": 0,
      "confused": 0,
      "heart": 0,
      "rocket": 0,
      "eyes": 0
    },
    "performed_via_github_app": null
  }
]
