{
  "url": "https://api.github.com/repos/bitcoin/bitcoin/issues/2132",
  "repository_url": "https://api.github.com/repos/bitcoin/bitcoin",
  "labels_url": "https://api.github.com/repos/bitcoin/bitcoin/issues/2132/labels{/name}",
  "comments_url": "https://api.github.com/repos/bitcoin/bitcoin/issues/2132/comments",
  "events_url": "https://api.github.com/repos/bitcoin/bitcoin/issues/2132/events",
  "html_url": "https://github.com/bitcoin/bitcoin/issues/2132",
  "id": 9540907,
  "node_id": "MDU6SXNzdWU5NTQwOTA3",
  "number": 2132,
  "title": "\"Sign Message\" window should incorporate encoding/hash output then sign the message",
  "user": {
    "login": "Xenland",
    "id": 821265,
    "node_id": "MDQ6VXNlcjgyMTI2NQ==",
    "avatar_url": "https://avatars.githubusercontent.com/u/821265?v=4",
    "gravatar_id": "",
    "url": "https://api.github.com/users/Xenland",
    "html_url": "https://github.com/Xenland",
    "followers_url": "https://api.github.com/users/Xenland/followers",
    "following_url": "https://api.github.com/users/Xenland/following{/other_user}",
    "gists_url": "https://api.github.com/users/Xenland/gists{/gist_id}",
    "starred_url": "https://api.github.com/users/Xenland/starred{/owner}{/repo}",
    "subscriptions_url": "https://api.github.com/users/Xenland/subscriptions",
    "organizations_url": "https://api.github.com/users/Xenland/orgs",
    "repos_url": "https://api.github.com/users/Xenland/repos",
    "events_url": "https://api.github.com/users/Xenland/events{/privacy}",
    "received_events_url": "https://api.github.com/users/Xenland/received_events",
    "type": "User",
    "site_admin": false
  },
  "labels": [

  ],
  "state": "closed",
  "locked": true,
  "assignee": null,
  "assignees": [

  ],
  "milestone": null,
  "comments": 6,
  "created_at": "2012-12-27T16:29:25Z",
  "updated_at": "2021-09-08T12:50:25Z",
  "closed_at": "2013-01-03T18:02:03Z",
  "author_association": "NONE",
  "active_lock_reason": "resolved",
  "body_html": "<p dir=\"auto\">Some contracts/messages (if not all) contain non-ascii characters to present a type of formatting such as \"\\n\" and other hidden characters of that nature. The sign message window should detect base64 input and if it looks like a base64 string it should pop-up a text box displaying the decoded message.</p>\n<p dir=\"auto\">With out base64 incorporation, any document containing hidden characters that are presented through a stream will not match the receipts signature with the senders signature. I think the decoded message should be displayed as well since users deserve to know what they are signing with out having to trust third-party applications to decode the base64 for them.</p>",
  "body_text": "Some contracts/messages (if not all) contain non-ascii characters to present a type of formatting such as \"\\n\" and other hidden characters of that nature. The sign message window should detect base64 input and if it looks like a base64 string it should pop-up a text box displaying the decoded message.\nWith out base64 incorporation, any document containing hidden characters that are presented through a stream will not match the receipts signature with the senders signature. I think the decoded message should be displayed as well since users deserve to know what they are signing with out having to trust third-party applications to decode the base64 for them.",
  "body": "Some contracts/messages (if not all) contain non-ascii characters to present a type of formatting such as \"\\n\" and other hidden characters of that nature. The sign message window should detect base64 input and if it looks like a base64 string it should pop-up a text box displaying the decoded message.\n\nWith out base64 incorporation, any document containing hidden characters that are presented through a stream will not match the receipts signature with the senders signature. I think the decoded message should be displayed as well since users deserve to know what they are signing with out having to trust third-party applications to decode the base64 for them.\n",
  "closed_by": {
    "login": "gmaxwell",
    "id": 858454,
    "node_id": "MDQ6VXNlcjg1ODQ1NA==",
    "avatar_url": "https://avatars.githubusercontent.com/u/858454?v=4",
    "gravatar_id": "",
    "url": "https://api.github.com/users/gmaxwell",
    "html_url": "https://github.com/gmaxwell",
    "followers_url": "https://api.github.com/users/gmaxwell/followers",
    "following_url": "https://api.github.com/users/gmaxwell/following{/other_user}",
    "gists_url": "https://api.github.com/users/gmaxwell/gists{/gist_id}",
    "starred_url": "https://api.github.com/users/gmaxwell/starred{/owner}{/repo}",
    "subscriptions_url": "https://api.github.com/users/gmaxwell/subscriptions",
    "organizations_url": "https://api.github.com/users/gmaxwell/orgs",
    "repos_url": "https://api.github.com/users/gmaxwell/repos",
    "events_url": "https://api.github.com/users/gmaxwell/events{/privacy}",
    "received_events_url": "https://api.github.com/users/gmaxwell/received_events",
    "type": "User",
    "site_admin": false
  },
  "reactions": {
    "url": "https://api.github.com/repos/bitcoin/bitcoin/issues/2132/reactions",
    "total_count": 0,
    "+1": 0,
    "-1": 0,
    "laugh": 0,
    "hooray": 0,
    "confused": 0,
    "heart": 0,
    "rocket": 0,
    "eyes": 0
  },
  "timeline_url": "https://api.github.com/repos/bitcoin/bitcoin/issues/2132/timeline",
  "performed_via_github_app": null,
  "state_reason": "completed"
}
