{
  "url": "https://api.github.com/repos/bitcoin/bitcoin/issues/14482",
  "repository_url": "https://api.github.com/repos/bitcoin/bitcoin",
  "labels_url": "https://api.github.com/repos/bitcoin/bitcoin/issues/14482/labels{/name}",
  "comments_url": "https://api.github.com/repos/bitcoin/bitcoin/issues/14482/comments",
  "events_url": "https://api.github.com/repos/bitcoin/bitcoin/issues/14482/events",
  "html_url": "https://github.com/bitcoin/bitcoin/issues/14482",
  "id": 370033749,
  "node_id": "MDU6SXNzdWUzNzAwMzM3NDk=",
  "number": 14482,
  "title": "Better name for \"Request Payment\" button",
  "user": {
    "login": "meshcollider",
    "id": 3211283,
    "node_id": "MDQ6VXNlcjMyMTEyODM=",
    "avatar_url": "https://avatars.githubusercontent.com/u/3211283?v=4",
    "gravatar_id": "",
    "url": "https://api.github.com/users/meshcollider",
    "html_url": "https://github.com/meshcollider",
    "followers_url": "https://api.github.com/users/meshcollider/followers",
    "following_url": "https://api.github.com/users/meshcollider/following{/other_user}",
    "gists_url": "https://api.github.com/users/meshcollider/gists{/gist_id}",
    "starred_url": "https://api.github.com/users/meshcollider/starred{/owner}{/repo}",
    "subscriptions_url": "https://api.github.com/users/meshcollider/subscriptions",
    "organizations_url": "https://api.github.com/users/meshcollider/orgs",
    "repos_url": "https://api.github.com/users/meshcollider/repos",
    "events_url": "https://api.github.com/users/meshcollider/events{/privacy}",
    "received_events_url": "https://api.github.com/users/meshcollider/received_events",
    "type": "User",
    "site_admin": false
  },
  "labels": [
    {
      "id": 135946,
      "node_id": "MDU6TGFiZWwxMzU5NDY=",
      "url": "https://api.github.com/repos/bitcoin/bitcoin/labels/GUI",
      "name": "GUI",
      "color": "02d7e1",
      "default": false,
      "description": null
    },
    {
      "id": 349312277,
      "node_id": "MDU6TGFiZWwzNDkzMTIyNzc=",
      "url": "https://api.github.com/repos/bitcoin/bitcoin/labels/good%20first%20issue",
      "name": "good first issue",
      "color": "c2e0c6",
      "default": true,
      "description": null
    }
  ],
  "state": "closed",
  "locked": true,
  "assignee": null,
  "assignees": [

  ],
  "milestone": null,
  "comments": 3,
  "created_at": "2018-10-15T07:33:21Z",
  "updated_at": "2021-12-16T15:10:16Z",
  "closed_at": "2019-05-04T23:26:33Z",
  "author_association": "CONTRIBUTOR",
  "active_lock_reason": "resolved",
  "body_html": "<p dir=\"auto\">From IRC:</p>\n<div class=\"snippet-clipboard-content notranslate position-relative overflow-auto\" data-snippet-clipboard-copy-content=\"&lt;gwillen&gt; gmaxwell: if the button said 'receive payment' as you typed in your response, it wouldn't be quite as unintuitive\n&lt;gwillen&gt; what it actually says is 'request payment'\n&lt;gmaxwell&gt; gwillen: thanks! \n&lt;sipa&gt; let's fix that :)\n...\n&lt;sipa&gt; perhaps instead of &quot;It is recommended to use a new receiving address for each transaction&quot; it should say &quot;Use the request payment button in the receive tab to create new addresses.&quot;\"><pre class=\"notranslate\"><code class=\"notranslate\">&lt;gwillen&gt; gmaxwell: if the button said 'receive payment' as you typed in your response, it wouldn't be quite as unintuitive\n&lt;gwillen&gt; what it actually says is 'request payment'\n&lt;gmaxwell&gt; gwillen: thanks! \n&lt;sipa&gt; let's fix that :)\n...\n&lt;sipa&gt; perhaps instead of \"It is recommended to use a new receiving address for each transaction\" it should say \"Use the request payment button in the receive tab to create new addresses.\"\n</code></pre></div>\n<p dir=\"auto\">These simple GUI changes may help avoid a lot of users' confusion. A good issue for first-time contributors and for Hacktoberfest</p>",
  "body_text": "From IRC:\n<gwillen> gmaxwell: if the button said 'receive payment' as you typed in your response, it wouldn't be quite as unintuitive\n<gwillen> what it actually says is 'request payment'\n<gmaxwell> gwillen: thanks! \n<sipa> let's fix that :)\n...\n<sipa> perhaps instead of \"It is recommended to use a new receiving address for each transaction\" it should say \"Use the request payment button in the receive tab to create new addresses.\"\n\nThese simple GUI changes may help avoid a lot of users' confusion. A good issue for first-time contributors and for Hacktoberfest",
  "body": "From IRC:\r\n```\r\n<gwillen> gmaxwell: if the button said 'receive payment' as you typed in your response, it wouldn't be quite as unintuitive\r\n<gwillen> what it actually says is 'request payment'\r\n<gmaxwell> gwillen: thanks! \r\n<sipa> let's fix that :)\r\n...\r\n<sipa> perhaps instead of \"It is recommended to use a new receiving address for each transaction\" it should say \"Use the request payment button in the receive tab to create new addresses.\"\r\n```\r\nThese simple GUI changes may help avoid a lot of users' confusion. A good issue for first-time contributors and for Hacktoberfest\r\n",
  "closed_by": {
    "login": "fanquake",
    "id": 863730,
    "node_id": "MDQ6VXNlcjg2MzczMA==",
    "avatar_url": "https://avatars.githubusercontent.com/u/863730?v=4",
    "gravatar_id": "",
    "url": "https://api.github.com/users/fanquake",
    "html_url": "https://github.com/fanquake",
    "followers_url": "https://api.github.com/users/fanquake/followers",
    "following_url": "https://api.github.com/users/fanquake/following{/other_user}",
    "gists_url": "https://api.github.com/users/fanquake/gists{/gist_id}",
    "starred_url": "https://api.github.com/users/fanquake/starred{/owner}{/repo}",
    "subscriptions_url": "https://api.github.com/users/fanquake/subscriptions",
    "organizations_url": "https://api.github.com/users/fanquake/orgs",
    "repos_url": "https://api.github.com/users/fanquake/repos",
    "events_url": "https://api.github.com/users/fanquake/events{/privacy}",
    "received_events_url": "https://api.github.com/users/fanquake/received_events",
    "type": "User",
    "site_admin": false
  },
  "reactions": {
    "url": "https://api.github.com/repos/bitcoin/bitcoin/issues/14482/reactions",
    "total_count": 1,
    "+1": 1,
    "-1": 0,
    "laugh": 0,
    "hooray": 0,
    "confused": 0,
    "heart": 0,
    "rocket": 0,
    "eyes": 0
  },
  "timeline_url": "https://api.github.com/repos/bitcoin/bitcoin/issues/14482/timeline",
  "performed_via_github_app": null,
  "state_reason": "completed"
}
