[
  {
    "url": "https://api.github.com/repos/bitcoin/bitcoin/issues/comments/132172999",
    "html_url": "https://github.com/bitcoin/bitcoin/issues/6569#issuecomment-132172999",
    "issue_url": "https://api.github.com/repos/bitcoin/bitcoin/issues/6569",
    "id": 132172999,
    "node_id": "MDEyOklzc3VlQ29tbWVudDEzMjE3Mjk5OQ==",
    "user": {
      "login": "gmaxwell",
      "id": 858454,
      "node_id": "MDQ6VXNlcjg1ODQ1NA==",
      "avatar_url": "https://avatars.githubusercontent.com/u/858454?v=4",
      "gravatar_id": "",
      "url": "https://api.github.com/users/gmaxwell",
      "html_url": "https://github.com/gmaxwell",
      "followers_url": "https://api.github.com/users/gmaxwell/followers",
      "following_url": "https://api.github.com/users/gmaxwell/following{/other_user}",
      "gists_url": "https://api.github.com/users/gmaxwell/gists{/gist_id}",
      "starred_url": "https://api.github.com/users/gmaxwell/starred{/owner}{/repo}",
      "subscriptions_url": "https://api.github.com/users/gmaxwell/subscriptions",
      "organizations_url": "https://api.github.com/users/gmaxwell/orgs",
      "repos_url": "https://api.github.com/users/gmaxwell/repos",
      "events_url": "https://api.github.com/users/gmaxwell/events{/privacy}",
      "received_events_url": "https://api.github.com/users/gmaxwell/received_events",
      "type": "User",
      "site_admin": false
    },
    "created_at": "2015-08-18T11:04:23Z",
    "updated_at": "2015-08-18T11:04:23Z",
    "author_association": "CONTRIBUTOR",
    "body_html": "<p dir=\"auto\">From JMW74 on reddit: One thing that might help also: if the spend amount has a lot of trailing zeros, eg, 2.34000000 BTC, then have change outputs that also have the same amount of trailing zeros. Otherwise, it's obvious which one is the spend.</p>",
    "body_text": "From JMW74 on reddit: One thing that might help also: if the spend amount has a lot of trailing zeros, eg, 2.34000000 BTC, then have change outputs that also have the same amount of trailing zeros. Otherwise, it's obvious which one is the spend.",
    "body": "From JMW74 on reddit: One thing that might help also: if the spend amount has a lot of trailing zeros, eg, 2.34000000 BTC, then have change outputs that also have the same amount of trailing zeros. Otherwise, it's obvious which one is the spend.\n",
    "reactions": {
      "url": "https://api.github.com/repos/bitcoin/bitcoin/issues/comments/132172999/reactions",
      "total_count": 0,
      "+1": 0,
      "-1": 0,
      "laugh": 0,
      "hooray": 0,
      "confused": 0,
      "heart": 0,
      "rocket": 0,
      "eyes": 0
    },
    "performed_via_github_app": null
  },
  {
    "url": "https://api.github.com/repos/bitcoin/bitcoin/issues/comments/132194243",
    "html_url": "https://github.com/bitcoin/bitcoin/issues/6569#issuecomment-132194243",
    "issue_url": "https://api.github.com/repos/bitcoin/bitcoin/issues/6569",
    "id": 132194243,
    "node_id": "MDEyOklzc3VlQ29tbWVudDEzMjE5NDI0Mw==",
    "user": {
      "login": "dcousens",
      "id": 413395,
      "node_id": "MDQ6VXNlcjQxMzM5NQ==",
      "avatar_url": "https://avatars.githubusercontent.com/u/413395?v=4",
      "gravatar_id": "",
      "url": "https://api.github.com/users/dcousens",
      "html_url": "https://github.com/dcousens",
      "followers_url": "https://api.github.com/users/dcousens/followers",
      "following_url": "https://api.github.com/users/dcousens/following{/other_user}",
      "gists_url": "https://api.github.com/users/dcousens/gists{/gist_id}",
      "starred_url": "https://api.github.com/users/dcousens/starred{/owner}{/repo}",
      "subscriptions_url": "https://api.github.com/users/dcousens/subscriptions",
      "organizations_url": "https://api.github.com/users/dcousens/orgs",
      "repos_url": "https://api.github.com/users/dcousens/repos",
      "events_url": "https://api.github.com/users/dcousens/events{/privacy}",
      "received_events_url": "https://api.github.com/users/dcousens/received_events",
      "type": "User",
      "site_admin": false
    },
    "created_at": "2015-08-18T12:38:26Z",
    "updated_at": "2015-08-18T12:38:26Z",
    "author_association": "CONTRIBUTOR",
    "body_html": "<p dir=\"auto\"><a class=\"user-mention notranslate\" data-hovercard-type=\"user\" data-hovercard-url=\"/users/gmaxwell/hovercard\" data-octo-click=\"hovercard-link-click\" data-octo-dimensions=\"link_type:self\" href=\"https://github.com/gmaxwell\">@gmaxwell</a> whatever comes of this,  it'd be great to write it up as BIP too.</p>",
    "body_text": "@gmaxwell whatever comes of this,  it'd be great to write it up as BIP too.",
    "body": "@gmaxwell whatever comes of this,  it'd be great to write it up as BIP too.\n",
    "reactions": {
      "url": "https://api.github.com/repos/bitcoin/bitcoin/issues/comments/132194243/reactions",
      "total_count": 0,
      "+1": 0,
      "-1": 0,
      "laugh": 0,
      "hooray": 0,
      "confused": 0,
      "heart": 0,
      "rocket": 0,
      "eyes": 0
    },
    "performed_via_github_app": null
  },
  {
    "url": "https://api.github.com/repos/bitcoin/bitcoin/issues/comments/132266405",
    "html_url": "https://github.com/bitcoin/bitcoin/issues/6569#issuecomment-132266405",
    "issue_url": "https://api.github.com/repos/bitcoin/bitcoin/issues/6569",
    "id": 132266405,
    "node_id": "MDEyOklzc3VlQ29tbWVudDEzMjI2NjQwNQ==",
    "user": {
      "login": "RHavar",
      "id": 9326759,
      "node_id": "MDQ6VXNlcjkzMjY3NTk=",
      "avatar_url": "https://avatars.githubusercontent.com/u/9326759?v=4",
      "gravatar_id": "",
      "url": "https://api.github.com/users/RHavar",
      "html_url": "https://github.com/RHavar",
      "followers_url": "https://api.github.com/users/RHavar/followers",
      "following_url": "https://api.github.com/users/RHavar/following{/other_user}",
      "gists_url": "https://api.github.com/users/RHavar/gists{/gist_id}",
      "starred_url": "https://api.github.com/users/RHavar/starred{/owner}{/repo}",
      "subscriptions_url": "https://api.github.com/users/RHavar/subscriptions",
      "organizations_url": "https://api.github.com/users/RHavar/orgs",
      "repos_url": "https://api.github.com/users/RHavar/repos",
      "events_url": "https://api.github.com/users/RHavar/events{/privacy}",
      "received_events_url": "https://api.github.com/users/RHavar/received_events",
      "type": "User",
      "site_admin": false
    },
    "created_at": "2015-08-18T16:26:37Z",
    "updated_at": "2015-08-18T16:26:37Z",
    "author_association": "CONTRIBUTOR",
    "body_html": "<p dir=\"auto\">There's a lot of trade-offs in coin selection, and a lot of the tools people are going to use to solve the problem (e.g. constraint solvers) aren't really realistically ever going to get merged into bitcoin. So how about instead we aim at making pluggable coin-selection?</p>\n<p dir=\"auto\">Maybe something as simple that pipes the target addresses and amounts, target fee (per kb), list of unspent, and a list of possible change addresses. The coin selector reads this in, writes out a set of inputs and outputs. Bitcoin could sanity check it, and then convert to a raw transaction and sign.</p>\n<p dir=\"auto\">Having stand alone coin selection system would really encourage the development of good solutions, testing all free of the constraints of doing it from within bitcoin core itself :D</p>",
    "body_text": "There's a lot of trade-offs in coin selection, and a lot of the tools people are going to use to solve the problem (e.g. constraint solvers) aren't really realistically ever going to get merged into bitcoin. So how about instead we aim at making pluggable coin-selection?\nMaybe something as simple that pipes the target addresses and amounts, target fee (per kb), list of unspent, and a list of possible change addresses. The coin selector reads this in, writes out a set of inputs and outputs. Bitcoin could sanity check it, and then convert to a raw transaction and sign.\nHaving stand alone coin selection system would really encourage the development of good solutions, testing all free of the constraints of doing it from within bitcoin core itself :D",
    "body": "There's a lot of trade-offs in coin selection, and a lot of the tools people are going to use to solve the problem (e.g. constraint solvers) aren't really realistically ever going to get merged into bitcoin. So how about instead we aim at making pluggable coin-selection?\n\nMaybe something as simple that pipes the target addresses and amounts, target fee (per kb), list of unspent, and a list of possible change addresses. The coin selector reads this in, writes out a set of inputs and outputs. Bitcoin could sanity check it, and then convert to a raw transaction and sign.\n\nHaving stand alone coin selection system would really encourage the development of good solutions, testing all free of the constraints of doing it from within bitcoin core itself :D\n",
    "reactions": {
      "url": "https://api.github.com/repos/bitcoin/bitcoin/issues/comments/132266405/reactions",
      "total_count": 0,
      "+1": 0,
      "-1": 0,
      "laugh": 0,
      "hooray": 0,
      "confused": 0,
      "heart": 0,
      "rocket": 0,
      "eyes": 0
    },
    "performed_via_github_app": null
  },
  {
    "url": "https://api.github.com/repos/bitcoin/bitcoin/issues/comments/132282560",
    "html_url": "https://github.com/bitcoin/bitcoin/issues/6569#issuecomment-132282560",
    "issue_url": "https://api.github.com/repos/bitcoin/bitcoin/issues/6569",
    "id": 132282560,
    "node_id": "MDEyOklzc3VlQ29tbWVudDEzMjI4MjU2MA==",
    "user": {
      "login": "JeremyRubin",
      "id": 886523,
      "node_id": "MDQ6VXNlcjg4NjUyMw==",
      "avatar_url": "https://avatars.githubusercontent.com/u/886523?v=4",
      "gravatar_id": "",
      "url": "https://api.github.com/users/JeremyRubin",
      "html_url": "https://github.com/JeremyRubin",
      "followers_url": "https://api.github.com/users/JeremyRubin/followers",
      "following_url": "https://api.github.com/users/JeremyRubin/following{/other_user}",
      "gists_url": "https://api.github.com/users/JeremyRubin/gists{/gist_id}",
      "starred_url": "https://api.github.com/users/JeremyRubin/starred{/owner}{/repo}",
      "subscriptions_url": "https://api.github.com/users/JeremyRubin/subscriptions",
      "organizations_url": "https://api.github.com/users/JeremyRubin/orgs",
      "repos_url": "https://api.github.com/users/JeremyRubin/repos",
      "events_url": "https://api.github.com/users/JeremyRubin/events{/privacy}",
      "received_events_url": "https://api.github.com/users/JeremyRubin/received_events",
      "type": "User",
      "site_admin": false
    },
    "created_at": "2015-08-18T17:10:49Z",
    "updated_at": "2015-08-18T17:10:49Z",
    "author_association": "CONTRIBUTOR",
    "body_html": "<p dir=\"auto\">Another potential thing to look at is repeated payments, eg if I pay 0.7832 BTC every week perhaps this identifies me.</p>\n<p dir=\"auto\">I would also think that w.r.t. to change it may be useful to try to pick something based on other common sizes on the chain already.</p>",
    "body_text": "Another potential thing to look at is repeated payments, eg if I pay 0.7832 BTC every week perhaps this identifies me.\nI would also think that w.r.t. to change it may be useful to try to pick something based on other common sizes on the chain already.",
    "body": "Another potential thing to look at is repeated payments, eg if I pay 0.7832 BTC every week perhaps this identifies me.\n\nI would also think that w.r.t. to change it may be useful to try to pick something based on other common sizes on the chain already.\n",
    "reactions": {
      "url": "https://api.github.com/repos/bitcoin/bitcoin/issues/comments/132282560/reactions",
      "total_count": 0,
      "+1": 0,
      "-1": 0,
      "laugh": 0,
      "hooray": 0,
      "confused": 0,
      "heart": 0,
      "rocket": 0,
      "eyes": 0
    },
    "performed_via_github_app": null
  },
  {
    "url": "https://api.github.com/repos/bitcoin/bitcoin/issues/comments/132285275",
    "html_url": "https://github.com/bitcoin/bitcoin/issues/6569#issuecomment-132285275",
    "issue_url": "https://api.github.com/repos/bitcoin/bitcoin/issues/6569",
    "id": 132285275,
    "node_id": "MDEyOklzc3VlQ29tbWVudDEzMjI4NTI3NQ==",
    "user": {
      "login": "jgarzik",
      "id": 494411,
      "node_id": "MDQ6VXNlcjQ5NDQxMQ==",
      "avatar_url": "https://avatars.githubusercontent.com/u/494411?v=4",
      "gravatar_id": "",
      "url": "https://api.github.com/users/jgarzik",
      "html_url": "https://github.com/jgarzik",
      "followers_url": "https://api.github.com/users/jgarzik/followers",
      "following_url": "https://api.github.com/users/jgarzik/following{/other_user}",
      "gists_url": "https://api.github.com/users/jgarzik/gists{/gist_id}",
      "starred_url": "https://api.github.com/users/jgarzik/starred{/owner}{/repo}",
      "subscriptions_url": "https://api.github.com/users/jgarzik/subscriptions",
      "organizations_url": "https://api.github.com/users/jgarzik/orgs",
      "repos_url": "https://api.github.com/users/jgarzik/repos",
      "events_url": "https://api.github.com/users/jgarzik/events{/privacy}",
      "received_events_url": "https://api.github.com/users/jgarzik/received_events",
      "type": "User",
      "site_admin": false
    },
    "created_at": "2015-08-18T17:19:04Z",
    "updated_at": "2015-08-18T17:19:04Z",
    "author_association": "CONTRIBUTOR",
    "body_html": "<p dir=\"auto\"><a class=\"user-mention notranslate\" data-hovercard-type=\"user\" data-hovercard-url=\"/users/JeremyRubin/hovercard\" data-octo-click=\"hovercard-link-click\" data-octo-dimensions=\"link_type:self\" href=\"https://github.com/JeremyRubin\">@JeremyRubin</a> Yes - the example I use is coin denominations within the USD system.  If there are standard amounts widely used, there is perhaps a lower identification factor.</p>",
    "body_text": "@JeremyRubin Yes - the example I use is coin denominations within the USD system.  If there are standard amounts widely used, there is perhaps a lower identification factor.",
    "body": "@JeremyRubin Yes - the example I use is coin denominations within the USD system.  If there are standard amounts widely used, there is perhaps a lower identification factor.\n",
    "reactions": {
      "url": "https://api.github.com/repos/bitcoin/bitcoin/issues/comments/132285275/reactions",
      "total_count": 0,
      "+1": 0,
      "-1": 0,
      "laugh": 0,
      "hooray": 0,
      "confused": 0,
      "heart": 0,
      "rocket": 0,
      "eyes": 0
    },
    "performed_via_github_app": null
  },
  {
    "url": "https://api.github.com/repos/bitcoin/bitcoin/issues/comments/132287956",
    "html_url": "https://github.com/bitcoin/bitcoin/issues/6569#issuecomment-132287956",
    "issue_url": "https://api.github.com/repos/bitcoin/bitcoin/issues/6569",
    "id": 132287956,
    "node_id": "MDEyOklzc3VlQ29tbWVudDEzMjI4Nzk1Ng==",
    "user": {
      "login": "JeremyRubin",
      "id": 886523,
      "node_id": "MDQ6VXNlcjg4NjUyMw==",
      "avatar_url": "https://avatars.githubusercontent.com/u/886523?v=4",
      "gravatar_id": "",
      "url": "https://api.github.com/users/JeremyRubin",
      "html_url": "https://github.com/JeremyRubin",
      "followers_url": "https://api.github.com/users/JeremyRubin/followers",
      "following_url": "https://api.github.com/users/JeremyRubin/following{/other_user}",
      "gists_url": "https://api.github.com/users/JeremyRubin/gists{/gist_id}",
      "starred_url": "https://api.github.com/users/JeremyRubin/starred{/owner}{/repo}",
      "subscriptions_url": "https://api.github.com/users/JeremyRubin/subscriptions",
      "organizations_url": "https://api.github.com/users/JeremyRubin/orgs",
      "repos_url": "https://api.github.com/users/JeremyRubin/repos",
      "events_url": "https://api.github.com/users/JeremyRubin/events{/privacy}",
      "received_events_url": "https://api.github.com/users/JeremyRubin/received_events",
      "type": "User",
      "site_admin": false
    },
    "created_at": "2015-08-18T17:27:18Z",
    "updated_at": "2015-08-18T17:27:18Z",
    "author_association": "CONTRIBUTOR",
    "body_html": "<p dir=\"auto\"><a class=\"user-mention notranslate\" data-hovercard-type=\"user\" data-hovercard-url=\"/users/jgarzik/hovercard\" data-octo-click=\"hovercard-link-click\" data-octo-dimensions=\"link_type:self\" href=\"https://github.com/jgarzik\">@jgarzik</a> Yeah; it's lower because you don't know what conversion rate they are working in, but people keep histories of market data &amp; it would be not to hard to try to look for same-size payments across all spreads. You'd lose bits compared to in-bitcoin amount of course.</p>",
    "body_text": "@jgarzik Yeah; it's lower because you don't know what conversion rate they are working in, but people keep histories of market data & it would be not to hard to try to look for same-size payments across all spreads. You'd lose bits compared to in-bitcoin amount of course.",
    "body": "@jgarzik Yeah; it's lower because you don't know what conversion rate they are working in, but people keep histories of market data & it would be not to hard to try to look for same-size payments across all spreads. You'd lose bits compared to in-bitcoin amount of course.\n",
    "reactions": {
      "url": "https://api.github.com/repos/bitcoin/bitcoin/issues/comments/132287956/reactions",
      "total_count": 0,
      "+1": 0,
      "-1": 0,
      "laugh": 0,
      "hooray": 0,
      "confused": 0,
      "heart": 0,
      "rocket": 0,
      "eyes": 0
    },
    "performed_via_github_app": null
  },
  {
    "url": "https://api.github.com/repos/bitcoin/bitcoin/issues/comments/132289056",
    "html_url": "https://github.com/bitcoin/bitcoin/issues/6569#issuecomment-132289056",
    "issue_url": "https://api.github.com/repos/bitcoin/bitcoin/issues/6569",
    "id": 132289056,
    "node_id": "MDEyOklzc3VlQ29tbWVudDEzMjI4OTA1Ng==",
    "user": {
      "login": "JeremyRubin",
      "id": 886523,
      "node_id": "MDQ6VXNlcjg4NjUyMw==",
      "avatar_url": "https://avatars.githubusercontent.com/u/886523?v=4",
      "gravatar_id": "",
      "url": "https://api.github.com/users/JeremyRubin",
      "html_url": "https://github.com/JeremyRubin",
      "followers_url": "https://api.github.com/users/JeremyRubin/followers",
      "following_url": "https://api.github.com/users/JeremyRubin/following{/other_user}",
      "gists_url": "https://api.github.com/users/JeremyRubin/gists{/gist_id}",
      "starred_url": "https://api.github.com/users/JeremyRubin/starred{/owner}{/repo}",
      "subscriptions_url": "https://api.github.com/users/JeremyRubin/subscriptions",
      "organizations_url": "https://api.github.com/users/JeremyRubin/orgs",
      "repos_url": "https://api.github.com/users/JeremyRubin/repos",
      "events_url": "https://api.github.com/users/JeremyRubin/events{/privacy}",
      "received_events_url": "https://api.github.com/users/JeremyRubin/received_events",
      "type": "User",
      "site_admin": false
    },
    "created_at": "2015-08-18T17:29:33Z",
    "updated_at": "2015-08-18T17:29:52Z",
    "author_association": "CONTRIBUTOR",
    "body_html": "<p dir=\"auto\"><a class=\"user-mention notranslate\" data-hovercard-type=\"user\" data-hovercard-url=\"/users/jgarzik/hovercard\" data-octo-click=\"hovercard-link-click\" data-octo-dimensions=\"link_type:self\" href=\"https://github.com/jgarzik\">@jgarzik</a> w.r.t. the original zero coin (not cash) design, iirc, the protocol impinges on putting a standard amount in or out of the commitment. Eg, 1 BTC in, 1 BTC out. Perhaps having some type of standard size transactions would make developing such systems easier as well.</p>",
    "body_text": "@jgarzik w.r.t. the original zero coin (not cash) design, iirc, the protocol impinges on putting a standard amount in or out of the commitment. Eg, 1 BTC in, 1 BTC out. Perhaps having some type of standard size transactions would make developing such systems easier as well.",
    "body": "@jgarzik w.r.t. the original zero coin (not cash) design, iirc, the protocol impinges on putting a standard amount in or out of the commitment. Eg, 1 BTC in, 1 BTC out. Perhaps having some type of standard size transactions would make developing such systems easier as well.\n",
    "reactions": {
      "url": "https://api.github.com/repos/bitcoin/bitcoin/issues/comments/132289056/reactions",
      "total_count": 0,
      "+1": 0,
      "-1": 0,
      "laugh": 0,
      "hooray": 0,
      "confused": 0,
      "heart": 0,
      "rocket": 0,
      "eyes": 0
    },
    "performed_via_github_app": null
  },
  {
    "url": "https://api.github.com/repos/bitcoin/bitcoin/issues/comments/1212771195",
    "html_url": "https://github.com/bitcoin/bitcoin/issues/6569#issuecomment-1212771195",
    "issue_url": "https://api.github.com/repos/bitcoin/bitcoin/issues/6569",
    "id": 1212771195,
    "node_id": "IC_kwDOABII585ISWt7",
    "user": {
      "login": "maflcko",
      "id": 6399679,
      "node_id": "MDQ6VXNlcjYzOTk2Nzk=",
      "avatar_url": "https://avatars.githubusercontent.com/u/6399679?v=4",
      "gravatar_id": "",
      "url": "https://api.github.com/users/maflcko",
      "html_url": "https://github.com/maflcko",
      "followers_url": "https://api.github.com/users/maflcko/followers",
      "following_url": "https://api.github.com/users/maflcko/following{/other_user}",
      "gists_url": "https://api.github.com/users/maflcko/gists{/gist_id}",
      "starred_url": "https://api.github.com/users/maflcko/starred{/owner}{/repo}",
      "subscriptions_url": "https://api.github.com/users/maflcko/subscriptions",
      "organizations_url": "https://api.github.com/users/maflcko/orgs",
      "repos_url": "https://api.github.com/users/maflcko/repos",
      "events_url": "https://api.github.com/users/maflcko/events{/privacy}",
      "received_events_url": "https://api.github.com/users/maflcko/received_events",
      "type": "User",
      "site_admin": false
    },
    "created_at": "2022-08-12T06:24:57Z",
    "updated_at": "2022-08-12T07:42:30Z",
    "author_association": "MEMBER",
    "body_html": "<p dir=\"auto\">I think this was implemented in <code class=\"notranslate\">GenerateChangeTarget</code> (<a class=\"issue-link js-issue-link\" data-error-text=\"Failed to load title\" data-id=\"1161522348\" data-permission-text=\"Title is private\" data-url=\"https://github.com/bitcoin/bitcoin/issues/24494\" data-hovercard-type=\"pull_request\" data-hovercard-url=\"/bitcoin/bitcoin/pull/24494/hovercard\" href=\"https://github.com/bitcoin/bitcoin/pull/24494\">#24494</a>)</p>",
    "body_text": "I think this was implemented in GenerateChangeTarget (#24494)",
    "body": "I think this was implemented in `GenerateChangeTarget` (https://github.com/bitcoin/bitcoin/issues/24494)",
    "reactions": {
      "url": "https://api.github.com/repos/bitcoin/bitcoin/issues/comments/1212771195/reactions",
      "total_count": 0,
      "+1": 0,
      "-1": 0,
      "laugh": 0,
      "hooray": 0,
      "confused": 0,
      "heart": 0,
      "rocket": 0,
      "eyes": 0
    },
    "performed_via_github_app": null
  }
]
