[
  {
    "url": "https://api.github.com/repos/bitcoin/bitcoin/issues/comments/281126907",
    "html_url": "https://github.com/bitcoin/bitcoin/issues/9811#issuecomment-281126907",
    "issue_url": "https://api.github.com/repos/bitcoin/bitcoin/issues/9811",
    "id": 281126907,
    "node_id": "MDEyOklzc3VlQ29tbWVudDI4MTEyNjkwNw==",
    "user": {
      "login": "stefment",
      "id": 8888420,
      "node_id": "MDQ6VXNlcjg4ODg0MjA=",
      "avatar_url": "https://avatars.githubusercontent.com/u/8888420?v=4",
      "gravatar_id": "",
      "url": "https://api.github.com/users/stefment",
      "html_url": "https://github.com/stefment",
      "followers_url": "https://api.github.com/users/stefment/followers",
      "following_url": "https://api.github.com/users/stefment/following{/other_user}",
      "gists_url": "https://api.github.com/users/stefment/gists{/gist_id}",
      "starred_url": "https://api.github.com/users/stefment/starred{/owner}{/repo}",
      "subscriptions_url": "https://api.github.com/users/stefment/subscriptions",
      "organizations_url": "https://api.github.com/users/stefment/orgs",
      "repos_url": "https://api.github.com/users/stefment/repos",
      "events_url": "https://api.github.com/users/stefment/events{/privacy}",
      "received_events_url": "https://api.github.com/users/stefment/received_events",
      "type": "User",
      "site_admin": false
    },
    "created_at": "2017-02-20T16:41:26Z",
    "updated_at": "2017-02-20T16:41:37Z",
    "author_association": "NONE",
    "body_html": "<p dir=\"auto\">At what point do \"we\" give up on automatic fee calculation? It seems like something a computer will never be able to do properly. I think we need to improve the tools that provide information to the user, to help him make as good a decision as possible when it comes to fees. I dont know. Maybe the way in which blocks are produced have to change. For example braiding/juteing to reduce variance. I really dont know. But i think trying to make automatic fee estimation work is starting to become a headache.</p>\n<p dir=\"auto\">Maybe a simple fix in this case could be \"Warning, an unusal number of minutes have passed since last block so the fee estimation may be unrealiable at this point\" Or something like that.</p>",
    "body_text": "At what point do \"we\" give up on automatic fee calculation? It seems like something a computer will never be able to do properly. I think we need to improve the tools that provide information to the user, to help him make as good a decision as possible when it comes to fees. I dont know. Maybe the way in which blocks are produced have to change. For example braiding/juteing to reduce variance. I really dont know. But i think trying to make automatic fee estimation work is starting to become a headache.\nMaybe a simple fix in this case could be \"Warning, an unusal number of minutes have passed since last block so the fee estimation may be unrealiable at this point\" Or something like that.",
    "body": "At what point do \"we\" give up on automatic fee calculation? It seems like something a computer will never be able to do properly. I think we need to improve the tools that provide information to the user, to help him make as good a decision as possible when it comes to fees. I dont know. Maybe the way in which blocks are produced have to change. For example braiding/juteing to reduce variance. I really dont know. But i think trying to make automatic fee estimation work is starting to become a headache. \r\n\r\nMaybe a simple fix in this case could be \"Warning, an unusal number of minutes have passed since last block so the fee estimation may be unrealiable at this point\" Or something like that.",
    "reactions": {
      "url": "https://api.github.com/repos/bitcoin/bitcoin/issues/comments/281126907/reactions",
      "total_count": 0,
      "+1": 0,
      "-1": 0,
      "laugh": 0,
      "hooray": 0,
      "confused": 0,
      "heart": 0,
      "rocket": 0,
      "eyes": 0
    },
    "performed_via_github_app": null
  },
  {
    "url": "https://api.github.com/repos/bitcoin/bitcoin/issues/comments/282582386",
    "html_url": "https://github.com/bitcoin/bitcoin/issues/9811#issuecomment-282582386",
    "issue_url": "https://api.github.com/repos/bitcoin/bitcoin/issues/9811",
    "id": 282582386,
    "node_id": "MDEyOklzc3VlQ29tbWVudDI4MjU4MjM4Ng==",
    "user": {
      "login": "RHavar",
      "id": 9326759,
      "node_id": "MDQ6VXNlcjkzMjY3NTk=",
      "avatar_url": "https://avatars.githubusercontent.com/u/9326759?v=4",
      "gravatar_id": "",
      "url": "https://api.github.com/users/RHavar",
      "html_url": "https://github.com/RHavar",
      "followers_url": "https://api.github.com/users/RHavar/followers",
      "following_url": "https://api.github.com/users/RHavar/following{/other_user}",
      "gists_url": "https://api.github.com/users/RHavar/gists{/gist_id}",
      "starred_url": "https://api.github.com/users/RHavar/starred{/owner}{/repo}",
      "subscriptions_url": "https://api.github.com/users/RHavar/subscriptions",
      "organizations_url": "https://api.github.com/users/RHavar/orgs",
      "repos_url": "https://api.github.com/users/RHavar/repos",
      "events_url": "https://api.github.com/users/RHavar/events{/privacy}",
      "received_events_url": "https://api.github.com/users/RHavar/received_events",
      "type": "User",
      "site_admin": false
    },
    "created_at": "2017-02-26T19:58:40Z",
    "updated_at": "2017-02-26T19:58:40Z",
    "author_association": "CONTRIBUTOR",
    "body_html": "<p dir=\"auto\">On the flip-side, when transaction fees are going down -- core's fee estimation similarly seems to behave rather poorly. Here's another screenshot:</p>\n<p dir=\"auto\"><a target=\"_blank\" rel=\"noopener noreferrer nofollow\" href=\"https://cloud.githubusercontent.com/assets/9326759/23343066/e630afa2-fc2a-11e6-8ce6-dbd1eac9057f.png\"><img width=\"1149\" alt=\"screen shot 2017-02-25 at 7 05 10 pm\" src=\"https://cloud.githubusercontent.com/assets/9326759/23343066/e630afa2-fc2a-11e6-8ce6-dbd1eac9057f.png\" style=\"max-width: 100%;\"></a></p>\n<p dir=\"auto\">This weekend (when fee competition is low), the fee estimation is typically x2 or x3 of what is reasonable (especially with like 25). I've been comparing core's estimate fee against external ones (e.g. blockcypher ) and the fee estimations seem universally more accurate.</p>",
    "body_text": "On the flip-side, when transaction fees are going down -- core's fee estimation similarly seems to behave rather poorly. Here's another screenshot:\n\nThis weekend (when fee competition is low), the fee estimation is typically x2 or x3 of what is reasonable (especially with like 25). I've been comparing core's estimate fee against external ones (e.g. blockcypher ) and the fee estimations seem universally more accurate.",
    "body": "On the flip-side, when transaction fees are going down -- core's fee estimation similarly seems to behave rather poorly. Here's another screenshot:\r\n\r\n<img width=\"1149\" alt=\"screen shot 2017-02-25 at 7 05 10 pm\" src=\"https://cloud.githubusercontent.com/assets/9326759/23343066/e630afa2-fc2a-11e6-8ce6-dbd1eac9057f.png\">\r\n\r\nThis weekend (when fee competition is low), the fee estimation is typically x2 or x3 of what is reasonable (especially with like 25). I've been comparing core's estimate fee against external ones (e.g. blockcypher ) and the fee estimations seem universally more accurate.",
    "reactions": {
      "url": "https://api.github.com/repos/bitcoin/bitcoin/issues/comments/282582386/reactions",
      "total_count": 0,
      "+1": 0,
      "-1": 0,
      "laugh": 0,
      "hooray": 0,
      "confused": 0,
      "heart": 0,
      "rocket": 0,
      "eyes": 0
    },
    "performed_via_github_app": null
  },
  {
    "url": "https://api.github.com/repos/bitcoin/bitcoin/issues/comments/327168590",
    "html_url": "https://github.com/bitcoin/bitcoin/issues/9811#issuecomment-327168590",
    "issue_url": "https://api.github.com/repos/bitcoin/bitcoin/issues/9811",
    "id": 327168590,
    "node_id": "MDEyOklzc3VlQ29tbWVudDMyNzE2ODU5MA==",
    "user": {
      "login": "Leviathn",
      "id": 14876936,
      "node_id": "MDQ6VXNlcjE0ODc2OTM2",
      "avatar_url": "https://avatars.githubusercontent.com/u/14876936?v=4",
      "gravatar_id": "",
      "url": "https://api.github.com/users/Leviathn",
      "html_url": "https://github.com/Leviathn",
      "followers_url": "https://api.github.com/users/Leviathn/followers",
      "following_url": "https://api.github.com/users/Leviathn/following{/other_user}",
      "gists_url": "https://api.github.com/users/Leviathn/gists{/gist_id}",
      "starred_url": "https://api.github.com/users/Leviathn/starred{/owner}{/repo}",
      "subscriptions_url": "https://api.github.com/users/Leviathn/subscriptions",
      "organizations_url": "https://api.github.com/users/Leviathn/orgs",
      "repos_url": "https://api.github.com/users/Leviathn/repos",
      "events_url": "https://api.github.com/users/Leviathn/events{/privacy}",
      "received_events_url": "https://api.github.com/users/Leviathn/received_events",
      "type": "User",
      "site_admin": false
    },
    "created_at": "2017-09-05T13:04:01Z",
    "updated_at": "2017-09-05T13:04:01Z",
    "author_association": "NONE",
    "body_html": "<p dir=\"auto\">I believe cases where this is possible are nearly universally resolved by the Fee-Rate upgrades in .15, is this closeable <a class=\"user-mention notranslate\" data-hovercard-type=\"user\" data-hovercard-url=\"/users/RHavar/hovercard\" data-octo-click=\"hovercard-link-click\" data-octo-dimensions=\"link_type:self\" href=\"https://github.com/RHavar\">@RHavar</a>?</p>",
    "body_text": "I believe cases where this is possible are nearly universally resolved by the Fee-Rate upgrades in .15, is this closeable @RHavar?",
    "body": "I believe cases where this is possible are nearly universally resolved by the Fee-Rate upgrades in .15, is this closeable @RHavar?",
    "reactions": {
      "url": "https://api.github.com/repos/bitcoin/bitcoin/issues/comments/327168590/reactions",
      "total_count": 0,
      "+1": 0,
      "-1": 0,
      "laugh": 0,
      "hooray": 0,
      "confused": 0,
      "heart": 0,
      "rocket": 0,
      "eyes": 0
    },
    "performed_via_github_app": null
  },
  {
    "url": "https://api.github.com/repos/bitcoin/bitcoin/issues/comments/327245430",
    "html_url": "https://github.com/bitcoin/bitcoin/issues/9811#issuecomment-327245430",
    "issue_url": "https://api.github.com/repos/bitcoin/bitcoin/issues/9811",
    "id": 327245430,
    "node_id": "MDEyOklzc3VlQ29tbWVudDMyNzI0NTQzMA==",
    "user": {
      "login": "RHavar",
      "id": 9326759,
      "node_id": "MDQ6VXNlcjkzMjY3NTk=",
      "avatar_url": "https://avatars.githubusercontent.com/u/9326759?v=4",
      "gravatar_id": "",
      "url": "https://api.github.com/users/RHavar",
      "html_url": "https://github.com/RHavar",
      "followers_url": "https://api.github.com/users/RHavar/followers",
      "following_url": "https://api.github.com/users/RHavar/following{/other_user}",
      "gists_url": "https://api.github.com/users/RHavar/gists{/gist_id}",
      "starred_url": "https://api.github.com/users/RHavar/starred{/owner}{/repo}",
      "subscriptions_url": "https://api.github.com/users/RHavar/subscriptions",
      "organizations_url": "https://api.github.com/users/RHavar/orgs",
      "repos_url": "https://api.github.com/users/RHavar/repos",
      "events_url": "https://api.github.com/users/RHavar/events{/privacy}",
      "received_events_url": "https://api.github.com/users/RHavar/received_events",
      "type": "User",
      "site_admin": false
    },
    "created_at": "2017-09-05T17:20:57Z",
    "updated_at": "2017-09-05T17:20:57Z",
    "author_association": "CONTRIBUTOR",
    "body_html": "<p dir=\"auto\">It still can and does happen in 0.15, but I'm not particularly sure the issue is very actionable.</p>\n<p dir=\"auto\">One hack you could do, is that if calling <code class=\"notranslate\">estimatefee N</code> get the fee rate at the place of (N*4e6 + someSortOfLienency) weight of the mempool (sorting by by fee/weight)  and pick which ever is lower.</p>\n<p dir=\"auto\">Basically that way if there's a sudden surge in required fees (because of no blocks, or lots of high feee paying transactions), it never suggests something that is outright impossible. It's a total hack, so I understand if it's not wanted (and I'll close the issue).</p>\n<p dir=\"auto\"><a class=\"user-mention notranslate\" data-hovercard-type=\"user\" data-hovercard-url=\"/users/morcos/hovercard\" data-octo-click=\"hovercard-link-click\" data-octo-dimensions=\"link_type:self\" href=\"https://github.com/morcos\">@morcos</a>  thoughts?</p>",
    "body_text": "It still can and does happen in 0.15, but I'm not particularly sure the issue is very actionable.\nOne hack you could do, is that if calling estimatefee N get the fee rate at the place of (N*4e6 + someSortOfLienency) weight of the mempool (sorting by by fee/weight)  and pick which ever is lower.\nBasically that way if there's a sudden surge in required fees (because of no blocks, or lots of high feee paying transactions), it never suggests something that is outright impossible. It's a total hack, so I understand if it's not wanted (and I'll close the issue).\n@morcos  thoughts?",
    "body": "It still can and does happen in 0.15, but I'm not particularly sure the issue is very actionable. \r\n\r\nOne hack you could do, is that if calling `estimatefee N` get the fee rate at the place of (N*4e6 + someSortOfLienency) weight of the mempool (sorting by by fee/weight)  and pick which ever is lower.\r\n\r\nBasically that way if there's a sudden surge in required fees (because of no blocks, or lots of high feee paying transactions), it never suggests something that is outright impossible. It's a total hack, so I understand if it's not wanted (and I'll close the issue).\r\n\r\n@morcos  thoughts?",
    "reactions": {
      "url": "https://api.github.com/repos/bitcoin/bitcoin/issues/comments/327245430/reactions",
      "total_count": 0,
      "+1": 0,
      "-1": 0,
      "laugh": 0,
      "hooray": 0,
      "confused": 0,
      "heart": 0,
      "rocket": 0,
      "eyes": 0
    },
    "performed_via_github_app": null
  },
  {
    "url": "https://api.github.com/repos/bitcoin/bitcoin/issues/comments/327630639",
    "html_url": "https://github.com/bitcoin/bitcoin/issues/9811#issuecomment-327630639",
    "issue_url": "https://api.github.com/repos/bitcoin/bitcoin/issues/9811",
    "id": 327630639,
    "node_id": "MDEyOklzc3VlQ29tbWVudDMyNzYzMDYzOQ==",
    "user": {
      "login": "morcos",
      "id": 4360349,
      "node_id": "MDQ6VXNlcjQzNjAzNDk=",
      "avatar_url": "https://avatars.githubusercontent.com/u/4360349?v=4",
      "gravatar_id": "",
      "url": "https://api.github.com/users/morcos",
      "html_url": "https://github.com/morcos",
      "followers_url": "https://api.github.com/users/morcos/followers",
      "following_url": "https://api.github.com/users/morcos/following{/other_user}",
      "gists_url": "https://api.github.com/users/morcos/gists{/gist_id}",
      "starred_url": "https://api.github.com/users/morcos/starred{/owner}{/repo}",
      "subscriptions_url": "https://api.github.com/users/morcos/subscriptions",
      "organizations_url": "https://api.github.com/users/morcos/orgs",
      "repos_url": "https://api.github.com/users/morcos/repos",
      "events_url": "https://api.github.com/users/morcos/events{/privacy}",
      "received_events_url": "https://api.github.com/users/morcos/received_events",
      "type": "User",
      "site_admin": false
    },
    "created_at": "2017-09-06T22:33:58Z",
    "updated_at": "2017-09-06T22:33:58Z",
    "author_association": "MEMBER",
    "body_html": "<p dir=\"auto\">You are talking about <code class=\"notranslate\">estimatefee</code> and not <code class=\"notranslate\">estimatesmartfee</code> ?<br>\nThere is no reason to use <code class=\"notranslate\">estimatefee</code> any more and it is deprecated.  I don't think this would be an issue with <code class=\"notranslate\">estimatesmartfee</code>, but if it is, please let me know.</p>",
    "body_text": "You are talking about estimatefee and not estimatesmartfee ?\nThere is no reason to use estimatefee any more and it is deprecated.  I don't think this would be an issue with estimatesmartfee, but if it is, please let me know.",
    "body": "You are talking about `estimatefee` and not `estimatesmartfee` ?\r\nThere is no reason to use `estimatefee` any more and it is deprecated.  I don't think this would be an issue with `estimatesmartfee`, but if it is, please let me know.",
    "reactions": {
      "url": "https://api.github.com/repos/bitcoin/bitcoin/issues/comments/327630639/reactions",
      "total_count": 0,
      "+1": 0,
      "-1": 0,
      "laugh": 0,
      "hooray": 0,
      "confused": 0,
      "heart": 0,
      "rocket": 0,
      "eyes": 0
    },
    "performed_via_github_app": null
  }
]
