{
  "url": "https://api.github.com/repos/bitcoin/bitcoin/issues/18293",
  "repository_url": "https://api.github.com/repos/bitcoin/bitcoin",
  "labels_url": "https://api.github.com/repos/bitcoin/bitcoin/issues/18293/labels{/name}",
  "comments_url": "https://api.github.com/repos/bitcoin/bitcoin/issues/18293/comments",
  "events_url": "https://api.github.com/repos/bitcoin/bitcoin/issues/18293/events",
  "html_url": "https://github.com/bitcoin/bitcoin/pull/18293",
  "id": 577422947,
  "node_id": "MDExOlB1bGxSZXF1ZXN0Mzg1MjA5NzUw",
  "number": 18293,
  "title": "tests: Remove exclusion of the feature_block test in the Travis ThreadSanitizer (TSan) job",
  "user": {
    "login": "practicalswift",
    "id": 7826565,
    "node_id": "MDQ6VXNlcjc4MjY1NjU=",
    "avatar_url": "https://avatars.githubusercontent.com/u/7826565?v=4",
    "gravatar_id": "",
    "url": "https://api.github.com/users/practicalswift",
    "html_url": "https://github.com/practicalswift",
    "followers_url": "https://api.github.com/users/practicalswift/followers",
    "following_url": "https://api.github.com/users/practicalswift/following{/other_user}",
    "gists_url": "https://api.github.com/users/practicalswift/gists{/gist_id}",
    "starred_url": "https://api.github.com/users/practicalswift/starred{/owner}{/repo}",
    "subscriptions_url": "https://api.github.com/users/practicalswift/subscriptions",
    "organizations_url": "https://api.github.com/users/practicalswift/orgs",
    "repos_url": "https://api.github.com/users/practicalswift/repos",
    "events_url": "https://api.github.com/users/practicalswift/events{/privacy}",
    "received_events_url": "https://api.github.com/users/practicalswift/received_events",
    "type": "User",
    "site_admin": false
  },
  "labels": [
    {
      "id": 62963516,
      "node_id": "MDU6TGFiZWw2Mjk2MzUxNg==",
      "url": "https://api.github.com/repos/bitcoin/bitcoin/labels/Tests",
      "name": "Tests",
      "color": "d4c5f9",
      "default": false,
      "description": null
    }
  ],
  "state": "closed",
  "locked": true,
  "assignee": null,
  "assignees": [

  ],
  "milestone": null,
  "comments": 3,
  "created_at": "2020-03-08T00:35:22Z",
  "updated_at": "2022-08-18T18:22:29Z",
  "closed_at": "2020-03-08T08:11:07Z",
  "author_association": "CONTRIBUTOR",
  "active_lock_reason": "resolved",
  "draft": false,
  "pull_request": {
    "url": "https://api.github.com/repos/bitcoin/bitcoin/pulls/18293",
    "html_url": "https://github.com/bitcoin/bitcoin/pull/18293",
    "diff_url": "https://github.com/bitcoin/bitcoin/pull/18293.diff",
    "patch_url": "https://github.com/bitcoin/bitcoin/pull/18293.patch",
    "merged_at": null
  },
  "body_html": "<p dir=\"auto\">Remove exclusion of the <code class=\"notranslate\">feature_block</code> test in the Travis ThreadSanitizer (TSan) job.</p>\n<p dir=\"auto\">Exclusion no longer needed AFAICT.</p>",
  "body_text": "Remove exclusion of the feature_block test in the Travis ThreadSanitizer (TSan) job.\nExclusion no longer needed AFAICT.",
  "body": "Remove exclusion of the `feature_block` test in the Travis ThreadSanitizer (TSan) job.\r\n\r\nExclusion no longer needed AFAICT.",
  "closed_by": {
    "login": "practicalswift",
    "id": 7826565,
    "node_id": "MDQ6VXNlcjc4MjY1NjU=",
    "avatar_url": "https://avatars.githubusercontent.com/u/7826565?v=4",
    "gravatar_id": "",
    "url": "https://api.github.com/users/practicalswift",
    "html_url": "https://github.com/practicalswift",
    "followers_url": "https://api.github.com/users/practicalswift/followers",
    "following_url": "https://api.github.com/users/practicalswift/following{/other_user}",
    "gists_url": "https://api.github.com/users/practicalswift/gists{/gist_id}",
    "starred_url": "https://api.github.com/users/practicalswift/starred{/owner}{/repo}",
    "subscriptions_url": "https://api.github.com/users/practicalswift/subscriptions",
    "organizations_url": "https://api.github.com/users/practicalswift/orgs",
    "repos_url": "https://api.github.com/users/practicalswift/repos",
    "events_url": "https://api.github.com/users/practicalswift/events{/privacy}",
    "received_events_url": "https://api.github.com/users/practicalswift/received_events",
    "type": "User",
    "site_admin": false
  },
  "reactions": {
    "url": "https://api.github.com/repos/bitcoin/bitcoin/issues/18293/reactions",
    "total_count": 0,
    "+1": 0,
    "-1": 0,
    "laugh": 0,
    "hooray": 0,
    "confused": 0,
    "heart": 0,
    "rocket": 0,
    "eyes": 0
  },
  "timeline_url": "https://api.github.com/repos/bitcoin/bitcoin/issues/18293/timeline",
  "performed_via_github_app": null,
  "state_reason": null
}
