{
  "url": "https://api.github.com/repos/bitcoin/bitcoin/issues/7284",
  "repository_url": "https://api.github.com/repos/bitcoin/bitcoin",
  "labels_url": "https://api.github.com/repos/bitcoin/bitcoin/issues/7284/labels{/name}",
  "comments_url": "https://api.github.com/repos/bitcoin/bitcoin/issues/7284/comments",
  "events_url": "https://api.github.com/repos/bitcoin/bitcoin/issues/7284/events",
  "html_url": "https://github.com/bitcoin/bitcoin/issues/7284",
  "id": 124751000,
  "node_id": "MDU6SXNzdWUxMjQ3NTEwMDA=",
  "number": 7284,
  "title": "Qt client does not build on Fedora",
  "user": {
    "login": "stevenroose",
    "id": 853468,
    "node_id": "MDQ6VXNlcjg1MzQ2OA==",
    "avatar_url": "https://avatars.githubusercontent.com/u/853468?v=4",
    "gravatar_id": "",
    "url": "https://api.github.com/users/stevenroose",
    "html_url": "https://github.com/stevenroose",
    "followers_url": "https://api.github.com/users/stevenroose/followers",
    "following_url": "https://api.github.com/users/stevenroose/following{/other_user}",
    "gists_url": "https://api.github.com/users/stevenroose/gists{/gist_id}",
    "starred_url": "https://api.github.com/users/stevenroose/starred{/owner}{/repo}",
    "subscriptions_url": "https://api.github.com/users/stevenroose/subscriptions",
    "organizations_url": "https://api.github.com/users/stevenroose/orgs",
    "repos_url": "https://api.github.com/users/stevenroose/repos",
    "events_url": "https://api.github.com/users/stevenroose/events{/privacy}",
    "received_events_url": "https://api.github.com/users/stevenroose/received_events",
    "type": "User",
    "site_admin": false
  },
  "labels": [

  ],
  "state": "closed",
  "locked": true,
  "assignee": null,
  "assignees": [

  ],
  "milestone": null,
  "comments": 2,
  "created_at": "2016-01-04T12:25:43Z",
  "updated_at": "2021-09-08T12:34:27Z",
  "closed_at": "2016-01-04T12:51:35Z",
  "author_association": "CONTRIBUTOR",
  "active_lock_reason": "resolved",
  "body_html": "<p dir=\"auto\">I tried to map alle the Debian dependencies mentioned in the docs to a Fedora equivalent, but seemingly something is missing.</p>\n<p dir=\"auto\">These are the ones I installed (for the GUI only, <code class=\"notranslate\">bitcoind</code> builds fine):</p>\n<ul dir=\"auto\">\n<li><code class=\"notranslate\">qt5-qtbase-gui</code> (for <code class=\"notranslate\">libqt5gui5</code>)</li>\n<li><code class=\"notranslate\">qt5-qtbase</code>, <code class=\"notranslate\">qt5-qtbase-common</code> and <code class=\"notranslate\">qt5-qtbase-devel</code> (for <code class=\"notranslate\">libqt5dbus5</code>) (<a href=\"https://rpmfind.net/linux/rpm2html/search.php?query=libQt5DBus.so.5%28%29%2864bit%29\" rel=\"nofollow\">source</a>)</li>\n<li><code class=\"notranslate\">qt5-qttools</code>, <code class=\"notranslate\">qt5-qttools-devel</code> and <code class=\"notranslate\">qt5-qttools-common</code> (for <code class=\"notranslate\">qttools5-dev</code> and <code class=\"notranslate\">qttools5-dev-tools</code>)</li>\n<li><code class=\"notranslate\">protobuf-devel</code> (for <code class=\"notranslate\">libprotobuf-dev</code>)</li>\n<li><code class=\"notranslate\">protobuf-compiler</code> (for <code class=\"notranslate\">protobuf-compiler</code>)</li>\n</ul>\n<p dir=\"auto\">The only one explicitly missing is <code class=\"notranslate\">libqt5core5a</code>, however since it is the core Qt5 module, I would believe <code class=\"notranslate\">qt5-qtbase</code> would have to be good...</p>\n<p dir=\"auto\">These are the outputs of the compilation steps:<br>\n<a href=\"https://gist.github.com/stevenroose/cd681bcdaf1ae5b701d8\">https://gist.github.com/stevenroose/cd681bcdaf1ae5b701d8</a></p>\n<p dir=\"auto\">It might be relevant to note that I have KDE Plasma 5 installed, so I use Qt for almost all my applications.</p>",
  "body_text": "I tried to map alle the Debian dependencies mentioned in the docs to a Fedora equivalent, but seemingly something is missing.\nThese are the ones I installed (for the GUI only, bitcoind builds fine):\n\nqt5-qtbase-gui (for libqt5gui5)\nqt5-qtbase, qt5-qtbase-common and qt5-qtbase-devel (for libqt5dbus5) (source)\nqt5-qttools, qt5-qttools-devel and qt5-qttools-common (for qttools5-dev and qttools5-dev-tools)\nprotobuf-devel (for libprotobuf-dev)\nprotobuf-compiler (for protobuf-compiler)\n\nThe only one explicitly missing is libqt5core5a, however since it is the core Qt5 module, I would believe qt5-qtbase would have to be good...\nThese are the outputs of the compilation steps:\nhttps://gist.github.com/stevenroose/cd681bcdaf1ae5b701d8\nIt might be relevant to note that I have KDE Plasma 5 installed, so I use Qt for almost all my applications.",
  "body": "I tried to map alle the Debian dependencies mentioned in the docs to a Fedora equivalent, but seemingly something is missing.\n\nThese are the ones I installed (for the GUI only, `bitcoind` builds fine):\n- `qt5-qtbase-gui` (for `libqt5gui5`)\n- `qt5-qtbase`, `qt5-qtbase-common` and `qt5-qtbase-devel` (for `libqt5dbus5`) ([source](https://rpmfind.net/linux/rpm2html/search.php?query=libQt5DBus.so.5%28%29%2864bit%29))\n- `qt5-qttools`, `qt5-qttools-devel` and `qt5-qttools-common` (for `qttools5-dev` and `qttools5-dev-tools`)\n- `protobuf-devel` (for `libprotobuf-dev`)\n- `protobuf-compiler` (for `protobuf-compiler`)\n\nThe only one explicitly missing is `libqt5core5a`, however since it is the core Qt5 module, I would believe `qt5-qtbase` would have to be good...\n\nThese are the outputs of the compilation steps:\nhttps://gist.github.com/stevenroose/cd681bcdaf1ae5b701d8\n\nIt might be relevant to note that I have KDE Plasma 5 installed, so I use Qt for almost all my applications.\n",
  "closed_by": {
    "login": "stevenroose",
    "id": 853468,
    "node_id": "MDQ6VXNlcjg1MzQ2OA==",
    "avatar_url": "https://avatars.githubusercontent.com/u/853468?v=4",
    "gravatar_id": "",
    "url": "https://api.github.com/users/stevenroose",
    "html_url": "https://github.com/stevenroose",
    "followers_url": "https://api.github.com/users/stevenroose/followers",
    "following_url": "https://api.github.com/users/stevenroose/following{/other_user}",
    "gists_url": "https://api.github.com/users/stevenroose/gists{/gist_id}",
    "starred_url": "https://api.github.com/users/stevenroose/starred{/owner}{/repo}",
    "subscriptions_url": "https://api.github.com/users/stevenroose/subscriptions",
    "organizations_url": "https://api.github.com/users/stevenroose/orgs",
    "repos_url": "https://api.github.com/users/stevenroose/repos",
    "events_url": "https://api.github.com/users/stevenroose/events{/privacy}",
    "received_events_url": "https://api.github.com/users/stevenroose/received_events",
    "type": "User",
    "site_admin": false
  },
  "reactions": {
    "url": "https://api.github.com/repos/bitcoin/bitcoin/issues/7284/reactions",
    "total_count": 0,
    "+1": 0,
    "-1": 0,
    "laugh": 0,
    "hooray": 0,
    "confused": 0,
    "heart": 0,
    "rocket": 0,
    "eyes": 0
  },
  "timeline_url": "https://api.github.com/repos/bitcoin/bitcoin/issues/7284/timeline",
  "performed_via_github_app": null,
  "state_reason": "completed"
}
