[
  {
    "url": "https://api.github.com/repos/bitcoin/bitcoin/issues/comments/613876373",
    "html_url": "https://github.com/bitcoin/bitcoin/pull/18646#issuecomment-613876373",
    "issue_url": "https://api.github.com/repos/bitcoin/bitcoin/issues/18646",
    "id": 613876373,
    "node_id": "MDEyOklzc3VlQ29tbWVudDYxMzg3NjM3Mw==",
    "user": {
      "login": "jonasschnelli",
      "id": 178464,
      "node_id": "MDQ6VXNlcjE3ODQ2NA==",
      "avatar_url": "https://avatars.githubusercontent.com/u/178464?v=4",
      "gravatar_id": "",
      "url": "https://api.github.com/users/jonasschnelli",
      "html_url": "https://github.com/jonasschnelli",
      "followers_url": "https://api.github.com/users/jonasschnelli/followers",
      "following_url": "https://api.github.com/users/jonasschnelli/following{/other_user}",
      "gists_url": "https://api.github.com/users/jonasschnelli/gists{/gist_id}",
      "starred_url": "https://api.github.com/users/jonasschnelli/starred{/owner}{/repo}",
      "subscriptions_url": "https://api.github.com/users/jonasschnelli/subscriptions",
      "organizations_url": "https://api.github.com/users/jonasschnelli/orgs",
      "repos_url": "https://api.github.com/users/jonasschnelli/repos",
      "events_url": "https://api.github.com/users/jonasschnelli/events{/privacy}",
      "received_events_url": "https://api.github.com/users/jonasschnelli/received_events",
      "type": "User",
      "site_admin": false
    },
    "created_at": "2020-04-15T07:49:04Z",
    "updated_at": "2020-04-15T07:49:04Z",
    "author_association": "CONTRIBUTOR",
    "body_html": "<p dir=\"auto\">Thanks. utACK <a class=\"commit-link\" data-hovercard-type=\"commit\" data-hovercard-url=\"https://github.com/bitcoin/bitcoin/commit/1b04302e43c91cf2353c545e646e50a672eab300/hovercard\" href=\"https://github.com/bitcoin/bitcoin/commit/1b04302e43c91cf2353c545e646e50a672eab300\"><tt>1b04302</tt></a><br>\nBitcoin will soon merge this.</p>",
    "body_text": "Thanks. utACK 1b04302\nBitcoin will soon merge this.",
    "body": "Thanks. utACK 1b04302e43c91cf2353c545e646e50a672eab300\r\nBitcoin will soon merge this.",
    "reactions": {
      "url": "https://api.github.com/repos/bitcoin/bitcoin/issues/comments/613876373/reactions",
      "total_count": 1,
      "+1": 0,
      "-1": 0,
      "laugh": 0,
      "hooray": 0,
      "confused": 0,
      "heart": 0,
      "rocket": 0,
      "eyes": 1
    },
    "performed_via_github_app": null
  },
  {
    "url": "https://api.github.com/repos/bitcoin/bitcoin/issues/comments/613935445",
    "html_url": "https://github.com/bitcoin/bitcoin/pull/18646#issuecomment-613935445",
    "issue_url": "https://api.github.com/repos/bitcoin/bitcoin/issues/18646",
    "id": 613935445,
    "node_id": "MDEyOklzc3VlQ29tbWVudDYxMzkzNTQ0NQ==",
    "user": {
      "login": "emilengler",
      "id": 12272949,
      "node_id": "MDQ6VXNlcjEyMjcyOTQ5",
      "avatar_url": "https://avatars.githubusercontent.com/u/12272949?v=4",
      "gravatar_id": "",
      "url": "https://api.github.com/users/emilengler",
      "html_url": "https://github.com/emilengler",
      "followers_url": "https://api.github.com/users/emilengler/followers",
      "following_url": "https://api.github.com/users/emilengler/following{/other_user}",
      "gists_url": "https://api.github.com/users/emilengler/gists{/gist_id}",
      "starred_url": "https://api.github.com/users/emilengler/starred{/owner}{/repo}",
      "subscriptions_url": "https://api.github.com/users/emilengler/subscriptions",
      "organizations_url": "https://api.github.com/users/emilengler/orgs",
      "repos_url": "https://api.github.com/users/emilengler/repos",
      "events_url": "https://api.github.com/users/emilengler/events{/privacy}",
      "received_events_url": "https://api.github.com/users/emilengler/received_events",
      "type": "User",
      "site_admin": false
    },
    "created_at": "2020-04-15T09:43:48Z",
    "updated_at": "2020-04-15T09:43:48Z",
    "author_association": "CONTRIBUTOR",
    "body_html": "<p dir=\"auto\">utACK <a class=\"commit-link\" data-hovercard-type=\"commit\" data-hovercard-url=\"https://github.com/bitcoin/bitcoin/commit/1b04302e43c91cf2353c545e646e50a672eab300/hovercard\" href=\"https://github.com/bitcoin/bitcoin/commit/1b04302e43c91cf2353c545e646e50a672eab300\"><tt>1b04302</tt></a></p>",
    "body_text": "utACK 1b04302",
    "body": "utACK 1b04302",
    "reactions": {
      "url": "https://api.github.com/repos/bitcoin/bitcoin/issues/comments/613935445/reactions",
      "total_count": 0,
      "+1": 0,
      "-1": 0,
      "laugh": 0,
      "hooray": 0,
      "confused": 0,
      "heart": 0,
      "rocket": 0,
      "eyes": 0
    },
    "performed_via_github_app": null
  }
]
