{
  "url": "https://api.github.com/repos/bitcoin/bitcoin/issues/1539",
  "repository_url": "https://api.github.com/repos/bitcoin/bitcoin",
  "labels_url": "https://api.github.com/repos/bitcoin/bitcoin/issues/1539/labels{/name}",
  "comments_url": "https://api.github.com/repos/bitcoin/bitcoin/issues/1539/comments",
  "events_url": "https://api.github.com/repos/bitcoin/bitcoin/issues/1539/events",
  "html_url": "https://github.com/bitcoin/bitcoin/pull/1539",
  "id": 5366323,
  "node_id": "MDExOlB1bGxSZXF1ZXN0MTY4OTI0NA==",
  "number": 1539,
  "title": "Fix a typo in TransactionDesc",
  "user": {
    "login": "ghost",
    "id": 10137,
    "node_id": "MDQ6VXNlcjEwMTM3",
    "avatar_url": "https://avatars.githubusercontent.com/u/10137?v=4",
    "gravatar_id": "",
    "url": "https://api.github.com/users/ghost",
    "html_url": "https://github.com/ghost",
    "followers_url": "https://api.github.com/users/ghost/followers",
    "following_url": "https://api.github.com/users/ghost/following{/other_user}",
    "gists_url": "https://api.github.com/users/ghost/gists{/gist_id}",
    "starred_url": "https://api.github.com/users/ghost/starred{/owner}{/repo}",
    "subscriptions_url": "https://api.github.com/users/ghost/subscriptions",
    "organizations_url": "https://api.github.com/users/ghost/orgs",
    "repos_url": "https://api.github.com/users/ghost/repos",
    "events_url": "https://api.github.com/users/ghost/events{/privacy}",
    "received_events_url": "https://api.github.com/users/ghost/received_events",
    "type": "User",
    "site_admin": false
  },
  "labels": [

  ],
  "state": "closed",
  "locked": true,
  "assignee": null,
  "assignees": [

  ],
  "milestone": null,
  "comments": 0,
  "created_at": "2012-06-30T08:35:48Z",
  "updated_at": "2021-09-08T10:13:14Z",
  "closed_at": "2012-06-30T08:56:29Z",
  "author_association": "NONE",
  "active_lock_reason": "resolved",
  "draft": false,
  "pull_request": {
    "url": "https://api.github.com/repos/bitcoin/bitcoin/pulls/1539",
    "html_url": "https://github.com/bitcoin/bitcoin/pull/1539",
    "diff_url": "https://github.com/bitcoin/bitcoin/pull/1539.diff",
    "patch_url": "https://github.com/bitcoin/bitcoin/pull/1539.patch",
    "merged_at": "2012-06-30T08:56:29Z"
  },
  "body_html": "<p dir=\"auto\">\"it's state\" should be \"its state\". No other changes.</p>",
  "body_text": "\"it's state\" should be \"its state\". No other changes.",
  "body": "\"it's state\" should be \"its state\". No other changes.\n",
  "closed_by": {
    "login": "laanwj",
    "id": 126646,
    "node_id": "MDQ6VXNlcjEyNjY0Ng==",
    "avatar_url": "https://avatars.githubusercontent.com/u/126646?v=4",
    "gravatar_id": "",
    "url": "https://api.github.com/users/laanwj",
    "html_url": "https://github.com/laanwj",
    "followers_url": "https://api.github.com/users/laanwj/followers",
    "following_url": "https://api.github.com/users/laanwj/following{/other_user}",
    "gists_url": "https://api.github.com/users/laanwj/gists{/gist_id}",
    "starred_url": "https://api.github.com/users/laanwj/starred{/owner}{/repo}",
    "subscriptions_url": "https://api.github.com/users/laanwj/subscriptions",
    "organizations_url": "https://api.github.com/users/laanwj/orgs",
    "repos_url": "https://api.github.com/users/laanwj/repos",
    "events_url": "https://api.github.com/users/laanwj/events{/privacy}",
    "received_events_url": "https://api.github.com/users/laanwj/received_events",
    "type": "User",
    "site_admin": false
  },
  "reactions": {
    "url": "https://api.github.com/repos/bitcoin/bitcoin/issues/1539/reactions",
    "total_count": 0,
    "+1": 0,
    "-1": 0,
    "laugh": 0,
    "hooray": 0,
    "confused": 0,
    "heart": 0,
    "rocket": 0,
    "eyes": 0
  },
  "timeline_url": "https://api.github.com/repos/bitcoin/bitcoin/issues/1539/timeline",
  "performed_via_github_app": null,
  "state_reason": null
}
