[
  {
    "url": "https://api.github.com/repos/bitcoin/bitcoin/issues/comments/134658174",
    "html_url": "https://github.com/bitcoin/bitcoin/pull/6590#issuecomment-134658174",
    "issue_url": "https://api.github.com/repos/bitcoin/bitcoin/issues/6590",
    "id": 134658174,
    "node_id": "MDEyOklzc3VlQ29tbWVudDEzNDY1ODE3NA==",
    "user": {
      "login": "theuni",
      "id": 417043,
      "node_id": "MDQ6VXNlcjQxNzA0Mw==",
      "avatar_url": "https://avatars.githubusercontent.com/u/417043?v=4",
      "gravatar_id": "",
      "url": "https://api.github.com/users/theuni",
      "html_url": "https://github.com/theuni",
      "followers_url": "https://api.github.com/users/theuni/followers",
      "following_url": "https://api.github.com/users/theuni/following{/other_user}",
      "gists_url": "https://api.github.com/users/theuni/gists{/gist_id}",
      "starred_url": "https://api.github.com/users/theuni/starred{/owner}{/repo}",
      "subscriptions_url": "https://api.github.com/users/theuni/subscriptions",
      "organizations_url": "https://api.github.com/users/theuni/orgs",
      "repos_url": "https://api.github.com/users/theuni/repos",
      "events_url": "https://api.github.com/users/theuni/events{/privacy}",
      "received_events_url": "https://api.github.com/users/theuni/received_events",
      "type": "User",
      "site_admin": false
    },
    "created_at": "2015-08-25T16:22:30Z",
    "updated_at": "2015-08-25T16:22:30Z",
    "author_association": "MEMBER",
    "body_html": "<p dir=\"auto\">Grr, I forgot to mention here that this is only known to fix issues with running the Windows tests on Linux via Wine. This isn't a substitute for <a class=\"issue-link js-issue-link\" data-error-text=\"Failed to load title\" data-id=\"100359772\" data-permission-text=\"Title is private\" data-url=\"https://github.com/bitcoin/bitcoin/issues/6548\" data-hovercard-type=\"pull_request\" data-hovercard-url=\"/bitcoin/bitcoin/pull/6548/hovercard\" href=\"https://github.com/bitcoin/bitcoin/pull/6548\">#6548</a> which aims to fix them when running natively.</p>\n<p dir=\"auto\">Imo it'd be easier to make sure they work with Travis first, so we can ensure that any fixes for native Windows don't cause any regressions.</p>",
    "body_text": "Grr, I forgot to mention here that this is only known to fix issues with running the Windows tests on Linux via Wine. This isn't a substitute for #6548 which aims to fix them when running natively.\nImo it'd be easier to make sure they work with Travis first, so we can ensure that any fixes for native Windows don't cause any regressions.",
    "body": "Grr, I forgot to mention here that this is only known to fix issues with running the Windows tests on Linux via Wine. This isn't a substitute for #6548 which aims to fix them when running natively.\n\nImo it'd be easier to make sure they work with Travis first, so we can ensure that any fixes for native Windows don't cause any regressions.\n",
    "reactions": {
      "url": "https://api.github.com/repos/bitcoin/bitcoin/issues/comments/134658174/reactions",
      "total_count": 0,
      "+1": 0,
      "-1": 0,
      "laugh": 0,
      "hooray": 0,
      "confused": 0,
      "heart": 0,
      "rocket": 0,
      "eyes": 0
    },
    "performed_via_github_app": null
  },
  {
    "url": "https://api.github.com/repos/bitcoin/bitcoin/issues/comments/134679371",
    "html_url": "https://github.com/bitcoin/bitcoin/pull/6590#issuecomment-134679371",
    "issue_url": "https://api.github.com/repos/bitcoin/bitcoin/issues/6590",
    "id": 134679371,
    "node_id": "MDEyOklzc3VlQ29tbWVudDEzNDY3OTM3MQ==",
    "user": {
      "login": "ptschip",
      "id": 12862928,
      "node_id": "MDQ6VXNlcjEyODYyOTI4",
      "avatar_url": "https://avatars.githubusercontent.com/u/12862928?v=4",
      "gravatar_id": "",
      "url": "https://api.github.com/users/ptschip",
      "html_url": "https://github.com/ptschip",
      "followers_url": "https://api.github.com/users/ptschip/followers",
      "following_url": "https://api.github.com/users/ptschip/following{/other_user}",
      "gists_url": "https://api.github.com/users/ptschip/gists{/gist_id}",
      "starred_url": "https://api.github.com/users/ptschip/starred{/owner}{/repo}",
      "subscriptions_url": "https://api.github.com/users/ptschip/subscriptions",
      "organizations_url": "https://api.github.com/users/ptschip/orgs",
      "repos_url": "https://api.github.com/users/ptschip/repos",
      "events_url": "https://api.github.com/users/ptschip/events{/privacy}",
      "received_events_url": "https://api.github.com/users/ptschip/received_events",
      "type": "User",
      "site_admin": false
    },
    "created_at": "2015-08-25T17:33:41Z",
    "updated_at": "2015-08-25T17:33:41Z",
    "author_association": "CONTRIBUTOR",
    "body_html": "<p dir=\"auto\">Cory,</p>\n<p dir=\"auto\">From you pull request I downloaded and built on native windows and can<br>\nconfirm that those changes do \"not\" fix issue 6554</p>\n<p dir=\"auto\">however,</p>\n<p dir=\"auto\">I saw that the tests for windows, \"on linux\" did pass, so that was good.</p>\n<p dir=\"auto\">The only request I have is that you try running that build with your<br>\nchanges at least 2 more times.  The reason is that the issue, at least<br>\nwith 6554, is only intermittent and happens roughly 30 to 50% of the time.</p>\n<p dir=\"auto\">On 25/08/2015 9:23 AM, Cory Fields wrote:</p>\n<blockquote>\n<p dir=\"auto\">Grr, I forgot to mention here that this is only known to fix issues<br>\nwith running the Windows tests on Linux via Wine. This isn't a<br>\nsubstitute for <a class=\"issue-link js-issue-link\" data-error-text=\"Failed to load title\" data-id=\"100359772\" data-permission-text=\"Title is private\" data-url=\"https://github.com/bitcoin/bitcoin/issues/6548\" data-hovercard-type=\"pull_request\" data-hovercard-url=\"/bitcoin/bitcoin/pull/6548/hovercard\" href=\"https://github.com/bitcoin/bitcoin/pull/6548\">#6548</a> <a class=\"issue-link js-issue-link\" data-error-text=\"Failed to load title\" data-id=\"100359772\" data-permission-text=\"Title is private\" data-url=\"https://github.com/bitcoin/bitcoin/issues/6548\" data-hovercard-type=\"pull_request\" data-hovercard-url=\"/bitcoin/bitcoin/pull/6548/hovercard\" href=\"https://github.com/bitcoin/bitcoin/pull/6548\">#6548</a><br>\nwhich aims to fix them when running natively.</p>\n<p dir=\"auto\">Imo it'd be easier to make sure they work with Travis first, so we can<br>\nensure that any fixes for native Windows don't cause any regressions.</p>\n<p dir=\"auto\">—<br>\nReply to this email directly or view it on GitHub<br>\n<a class=\"issue-link js-issue-link\" data-error-text=\"Failed to load title\" data-id=\"103060422\" data-permission-text=\"Title is private\" data-url=\"https://github.com/bitcoin/bitcoin/issues/6590\" data-hovercard-type=\"pull_request\" data-hovercard-url=\"/bitcoin/bitcoin/pull/6590/hovercard?comment_id=134658174&amp;comment_type=issue_comment\" href=\"https://github.com/bitcoin/bitcoin/pull/6590#issuecomment-134658174\">#6590 (comment)</a>.</p>\n</blockquote>",
    "body_text": "Cory,\nFrom you pull request I downloaded and built on native windows and can\nconfirm that those changes do \"not\" fix issue 6554\nhowever,\nI saw that the tests for windows, \"on linux\" did pass, so that was good.\nThe only request I have is that you try running that build with your\nchanges at least 2 more times.  The reason is that the issue, at least\nwith 6554, is only intermittent and happens roughly 30 to 50% of the time.\nOn 25/08/2015 9:23 AM, Cory Fields wrote:\n\nGrr, I forgot to mention here that this is only known to fix issues\nwith running the Windows tests on Linux via Wine. This isn't a\nsubstitute for #6548 #6548\nwhich aims to fix them when running natively.\nImo it'd be easier to make sure they work with Travis first, so we can\nensure that any fixes for native Windows don't cause any regressions.\n—\nReply to this email directly or view it on GitHub\n#6590 (comment).",
    "body": "Cory,\n\nFrom you pull request I downloaded and built on native windows and can\nconfirm that those changes do \"not\" fix issue 6554\n\nhowever,\n\nI saw that the tests for windows, \"on linux\" did pass, so that was good.\n\nThe only request I have is that you try running that build with your\nchanges at least 2 more times.  The reason is that the issue, at least\nwith 6554, is only intermittent and happens roughly 30 to 50% of the time.\n\nOn 25/08/2015 9:23 AM, Cory Fields wrote:\n\n> Grr, I forgot to mention here that this is only known to fix issues\n> with running the Windows tests on Linux via Wine. This isn't a\n> substitute for #6548 https://github.com/bitcoin/bitcoin/pull/6548\n> which aims to fix them when running natively.\n> \n> Imo it'd be easier to make sure they work with Travis first, so we can\n> ensure that any fixes for native Windows don't cause any regressions.\n> \n> —\n> Reply to this email directly or view it on GitHub\n> https://github.com/bitcoin/bitcoin/pull/6590#issuecomment-134658174.\n",
    "reactions": {
      "url": "https://api.github.com/repos/bitcoin/bitcoin/issues/comments/134679371/reactions",
      "total_count": 0,
      "+1": 0,
      "-1": 0,
      "laugh": 0,
      "hooray": 0,
      "confused": 0,
      "heart": 0,
      "rocket": 0,
      "eyes": 0
    },
    "performed_via_github_app": null
  },
  {
    "url": "https://api.github.com/repos/bitcoin/bitcoin/issues/comments/134694249",
    "html_url": "https://github.com/bitcoin/bitcoin/pull/6590#issuecomment-134694249",
    "issue_url": "https://api.github.com/repos/bitcoin/bitcoin/issues/6590",
    "id": 134694249,
    "node_id": "MDEyOklzc3VlQ29tbWVudDEzNDY5NDI0OQ==",
    "user": {
      "login": "theuni",
      "id": 417043,
      "node_id": "MDQ6VXNlcjQxNzA0Mw==",
      "avatar_url": "https://avatars.githubusercontent.com/u/417043?v=4",
      "gravatar_id": "",
      "url": "https://api.github.com/users/theuni",
      "html_url": "https://github.com/theuni",
      "followers_url": "https://api.github.com/users/theuni/followers",
      "following_url": "https://api.github.com/users/theuni/following{/other_user}",
      "gists_url": "https://api.github.com/users/theuni/gists{/gist_id}",
      "starred_url": "https://api.github.com/users/theuni/starred{/owner}{/repo}",
      "subscriptions_url": "https://api.github.com/users/theuni/subscriptions",
      "organizations_url": "https://api.github.com/users/theuni/orgs",
      "repos_url": "https://api.github.com/users/theuni/repos",
      "events_url": "https://api.github.com/users/theuni/events{/privacy}",
      "received_events_url": "https://api.github.com/users/theuni/received_events",
      "type": "User",
      "site_admin": false
    },
    "created_at": "2015-08-25T18:28:30Z",
    "updated_at": "2015-08-25T18:28:30Z",
    "author_association": "MEMBER",
    "body_html": "<p dir=\"auto\">The issue that this fixes is 100% reproducible, it happens every time without the fix, and never with it. I'll admit that I'm puzzled as to why it doesn't happen on native Windows, though. Maybe it has to do with how quickly the processes are spun up.</p>\n<p dir=\"auto\">I think it's safe to say they're separate issues.</p>",
    "body_text": "The issue that this fixes is 100% reproducible, it happens every time without the fix, and never with it. I'll admit that I'm puzzled as to why it doesn't happen on native Windows, though. Maybe it has to do with how quickly the processes are spun up.\nI think it's safe to say they're separate issues.",
    "body": "The issue that this fixes is 100% reproducible, it happens every time without the fix, and never with it. I'll admit that I'm puzzled as to why it doesn't happen on native Windows, though. Maybe it has to do with how quickly the processes are spun up.\n\nI think it's safe to say they're separate issues.\n",
    "reactions": {
      "url": "https://api.github.com/repos/bitcoin/bitcoin/issues/comments/134694249/reactions",
      "total_count": 0,
      "+1": 0,
      "-1": 0,
      "laugh": 0,
      "hooray": 0,
      "confused": 0,
      "heart": 0,
      "rocket": 0,
      "eyes": 0
    },
    "performed_via_github_app": null
  },
  {
    "url": "https://api.github.com/repos/bitcoin/bitcoin/issues/comments/134698976",
    "html_url": "https://github.com/bitcoin/bitcoin/pull/6590#issuecomment-134698976",
    "issue_url": "https://api.github.com/repos/bitcoin/bitcoin/issues/6590",
    "id": 134698976,
    "node_id": "MDEyOklzc3VlQ29tbWVudDEzNDY5ODk3Ng==",
    "user": {
      "login": "ptschip",
      "id": 12862928,
      "node_id": "MDQ6VXNlcjEyODYyOTI4",
      "avatar_url": "https://avatars.githubusercontent.com/u/12862928?v=4",
      "gravatar_id": "",
      "url": "https://api.github.com/users/ptschip",
      "html_url": "https://github.com/ptschip",
      "followers_url": "https://api.github.com/users/ptschip/followers",
      "following_url": "https://api.github.com/users/ptschip/following{/other_user}",
      "gists_url": "https://api.github.com/users/ptschip/gists{/gist_id}",
      "starred_url": "https://api.github.com/users/ptschip/starred{/owner}{/repo}",
      "subscriptions_url": "https://api.github.com/users/ptschip/subscriptions",
      "organizations_url": "https://api.github.com/users/ptschip/orgs",
      "repos_url": "https://api.github.com/users/ptschip/repos",
      "events_url": "https://api.github.com/users/ptschip/events{/privacy}",
      "received_events_url": "https://api.github.com/users/ptschip/received_events",
      "type": "User",
      "site_admin": false
    },
    "created_at": "2015-08-25T18:47:49Z",
    "updated_at": "2015-08-25T18:47:49Z",
    "author_association": "CONTRIBUTOR",
    "body_html": "<p dir=\"auto\">That's great...when this fix get's merged I'll make the changes to the \"enable python scripts for windows\" without the travis.yml updates.</p>",
    "body_text": "That's great...when this fix get's merged I'll make the changes to the \"enable python scripts for windows\" without the travis.yml updates.",
    "body": "That's great...when this fix get's merged I'll make the changes to the \"enable python scripts for windows\" without the travis.yml updates.\n",
    "reactions": {
      "url": "https://api.github.com/repos/bitcoin/bitcoin/issues/comments/134698976/reactions",
      "total_count": 0,
      "+1": 0,
      "-1": 0,
      "laugh": 0,
      "hooray": 0,
      "confused": 0,
      "heart": 0,
      "rocket": 0,
      "eyes": 0
    },
    "performed_via_github_app": null
  },
  {
    "url": "https://api.github.com/repos/bitcoin/bitcoin/issues/comments/134722332",
    "html_url": "https://github.com/bitcoin/bitcoin/pull/6590#issuecomment-134722332",
    "issue_url": "https://api.github.com/repos/bitcoin/bitcoin/issues/6590",
    "id": 134722332,
    "node_id": "MDEyOklzc3VlQ29tbWVudDEzNDcyMjMzMg==",
    "user": {
      "login": "Diapolo",
      "id": 1419649,
      "node_id": "MDQ6VXNlcjE0MTk2NDk=",
      "avatar_url": "https://avatars.githubusercontent.com/u/1419649?v=4",
      "gravatar_id": "",
      "url": "https://api.github.com/users/Diapolo",
      "html_url": "https://github.com/Diapolo",
      "followers_url": "https://api.github.com/users/Diapolo/followers",
      "following_url": "https://api.github.com/users/Diapolo/following{/other_user}",
      "gists_url": "https://api.github.com/users/Diapolo/gists{/gist_id}",
      "starred_url": "https://api.github.com/users/Diapolo/starred{/owner}{/repo}",
      "subscriptions_url": "https://api.github.com/users/Diapolo/subscriptions",
      "organizations_url": "https://api.github.com/users/Diapolo/orgs",
      "repos_url": "https://api.github.com/users/Diapolo/repos",
      "events_url": "https://api.github.com/users/Diapolo/events{/privacy}",
      "received_events_url": "https://api.github.com/users/Diapolo/received_events",
      "type": "User",
      "site_admin": false
    },
    "created_at": "2015-08-25T20:06:58Z",
    "updated_at": "2015-08-25T20:06:58Z",
    "author_association": "NONE",
    "body_html": "<p dir=\"auto\">IMHO this change wont hurt even when applied to native Windows. I'm going to integrate it into my local build and will run my 2 partially online nodes with it applied and see what happens ;). Perhaps there are other ifdef cases that apply settings/state for Linux but not Windows...</p>",
    "body_text": "IMHO this change wont hurt even when applied to native Windows. I'm going to integrate it into my local build and will run my 2 partially online nodes with it applied and see what happens ;). Perhaps there are other ifdef cases that apply settings/state for Linux but not Windows...",
    "body": "IMHO this change wont hurt even when applied to native Windows. I'm going to integrate it into my local build and will run my 2 partially online nodes with it applied and see what happens ;). Perhaps there are other ifdef cases that apply settings/state for Linux but not Windows...\n",
    "reactions": {
      "url": "https://api.github.com/repos/bitcoin/bitcoin/issues/comments/134722332/reactions",
      "total_count": 0,
      "+1": 0,
      "-1": 0,
      "laugh": 0,
      "hooray": 0,
      "confused": 0,
      "heart": 0,
      "rocket": 0,
      "eyes": 0
    },
    "performed_via_github_app": null
  },
  {
    "url": "https://api.github.com/repos/bitcoin/bitcoin/issues/comments/134930758",
    "html_url": "https://github.com/bitcoin/bitcoin/pull/6590#issuecomment-134930758",
    "issue_url": "https://api.github.com/repos/bitcoin/bitcoin/issues/6590",
    "id": 134930758,
    "node_id": "MDEyOklzc3VlQ29tbWVudDEzNDkzMDc1OA==",
    "user": {
      "login": "laanwj",
      "id": 126646,
      "node_id": "MDQ6VXNlcjEyNjY0Ng==",
      "avatar_url": "https://avatars.githubusercontent.com/u/126646?v=4",
      "gravatar_id": "",
      "url": "https://api.github.com/users/laanwj",
      "html_url": "https://github.com/laanwj",
      "followers_url": "https://api.github.com/users/laanwj/followers",
      "following_url": "https://api.github.com/users/laanwj/following{/other_user}",
      "gists_url": "https://api.github.com/users/laanwj/gists{/gist_id}",
      "starred_url": "https://api.github.com/users/laanwj/starred{/owner}{/repo}",
      "subscriptions_url": "https://api.github.com/users/laanwj/subscriptions",
      "organizations_url": "https://api.github.com/users/laanwj/orgs",
      "repos_url": "https://api.github.com/users/laanwj/repos",
      "events_url": "https://api.github.com/users/laanwj/events{/privacy}",
      "received_events_url": "https://api.github.com/users/laanwj/received_events",
      "type": "User",
      "site_admin": false
    },
    "created_at": "2015-08-26T09:59:30Z",
    "updated_at": "2015-08-26T09:59:30Z",
    "author_association": "MEMBER",
    "body_html": "<p dir=\"auto\">utACK</p>",
    "body_text": "utACK",
    "body": "utACK\n",
    "reactions": {
      "url": "https://api.github.com/repos/bitcoin/bitcoin/issues/comments/134930758/reactions",
      "total_count": 0,
      "+1": 0,
      "-1": 0,
      "laugh": 0,
      "hooray": 0,
      "confused": 0,
      "heart": 0,
      "rocket": 0,
      "eyes": 0
    },
    "performed_via_github_app": null
  }
]
