{
  "url": "https://api.github.com/repos/bitcoin/bitcoin/issues/8012",
  "repository_url": "https://api.github.com/repos/bitcoin/bitcoin",
  "labels_url": "https://api.github.com/repos/bitcoin/bitcoin/issues/8012/labels{/name}",
  "comments_url": "https://api.github.com/repos/bitcoin/bitcoin/issues/8012/comments",
  "events_url": "https://api.github.com/repos/bitcoin/bitcoin/issues/8012/events",
  "html_url": "https://github.com/bitcoin/bitcoin/pull/8012",
  "id": 153349131,
  "node_id": "MDExOlB1bGxSZXF1ZXN0NjkwODY5MjA=",
  "number": 8012,
  "title": "Qt: Delay user confirmation of send",
  "user": {
    "login": "Tyler-Hardin",
    "id": 5404976,
    "node_id": "MDQ6VXNlcjU0MDQ5NzY=",
    "avatar_url": "https://avatars.githubusercontent.com/u/5404976?v=4",
    "gravatar_id": "",
    "url": "https://api.github.com/users/Tyler-Hardin",
    "html_url": "https://github.com/Tyler-Hardin",
    "followers_url": "https://api.github.com/users/Tyler-Hardin/followers",
    "following_url": "https://api.github.com/users/Tyler-Hardin/following{/other_user}",
    "gists_url": "https://api.github.com/users/Tyler-Hardin/gists{/gist_id}",
    "starred_url": "https://api.github.com/users/Tyler-Hardin/starred{/owner}{/repo}",
    "subscriptions_url": "https://api.github.com/users/Tyler-Hardin/subscriptions",
    "organizations_url": "https://api.github.com/users/Tyler-Hardin/orgs",
    "repos_url": "https://api.github.com/users/Tyler-Hardin/repos",
    "events_url": "https://api.github.com/users/Tyler-Hardin/events{/privacy}",
    "received_events_url": "https://api.github.com/users/Tyler-Hardin/received_events",
    "type": "User",
    "site_admin": false
  },
  "labels": [
    {
      "id": 135946,
      "node_id": "MDU6TGFiZWwxMzU5NDY=",
      "url": "https://api.github.com/repos/bitcoin/bitcoin/labels/GUI",
      "name": "GUI",
      "color": "02d7e1",
      "default": false,
      "description": null
    }
  ],
  "state": "closed",
  "locked": true,
  "assignee": null,
  "assignees": [

  ],
  "milestone": null,
  "comments": 22,
  "created_at": "2016-05-05T23:34:10Z",
  "updated_at": "2021-09-08T11:00:58Z",
  "closed_at": "2016-05-10T08:33:37Z",
  "author_association": "CONTRIBUTOR",
  "active_lock_reason": "resolved",
  "draft": false,
  "pull_request": {
    "url": "https://api.github.com/repos/bitcoin/bitcoin/pulls/8012",
    "html_url": "https://github.com/bitcoin/bitcoin/pull/8012",
    "diff_url": "https://github.com/bitcoin/bitcoin/pull/8012.diff",
    "patch_url": "https://github.com/bitcoin/bitcoin/pull/8012.patch",
    "merged_at": "2016-05-10T08:33:37Z"
  },
  "body_html": "<p dir=\"auto\">I made a subclass of QMessageBox that disables the send button in <code class=\"notranslate\">exec()</code> and starts a timer that calls a slot to re-enable it after a configurable delay.</p>\n<p dir=\"auto\">I went with 3s for the delay.</p>\n<p dir=\"auto\">This PR attempts to implement this feature request: <a class=\"issue-link js-issue-link\" data-error-text=\"Failed to load title\" data-id=\"2983448\" data-permission-text=\"Title is private\" data-url=\"https://github.com/bitcoin/bitcoin/issues/785\" data-hovercard-type=\"issue\" data-hovercard-url=\"/bitcoin/bitcoin/issues/785/hovercard\" href=\"https://github.com/bitcoin/bitcoin/issues/785\">#785</a>.</p>",
  "body_text": "I made a subclass of QMessageBox that disables the send button in exec() and starts a timer that calls a slot to re-enable it after a configurable delay.\nI went with 3s for the delay.\nThis PR attempts to implement this feature request: #785.",
  "body": "I made a subclass of QMessageBox that disables the send button in `exec()` and starts a timer that calls a slot to re-enable it after a configurable delay.\n\nI went with 3s for the delay.\n\nThis PR attempts to implement this feature request: https://github.com/bitcoin/bitcoin/issues/785.\n",
  "closed_by": {
    "login": "jonasschnelli",
    "id": 178464,
    "node_id": "MDQ6VXNlcjE3ODQ2NA==",
    "avatar_url": "https://avatars.githubusercontent.com/u/178464?v=4",
    "gravatar_id": "",
    "url": "https://api.github.com/users/jonasschnelli",
    "html_url": "https://github.com/jonasschnelli",
    "followers_url": "https://api.github.com/users/jonasschnelli/followers",
    "following_url": "https://api.github.com/users/jonasschnelli/following{/other_user}",
    "gists_url": "https://api.github.com/users/jonasschnelli/gists{/gist_id}",
    "starred_url": "https://api.github.com/users/jonasschnelli/starred{/owner}{/repo}",
    "subscriptions_url": "https://api.github.com/users/jonasschnelli/subscriptions",
    "organizations_url": "https://api.github.com/users/jonasschnelli/orgs",
    "repos_url": "https://api.github.com/users/jonasschnelli/repos",
    "events_url": "https://api.github.com/users/jonasschnelli/events{/privacy}",
    "received_events_url": "https://api.github.com/users/jonasschnelli/received_events",
    "type": "User",
    "site_admin": false
  },
  "reactions": {
    "url": "https://api.github.com/repos/bitcoin/bitcoin/issues/8012/reactions",
    "total_count": 0,
    "+1": 0,
    "-1": 0,
    "laugh": 0,
    "hooray": 0,
    "confused": 0,
    "heart": 0,
    "rocket": 0,
    "eyes": 0
  },
  "timeline_url": "https://api.github.com/repos/bitcoin/bitcoin/issues/8012/timeline",
  "performed_via_github_app": null,
  "state_reason": null
}
