{
  "url": "https://api.github.com/repos/bitcoin/bitcoin/issues/14910",
  "repository_url": "https://api.github.com/repos/bitcoin/bitcoin",
  "labels_url": "https://api.github.com/repos/bitcoin/bitcoin/issues/14910/labels{/name}",
  "comments_url": "https://api.github.com/repos/bitcoin/bitcoin/issues/14910/comments",
  "events_url": "https://api.github.com/repos/bitcoin/bitcoin/issues/14910/events",
  "html_url": "https://github.com/bitcoin/bitcoin/issues/14910",
  "id": 389207580,
  "node_id": "MDU6SXNzdWUzODkyMDc1ODA=",
  "number": 14910,
  "title": "New method for cryptocurrencies blocks in blockchains...",
  "user": {
    "login": "bruseyujchbl",
    "id": 45754862,
    "node_id": "MDQ6VXNlcjQ1NzU0ODYy",
    "avatar_url": "https://avatars.githubusercontent.com/u/45754862?v=4",
    "gravatar_id": "",
    "url": "https://api.github.com/users/bruseyujchbl",
    "html_url": "https://github.com/bruseyujchbl",
    "followers_url": "https://api.github.com/users/bruseyujchbl/followers",
    "following_url": "https://api.github.com/users/bruseyujchbl/following{/other_user}",
    "gists_url": "https://api.github.com/users/bruseyujchbl/gists{/gist_id}",
    "starred_url": "https://api.github.com/users/bruseyujchbl/starred{/owner}{/repo}",
    "subscriptions_url": "https://api.github.com/users/bruseyujchbl/subscriptions",
    "organizations_url": "https://api.github.com/users/bruseyujchbl/orgs",
    "repos_url": "https://api.github.com/users/bruseyujchbl/repos",
    "events_url": "https://api.github.com/users/bruseyujchbl/events{/privacy}",
    "received_events_url": "https://api.github.com/users/bruseyujchbl/received_events",
    "type": "User",
    "site_admin": false
  },
  "labels": [

  ],
  "state": "closed",
  "locked": true,
  "assignee": null,
  "assignees": [

  ],
  "milestone": null,
  "comments": 1,
  "created_at": "2018-12-10T09:20:29Z",
  "updated_at": "2021-09-08T12:40:29Z",
  "closed_at": "2018-12-10T09:22:01Z",
  "author_association": "NONE",
  "active_lock_reason": "resolved",
  "body_html": "<p dir=\"auto\">I think you can release new method for more transactions in one block. You can make blocks in archives (i.e. zip, rar, 7z or gzip or other)... Maybe i'm not right, but that have reason...</p>\n<p dir=\"auto\">And that can make for all cryptocurrencies...</p>\n<p dir=\"auto\">What about that method - <a href=\"https://www.mobilefish.com/services/pseudorandom_number_generator/pseudorandom_number_generator.php\" rel=\"nofollow\">https://www.mobilefish.com/services/pseudorandom_number_generator/pseudorandom_number_generator.php</a></p>",
  "body_text": "I think you can release new method for more transactions in one block. You can make blocks in archives (i.e. zip, rar, 7z or gzip or other)... Maybe i'm not right, but that have reason...\nAnd that can make for all cryptocurrencies...\nWhat about that method - https://www.mobilefish.com/services/pseudorandom_number_generator/pseudorandom_number_generator.php",
  "body": "I think you can release new method for more transactions in one block. You can make blocks in archives (i.e. zip, rar, 7z or gzip or other)... Maybe i'm not right, but that have reason...\r\n\r\nAnd that can make for all cryptocurrencies...\r\n\r\n\r\nWhat about that method - https://www.mobilefish.com/services/pseudorandom_number_generator/pseudorandom_number_generator.php",
  "closed_by": {
    "login": "fanquake",
    "id": 863730,
    "node_id": "MDQ6VXNlcjg2MzczMA==",
    "avatar_url": "https://avatars.githubusercontent.com/u/863730?v=4",
    "gravatar_id": "",
    "url": "https://api.github.com/users/fanquake",
    "html_url": "https://github.com/fanquake",
    "followers_url": "https://api.github.com/users/fanquake/followers",
    "following_url": "https://api.github.com/users/fanquake/following{/other_user}",
    "gists_url": "https://api.github.com/users/fanquake/gists{/gist_id}",
    "starred_url": "https://api.github.com/users/fanquake/starred{/owner}{/repo}",
    "subscriptions_url": "https://api.github.com/users/fanquake/subscriptions",
    "organizations_url": "https://api.github.com/users/fanquake/orgs",
    "repos_url": "https://api.github.com/users/fanquake/repos",
    "events_url": "https://api.github.com/users/fanquake/events{/privacy}",
    "received_events_url": "https://api.github.com/users/fanquake/received_events",
    "type": "User",
    "site_admin": false
  },
  "reactions": {
    "url": "https://api.github.com/repos/bitcoin/bitcoin/issues/14910/reactions",
    "total_count": 0,
    "+1": 0,
    "-1": 0,
    "laugh": 0,
    "hooray": 0,
    "confused": 0,
    "heart": 0,
    "rocket": 0,
    "eyes": 0
  },
  "timeline_url": "https://api.github.com/repos/bitcoin/bitcoin/issues/14910/timeline",
  "performed_via_github_app": null,
  "state_reason": "completed"
}
