{
  "url": "https://api.github.com/repos/bitcoin/bitcoin/issues/18292",
  "repository_url": "https://api.github.com/repos/bitcoin/bitcoin",
  "labels_url": "https://api.github.com/repos/bitcoin/bitcoin/issues/18292/labels{/name}",
  "comments_url": "https://api.github.com/repos/bitcoin/bitcoin/issues/18292/comments",
  "events_url": "https://api.github.com/repos/bitcoin/bitcoin/issues/18292/events",
  "html_url": "https://github.com/bitcoin/bitcoin/pull/18292",
  "id": 577406975,
  "node_id": "MDExOlB1bGxSZXF1ZXN0Mzg1MTk3ODIw",
  "number": 18292,
  "title": "fuzz: Add assert(script == decompressed_script)",
  "user": {
    "login": "maflcko",
    "id": 6399679,
    "node_id": "MDQ6VXNlcjYzOTk2Nzk=",
    "avatar_url": "https://avatars.githubusercontent.com/u/6399679?v=4",
    "gravatar_id": "",
    "url": "https://api.github.com/users/maflcko",
    "html_url": "https://github.com/maflcko",
    "followers_url": "https://api.github.com/users/maflcko/followers",
    "following_url": "https://api.github.com/users/maflcko/following{/other_user}",
    "gists_url": "https://api.github.com/users/maflcko/gists{/gist_id}",
    "starred_url": "https://api.github.com/users/maflcko/starred{/owner}{/repo}",
    "subscriptions_url": "https://api.github.com/users/maflcko/subscriptions",
    "organizations_url": "https://api.github.com/users/maflcko/orgs",
    "repos_url": "https://api.github.com/users/maflcko/repos",
    "events_url": "https://api.github.com/users/maflcko/events{/privacy}",
    "received_events_url": "https://api.github.com/users/maflcko/received_events",
    "type": "User",
    "site_admin": false
  },
  "labels": [
    {
      "id": 62963516,
      "node_id": "MDU6TGFiZWw2Mjk2MzUxNg==",
      "url": "https://api.github.com/repos/bitcoin/bitcoin/labels/Tests",
      "name": "Tests",
      "color": "d4c5f9",
      "default": false,
      "description": null
    }
  ],
  "state": "closed",
  "locked": true,
  "assignee": null,
  "assignees": [

  ],
  "milestone": null,
  "comments": 1,
  "created_at": "2020-03-07T21:59:41Z",
  "updated_at": "2022-02-15T10:27:47Z",
  "closed_at": "2020-03-09T15:20:39Z",
  "author_association": "MEMBER",
  "active_lock_reason": "resolved",
  "draft": false,
  "pull_request": {
    "url": "https://api.github.com/repos/bitcoin/bitcoin/pulls/18292",
    "html_url": "https://github.com/bitcoin/bitcoin/pull/18292",
    "diff_url": "https://github.com/bitcoin/bitcoin/pull/18292.diff",
    "patch_url": "https://github.com/bitcoin/bitcoin/pull/18292.patch",
    "merged_at": "2020-03-09T15:20:39Z"
  },
  "body_html": "<p dir=\"auto\">Presumably an oversight in <a class=\"issue-link js-issue-link\" data-error-text=\"Failed to load title\" data-id=\"549854400\" data-permission-text=\"Title is private\" data-url=\"https://github.com/bitcoin/bitcoin/issues/17926\" data-hovercard-type=\"pull_request\" data-hovercard-url=\"/bitcoin/bitcoin/pull/17926/hovercard?comment_id=389262151&amp;comment_type=review_comment\" href=\"https://github.com/bitcoin/bitcoin/pull/17926#discussion_r389262151\">#17926 (comment)</a></p>",
  "body_text": "Presumably an oversight in #17926 (comment)",
  "body": "Presumably an oversight in https://github.com/bitcoin/bitcoin/pull/17926#discussion_r389262151",
  "closed_by": {
    "login": "maflcko",
    "id": 6399679,
    "node_id": "MDQ6VXNlcjYzOTk2Nzk=",
    "avatar_url": "https://avatars.githubusercontent.com/u/6399679?v=4",
    "gravatar_id": "",
    "url": "https://api.github.com/users/maflcko",
    "html_url": "https://github.com/maflcko",
    "followers_url": "https://api.github.com/users/maflcko/followers",
    "following_url": "https://api.github.com/users/maflcko/following{/other_user}",
    "gists_url": "https://api.github.com/users/maflcko/gists{/gist_id}",
    "starred_url": "https://api.github.com/users/maflcko/starred{/owner}{/repo}",
    "subscriptions_url": "https://api.github.com/users/maflcko/subscriptions",
    "organizations_url": "https://api.github.com/users/maflcko/orgs",
    "repos_url": "https://api.github.com/users/maflcko/repos",
    "events_url": "https://api.github.com/users/maflcko/events{/privacy}",
    "received_events_url": "https://api.github.com/users/maflcko/received_events",
    "type": "User",
    "site_admin": false
  },
  "reactions": {
    "url": "https://api.github.com/repos/bitcoin/bitcoin/issues/18292/reactions",
    "total_count": 0,
    "+1": 0,
    "-1": 0,
    "laugh": 0,
    "hooray": 0,
    "confused": 0,
    "heart": 0,
    "rocket": 0,
    "eyes": 0
  },
  "timeline_url": "https://api.github.com/repos/bitcoin/bitcoin/issues/18292/timeline",
  "performed_via_github_app": null,
  "state_reason": null
}
