[
  {
    "url": "https://api.github.com/repos/bitcoin/bitcoin/issues/comments/450759520",
    "html_url": "https://github.com/bitcoin/bitcoin/pull/15076#issuecomment-450759520",
    "issue_url": "https://api.github.com/repos/bitcoin/bitcoin/issues/15076",
    "id": 450759520,
    "node_id": "MDEyOklzc3VlQ29tbWVudDQ1MDc1OTUyMA==",
    "user": {
      "login": "Empact",
      "id": 5470,
      "node_id": "MDQ6VXNlcjU0NzA=",
      "avatar_url": "https://avatars.githubusercontent.com/u/5470?v=4",
      "gravatar_id": "",
      "url": "https://api.github.com/users/Empact",
      "html_url": "https://github.com/Empact",
      "followers_url": "https://api.github.com/users/Empact/followers",
      "following_url": "https://api.github.com/users/Empact/following{/other_user}",
      "gists_url": "https://api.github.com/users/Empact/gists{/gist_id}",
      "starred_url": "https://api.github.com/users/Empact/starred{/owner}{/repo}",
      "subscriptions_url": "https://api.github.com/users/Empact/subscriptions",
      "organizations_url": "https://api.github.com/users/Empact/orgs",
      "repos_url": "https://api.github.com/users/Empact/repos",
      "events_url": "https://api.github.com/users/Empact/events{/privacy}",
      "received_events_url": "https://api.github.com/users/Empact/received_events",
      "type": "User",
      "site_admin": false
    },
    "created_at": "2019-01-01T21:48:59Z",
    "updated_at": "2019-01-01T21:48:59Z",
    "author_association": "MEMBER",
    "body_html": "<p dir=\"auto\">Ugh stdrerr is already output, as visible here:<br>\n<a href=\"https://travis-ci.org/bitcoin/bitcoin/jobs/473717379#L2731\" rel=\"nofollow\">https://travis-ci.org/bitcoin/bitcoin/jobs/473717379#L2731</a></p>",
    "body_text": "Ugh stdrerr is already output, as visible here:\nhttps://travis-ci.org/bitcoin/bitcoin/jobs/473717379#L2731",
    "body": "Ugh stdrerr is already output, as visible here:\r\nhttps://travis-ci.org/bitcoin/bitcoin/jobs/473717379#L2731",
    "reactions": {
      "url": "https://api.github.com/repos/bitcoin/bitcoin/issues/comments/450759520/reactions",
      "total_count": 0,
      "+1": 0,
      "-1": 0,
      "laugh": 0,
      "hooray": 0,
      "confused": 0,
      "heart": 0,
      "rocket": 0,
      "eyes": 0
    },
    "performed_via_github_app": null
  }
]
