{
  "url": "https://api.github.com/repos/bitcoin/bitcoin/issues/22315",
  "repository_url": "https://api.github.com/repos/bitcoin/bitcoin",
  "labels_url": "https://api.github.com/repos/bitcoin/bitcoin/issues/22315/labels{/name}",
  "comments_url": "https://api.github.com/repos/bitcoin/bitcoin/issues/22315/comments",
  "events_url": "https://api.github.com/repos/bitcoin/bitcoin/issues/22315/events",
  "html_url": "https://github.com/bitcoin/bitcoin/issues/22315",
  "id": 927572668,
  "node_id": "MDU6SXNzdWU5Mjc1NzI2Njg=",
  "number": 22315,
  "title": "Help with debugging OSS-Fuzz issues",
  "user": {
    "login": "maflcko",
    "id": 6399679,
    "node_id": "MDQ6VXNlcjYzOTk2Nzk=",
    "avatar_url": "https://avatars.githubusercontent.com/u/6399679?v=4",
    "gravatar_id": "",
    "url": "https://api.github.com/users/maflcko",
    "html_url": "https://github.com/maflcko",
    "followers_url": "https://api.github.com/users/maflcko/followers",
    "following_url": "https://api.github.com/users/maflcko/following{/other_user}",
    "gists_url": "https://api.github.com/users/maflcko/gists{/gist_id}",
    "starred_url": "https://api.github.com/users/maflcko/starred{/owner}{/repo}",
    "subscriptions_url": "https://api.github.com/users/maflcko/subscriptions",
    "organizations_url": "https://api.github.com/users/maflcko/orgs",
    "repos_url": "https://api.github.com/users/maflcko/repos",
    "events_url": "https://api.github.com/users/maflcko/events{/privacy}",
    "received_events_url": "https://api.github.com/users/maflcko/received_events",
    "type": "User",
    "site_admin": false
  },
  "labels": [
    {
      "id": 349312277,
      "node_id": "MDU6TGFiZWwzNDkzMTIyNzc=",
      "url": "https://api.github.com/repos/bitcoin/bitcoin/labels/good%20first%20issue",
      "name": "good first issue",
      "color": "c2e0c6",
      "default": true,
      "description": null
    }
  ],
  "state": "closed",
  "locked": true,
  "assignee": null,
  "assignees": [

  ],
  "milestone": null,
  "comments": 2,
  "created_at": "2021-06-22T19:39:36Z",
  "updated_at": "2023-02-28T10:15:02Z",
  "closed_at": "2022-02-28T08:02:13Z",
  "author_association": "MEMBER",
  "active_lock_reason": null,
  "body_html": "<p dir=\"auto\">There are some outstanding OSS-Fuzz issues which I am unable to debug: \"New\" ones in <a href=\"https://bugs.chromium.org/p/oss-fuzz/issues/list?q=bitcoin-core\" rel=\"nofollow\">https://bugs.chromium.org/p/oss-fuzz/issues/list?q=bitcoin-core</a></p>\n<h4 dir=\"auto\">Useful skills:</h4>\n<ul dir=\"auto\">\n<li>Background in OSS-Fuzz infra (<a href=\"https://google.github.io/oss-fuzz/advanced-topics/reproducing/\" rel=\"nofollow\">https://google.github.io/oss-fuzz/advanced-topics/reproducing/</a>)</li>\n<li>Background in Fuzzing (<a href=\"https://github.com/bitcoin/bitcoin/blob/master/doc/fuzzing.md\">https://github.com/bitcoin/bitcoin/blob/master/doc/fuzzing.md</a>)</li>\n<li>Strong debugging skills</li>\n</ul>\n<h4 dir=\"auto\">Want to work on this issue?</h4>\n<p dir=\"auto\">For guidance on contributing, please read <a href=\"https://github.com/bitcoin/bitcoin/blob/master/CONTRIBUTING.md\">CONTRIBUTING.md</a> before opening your pull request.</p>",
  "body_text": "There are some outstanding OSS-Fuzz issues which I am unable to debug: \"New\" ones in https://bugs.chromium.org/p/oss-fuzz/issues/list?q=bitcoin-core\nUseful skills:\n\nBackground in OSS-Fuzz infra (https://google.github.io/oss-fuzz/advanced-topics/reproducing/)\nBackground in Fuzzing (https://github.com/bitcoin/bitcoin/blob/master/doc/fuzzing.md)\nStrong debugging skills\n\nWant to work on this issue?\nFor guidance on contributing, please read CONTRIBUTING.md before opening your pull request.",
  "body": "There are some outstanding OSS-Fuzz issues which I am unable to debug: \"New\" ones in https://bugs.chromium.org/p/oss-fuzz/issues/list?q=bitcoin-core\r\n\r\n\r\n#### Useful skills:\r\n\r\n* Background in OSS-Fuzz infra (https://google.github.io/oss-fuzz/advanced-topics/reproducing/)\r\n* Background in Fuzzing (https://github.com/bitcoin/bitcoin/blob/master/doc/fuzzing.md)\r\n* Strong debugging skills\r\n\r\n#### Want to work on this issue?\r\n\r\nFor guidance on contributing, please read [CONTRIBUTING.md](https://github.com/bitcoin/bitcoin/blob/master/CONTRIBUTING.md) before opening your pull request.\r\n",
  "closed_by": {
    "login": "maflcko",
    "id": 6399679,
    "node_id": "MDQ6VXNlcjYzOTk2Nzk=",
    "avatar_url": "https://avatars.githubusercontent.com/u/6399679?v=4",
    "gravatar_id": "",
    "url": "https://api.github.com/users/maflcko",
    "html_url": "https://github.com/maflcko",
    "followers_url": "https://api.github.com/users/maflcko/followers",
    "following_url": "https://api.github.com/users/maflcko/following{/other_user}",
    "gists_url": "https://api.github.com/users/maflcko/gists{/gist_id}",
    "starred_url": "https://api.github.com/users/maflcko/starred{/owner}{/repo}",
    "subscriptions_url": "https://api.github.com/users/maflcko/subscriptions",
    "organizations_url": "https://api.github.com/users/maflcko/orgs",
    "repos_url": "https://api.github.com/users/maflcko/repos",
    "events_url": "https://api.github.com/users/maflcko/events{/privacy}",
    "received_events_url": "https://api.github.com/users/maflcko/received_events",
    "type": "User",
    "site_admin": false
  },
  "reactions": {
    "url": "https://api.github.com/repos/bitcoin/bitcoin/issues/22315/reactions",
    "total_count": 0,
    "+1": 0,
    "-1": 0,
    "laugh": 0,
    "hooray": 0,
    "confused": 0,
    "heart": 0,
    "rocket": 0,
    "eyes": 0
  },
  "timeline_url": "https://api.github.com/repos/bitcoin/bitcoin/issues/22315/timeline",
  "performed_via_github_app": null,
  "state_reason": "completed"
}
