[
  {
    "url": "https://api.github.com/repos/bitcoin/bitcoin/issues/comments/642698927",
    "html_url": "https://github.com/bitcoin/bitcoin/pull/19249#issuecomment-642698927",
    "issue_url": "https://api.github.com/repos/bitcoin/bitcoin/issues/19249",
    "id": 642698927,
    "node_id": "MDEyOklzc3VlQ29tbWVudDY0MjY5ODkyNw==",
    "user": {
      "login": "hebasto",
      "id": 32963518,
      "node_id": "MDQ6VXNlcjMyOTYzNTE4",
      "avatar_url": "https://avatars.githubusercontent.com/u/32963518?v=4",
      "gravatar_id": "",
      "url": "https://api.github.com/users/hebasto",
      "html_url": "https://github.com/hebasto",
      "followers_url": "https://api.github.com/users/hebasto/followers",
      "following_url": "https://api.github.com/users/hebasto/following{/other_user}",
      "gists_url": "https://api.github.com/users/hebasto/gists{/gist_id}",
      "starred_url": "https://api.github.com/users/hebasto/starred{/owner}{/repo}",
      "subscriptions_url": "https://api.github.com/users/hebasto/subscriptions",
      "organizations_url": "https://api.github.com/users/hebasto/orgs",
      "repos_url": "https://api.github.com/users/hebasto/repos",
      "events_url": "https://api.github.com/users/hebasto/events{/privacy}",
      "received_events_url": "https://api.github.com/users/hebasto/received_events",
      "type": "User",
      "site_admin": false
    },
    "created_at": "2020-06-11T14:34:59Z",
    "updated_at": "2020-06-11T14:34:59Z",
    "author_association": "MEMBER",
    "body_html": "<p dir=\"auto\"><a class=\"user-mention notranslate\" data-hovercard-type=\"user\" data-hovercard-url=\"/users/ajtowns/hovercard\" data-octo-click=\"hovercard-link-click\" data-octo-dimensions=\"link_type:self\" href=\"https://github.com/ajtowns\">@ajtowns</a> <a class=\"user-mention notranslate\" data-hovercard-type=\"user\" data-hovercard-url=\"/users/practicalswift/hovercard\" data-octo-click=\"hovercard-link-click\" data-octo-dimensions=\"link_type:self\" href=\"https://github.com/practicalswift\">@practicalswift</a> <a class=\"user-mention notranslate\" data-hovercard-type=\"user\" data-hovercard-url=\"/users/ryanofsky/hovercard\" data-octo-click=\"hovercard-link-click\" data-octo-dimensions=\"link_type:self\" href=\"https://github.com/ryanofsky\">@ryanofsky</a> Mind reviewing this PR?</p>",
    "body_text": "@ajtowns @practicalswift @ryanofsky Mind reviewing this PR?",
    "body": "@ajtowns @practicalswift @ryanofsky Mind reviewing this PR?",
    "reactions": {
      "url": "https://api.github.com/repos/bitcoin/bitcoin/issues/comments/642698927/reactions",
      "total_count": 0,
      "+1": 0,
      "-1": 0,
      "laugh": 0,
      "hooray": 0,
      "confused": 0,
      "heart": 0,
      "rocket": 0,
      "eyes": 0
    },
    "performed_via_github_app": null
  },
  {
    "url": "https://api.github.com/repos/bitcoin/bitcoin/issues/comments/642702615",
    "html_url": "https://github.com/bitcoin/bitcoin/pull/19249#issuecomment-642702615",
    "issue_url": "https://api.github.com/repos/bitcoin/bitcoin/issues/19249",
    "id": 642702615,
    "node_id": "MDEyOklzc3VlQ29tbWVudDY0MjcwMjYxNQ==",
    "user": {
      "login": "maflcko",
      "id": 6399679,
      "node_id": "MDQ6VXNlcjYzOTk2Nzk=",
      "avatar_url": "https://avatars.githubusercontent.com/u/6399679?v=4",
      "gravatar_id": "",
      "url": "https://api.github.com/users/maflcko",
      "html_url": "https://github.com/maflcko",
      "followers_url": "https://api.github.com/users/maflcko/followers",
      "following_url": "https://api.github.com/users/maflcko/following{/other_user}",
      "gists_url": "https://api.github.com/users/maflcko/gists{/gist_id}",
      "starred_url": "https://api.github.com/users/maflcko/starred{/owner}{/repo}",
      "subscriptions_url": "https://api.github.com/users/maflcko/subscriptions",
      "organizations_url": "https://api.github.com/users/maflcko/orgs",
      "repos_url": "https://api.github.com/users/maflcko/repos",
      "events_url": "https://api.github.com/users/maflcko/events{/privacy}",
      "received_events_url": "https://api.github.com/users/maflcko/received_events",
      "type": "User",
      "site_admin": false
    },
    "created_at": "2020-06-11T14:40:35Z",
    "updated_at": "2020-06-11T14:40:35Z",
    "author_association": "MEMBER",
    "body_html": "<p dir=\"auto\">Concept ACK. Please adjust the minimum clang version to <a href=\"https://releases.llvm.org/3.6.0/tools/clang/docs/ThreadSafetyAnalysis.html#negative\" rel=\"nofollow\">https://releases.llvm.org/3.6.0/tools/clang/docs/ThreadSafetyAnalysis.html#negative</a></p>\n<p dir=\"auto\">This should be uncontroversial, because even debian oldoldstable comes with clang-4 <a href=\"https://packages.debian.org/jessie/clang-4.0\" rel=\"nofollow\">https://packages.debian.org/jessie/clang-4.0</a></p>",
    "body_text": "Concept ACK. Please adjust the minimum clang version to https://releases.llvm.org/3.6.0/tools/clang/docs/ThreadSafetyAnalysis.html#negative\nThis should be uncontroversial, because even debian oldoldstable comes with clang-4 https://packages.debian.org/jessie/clang-4.0",
    "body": "Concept ACK. Please adjust the minimum clang version to https://releases.llvm.org/3.6.0/tools/clang/docs/ThreadSafetyAnalysis.html#negative\r\n\r\nThis should be uncontroversial, because even debian oldoldstable comes with clang-4 https://packages.debian.org/jessie/clang-4.0",
    "reactions": {
      "url": "https://api.github.com/repos/bitcoin/bitcoin/issues/comments/642702615/reactions",
      "total_count": 0,
      "+1": 0,
      "-1": 0,
      "laugh": 0,
      "hooray": 0,
      "confused": 0,
      "heart": 0,
      "rocket": 0,
      "eyes": 0
    },
    "performed_via_github_app": null
  },
  {
    "url": "https://api.github.com/repos/bitcoin/bitcoin/issues/comments/642722320",
    "html_url": "https://github.com/bitcoin/bitcoin/pull/19249#issuecomment-642722320",
    "issue_url": "https://api.github.com/repos/bitcoin/bitcoin/issues/19249",
    "id": 642722320,
    "node_id": "MDEyOklzc3VlQ29tbWVudDY0MjcyMjMyMA==",
    "user": {
      "login": "practicalswift",
      "id": 7826565,
      "node_id": "MDQ6VXNlcjc4MjY1NjU=",
      "avatar_url": "https://avatars.githubusercontent.com/u/7826565?v=4",
      "gravatar_id": "",
      "url": "https://api.github.com/users/practicalswift",
      "html_url": "https://github.com/practicalswift",
      "followers_url": "https://api.github.com/users/practicalswift/followers",
      "following_url": "https://api.github.com/users/practicalswift/following{/other_user}",
      "gists_url": "https://api.github.com/users/practicalswift/gists{/gist_id}",
      "starred_url": "https://api.github.com/users/practicalswift/starred{/owner}{/repo}",
      "subscriptions_url": "https://api.github.com/users/practicalswift/subscriptions",
      "organizations_url": "https://api.github.com/users/practicalswift/orgs",
      "repos_url": "https://api.github.com/users/practicalswift/repos",
      "events_url": "https://api.github.com/users/practicalswift/events{/privacy}",
      "received_events_url": "https://api.github.com/users/practicalswift/received_events",
      "type": "User",
      "site_admin": false
    },
    "created_at": "2020-06-11T15:07:41Z",
    "updated_at": "2020-06-11T15:07:41Z",
    "author_association": "CONTRIBUTOR",
    "body_html": "<p dir=\"auto\">Concept ACK, but we'll have to opt-in to <code class=\"notranslate\">-Wthread-safety-negative</code> (+ <code class=\"notranslate\">-Werror=thread-safety-negative</code> in Travis) to get the benefit of those annotations? :)</p>\n<p dir=\"auto\">Can you add a temporary test case to verify that Travis catches an example incorrect lock?</p>",
    "body_text": "Concept ACK, but we'll have to opt-in to -Wthread-safety-negative (+ -Werror=thread-safety-negative in Travis) to get the benefit of those annotations? :)\nCan you add a temporary test case to verify that Travis catches an example incorrect lock?",
    "body": "Concept ACK, but we'll have to opt-in to `-Wthread-safety-negative` (+ `-Werror=thread-safety-negative` in Travis) to get the benefit of those annotations? :)\r\n\r\nCan you add a temporary test case to verify that Travis catches an example incorrect lock?",
    "reactions": {
      "url": "https://api.github.com/repos/bitcoin/bitcoin/issues/comments/642722320/reactions",
      "total_count": 0,
      "+1": 0,
      "-1": 0,
      "laugh": 0,
      "hooray": 0,
      "confused": 0,
      "heart": 0,
      "rocket": 0,
      "eyes": 0
    },
    "performed_via_github_app": null
  },
  {
    "url": "https://api.github.com/repos/bitcoin/bitcoin/issues/comments/642732970",
    "html_url": "https://github.com/bitcoin/bitcoin/pull/19249#issuecomment-642732970",
    "issue_url": "https://api.github.com/repos/bitcoin/bitcoin/issues/19249",
    "id": 642732970,
    "node_id": "MDEyOklzc3VlQ29tbWVudDY0MjczMjk3MA==",
    "user": {
      "login": "hebasto",
      "id": 32963518,
      "node_id": "MDQ6VXNlcjMyOTYzNTE4",
      "avatar_url": "https://avatars.githubusercontent.com/u/32963518?v=4",
      "gravatar_id": "",
      "url": "https://api.github.com/users/hebasto",
      "html_url": "https://github.com/hebasto",
      "followers_url": "https://api.github.com/users/hebasto/followers",
      "following_url": "https://api.github.com/users/hebasto/following{/other_user}",
      "gists_url": "https://api.github.com/users/hebasto/gists{/gist_id}",
      "starred_url": "https://api.github.com/users/hebasto/starred{/owner}{/repo}",
      "subscriptions_url": "https://api.github.com/users/hebasto/subscriptions",
      "organizations_url": "https://api.github.com/users/hebasto/orgs",
      "repos_url": "https://api.github.com/users/hebasto/repos",
      "events_url": "https://api.github.com/users/hebasto/events{/privacy}",
      "received_events_url": "https://api.github.com/users/hebasto/received_events",
      "type": "User",
      "site_admin": false
    },
    "created_at": "2020-06-11T15:22:43Z",
    "updated_at": "2020-06-11T15:22:43Z",
    "author_association": "MEMBER",
    "body_html": "<p dir=\"auto\"><a class=\"user-mention notranslate\" data-hovercard-type=\"user\" data-hovercard-url=\"/users/MarcoFalke/hovercard\" data-octo-click=\"hovercard-link-click\" data-octo-dimensions=\"link_type:self\" href=\"https://github.com/MarcoFalke\">@MarcoFalke</a></p>\n<blockquote>\n<p dir=\"auto\">Concept ACK. Please adjust the minimum clang version to <a href=\"https://releases.llvm.org/3.6.0/tools/clang/docs/ThreadSafetyAnalysis.html#negative\" rel=\"nofollow\">https://releases.llvm.org/3.6.0/tools/clang/docs/ThreadSafetyAnalysis.html#negative</a></p>\n<p dir=\"auto\">This should be uncontroversial, because even debian oldoldstable comes with clang-4 <a href=\"https://packages.debian.org/jessie/clang-4.0\" rel=\"nofollow\">https://packages.debian.org/jessie/clang-4.0</a></p>\n</blockquote>\n<p dir=\"auto\">This feature lives since the Clang version 3.5.0: <a class=\"commit-link\" data-hovercard-type=\"commit\" data-hovercard-url=\"https://github.com/llvm/llvm-project/commit/3efd0495a0813896e1559e532c5d9e581dd48c0e/hovercard\" href=\"https://github.com/llvm/llvm-project/commit/3efd0495a0813896e1559e532c5d9e581dd48c0e\">llvm/llvm-project@<tt>3efd049</tt></a></p>\n<p dir=\"auto\">Please note that the Clang version checking is required not only for this PR changes but also for all subsequent adding of  <code class=\"notranslate\">EXCLUSIVE_LOCKS_REQUIRED(!mutex)</code> (see <a class=\"issue-link js-issue-link\" data-error-text=\"Failed to load title\" data-id=\"636353369\" data-permission-text=\"Title is private\" data-url=\"https://github.com/bitcoin/bitcoin/issues/19238\" data-hovercard-type=\"pull_request\" data-hovercard-url=\"/bitcoin/bitcoin/pull/19238/hovercard\" href=\"https://github.com/bitcoin/bitcoin/pull/19238\">#19238</a>).</p>\n<p dir=\"auto\">Would it be a rational decision to bump the minimum required Clang version from the current 3.3 to 3.5?</p>",
    "body_text": "@MarcoFalke\n\nConcept ACK. Please adjust the minimum clang version to https://releases.llvm.org/3.6.0/tools/clang/docs/ThreadSafetyAnalysis.html#negative\nThis should be uncontroversial, because even debian oldoldstable comes with clang-4 https://packages.debian.org/jessie/clang-4.0\n\nThis feature lives since the Clang version 3.5.0: llvm/llvm-project@3efd049\nPlease note that the Clang version checking is required not only for this PR changes but also for all subsequent adding of  EXCLUSIVE_LOCKS_REQUIRED(!mutex) (see #19238).\nWould it be a rational decision to bump the minimum required Clang version from the current 3.3 to 3.5?",
    "body": "@MarcoFalke \r\n> Concept ACK. Please adjust the minimum clang version to https://releases.llvm.org/3.6.0/tools/clang/docs/ThreadSafetyAnalysis.html#negative\r\n> \r\n> This should be uncontroversial, because even debian oldoldstable comes with clang-4 https://packages.debian.org/jessie/clang-4.0\r\n\r\nThis feature lives since the Clang version 3.5.0: https://github.com/llvm/llvm-project/commit/3efd0495a0813896e1559e532c5d9e581dd48c0e\r\n\r\nPlease note that the Clang version checking is required not only for this PR changes but also for all subsequent adding of  `EXCLUSIVE_LOCKS_REQUIRED(!mutex)` (see #19238).\r\n\r\nWould it be a rational decision to bump the minimum required Clang version from the current 3.3 to 3.5?",
    "reactions": {
      "url": "https://api.github.com/repos/bitcoin/bitcoin/issues/comments/642732970/reactions",
      "total_count": 0,
      "+1": 0,
      "-1": 0,
      "laugh": 0,
      "hooray": 0,
      "confused": 0,
      "heart": 0,
      "rocket": 0,
      "eyes": 0
    },
    "performed_via_github_app": null
  },
  {
    "url": "https://api.github.com/repos/bitcoin/bitcoin/issues/comments/642737626",
    "html_url": "https://github.com/bitcoin/bitcoin/pull/19249#issuecomment-642737626",
    "issue_url": "https://api.github.com/repos/bitcoin/bitcoin/issues/19249",
    "id": 642737626,
    "node_id": "MDEyOklzc3VlQ29tbWVudDY0MjczNzYyNg==",
    "user": {
      "login": "maflcko",
      "id": 6399679,
      "node_id": "MDQ6VXNlcjYzOTk2Nzk=",
      "avatar_url": "https://avatars.githubusercontent.com/u/6399679?v=4",
      "gravatar_id": "",
      "url": "https://api.github.com/users/maflcko",
      "html_url": "https://github.com/maflcko",
      "followers_url": "https://api.github.com/users/maflcko/followers",
      "following_url": "https://api.github.com/users/maflcko/following{/other_user}",
      "gists_url": "https://api.github.com/users/maflcko/gists{/gist_id}",
      "starred_url": "https://api.github.com/users/maflcko/starred{/owner}{/repo}",
      "subscriptions_url": "https://api.github.com/users/maflcko/subscriptions",
      "organizations_url": "https://api.github.com/users/maflcko/orgs",
      "repos_url": "https://api.github.com/users/maflcko/repos",
      "events_url": "https://api.github.com/users/maflcko/events{/privacy}",
      "received_events_url": "https://api.github.com/users/maflcko/received_events",
      "type": "User",
      "site_admin": false
    },
    "created_at": "2020-06-11T15:30:11Z",
    "updated_at": "2020-06-11T15:30:11Z",
    "author_association": "MEMBER",
    "body_html": "<p dir=\"auto\">Yes, as I said this should be uncontroversial, as all supported operating systems come with at least clang-4.0 (oldoldstable debian)</p>",
    "body_text": "Yes, as I said this should be uncontroversial, as all supported operating systems come with at least clang-4.0 (oldoldstable debian)",
    "body": "Yes, as I said this should be uncontroversial, as all supported operating systems come with at least clang-4.0 (oldoldstable debian)",
    "reactions": {
      "url": "https://api.github.com/repos/bitcoin/bitcoin/issues/comments/642737626/reactions",
      "total_count": 0,
      "+1": 0,
      "-1": 0,
      "laugh": 0,
      "hooray": 0,
      "confused": 0,
      "heart": 0,
      "rocket": 0,
      "eyes": 0
    },
    "performed_via_github_app": null
  },
  {
    "url": "https://api.github.com/repos/bitcoin/bitcoin/issues/comments/642752931",
    "html_url": "https://github.com/bitcoin/bitcoin/pull/19249#issuecomment-642752931",
    "issue_url": "https://api.github.com/repos/bitcoin/bitcoin/issues/19249",
    "id": 642752931,
    "node_id": "MDEyOklzc3VlQ29tbWVudDY0Mjc1MjkzMQ==",
    "user": {
      "login": "hebasto",
      "id": 32963518,
      "node_id": "MDQ6VXNlcjMyOTYzNTE4",
      "avatar_url": "https://avatars.githubusercontent.com/u/32963518?v=4",
      "gravatar_id": "",
      "url": "https://api.github.com/users/hebasto",
      "html_url": "https://github.com/hebasto",
      "followers_url": "https://api.github.com/users/hebasto/followers",
      "following_url": "https://api.github.com/users/hebasto/following{/other_user}",
      "gists_url": "https://api.github.com/users/hebasto/gists{/gist_id}",
      "starred_url": "https://api.github.com/users/hebasto/starred{/owner}{/repo}",
      "subscriptions_url": "https://api.github.com/users/hebasto/subscriptions",
      "organizations_url": "https://api.github.com/users/hebasto/orgs",
      "repos_url": "https://api.github.com/users/hebasto/repos",
      "events_url": "https://api.github.com/users/hebasto/events{/privacy}",
      "received_events_url": "https://api.github.com/users/hebasto/received_events",
      "type": "User",
      "site_admin": false
    },
    "created_at": "2020-06-11T15:43:57Z",
    "updated_at": "2020-06-11T15:43:57Z",
    "author_association": "MEMBER",
    "body_html": "<p dir=\"auto\"><a class=\"user-mention notranslate\" data-hovercard-type=\"user\" data-hovercard-url=\"/users/practicalswift/hovercard\" data-octo-click=\"hovercard-link-click\" data-octo-dimensions=\"link_type:self\" href=\"https://github.com/practicalswift\">@practicalswift</a></p>\n<blockquote>\n<p dir=\"auto\">Concept ACK, but we'll have to opt-in to <code class=\"notranslate\">-Wthread-safety-negative</code> (+ <code class=\"notranslate\">-Werror=thread-safety-negative</code> in Travis) to get the benefit of those annotations? :)</p>\n</blockquote>\n<p dir=\"auto\">Not exactly :)</p>\n<p dir=\"auto\"><code class=\"notranslate\">-Wthread-safety-negative</code> warns about absent negative annotations. It will be quite noisy in the current state of the code base. But it is our goal.</p>\n<p dir=\"auto\">Without <code class=\"notranslate\">-Wthread-safety-negative</code> the already added negative annotations work as expected (see: <a class=\"issue-link js-issue-link\" data-error-text=\"Failed to load title\" data-id=\"636353369\" data-permission-text=\"Title is private\" data-url=\"https://github.com/bitcoin/bitcoin/issues/19238\" data-hovercard-type=\"pull_request\" data-hovercard-url=\"/bitcoin/bitcoin/pull/19238/hovercard\" href=\"https://github.com/bitcoin/bitcoin/pull/19238\">#19238</a>).</p>\n<blockquote>\n<p dir=\"auto\">Can you add a temporary test case to verify that Travis catches an example incorrect lock?</p>\n</blockquote>\n<p dir=\"auto\">Done in <a class=\"issue-link js-issue-link\" data-error-text=\"Failed to load title\" data-id=\"637129186\" data-permission-text=\"Title is private\" data-url=\"https://github.com/bitcoin/bitcoin/issues/19251\" data-hovercard-type=\"pull_request\" data-hovercard-url=\"/bitcoin/bitcoin/pull/19251/hovercard\" href=\"https://github.com/bitcoin/bitcoin/pull/19251\">#19251</a>.</p>",
    "body_text": "@practicalswift\n\nConcept ACK, but we'll have to opt-in to -Wthread-safety-negative (+ -Werror=thread-safety-negative in Travis) to get the benefit of those annotations? :)\n\nNot exactly :)\n-Wthread-safety-negative warns about absent negative annotations. It will be quite noisy in the current state of the code base. But it is our goal.\nWithout -Wthread-safety-negative the already added negative annotations work as expected (see: #19238).\n\nCan you add a temporary test case to verify that Travis catches an example incorrect lock?\n\nDone in #19251.",
    "body": "@practicalswift \r\n> Concept ACK, but we'll have to opt-in to `-Wthread-safety-negative` (+ `-Werror=thread-safety-negative` in Travis) to get the benefit of those annotations? :)\r\n\r\nNot exactly :)\r\n\r\n`-Wthread-safety-negative` warns about absent negative annotations. It will be quite noisy in the current state of the code base. But it is our goal.\r\n\r\nWithout `-Wthread-safety-negative` the already added negative annotations work as expected (see: #19238).\r\n\r\n> Can you add a temporary test case to verify that Travis catches an example incorrect lock?\r\n\r\nDone in #19251.",
    "reactions": {
      "url": "https://api.github.com/repos/bitcoin/bitcoin/issues/comments/642752931/reactions",
      "total_count": 0,
      "+1": 0,
      "-1": 0,
      "laugh": 0,
      "hooray": 0,
      "confused": 0,
      "heart": 0,
      "rocket": 0,
      "eyes": 0
    },
    "performed_via_github_app": null
  },
  {
    "url": "https://api.github.com/repos/bitcoin/bitcoin/issues/comments/642767429",
    "html_url": "https://github.com/bitcoin/bitcoin/pull/19249#issuecomment-642767429",
    "issue_url": "https://api.github.com/repos/bitcoin/bitcoin/issues/19249",
    "id": 642767429,
    "node_id": "MDEyOklzc3VlQ29tbWVudDY0Mjc2NzQyOQ==",
    "user": {
      "login": "hebasto",
      "id": 32963518,
      "node_id": "MDQ6VXNlcjMyOTYzNTE4",
      "avatar_url": "https://avatars.githubusercontent.com/u/32963518?v=4",
      "gravatar_id": "",
      "url": "https://api.github.com/users/hebasto",
      "html_url": "https://github.com/hebasto",
      "followers_url": "https://api.github.com/users/hebasto/followers",
      "following_url": "https://api.github.com/users/hebasto/following{/other_user}",
      "gists_url": "https://api.github.com/users/hebasto/gists{/gist_id}",
      "starred_url": "https://api.github.com/users/hebasto/starred{/owner}{/repo}",
      "subscriptions_url": "https://api.github.com/users/hebasto/subscriptions",
      "organizations_url": "https://api.github.com/users/hebasto/orgs",
      "repos_url": "https://api.github.com/users/hebasto/repos",
      "events_url": "https://api.github.com/users/hebasto/events{/privacy}",
      "received_events_url": "https://api.github.com/users/hebasto/received_events",
      "type": "User",
      "site_admin": false
    },
    "created_at": "2020-06-11T15:57:24Z",
    "updated_at": "2020-06-11T15:57:24Z",
    "author_association": "MEMBER",
    "body_html": "<p dir=\"auto\"><a class=\"user-mention notranslate\" data-hovercard-type=\"user\" data-hovercard-url=\"/users/practicalswift/hovercard\" data-octo-click=\"hovercard-link-click\" data-octo-dimensions=\"link_type:self\" href=\"https://github.com/practicalswift\">@practicalswift</a><br>\nThe first error catch: <a href=\"https://travis-ci.org/github/bitcoin/bitcoin/jobs/697279768#L3640\" rel=\"nofollow\">https://travis-ci.org/github/bitcoin/bitcoin/jobs/697279768#L3640</a></p>",
    "body_text": "@practicalswift\nThe first error catch: https://travis-ci.org/github/bitcoin/bitcoin/jobs/697279768#L3640",
    "body": "@practicalswift \r\nThe first error catch: https://travis-ci.org/github/bitcoin/bitcoin/jobs/697279768#L3640",
    "reactions": {
      "url": "https://api.github.com/repos/bitcoin/bitcoin/issues/comments/642767429/reactions",
      "total_count": 0,
      "+1": 0,
      "-1": 0,
      "laugh": 0,
      "hooray": 0,
      "confused": 0,
      "heart": 0,
      "rocket": 0,
      "eyes": 0
    },
    "performed_via_github_app": null
  },
  {
    "url": "https://api.github.com/repos/bitcoin/bitcoin/issues/comments/642797415",
    "html_url": "https://github.com/bitcoin/bitcoin/pull/19249#issuecomment-642797415",
    "issue_url": "https://api.github.com/repos/bitcoin/bitcoin/issues/19249",
    "id": 642797415,
    "node_id": "MDEyOklzc3VlQ29tbWVudDY0Mjc5NzQxNQ==",
    "user": {
      "login": "hebasto",
      "id": 32963518,
      "node_id": "MDQ6VXNlcjMyOTYzNTE4",
      "avatar_url": "https://avatars.githubusercontent.com/u/32963518?v=4",
      "gravatar_id": "",
      "url": "https://api.github.com/users/hebasto",
      "html_url": "https://github.com/hebasto",
      "followers_url": "https://api.github.com/users/hebasto/followers",
      "following_url": "https://api.github.com/users/hebasto/following{/other_user}",
      "gists_url": "https://api.github.com/users/hebasto/gists{/gist_id}",
      "starred_url": "https://api.github.com/users/hebasto/starred{/owner}{/repo}",
      "subscriptions_url": "https://api.github.com/users/hebasto/subscriptions",
      "organizations_url": "https://api.github.com/users/hebasto/orgs",
      "repos_url": "https://api.github.com/users/hebasto/repos",
      "events_url": "https://api.github.com/users/hebasto/events{/privacy}",
      "received_events_url": "https://api.github.com/users/hebasto/received_events",
      "type": "User",
      "site_admin": false
    },
    "created_at": "2020-06-11T16:38:49Z",
    "updated_at": "2020-06-11T16:38:49Z",
    "author_association": "MEMBER",
    "body_html": "<p dir=\"auto\"><a class=\"user-mention notranslate\" data-hovercard-type=\"user\" data-hovercard-url=\"/users/MarcoFalke/hovercard\" data-octo-click=\"hovercard-link-click\" data-octo-dimensions=\"link_type:self\" href=\"https://github.com/MarcoFalke\">@MarcoFalke</a></p>\n<blockquote>\n<p dir=\"auto\">Yes, as I said this should be uncontroversial, as all supported operating systems come with at least clang-4.0 (oldoldstable debian)</p>\n</blockquote>\n<p dir=\"auto\"><a href=\"https://packages.debian.org/jessie/clang\" rel=\"nofollow\">https://packages.debian.org/jessie/clang</a>:</p>\n<blockquote>\n<p dir=\"auto\">Package: clang (1:3.5-25)</p>\n</blockquote>",
    "body_text": "@MarcoFalke\n\nYes, as I said this should be uncontroversial, as all supported operating systems come with at least clang-4.0 (oldoldstable debian)\n\nhttps://packages.debian.org/jessie/clang:\n\nPackage: clang (1:3.5-25)",
    "body": "@MarcoFalke \r\n> Yes, as I said this should be uncontroversial, as all supported operating systems come with at least clang-4.0 (oldoldstable debian)\r\n\r\nhttps://packages.debian.org/jessie/clang:\r\n> Package: clang (1:3.5-25) ",
    "reactions": {
      "url": "https://api.github.com/repos/bitcoin/bitcoin/issues/comments/642797415/reactions",
      "total_count": 0,
      "+1": 0,
      "-1": 0,
      "laugh": 0,
      "hooray": 0,
      "confused": 0,
      "heart": 0,
      "rocket": 0,
      "eyes": 0
    },
    "performed_via_github_app": null
  },
  {
    "url": "https://api.github.com/repos/bitcoin/bitcoin/issues/comments/642805267",
    "html_url": "https://github.com/bitcoin/bitcoin/pull/19249#issuecomment-642805267",
    "issue_url": "https://api.github.com/repos/bitcoin/bitcoin/issues/19249",
    "id": 642805267,
    "node_id": "MDEyOklzc3VlQ29tbWVudDY0MjgwNTI2Nw==",
    "user": {
      "login": "maflcko",
      "id": 6399679,
      "node_id": "MDQ6VXNlcjYzOTk2Nzk=",
      "avatar_url": "https://avatars.githubusercontent.com/u/6399679?v=4",
      "gravatar_id": "",
      "url": "https://api.github.com/users/maflcko",
      "html_url": "https://github.com/maflcko",
      "followers_url": "https://api.github.com/users/maflcko/followers",
      "following_url": "https://api.github.com/users/maflcko/following{/other_user}",
      "gists_url": "https://api.github.com/users/maflcko/gists{/gist_id}",
      "starred_url": "https://api.github.com/users/maflcko/starred{/owner}{/repo}",
      "subscriptions_url": "https://api.github.com/users/maflcko/subscriptions",
      "organizations_url": "https://api.github.com/users/maflcko/orgs",
      "repos_url": "https://api.github.com/users/maflcko/repos",
      "events_url": "https://api.github.com/users/maflcko/events{/privacy}",
      "received_events_url": "https://api.github.com/users/maflcko/received_events",
      "type": "User",
      "site_admin": false
    },
    "created_at": "2020-06-11T16:51:04Z",
    "updated_at": "2020-06-11T16:51:04Z",
    "author_association": "MEMBER",
    "body_html": "<p dir=\"auto\"><a href=\"https://packages.debian.org/jessie/clang-4.0\" rel=\"nofollow\">https://packages.debian.org/jessie/clang-4.0</a></p>",
    "body_text": "https://packages.debian.org/jessie/clang-4.0",
    "body": "https://packages.debian.org/jessie/clang-4.0",
    "reactions": {
      "url": "https://api.github.com/repos/bitcoin/bitcoin/issues/comments/642805267/reactions",
      "total_count": 1,
      "+1": 1,
      "-1": 0,
      "laugh": 0,
      "hooray": 0,
      "confused": 0,
      "heart": 0,
      "rocket": 0,
      "eyes": 0
    },
    "performed_via_github_app": null
  },
  {
    "url": "https://api.github.com/repos/bitcoin/bitcoin/issues/comments/642810600",
    "html_url": "https://github.com/bitcoin/bitcoin/pull/19249#issuecomment-642810600",
    "issue_url": "https://api.github.com/repos/bitcoin/bitcoin/issues/19249",
    "id": 642810600,
    "node_id": "MDEyOklzc3VlQ29tbWVudDY0MjgxMDYwMA==",
    "user": {
      "login": "maflcko",
      "id": 6399679,
      "node_id": "MDQ6VXNlcjYzOTk2Nzk=",
      "avatar_url": "https://avatars.githubusercontent.com/u/6399679?v=4",
      "gravatar_id": "",
      "url": "https://api.github.com/users/maflcko",
      "html_url": "https://github.com/maflcko",
      "followers_url": "https://api.github.com/users/maflcko/followers",
      "following_url": "https://api.github.com/users/maflcko/following{/other_user}",
      "gists_url": "https://api.github.com/users/maflcko/gists{/gist_id}",
      "starred_url": "https://api.github.com/users/maflcko/starred{/owner}{/repo}",
      "subscriptions_url": "https://api.github.com/users/maflcko/subscriptions",
      "organizations_url": "https://api.github.com/users/maflcko/orgs",
      "repos_url": "https://api.github.com/users/maflcko/repos",
      "events_url": "https://api.github.com/users/maflcko/events{/privacy}",
      "received_events_url": "https://api.github.com/users/maflcko/received_events",
      "type": "User",
      "site_admin": false
    },
    "created_at": "2020-06-11T17:01:04Z",
    "updated_at": "2020-06-11T17:01:04Z",
    "author_association": "MEMBER",
    "body_html": "<p dir=\"auto\">Also, I agree with <a class=\"user-mention notranslate\" data-hovercard-type=\"user\" data-hovercard-url=\"/users/practicalswift/hovercard\" data-octo-click=\"hovercard-link-click\" data-octo-dimensions=\"link_type:self\" href=\"https://github.com/practicalswift\">@practicalswift</a> that this should be added to the default flags. Otherwise it misses the whole point of helping developers write better code. There should not be a single negative annotation in our code, so there can't be any warnings. What am I missing?</p>",
    "body_text": "Also, I agree with @practicalswift that this should be added to the default flags. Otherwise it misses the whole point of helping developers write better code. There should not be a single negative annotation in our code, so there can't be any warnings. What am I missing?",
    "body": "Also, I agree with @practicalswift that this should be added to the default flags. Otherwise it misses the whole point of helping developers write better code. There should not be a single negative annotation in our code, so there can't be any warnings. What am I missing?",
    "reactions": {
      "url": "https://api.github.com/repos/bitcoin/bitcoin/issues/comments/642810600/reactions",
      "total_count": 0,
      "+1": 0,
      "-1": 0,
      "laugh": 0,
      "hooray": 0,
      "confused": 0,
      "heart": 0,
      "rocket": 0,
      "eyes": 0
    },
    "performed_via_github_app": null
  },
  {
    "url": "https://api.github.com/repos/bitcoin/bitcoin/issues/comments/642819030",
    "html_url": "https://github.com/bitcoin/bitcoin/pull/19249#issuecomment-642819030",
    "issue_url": "https://api.github.com/repos/bitcoin/bitcoin/issues/19249",
    "id": 642819030,
    "node_id": "MDEyOklzc3VlQ29tbWVudDY0MjgxOTAzMA==",
    "user": {
      "login": "hebasto",
      "id": 32963518,
      "node_id": "MDQ6VXNlcjMyOTYzNTE4",
      "avatar_url": "https://avatars.githubusercontent.com/u/32963518?v=4",
      "gravatar_id": "",
      "url": "https://api.github.com/users/hebasto",
      "html_url": "https://github.com/hebasto",
      "followers_url": "https://api.github.com/users/hebasto/followers",
      "following_url": "https://api.github.com/users/hebasto/following{/other_user}",
      "gists_url": "https://api.github.com/users/hebasto/gists{/gist_id}",
      "starred_url": "https://api.github.com/users/hebasto/starred{/owner}{/repo}",
      "subscriptions_url": "https://api.github.com/users/hebasto/subscriptions",
      "organizations_url": "https://api.github.com/users/hebasto/orgs",
      "repos_url": "https://api.github.com/users/hebasto/repos",
      "events_url": "https://api.github.com/users/hebasto/events{/privacy}",
      "received_events_url": "https://api.github.com/users/hebasto/received_events",
      "type": "User",
      "site_admin": false
    },
    "created_at": "2020-06-11T17:14:43Z",
    "updated_at": "2020-06-11T17:16:50Z",
    "author_association": "MEMBER",
    "body_html": "<blockquote>\n<p dir=\"auto\">Also, I agree with <a class=\"user-mention notranslate\" data-hovercard-type=\"user\" data-hovercard-url=\"/users/practicalswift/hovercard\" data-octo-click=\"hovercard-link-click\" data-octo-dimensions=\"link_type:self\" href=\"https://github.com/practicalswift\">@practicalswift</a> that this should be added to the default flags. Otherwise it misses the whole point of helping developers write better code. There should not be a single negative annotation in our code, so there can't be any warnings. What am I missing?</p>\n</blockquote>\n<p dir=\"auto\">All classes and free functions that use mutexes are required to be modernized as it done with the <code class=\"notranslate\">CAddrMan</code> class in <a class=\"issue-link js-issue-link\" data-error-text=\"Failed to load title\" data-id=\"636353369\" data-permission-text=\"Title is private\" data-url=\"https://github.com/bitcoin/bitcoin/issues/19238\" data-hovercard-type=\"pull_request\" data-hovercard-url=\"/bitcoin/bitcoin/pull/19238/hovercard\" href=\"https://github.com/bitcoin/bitcoin/pull/19238\">#19238</a>. Only after that the <code class=\"notranslate\">-Wthread-safety-negative</code> flag will be usable and useful without spammy warnings.</p>\n<p dir=\"auto\">At the end of this way there is a hope to get rid of <code class=\"notranslate\">RecursiveMutex</code>s completely.</p>",
    "body_text": "Also, I agree with @practicalswift that this should be added to the default flags. Otherwise it misses the whole point of helping developers write better code. There should not be a single negative annotation in our code, so there can't be any warnings. What am I missing?\n\nAll classes and free functions that use mutexes are required to be modernized as it done with the CAddrMan class in #19238. Only after that the -Wthread-safety-negative flag will be usable and useful without spammy warnings.\nAt the end of this way there is a hope to get rid of RecursiveMutexs completely.",
    "body": "> Also, I agree with @practicalswift that this should be added to the default flags. Otherwise it misses the whole point of helping developers write better code. There should not be a single negative annotation in our code, so there can't be any warnings. What am I missing?\r\n\r\nAll classes and free functions that use mutexes are required to be modernized as it done with the `CAddrMan` class in #19238. Only after that the `-Wthread-safety-negative` flag will be usable and useful without spammy warnings.\r\n\r\nAt the end of this way there is a hope to get rid of `RecursiveMutex`s completely.",
    "reactions": {
      "url": "https://api.github.com/repos/bitcoin/bitcoin/issues/comments/642819030/reactions",
      "total_count": 0,
      "+1": 0,
      "-1": 0,
      "laugh": 0,
      "hooray": 0,
      "confused": 0,
      "heart": 0,
      "rocket": 0,
      "eyes": 0
    },
    "performed_via_github_app": null
  },
  {
    "url": "https://api.github.com/repos/bitcoin/bitcoin/issues/comments/642823797",
    "html_url": "https://github.com/bitcoin/bitcoin/pull/19249#issuecomment-642823797",
    "issue_url": "https://api.github.com/repos/bitcoin/bitcoin/issues/19249",
    "id": 642823797,
    "node_id": "MDEyOklzc3VlQ29tbWVudDY0MjgyMzc5Nw==",
    "user": {
      "login": "hebasto",
      "id": 32963518,
      "node_id": "MDQ6VXNlcjMyOTYzNTE4",
      "avatar_url": "https://avatars.githubusercontent.com/u/32963518?v=4",
      "gravatar_id": "",
      "url": "https://api.github.com/users/hebasto",
      "html_url": "https://github.com/hebasto",
      "followers_url": "https://api.github.com/users/hebasto/followers",
      "following_url": "https://api.github.com/users/hebasto/following{/other_user}",
      "gists_url": "https://api.github.com/users/hebasto/gists{/gist_id}",
      "starred_url": "https://api.github.com/users/hebasto/starred{/owner}{/repo}",
      "subscriptions_url": "https://api.github.com/users/hebasto/subscriptions",
      "organizations_url": "https://api.github.com/users/hebasto/orgs",
      "repos_url": "https://api.github.com/users/hebasto/repos",
      "events_url": "https://api.github.com/users/hebasto/events{/privacy}",
      "received_events_url": "https://api.github.com/users/hebasto/received_events",
      "type": "User",
      "site_admin": false
    },
    "created_at": "2020-06-11T17:24:54Z",
    "updated_at": "2020-06-11T17:25:34Z",
    "author_association": "MEMBER",
    "body_html": "<p dir=\"auto\"><a class=\"user-mention notranslate\" data-hovercard-type=\"user\" data-hovercard-url=\"/users/MarcoFalke/hovercard\" data-octo-click=\"hovercard-link-click\" data-octo-dimensions=\"link_type:self\" href=\"https://github.com/MarcoFalke\">@MarcoFalke</a> <a class=\"user-mention notranslate\" data-hovercard-type=\"user\" data-hovercard-url=\"/users/practicalswift/hovercard\" data-octo-click=\"hovercard-link-click\" data-octo-dimensions=\"link_type:self\" href=\"https://github.com/practicalswift\">@practicalswift</a><br>\nOn the first stage, I see Negative Capabilities as a tool to refactor <code class=\"notranslate\">RecursiveMutex</code>s into <code class=\"notranslate\">Mutex</code>s with deadlock-free guaranties, and to verify the refactoring is done correctly.</p>\n<p dir=\"auto\">The next stage is as <a class=\"user-mention notranslate\" data-hovercard-type=\"user\" data-hovercard-url=\"/users/practicalswift/hovercard\" data-octo-click=\"hovercard-link-click\" data-octo-dimensions=\"link_type:self\" href=\"https://github.com/practicalswift\">@practicalswift</a> said:</p>\n<blockquote>\n<p dir=\"auto\">Concept ACK, but we'll have to opt-in to <code class=\"notranslate\">-Wthread-safety-negative</code> (+ <code class=\"notranslate\">-Werror=thread-safety-negative</code> in Travis) to get the benefit of those annotations? :)</p>\n</blockquote>",
    "body_text": "@MarcoFalke @practicalswift\nOn the first stage, I see Negative Capabilities as a tool to refactor RecursiveMutexs into Mutexs with deadlock-free guaranties, and to verify the refactoring is done correctly.\nThe next stage is as @practicalswift said:\n\nConcept ACK, but we'll have to opt-in to -Wthread-safety-negative (+ -Werror=thread-safety-negative in Travis) to get the benefit of those annotations? :)",
    "body": "@MarcoFalke @practicalswift \r\nOn the first stage, I see Negative Capabilities as a tool to refactor `RecursiveMutex`s into `Mutex`s with deadlock-free guaranties, and to verify the refactoring is done correctly.\r\n\r\nThe next stage is as @practicalswift said:\r\n\r\n> Concept ACK, but we'll have to opt-in to `-Wthread-safety-negative` (+ `-Werror=thread-safety-negative` in Travis) to get the benefit of those annotations? :)",
    "reactions": {
      "url": "https://api.github.com/repos/bitcoin/bitcoin/issues/comments/642823797/reactions",
      "total_count": 0,
      "+1": 0,
      "-1": 0,
      "laugh": 0,
      "hooray": 0,
      "confused": 0,
      "heart": 0,
      "rocket": 0,
      "eyes": 0
    },
    "performed_via_github_app": null
  },
  {
    "url": "https://api.github.com/repos/bitcoin/bitcoin/issues/comments/642893541",
    "html_url": "https://github.com/bitcoin/bitcoin/pull/19249#issuecomment-642893541",
    "issue_url": "https://api.github.com/repos/bitcoin/bitcoin/issues/19249",
    "id": 642893541,
    "node_id": "MDEyOklzc3VlQ29tbWVudDY0Mjg5MzU0MQ==",
    "user": {
      "login": "vasild",
      "id": 266751,
      "node_id": "MDQ6VXNlcjI2Njc1MQ==",
      "avatar_url": "https://avatars.githubusercontent.com/u/266751?v=4",
      "gravatar_id": "",
      "url": "https://api.github.com/users/vasild",
      "html_url": "https://github.com/vasild",
      "followers_url": "https://api.github.com/users/vasild/followers",
      "following_url": "https://api.github.com/users/vasild/following{/other_user}",
      "gists_url": "https://api.github.com/users/vasild/gists{/gist_id}",
      "starred_url": "https://api.github.com/users/vasild/starred{/owner}{/repo}",
      "subscriptions_url": "https://api.github.com/users/vasild/subscriptions",
      "organizations_url": "https://api.github.com/users/vasild/orgs",
      "repos_url": "https://api.github.com/users/vasild/repos",
      "events_url": "https://api.github.com/users/vasild/events{/privacy}",
      "received_events_url": "https://api.github.com/users/vasild/received_events",
      "type": "User",
      "site_admin": false
    },
    "created_at": "2020-06-11T19:48:52Z",
    "updated_at": "2020-06-11T19:48:52Z",
    "author_association": "CONTRIBUTOR",
    "body_html": "<p dir=\"auto\">Just to clarify with an example why <code class=\"notranslate\">EXCLUSIVE_LOCKS_REQUIRED(!m)</code> makes sense without <code class=\"notranslate\">-Wthread-safety-negative</code> (I added a buggy function <code class=\"notranslate\">f()</code> which calls <code class=\"notranslate\">size()</code> while holding the mutex):</p>\n<div class=\"highlight highlight-source-c++ notranslate position-relative overflow-auto\" dir=\"auto\" data-snippet-clipboard-copy-content=\"556     size_t size() const EXCLUSIVE_LOCKS_REQUIRED(!m_addrman_mutex)\n557     {\n558         LOCK(m_addrman_mutex); // TODO: Cache this in an atomic to avoid this overhead\n559         return sizeNonLockerHelper();\n560     }\n561 \n562     void f()\n563     {\n564         LOCK(m_addrman_mutex);\n565         size();\n566     }\"><pre class=\"notranslate\"><span class=\"pl-c1\">556</span>     <span class=\"pl-c1\">size_t</span> <span class=\"pl-en\">size</span>() <span class=\"pl-k\">const</span> EXCLUSIVE_LOCKS_REQUIRED(!m_addrman_mutex)\n557     {\n<span class=\"pl-c1\">558</span>         <span class=\"pl-smi\">LOCK</span>(m_addrman_mutex); <span class=\"pl-c\"><span class=\"pl-c\">//</span> TODO: Cache this in an atomic to avoid this overhead</span>\n<span class=\"pl-c1\">559</span>         <span class=\"pl-k\">return</span> <span class=\"pl-c1\">sizeNonLockerHelper</span>();\n<span class=\"pl-c1\">560</span>     }\n<span class=\"pl-c1\">561</span> \n<span class=\"pl-c1\">562</span>     <span class=\"pl-k\">void</span> <span class=\"pl-en\">f</span>()\n563     {\n<span class=\"pl-c1\">564</span>         <span class=\"pl-smi\">LOCK</span>(m_addrman_mutex);\n<span class=\"pl-c1\">565</span>         <span class=\"pl-smi\">size</span>();\n<span class=\"pl-c1\">566</span>     }</pre></div>\n<p dir=\"auto\">When this code is compiled with just <a href=\"https://clang.llvm.org/docs/DiagnosticsReference.html#wthread-safety\" rel=\"nofollow\"><code class=\"notranslate\">-Wthread-safety</code></a> (as in current <code class=\"notranslate\">master</code>) then it produces:</p>\n<div class=\"snippet-clipboard-content notranslate position-relative overflow-auto\" data-snippet-clipboard-copy-content=\"src/addrman.h:565:9: error: cannot call function 'size' while mutex 'm_addrman_mutex' is held [-Werror,-Wthread-safety-analysis]\n        size();\n        ^\"><pre class=\"notranslate\"><code class=\"notranslate\">src/addrman.h:565:9: error: cannot call function 'size' while mutex 'm_addrman_mutex' is held [-Werror,-Wthread-safety-analysis]\n        size();\n        ^\n</code></pre></div>\n<p dir=\"auto\"><a href=\"https://clang.llvm.org/docs/DiagnosticsReference.html#wthread-safety\" rel=\"nofollow\"><code class=\"notranslate\">-Wthread-safety</code></a> enables <a href=\"https://clang.llvm.org/docs/DiagnosticsReference.html#wthread-safety-analysis\" rel=\"nofollow\"><code class=\"notranslate\">-Wthread-safety-analysis</code></a> but not <a href=\"https://clang.llvm.org/docs/DiagnosticsReference.html#wthread-safety-negative\" rel=\"nofollow\">-Wthread-safety-negative</a>.</p>\n<p dir=\"auto\">So what does <code class=\"notranslate\">-Wthread-safety-negative</code> do then? It warns whenever some function <code class=\"notranslate\">LOCK()</code>s something without having <code class=\"notranslate\">EXCLUSIVE_LOCKS_REQUIRED(!thatthing)</code>:</p>\n<div class=\"snippet-clipboard-content notranslate position-relative overflow-auto\" data-snippet-clipboard-copy-content=\"src/addrman.h:564:9: error: acquiring mutex 'm_addrman_mutex' requires negative capability '!m_addrman_mutex' [-Werror,-Wthread-safety-negative]\n        LOCK(m_addrman_mutex);\n        ^\"><pre class=\"notranslate\"><code class=\"notranslate\">src/addrman.h:564:9: error: acquiring mutex 'm_addrman_mutex' requires negative capability '!m_addrman_mutex' [-Werror,-Wthread-safety-negative]\n        LOCK(m_addrman_mutex);\n        ^\n</code></pre></div>",
    "body_text": "Just to clarify with an example why EXCLUSIVE_LOCKS_REQUIRED(!m) makes sense without -Wthread-safety-negative (I added a buggy function f() which calls size() while holding the mutex):\n556     size_t size() const EXCLUSIVE_LOCKS_REQUIRED(!m_addrman_mutex)\n557     {\n558         LOCK(m_addrman_mutex); // TODO: Cache this in an atomic to avoid this overhead\n559         return sizeNonLockerHelper();\n560     }\n561 \n562     void f()\n563     {\n564         LOCK(m_addrman_mutex);\n565         size();\n566     }\nWhen this code is compiled with just -Wthread-safety (as in current master) then it produces:\nsrc/addrman.h:565:9: error: cannot call function 'size' while mutex 'm_addrman_mutex' is held [-Werror,-Wthread-safety-analysis]\n        size();\n        ^\n\n-Wthread-safety enables -Wthread-safety-analysis but not -Wthread-safety-negative.\nSo what does -Wthread-safety-negative do then? It warns whenever some function LOCK()s something without having EXCLUSIVE_LOCKS_REQUIRED(!thatthing):\nsrc/addrman.h:564:9: error: acquiring mutex 'm_addrman_mutex' requires negative capability '!m_addrman_mutex' [-Werror,-Wthread-safety-negative]\n        LOCK(m_addrman_mutex);\n        ^",
    "body": "Just to clarify with an example why `EXCLUSIVE_LOCKS_REQUIRED(!m)` makes sense without `-Wthread-safety-negative` (I added a buggy function `f()` which calls `size()` while holding the mutex):\r\n\r\n```c++\r\n556     size_t size() const EXCLUSIVE_LOCKS_REQUIRED(!m_addrman_mutex)\r\n557     {\r\n558         LOCK(m_addrman_mutex); // TODO: Cache this in an atomic to avoid this overhead\r\n559         return sizeNonLockerHelper();\r\n560     }\r\n561 \r\n562     void f()\r\n563     {\r\n564         LOCK(m_addrman_mutex);\r\n565         size();\r\n566     }\r\n```\r\n\r\nWhen this code is compiled with just [`-Wthread-safety`](https://clang.llvm.org/docs/DiagnosticsReference.html#wthread-safety) (as in current `master`) then it produces:\r\n\r\n```\r\nsrc/addrman.h:565:9: error: cannot call function 'size' while mutex 'm_addrman_mutex' is held [-Werror,-Wthread-safety-analysis]\r\n        size();\r\n        ^\r\n```\r\n\r\n[`-Wthread-safety`](https://clang.llvm.org/docs/DiagnosticsReference.html#wthread-safety) enables [`-Wthread-safety-analysis`](https://clang.llvm.org/docs/DiagnosticsReference.html#wthread-safety-analysis) but not [-Wthread-safety-negative](https://clang.llvm.org/docs/DiagnosticsReference.html#wthread-safety-negative).\r\n\r\nSo what does `-Wthread-safety-negative` do then? It warns whenever some function `LOCK()`s something without having `EXCLUSIVE_LOCKS_REQUIRED(!thatthing)`:\r\n```\r\nsrc/addrman.h:564:9: error: acquiring mutex 'm_addrman_mutex' requires negative capability '!m_addrman_mutex' [-Werror,-Wthread-safety-negative]\r\n        LOCK(m_addrman_mutex);\r\n        ^\r\n```",
    "reactions": {
      "url": "https://api.github.com/repos/bitcoin/bitcoin/issues/comments/642893541/reactions",
      "total_count": 1,
      "+1": 1,
      "-1": 0,
      "laugh": 0,
      "hooray": 0,
      "confused": 0,
      "heart": 0,
      "rocket": 0,
      "eyes": 0
    },
    "performed_via_github_app": null
  },
  {
    "url": "https://api.github.com/repos/bitcoin/bitcoin/issues/comments/642964695",
    "html_url": "https://github.com/bitcoin/bitcoin/pull/19249#issuecomment-642964695",
    "issue_url": "https://api.github.com/repos/bitcoin/bitcoin/issues/19249",
    "id": 642964695,
    "node_id": "MDEyOklzc3VlQ29tbWVudDY0Mjk2NDY5NQ==",
    "user": {
      "login": "maflcko",
      "id": 6399679,
      "node_id": "MDQ6VXNlcjYzOTk2Nzk=",
      "avatar_url": "https://avatars.githubusercontent.com/u/6399679?v=4",
      "gravatar_id": "",
      "url": "https://api.github.com/users/maflcko",
      "html_url": "https://github.com/maflcko",
      "followers_url": "https://api.github.com/users/maflcko/followers",
      "following_url": "https://api.github.com/users/maflcko/following{/other_user}",
      "gists_url": "https://api.github.com/users/maflcko/gists{/gist_id}",
      "starred_url": "https://api.github.com/users/maflcko/starred{/owner}{/repo}",
      "subscriptions_url": "https://api.github.com/users/maflcko/subscriptions",
      "organizations_url": "https://api.github.com/users/maflcko/orgs",
      "repos_url": "https://api.github.com/users/maflcko/repos",
      "events_url": "https://api.github.com/users/maflcko/events{/privacy}",
      "received_events_url": "https://api.github.com/users/maflcko/received_events",
      "type": "User",
      "site_admin": false
    },
    "created_at": "2020-06-11T22:33:55Z",
    "updated_at": "2020-06-11T22:33:55Z",
    "author_association": "MEMBER",
    "body_html": "<p dir=\"auto\">Does it warn even for recursive mutexes?</p>",
    "body_text": "Does it warn even for recursive mutexes?",
    "body": "Does it warn even for recursive mutexes?",
    "reactions": {
      "url": "https://api.github.com/repos/bitcoin/bitcoin/issues/comments/642964695/reactions",
      "total_count": 0,
      "+1": 0,
      "-1": 0,
      "laugh": 0,
      "hooray": 0,
      "confused": 0,
      "heart": 0,
      "rocket": 0,
      "eyes": 0
    },
    "performed_via_github_app": null
  },
  {
    "url": "https://api.github.com/repos/bitcoin/bitcoin/issues/comments/642979664",
    "html_url": "https://github.com/bitcoin/bitcoin/pull/19249#issuecomment-642979664",
    "issue_url": "https://api.github.com/repos/bitcoin/bitcoin/issues/19249",
    "id": 642979664,
    "node_id": "MDEyOklzc3VlQ29tbWVudDY0Mjk3OTY2NA==",
    "user": {
      "login": "maflcko",
      "id": 6399679,
      "node_id": "MDQ6VXNlcjYzOTk2Nzk=",
      "avatar_url": "https://avatars.githubusercontent.com/u/6399679?v=4",
      "gravatar_id": "",
      "url": "https://api.github.com/users/maflcko",
      "html_url": "https://github.com/maflcko",
      "followers_url": "https://api.github.com/users/maflcko/followers",
      "following_url": "https://api.github.com/users/maflcko/following{/other_user}",
      "gists_url": "https://api.github.com/users/maflcko/gists{/gist_id}",
      "starred_url": "https://api.github.com/users/maflcko/starred{/owner}{/repo}",
      "subscriptions_url": "https://api.github.com/users/maflcko/subscriptions",
      "organizations_url": "https://api.github.com/users/maflcko/orgs",
      "repos_url": "https://api.github.com/users/maflcko/repos",
      "events_url": "https://api.github.com/users/maflcko/events{/privacy}",
      "received_events_url": "https://api.github.com/users/maflcko/received_events",
      "type": "User",
      "site_admin": false
    },
    "created_at": "2020-06-11T23:26:19Z",
    "updated_at": "2020-06-11T23:26:19Z",
    "author_association": "MEMBER",
    "body_html": "<p dir=\"auto\">Approach ACK <a class=\"commit-link\" data-hovercard-type=\"commit\" data-hovercard-url=\"https://github.com/bitcoin/bitcoin/commit/f8213c05f087e5fbb5d92a291f766b0baebc798f/hovercard\" href=\"https://github.com/bitcoin/bitcoin/commit/f8213c05f087e5fbb5d92a291f766b0baebc798f\"><tt>f8213c0</tt></a></p>\n<p dir=\"auto\">This simply adds a member function and doesn't need to bump the minimum compiler version. I don't see a reason to disallow this annotation for temporary testing by not having the member function.</p>",
    "body_text": "Approach ACK f8213c0\nThis simply adds a member function and doesn't need to bump the minimum compiler version. I don't see a reason to disallow this annotation for temporary testing by not having the member function.",
    "body": "Approach ACK f8213c05f087e5fbb5d92a291f766b0baebc798f\r\n\r\nThis simply adds a member function and doesn't need to bump the minimum compiler version. I don't see a reason to disallow this annotation for temporary testing by not having the member function.",
    "reactions": {
      "url": "https://api.github.com/repos/bitcoin/bitcoin/issues/comments/642979664/reactions",
      "total_count": 0,
      "+1": 0,
      "-1": 0,
      "laugh": 0,
      "hooray": 0,
      "confused": 0,
      "heart": 0,
      "rocket": 0,
      "eyes": 0
    },
    "performed_via_github_app": null
  },
  {
    "url": "https://api.github.com/repos/bitcoin/bitcoin/issues/comments/643048609",
    "html_url": "https://github.com/bitcoin/bitcoin/pull/19249#issuecomment-643048609",
    "issue_url": "https://api.github.com/repos/bitcoin/bitcoin/issues/19249",
    "id": 643048609,
    "node_id": "MDEyOklzc3VlQ29tbWVudDY0MzA0ODYwOQ==",
    "user": {
      "login": "ajtowns",
      "id": 127186,
      "node_id": "MDQ6VXNlcjEyNzE4Ng==",
      "avatar_url": "https://avatars.githubusercontent.com/u/127186?v=4",
      "gravatar_id": "",
      "url": "https://api.github.com/users/ajtowns",
      "html_url": "https://github.com/ajtowns",
      "followers_url": "https://api.github.com/users/ajtowns/followers",
      "following_url": "https://api.github.com/users/ajtowns/following{/other_user}",
      "gists_url": "https://api.github.com/users/ajtowns/gists{/gist_id}",
      "starred_url": "https://api.github.com/users/ajtowns/starred{/owner}{/repo}",
      "subscriptions_url": "https://api.github.com/users/ajtowns/subscriptions",
      "organizations_url": "https://api.github.com/users/ajtowns/orgs",
      "repos_url": "https://api.github.com/users/ajtowns/repos",
      "events_url": "https://api.github.com/users/ajtowns/events{/privacy}",
      "received_events_url": "https://api.github.com/users/ajtowns/received_events",
      "type": "User",
      "site_admin": false
    },
    "created_at": "2020-06-12T03:45:18Z",
    "updated_at": "2020-06-12T03:45:18Z",
    "author_association": "CONTRIBUTOR",
    "body_html": "<p dir=\"auto\">If we're even slightly worried about supporting old compilers, why not add a new macro to threadsafety.h?</p>\n<div class=\"highlight highlight-source-c++ notranslate position-relative overflow-auto\" dir=\"auto\" data-snippet-clipboard-copy-content=\"#if defined(__clang__) &amp;&amp; __clang_major__ &gt;= 4\n#define EXCLUSIVE_LOCKS_FORBIDDEN(a) __attribute__((exclusive_locks_required(!a)))\n#else\n#define EXCLUSIVE_LOCKS_FORBIDDEN(a)\n#endif // clang 4\n\nclass CAddrMan {\n    ...\n    size_t size() const EXCLUSIVE_LOCKS_FORBIDDEN(m_addrman_mutex);\n    ...\n};\"><pre class=\"notranslate\">#<span class=\"pl-k\">if</span> defined(__clang__) &amp;&amp; __clang_major__ &gt;= 4\n#<span class=\"pl-k\">define</span> <span class=\"pl-en\">EXCLUSIVE_LOCKS_FORBIDDEN</span>(<span class=\"pl-v\">a</span>) __attribute__((exclusive_locks_required(!a)))\n#<span class=\"pl-k\">else</span>\n#<span class=\"pl-k\">define</span> <span class=\"pl-en\">EXCLUSIVE_LOCKS_FORBIDDEN</span>(<span class=\"pl-v\">a</span>)\n#<span class=\"pl-k\">endif</span> <span class=\"pl-c\"><span class=\"pl-c\">//</span> clang 4</span>\n\n<span class=\"pl-k\">class</span> <span class=\"pl-en\">CAddrMan</span> {\n    ...\n    <span class=\"pl-c1\">size_t</span> <span class=\"pl-en\">size</span>() <span class=\"pl-k\">const</span> EXCLUSIVE_LOCKS_FORBIDDEN(m_addrman_mutex);\n    ...\n};</pre></div>\n<p dir=\"auto\">It seems if you add member functions in CAddrMan that call things that forbid holding m_addrman_mutex, then you have to also mark those member functions as forbidding holding m_addrman_mutex, but for functions outside of those modules, you don't have to. If I do:</p>\n<div class=\"highlight highlight-source-c++ notranslate position-relative overflow-auto\" dir=\"auto\" data-snippet-clipboard-copy-content=\"+void wtf(CConnman&amp; c, const CService &amp;addr, ServiceFlags nServices)\n+{\n+    LOCK(c.addrman.m_addrman_mutex);\n+    c.SetServices(addr, nServices);\n+}\n+\n void CConnman::SetServices(const CService &amp;addr, ServiceFlags nServices)\n {\n     addrman.SetServices(addr, nServices);\n }\"><pre class=\"notranslate\">+<span class=\"pl-k\">void</span> <span class=\"pl-en\">wtf</span>(CConnman&amp; c, <span class=\"pl-k\">const</span> CService &amp;addr, ServiceFlags nServices)\n+{\n+    <span class=\"pl-c1\">LOCK</span>(c.<span class=\"pl-smi\">addrman</span>.<span class=\"pl-smi\">m_addrman_mutex</span>);\n+    c.<span class=\"pl-c1\">SetServices</span>(addr, nServices);\n+}\n+\n <span class=\"pl-k\">void</span> <span class=\"pl-en\">CConnman::SetServices</span>(<span class=\"pl-k\">const</span> CService &amp;addr, ServiceFlags nServices)\n {\n     addrman.<span class=\"pl-c1\">SetServices</span>(addr, nServices);\n }</pre></div>\n<p dir=\"auto\">(and make addrman and m_addrman_mutex public members) then I don't get a compile time warning.</p>\n<p dir=\"auto\">Based on the <a href=\"https://static.googleusercontent.com/media/research.google.com/en//pubs/archive/42958.pdf\" rel=\"nofollow\">google paper</a> I think the what's happening is \"The analyzer assumes that it holds a negative capability for any object that is not defined within the current lexical  scope\" -- so for mutexes that are private class members, it should be fine, I think; and also for module-specific globals. But I think it will not work right for cross-file globals like cs_main?</p>",
    "body_text": "If we're even slightly worried about supporting old compilers, why not add a new macro to threadsafety.h?\n#if defined(__clang__) && __clang_major__ >= 4\n#define EXCLUSIVE_LOCKS_FORBIDDEN(a) __attribute__((exclusive_locks_required(!a)))\n#else\n#define EXCLUSIVE_LOCKS_FORBIDDEN(a)\n#endif // clang 4\n\nclass CAddrMan {\n    ...\n    size_t size() const EXCLUSIVE_LOCKS_FORBIDDEN(m_addrman_mutex);\n    ...\n};\nIt seems if you add member functions in CAddrMan that call things that forbid holding m_addrman_mutex, then you have to also mark those member functions as forbidding holding m_addrman_mutex, but for functions outside of those modules, you don't have to. If I do:\n+void wtf(CConnman& c, const CService &addr, ServiceFlags nServices)\n+{\n+    LOCK(c.addrman.m_addrman_mutex);\n+    c.SetServices(addr, nServices);\n+}\n+\n void CConnman::SetServices(const CService &addr, ServiceFlags nServices)\n {\n     addrman.SetServices(addr, nServices);\n }\n(and make addrman and m_addrman_mutex public members) then I don't get a compile time warning.\nBased on the google paper I think the what's happening is \"The analyzer assumes that it holds a negative capability for any object that is not defined within the current lexical  scope\" -- so for mutexes that are private class members, it should be fine, I think; and also for module-specific globals. But I think it will not work right for cross-file globals like cs_main?",
    "body": "If we're even slightly worried about supporting old compilers, why not add a new macro to threadsafety.h?\r\n\r\n```c++\r\n#if defined(__clang__) && __clang_major__ >= 4\r\n#define EXCLUSIVE_LOCKS_FORBIDDEN(a) __attribute__((exclusive_locks_required(!a)))\r\n#else\r\n#define EXCLUSIVE_LOCKS_FORBIDDEN(a)\r\n#endif // clang 4\r\n\r\nclass CAddrMan {\r\n    ...\r\n    size_t size() const EXCLUSIVE_LOCKS_FORBIDDEN(m_addrman_mutex);\r\n    ...\r\n};\r\n```\r\n\r\nIt seems if you add member functions in CAddrMan that call things that forbid holding m_addrman_mutex, then you have to also mark those member functions as forbidding holding m_addrman_mutex, but for functions outside of those modules, you don't have to. If I do:\r\n\r\n```c++\r\n+void wtf(CConnman& c, const CService &addr, ServiceFlags nServices)\r\n+{\r\n+    LOCK(c.addrman.m_addrman_mutex);\r\n+    c.SetServices(addr, nServices);\r\n+}\r\n+\r\n void CConnman::SetServices(const CService &addr, ServiceFlags nServices)\r\n {\r\n     addrman.SetServices(addr, nServices);\r\n }\r\n```\r\n\r\n(and make addrman and m_addrman_mutex public members) then I don't get a compile time warning.\r\n\r\nBased on the [google paper](https://static.googleusercontent.com/media/research.google.com/en//pubs/archive/42958.pdf) I think the what's happening is \"The analyzer assumes that it holds a negative capability for any object that is not defined within the current lexical  scope\" -- so for mutexes that are private class members, it should be fine, I think; and also for module-specific globals. But I think it will not work right for cross-file globals like cs_main?",
    "reactions": {
      "url": "https://api.github.com/repos/bitcoin/bitcoin/issues/comments/643048609/reactions",
      "total_count": 0,
      "+1": 0,
      "-1": 0,
      "laugh": 0,
      "hooray": 0,
      "confused": 0,
      "heart": 0,
      "rocket": 0,
      "eyes": 0
    },
    "performed_via_github_app": null
  },
  {
    "url": "https://api.github.com/repos/bitcoin/bitcoin/issues/comments/643119899",
    "html_url": "https://github.com/bitcoin/bitcoin/pull/19249#issuecomment-643119899",
    "issue_url": "https://api.github.com/repos/bitcoin/bitcoin/issues/19249",
    "id": 643119899,
    "node_id": "MDEyOklzc3VlQ29tbWVudDY0MzExOTg5OQ==",
    "user": {
      "login": "hebasto",
      "id": 32963518,
      "node_id": "MDQ6VXNlcjMyOTYzNTE4",
      "avatar_url": "https://avatars.githubusercontent.com/u/32963518?v=4",
      "gravatar_id": "",
      "url": "https://api.github.com/users/hebasto",
      "html_url": "https://github.com/hebasto",
      "followers_url": "https://api.github.com/users/hebasto/followers",
      "following_url": "https://api.github.com/users/hebasto/following{/other_user}",
      "gists_url": "https://api.github.com/users/hebasto/gists{/gist_id}",
      "starred_url": "https://api.github.com/users/hebasto/starred{/owner}{/repo}",
      "subscriptions_url": "https://api.github.com/users/hebasto/subscriptions",
      "organizations_url": "https://api.github.com/users/hebasto/orgs",
      "repos_url": "https://api.github.com/users/hebasto/repos",
      "events_url": "https://api.github.com/users/hebasto/events{/privacy}",
      "received_events_url": "https://api.github.com/users/hebasto/received_events",
      "type": "User",
      "site_admin": false
    },
    "created_at": "2020-06-12T07:33:54Z",
    "updated_at": "2020-06-12T07:33:54Z",
    "author_association": "MEMBER",
    "body_html": "<p dir=\"auto\"><a class=\"user-mention notranslate\" data-hovercard-type=\"user\" data-hovercard-url=\"/users/MarcoFalke/hovercard\" data-octo-click=\"hovercard-link-click\" data-octo-dimensions=\"link_type:self\" href=\"https://github.com/MarcoFalke\">@MarcoFalke</a></p>\n<blockquote>\n<p dir=\"auto\">Does it warn even for recursive mutexes?</p>\n</blockquote>\n<p dir=\"auto\">Yes, it does. See:</p>\n<ul dir=\"auto\">\n<li><a href=\"https://travis-ci.org/github/bitcoin/bitcoin/jobs/697279768#L3640\" rel=\"nofollow\">https://travis-ci.org/github/bitcoin/bitcoin/jobs/697279768#L3640</a></li>\n<li><a href=\"https://travis-ci.org/github/bitcoin/bitcoin/jobs/697279769#L2114\" rel=\"nofollow\">https://travis-ci.org/github/bitcoin/bitcoin/jobs/697279769#L2114</a></li>\n</ul>",
    "body_text": "@MarcoFalke\n\nDoes it warn even for recursive mutexes?\n\nYes, it does. See:\n\nhttps://travis-ci.org/github/bitcoin/bitcoin/jobs/697279768#L3640\nhttps://travis-ci.org/github/bitcoin/bitcoin/jobs/697279769#L2114",
    "body": "@MarcoFalke \r\n> Does it warn even for recursive mutexes?\r\n\r\nYes, it does. See:\r\n- https://travis-ci.org/github/bitcoin/bitcoin/jobs/697279768#L3640\r\n- https://travis-ci.org/github/bitcoin/bitcoin/jobs/697279769#L2114",
    "reactions": {
      "url": "https://api.github.com/repos/bitcoin/bitcoin/issues/comments/643119899/reactions",
      "total_count": 0,
      "+1": 0,
      "-1": 0,
      "laugh": 0,
      "hooray": 0,
      "confused": 0,
      "heart": 0,
      "rocket": 0,
      "eyes": 0
    },
    "performed_via_github_app": null
  },
  {
    "url": "https://api.github.com/repos/bitcoin/bitcoin/issues/comments/643358163",
    "html_url": "https://github.com/bitcoin/bitcoin/pull/19249#issuecomment-643358163",
    "issue_url": "https://api.github.com/repos/bitcoin/bitcoin/issues/19249",
    "id": 643358163,
    "node_id": "MDEyOklzc3VlQ29tbWVudDY0MzM1ODE2Mw==",
    "user": {
      "login": "hebasto",
      "id": 32963518,
      "node_id": "MDQ6VXNlcjMyOTYzNTE4",
      "avatar_url": "https://avatars.githubusercontent.com/u/32963518?v=4",
      "gravatar_id": "",
      "url": "https://api.github.com/users/hebasto",
      "html_url": "https://github.com/hebasto",
      "followers_url": "https://api.github.com/users/hebasto/followers",
      "following_url": "https://api.github.com/users/hebasto/following{/other_user}",
      "gists_url": "https://api.github.com/users/hebasto/gists{/gist_id}",
      "starred_url": "https://api.github.com/users/hebasto/starred{/owner}{/repo}",
      "subscriptions_url": "https://api.github.com/users/hebasto/subscriptions",
      "organizations_url": "https://api.github.com/users/hebasto/orgs",
      "repos_url": "https://api.github.com/users/hebasto/repos",
      "events_url": "https://api.github.com/users/hebasto/events{/privacy}",
      "received_events_url": "https://api.github.com/users/hebasto/received_events",
      "type": "User",
      "site_admin": false
    },
    "created_at": "2020-06-12T16:14:56Z",
    "updated_at": "2020-06-12T16:14:56Z",
    "author_association": "MEMBER",
    "body_html": "<p dir=\"auto\"><a class=\"user-mention notranslate\" data-hovercard-type=\"user\" data-hovercard-url=\"/users/MarcoFalke/hovercard\" data-octo-click=\"hovercard-link-click\" data-octo-dimensions=\"link_type:self\" href=\"https://github.com/MarcoFalke\">@MarcoFalke</a></p>\n<blockquote>\n<p dir=\"auto\">This simply adds a member function and doesn't need to bump the minimum compiler version.</p>\n</blockquote>\n<p dir=\"auto\">Agree to postpone the minimum compiler version bumping until C++17.</p>\n<p dir=\"auto\">In any case, Clang just ignores unknown annotations.</p>\n<p dir=\"auto\">FWIW, I've made some retro tests:</p>\n<ul dir=\"auto\">\n<li>Clang 3.3</li>\n</ul>\n<div class=\"snippet-clipboard-content notranslate position-relative overflow-auto\" data-snippet-clipboard-copy-content=\"$ cat /etc/system-release\nFedora release 20 (Heisenbug)\n\n$ clang++ --version\nclang version 3.3 (tags/RELEASE_33/rc3)\nTarget: x86_64-redhat-linux-gnu\nThread model: posix\n\n$ ./autogen.sh\n$ ./configure --without-gui --disable-wallet CC=clang CXX=clang++\n$ make\n...\nIn file included from crypto/sha256.cpp:11:\n./compat/cpuid.h:17:5: error: use of undeclared identifier '__cpuid_count'\n    __cpuid_count(leaf, subleaf, a, b, c, d);\n    ^\n1 error generated.\n\nIn file included from init.cpp:35:\nIn file included from ./policy/policy.h:12:\nIn file included from ./script/standard.h:12:\nIn file included from /usr/include/boost/variant.hpp:17:\n/usr/include/boost/variant/variant.hpp:1751:9: error: call to member function 'convert_construct' is ambiguous\n        convert_construct( detail::variant::move(operand), 1L);\n        ^~~~~~~~~~~~~~~~~\n1 error generated.\"><pre class=\"notranslate\"><code class=\"notranslate\">$ cat /etc/system-release\nFedora release 20 (Heisenbug)\n\n$ clang++ --version\nclang version 3.3 (tags/RELEASE_33/rc3)\nTarget: x86_64-redhat-linux-gnu\nThread model: posix\n\n$ ./autogen.sh\n$ ./configure --without-gui --disable-wallet CC=clang CXX=clang++\n$ make\n...\nIn file included from crypto/sha256.cpp:11:\n./compat/cpuid.h:17:5: error: use of undeclared identifier '__cpuid_count'\n    __cpuid_count(leaf, subleaf, a, b, c, d);\n    ^\n1 error generated.\n\nIn file included from init.cpp:35:\nIn file included from ./policy/policy.h:12:\nIn file included from ./script/standard.h:12:\nIn file included from /usr/include/boost/variant.hpp:17:\n/usr/include/boost/variant/variant.hpp:1751:9: error: call to member function 'convert_construct' is ambiguous\n        convert_construct( detail::variant::move(operand), 1L);\n        ^~~~~~~~~~~~~~~~~\n1 error generated.\n</code></pre></div>\n<ul dir=\"auto\">\n<li>Clang 3.5</li>\n</ul>\n<div class=\"snippet-clipboard-content notranslate position-relative overflow-auto\" data-snippet-clipboard-copy-content=\"$ cat /etc/system-release\nFedora release 22 (Twenty Two)\n\n$ clang++ --version\nclang version 3.5.0 (tags/RELEASE_350/final)\nTarget: x86_64-redhat-linux-gnu\nThread model: posix\n\n$ ./autogen.sh\n$ ./configure --without-gui --disable-wallet CC=clang CXX=clang++\n$ make\n...\nIn file included from banman.cpp:8:\nIn file included from ./netaddress.h:12:\nIn file included from ./compat.h:32:\nIn file included from /usr/include/fcntl.h:302:\n/usr/include/bits/fcntl2.h:80:39: error: use of undeclared identifier '__builtin_va_arg_pack_len'\n      if ((__oflag &amp; O_CREAT) != 0 &amp;&amp; __va_arg_pack_len () &lt; 1)\n                                      ^\n/usr/include/sys/cdefs.h:350:30: note: expanded from macro '__va_arg_pack_len'\n# define __va_arg_pack_len() __builtin_va_arg_pack_len ()\n                             ^\nfatal error: too many errors emitted, stopping now [-ferror-limit=]\n20 errors generated.\"><pre class=\"notranslate\"><code class=\"notranslate\">$ cat /etc/system-release\nFedora release 22 (Twenty Two)\n\n$ clang++ --version\nclang version 3.5.0 (tags/RELEASE_350/final)\nTarget: x86_64-redhat-linux-gnu\nThread model: posix\n\n$ ./autogen.sh\n$ ./configure --without-gui --disable-wallet CC=clang CXX=clang++\n$ make\n...\nIn file included from banman.cpp:8:\nIn file included from ./netaddress.h:12:\nIn file included from ./compat.h:32:\nIn file included from /usr/include/fcntl.h:302:\n/usr/include/bits/fcntl2.h:80:39: error: use of undeclared identifier '__builtin_va_arg_pack_len'\n      if ((__oflag &amp; O_CREAT) != 0 &amp;&amp; __va_arg_pack_len () &lt; 1)\n                                      ^\n/usr/include/sys/cdefs.h:350:30: note: expanded from macro '__va_arg_pack_len'\n# define __va_arg_pack_len() __builtin_va_arg_pack_len ()\n                             ^\nfatal error: too many errors emitted, stopping now [-ferror-limit=]\n20 errors generated.\n</code></pre></div>",
    "body_text": "@MarcoFalke\n\nThis simply adds a member function and doesn't need to bump the minimum compiler version.\n\nAgree to postpone the minimum compiler version bumping until C++17.\nIn any case, Clang just ignores unknown annotations.\nFWIW, I've made some retro tests:\n\nClang 3.3\n\n$ cat /etc/system-release\nFedora release 20 (Heisenbug)\n\n$ clang++ --version\nclang version 3.3 (tags/RELEASE_33/rc3)\nTarget: x86_64-redhat-linux-gnu\nThread model: posix\n\n$ ./autogen.sh\n$ ./configure --without-gui --disable-wallet CC=clang CXX=clang++\n$ make\n...\nIn file included from crypto/sha256.cpp:11:\n./compat/cpuid.h:17:5: error: use of undeclared identifier '__cpuid_count'\n    __cpuid_count(leaf, subleaf, a, b, c, d);\n    ^\n1 error generated.\n\nIn file included from init.cpp:35:\nIn file included from ./policy/policy.h:12:\nIn file included from ./script/standard.h:12:\nIn file included from /usr/include/boost/variant.hpp:17:\n/usr/include/boost/variant/variant.hpp:1751:9: error: call to member function 'convert_construct' is ambiguous\n        convert_construct( detail::variant::move(operand), 1L);\n        ^~~~~~~~~~~~~~~~~\n1 error generated.\n\n\nClang 3.5\n\n$ cat /etc/system-release\nFedora release 22 (Twenty Two)\n\n$ clang++ --version\nclang version 3.5.0 (tags/RELEASE_350/final)\nTarget: x86_64-redhat-linux-gnu\nThread model: posix\n\n$ ./autogen.sh\n$ ./configure --without-gui --disable-wallet CC=clang CXX=clang++\n$ make\n...\nIn file included from banman.cpp:8:\nIn file included from ./netaddress.h:12:\nIn file included from ./compat.h:32:\nIn file included from /usr/include/fcntl.h:302:\n/usr/include/bits/fcntl2.h:80:39: error: use of undeclared identifier '__builtin_va_arg_pack_len'\n      if ((__oflag & O_CREAT) != 0 && __va_arg_pack_len () < 1)\n                                      ^\n/usr/include/sys/cdefs.h:350:30: note: expanded from macro '__va_arg_pack_len'\n# define __va_arg_pack_len() __builtin_va_arg_pack_len ()\n                             ^\nfatal error: too many errors emitted, stopping now [-ferror-limit=]\n20 errors generated.",
    "body": "@MarcoFalke \r\n> This simply adds a member function and doesn't need to bump the minimum compiler version.\r\n\r\nAgree to postpone the minimum compiler version bumping until C++17.\r\n\r\nIn any case, Clang just ignores unknown annotations.\r\n\r\nFWIW, I've made some retro tests:\r\n\r\n- Clang 3.3\r\n```\r\n$ cat /etc/system-release\r\nFedora release 20 (Heisenbug)\r\n\r\n$ clang++ --version\r\nclang version 3.3 (tags/RELEASE_33/rc3)\r\nTarget: x86_64-redhat-linux-gnu\r\nThread model: posix\r\n\r\n$ ./autogen.sh\r\n$ ./configure --without-gui --disable-wallet CC=clang CXX=clang++\r\n$ make\r\n...\r\nIn file included from crypto/sha256.cpp:11:\r\n./compat/cpuid.h:17:5: error: use of undeclared identifier '__cpuid_count'\r\n    __cpuid_count(leaf, subleaf, a, b, c, d);\r\n    ^\r\n1 error generated.\r\n\r\nIn file included from init.cpp:35:\r\nIn file included from ./policy/policy.h:12:\r\nIn file included from ./script/standard.h:12:\r\nIn file included from /usr/include/boost/variant.hpp:17:\r\n/usr/include/boost/variant/variant.hpp:1751:9: error: call to member function 'convert_construct' is ambiguous\r\n        convert_construct( detail::variant::move(operand), 1L);\r\n        ^~~~~~~~~~~~~~~~~\r\n1 error generated.\r\n```\r\n\r\n- Clang 3.5\r\n```\r\n$ cat /etc/system-release\r\nFedora release 22 (Twenty Two)\r\n\r\n$ clang++ --version\r\nclang version 3.5.0 (tags/RELEASE_350/final)\r\nTarget: x86_64-redhat-linux-gnu\r\nThread model: posix\r\n\r\n$ ./autogen.sh\r\n$ ./configure --without-gui --disable-wallet CC=clang CXX=clang++\r\n$ make\r\n...\r\nIn file included from banman.cpp:8:\r\nIn file included from ./netaddress.h:12:\r\nIn file included from ./compat.h:32:\r\nIn file included from /usr/include/fcntl.h:302:\r\n/usr/include/bits/fcntl2.h:80:39: error: use of undeclared identifier '__builtin_va_arg_pack_len'\r\n      if ((__oflag & O_CREAT) != 0 && __va_arg_pack_len () < 1)\r\n                                      ^\r\n/usr/include/sys/cdefs.h:350:30: note: expanded from macro '__va_arg_pack_len'\r\n# define __va_arg_pack_len() __builtin_va_arg_pack_len ()\r\n                             ^\r\nfatal error: too many errors emitted, stopping now [-ferror-limit=]\r\n20 errors generated.\r\n```",
    "reactions": {
      "url": "https://api.github.com/repos/bitcoin/bitcoin/issues/comments/643358163/reactions",
      "total_count": 0,
      "+1": 0,
      "-1": 0,
      "laugh": 0,
      "hooray": 0,
      "confused": 0,
      "heart": 0,
      "rocket": 0,
      "eyes": 0
    },
    "performed_via_github_app": null
  },
  {
    "url": "https://api.github.com/repos/bitcoin/bitcoin/issues/comments/643726686",
    "html_url": "https://github.com/bitcoin/bitcoin/pull/19249#issuecomment-643726686",
    "issue_url": "https://api.github.com/repos/bitcoin/bitcoin/issues/19249",
    "id": 643726686,
    "node_id": "MDEyOklzc3VlQ29tbWVudDY0MzcyNjY4Ng==",
    "user": {
      "login": "hebasto",
      "id": 32963518,
      "node_id": "MDQ6VXNlcjMyOTYzNTE4",
      "avatar_url": "https://avatars.githubusercontent.com/u/32963518?v=4",
      "gravatar_id": "",
      "url": "https://api.github.com/users/hebasto",
      "html_url": "https://github.com/hebasto",
      "followers_url": "https://api.github.com/users/hebasto/followers",
      "following_url": "https://api.github.com/users/hebasto/following{/other_user}",
      "gists_url": "https://api.github.com/users/hebasto/gists{/gist_id}",
      "starred_url": "https://api.github.com/users/hebasto/starred{/owner}{/repo}",
      "subscriptions_url": "https://api.github.com/users/hebasto/subscriptions",
      "organizations_url": "https://api.github.com/users/hebasto/orgs",
      "repos_url": "https://api.github.com/users/hebasto/repos",
      "events_url": "https://api.github.com/users/hebasto/events{/privacy}",
      "received_events_url": "https://api.github.com/users/hebasto/received_events",
      "type": "User",
      "site_admin": false
    },
    "created_at": "2020-06-14T06:47:03Z",
    "updated_at": "2020-06-14T06:47:03Z",
    "author_association": "MEMBER",
    "body_html": "<p dir=\"auto\"><a class=\"user-mention notranslate\" data-hovercard-type=\"user\" data-hovercard-url=\"/users/ajtowns/hovercard\" data-octo-click=\"hovercard-link-click\" data-octo-dimensions=\"link_type:self\" href=\"https://github.com/ajtowns\">@ajtowns</a></p>\n<blockquote>\n<p dir=\"auto\">Based on the <a href=\"https://static.googleusercontent.com/media/research.google.com/en//pubs/archive/42958.pdf\" rel=\"nofollow\">google paper</a> I think the what's happening is \"The analyzer assumes that it holds a negative capability for any object that is not defined within the current lexical scope\" -- so for mutexes that are private class members, it should be fine, I think; and also for module-specific globals. But I think it will not work right for cross-file globals like cs_main?</p>\n</blockquote>\n<p dir=\"auto\">Agree with you.</p>",
    "body_text": "@ajtowns\n\nBased on the google paper I think the what's happening is \"The analyzer assumes that it holds a negative capability for any object that is not defined within the current lexical scope\" -- so for mutexes that are private class members, it should be fine, I think; and also for module-specific globals. But I think it will not work right for cross-file globals like cs_main?\n\nAgree with you.",
    "body": "@ajtowns \r\n> Based on the [google paper](https://static.googleusercontent.com/media/research.google.com/en//pubs/archive/42958.pdf) I think the what's happening is \"The analyzer assumes that it holds a negative capability for any object that is not defined within the current lexical scope\" -- so for mutexes that are private class members, it should be fine, I think; and also for module-specific globals. But I think it will not work right for cross-file globals like cs_main?\r\n\r\nAgree with you.",
    "reactions": {
      "url": "https://api.github.com/repos/bitcoin/bitcoin/issues/comments/643726686/reactions",
      "total_count": 0,
      "+1": 0,
      "-1": 0,
      "laugh": 0,
      "hooray": 0,
      "confused": 0,
      "heart": 0,
      "rocket": 0,
      "eyes": 0
    },
    "performed_via_github_app": null
  },
  {
    "url": "https://api.github.com/repos/bitcoin/bitcoin/issues/comments/644223945",
    "html_url": "https://github.com/bitcoin/bitcoin/pull/19249#issuecomment-644223945",
    "issue_url": "https://api.github.com/repos/bitcoin/bitcoin/issues/19249",
    "id": 644223945,
    "node_id": "MDEyOklzc3VlQ29tbWVudDY0NDIyMzk0NQ==",
    "user": {
      "login": "vasild",
      "id": 266751,
      "node_id": "MDQ6VXNlcjI2Njc1MQ==",
      "avatar_url": "https://avatars.githubusercontent.com/u/266751?v=4",
      "gravatar_id": "",
      "url": "https://api.github.com/users/vasild",
      "html_url": "https://github.com/vasild",
      "followers_url": "https://api.github.com/users/vasild/followers",
      "following_url": "https://api.github.com/users/vasild/following{/other_user}",
      "gists_url": "https://api.github.com/users/vasild/gists{/gist_id}",
      "starred_url": "https://api.github.com/users/vasild/starred{/owner}{/repo}",
      "subscriptions_url": "https://api.github.com/users/vasild/subscriptions",
      "organizations_url": "https://api.github.com/users/vasild/orgs",
      "repos_url": "https://api.github.com/users/vasild/repos",
      "events_url": "https://api.github.com/users/vasild/events{/privacy}",
      "received_events_url": "https://api.github.com/users/vasild/received_events",
      "type": "User",
      "site_admin": false
    },
    "created_at": "2020-06-15T16:02:11Z",
    "updated_at": "2020-06-15T16:02:11Z",
    "author_association": "CONTRIBUTOR",
    "body_html": "<p dir=\"auto\">Currently all thread-safety macros map to attributes with identical names:</p>\n<div class=\"highlight highlight-source-c++ notranslate position-relative overflow-auto\" dir=\"auto\" data-snippet-clipboard-copy-content=\"#define FOO() __attribute__((foo))\"><pre class=\"notranslate\">#<span class=\"pl-k\">define</span> <span class=\"pl-en\">FOO</span>() __attribute__((foo))</pre></div>\n<p dir=\"auto\">That is good because somebody who is familiar with the clang attributes, but not with bitcoin core specifics does not have to look up what a macro does in <code class=\"notranslate\">src/threadsafety.h</code>. So, maybe refrain from adding <code class=\"notranslate\">EXCLUSIVE_LOCKS_FORBIDDEN()</code>. Also, the current <code class=\"notranslate\">EXCLUSIVE_LOCKS_REQUIRED()</code> allows to list more than one mutex: <code class=\"notranslate\">EXCLUSIVE_LOCKS_REQUIRED(m1, !m2, m3)</code>, whereas the mentioned <code class=\"notranslate\">EXCLUSIVE_LOCKS_FORBIDDEN()</code> would break in a strange way if passed something like <code class=\"notranslate\">m1, !m2</code>.</p>",
    "body_text": "Currently all thread-safety macros map to attributes with identical names:\n#define FOO() __attribute__((foo))\nThat is good because somebody who is familiar with the clang attributes, but not with bitcoin core specifics does not have to look up what a macro does in src/threadsafety.h. So, maybe refrain from adding EXCLUSIVE_LOCKS_FORBIDDEN(). Also, the current EXCLUSIVE_LOCKS_REQUIRED() allows to list more than one mutex: EXCLUSIVE_LOCKS_REQUIRED(m1, !m2, m3), whereas the mentioned EXCLUSIVE_LOCKS_FORBIDDEN() would break in a strange way if passed something like m1, !m2.",
    "body": "Currently all thread-safety macros map to attributes with identical names:\r\n```cpp\r\n#define FOO() __attribute__((foo))\r\n```\r\nThat is good because somebody who is familiar with the clang attributes, but not with bitcoin core specifics does not have to look up what a macro does in `src/threadsafety.h`. So, maybe refrain from adding `EXCLUSIVE_LOCKS_FORBIDDEN()`. Also, the current `EXCLUSIVE_LOCKS_REQUIRED()` allows to list more than one mutex: `EXCLUSIVE_LOCKS_REQUIRED(m1, !m2, m3)`, whereas the mentioned `EXCLUSIVE_LOCKS_FORBIDDEN()` would break in a strange way if passed something like `m1, !m2`.",
    "reactions": {
      "url": "https://api.github.com/repos/bitcoin/bitcoin/issues/comments/644223945/reactions",
      "total_count": 1,
      "+1": 1,
      "-1": 0,
      "laugh": 0,
      "hooray": 0,
      "confused": 0,
      "heart": 0,
      "rocket": 0,
      "eyes": 0
    },
    "performed_via_github_app": null
  },
  {
    "url": "https://api.github.com/repos/bitcoin/bitcoin/issues/comments/644451034",
    "html_url": "https://github.com/bitcoin/bitcoin/pull/19249#issuecomment-644451034",
    "issue_url": "https://api.github.com/repos/bitcoin/bitcoin/issues/19249",
    "id": 644451034,
    "node_id": "MDEyOklzc3VlQ29tbWVudDY0NDQ1MTAzNA==",
    "user": {
      "login": "maflcko",
      "id": 6399679,
      "node_id": "MDQ6VXNlcjYzOTk2Nzk=",
      "avatar_url": "https://avatars.githubusercontent.com/u/6399679?v=4",
      "gravatar_id": "",
      "url": "https://api.github.com/users/maflcko",
      "html_url": "https://github.com/maflcko",
      "followers_url": "https://api.github.com/users/maflcko/followers",
      "following_url": "https://api.github.com/users/maflcko/following{/other_user}",
      "gists_url": "https://api.github.com/users/maflcko/gists{/gist_id}",
      "starred_url": "https://api.github.com/users/maflcko/starred{/owner}{/repo}",
      "subscriptions_url": "https://api.github.com/users/maflcko/subscriptions",
      "organizations_url": "https://api.github.com/users/maflcko/orgs",
      "repos_url": "https://api.github.com/users/maflcko/repos",
      "events_url": "https://api.github.com/users/maflcko/events{/privacy}",
      "received_events_url": "https://api.github.com/users/maflcko/received_events",
      "type": "User",
      "site_admin": false
    },
    "created_at": "2020-06-15T23:58:36Z",
    "updated_at": "2020-06-15T23:58:36Z",
    "author_association": "MEMBER",
    "body_html": "<p dir=\"auto\">This looks like an uncontroversial addition of a member function with no risk of breaking anything, so I am planning to merge this in the coming days. To ask more c++ experienced people, <a class=\"user-mention notranslate\" data-hovercard-type=\"user\" data-hovercard-url=\"/users/ryanofsky/hovercard\" data-octo-click=\"hovercard-link-click\" data-octo-dimensions=\"link_type:self\" href=\"https://github.com/ryanofsky\">@ryanofsky</a> do you think this could break anything?</p>",
    "body_text": "This looks like an uncontroversial addition of a member function with no risk of breaking anything, so I am planning to merge this in the coming days. To ask more c++ experienced people, @ryanofsky do you think this could break anything?",
    "body": "This looks like an uncontroversial addition of a member function with no risk of breaking anything, so I am planning to merge this in the coming days. To ask more c++ experienced people, @ryanofsky do you think this could break anything?",
    "reactions": {
      "url": "https://api.github.com/repos/bitcoin/bitcoin/issues/comments/644451034/reactions",
      "total_count": 0,
      "+1": 0,
      "-1": 0,
      "laugh": 0,
      "hooray": 0,
      "confused": 0,
      "heart": 0,
      "rocket": 0,
      "eyes": 0
    },
    "performed_via_github_app": null
  }
]
