{
  "url": "https://api.github.com/repos/bitcoin/bitcoin/issues/13274",
  "repository_url": "https://api.github.com/repos/bitcoin/bitcoin",
  "labels_url": "https://api.github.com/repos/bitcoin/bitcoin/issues/13274/labels{/name}",
  "comments_url": "https://api.github.com/repos/bitcoin/bitcoin/issues/13274/comments",
  "events_url": "https://api.github.com/repos/bitcoin/bitcoin/issues/13274/events",
  "html_url": "https://github.com/bitcoin/bitcoin/issues/13274",
  "id": 324382950,
  "node_id": "MDU6SXNzdWUzMjQzODI5NTA=",
  "number": 13274,
  "title": "getblocktemplate fails in regtest mode even when it is connected to the other node",
  "user": {
    "login": "nirajkr",
    "id": 6111688,
    "node_id": "MDQ6VXNlcjYxMTE2ODg=",
    "avatar_url": "https://avatars.githubusercontent.com/u/6111688?v=4",
    "gravatar_id": "",
    "url": "https://api.github.com/users/nirajkr",
    "html_url": "https://github.com/nirajkr",
    "followers_url": "https://api.github.com/users/nirajkr/followers",
    "following_url": "https://api.github.com/users/nirajkr/following{/other_user}",
    "gists_url": "https://api.github.com/users/nirajkr/gists{/gist_id}",
    "starred_url": "https://api.github.com/users/nirajkr/starred{/owner}{/repo}",
    "subscriptions_url": "https://api.github.com/users/nirajkr/subscriptions",
    "organizations_url": "https://api.github.com/users/nirajkr/orgs",
    "repos_url": "https://api.github.com/users/nirajkr/repos",
    "events_url": "https://api.github.com/users/nirajkr/events{/privacy}",
    "received_events_url": "https://api.github.com/users/nirajkr/received_events",
    "type": "User",
    "site_admin": false
  },
  "labels": [

  ],
  "state": "closed",
  "locked": true,
  "assignee": null,
  "assignees": [

  ],
  "milestone": null,
  "comments": 2,
  "created_at": "2018-05-18T12:00:47Z",
  "updated_at": "2021-12-16T14:58:41Z",
  "closed_at": "2018-05-18T18:27:25Z",
  "author_association": "NONE",
  "active_lock_reason": "resolved",
  "body_html": "<p dir=\"auto\">I have created two nodes and connected the 1st node with the 2nd node in regtest mode . Now when I make the getblocktemplate command using bitcoin-cli . It fails with bitcoin is downloading the block.</p>\n<p dir=\"auto\">Bitcoin core vs v0.16</p>\n<p dir=\"auto\"><em>admin1@root:~/Projects/bitcoin$ ./src/bitcoin-cli -regtest -port=8333 -rpcport=8332 -rpcuser=test -rpcpassword=test getconnectioncount</em><br>\n<strong>1</strong><br>\n<em>admin1@root:~/Projects/bitcoin$ ./src/bitcoin-cli -regtest -port=8333 -rpcport=8332 -rpcuser=test -rpcpassword=test getblocktemplate</em><br>\n<strong>error code: -10<br>\nerror message:<br>\nBitcoin is downloading blocks.</strong></p>",
  "body_text": "I have created two nodes and connected the 1st node with the 2nd node in regtest mode . Now when I make the getblocktemplate command using bitcoin-cli . It fails with bitcoin is downloading the block.\nBitcoin core vs v0.16\nadmin1@root:~/Projects/bitcoin$ ./src/bitcoin-cli -regtest -port=8333 -rpcport=8332 -rpcuser=test -rpcpassword=test getconnectioncount\n1\nadmin1@root:~/Projects/bitcoin$ ./src/bitcoin-cli -regtest -port=8333 -rpcport=8332 -rpcuser=test -rpcpassword=test getblocktemplate\nerror code: -10\nerror message:\nBitcoin is downloading blocks.",
  "body": "I have created two nodes and connected the 1st node with the 2nd node in regtest mode . Now when I make the getblocktemplate command using bitcoin-cli . It fails with bitcoin is downloading the block.\r\n \r\nBitcoin core vs v0.16\r\n\r\n_admin1@root:~/Projects/bitcoin$ ./src/bitcoin-cli -regtest -port=8333 -rpcport=8332 -rpcuser=test -rpcpassword=test getconnectioncount_\r\n**1**\r\n_admin1@root:~/Projects/bitcoin$ ./src/bitcoin-cli -regtest -port=8333 -rpcport=8332 -rpcuser=test -rpcpassword=test getblocktemplate_\r\n**error code: -10\r\nerror message:\r\nBitcoin is downloading blocks.**",
  "closed_by": {
    "login": "maflcko",
    "id": 6399679,
    "node_id": "MDQ6VXNlcjYzOTk2Nzk=",
    "avatar_url": "https://avatars.githubusercontent.com/u/6399679?v=4",
    "gravatar_id": "",
    "url": "https://api.github.com/users/maflcko",
    "html_url": "https://github.com/maflcko",
    "followers_url": "https://api.github.com/users/maflcko/followers",
    "following_url": "https://api.github.com/users/maflcko/following{/other_user}",
    "gists_url": "https://api.github.com/users/maflcko/gists{/gist_id}",
    "starred_url": "https://api.github.com/users/maflcko/starred{/owner}{/repo}",
    "subscriptions_url": "https://api.github.com/users/maflcko/subscriptions",
    "organizations_url": "https://api.github.com/users/maflcko/orgs",
    "repos_url": "https://api.github.com/users/maflcko/repos",
    "events_url": "https://api.github.com/users/maflcko/events{/privacy}",
    "received_events_url": "https://api.github.com/users/maflcko/received_events",
    "type": "User",
    "site_admin": false
  },
  "reactions": {
    "url": "https://api.github.com/repos/bitcoin/bitcoin/issues/13274/reactions",
    "total_count": 0,
    "+1": 0,
    "-1": 0,
    "laugh": 0,
    "hooray": 0,
    "confused": 0,
    "heart": 0,
    "rocket": 0,
    "eyes": 0
  },
  "timeline_url": "https://api.github.com/repos/bitcoin/bitcoin/issues/13274/timeline",
  "performed_via_github_app": null,
  "state_reason": "completed"
}
