[
  {
    "url": "https://api.github.com/repos/bitcoin/bitcoin/issues/comments/21471999",
    "html_url": "https://github.com/bitcoin/bitcoin/pull/2855#issuecomment-21471999",
    "issue_url": "https://api.github.com/repos/bitcoin/bitcoin/issues/2855",
    "id": 21471999,
    "node_id": "MDEyOklzc3VlQ29tbWVudDIxNDcxOTk5",
    "user": {
      "login": "BitcoinPullTester",
      "id": 2110907,
      "node_id": "MDQ6VXNlcjIxMTA5MDc=",
      "avatar_url": "https://avatars.githubusercontent.com/u/2110907?v=4",
      "gravatar_id": "",
      "url": "https://api.github.com/users/BitcoinPullTester",
      "html_url": "https://github.com/BitcoinPullTester",
      "followers_url": "https://api.github.com/users/BitcoinPullTester/followers",
      "following_url": "https://api.github.com/users/BitcoinPullTester/following{/other_user}",
      "gists_url": "https://api.github.com/users/BitcoinPullTester/gists{/gist_id}",
      "starred_url": "https://api.github.com/users/BitcoinPullTester/starred{/owner}{/repo}",
      "subscriptions_url": "https://api.github.com/users/BitcoinPullTester/subscriptions",
      "organizations_url": "https://api.github.com/users/BitcoinPullTester/orgs",
      "repos_url": "https://api.github.com/users/BitcoinPullTester/repos",
      "events_url": "https://api.github.com/users/BitcoinPullTester/events{/privacy}",
      "received_events_url": "https://api.github.com/users/BitcoinPullTester/received_events",
      "type": "User",
      "site_admin": false
    },
    "created_at": "2013-07-24T09:00:08Z",
    "updated_at": "2013-07-24T09:00:08Z",
    "author_association": "NONE",
    "body_html": "<p dir=\"auto\">Automatic sanity-testing: PASSED, see <a href=\"http://jenkins.bluematt.me/pull-tester/a034c7ebb6995c342fea289d04a6198d793eab08\" rel=\"nofollow\">http://jenkins.bluematt.me/pull-tester/a034c7ebb6995c342fea289d04a6198d793eab08</a> for binaries and test log.<br>\nThis test script verifies pulls every time they are updated. It, however, dies sometimes and fails to test properly.  If you are waiting on a test, please check timestamps to verify that the test.log is moving at <a href=\"http://jenkins.bluematt.me/pull-tester/current/\" rel=\"nofollow\">http://jenkins.bluematt.me/pull-tester/current/</a><br>\nContact BlueMatt on freenode if something looks broken.</p>",
    "body_text": "Automatic sanity-testing: PASSED, see http://jenkins.bluematt.me/pull-tester/a034c7ebb6995c342fea289d04a6198d793eab08 for binaries and test log.\nThis test script verifies pulls every time they are updated. It, however, dies sometimes and fails to test properly.  If you are waiting on a test, please check timestamps to verify that the test.log is moving at http://jenkins.bluematt.me/pull-tester/current/\nContact BlueMatt on freenode if something looks broken.",
    "body": "Automatic sanity-testing: PASSED, see http://jenkins.bluematt.me/pull-tester/a034c7ebb6995c342fea289d04a6198d793eab08 for binaries and test log.\nThis test script verifies pulls every time they are updated. It, however, dies sometimes and fails to test properly.  If you are waiting on a test, please check timestamps to verify that the test.log is moving at http://jenkins.bluematt.me/pull-tester/current/\nContact BlueMatt on freenode if something looks broken.\n",
    "reactions": {
      "url": "https://api.github.com/repos/bitcoin/bitcoin/issues/comments/21471999/reactions",
      "total_count": 0,
      "+1": 0,
      "-1": 0,
      "laugh": 0,
      "hooray": 0,
      "confused": 0,
      "heart": 0,
      "rocket": 0,
      "eyes": 0
    },
    "performed_via_github_app": null
  },
  {
    "url": "https://api.github.com/repos/bitcoin/bitcoin/issues/comments/21482011",
    "html_url": "https://github.com/bitcoin/bitcoin/pull/2855#issuecomment-21482011",
    "issue_url": "https://api.github.com/repos/bitcoin/bitcoin/issues/2855",
    "id": 21482011,
    "node_id": "MDEyOklzc3VlQ29tbWVudDIxNDgyMDEx",
    "user": {
      "login": "Diapolo",
      "id": 1419649,
      "node_id": "MDQ6VXNlcjE0MTk2NDk=",
      "avatar_url": "https://avatars.githubusercontent.com/u/1419649?v=4",
      "gravatar_id": "",
      "url": "https://api.github.com/users/Diapolo",
      "html_url": "https://github.com/Diapolo",
      "followers_url": "https://api.github.com/users/Diapolo/followers",
      "following_url": "https://api.github.com/users/Diapolo/following{/other_user}",
      "gists_url": "https://api.github.com/users/Diapolo/gists{/gist_id}",
      "starred_url": "https://api.github.com/users/Diapolo/starred{/owner}{/repo}",
      "subscriptions_url": "https://api.github.com/users/Diapolo/subscriptions",
      "organizations_url": "https://api.github.com/users/Diapolo/orgs",
      "repos_url": "https://api.github.com/users/Diapolo/repos",
      "events_url": "https://api.github.com/users/Diapolo/events{/privacy}",
      "received_events_url": "https://api.github.com/users/Diapolo/received_events",
      "type": "User",
      "site_admin": false
    },
    "created_at": "2013-07-24T12:48:01Z",
    "updated_at": "2013-07-24T12:49:22Z",
    "author_association": "NONE",
    "body_html": "<p dir=\"auto\">This should fix problems some people with mingw-64 compilers have.</p>\n<pre class=\"notranslate\">In file included from alert.h:13:0,\n                 from alert.cpp:11:\nutil.h:211:57: error: 'pid_t' has not been declared\n void CreatePidFile(const boost::filesystem::path &amp;path, pid_t pid);\n</pre>\n<p dir=\"auto\">I know error and fix seem not to match, but as we don't ever user CreatePidFile() on Windows it seems cleaner to avoid compilation of that function as to define pid_t for Windows.</p>",
    "body_text": "This should fix problems some people with mingw-64 compilers have.\nIn file included from alert.h:13:0,\n                 from alert.cpp:11:\nutil.h:211:57: error: 'pid_t' has not been declared\n void CreatePidFile(const boost::filesystem::path &path, pid_t pid);\n\nI know error and fix seem not to match, but as we don't ever user CreatePidFile() on Windows it seems cleaner to avoid compilation of that function as to define pid_t for Windows.",
    "body": "This should fix problems some people with mingw-64 compilers have.\n\n<pre>\nIn file included from alert.h:13:0,\n                 from alert.cpp:11:\nutil.h:211:57: error: 'pid_t' has not been declared\n void CreatePidFile(const boost::filesystem::path &path, pid_t pid);\n</pre>\n\nI know error and fix seem not to match, but as we don't ever user CreatePidFile() on Windows it seems cleaner to avoid compilation of that function as to define pid_t for Windows.\n",
    "reactions": {
      "url": "https://api.github.com/repos/bitcoin/bitcoin/issues/comments/21482011/reactions",
      "total_count": 0,
      "+1": 0,
      "-1": 0,
      "laugh": 0,
      "hooray": 0,
      "confused": 0,
      "heart": 0,
      "rocket": 0,
      "eyes": 0
    },
    "performed_via_github_app": null
  },
  {
    "url": "https://api.github.com/repos/bitcoin/bitcoin/issues/comments/21482051",
    "html_url": "https://github.com/bitcoin/bitcoin/pull/2855#issuecomment-21482051",
    "issue_url": "https://api.github.com/repos/bitcoin/bitcoin/issues/2855",
    "id": 21482051,
    "node_id": "MDEyOklzc3VlQ29tbWVudDIxNDgyMDUx",
    "user": {
      "login": "sipa",
      "id": 548488,
      "node_id": "MDQ6VXNlcjU0ODQ4OA==",
      "avatar_url": "https://avatars.githubusercontent.com/u/548488?v=4",
      "gravatar_id": "",
      "url": "https://api.github.com/users/sipa",
      "html_url": "https://github.com/sipa",
      "followers_url": "https://api.github.com/users/sipa/followers",
      "following_url": "https://api.github.com/users/sipa/following{/other_user}",
      "gists_url": "https://api.github.com/users/sipa/gists{/gist_id}",
      "starred_url": "https://api.github.com/users/sipa/starred{/owner}{/repo}",
      "subscriptions_url": "https://api.github.com/users/sipa/subscriptions",
      "organizations_url": "https://api.github.com/users/sipa/orgs",
      "repos_url": "https://api.github.com/users/sipa/repos",
      "events_url": "https://api.github.com/users/sipa/events{/privacy}",
      "received_events_url": "https://api.github.com/users/sipa/received_events",
      "type": "User",
      "site_admin": false
    },
    "created_at": "2013-07-24T12:48:48Z",
    "updated_at": "2013-07-24T12:48:48Z",
    "author_association": "MEMBER",
    "body_html": "<p dir=\"auto\">ACK</p>",
    "body_text": "ACK",
    "body": "ACK\n",
    "reactions": {
      "url": "https://api.github.com/repos/bitcoin/bitcoin/issues/comments/21482051/reactions",
      "total_count": 0,
      "+1": 0,
      "-1": 0,
      "laugh": 0,
      "hooray": 0,
      "confused": 0,
      "heart": 0,
      "rocket": 0,
      "eyes": 0
    },
    "performed_via_github_app": null
  }
]
