[
  {
    "url": "https://api.github.com/repos/bitcoin/bitcoin/issues/comments/902745978",
    "html_url": "https://github.com/bitcoin/bitcoin/issues/22756#issuecomment-902745978",
    "issue_url": "https://api.github.com/repos/bitcoin/bitcoin/issues/22756",
    "id": 902745978,
    "node_id": "IC_kwDOABII5841zs96",
    "user": {
      "login": "maflcko",
      "id": 6399679,
      "node_id": "MDQ6VXNlcjYzOTk2Nzk=",
      "avatar_url": "https://avatars.githubusercontent.com/u/6399679?v=4",
      "gravatar_id": "",
      "url": "https://api.github.com/users/maflcko",
      "html_url": "https://github.com/maflcko",
      "followers_url": "https://api.github.com/users/maflcko/followers",
      "following_url": "https://api.github.com/users/maflcko/following{/other_user}",
      "gists_url": "https://api.github.com/users/maflcko/gists{/gist_id}",
      "starred_url": "https://api.github.com/users/maflcko/starred{/owner}{/repo}",
      "subscriptions_url": "https://api.github.com/users/maflcko/subscriptions",
      "organizations_url": "https://api.github.com/users/maflcko/orgs",
      "repos_url": "https://api.github.com/users/maflcko/repos",
      "events_url": "https://api.github.com/users/maflcko/events{/privacy}",
      "received_events_url": "https://api.github.com/users/maflcko/received_events",
      "type": "User",
      "site_admin": false
    },
    "created_at": "2021-08-20T14:46:24Z",
    "updated_at": "2021-08-20T14:46:24Z",
    "author_association": "MEMBER",
    "body_html": "<p dir=\"auto\">100 BTC/kvB seems high</p>",
    "body_text": "100 BTC/kvB seems high",
    "body": "100 BTC/kvB seems high",
    "reactions": {
      "url": "https://api.github.com/repos/bitcoin/bitcoin/issues/comments/902745978/reactions",
      "total_count": 0,
      "+1": 0,
      "-1": 0,
      "laugh": 0,
      "hooray": 0,
      "confused": 0,
      "heart": 0,
      "rocket": 0,
      "eyes": 0
    },
    "performed_via_github_app": null
  },
  {
    "url": "https://api.github.com/repos/bitcoin/bitcoin/issues/comments/903254531",
    "html_url": "https://github.com/bitcoin/bitcoin/issues/22756#issuecomment-903254531",
    "issue_url": "https://api.github.com/repos/bitcoin/bitcoin/issues/22756",
    "id": 903254531,
    "node_id": "IC_kwDOABII58411pID",
    "user": {
      "login": "rebroad",
      "id": 1530283,
      "node_id": "MDQ6VXNlcjE1MzAyODM=",
      "avatar_url": "https://avatars.githubusercontent.com/u/1530283?v=4",
      "gravatar_id": "",
      "url": "https://api.github.com/users/rebroad",
      "html_url": "https://github.com/rebroad",
      "followers_url": "https://api.github.com/users/rebroad/followers",
      "following_url": "https://api.github.com/users/rebroad/following{/other_user}",
      "gists_url": "https://api.github.com/users/rebroad/gists{/gist_id}",
      "starred_url": "https://api.github.com/users/rebroad/starred{/owner}{/repo}",
      "subscriptions_url": "https://api.github.com/users/rebroad/subscriptions",
      "organizations_url": "https://api.github.com/users/rebroad/orgs",
      "repos_url": "https://api.github.com/users/rebroad/repos",
      "events_url": "https://api.github.com/users/rebroad/events{/privacy}",
      "received_events_url": "https://api.github.com/users/rebroad/received_events",
      "type": "User",
      "site_admin": false
    },
    "created_at": "2021-08-22T11:32:19Z",
    "updated_at": "2021-08-22T11:32:19Z",
    "author_association": "CONTRIBUTOR",
    "body_html": "<blockquote>\n<p dir=\"auto\">100 BTC/kvB seems high</p>\n</blockquote>\n<p dir=\"auto\">but the default is 1000 - and this surely does not mean 1000 BTC/kvB</p>",
    "body_text": "100 BTC/kvB seems high\n\nbut the default is 1000 - and this surely does not mean 1000 BTC/kvB",
    "body": "> 100 BTC/kvB seems high\r\n\r\nbut the default is 1000 - and this surely does not mean 1000 BTC/kvB",
    "reactions": {
      "url": "https://api.github.com/repos/bitcoin/bitcoin/issues/comments/903254531/reactions",
      "total_count": 0,
      "+1": 0,
      "-1": 0,
      "laugh": 0,
      "hooray": 0,
      "confused": 0,
      "heart": 0,
      "rocket": 0,
      "eyes": 0
    },
    "performed_via_github_app": null
  },
  {
    "url": "https://api.github.com/repos/bitcoin/bitcoin/issues/comments/903258624",
    "html_url": "https://github.com/bitcoin/bitcoin/issues/22756#issuecomment-903258624",
    "issue_url": "https://api.github.com/repos/bitcoin/bitcoin/issues/22756",
    "id": 903258624,
    "node_id": "IC_kwDOABII58411qIA",
    "user": {
      "login": "ghost",
      "id": 10137,
      "node_id": "MDQ6VXNlcjEwMTM3",
      "avatar_url": "https://avatars.githubusercontent.com/u/10137?v=4",
      "gravatar_id": "",
      "url": "https://api.github.com/users/ghost",
      "html_url": "https://github.com/ghost",
      "followers_url": "https://api.github.com/users/ghost/followers",
      "following_url": "https://api.github.com/users/ghost/following{/other_user}",
      "gists_url": "https://api.github.com/users/ghost/gists{/gist_id}",
      "starred_url": "https://api.github.com/users/ghost/starred{/owner}{/repo}",
      "subscriptions_url": "https://api.github.com/users/ghost/subscriptions",
      "organizations_url": "https://api.github.com/users/ghost/orgs",
      "repos_url": "https://api.github.com/users/ghost/repos",
      "events_url": "https://api.github.com/users/ghost/events{/privacy}",
      "received_events_url": "https://api.github.com/users/ghost/received_events",
      "type": "User",
      "site_admin": false
    },
    "created_at": "2021-08-22T12:05:32Z",
    "updated_at": "2021-08-22T12:05:32Z",
    "author_association": "NONE",
    "body_html": "<p dir=\"auto\">default value for <code class=\"notranslate\">minrelaytxfee</code> is 0.00001</p>",
    "body_text": "default value for minrelaytxfee is 0.00001",
    "body": "default value for `minrelaytxfee` is 0.00001",
    "reactions": {
      "url": "https://api.github.com/repos/bitcoin/bitcoin/issues/comments/903258624/reactions",
      "total_count": 0,
      "+1": 0,
      "-1": 0,
      "laugh": 0,
      "hooray": 0,
      "confused": 0,
      "heart": 0,
      "rocket": 0,
      "eyes": 0
    },
    "performed_via_github_app": null
  },
  {
    "url": "https://api.github.com/repos/bitcoin/bitcoin/issues/comments/903261769",
    "html_url": "https://github.com/bitcoin/bitcoin/issues/22756#issuecomment-903261769",
    "issue_url": "https://api.github.com/repos/bitcoin/bitcoin/issues/22756",
    "id": 903261769,
    "node_id": "IC_kwDOABII58411q5J",
    "user": {
      "login": "ghost",
      "id": 10137,
      "node_id": "MDQ6VXNlcjEwMTM3",
      "avatar_url": "https://avatars.githubusercontent.com/u/10137?v=4",
      "gravatar_id": "",
      "url": "https://api.github.com/users/ghost",
      "html_url": "https://github.com/ghost",
      "followers_url": "https://api.github.com/users/ghost/followers",
      "following_url": "https://api.github.com/users/ghost/following{/other_user}",
      "gists_url": "https://api.github.com/users/ghost/gists{/gist_id}",
      "starred_url": "https://api.github.com/users/ghost/starred{/owner}{/repo}",
      "subscriptions_url": "https://api.github.com/users/ghost/subscriptions",
      "organizations_url": "https://api.github.com/users/ghost/orgs",
      "repos_url": "https://api.github.com/users/ghost/repos",
      "events_url": "https://api.github.com/users/ghost/events{/privacy}",
      "received_events_url": "https://api.github.com/users/ghost/received_events",
      "type": "User",
      "site_admin": false
    },
    "created_at": "2021-08-22T12:30:50Z",
    "updated_at": "2021-08-22T12:30:50Z",
    "author_association": "NONE",
    "body_html": "<div class=\"snippet-clipboard-content notranslate position-relative overflow-auto\" data-snippet-clipboard-copy-content=\"minrelaytxfee is FormatMoney(DEFAULT_MIN_RELAY_TX_FEE))\"><pre class=\"notranslate\"><code class=\"notranslate\">minrelaytxfee is FormatMoney(DEFAULT_MIN_RELAY_TX_FEE))\n</code></pre></div>\n<p dir=\"auto\"></p><div class=\"Box Box--condensed my-2\">\n  <div class=\"Box-header f6\">\n    <p class=\"mb-0 text-bold\">\n      <a href=\"https://github.com/bitcoin/bitcoin/blob/e9d6eb1b8071805cec1cc4e1352a13a7adc55ca8/src/init.cpp#L530\">bitcoin/src/init.cpp</a>\n    </p>\n    <p class=\"mb-0 color-fg-muted\">\n         Line 530\n      in\n      <a data-pjax=\"true\" class=\"commit-tease-sha Link--inTextBlock\" href=\"/bitcoin/bitcoin/commit/e9d6eb1b8071805cec1cc4e1352a13a7adc55ca8\">e9d6eb1</a>\n    </p>\n  </div>\n  <div itemprop=\"text\" class=\"Box-body p-0 blob-wrapper blob-wrapper-embedded data\">\n    <table class=\"highlight tab-size mb-0 js-file-line-container\" data-tab-size=\"8\" data-paste-markdown-skip=\"\">\n\n        <tbody><tr class=\"border-0\">\n          <td id=\"L530\" class=\"blob-num border-0 px-3 py-0 color-bg-default\" data-line-number=\"530\"></td>\n          <td id=\"LC530\" class=\"blob-code border-0 px-3 py-0 color-bg-default blob-code-inner js-file-line\"> argsman.<span class=\"pl-c1\">AddArg</span>(<span class=\"pl-s\"><span class=\"pl-pds\">\"</span>-minrelaytxfee=&lt;amt&gt;<span class=\"pl-pds\">\"</span></span>, <span class=\"pl-c1\">strprintf</span>(<span class=\"pl-s\"><span class=\"pl-pds\">\"</span>Fees (in %s/kvB) smaller than this are considered zero fee for relaying, mining and transaction creation (default: %s)<span class=\"pl-pds\">\"</span></span>, </td>\n        </tr>\n    </tbody></table>\n  </div>\n</div>\n<p></p>\n<div class=\"snippet-clipboard-content notranslate position-relative overflow-auto\" data-snippet-clipboard-copy-content=\"DEFAULT_MIN_RELAY_TX_FEE is 1000\"><pre class=\"notranslate\"><code class=\"notranslate\">DEFAULT_MIN_RELAY_TX_FEE is 1000\n</code></pre></div>\n<p dir=\"auto\"></p><div class=\"Box Box--condensed my-2\">\n  <div class=\"Box-header f6\">\n    <p class=\"mb-0 text-bold\">\n      <a href=\"https://github.com/bitcoin/bitcoin/blob/e9d6eb1b8071805cec1cc4e1352a13a7adc55ca8/src/validation.h#L63\">bitcoin/src/validation.h</a>\n    </p>\n    <p class=\"mb-0 color-fg-muted\">\n         Line 63\n      in\n      <a data-pjax=\"true\" class=\"commit-tease-sha Link--inTextBlock\" href=\"/bitcoin/bitcoin/commit/e9d6eb1b8071805cec1cc4e1352a13a7adc55ca8\">e9d6eb1</a>\n    </p>\n  </div>\n  <div itemprop=\"text\" class=\"Box-body p-0 blob-wrapper blob-wrapper-embedded data\">\n    <table class=\"highlight tab-size mb-0 js-file-line-container\" data-tab-size=\"8\" data-paste-markdown-skip=\"\">\n\n        <tbody><tr class=\"border-0\">\n          <td id=\"L63\" class=\"blob-num border-0 px-3 py-0 color-bg-default\" data-line-number=\"63\"></td>\n          <td id=\"LC63\" class=\"blob-code border-0 px-3 py-0 color-bg-default blob-code-inner js-file-line\"> <span class=\"pl-k\">static</span> <span class=\"pl-k\">const</span> <span class=\"pl-k\">unsigned</span> <span class=\"pl-k\">int</span> DEFAULT_MIN_RELAY_TX_FEE = <span class=\"pl-c1\">1000</span>; </td>\n        </tr>\n    </tbody></table>\n  </div>\n</div>\n<p></p>\n<div class=\"snippet-clipboard-content notranslate position-relative overflow-auto\" data-snippet-clipboard-copy-content=\"FormatMoney(1000) is 0.00001\"><pre class=\"notranslate\"><code class=\"notranslate\">FormatMoney(1000) is 0.00001\n</code></pre></div>\n<p dir=\"auto\"></p><div class=\"Box Box--condensed my-2\">\n  <div class=\"Box-header f6\">\n    <p class=\"mb-0 text-bold\">\n      <a href=\"https://github.com/bitcoin/bitcoin/blob/e9d6eb1b8071805cec1cc4e1352a13a7adc55ca8/src/util/moneystr.cpp#L12\">bitcoin/src/util/moneystr.cpp</a>\n    </p>\n    <p class=\"mb-0 color-fg-muted\">\n         Line 12\n      in\n      <a data-pjax=\"true\" class=\"commit-tease-sha Link--inTextBlock\" href=\"/bitcoin/bitcoin/commit/e9d6eb1b8071805cec1cc4e1352a13a7adc55ca8\">e9d6eb1</a>\n    </p>\n  </div>\n  <div itemprop=\"text\" class=\"Box-body p-0 blob-wrapper blob-wrapper-embedded data\">\n    <table class=\"highlight tab-size mb-0 js-file-line-container\" data-tab-size=\"8\" data-paste-markdown-skip=\"\">\n\n        <tbody><tr class=\"border-0\">\n          <td id=\"L12\" class=\"blob-num border-0 px-3 py-0 color-bg-default\" data-line-number=\"12\"></td>\n          <td id=\"LC12\" class=\"blob-code border-0 px-3 py-0 color-bg-default blob-code-inner js-file-line\"> std::string <span class=\"pl-en\">FormatMoney</span>(<span class=\"pl-k\">const</span> CAmount n) </td>\n        </tr>\n    </tbody></table>\n  </div>\n</div>\n<p></p>\n<div class=\"snippet-clipboard-content notranslate position-relative overflow-auto\" data-snippet-clipboard-copy-content=\"COIN = 100000000\n\nquotient = 0\nremainder = 1000\n\n%08d = 00001000\n%d = 0\n\nBefore trim = 0.00001000\n\nAfter trim = 0.00001\"><pre class=\"notranslate\"><code class=\"notranslate\">COIN = 100000000\n\nquotient = 0\nremainder = 1000\n\n%08d = 00001000\n%d = 0\n\nBefore trim = 0.00001000\n\nAfter trim = 0.00001\n</code></pre></div>",
    "body_text": "minrelaytxfee is FormatMoney(DEFAULT_MIN_RELAY_TX_FEE))\n\n\n  \n    \n      bitcoin/src/init.cpp\n    \n    \n         Line 530\n      in\n      e9d6eb1\n    \n  \n  \n    \n\n        \n          \n           argsman.AddArg(\"-minrelaytxfee=<amt>\", strprintf(\"Fees (in %s/kvB) smaller than this are considered zero fee for relaying, mining and transaction creation (default: %s)\", \n        \n    \n  \n\n\nDEFAULT_MIN_RELAY_TX_FEE is 1000\n\n\n  \n    \n      bitcoin/src/validation.h\n    \n    \n         Line 63\n      in\n      e9d6eb1\n    \n  \n  \n    \n\n        \n          \n           static const unsigned int DEFAULT_MIN_RELAY_TX_FEE = 1000; \n        \n    \n  \n\n\nFormatMoney(1000) is 0.00001\n\n\n  \n    \n      bitcoin/src/util/moneystr.cpp\n    \n    \n         Line 12\n      in\n      e9d6eb1\n    \n  \n  \n    \n\n        \n          \n           std::string FormatMoney(const CAmount n) \n        \n    \n  \n\n\nCOIN = 100000000\n\nquotient = 0\nremainder = 1000\n\n%08d = 00001000\n%d = 0\n\nBefore trim = 0.00001000\n\nAfter trim = 0.00001",
    "body": "```\r\nminrelaytxfee is FormatMoney(DEFAULT_MIN_RELAY_TX_FEE))\r\n```\r\n\r\nhttps://github.com/bitcoin/bitcoin/blob/e9d6eb1b8071805cec1cc4e1352a13a7adc55ca8/src/init.cpp#L530\r\n\r\n```\r\nDEFAULT_MIN_RELAY_TX_FEE is 1000\r\n```\r\n\r\nhttps://github.com/bitcoin/bitcoin/blob/e9d6eb1b8071805cec1cc4e1352a13a7adc55ca8/src/validation.h#L63\r\n\r\n```\r\nFormatMoney(1000) is 0.00001\r\n```\r\n\r\nhttps://github.com/bitcoin/bitcoin/blob/e9d6eb1b8071805cec1cc4e1352a13a7adc55ca8/src/util/moneystr.cpp#L12\r\n\r\n```\r\nCOIN = 100000000\r\n\r\nquotient = 0\r\nremainder = 1000\r\n\r\n%08d = 00001000\r\n%d = 0\r\n\r\nBefore trim = 0.00001000\r\n\r\nAfter trim = 0.00001\r\n```",
    "reactions": {
      "url": "https://api.github.com/repos/bitcoin/bitcoin/issues/comments/903261769/reactions",
      "total_count": 0,
      "+1": 0,
      "-1": 0,
      "laugh": 0,
      "hooray": 0,
      "confused": 0,
      "heart": 0,
      "rocket": 0,
      "eyes": 0
    },
    "performed_via_github_app": null
  },
  {
    "url": "https://api.github.com/repos/bitcoin/bitcoin/issues/comments/903265182",
    "html_url": "https://github.com/bitcoin/bitcoin/issues/22756#issuecomment-903265182",
    "issue_url": "https://api.github.com/repos/bitcoin/bitcoin/issues/22756",
    "id": 903265182,
    "node_id": "IC_kwDOABII58411rue",
    "user": {
      "login": "jonatack",
      "id": 2415484,
      "node_id": "MDQ6VXNlcjI0MTU0ODQ=",
      "avatar_url": "https://avatars.githubusercontent.com/u/2415484?v=4",
      "gravatar_id": "",
      "url": "https://api.github.com/users/jonatack",
      "html_url": "https://github.com/jonatack",
      "followers_url": "https://api.github.com/users/jonatack/followers",
      "following_url": "https://api.github.com/users/jonatack/following{/other_user}",
      "gists_url": "https://api.github.com/users/jonatack/gists{/gist_id}",
      "starred_url": "https://api.github.com/users/jonatack/starred{/owner}{/repo}",
      "subscriptions_url": "https://api.github.com/users/jonatack/subscriptions",
      "organizations_url": "https://api.github.com/users/jonatack/orgs",
      "repos_url": "https://api.github.com/users/jonatack/repos",
      "events_url": "https://api.github.com/users/jonatack/events{/privacy}",
      "received_events_url": "https://api.github.com/users/jonatack/received_events",
      "type": "User",
      "site_admin": false
    },
    "created_at": "2021-08-22T12:58:18Z",
    "updated_at": "2021-08-22T12:58:18Z",
    "author_association": "CONTRIBUTOR",
    "body_html": "<p dir=\"auto\">Right, the default is 0.0001 BTC/kvB</p>\n<div class=\"snippet-clipboard-content notranslate position-relative overflow-auto\" data-snippet-clipboard-copy-content=\"$ ./src/bitcoind -h | grep -A2 minrelay\n  -minrelaytxfee=&lt;amt&gt;\n       Fees (in BTC/kvB) smaller than this are considered zero fee for\n       relaying, mining and transaction creation (default: 0.00001)\"><pre class=\"notranslate\"><code class=\"notranslate\">$ ./src/bitcoind -h | grep -A2 minrelay\n  -minrelaytxfee=&lt;amt&gt;\n       Fees (in BTC/kvB) smaller than this are considered zero fee for\n       relaying, mining and transaction creation (default: 0.00001)\n</code></pre></div>",
    "body_text": "Right, the default is 0.0001 BTC/kvB\n$ ./src/bitcoind -h | grep -A2 minrelay\n  -minrelaytxfee=<amt>\n       Fees (in BTC/kvB) smaller than this are considered zero fee for\n       relaying, mining and transaction creation (default: 0.00001)",
    "body": "Right, the default is 0.0001 BTC/kvB\r\n```\r\n$ ./src/bitcoind -h | grep -A2 minrelay\r\n  -minrelaytxfee=<amt>\r\n       Fees (in BTC/kvB) smaller than this are considered zero fee for\r\n       relaying, mining and transaction creation (default: 0.00001)\r\n```\r\n",
    "reactions": {
      "url": "https://api.github.com/repos/bitcoin/bitcoin/issues/comments/903265182/reactions",
      "total_count": 0,
      "+1": 0,
      "-1": 0,
      "laugh": 0,
      "hooray": 0,
      "confused": 0,
      "heart": 0,
      "rocket": 0,
      "eyes": 0
    },
    "performed_via_github_app": null
  }
]
