[
  {
    "url": "https://api.github.com/repos/bitcoin/bitcoin/issues/comments/1049831128",
    "html_url": "https://github.com/bitcoin/bitcoin/pull/24438#issuecomment-1049831128",
    "issue_url": "https://api.github.com/repos/bitcoin/bitcoin/issues/24438",
    "id": 1049831128,
    "node_id": "IC_kwDOABII584-kybY",
    "user": {
      "login": "laanwj",
      "id": 126646,
      "node_id": "MDQ6VXNlcjEyNjY0Ng==",
      "avatar_url": "https://avatars.githubusercontent.com/u/126646?v=4",
      "gravatar_id": "",
      "url": "https://api.github.com/users/laanwj",
      "html_url": "https://github.com/laanwj",
      "followers_url": "https://api.github.com/users/laanwj/followers",
      "following_url": "https://api.github.com/users/laanwj/following{/other_user}",
      "gists_url": "https://api.github.com/users/laanwj/gists{/gist_id}",
      "starred_url": "https://api.github.com/users/laanwj/starred{/owner}{/repo}",
      "subscriptions_url": "https://api.github.com/users/laanwj/subscriptions",
      "organizations_url": "https://api.github.com/users/laanwj/orgs",
      "repos_url": "https://api.github.com/users/laanwj/repos",
      "events_url": "https://api.github.com/users/laanwj/events{/privacy}",
      "received_events_url": "https://api.github.com/users/laanwj/received_events",
      "type": "User",
      "site_admin": false
    },
    "created_at": "2022-02-24T12:55:38Z",
    "updated_at": "2022-02-24T12:55:38Z",
    "author_association": "MEMBER",
    "body_html": "<p dir=\"auto\">I think the warnings are harmless. They're thrown by <code class=\"notranslate\">qtranslate</code> when encountering constructions like <code class=\"notranslate\">1'000</code>. I guess it hasn't been updated yet for new C++ syntax. As long as they don't happen on the same line as <code class=\"notranslate\">tr()</code> (making it possible to miss a message?) I think it doesn't matter.</p>",
    "body_text": "I think the warnings are harmless. They're thrown by qtranslate when encountering constructions like 1'000. I guess it hasn't been updated yet for new C++ syntax. As long as they don't happen on the same line as tr() (making it possible to miss a message?) I think it doesn't matter.",
    "body": "I think the warnings are harmless. They're thrown by `qtranslate` when encountering constructions like `1'000`. I guess it hasn't been updated yet for new C++ syntax. As long as they don't happen on the same line as `tr()` (making it possible to miss a message?) I think it doesn't matter.",
    "reactions": {
      "url": "https://api.github.com/repos/bitcoin/bitcoin/issues/comments/1049831128/reactions",
      "total_count": 1,
      "+1": 1,
      "-1": 0,
      "laugh": 0,
      "hooray": 0,
      "confused": 0,
      "heart": 0,
      "rocket": 0,
      "eyes": 0
    },
    "performed_via_github_app": null
  }
]
