[
  {
    "url": "https://api.github.com/repos/bitcoin/bitcoin/issues/comments/439596423",
    "html_url": "https://github.com/bitcoin/bitcoin/pull/14742#issuecomment-439596423",
    "issue_url": "https://api.github.com/repos/bitcoin/bitcoin/issues/14742",
    "id": 439596423,
    "node_id": "MDEyOklzc3VlQ29tbWVudDQzOTU5NjQyMw==",
    "user": {
      "login": "JustinTArthur",
      "id": 577312,
      "node_id": "MDQ6VXNlcjU3NzMxMg==",
      "avatar_url": "https://avatars.githubusercontent.com/u/577312?v=4",
      "gravatar_id": "",
      "url": "https://api.github.com/users/JustinTArthur",
      "html_url": "https://github.com/JustinTArthur",
      "followers_url": "https://api.github.com/users/JustinTArthur/followers",
      "following_url": "https://api.github.com/users/JustinTArthur/following{/other_user}",
      "gists_url": "https://api.github.com/users/JustinTArthur/gists{/gist_id}",
      "starred_url": "https://api.github.com/users/JustinTArthur/starred{/owner}{/repo}",
      "subscriptions_url": "https://api.github.com/users/JustinTArthur/subscriptions",
      "organizations_url": "https://api.github.com/users/JustinTArthur/orgs",
      "repos_url": "https://api.github.com/users/JustinTArthur/repos",
      "events_url": "https://api.github.com/users/JustinTArthur/events{/privacy}",
      "received_events_url": "https://api.github.com/users/JustinTArthur/received_events",
      "type": "User",
      "site_admin": false
    },
    "created_at": "2018-11-17T07:38:42Z",
    "updated_at": "2018-11-17T07:38:42Z",
    "author_association": "CONTRIBUTOR",
    "body_html": "<p dir=\"auto\">ACK e7414b4a6c10ab2c17714929286f43559965607d</p>",
    "body_text": "ACK e7414b4a6c10ab2c17714929286f43559965607d",
    "body": "ACK e7414b4a6c10ab2c17714929286f43559965607d",
    "reactions": {
      "url": "https://api.github.com/repos/bitcoin/bitcoin/issues/comments/439596423/reactions",
      "total_count": 0,
      "+1": 0,
      "-1": 0,
      "laugh": 0,
      "hooray": 0,
      "confused": 0,
      "heart": 0,
      "rocket": 0,
      "eyes": 0
    },
    "performed_via_github_app": null
  },
  {
    "url": "https://api.github.com/repos/bitcoin/bitcoin/issues/comments/439597035",
    "html_url": "https://github.com/bitcoin/bitcoin/pull/14742#issuecomment-439597035",
    "issue_url": "https://api.github.com/repos/bitcoin/bitcoin/issues/14742",
    "id": 439597035,
    "node_id": "MDEyOklzc3VlQ29tbWVudDQzOTU5NzAzNQ==",
    "user": {
      "login": "luke-jr",
      "id": 1095675,
      "node_id": "MDQ6VXNlcjEwOTU2NzU=",
      "avatar_url": "https://avatars.githubusercontent.com/u/1095675?v=4",
      "gravatar_id": "",
      "url": "https://api.github.com/users/luke-jr",
      "html_url": "https://github.com/luke-jr",
      "followers_url": "https://api.github.com/users/luke-jr/followers",
      "following_url": "https://api.github.com/users/luke-jr/following{/other_user}",
      "gists_url": "https://api.github.com/users/luke-jr/gists{/gist_id}",
      "starred_url": "https://api.github.com/users/luke-jr/starred{/owner}{/repo}",
      "subscriptions_url": "https://api.github.com/users/luke-jr/subscriptions",
      "organizations_url": "https://api.github.com/users/luke-jr/orgs",
      "repos_url": "https://api.github.com/users/luke-jr/repos",
      "events_url": "https://api.github.com/users/luke-jr/events{/privacy}",
      "received_events_url": "https://api.github.com/users/luke-jr/received_events",
      "type": "User",
      "site_admin": false
    },
    "created_at": "2018-11-17T07:48:57Z",
    "updated_at": "2018-11-17T07:48:57Z",
    "author_association": "MEMBER",
    "body_html": "<p dir=\"auto\">Apparently this requires Python 3.6, whereas we support Python 3.4 (held back for RHEL I guess)</p>",
    "body_text": "Apparently this requires Python 3.6, whereas we support Python 3.4 (held back for RHEL I guess)",
    "body": "Apparently this requires Python 3.6, whereas we support Python 3.4 (held back for RHEL I guess)",
    "reactions": {
      "url": "https://api.github.com/repos/bitcoin/bitcoin/issues/comments/439597035/reactions",
      "total_count": 0,
      "+1": 0,
      "-1": 0,
      "laugh": 0,
      "hooray": 0,
      "confused": 0,
      "heart": 0,
      "rocket": 0,
      "eyes": 0
    },
    "performed_via_github_app": null
  },
  {
    "url": "https://api.github.com/repos/bitcoin/bitcoin/issues/comments/439610480",
    "html_url": "https://github.com/bitcoin/bitcoin/pull/14742#issuecomment-439610480",
    "issue_url": "https://api.github.com/repos/bitcoin/bitcoin/issues/14742",
    "id": 439610480,
    "node_id": "MDEyOklzc3VlQ29tbWVudDQzOTYxMDQ4MA==",
    "user": {
      "login": "dongcarl",
      "id": 3445290,
      "node_id": "MDQ6VXNlcjM0NDUyOTA=",
      "avatar_url": "https://avatars.githubusercontent.com/u/3445290?v=4",
      "gravatar_id": "",
      "url": "https://api.github.com/users/dongcarl",
      "html_url": "https://github.com/dongcarl",
      "followers_url": "https://api.github.com/users/dongcarl/followers",
      "following_url": "https://api.github.com/users/dongcarl/following{/other_user}",
      "gists_url": "https://api.github.com/users/dongcarl/gists{/gist_id}",
      "starred_url": "https://api.github.com/users/dongcarl/starred{/owner}{/repo}",
      "subscriptions_url": "https://api.github.com/users/dongcarl/subscriptions",
      "organizations_url": "https://api.github.com/users/dongcarl/orgs",
      "repos_url": "https://api.github.com/users/dongcarl/repos",
      "events_url": "https://api.github.com/users/dongcarl/events{/privacy}",
      "received_events_url": "https://api.github.com/users/dongcarl/received_events",
      "type": "User",
      "site_admin": false
    },
    "created_at": "2018-11-17T11:41:46Z",
    "updated_at": "2018-11-17T11:41:46Z",
    "author_association": "CONTRIBUTOR",
    "body_html": "<p dir=\"auto\">Fixed, works with Python 3.4 now. Does anyone know if we have integration tests that use this?</p>",
    "body_text": "Fixed, works with Python 3.4 now. Does anyone know if we have integration tests that use this?",
    "body": "Fixed, works with Python 3.4 now. Does anyone know if we have integration tests that use this?",
    "reactions": {
      "url": "https://api.github.com/repos/bitcoin/bitcoin/issues/comments/439610480/reactions",
      "total_count": 0,
      "+1": 0,
      "-1": 0,
      "laugh": 0,
      "hooray": 0,
      "confused": 0,
      "heart": 0,
      "rocket": 0,
      "eyes": 0
    },
    "performed_via_github_app": null
  },
  {
    "url": "https://api.github.com/repos/bitcoin/bitcoin/issues/comments/439879464",
    "html_url": "https://github.com/bitcoin/bitcoin/pull/14742#issuecomment-439879464",
    "issue_url": "https://api.github.com/repos/bitcoin/bitcoin/issues/14742",
    "id": 439879464,
    "node_id": "MDEyOklzc3VlQ29tbWVudDQzOTg3OTQ2NA==",
    "user": {
      "login": "promag",
      "id": 3534524,
      "node_id": "MDQ6VXNlcjM1MzQ1MjQ=",
      "avatar_url": "https://avatars.githubusercontent.com/u/3534524?v=4",
      "gravatar_id": "",
      "url": "https://api.github.com/users/promag",
      "html_url": "https://github.com/promag",
      "followers_url": "https://api.github.com/users/promag/followers",
      "following_url": "https://api.github.com/users/promag/following{/other_user}",
      "gists_url": "https://api.github.com/users/promag/gists{/gist_id}",
      "starred_url": "https://api.github.com/users/promag/starred{/owner}{/repo}",
      "subscriptions_url": "https://api.github.com/users/promag/subscriptions",
      "organizations_url": "https://api.github.com/users/promag/orgs",
      "repos_url": "https://api.github.com/users/promag/repos",
      "events_url": "https://api.github.com/users/promag/events{/privacy}",
      "received_events_url": "https://api.github.com/users/promag/received_events",
      "type": "User",
      "site_admin": false
    },
    "created_at": "2018-11-19T12:39:12Z",
    "updated_at": "2018-11-19T12:39:12Z",
    "author_association": "MEMBER",
    "body_html": "<blockquote>\n<p dir=\"auto\">Fixed, works with Python 3.4 now. Does anyone know if we have integration tests that use this?</p>\n</blockquote>\n<p dir=\"auto\">I don't think so.</p>",
    "body_text": "Fixed, works with Python 3.4 now. Does anyone know if we have integration tests that use this?\n\nI don't think so.",
    "body": "> Fixed, works with Python 3.4 now. Does anyone know if we have integration tests that use this?\r\n\r\nI don't think so.",
    "reactions": {
      "url": "https://api.github.com/repos/bitcoin/bitcoin/issues/comments/439879464/reactions",
      "total_count": 0,
      "+1": 0,
      "-1": 0,
      "laugh": 0,
      "hooray": 0,
      "confused": 0,
      "heart": 0,
      "rocket": 0,
      "eyes": 0
    },
    "performed_via_github_app": null
  },
  {
    "url": "https://api.github.com/repos/bitcoin/bitcoin/issues/comments/439925883",
    "html_url": "https://github.com/bitcoin/bitcoin/pull/14742#issuecomment-439925883",
    "issue_url": "https://api.github.com/repos/bitcoin/bitcoin/issues/14742",
    "id": 439925883,
    "node_id": "MDEyOklzc3VlQ29tbWVudDQzOTkyNTg4Mw==",
    "user": {
      "login": "promag",
      "id": 3534524,
      "node_id": "MDQ6VXNlcjM1MzQ1MjQ=",
      "avatar_url": "https://avatars.githubusercontent.com/u/3534524?v=4",
      "gravatar_id": "",
      "url": "https://api.github.com/users/promag",
      "html_url": "https://github.com/promag",
      "followers_url": "https://api.github.com/users/promag/followers",
      "following_url": "https://api.github.com/users/promag/following{/other_user}",
      "gists_url": "https://api.github.com/users/promag/gists{/gist_id}",
      "starred_url": "https://api.github.com/users/promag/starred{/owner}{/repo}",
      "subscriptions_url": "https://api.github.com/users/promag/subscriptions",
      "organizations_url": "https://api.github.com/users/promag/orgs",
      "repos_url": "https://api.github.com/users/promag/repos",
      "events_url": "https://api.github.com/users/promag/events{/privacy}",
      "received_events_url": "https://api.github.com/users/promag/received_events",
      "type": "User",
      "site_admin": false
    },
    "created_at": "2018-11-19T15:11:50Z",
    "updated_at": "2018-11-19T15:11:50Z",
    "author_association": "MEMBER",
    "body_html": "<p dir=\"auto\">ACK <a class=\"commit-link\" data-hovercard-type=\"commit\" data-hovercard-url=\"https://github.com/bitcoin/bitcoin/commit/6be7d14d243eeeaaf6b4b98c3359c3e1695f2046/hovercard\" href=\"https://github.com/bitcoin/bitcoin/commit/6be7d14d243eeeaaf6b4b98c3359c3e1695f2046\"><tt>6be7d14</tt></a>.</p>",
    "body_text": "ACK 6be7d14.",
    "body": "ACK 6be7d14.",
    "reactions": {
      "url": "https://api.github.com/repos/bitcoin/bitcoin/issues/comments/439925883/reactions",
      "total_count": 0,
      "+1": 0,
      "-1": 0,
      "laugh": 0,
      "hooray": 0,
      "confused": 0,
      "heart": 0,
      "rocket": 0,
      "eyes": 0
    },
    "performed_via_github_app": null
  },
  {
    "url": "https://api.github.com/repos/bitcoin/bitcoin/issues/comments/440801274",
    "html_url": "https://github.com/bitcoin/bitcoin/pull/14742#issuecomment-440801274",
    "issue_url": "https://api.github.com/repos/bitcoin/bitcoin/issues/14742",
    "id": 440801274,
    "node_id": "MDEyOklzc3VlQ29tbWVudDQ0MDgwMTI3NA==",
    "user": {
      "login": "jnewbery",
      "id": 1063656,
      "node_id": "MDQ6VXNlcjEwNjM2NTY=",
      "avatar_url": "https://avatars.githubusercontent.com/u/1063656?v=4",
      "gravatar_id": "",
      "url": "https://api.github.com/users/jnewbery",
      "html_url": "https://github.com/jnewbery",
      "followers_url": "https://api.github.com/users/jnewbery/followers",
      "following_url": "https://api.github.com/users/jnewbery/following{/other_user}",
      "gists_url": "https://api.github.com/users/jnewbery/gists{/gist_id}",
      "starred_url": "https://api.github.com/users/jnewbery/starred{/owner}{/repo}",
      "subscriptions_url": "https://api.github.com/users/jnewbery/subscriptions",
      "organizations_url": "https://api.github.com/users/jnewbery/orgs",
      "repos_url": "https://api.github.com/users/jnewbery/repos",
      "events_url": "https://api.github.com/users/jnewbery/events{/privacy}",
      "received_events_url": "https://api.github.com/users/jnewbery/received_events",
      "type": "User",
      "site_admin": false
    },
    "created_at": "2018-11-21T20:37:05Z",
    "updated_at": "2018-11-21T20:37:05Z",
    "author_association": "CONTRIBUTOR",
    "body_html": "<blockquote>\n<p dir=\"auto\">Does anyone know if we have integration tests that use this?</p>\n</blockquote>\n<p dir=\"auto\">Do you mean that use rpcauth.py? Yes: </p><div class=\"Box Box--condensed my-2\">\n  <div class=\"Box-header f6\">\n    <p class=\"mb-0 text-bold\">\n      <a href=\"https://github.com/bitcoin/bitcoin/blob/d7b0258ff037ae90f60a86fc68cb55069c96e8d0/test/functional/rpc_users.py#L40\">bitcoin/test/functional/rpc_users.py</a>\n    </p>\n    <p class=\"mb-0 color-fg-muted\">\n         Line 40\n      in\n      <a data-pjax=\"true\" class=\"commit-tease-sha Link--inTextBlock\" href=\"/bitcoin/bitcoin/commit/d7b0258ff037ae90f60a86fc68cb55069c96e8d0\">d7b0258</a>\n    </p>\n  </div>\n  <div itemprop=\"text\" class=\"Box-body p-0 blob-wrapper blob-wrapper-embedded data\">\n    <table class=\"highlight tab-size mb-0 js-file-line-container\" data-tab-size=\"8\" data-paste-markdown-skip=\"\">\n\n        <tbody><tr class=\"border-0\">\n          <td id=\"L40\" class=\"blob-num border-0 px-3 py-0 color-bg-default\" data-line-number=\"40\"></td>\n          <td id=\"LC40\" class=\"blob-code border-0 px-3 py-0 color-bg-default blob-code-inner js-file-line\"> <span class=\"pl-s1\">p</span> <span class=\"pl-c1\">=</span> <span class=\"pl-s1\">subprocess</span>.<span class=\"pl-v\">Popen</span>([<span class=\"pl-s1\">sys</span>.<span class=\"pl-s1\">executable</span>, <span class=\"pl-s1\">gen_rpcauth</span>, <span class=\"pl-s1\">self</span>.<span class=\"pl-s1\">user</span>], <span class=\"pl-s1\">stdout</span><span class=\"pl-c1\">=</span><span class=\"pl-s1\">subprocess</span>.<span class=\"pl-v\">PIPE</span>, <span class=\"pl-s1\">universal_newlines</span><span class=\"pl-c1\">=</span><span class=\"pl-c1\">True</span>) </td>\n        </tr>\n    </tbody></table>\n  </div>\n</div>\n<p></p>",
    "body_text": "Does anyone know if we have integration tests that use this?\n\nDo you mean that use rpcauth.py? Yes: \n  \n    \n      bitcoin/test/functional/rpc_users.py\n    \n    \n         Line 40\n      in\n      d7b0258\n    \n  \n  \n    \n\n        \n          \n           p = subprocess.Popen([sys.executable, gen_rpcauth, self.user], stdout=subprocess.PIPE, universal_newlines=True)",
    "body": "> Does anyone know if we have integration tests that use this?\r\n\r\nDo you mean that use rpcauth.py? Yes: https://github.com/bitcoin/bitcoin/blob/d7b0258ff037ae90f60a86fc68cb55069c96e8d0/test/functional/rpc_users.py#L40",
    "reactions": {
      "url": "https://api.github.com/repos/bitcoin/bitcoin/issues/comments/440801274/reactions",
      "total_count": 1,
      "+1": 1,
      "-1": 0,
      "laugh": 0,
      "hooray": 0,
      "confused": 0,
      "heart": 0,
      "rocket": 0,
      "eyes": 0
    },
    "performed_via_github_app": null
  }
]
