[
  {
    "url": "https://api.github.com/repos/bitcoin/bitcoin/issues/comments/290542590",
    "html_url": "https://github.com/bitcoin/bitcoin/pull/10077#issuecomment-290542590",
    "issue_url": "https://api.github.com/repos/bitcoin/bitcoin/issues/10077",
    "id": 290542590,
    "node_id": "MDEyOklzc3VlQ29tbWVudDI5MDU0MjU5MA==",
    "user": {
      "login": "jnewbery",
      "id": 1063656,
      "node_id": "MDQ6VXNlcjEwNjM2NTY=",
      "avatar_url": "https://avatars.githubusercontent.com/u/1063656?v=4",
      "gravatar_id": "",
      "url": "https://api.github.com/users/jnewbery",
      "html_url": "https://github.com/jnewbery",
      "followers_url": "https://api.github.com/users/jnewbery/followers",
      "following_url": "https://api.github.com/users/jnewbery/following{/other_user}",
      "gists_url": "https://api.github.com/users/jnewbery/gists{/gist_id}",
      "starred_url": "https://api.github.com/users/jnewbery/starred{/owner}{/repo}",
      "subscriptions_url": "https://api.github.com/users/jnewbery/subscriptions",
      "organizations_url": "https://api.github.com/users/jnewbery/orgs",
      "repos_url": "https://api.github.com/users/jnewbery/repos",
      "events_url": "https://api.github.com/users/jnewbery/events{/privacy}",
      "received_events_url": "https://api.github.com/users/jnewbery/received_events",
      "type": "User",
      "site_admin": false
    },
    "created_at": "2017-03-30T20:56:51Z",
    "updated_at": "2017-03-30T20:56:51Z",
    "author_association": "CONTRIBUTOR",
    "body_html": "<p dir=\"auto\">Looks great. Tested ACK <a class=\"commit-link\" data-hovercard-type=\"commit\" data-hovercard-url=\"https://github.com/bitcoin/bitcoin/commit/fa697b719286c599103d04c7055b7c666e71f09d/hovercard\" href=\"https://github.com/bitcoin/bitcoin/commit/fa697b719286c599103d04c7055b7c666e71f09d\"><tt>fa697b7</tt></a></p>\n<p dir=\"auto\">Only comment would be that nodehandling.py could be merged into this so we have a single test script for testing the net.cpp RPCs. But also fine to have them as separate tests.</p>",
    "body_text": "Looks great. Tested ACK fa697b7\nOnly comment would be that nodehandling.py could be merged into this so we have a single test script for testing the net.cpp RPCs. But also fine to have them as separate tests.",
    "body": "Looks great. Tested ACK https://github.com/bitcoin/bitcoin/pull/10077/commits/fa697b719286c599103d04c7055b7c666e71f09d\r\n\r\nOnly comment would be that nodehandling.py could be merged into this so we have a single test script for testing the net.cpp RPCs. But also fine to have them as separate tests.",
    "reactions": {
      "url": "https://api.github.com/repos/bitcoin/bitcoin/issues/comments/290542590/reactions",
      "total_count": 0,
      "+1": 0,
      "-1": 0,
      "laugh": 0,
      "hooray": 0,
      "confused": 0,
      "heart": 0,
      "rocket": 0,
      "eyes": 0
    },
    "performed_via_github_app": null
  }
]
