{
  "url": "https://api.github.com/repos/bitcoin/bitcoin/issues/19676",
  "repository_url": "https://api.github.com/repos/bitcoin/bitcoin",
  "labels_url": "https://api.github.com/repos/bitcoin/bitcoin/issues/19676/labels{/name}",
  "comments_url": "https://api.github.com/repos/bitcoin/bitcoin/issues/19676/comments",
  "events_url": "https://api.github.com/repos/bitcoin/bitcoin/issues/19676/events",
  "html_url": "https://github.com/bitcoin/bitcoin/issues/19676",
  "id": 674636149,
  "node_id": "MDU6SXNzdWU2NzQ2MzYxNDk=",
  "number": 19676,
  "title": "Expose compact blocks high-bandwidth mode state through getpeerinfo",
  "user": {
    "login": "sipa",
    "id": 548488,
    "node_id": "MDQ6VXNlcjU0ODQ4OA==",
    "avatar_url": "https://avatars.githubusercontent.com/u/548488?v=4",
    "gravatar_id": "",
    "url": "https://api.github.com/users/sipa",
    "html_url": "https://github.com/sipa",
    "followers_url": "https://api.github.com/users/sipa/followers",
    "following_url": "https://api.github.com/users/sipa/following{/other_user}",
    "gists_url": "https://api.github.com/users/sipa/gists{/gist_id}",
    "starred_url": "https://api.github.com/users/sipa/starred{/owner}{/repo}",
    "subscriptions_url": "https://api.github.com/users/sipa/subscriptions",
    "organizations_url": "https://api.github.com/users/sipa/orgs",
    "repos_url": "https://api.github.com/users/sipa/repos",
    "events_url": "https://api.github.com/users/sipa/events{/privacy}",
    "received_events_url": "https://api.github.com/users/sipa/received_events",
    "type": "User",
    "site_admin": false
  },
  "labels": [
    {
      "id": 64583,
      "node_id": "MDU6TGFiZWw2NDU4Mw==",
      "url": "https://api.github.com/repos/bitcoin/bitcoin/labels/Feature",
      "name": "Feature",
      "color": "7cf575",
      "default": false,
      "description": null
    },
    {
      "id": 98298007,
      "node_id": "MDU6TGFiZWw5ODI5ODAwNw==",
      "url": "https://api.github.com/repos/bitcoin/bitcoin/labels/P2P",
      "name": "P2P",
      "color": "006b75",
      "default": false,
      "description": null
    }
  ],
  "state": "closed",
  "locked": true,
  "assignee": null,
  "assignees": [

  ],
  "milestone": null,
  "comments": 1,
  "created_at": "2020-08-06T22:26:26Z",
  "updated_at": "2022-02-15T10:49:28Z",
  "closed_at": "2020-12-10T07:27:05Z",
  "author_association": "MEMBER",
  "active_lock_reason": "resolved",
  "body_html": "<p dir=\"auto\">For every peer expose through <code class=\"notranslate\">getpeerinfo</code> RPC whether or not we selected them as HB peers, and whether or not they selected us as HB peers.</p>\n<p dir=\"auto\">Suggestion by <a class=\"user-mention notranslate\" data-hovercard-type=\"user\" data-hovercard-url=\"/users/gmaxwell/hovercard\" data-octo-click=\"hovercard-link-click\" data-octo-dimensions=\"link_type:self\" href=\"https://github.com/gmaxwell\">@gmaxwell</a>.</p>",
  "body_text": "For every peer expose through getpeerinfo RPC whether or not we selected them as HB peers, and whether or not they selected us as HB peers.\nSuggestion by @gmaxwell.",
  "body": "For every peer expose through `getpeerinfo` RPC whether or not we selected them as HB peers, and whether or not they selected us as HB peers.\r\n\r\nSuggestion by @gmaxwell.",
  "closed_by": {
    "login": "maflcko",
    "id": 6399679,
    "node_id": "MDQ6VXNlcjYzOTk2Nzk=",
    "avatar_url": "https://avatars.githubusercontent.com/u/6399679?v=4",
    "gravatar_id": "",
    "url": "https://api.github.com/users/maflcko",
    "html_url": "https://github.com/maflcko",
    "followers_url": "https://api.github.com/users/maflcko/followers",
    "following_url": "https://api.github.com/users/maflcko/following{/other_user}",
    "gists_url": "https://api.github.com/users/maflcko/gists{/gist_id}",
    "starred_url": "https://api.github.com/users/maflcko/starred{/owner}{/repo}",
    "subscriptions_url": "https://api.github.com/users/maflcko/subscriptions",
    "organizations_url": "https://api.github.com/users/maflcko/orgs",
    "repos_url": "https://api.github.com/users/maflcko/repos",
    "events_url": "https://api.github.com/users/maflcko/events{/privacy}",
    "received_events_url": "https://api.github.com/users/maflcko/received_events",
    "type": "User",
    "site_admin": false
  },
  "reactions": {
    "url": "https://api.github.com/repos/bitcoin/bitcoin/issues/19676/reactions",
    "total_count": 2,
    "+1": 2,
    "-1": 0,
    "laugh": 0,
    "hooray": 0,
    "confused": 0,
    "heart": 0,
    "rocket": 0,
    "eyes": 0
  },
  "timeline_url": "https://api.github.com/repos/bitcoin/bitcoin/issues/19676/timeline",
  "performed_via_github_app": null,
  "state_reason": "completed"
}
