{
  "url": "https://api.github.com/repos/bitcoin/bitcoin/issues/26468",
  "repository_url": "https://api.github.com/repos/bitcoin/bitcoin",
  "labels_url": "https://api.github.com/repos/bitcoin/bitcoin/issues/26468/labels{/name}",
  "comments_url": "https://api.github.com/repos/bitcoin/bitcoin/issues/26468/comments",
  "events_url": "https://api.github.com/repos/bitcoin/bitcoin/issues/26468/events",
  "html_url": "https://github.com/bitcoin/bitcoin/pull/26468",
  "id": 1439750015,
  "node_id": "PR_kwDOABII585CZmQX",
  "number": 26468,
  "title": "scripted diff: fix E275 lint",
  "user": {
    "login": "willcl-ark",
    "id": 6606587,
    "node_id": "MDQ6VXNlcjY2MDY1ODc=",
    "avatar_url": "https://avatars.githubusercontent.com/u/6606587?v=4",
    "gravatar_id": "",
    "url": "https://api.github.com/users/willcl-ark",
    "html_url": "https://github.com/willcl-ark",
    "followers_url": "https://api.github.com/users/willcl-ark/followers",
    "following_url": "https://api.github.com/users/willcl-ark/following{/other_user}",
    "gists_url": "https://api.github.com/users/willcl-ark/gists{/gist_id}",
    "starred_url": "https://api.github.com/users/willcl-ark/starred{/owner}{/repo}",
    "subscriptions_url": "https://api.github.com/users/willcl-ark/subscriptions",
    "organizations_url": "https://api.github.com/users/willcl-ark/orgs",
    "repos_url": "https://api.github.com/users/willcl-ark/repos",
    "events_url": "https://api.github.com/users/willcl-ark/events{/privacy}",
    "received_events_url": "https://api.github.com/users/willcl-ark/received_events",
    "type": "User",
    "site_admin": false
  },
  "labels": [

  ],
  "state": "closed",
  "locked": true,
  "assignee": null,
  "assignees": [

  ],
  "milestone": null,
  "comments": 15,
  "created_at": "2022-11-08T08:48:47Z",
  "updated_at": "2023-11-08T12:17:46Z",
  "closed_at": "2022-11-08T15:25:08Z",
  "author_association": "MEMBER",
  "active_lock_reason": null,
  "draft": false,
  "pull_request": {
    "url": "https://api.github.com/repos/bitcoin/bitcoin/pulls/26468",
    "html_url": "https://github.com/bitcoin/bitcoin/pull/26468",
    "diff_url": "https://github.com/bitcoin/bitcoin/pull/26468.diff",
    "patch_url": "https://github.com/bitcoin/bitcoin/pull/26468.patch",
    "merged_at": null
  },
  "body_html": "<p dir=\"auto\">Fix E275 errors in lint-python.py with flake8 5.0.4</p>\n<p dir=\"auto\">After updating my venv to Python 3.6.15 and reinstalling flake8 (at the current version, 5.0.4), it now throws quite a few <a href=\"https://www.flake8rules.com/rules/E275.html\" rel=\"nofollow\">E275</a> which are fixed with this scripted diff.</p>",
  "body_text": "Fix E275 errors in lint-python.py with flake8 5.0.4\nAfter updating my venv to Python 3.6.15 and reinstalling flake8 (at the current version, 5.0.4), it now throws quite a few E275 which are fixed with this scripted diff.",
  "body": "Fix E275 errors in lint-python.py with flake8 5.0.4\r\n\r\nAfter updating my venv to Python 3.6.15 and reinstalling flake8 (at the current version, 5.0.4), it now throws quite a few [E275](https://www.flake8rules.com/rules/E275.html) which are fixed with this scripted diff.\r\n",
  "closed_by": {
    "login": "willcl-ark",
    "id": 6606587,
    "node_id": "MDQ6VXNlcjY2MDY1ODc=",
    "avatar_url": "https://avatars.githubusercontent.com/u/6606587?v=4",
    "gravatar_id": "",
    "url": "https://api.github.com/users/willcl-ark",
    "html_url": "https://github.com/willcl-ark",
    "followers_url": "https://api.github.com/users/willcl-ark/followers",
    "following_url": "https://api.github.com/users/willcl-ark/following{/other_user}",
    "gists_url": "https://api.github.com/users/willcl-ark/gists{/gist_id}",
    "starred_url": "https://api.github.com/users/willcl-ark/starred{/owner}{/repo}",
    "subscriptions_url": "https://api.github.com/users/willcl-ark/subscriptions",
    "organizations_url": "https://api.github.com/users/willcl-ark/orgs",
    "repos_url": "https://api.github.com/users/willcl-ark/repos",
    "events_url": "https://api.github.com/users/willcl-ark/events{/privacy}",
    "received_events_url": "https://api.github.com/users/willcl-ark/received_events",
    "type": "User",
    "site_admin": false
  },
  "reactions": {
    "url": "https://api.github.com/repos/bitcoin/bitcoin/issues/26468/reactions",
    "total_count": 0,
    "+1": 0,
    "-1": 0,
    "laugh": 0,
    "hooray": 0,
    "confused": 0,
    "heart": 0,
    "rocket": 0,
    "eyes": 0
  },
  "timeline_url": "https://api.github.com/repos/bitcoin/bitcoin/issues/26468/timeline",
  "performed_via_github_app": null,
  "state_reason": null
}
