[
  {
    "url": "https://api.github.com/repos/bitcoin/bitcoin/issues/comments/257979813",
    "html_url": "https://github.com/bitcoin/bitcoin/pull/9066#issuecomment-257979813",
    "issue_url": "https://api.github.com/repos/bitcoin/bitcoin/issues/9066",
    "id": 257979813,
    "node_id": "MDEyOklzc3VlQ29tbWVudDI1Nzk3OTgxMw==",
    "user": {
      "login": "paveljanik",
      "id": 6848764,
      "node_id": "MDQ6VXNlcjY4NDg3NjQ=",
      "avatar_url": "https://avatars.githubusercontent.com/u/6848764?v=4",
      "gravatar_id": "",
      "url": "https://api.github.com/users/paveljanik",
      "html_url": "https://github.com/paveljanik",
      "followers_url": "https://api.github.com/users/paveljanik/followers",
      "following_url": "https://api.github.com/users/paveljanik/following{/other_user}",
      "gists_url": "https://api.github.com/users/paveljanik/gists{/gist_id}",
      "starred_url": "https://api.github.com/users/paveljanik/starred{/owner}{/repo}",
      "subscriptions_url": "https://api.github.com/users/paveljanik/subscriptions",
      "organizations_url": "https://api.github.com/users/paveljanik/orgs",
      "repos_url": "https://api.github.com/users/paveljanik/repos",
      "events_url": "https://api.github.com/users/paveljanik/events{/privacy}",
      "received_events_url": "https://api.github.com/users/paveljanik/received_events",
      "type": "User",
      "site_admin": false
    },
    "created_at": "2016-11-02T19:54:17Z",
    "updated_at": "2016-11-02T19:54:17Z",
    "author_association": "CONTRIBUTOR",
    "body_html": "<p dir=\"auto\">ACK <a class=\"commit-link\" data-hovercard-type=\"commit\" data-hovercard-url=\"https://github.com/bitcoin/bitcoin/commit/f91afe9aacc4ece2df76338e6ea270b9a6a3bc1a/hovercard\" href=\"https://github.com/bitcoin/bitcoin/commit/f91afe9aacc4ece2df76338e6ea270b9a6a3bc1a\"><tt>f91afe9</tt></a></p>",
    "body_text": "ACK f91afe9",
    "body": "ACK https://github.com/bitcoin/bitcoin/pull/9066/commits/f91afe9aacc4ece2df76338e6ea270b9a6a3bc1a\n",
    "reactions": {
      "url": "https://api.github.com/repos/bitcoin/bitcoin/issues/comments/257979813/reactions",
      "total_count": 0,
      "+1": 0,
      "-1": 0,
      "laugh": 0,
      "hooray": 0,
      "confused": 0,
      "heart": 0,
      "rocket": 0,
      "eyes": 0
    },
    "performed_via_github_app": null
  }
]
