{
  "url": "https://api.github.com/repos/bitcoin/bitcoin/issues/21571",
  "repository_url": "https://api.github.com/repos/bitcoin/bitcoin",
  "labels_url": "https://api.github.com/repos/bitcoin/bitcoin/issues/21571/labels{/name}",
  "comments_url": "https://api.github.com/repos/bitcoin/bitcoin/issues/21571/comments",
  "events_url": "https://api.github.com/repos/bitcoin/bitcoin/issues/21571/events",
  "html_url": "https://github.com/bitcoin/bitcoin/pull/21571",
  "id": 849187570,
  "node_id": "MDExOlB1bGxSZXF1ZXN0NjA4MDAzODk1",
  "number": 21571,
  "title": "test: make sure non-IP peers get discouraged and disconnected (vasild)",
  "user": {
    "login": "maflcko",
    "id": 6399679,
    "node_id": "MDQ6VXNlcjYzOTk2Nzk=",
    "avatar_url": "https://avatars.githubusercontent.com/u/6399679?v=4",
    "gravatar_id": "",
    "url": "https://api.github.com/users/maflcko",
    "html_url": "https://github.com/maflcko",
    "followers_url": "https://api.github.com/users/maflcko/followers",
    "following_url": "https://api.github.com/users/maflcko/following{/other_user}",
    "gists_url": "https://api.github.com/users/maflcko/gists{/gist_id}",
    "starred_url": "https://api.github.com/users/maflcko/starred{/owner}{/repo}",
    "subscriptions_url": "https://api.github.com/users/maflcko/subscriptions",
    "organizations_url": "https://api.github.com/users/maflcko/orgs",
    "repos_url": "https://api.github.com/users/maflcko/repos",
    "events_url": "https://api.github.com/users/maflcko/events{/privacy}",
    "received_events_url": "https://api.github.com/users/maflcko/received_events",
    "type": "User",
    "site_admin": false
  },
  "labels": [
    {
      "id": 62963516,
      "node_id": "MDU6TGFiZWw2Mjk2MzUxNg==",
      "url": "https://api.github.com/repos/bitcoin/bitcoin/labels/Tests",
      "name": "Tests",
      "color": "d4c5f9",
      "default": false,
      "description": null
    }
  ],
  "state": "closed",
  "locked": true,
  "assignee": null,
  "assignees": [

  ],
  "milestone": null,
  "comments": 3,
  "created_at": "2021-04-02T12:22:20Z",
  "updated_at": "2022-08-18T18:20:31Z",
  "closed_at": "2021-04-06T08:30:01Z",
  "author_association": "MEMBER",
  "active_lock_reason": "resolved",
  "draft": false,
  "pull_request": {
    "url": "https://api.github.com/repos/bitcoin/bitcoin/pulls/21571",
    "html_url": "https://github.com/bitcoin/bitcoin/pull/21571",
    "diff_url": "https://github.com/bitcoin/bitcoin/pull/21571.diff",
    "patch_url": "https://github.com/bitcoin/bitcoin/pull/21571.patch",
    "merged_at": "2021-04-06T08:30:01Z"
  },
  "body_html": "<p dir=\"auto\">Split up from <a class=\"issue-link js-issue-link\" data-error-text=\"Failed to load title\" data-id=\"789282167\" data-permission-text=\"Title is private\" data-url=\"https://github.com/bitcoin/bitcoin/issues/20966\" data-hovercard-type=\"pull_request\" data-hovercard-url=\"/bitcoin/bitcoin/pull/20966/hovercard\" href=\"https://github.com/bitcoin/bitcoin/pull/20966\">#20966</a>, so that it can be backported easier. Merging this ahead of <a class=\"issue-link js-issue-link\" data-error-text=\"Failed to load title\" data-id=\"789282167\" data-permission-text=\"Title is private\" data-url=\"https://github.com/bitcoin/bitcoin/issues/20966\" data-hovercard-type=\"pull_request\" data-hovercard-url=\"/bitcoin/bitcoin/pull/20966/hovercard\" href=\"https://github.com/bitcoin/bitcoin/pull/20966\">#20966</a> will also reduce the number of conflicts for that pull.</p>",
  "body_text": "Split up from #20966, so that it can be backported easier. Merging this ahead of #20966 will also reduce the number of conflicts for that pull.",
  "body": "Split up from #20966, so that it can be backported easier. Merging this ahead of #20966 will also reduce the number of conflicts for that pull.",
  "closed_by": {
    "login": "maflcko",
    "id": 6399679,
    "node_id": "MDQ6VXNlcjYzOTk2Nzk=",
    "avatar_url": "https://avatars.githubusercontent.com/u/6399679?v=4",
    "gravatar_id": "",
    "url": "https://api.github.com/users/maflcko",
    "html_url": "https://github.com/maflcko",
    "followers_url": "https://api.github.com/users/maflcko/followers",
    "following_url": "https://api.github.com/users/maflcko/following{/other_user}",
    "gists_url": "https://api.github.com/users/maflcko/gists{/gist_id}",
    "starred_url": "https://api.github.com/users/maflcko/starred{/owner}{/repo}",
    "subscriptions_url": "https://api.github.com/users/maflcko/subscriptions",
    "organizations_url": "https://api.github.com/users/maflcko/orgs",
    "repos_url": "https://api.github.com/users/maflcko/repos",
    "events_url": "https://api.github.com/users/maflcko/events{/privacy}",
    "received_events_url": "https://api.github.com/users/maflcko/received_events",
    "type": "User",
    "site_admin": false
  },
  "reactions": {
    "url": "https://api.github.com/repos/bitcoin/bitcoin/issues/21571/reactions",
    "total_count": 0,
    "+1": 0,
    "-1": 0,
    "laugh": 0,
    "hooray": 0,
    "confused": 0,
    "heart": 0,
    "rocket": 0,
    "eyes": 0
  },
  "timeline_url": "https://api.github.com/repos/bitcoin/bitcoin/issues/21571/timeline",
  "performed_via_github_app": null,
  "state_reason": null
}
