[
  {
    "url": "https://api.github.com/repos/bitcoin/bitcoin/issues/comments/2697019",
    "html_url": "https://github.com/bitcoin/bitcoin/pull/629#issuecomment-2697019",
    "issue_url": "https://api.github.com/repos/bitcoin/bitcoin/issues/629",
    "id": 2697019,
    "node_id": "MDEyOklzc3VlQ29tbWVudDI2OTcwMTk=",
    "user": {
      "login": "luke-jr",
      "id": 1095675,
      "node_id": "MDQ6VXNlcjEwOTU2NzU=",
      "avatar_url": "https://avatars.githubusercontent.com/u/1095675?v=4",
      "gravatar_id": "",
      "url": "https://api.github.com/users/luke-jr",
      "html_url": "https://github.com/luke-jr",
      "followers_url": "https://api.github.com/users/luke-jr/followers",
      "following_url": "https://api.github.com/users/luke-jr/following{/other_user}",
      "gists_url": "https://api.github.com/users/luke-jr/gists{/gist_id}",
      "starred_url": "https://api.github.com/users/luke-jr/starred{/owner}{/repo}",
      "subscriptions_url": "https://api.github.com/users/luke-jr/subscriptions",
      "organizations_url": "https://api.github.com/users/luke-jr/orgs",
      "repos_url": "https://api.github.com/users/luke-jr/repos",
      "events_url": "https://api.github.com/users/luke-jr/events{/privacy}",
      "received_events_url": "https://api.github.com/users/luke-jr/received_events",
      "type": "User",
      "site_admin": false
    },
    "created_at": "2011-11-10T16:03:33Z",
    "updated_at": "2011-11-10T16:03:33Z",
    "author_association": "MEMBER",
    "body_html": "<p dir=\"auto\">Basic code/UI ACK except for a couple of minor issues:</p>\n<ul dir=\"auto\">\n<li>USE_QRC might be confused with Qt Resource Compiler (or whatever 'qrc' is), maybe USE_QRCODE ?</li>\n<li>QR Codes are set to \"text\" instead of \"URI\"</li>\n</ul>",
    "body_text": "Basic code/UI ACK except for a couple of minor issues:\n\nUSE_QRC might be confused with Qt Resource Compiler (or whatever 'qrc' is), maybe USE_QRCODE ?\nQR Codes are set to \"text\" instead of \"URI\"",
    "body": "Basic code/UI ACK except for a couple of minor issues:\n- USE_QRC might be confused with Qt Resource Compiler (or whatever 'qrc' is), maybe USE_QRCODE ?\n- QR Codes are set to \"text\" instead of \"URI\"\n",
    "reactions": {
      "url": "https://api.github.com/repos/bitcoin/bitcoin/issues/comments/2697019/reactions",
      "total_count": 0,
      "+1": 0,
      "-1": 0,
      "laugh": 0,
      "hooray": 0,
      "confused": 0,
      "heart": 0,
      "rocket": 0,
      "eyes": 0
    },
    "performed_via_github_app": null
  },
  {
    "url": "https://api.github.com/repos/bitcoin/bitcoin/issues/comments/2702192",
    "html_url": "https://github.com/bitcoin/bitcoin/pull/629#issuecomment-2702192",
    "issue_url": "https://api.github.com/repos/bitcoin/bitcoin/issues/629",
    "id": 2702192,
    "node_id": "MDEyOklzc3VlQ29tbWVudDI3MDIxOTI=",
    "user": {
      "login": "sje397",
      "id": 214252,
      "node_id": "MDQ6VXNlcjIxNDI1Mg==",
      "avatar_url": "https://avatars.githubusercontent.com/u/214252?v=4",
      "gravatar_id": "",
      "url": "https://api.github.com/users/sje397",
      "html_url": "https://github.com/sje397",
      "followers_url": "https://api.github.com/users/sje397/followers",
      "following_url": "https://api.github.com/users/sje397/following{/other_user}",
      "gists_url": "https://api.github.com/users/sje397/gists{/gist_id}",
      "starred_url": "https://api.github.com/users/sje397/starred{/owner}{/repo}",
      "subscriptions_url": "https://api.github.com/users/sje397/subscriptions",
      "organizations_url": "https://api.github.com/users/sje397/orgs",
      "repos_url": "https://api.github.com/users/sje397/repos",
      "events_url": "https://api.github.com/users/sje397/events{/privacy}",
      "received_events_url": "https://api.github.com/users/sje397/received_events",
      "type": "User",
      "site_admin": false
    },
    "created_at": "2011-11-10T22:27:22Z",
    "updated_at": "2011-11-10T22:27:22Z",
    "author_association": "CONTRIBUTOR",
    "body_html": "<p dir=\"auto\">Thanks luke-jr. I'll change the define to USE_QRCODE. The library only supports the following encoding modes though...what is type 'URI' under the surface?</p>\n<p dir=\"auto\">/**</p>\n<ul dir=\"auto\">\n<li>Encoding mode.<br>\n*/<br>\ntypedef enum {<br>\nQR_MODE_NUL = -1,  ///&lt; Terminator (NUL character). Internal use only<br>\nQR_MODE_NUM = 0,   ///&lt; Numeric mode<br>\nQR_MODE_AN,        ///&lt; Alphabet-numeric mode<br>\nQR_MODE_8,         ///&lt; 8-bit data mode<br>\nQR_MODE_KANJI,     ///&lt; Kanji (shift-jis) mode<br>\nQR_MODE_STRUCTURE, ///&lt; Internal use only<br>\nQR_MODE_ECI,       ///&lt; ECI mode<br>\nQR_MODE_FNC1FIRST,  ///&lt; FNC1, first position<br>\nQR_MODE_FNC1SECOND, ///&lt; FNC1, second position<br>\n} QRencodeMode;</li>\n</ul>",
    "body_text": "Thanks luke-jr. I'll change the define to USE_QRCODE. The library only supports the following encoding modes though...what is type 'URI' under the surface?\n/**\n\nEncoding mode.\n*/\ntypedef enum {\nQR_MODE_NUL = -1,  ///< Terminator (NUL character). Internal use only\nQR_MODE_NUM = 0,   ///< Numeric mode\nQR_MODE_AN,        ///< Alphabet-numeric mode\nQR_MODE_8,         ///< 8-bit data mode\nQR_MODE_KANJI,     ///< Kanji (shift-jis) mode\nQR_MODE_STRUCTURE, ///< Internal use only\nQR_MODE_ECI,       ///< ECI mode\nQR_MODE_FNC1FIRST,  ///< FNC1, first position\nQR_MODE_FNC1SECOND, ///< FNC1, second position\n} QRencodeMode;",
    "body": "Thanks luke-jr. I'll change the define to USE_QRCODE. The library only supports the following encoding modes though...what is type 'URI' under the surface?\n\n/**\n- Encoding mode.\n  */\n  typedef enum {\n  QR_MODE_NUL = -1,  ///< Terminator (NUL character). Internal use only\n  QR_MODE_NUM = 0,   ///< Numeric mode\n  QR_MODE_AN,        ///< Alphabet-numeric mode\n  QR_MODE_8,         ///< 8-bit data mode\n  QR_MODE_KANJI,     ///< Kanji (shift-jis) mode\n  QR_MODE_STRUCTURE, ///< Internal use only\n  QR_MODE_ECI,       ///< ECI mode\n  QR_MODE_FNC1FIRST,  ///< FNC1, first position\n  QR_MODE_FNC1SECOND, ///< FNC1, second position\n  } QRencodeMode;\n",
    "reactions": {
      "url": "https://api.github.com/repos/bitcoin/bitcoin/issues/comments/2702192/reactions",
      "total_count": 0,
      "+1": 0,
      "-1": 0,
      "laugh": 0,
      "hooray": 0,
      "confused": 0,
      "heart": 0,
      "rocket": 0,
      "eyes": 0
    },
    "performed_via_github_app": null
  },
  {
    "url": "https://api.github.com/repos/bitcoin/bitcoin/issues/comments/2702605",
    "html_url": "https://github.com/bitcoin/bitcoin/pull/629#issuecomment-2702605",
    "issue_url": "https://api.github.com/repos/bitcoin/bitcoin/issues/629",
    "id": 2702605,
    "node_id": "MDEyOklzc3VlQ29tbWVudDI3MDI2MDU=",
    "user": {
      "login": "luke-jr",
      "id": 1095675,
      "node_id": "MDQ6VXNlcjEwOTU2NzU=",
      "avatar_url": "https://avatars.githubusercontent.com/u/1095675?v=4",
      "gravatar_id": "",
      "url": "https://api.github.com/users/luke-jr",
      "html_url": "https://github.com/luke-jr",
      "followers_url": "https://api.github.com/users/luke-jr/followers",
      "following_url": "https://api.github.com/users/luke-jr/following{/other_user}",
      "gists_url": "https://api.github.com/users/luke-jr/gists{/gist_id}",
      "starred_url": "https://api.github.com/users/luke-jr/starred{/owner}{/repo}",
      "subscriptions_url": "https://api.github.com/users/luke-jr/subscriptions",
      "organizations_url": "https://api.github.com/users/luke-jr/orgs",
      "repos_url": "https://api.github.com/users/luke-jr/repos",
      "events_url": "https://api.github.com/users/luke-jr/events{/privacy}",
      "received_events_url": "https://api.github.com/users/luke-jr/received_events",
      "type": "User",
      "site_admin": false
    },
    "created_at": "2011-11-10T22:59:34Z",
    "updated_at": "2011-11-10T22:59:34Z",
    "author_association": "MEMBER",
    "body_html": "<p dir=\"auto\">Nevermind the mode thing. Looks like the problem is with my QR Code reader \"detecting\" URI vs text based on the content. :/</p>",
    "body_text": "Nevermind the mode thing. Looks like the problem is with my QR Code reader \"detecting\" URI vs text based on the content. :/",
    "body": "Nevermind the mode thing. Looks like the problem is with my QR Code reader \"detecting\" URI vs text based on the content. :/\n",
    "reactions": {
      "url": "https://api.github.com/repos/bitcoin/bitcoin/issues/comments/2702605/reactions",
      "total_count": 0,
      "+1": 0,
      "-1": 0,
      "laugh": 0,
      "hooray": 0,
      "confused": 0,
      "heart": 0,
      "rocket": 0,
      "eyes": 0
    },
    "performed_via_github_app": null
  },
  {
    "url": "https://api.github.com/repos/bitcoin/bitcoin/issues/comments/2705847",
    "html_url": "https://github.com/bitcoin/bitcoin/pull/629#issuecomment-2705847",
    "issue_url": "https://api.github.com/repos/bitcoin/bitcoin/issues/629",
    "id": 2705847,
    "node_id": "MDEyOklzc3VlQ29tbWVudDI3MDU4NDc=",
    "user": {
      "login": "sje397",
      "id": 214252,
      "node_id": "MDQ6VXNlcjIxNDI1Mg==",
      "avatar_url": "https://avatars.githubusercontent.com/u/214252?v=4",
      "gravatar_id": "",
      "url": "https://api.github.com/users/sje397",
      "html_url": "https://github.com/sje397",
      "followers_url": "https://api.github.com/users/sje397/followers",
      "following_url": "https://api.github.com/users/sje397/following{/other_user}",
      "gists_url": "https://api.github.com/users/sje397/gists{/gist_id}",
      "starred_url": "https://api.github.com/users/sje397/starred{/owner}{/repo}",
      "subscriptions_url": "https://api.github.com/users/sje397/subscriptions",
      "organizations_url": "https://api.github.com/users/sje397/orgs",
      "repos_url": "https://api.github.com/users/sje397/repos",
      "events_url": "https://api.github.com/users/sje397/events{/privacy}",
      "received_events_url": "https://api.github.com/users/sje397/received_events",
      "type": "User",
      "site_admin": false
    },
    "created_at": "2011-11-11T08:03:16Z",
    "updated_at": "2011-11-11T08:03:16Z",
    "author_association": "CONTRIBUTOR",
    "body_html": "<p dir=\"auto\">Ok, change pushed.</p>",
    "body_text": "Ok, change pushed.",
    "body": "Ok, change pushed.\n",
    "reactions": {
      "url": "https://api.github.com/repos/bitcoin/bitcoin/issues/comments/2705847/reactions",
      "total_count": 0,
      "+1": 0,
      "-1": 0,
      "laugh": 0,
      "hooray": 0,
      "confused": 0,
      "heart": 0,
      "rocket": 0,
      "eyes": 0
    },
    "performed_via_github_app": null
  },
  {
    "url": "https://api.github.com/repos/bitcoin/bitcoin/issues/comments/2708957",
    "html_url": "https://github.com/bitcoin/bitcoin/pull/629#issuecomment-2708957",
    "issue_url": "https://api.github.com/repos/bitcoin/bitcoin/issues/629",
    "id": 2708957,
    "node_id": "MDEyOklzc3VlQ29tbWVudDI3MDg5NTc=",
    "user": {
      "login": "luke-jr",
      "id": 1095675,
      "node_id": "MDQ6VXNlcjEwOTU2NzU=",
      "avatar_url": "https://avatars.githubusercontent.com/u/1095675?v=4",
      "gravatar_id": "",
      "url": "https://api.github.com/users/luke-jr",
      "html_url": "https://github.com/luke-jr",
      "followers_url": "https://api.github.com/users/luke-jr/followers",
      "following_url": "https://api.github.com/users/luke-jr/following{/other_user}",
      "gists_url": "https://api.github.com/users/luke-jr/gists{/gist_id}",
      "starred_url": "https://api.github.com/users/luke-jr/starred{/owner}{/repo}",
      "subscriptions_url": "https://api.github.com/users/luke-jr/subscriptions",
      "organizations_url": "https://api.github.com/users/luke-jr/orgs",
      "repos_url": "https://api.github.com/users/luke-jr/repos",
      "events_url": "https://api.github.com/users/luke-jr/events{/privacy}",
      "received_events_url": "https://api.github.com/users/luke-jr/received_events",
      "type": "User",
      "site_admin": false
    },
    "created_at": "2011-11-11T15:02:16Z",
    "updated_at": "2011-11-11T15:02:16Z",
    "author_association": "MEMBER",
    "body_html": "<p dir=\"auto\">ACK</p>",
    "body_text": "ACK",
    "body": "ACK\n",
    "reactions": {
      "url": "https://api.github.com/repos/bitcoin/bitcoin/issues/comments/2708957/reactions",
      "total_count": 0,
      "+1": 0,
      "-1": 0,
      "laugh": 0,
      "hooray": 0,
      "confused": 0,
      "heart": 0,
      "rocket": 0,
      "eyes": 0
    },
    "performed_via_github_app": null
  },
  {
    "url": "https://api.github.com/repos/bitcoin/bitcoin/issues/comments/2717723",
    "html_url": "https://github.com/bitcoin/bitcoin/pull/629#issuecomment-2717723",
    "issue_url": "https://api.github.com/repos/bitcoin/bitcoin/issues/629",
    "id": 2717723,
    "node_id": "MDEyOklzc3VlQ29tbWVudDI3MTc3MjM=",
    "user": {
      "login": "laanwj",
      "id": 126646,
      "node_id": "MDQ6VXNlcjEyNjY0Ng==",
      "avatar_url": "https://avatars.githubusercontent.com/u/126646?v=4",
      "gravatar_id": "",
      "url": "https://api.github.com/users/laanwj",
      "html_url": "https://github.com/laanwj",
      "followers_url": "https://api.github.com/users/laanwj/followers",
      "following_url": "https://api.github.com/users/laanwj/following{/other_user}",
      "gists_url": "https://api.github.com/users/laanwj/gists{/gist_id}",
      "starred_url": "https://api.github.com/users/laanwj/starred{/owner}{/repo}",
      "subscriptions_url": "https://api.github.com/users/laanwj/subscriptions",
      "organizations_url": "https://api.github.com/users/laanwj/orgs",
      "repos_url": "https://api.github.com/users/laanwj/repos",
      "events_url": "https://api.github.com/users/laanwj/events{/privacy}",
      "received_events_url": "https://api.github.com/users/laanwj/received_events",
      "type": "User",
      "site_admin": false
    },
    "created_at": "2011-11-12T14:49:53Z",
    "updated_at": "2011-11-12T14:49:53Z",
    "author_association": "MEMBER",
    "body_html": "<p dir=\"auto\">Neat! ACK.</p>\n<p dir=\"auto\">Can you squash/rebase these into one commit?</p>",
    "body_text": "Neat! ACK.\nCan you squash/rebase these into one commit?",
    "body": "Neat! ACK.\n\nCan you squash/rebase these into one commit?\n",
    "reactions": {
      "url": "https://api.github.com/repos/bitcoin/bitcoin/issues/comments/2717723/reactions",
      "total_count": 0,
      "+1": 0,
      "-1": 0,
      "laugh": 0,
      "hooray": 0,
      "confused": 0,
      "heart": 0,
      "rocket": 0,
      "eyes": 0
    },
    "performed_via_github_app": null
  },
  {
    "url": "https://api.github.com/repos/bitcoin/bitcoin/issues/comments/2717743",
    "html_url": "https://github.com/bitcoin/bitcoin/pull/629#issuecomment-2717743",
    "issue_url": "https://api.github.com/repos/bitcoin/bitcoin/issues/629",
    "id": 2717743,
    "node_id": "MDEyOklzc3VlQ29tbWVudDI3MTc3NDM=",
    "user": {
      "login": "sje397",
      "id": 214252,
      "node_id": "MDQ6VXNlcjIxNDI1Mg==",
      "avatar_url": "https://avatars.githubusercontent.com/u/214252?v=4",
      "gravatar_id": "",
      "url": "https://api.github.com/users/sje397",
      "html_url": "https://github.com/sje397",
      "followers_url": "https://api.github.com/users/sje397/followers",
      "following_url": "https://api.github.com/users/sje397/following{/other_user}",
      "gists_url": "https://api.github.com/users/sje397/gists{/gist_id}",
      "starred_url": "https://api.github.com/users/sje397/starred{/owner}{/repo}",
      "subscriptions_url": "https://api.github.com/users/sje397/subscriptions",
      "organizations_url": "https://api.github.com/users/sje397/orgs",
      "repos_url": "https://api.github.com/users/sje397/repos",
      "events_url": "https://api.github.com/users/sje397/events{/privacy}",
      "received_events_url": "https://api.github.com/users/sje397/received_events",
      "type": "User",
      "site_admin": false
    },
    "created_at": "2011-11-12T14:55:51Z",
    "updated_at": "2011-11-12T14:55:51Z",
    "author_association": "CONTRIBUTOR",
    "body_html": "<p dir=\"auto\">Squashed.</p>",
    "body_text": "Squashed.",
    "body": "Squashed.\n",
    "reactions": {
      "url": "https://api.github.com/repos/bitcoin/bitcoin/issues/comments/2717743/reactions",
      "total_count": 0,
      "+1": 0,
      "-1": 0,
      "laugh": 0,
      "hooray": 0,
      "confused": 0,
      "heart": 0,
      "rocket": 0,
      "eyes": 0
    },
    "performed_via_github_app": null
  },
  {
    "url": "https://api.github.com/repos/bitcoin/bitcoin/issues/comments/2717805",
    "html_url": "https://github.com/bitcoin/bitcoin/pull/629#issuecomment-2717805",
    "issue_url": "https://api.github.com/repos/bitcoin/bitcoin/issues/629",
    "id": 2717805,
    "node_id": "MDEyOklzc3VlQ29tbWVudDI3MTc4MDU=",
    "user": {
      "login": "laanwj",
      "id": 126646,
      "node_id": "MDQ6VXNlcjEyNjY0Ng==",
      "avatar_url": "https://avatars.githubusercontent.com/u/126646?v=4",
      "gravatar_id": "",
      "url": "https://api.github.com/users/laanwj",
      "html_url": "https://github.com/laanwj",
      "followers_url": "https://api.github.com/users/laanwj/followers",
      "following_url": "https://api.github.com/users/laanwj/following{/other_user}",
      "gists_url": "https://api.github.com/users/laanwj/gists{/gist_id}",
      "starred_url": "https://api.github.com/users/laanwj/starred{/owner}{/repo}",
      "subscriptions_url": "https://api.github.com/users/laanwj/subscriptions",
      "organizations_url": "https://api.github.com/users/laanwj/orgs",
      "repos_url": "https://api.github.com/users/laanwj/repos",
      "events_url": "https://api.github.com/users/laanwj/events{/privacy}",
      "received_events_url": "https://api.github.com/users/laanwj/received_events",
      "type": "User",
      "site_admin": false
    },
    "created_at": "2011-11-12T15:10:36Z",
    "updated_at": "2011-11-12T15:10:36Z",
    "author_association": "MEMBER",
    "body_html": "<p dir=\"auto\">Thanks.</p>\n<p dir=\"auto\">Some small issues:</p>\n<ul dir=\"auto\">\n<li>\n<p dir=\"auto\">It doesn't build in qt creator without libqrcode (even if USE_QRCODE is not added); probably missing #ifdefs inside qrcodedialog.cpp</p>\n<p dir=\"auto\">../bitcoin/src/qt/qrcodedialog.cpp:10: error: qrencode.h: No such file or directory</p>\n</li>\n<li>\n<p dir=\"auto\">QRCodeDialog::genCode() is only called from the UI thread. Is it still neccesary to have it in a static critical section?</p>\n</li>\n</ul>",
    "body_text": "Thanks.\nSome small issues:\n\n\nIt doesn't build in qt creator without libqrcode (even if USE_QRCODE is not added); probably missing #ifdefs inside qrcodedialog.cpp\n../bitcoin/src/qt/qrcodedialog.cpp:10: error: qrencode.h: No such file or directory\n\n\nQRCodeDialog::genCode() is only called from the UI thread. Is it still neccesary to have it in a static critical section?",
    "body": "Thanks.\n\nSome small issues: \n- It doesn't build in qt creator without libqrcode (even if USE_QRCODE is not added); probably missing #ifdefs inside qrcodedialog.cpp\n  \n   ../bitcoin/src/qt/qrcodedialog.cpp:10: error: qrencode.h: No such file or directory\n- QRCodeDialog::genCode() is only called from the UI thread. Is it still neccesary to have it in a static critical section?\n",
    "reactions": {
      "url": "https://api.github.com/repos/bitcoin/bitcoin/issues/comments/2717805/reactions",
      "total_count": 0,
      "+1": 0,
      "-1": 0,
      "laugh": 0,
      "hooray": 0,
      "confused": 0,
      "heart": 0,
      "rocket": 0,
      "eyes": 0
    },
    "performed_via_github_app": null
  },
  {
    "url": "https://api.github.com/repos/bitcoin/bitcoin/issues/comments/2717829",
    "html_url": "https://github.com/bitcoin/bitcoin/pull/629#issuecomment-2717829",
    "issue_url": "https://api.github.com/repos/bitcoin/bitcoin/issues/629",
    "id": 2717829,
    "node_id": "MDEyOklzc3VlQ29tbWVudDI3MTc4Mjk=",
    "user": {
      "login": "sje397",
      "id": 214252,
      "node_id": "MDQ6VXNlcjIxNDI1Mg==",
      "avatar_url": "https://avatars.githubusercontent.com/u/214252?v=4",
      "gravatar_id": "",
      "url": "https://api.github.com/users/sje397",
      "html_url": "https://github.com/sje397",
      "followers_url": "https://api.github.com/users/sje397/followers",
      "following_url": "https://api.github.com/users/sje397/following{/other_user}",
      "gists_url": "https://api.github.com/users/sje397/gists{/gist_id}",
      "starred_url": "https://api.github.com/users/sje397/starred{/owner}{/repo}",
      "subscriptions_url": "https://api.github.com/users/sje397/subscriptions",
      "organizations_url": "https://api.github.com/users/sje397/orgs",
      "repos_url": "https://api.github.com/users/sje397/repos",
      "events_url": "https://api.github.com/users/sje397/events{/privacy}",
      "received_events_url": "https://api.github.com/users/sje397/received_events",
      "type": "User",
      "site_admin": false
    },
    "created_at": "2011-11-12T15:17:07Z",
    "updated_at": "2011-11-12T15:17:07Z",
    "author_association": "CONTRIBUTOR",
    "body_html": "<p dir=\"auto\">Fixing now.</p>\n<p dir=\"auto\">The first issue involves adding the qrcodedialog to the project conditionally, so needs changes to the pro file.</p>\n<p dir=\"auto\">I'll fix the second. I was being overly attentive to the 'not thread safe' warning in the library docs.</p>",
    "body_text": "Fixing now.\nThe first issue involves adding the qrcodedialog to the project conditionally, so needs changes to the pro file.\nI'll fix the second. I was being overly attentive to the 'not thread safe' warning in the library docs.",
    "body": "Fixing now.\n\nThe first issue involves adding the qrcodedialog to the project conditionally, so needs changes to the pro file.\n\nI'll fix the second. I was being overly attentive to the 'not thread safe' warning in the library docs.\n",
    "reactions": {
      "url": "https://api.github.com/repos/bitcoin/bitcoin/issues/comments/2717829/reactions",
      "total_count": 0,
      "+1": 0,
      "-1": 0,
      "laugh": 0,
      "hooray": 0,
      "confused": 0,
      "heart": 0,
      "rocket": 0,
      "eyes": 0
    },
    "performed_via_github_app": null
  },
  {
    "url": "https://api.github.com/repos/bitcoin/bitcoin/issues/comments/2717871",
    "html_url": "https://github.com/bitcoin/bitcoin/pull/629#issuecomment-2717871",
    "issue_url": "https://api.github.com/repos/bitcoin/bitcoin/issues/629",
    "id": 2717871,
    "node_id": "MDEyOklzc3VlQ29tbWVudDI3MTc4NzE=",
    "user": {
      "login": "sje397",
      "id": 214252,
      "node_id": "MDQ6VXNlcjIxNDI1Mg==",
      "avatar_url": "https://avatars.githubusercontent.com/u/214252?v=4",
      "gravatar_id": "",
      "url": "https://api.github.com/users/sje397",
      "html_url": "https://github.com/sje397",
      "followers_url": "https://api.github.com/users/sje397/followers",
      "following_url": "https://api.github.com/users/sje397/following{/other_user}",
      "gists_url": "https://api.github.com/users/sje397/gists{/gist_id}",
      "starred_url": "https://api.github.com/users/sje397/starred{/owner}{/repo}",
      "subscriptions_url": "https://api.github.com/users/sje397/subscriptions",
      "organizations_url": "https://api.github.com/users/sje397/orgs",
      "repos_url": "https://api.github.com/users/sje397/repos",
      "events_url": "https://api.github.com/users/sje397/events{/privacy}",
      "received_events_url": "https://api.github.com/users/sje397/received_events",
      "type": "User",
      "site_admin": false
    },
    "created_at": "2011-11-12T15:25:42Z",
    "updated_at": "2011-11-12T15:25:42Z",
    "author_association": "CONTRIBUTOR",
    "body_html": "<p dir=\"auto\">Done and resquashed.</p>",
    "body_text": "Done and resquashed.",
    "body": "Done and resquashed.\n",
    "reactions": {
      "url": "https://api.github.com/repos/bitcoin/bitcoin/issues/comments/2717871/reactions",
      "total_count": 0,
      "+1": 0,
      "-1": 0,
      "laugh": 0,
      "hooray": 0,
      "confused": 0,
      "heart": 0,
      "rocket": 0,
      "eyes": 0
    },
    "performed_via_github_app": null
  },
  {
    "url": "https://api.github.com/repos/bitcoin/bitcoin/issues/comments/2717907",
    "html_url": "https://github.com/bitcoin/bitcoin/pull/629#issuecomment-2717907",
    "issue_url": "https://api.github.com/repos/bitcoin/bitcoin/issues/629",
    "id": 2717907,
    "node_id": "MDEyOklzc3VlQ29tbWVudDI3MTc5MDc=",
    "user": {
      "login": "laanwj",
      "id": 126646,
      "node_id": "MDQ6VXNlcjEyNjY0Ng==",
      "avatar_url": "https://avatars.githubusercontent.com/u/126646?v=4",
      "gravatar_id": "",
      "url": "https://api.github.com/users/laanwj",
      "html_url": "https://github.com/laanwj",
      "followers_url": "https://api.github.com/users/laanwj/followers",
      "following_url": "https://api.github.com/users/laanwj/following{/other_user}",
      "gists_url": "https://api.github.com/users/laanwj/gists{/gist_id}",
      "starred_url": "https://api.github.com/users/laanwj/starred{/owner}{/repo}",
      "subscriptions_url": "https://api.github.com/users/laanwj/subscriptions",
      "organizations_url": "https://api.github.com/users/laanwj/orgs",
      "repos_url": "https://api.github.com/users/laanwj/repos",
      "events_url": "https://api.github.com/users/laanwj/events{/privacy}",
      "received_events_url": "https://api.github.com/users/laanwj/received_events",
      "type": "User",
      "site_admin": false
    },
    "created_at": "2011-11-12T15:36:58Z",
    "updated_at": "2011-11-12T15:36:58Z",
    "author_association": "MEMBER",
    "body_html": "<p dir=\"auto\">That's fast :) Now builds and runs on machine without the library.</p>\n<p dir=\"auto\">Also works great when enabled, I tried scanning it with my phone from the screen and it got it right the first time.</p>\n<p dir=\"auto\">Another small code issue:</p>\n<ul dir=\"auto\">\n<li>AddressBookPage::on_showQRCode_clicked(): <code class=\"notranslate\">d = new QRCodeDialog</code> causes a memory leak every time the dialog is opened (at least until the addressbookpage is destroyed). Better to simply use <code class=\"notranslate\">QRCodeDialog d(...</code></li>\n</ul>",
    "body_text": "That's fast :) Now builds and runs on machine without the library.\nAlso works great when enabled, I tried scanning it with my phone from the screen and it got it right the first time.\nAnother small code issue:\n\nAddressBookPage::on_showQRCode_clicked(): d = new QRCodeDialog causes a memory leak every time the dialog is opened (at least until the addressbookpage is destroyed). Better to simply use QRCodeDialog d(...",
    "body": "That's fast :) Now builds and runs on machine without the library. \n\nAlso works great when enabled, I tried scanning it with my phone from the screen and it got it right the first time.\n\nAnother small code issue:\n- AddressBookPage::on_showQRCode_clicked(): `d = new QRCodeDialog` causes a memory leak every time the dialog is opened (at least until the addressbookpage is destroyed). Better to simply use `QRCodeDialog d(...`\n",
    "reactions": {
      "url": "https://api.github.com/repos/bitcoin/bitcoin/issues/comments/2717907/reactions",
      "total_count": 0,
      "+1": 0,
      "-1": 0,
      "laugh": 0,
      "hooray": 0,
      "confused": 0,
      "heart": 0,
      "rocket": 0,
      "eyes": 0
    },
    "performed_via_github_app": null
  },
  {
    "url": "https://api.github.com/repos/bitcoin/bitcoin/issues/comments/2717934",
    "html_url": "https://github.com/bitcoin/bitcoin/pull/629#issuecomment-2717934",
    "issue_url": "https://api.github.com/repos/bitcoin/bitcoin/issues/629",
    "id": 2717934,
    "node_id": "MDEyOklzc3VlQ29tbWVudDI3MTc5MzQ=",
    "user": {
      "login": "sje397",
      "id": 214252,
      "node_id": "MDQ6VXNlcjIxNDI1Mg==",
      "avatar_url": "https://avatars.githubusercontent.com/u/214252?v=4",
      "gravatar_id": "",
      "url": "https://api.github.com/users/sje397",
      "html_url": "https://github.com/sje397",
      "followers_url": "https://api.github.com/users/sje397/followers",
      "following_url": "https://api.github.com/users/sje397/following{/other_user}",
      "gists_url": "https://api.github.com/users/sje397/gists{/gist_id}",
      "starred_url": "https://api.github.com/users/sje397/starred{/owner}{/repo}",
      "subscriptions_url": "https://api.github.com/users/sje397/subscriptions",
      "organizations_url": "https://api.github.com/users/sje397/orgs",
      "repos_url": "https://api.github.com/users/sje397/repos",
      "events_url": "https://api.github.com/users/sje397/events{/privacy}",
      "received_events_url": "https://api.github.com/users/sje397/received_events",
      "type": "User",
      "site_admin": false
    },
    "created_at": "2011-11-12T15:43:15Z",
    "updated_at": "2011-11-12T15:43:15Z",
    "author_association": "CONTRIBUTOR",
    "body_html": "<p dir=\"auto\">Yeah that's not ideal as is.</p>\n<p dir=\"auto\">Using <code class=\"notranslate\">QRCodeDialog d(...</code> as you suggest though causes the dialog to be destroyed immediately as the variable goes out of scope. Are you suggesting it (and not 'they') should be modal?</p>",
    "body_text": "Yeah that's not ideal as is.\nUsing QRCodeDialog d(... as you suggest though causes the dialog to be destroyed immediately as the variable goes out of scope. Are you suggesting it (and not 'they') should be modal?",
    "body": "Yeah that's not ideal as is.\n\nUsing `QRCodeDialog d(...` as you suggest though causes the dialog to be destroyed immediately as the variable goes out of scope. Are you suggesting it (and not 'they') should be modal?\n",
    "reactions": {
      "url": "https://api.github.com/repos/bitcoin/bitcoin/issues/comments/2717934/reactions",
      "total_count": 0,
      "+1": 0,
      "-1": 0,
      "laugh": 0,
      "hooray": 0,
      "confused": 0,
      "heart": 0,
      "rocket": 0,
      "eyes": 0
    },
    "performed_via_github_app": null
  },
  {
    "url": "https://api.github.com/repos/bitcoin/bitcoin/issues/comments/2717949",
    "html_url": "https://github.com/bitcoin/bitcoin/pull/629#issuecomment-2717949",
    "issue_url": "https://api.github.com/repos/bitcoin/bitcoin/issues/629",
    "id": 2717949,
    "node_id": "MDEyOklzc3VlQ29tbWVudDI3MTc5NDk=",
    "user": {
      "login": "sje397",
      "id": 214252,
      "node_id": "MDQ6VXNlcjIxNDI1Mg==",
      "avatar_url": "https://avatars.githubusercontent.com/u/214252?v=4",
      "gravatar_id": "",
      "url": "https://api.github.com/users/sje397",
      "html_url": "https://github.com/sje397",
      "followers_url": "https://api.github.com/users/sje397/followers",
      "following_url": "https://api.github.com/users/sje397/following{/other_user}",
      "gists_url": "https://api.github.com/users/sje397/gists{/gist_id}",
      "starred_url": "https://api.github.com/users/sje397/starred{/owner}{/repo}",
      "subscriptions_url": "https://api.github.com/users/sje397/subscriptions",
      "organizations_url": "https://api.github.com/users/sje397/orgs",
      "repos_url": "https://api.github.com/users/sje397/repos",
      "events_url": "https://api.github.com/users/sje397/events{/privacy}",
      "received_events_url": "https://api.github.com/users/sje397/received_events",
      "type": "User",
      "site_admin": false
    },
    "created_at": "2011-11-12T15:45:37Z",
    "updated_at": "2011-11-12T15:45:37Z",
    "author_association": "CONTRIBUTOR",
    "body_html": "<p dir=\"auto\">How about I set the 'Qt::WA_DeleteOnClose' attribute on the qrcodedialog widget instead?</p>",
    "body_text": "How about I set the 'Qt::WA_DeleteOnClose' attribute on the qrcodedialog widget instead?",
    "body": "How about I set the 'Qt::WA_DeleteOnClose' attribute on the qrcodedialog widget instead?\n",
    "reactions": {
      "url": "https://api.github.com/repos/bitcoin/bitcoin/issues/comments/2717949/reactions",
      "total_count": 0,
      "+1": 0,
      "-1": 0,
      "laugh": 0,
      "hooray": 0,
      "confused": 0,
      "heart": 0,
      "rocket": 0,
      "eyes": 0
    },
    "performed_via_github_app": null
  },
  {
    "url": "https://api.github.com/repos/bitcoin/bitcoin/issues/comments/2717951",
    "html_url": "https://github.com/bitcoin/bitcoin/pull/629#issuecomment-2717951",
    "issue_url": "https://api.github.com/repos/bitcoin/bitcoin/issues/629",
    "id": 2717951,
    "node_id": "MDEyOklzc3VlQ29tbWVudDI3MTc5NTE=",
    "user": {
      "login": "laanwj",
      "id": 126646,
      "node_id": "MDQ6VXNlcjEyNjY0Ng==",
      "avatar_url": "https://avatars.githubusercontent.com/u/126646?v=4",
      "gravatar_id": "",
      "url": "https://api.github.com/users/laanwj",
      "html_url": "https://github.com/laanwj",
      "followers_url": "https://api.github.com/users/laanwj/followers",
      "following_url": "https://api.github.com/users/laanwj/following{/other_user}",
      "gists_url": "https://api.github.com/users/laanwj/gists{/gist_id}",
      "starred_url": "https://api.github.com/users/laanwj/starred{/owner}{/repo}",
      "subscriptions_url": "https://api.github.com/users/laanwj/subscriptions",
      "organizations_url": "https://api.github.com/users/laanwj/orgs",
      "repos_url": "https://api.github.com/users/laanwj/repos",
      "events_url": "https://api.github.com/users/laanwj/events{/privacy}",
      "received_events_url": "https://api.github.com/users/laanwj/received_events",
      "type": "User",
      "site_admin": false
    },
    "created_at": "2011-11-12T15:46:49Z",
    "updated_at": "2011-11-12T15:47:09Z",
    "author_association": "MEMBER",
    "body_html": "<p dir=\"auto\">Sorry, I misunderstood. I thought that was the idea to be modal :-)</p>\n<p dir=\"auto\">Keep it as it is, it's fine. Qt has a flag to delete a window when closed, it might be useful to enable that, but I don't think this will ever be a big issue.</p>",
    "body_text": "Sorry, I misunderstood. I thought that was the idea to be modal :-)\nKeep it as it is, it's fine. Qt has a flag to delete a window when closed, it might be useful to enable that, but I don't think this will ever be a big issue.",
    "body": "Sorry, I misunderstood. I thought that was the idea to be modal :-)\n\nKeep it as it is, it's fine. Qt has a flag to delete a window when closed, it might be useful to enable that, but I don't think this will ever be a big issue.\n",
    "reactions": {
      "url": "https://api.github.com/repos/bitcoin/bitcoin/issues/comments/2717951/reactions",
      "total_count": 0,
      "+1": 0,
      "-1": 0,
      "laugh": 0,
      "hooray": 0,
      "confused": 0,
      "heart": 0,
      "rocket": 0,
      "eyes": 0
    },
    "performed_via_github_app": null
  },
  {
    "url": "https://api.github.com/repos/bitcoin/bitcoin/issues/comments/2717963",
    "html_url": "https://github.com/bitcoin/bitcoin/pull/629#issuecomment-2717963",
    "issue_url": "https://api.github.com/repos/bitcoin/bitcoin/issues/629",
    "id": 2717963,
    "node_id": "MDEyOklzc3VlQ29tbWVudDI3MTc5NjM=",
    "user": {
      "login": "sje397",
      "id": 214252,
      "node_id": "MDQ6VXNlcjIxNDI1Mg==",
      "avatar_url": "https://avatars.githubusercontent.com/u/214252?v=4",
      "gravatar_id": "",
      "url": "https://api.github.com/users/sje397",
      "html_url": "https://github.com/sje397",
      "followers_url": "https://api.github.com/users/sje397/followers",
      "following_url": "https://api.github.com/users/sje397/following{/other_user}",
      "gists_url": "https://api.github.com/users/sje397/gists{/gist_id}",
      "starred_url": "https://api.github.com/users/sje397/starred{/owner}{/repo}",
      "subscriptions_url": "https://api.github.com/users/sje397/subscriptions",
      "organizations_url": "https://api.github.com/users/sje397/orgs",
      "repos_url": "https://api.github.com/users/sje397/repos",
      "events_url": "https://api.github.com/users/sje397/events{/privacy}",
      "received_events_url": "https://api.github.com/users/sje397/received_events",
      "type": "User",
      "site_admin": false
    },
    "created_at": "2011-11-12T15:49:29Z",
    "updated_at": "2011-11-12T15:49:29Z",
    "author_association": "CONTRIBUTOR",
    "body_html": "<p dir=\"auto\">Snap. I've set that flag and rebased again. 2:49am - g'night ;)</p>",
    "body_text": "Snap. I've set that flag and rebased again. 2:49am - g'night ;)",
    "body": "Snap. I've set that flag and rebased again. 2:49am - g'night ;)\n",
    "reactions": {
      "url": "https://api.github.com/repos/bitcoin/bitcoin/issues/comments/2717963/reactions",
      "total_count": 0,
      "+1": 0,
      "-1": 0,
      "laugh": 0,
      "hooray": 0,
      "confused": 0,
      "heart": 0,
      "rocket": 0,
      "eyes": 0
    },
    "performed_via_github_app": null
  },
  {
    "url": "https://api.github.com/repos/bitcoin/bitcoin/issues/comments/2717967",
    "html_url": "https://github.com/bitcoin/bitcoin/pull/629#issuecomment-2717967",
    "issue_url": "https://api.github.com/repos/bitcoin/bitcoin/issues/629",
    "id": 2717967,
    "node_id": "MDEyOklzc3VlQ29tbWVudDI3MTc5Njc=",
    "user": {
      "login": "laanwj",
      "id": 126646,
      "node_id": "MDQ6VXNlcjEyNjY0Ng==",
      "avatar_url": "https://avatars.githubusercontent.com/u/126646?v=4",
      "gravatar_id": "",
      "url": "https://api.github.com/users/laanwj",
      "html_url": "https://github.com/laanwj",
      "followers_url": "https://api.github.com/users/laanwj/followers",
      "following_url": "https://api.github.com/users/laanwj/following{/other_user}",
      "gists_url": "https://api.github.com/users/laanwj/gists{/gist_id}",
      "starred_url": "https://api.github.com/users/laanwj/starred{/owner}{/repo}",
      "subscriptions_url": "https://api.github.com/users/laanwj/subscriptions",
      "organizations_url": "https://api.github.com/users/laanwj/orgs",
      "repos_url": "https://api.github.com/users/laanwj/repos",
      "events_url": "https://api.github.com/users/laanwj/events{/privacy}",
      "received_events_url": "https://api.github.com/users/laanwj/received_events",
      "type": "User",
      "site_admin": false
    },
    "created_at": "2011-11-12T15:50:48Z",
    "updated_at": "2011-11-12T15:50:48Z",
    "author_association": "MEMBER",
    "body_html": "<p dir=\"auto\">Thanks. Goodnight!</p>",
    "body_text": "Thanks. Goodnight!",
    "body": "Thanks. Goodnight!\n",
    "reactions": {
      "url": "https://api.github.com/repos/bitcoin/bitcoin/issues/comments/2717967/reactions",
      "total_count": 0,
      "+1": 0,
      "-1": 0,
      "laugh": 0,
      "hooray": 0,
      "confused": 0,
      "heart": 0,
      "rocket": 0,
      "eyes": 0
    },
    "performed_via_github_app": null
  },
  {
    "url": "https://api.github.com/repos/bitcoin/bitcoin/issues/comments/2721740",
    "html_url": "https://github.com/bitcoin/bitcoin/pull/629#issuecomment-2721740",
    "issue_url": "https://api.github.com/repos/bitcoin/bitcoin/issues/629",
    "id": 2721740,
    "node_id": "MDEyOklzc3VlQ29tbWVudDI3MjE3NDA=",
    "user": {
      "login": "mikehearn",
      "id": 971089,
      "node_id": "MDQ6VXNlcjk3MTA4OQ==",
      "avatar_url": "https://avatars.githubusercontent.com/u/971089?v=4",
      "gravatar_id": "",
      "url": "https://api.github.com/users/mikehearn",
      "html_url": "https://github.com/mikehearn",
      "followers_url": "https://api.github.com/users/mikehearn/followers",
      "following_url": "https://api.github.com/users/mikehearn/following{/other_user}",
      "gists_url": "https://api.github.com/users/mikehearn/gists{/gist_id}",
      "starred_url": "https://api.github.com/users/mikehearn/starred{/owner}{/repo}",
      "subscriptions_url": "https://api.github.com/users/mikehearn/subscriptions",
      "organizations_url": "https://api.github.com/users/mikehearn/orgs",
      "repos_url": "https://api.github.com/users/mikehearn/repos",
      "events_url": "https://api.github.com/users/mikehearn/events{/privacy}",
      "received_events_url": "https://api.github.com/users/mikehearn/received_events",
      "type": "User",
      "site_admin": false
    },
    "created_at": "2011-11-13T11:00:36Z",
    "updated_at": "2011-11-13T11:00:36Z",
    "author_association": "CONTRIBUTOR",
    "body_html": "<p dir=\"auto\">Did you check if this is compatible with the Android Wallet app? I'm not sure exactly what format it's using.</p>",
    "body_text": "Did you check if this is compatible with the Android Wallet app? I'm not sure exactly what format it's using.",
    "body": "Did you check if this is compatible with the Android Wallet app? I'm not sure exactly what format it's using.\n",
    "reactions": {
      "url": "https://api.github.com/repos/bitcoin/bitcoin/issues/comments/2721740/reactions",
      "total_count": 0,
      "+1": 0,
      "-1": 0,
      "laugh": 0,
      "hooray": 0,
      "confused": 0,
      "heart": 0,
      "rocket": 0,
      "eyes": 0
    },
    "performed_via_github_app": null
  },
  {
    "url": "https://api.github.com/repos/bitcoin/bitcoin/issues/comments/2721849",
    "html_url": "https://github.com/bitcoin/bitcoin/pull/629#issuecomment-2721849",
    "issue_url": "https://api.github.com/repos/bitcoin/bitcoin/issues/629",
    "id": 2721849,
    "node_id": "MDEyOklzc3VlQ29tbWVudDI3MjE4NDk=",
    "user": {
      "login": "sje397",
      "id": 214252,
      "node_id": "MDQ6VXNlcjIxNDI1Mg==",
      "avatar_url": "https://avatars.githubusercontent.com/u/214252?v=4",
      "gravatar_id": "",
      "url": "https://api.github.com/users/sje397",
      "html_url": "https://github.com/sje397",
      "followers_url": "https://api.github.com/users/sje397/followers",
      "following_url": "https://api.github.com/users/sje397/following{/other_user}",
      "gists_url": "https://api.github.com/users/sje397/gists{/gist_id}",
      "starred_url": "https://api.github.com/users/sje397/starred{/owner}{/repo}",
      "subscriptions_url": "https://api.github.com/users/sje397/subscriptions",
      "organizations_url": "https://api.github.com/users/sje397/orgs",
      "repos_url": "https://api.github.com/users/sje397/repos",
      "events_url": "https://api.github.com/users/sje397/events{/privacy}",
      "received_events_url": "https://api.github.com/users/sje397/received_events",
      "type": "User",
      "site_admin": false
    },
    "created_at": "2011-11-13T11:34:06Z",
    "updated_at": "2011-11-13T11:34:06Z",
    "author_association": "CONTRIBUTOR",
    "body_html": "<p dir=\"auto\">Sorry, I've only got access to my wife's rather ancient android phone which refuses to find the app in the app store for me or install the one I can find on the net.</p>\n<p dir=\"auto\">That app is using Google's ZXing library (<a href=\"http://code.google.com/p/zxing/\" rel=\"nofollow\">http://code.google.com/p/zxing/</a>), and I did test using <a href=\"http://zxing.org/w/decode.jspx\" rel=\"nofollow\">http://zxing.org/w/decode.jspx</a> which uses the same library.</p>\n<p dir=\"auto\">From what I can tell from the source, that app uses the same URI scheme also (the one at <a href=\"https://en.bitcoin.it/wiki/URI_Scheme\" rel=\"nofollow\">https://en.bitcoin.it/wiki/URI_Scheme</a>). The alternative, x-btc (<a href=\"https://en.bitcoin.it/wiki/X-btc\" rel=\"nofollow\">https://en.bitcoin.it/wiki/X-btc</a>) seems a little less popular.</p>",
    "body_text": "Sorry, I've only got access to my wife's rather ancient android phone which refuses to find the app in the app store for me or install the one I can find on the net.\nThat app is using Google's ZXing library (http://code.google.com/p/zxing/), and I did test using http://zxing.org/w/decode.jspx which uses the same library.\nFrom what I can tell from the source, that app uses the same URI scheme also (the one at https://en.bitcoin.it/wiki/URI_Scheme). The alternative, x-btc (https://en.bitcoin.it/wiki/X-btc) seems a little less popular.",
    "body": "Sorry, I've only got access to my wife's rather ancient android phone which refuses to find the app in the app store for me or install the one I can find on the net.\n\nThat app is using Google's ZXing library (http://code.google.com/p/zxing/), and I did test using http://zxing.org/w/decode.jspx which uses the same library.\n\nFrom what I can tell from the source, that app uses the same URI scheme also (the one at https://en.bitcoin.it/wiki/URI_Scheme). The alternative, x-btc (https://en.bitcoin.it/wiki/X-btc) seems a little less popular.\n",
    "reactions": {
      "url": "https://api.github.com/repos/bitcoin/bitcoin/issues/comments/2721849/reactions",
      "total_count": 0,
      "+1": 0,
      "-1": 0,
      "laugh": 0,
      "hooray": 0,
      "confused": 0,
      "heart": 0,
      "rocket": 0,
      "eyes": 0
    },
    "performed_via_github_app": null
  },
  {
    "url": "https://api.github.com/repos/bitcoin/bitcoin/issues/comments/2721852",
    "html_url": "https://github.com/bitcoin/bitcoin/pull/629#issuecomment-2721852",
    "issue_url": "https://api.github.com/repos/bitcoin/bitcoin/issues/629",
    "id": 2721852,
    "node_id": "MDEyOklzc3VlQ29tbWVudDI3MjE4NTI=",
    "user": {
      "login": "mikehearn",
      "id": 971089,
      "node_id": "MDQ6VXNlcjk3MTA4OQ==",
      "avatar_url": "https://avatars.githubusercontent.com/u/971089?v=4",
      "gravatar_id": "",
      "url": "https://api.github.com/users/mikehearn",
      "html_url": "https://github.com/mikehearn",
      "followers_url": "https://api.github.com/users/mikehearn/followers",
      "following_url": "https://api.github.com/users/mikehearn/following{/other_user}",
      "gists_url": "https://api.github.com/users/mikehearn/gists{/gist_id}",
      "starred_url": "https://api.github.com/users/mikehearn/starred{/owner}{/repo}",
      "subscriptions_url": "https://api.github.com/users/mikehearn/subscriptions",
      "organizations_url": "https://api.github.com/users/mikehearn/orgs",
      "repos_url": "https://api.github.com/users/mikehearn/repos",
      "events_url": "https://api.github.com/users/mikehearn/events{/privacy}",
      "received_events_url": "https://api.github.com/users/mikehearn/received_events",
      "type": "User",
      "site_admin": false
    },
    "created_at": "2011-11-13T11:35:10Z",
    "updated_at": "2011-11-13T11:35:10Z",
    "author_association": "CONTRIBUTOR",
    "body_html": "<p dir=\"auto\">Great! If you send me a qrcode generated by this patch I can try scanning<br>\nit.</p>",
    "body_text": "Great! If you send me a qrcode generated by this patch I can try scanning\nit.",
    "body": "Great! If you send me a qrcode generated by this patch I can try scanning\nit.\n",
    "reactions": {
      "url": "https://api.github.com/repos/bitcoin/bitcoin/issues/comments/2721852/reactions",
      "total_count": 0,
      "+1": 0,
      "-1": 0,
      "laugh": 0,
      "hooray": 0,
      "confused": 0,
      "heart": 0,
      "rocket": 0,
      "eyes": 0
    },
    "performed_via_github_app": null
  },
  {
    "url": "https://api.github.com/repos/bitcoin/bitcoin/issues/comments/2721876",
    "html_url": "https://github.com/bitcoin/bitcoin/pull/629#issuecomment-2721876",
    "issue_url": "https://api.github.com/repos/bitcoin/bitcoin/issues/629",
    "id": 2721876,
    "node_id": "MDEyOklzc3VlQ29tbWVudDI3MjE4NzY=",
    "user": {
      "login": "sje397",
      "id": 214252,
      "node_id": "MDQ6VXNlcjIxNDI1Mg==",
      "avatar_url": "https://avatars.githubusercontent.com/u/214252?v=4",
      "gravatar_id": "",
      "url": "https://api.github.com/users/sje397",
      "html_url": "https://github.com/sje397",
      "followers_url": "https://api.github.com/users/sje397/followers",
      "following_url": "https://api.github.com/users/sje397/following{/other_user}",
      "gists_url": "https://api.github.com/users/sje397/gists{/gist_id}",
      "starred_url": "https://api.github.com/users/sje397/starred{/owner}{/repo}",
      "subscriptions_url": "https://api.github.com/users/sje397/subscriptions",
      "organizations_url": "https://api.github.com/users/sje397/orgs",
      "repos_url": "https://api.github.com/users/sje397/repos",
      "events_url": "https://api.github.com/users/sje397/events{/privacy}",
      "received_events_url": "https://api.github.com/users/sje397/received_events",
      "type": "User",
      "site_admin": false
    },
    "created_at": "2011-11-13T11:40:59Z",
    "updated_at": "2011-11-13T11:40:59Z",
    "author_association": "CONTRIBUTOR",
    "body_html": "<p dir=\"auto\"><a class=\"user-mention notranslate\" data-hovercard-type=\"user\" data-hovercard-url=\"/users/mikehearn/hovercard\" data-octo-click=\"hovercard-link-click\" data-octo-dimensions=\"link_type:self\" href=\"https://github.com/mikehearn\">@mikehearn</a> I can do that - what email?</p>",
    "body_text": "@mikehearn I can do that - what email?",
    "body": "@mikehearn I can do that - what email?\n",
    "reactions": {
      "url": "https://api.github.com/repos/bitcoin/bitcoin/issues/comments/2721876/reactions",
      "total_count": 0,
      "+1": 0,
      "-1": 0,
      "laugh": 0,
      "hooray": 0,
      "confused": 0,
      "heart": 0,
      "rocket": 0,
      "eyes": 0
    },
    "performed_via_github_app": null
  },
  {
    "url": "https://api.github.com/repos/bitcoin/bitcoin/issues/comments/2721878",
    "html_url": "https://github.com/bitcoin/bitcoin/pull/629#issuecomment-2721878",
    "issue_url": "https://api.github.com/repos/bitcoin/bitcoin/issues/629",
    "id": 2721878,
    "node_id": "MDEyOklzc3VlQ29tbWVudDI3MjE4Nzg=",
    "user": {
      "login": "mikehearn",
      "id": 971089,
      "node_id": "MDQ6VXNlcjk3MTA4OQ==",
      "avatar_url": "https://avatars.githubusercontent.com/u/971089?v=4",
      "gravatar_id": "",
      "url": "https://api.github.com/users/mikehearn",
      "html_url": "https://github.com/mikehearn",
      "followers_url": "https://api.github.com/users/mikehearn/followers",
      "following_url": "https://api.github.com/users/mikehearn/following{/other_user}",
      "gists_url": "https://api.github.com/users/mikehearn/gists{/gist_id}",
      "starred_url": "https://api.github.com/users/mikehearn/starred{/owner}{/repo}",
      "subscriptions_url": "https://api.github.com/users/mikehearn/subscriptions",
      "organizations_url": "https://api.github.com/users/mikehearn/orgs",
      "repos_url": "https://api.github.com/users/mikehearn/repos",
      "events_url": "https://api.github.com/users/mikehearn/events{/privacy}",
      "received_events_url": "https://api.github.com/users/mikehearn/received_events",
      "type": "User",
      "site_admin": false
    },
    "created_at": "2011-11-13T11:41:31Z",
    "updated_at": "2011-11-13T11:41:31Z",
    "author_association": "CONTRIBUTOR",
    "body_html": "<p dir=\"auto\"><a href=\"mailto:mike@plan99.net\">mike@plan99.net</a></p>",
    "body_text": "mike@plan99.net",
    "body": "mike@plan99.net\n",
    "reactions": {
      "url": "https://api.github.com/repos/bitcoin/bitcoin/issues/comments/2721878/reactions",
      "total_count": 0,
      "+1": 0,
      "-1": 0,
      "laugh": 0,
      "hooray": 0,
      "confused": 0,
      "heart": 0,
      "rocket": 0,
      "eyes": 0
    },
    "performed_via_github_app": null
  },
  {
    "url": "https://api.github.com/repos/bitcoin/bitcoin/issues/comments/2722366",
    "html_url": "https://github.com/bitcoin/bitcoin/pull/629#issuecomment-2722366",
    "issue_url": "https://api.github.com/repos/bitcoin/bitcoin/issues/629",
    "id": 2722366,
    "node_id": "MDEyOklzc3VlQ29tbWVudDI3MjIzNjY=",
    "user": {
      "login": "luke-jr",
      "id": 1095675,
      "node_id": "MDQ6VXNlcjEwOTU2NzU=",
      "avatar_url": "https://avatars.githubusercontent.com/u/1095675?v=4",
      "gravatar_id": "",
      "url": "https://api.github.com/users/luke-jr",
      "html_url": "https://github.com/luke-jr",
      "followers_url": "https://api.github.com/users/luke-jr/followers",
      "following_url": "https://api.github.com/users/luke-jr/following{/other_user}",
      "gists_url": "https://api.github.com/users/luke-jr/gists{/gist_id}",
      "starred_url": "https://api.github.com/users/luke-jr/starred{/owner}{/repo}",
      "subscriptions_url": "https://api.github.com/users/luke-jr/subscriptions",
      "organizations_url": "https://api.github.com/users/luke-jr/orgs",
      "repos_url": "https://api.github.com/users/luke-jr/repos",
      "events_url": "https://api.github.com/users/luke-jr/events{/privacy}",
      "received_events_url": "https://api.github.com/users/luke-jr/received_events",
      "type": "User",
      "site_admin": false
    },
    "created_at": "2011-11-13T13:51:40Z",
    "updated_at": "2011-11-13T13:51:40Z",
    "author_association": "MEMBER",
    "body_html": "<p dir=\"auto\">If the Android app isn't standards compliant, then it should be fixed. That is IMO outside the scope of this pull request. If libqrcode isn't standards compliant, it also should be fixed and is outside the scope of this code as well. I did confirm that it works with my N900's QR Code reader (mBarcode on Maemo), except for being detected as a URI (I presume they're using a known URI scheme list).</p>",
    "body_text": "If the Android app isn't standards compliant, then it should be fixed. That is IMO outside the scope of this pull request. If libqrcode isn't standards compliant, it also should be fixed and is outside the scope of this code as well. I did confirm that it works with my N900's QR Code reader (mBarcode on Maemo), except for being detected as a URI (I presume they're using a known URI scheme list).",
    "body": "If the Android app isn't standards compliant, then it should be fixed. That is IMO outside the scope of this pull request. If libqrcode isn't standards compliant, it also should be fixed and is outside the scope of this code as well. I did confirm that it works with my N900's QR Code reader (mBarcode on Maemo), except for being detected as a URI (I presume they're using a known URI scheme list).\n",
    "reactions": {
      "url": "https://api.github.com/repos/bitcoin/bitcoin/issues/comments/2722366/reactions",
      "total_count": 0,
      "+1": 0,
      "-1": 0,
      "laugh": 0,
      "hooray": 0,
      "confused": 0,
      "heart": 0,
      "rocket": 0,
      "eyes": 0
    },
    "performed_via_github_app": null
  },
  {
    "url": "https://api.github.com/repos/bitcoin/bitcoin/issues/comments/2722374",
    "html_url": "https://github.com/bitcoin/bitcoin/pull/629#issuecomment-2722374",
    "issue_url": "https://api.github.com/repos/bitcoin/bitcoin/issues/629",
    "id": 2722374,
    "node_id": "MDEyOklzc3VlQ29tbWVudDI3MjIzNzQ=",
    "user": {
      "login": "mikehearn",
      "id": 971089,
      "node_id": "MDQ6VXNlcjk3MTA4OQ==",
      "avatar_url": "https://avatars.githubusercontent.com/u/971089?v=4",
      "gravatar_id": "",
      "url": "https://api.github.com/users/mikehearn",
      "html_url": "https://github.com/mikehearn",
      "followers_url": "https://api.github.com/users/mikehearn/followers",
      "following_url": "https://api.github.com/users/mikehearn/following{/other_user}",
      "gists_url": "https://api.github.com/users/mikehearn/gists{/gist_id}",
      "starred_url": "https://api.github.com/users/mikehearn/starred{/owner}{/repo}",
      "subscriptions_url": "https://api.github.com/users/mikehearn/subscriptions",
      "organizations_url": "https://api.github.com/users/mikehearn/orgs",
      "repos_url": "https://api.github.com/users/mikehearn/repos",
      "events_url": "https://api.github.com/users/mikehearn/events{/privacy}",
      "received_events_url": "https://api.github.com/users/mikehearn/received_events",
      "type": "User",
      "site_admin": false
    },
    "created_at": "2011-11-13T13:53:22Z",
    "updated_at": "2011-11-13T13:53:22Z",
    "author_association": "CONTRIBUTOR",
    "body_html": "<p dir=\"auto\">It works with the Android app :) It's best to do interop testing early so<br>\nissues can be found wherever they lie. Seems like the app doesn't use the<br>\nlabel/message fields though.</p>",
    "body_text": "It works with the Android app :) It's best to do interop testing early so\nissues can be found wherever they lie. Seems like the app doesn't use the\nlabel/message fields though.",
    "body": "It works with the Android app :) It's best to do interop testing early so\nissues can be found wherever they lie. Seems like the app doesn't use the\nlabel/message fields though.\n",
    "reactions": {
      "url": "https://api.github.com/repos/bitcoin/bitcoin/issues/comments/2722374/reactions",
      "total_count": 0,
      "+1": 0,
      "-1": 0,
      "laugh": 0,
      "hooray": 0,
      "confused": 0,
      "heart": 0,
      "rocket": 0,
      "eyes": 0
    },
    "performed_via_github_app": null
  },
  {
    "url": "https://api.github.com/repos/bitcoin/bitcoin/issues/comments/2722386",
    "html_url": "https://github.com/bitcoin/bitcoin/pull/629#issuecomment-2722386",
    "issue_url": "https://api.github.com/repos/bitcoin/bitcoin/issues/629",
    "id": 2722386,
    "node_id": "MDEyOklzc3VlQ29tbWVudDI3MjIzODY=",
    "user": {
      "login": "luke-jr",
      "id": 1095675,
      "node_id": "MDQ6VXNlcjEwOTU2NzU=",
      "avatar_url": "https://avatars.githubusercontent.com/u/1095675?v=4",
      "gravatar_id": "",
      "url": "https://api.github.com/users/luke-jr",
      "html_url": "https://github.com/luke-jr",
      "followers_url": "https://api.github.com/users/luke-jr/followers",
      "following_url": "https://api.github.com/users/luke-jr/following{/other_user}",
      "gists_url": "https://api.github.com/users/luke-jr/gists{/gist_id}",
      "starred_url": "https://api.github.com/users/luke-jr/starred{/owner}{/repo}",
      "subscriptions_url": "https://api.github.com/users/luke-jr/subscriptions",
      "organizations_url": "https://api.github.com/users/luke-jr/orgs",
      "repos_url": "https://api.github.com/users/luke-jr/repos",
      "events_url": "https://api.github.com/users/luke-jr/events{/privacy}",
      "received_events_url": "https://api.github.com/users/luke-jr/received_events",
      "type": "User",
      "site_admin": false
    },
    "created_at": "2011-11-13T13:56:41Z",
    "updated_at": "2011-11-13T13:56:41Z",
    "author_association": "MEMBER",
    "body_html": "<p dir=\"auto\">Most apps don't, I think.</p>",
    "body_text": "Most apps don't, I think.",
    "body": "Most apps don't, I think.\n",
    "reactions": {
      "url": "https://api.github.com/repos/bitcoin/bitcoin/issues/comments/2722386/reactions",
      "total_count": 0,
      "+1": 0,
      "-1": 0,
      "laugh": 0,
      "hooray": 0,
      "confused": 0,
      "heart": 0,
      "rocket": 0,
      "eyes": 0
    },
    "performed_via_github_app": null
  },
  {
    "url": "https://api.github.com/repos/bitcoin/bitcoin/issues/comments/3209235",
    "html_url": "https://github.com/bitcoin/bitcoin/pull/629#issuecomment-3209235",
    "issue_url": "https://api.github.com/repos/bitcoin/bitcoin/issues/629",
    "id": 3209235,
    "node_id": "MDEyOklzc3VlQ29tbWVudDMyMDkyMzU=",
    "user": {
      "login": "gavinandresen",
      "id": 331997,
      "node_id": "MDQ6VXNlcjMzMTk5Nw==",
      "avatar_url": "https://avatars.githubusercontent.com/u/331997?v=4",
      "gravatar_id": "",
      "url": "https://api.github.com/users/gavinandresen",
      "html_url": "https://github.com/gavinandresen",
      "followers_url": "https://api.github.com/users/gavinandresen/followers",
      "following_url": "https://api.github.com/users/gavinandresen/following{/other_user}",
      "gists_url": "https://api.github.com/users/gavinandresen/gists{/gist_id}",
      "starred_url": "https://api.github.com/users/gavinandresen/starred{/owner}{/repo}",
      "subscriptions_url": "https://api.github.com/users/gavinandresen/subscriptions",
      "organizations_url": "https://api.github.com/users/gavinandresen/orgs",
      "repos_url": "https://api.github.com/users/gavinandresen/repos",
      "events_url": "https://api.github.com/users/gavinandresen/events{/privacy}",
      "received_events_url": "https://api.github.com/users/gavinandresen/received_events",
      "type": "User",
      "site_admin": false
    },
    "created_at": "2011-12-19T20:45:17Z",
    "updated_at": "2011-12-19T20:45:17Z",
    "author_association": "CONTRIBUTOR",
    "body_html": "<p dir=\"auto\">NACK: see <a href=\"http://imgur.com/Ljrgg\" rel=\"nofollow\">http://imgur.com/Ljrgg</a><br>\nOn my Mac, showing the QR code for one of my receiving addresses I get too-skinny-text-boxes for Label and Message.</p>",
    "body_text": "NACK: see http://imgur.com/Ljrgg\nOn my Mac, showing the QR code for one of my receiving addresses I get too-skinny-text-boxes for Label and Message.",
    "body": "NACK: see http://imgur.com/Ljrgg\nOn my Mac, showing the QR code for one of my receiving addresses I get too-skinny-text-boxes for Label and Message.\n",
    "reactions": {
      "url": "https://api.github.com/repos/bitcoin/bitcoin/issues/comments/3209235/reactions",
      "total_count": 0,
      "+1": 0,
      "-1": 0,
      "laugh": 0,
      "hooray": 0,
      "confused": 0,
      "heart": 0,
      "rocket": 0,
      "eyes": 0
    },
    "performed_via_github_app": null
  },
  {
    "url": "https://api.github.com/repos/bitcoin/bitcoin/issues/comments/3209292",
    "html_url": "https://github.com/bitcoin/bitcoin/pull/629#issuecomment-3209292",
    "issue_url": "https://api.github.com/repos/bitcoin/bitcoin/issues/629",
    "id": 3209292,
    "node_id": "MDEyOklzc3VlQ29tbWVudDMyMDkyOTI=",
    "user": {
      "login": "gavinandresen",
      "id": 331997,
      "node_id": "MDQ6VXNlcjMzMTk5Nw==",
      "avatar_url": "https://avatars.githubusercontent.com/u/331997?v=4",
      "gravatar_id": "",
      "url": "https://api.github.com/users/gavinandresen",
      "html_url": "https://github.com/gavinandresen",
      "followers_url": "https://api.github.com/users/gavinandresen/followers",
      "following_url": "https://api.github.com/users/gavinandresen/following{/other_user}",
      "gists_url": "https://api.github.com/users/gavinandresen/gists{/gist_id}",
      "starred_url": "https://api.github.com/users/gavinandresen/starred{/owner}{/repo}",
      "subscriptions_url": "https://api.github.com/users/gavinandresen/subscriptions",
      "organizations_url": "https://api.github.com/users/gavinandresen/orgs",
      "repos_url": "https://api.github.com/users/gavinandresen/repos",
      "events_url": "https://api.github.com/users/gavinandresen/events{/privacy}",
      "received_events_url": "https://api.github.com/users/gavinandresen/received_events",
      "type": "User",
      "site_admin": false
    },
    "created_at": "2011-12-19T20:49:37Z",
    "updated_at": "2011-12-19T20:49:37Z",
    "author_association": "CONTRIBUTOR",
    "body_html": "<p dir=\"auto\">Really cool feature, by the way.</p>\n<p dir=\"auto\">But could you also update doc/build-*.txt for instructions on how to get libqrencode<br>\n(on the mac, 'port install qrencode' works nicely)</p>\n<p dir=\"auto\">It'd be really nice if the contrib/gitian-descriptors/gitian-*.yml files were modified to build with qrencode support, too...</p>",
    "body_text": "Really cool feature, by the way.\nBut could you also update doc/build-*.txt for instructions on how to get libqrencode\n(on the mac, 'port install qrencode' works nicely)\nIt'd be really nice if the contrib/gitian-descriptors/gitian-*.yml files were modified to build with qrencode support, too...",
    "body": "Really cool feature, by the way.\n\nBut could you also update doc/build-*.txt for instructions on how to get libqrencode\n (on the mac, 'port install qrencode' works nicely)\n\nIt'd be really nice if the contrib/gitian-descriptors/gitian-*.yml files were modified to build with qrencode support, too...\n",
    "reactions": {
      "url": "https://api.github.com/repos/bitcoin/bitcoin/issues/comments/3209292/reactions",
      "total_count": 0,
      "+1": 0,
      "-1": 0,
      "laugh": 0,
      "hooray": 0,
      "confused": 0,
      "heart": 0,
      "rocket": 0,
      "eyes": 0
    },
    "performed_via_github_app": null
  },
  {
    "url": "https://api.github.com/repos/bitcoin/bitcoin/issues/comments/3217513",
    "html_url": "https://github.com/bitcoin/bitcoin/pull/629#issuecomment-3217513",
    "issue_url": "https://api.github.com/repos/bitcoin/bitcoin/issues/629",
    "id": 3217513,
    "node_id": "MDEyOklzc3VlQ29tbWVudDMyMTc1MTM=",
    "user": {
      "login": "sje397",
      "id": 214252,
      "node_id": "MDQ6VXNlcjIxNDI1Mg==",
      "avatar_url": "https://avatars.githubusercontent.com/u/214252?v=4",
      "gravatar_id": "",
      "url": "https://api.github.com/users/sje397",
      "html_url": "https://github.com/sje397",
      "followers_url": "https://api.github.com/users/sje397/followers",
      "following_url": "https://api.github.com/users/sje397/following{/other_user}",
      "gists_url": "https://api.github.com/users/sje397/gists{/gist_id}",
      "starred_url": "https://api.github.com/users/sje397/starred{/owner}{/repo}",
      "subscriptions_url": "https://api.github.com/users/sje397/subscriptions",
      "organizations_url": "https://api.github.com/users/sje397/orgs",
      "repos_url": "https://api.github.com/users/sje397/repos",
      "events_url": "https://api.github.com/users/sje397/events{/privacy}",
      "received_events_url": "https://api.github.com/users/sje397/received_events",
      "type": "User",
      "site_admin": false
    },
    "created_at": "2011-12-20T11:16:03Z",
    "updated_at": "2011-12-20T11:18:04Z",
    "author_association": "CONTRIBUTOR",
    "body_html": "<p dir=\"auto\">Hi Gavin - I reorganised the dialog and added minimum sizes to those fields. I updated the Linux and OSX build docs, and added the 'qrencode' package to the gitian.yml file. I don't have a windows dev box to do any testing there or any experience with gitian builds so I'm reluctant to get into that stuff. I also updated makefile.osx to link qrencode (dynamically) if USE_QRCODE=1 is set - but again I don't have a Mac here to test.</p>",
    "body_text": "Hi Gavin - I reorganised the dialog and added minimum sizes to those fields. I updated the Linux and OSX build docs, and added the 'qrencode' package to the gitian.yml file. I don't have a windows dev box to do any testing there or any experience with gitian builds so I'm reluctant to get into that stuff. I also updated makefile.osx to link qrencode (dynamically) if USE_QRCODE=1 is set - but again I don't have a Mac here to test.",
    "body": "Hi Gavin - I reorganised the dialog and added minimum sizes to those fields. I updated the Linux and OSX build docs, and added the 'qrencode' package to the gitian.yml file. I don't have a windows dev box to do any testing there or any experience with gitian builds so I'm reluctant to get into that stuff. I also updated makefile.osx to link qrencode (dynamically) if USE_QRCODE=1 is set - but again I don't have a Mac here to test.\n",
    "reactions": {
      "url": "https://api.github.com/repos/bitcoin/bitcoin/issues/comments/3217513/reactions",
      "total_count": 0,
      "+1": 0,
      "-1": 0,
      "laugh": 0,
      "hooray": 0,
      "confused": 0,
      "heart": 0,
      "rocket": 0,
      "eyes": 0
    },
    "performed_via_github_app": null
  }
]
