[
  {
    "url": "https://api.github.com/repos/bitcoin/bitcoin/issues/comments/355064314",
    "html_url": "https://github.com/bitcoin/bitcoin/pull/12076#issuecomment-355064314",
    "issue_url": "https://api.github.com/repos/bitcoin/bitcoin/issues/12076",
    "id": 355064314,
    "node_id": "MDEyOklzc3VlQ29tbWVudDM1NTA2NDMxNA==",
    "user": {
      "login": "promag",
      "id": 3534524,
      "node_id": "MDQ6VXNlcjM1MzQ1MjQ=",
      "avatar_url": "https://avatars.githubusercontent.com/u/3534524?v=4",
      "gravatar_id": "",
      "url": "https://api.github.com/users/promag",
      "html_url": "https://github.com/promag",
      "followers_url": "https://api.github.com/users/promag/followers",
      "following_url": "https://api.github.com/users/promag/following{/other_user}",
      "gists_url": "https://api.github.com/users/promag/gists{/gist_id}",
      "starred_url": "https://api.github.com/users/promag/starred{/owner}{/repo}",
      "subscriptions_url": "https://api.github.com/users/promag/subscriptions",
      "organizations_url": "https://api.github.com/users/promag/orgs",
      "repos_url": "https://api.github.com/users/promag/repos",
      "events_url": "https://api.github.com/users/promag/events{/privacy}",
      "received_events_url": "https://api.github.com/users/promag/received_events",
      "type": "User",
      "site_admin": false
    },
    "created_at": "2018-01-03T16:57:06Z",
    "updated_at": "2018-01-03T16:57:06Z",
    "author_association": "MEMBER",
    "body_html": "<p dir=\"auto\">utACK fa3dda1, will check for missing changes.</p>",
    "body_text": "utACK fa3dda1, will check for missing changes.",
    "body": "utACK fa3dda1, will check for missing changes.",
    "reactions": {
      "url": "https://api.github.com/repos/bitcoin/bitcoin/issues/comments/355064314/reactions",
      "total_count": 0,
      "+1": 0,
      "-1": 0,
      "laugh": 0,
      "hooray": 0,
      "confused": 0,
      "heart": 0,
      "rocket": 0,
      "eyes": 0
    },
    "performed_via_github_app": null
  },
  {
    "url": "https://api.github.com/repos/bitcoin/bitcoin/issues/comments/356061113",
    "html_url": "https://github.com/bitcoin/bitcoin/pull/12076#issuecomment-356061113",
    "issue_url": "https://api.github.com/repos/bitcoin/bitcoin/issues/12076",
    "id": 356061113,
    "node_id": "MDEyOklzc3VlQ29tbWVudDM1NjA2MTExMw==",
    "user": {
      "login": "jnewbery",
      "id": 1063656,
      "node_id": "MDQ6VXNlcjEwNjM2NTY=",
      "avatar_url": "https://avatars.githubusercontent.com/u/1063656?v=4",
      "gravatar_id": "",
      "url": "https://api.github.com/users/jnewbery",
      "html_url": "https://github.com/jnewbery",
      "followers_url": "https://api.github.com/users/jnewbery/followers",
      "following_url": "https://api.github.com/users/jnewbery/following{/other_user}",
      "gists_url": "https://api.github.com/users/jnewbery/gists{/gist_id}",
      "starred_url": "https://api.github.com/users/jnewbery/starred{/owner}{/repo}",
      "subscriptions_url": "https://api.github.com/users/jnewbery/subscriptions",
      "organizations_url": "https://api.github.com/users/jnewbery/orgs",
      "repos_url": "https://api.github.com/users/jnewbery/repos",
      "events_url": "https://api.github.com/users/jnewbery/events{/privacy}",
      "received_events_url": "https://api.github.com/users/jnewbery/received_events",
      "type": "User",
      "site_admin": false
    },
    "created_at": "2018-01-08T19:00:58Z",
    "updated_at": "2018-01-08T19:00:58Z",
    "author_association": "CONTRIBUTOR",
    "body_html": "<p dir=\"auto\">concept ACK.</p>\n<p dir=\"auto\">What are the benefits of using <code class=\"notranslate\">self.node_path(i)</code> over <code class=\"notranslate\">self.nodes[i].datadir</code>?</p>",
    "body_text": "concept ACK.\nWhat are the benefits of using self.node_path(i) over self.nodes[i].datadir?",
    "body": "concept ACK.\r\n\r\nWhat are the benefits of using `self.node_path(i)` over `self.nodes[i].datadir`?",
    "reactions": {
      "url": "https://api.github.com/repos/bitcoin/bitcoin/issues/comments/356061113/reactions",
      "total_count": 0,
      "+1": 0,
      "-1": 0,
      "laugh": 0,
      "hooray": 0,
      "confused": 0,
      "heart": 0,
      "rocket": 0,
      "eyes": 0
    },
    "performed_via_github_app": null
  },
  {
    "url": "https://api.github.com/repos/bitcoin/bitcoin/issues/comments/356067569",
    "html_url": "https://github.com/bitcoin/bitcoin/pull/12076#issuecomment-356067569",
    "issue_url": "https://api.github.com/repos/bitcoin/bitcoin/issues/12076",
    "id": 356067569,
    "node_id": "MDEyOklzc3VlQ29tbWVudDM1NjA2NzU2OQ==",
    "user": {
      "login": "promag",
      "id": 3534524,
      "node_id": "MDQ6VXNlcjM1MzQ1MjQ=",
      "avatar_url": "https://avatars.githubusercontent.com/u/3534524?v=4",
      "gravatar_id": "",
      "url": "https://api.github.com/users/promag",
      "html_url": "https://github.com/promag",
      "followers_url": "https://api.github.com/users/promag/followers",
      "following_url": "https://api.github.com/users/promag/following{/other_user}",
      "gists_url": "https://api.github.com/users/promag/gists{/gist_id}",
      "starred_url": "https://api.github.com/users/promag/starred{/owner}{/repo}",
      "subscriptions_url": "https://api.github.com/users/promag/subscriptions",
      "organizations_url": "https://api.github.com/users/promag/orgs",
      "repos_url": "https://api.github.com/users/promag/repos",
      "events_url": "https://api.github.com/users/promag/events{/privacy}",
      "received_events_url": "https://api.github.com/users/promag/received_events",
      "type": "User",
      "site_admin": false
    },
    "created_at": "2018-01-08T19:19:17Z",
    "updated_at": "2018-01-08T19:19:17Z",
    "author_association": "MEMBER",
    "body_html": "<p dir=\"auto\">Implicit path join.</p>",
    "body_text": "Implicit path join.",
    "body": "Implicit path join.",
    "reactions": {
      "url": "https://api.github.com/repos/bitcoin/bitcoin/issues/comments/356067569/reactions",
      "total_count": 0,
      "+1": 0,
      "-1": 0,
      "laugh": 0,
      "hooray": 0,
      "confused": 0,
      "heart": 0,
      "rocket": 0,
      "eyes": 0
    },
    "performed_via_github_app": null
  },
  {
    "url": "https://api.github.com/repos/bitcoin/bitcoin/issues/comments/356074188",
    "html_url": "https://github.com/bitcoin/bitcoin/pull/12076#issuecomment-356074188",
    "issue_url": "https://api.github.com/repos/bitcoin/bitcoin/issues/12076",
    "id": 356074188,
    "node_id": "MDEyOklzc3VlQ29tbWVudDM1NjA3NDE4OA==",
    "user": {
      "login": "jnewbery",
      "id": 1063656,
      "node_id": "MDQ6VXNlcjEwNjM2NTY=",
      "avatar_url": "https://avatars.githubusercontent.com/u/1063656?v=4",
      "gravatar_id": "",
      "url": "https://api.github.com/users/jnewbery",
      "html_url": "https://github.com/jnewbery",
      "followers_url": "https://api.github.com/users/jnewbery/followers",
      "following_url": "https://api.github.com/users/jnewbery/following{/other_user}",
      "gists_url": "https://api.github.com/users/jnewbery/gists{/gist_id}",
      "starred_url": "https://api.github.com/users/jnewbery/starred{/owner}{/repo}",
      "subscriptions_url": "https://api.github.com/users/jnewbery/subscriptions",
      "organizations_url": "https://api.github.com/users/jnewbery/orgs",
      "repos_url": "https://api.github.com/users/jnewbery/repos",
      "events_url": "https://api.github.com/users/jnewbery/events{/privacy}",
      "received_events_url": "https://api.github.com/users/jnewbery/received_events",
      "type": "User",
      "site_admin": false
    },
    "created_at": "2018-01-08T19:42:54Z",
    "updated_at": "2018-01-08T19:42:54Z",
    "author_association": "CONTRIBUTOR",
    "body_html": "<p dir=\"auto\">ok, let me rephrase: what are the benefits of implementing this as a method on <code class=\"notranslate\">BitcoinTestFramework</code> rather than on <code class=\"notranslate\">TestNode</code>?</p>",
    "body_text": "ok, let me rephrase: what are the benefits of implementing this as a method on BitcoinTestFramework rather than on TestNode?",
    "body": "ok, let me rephrase: what are the benefits of implementing this as a method on `BitcoinTestFramework` rather than on `TestNode`?",
    "reactions": {
      "url": "https://api.github.com/repos/bitcoin/bitcoin/issues/comments/356074188/reactions",
      "total_count": 0,
      "+1": 0,
      "-1": 0,
      "laugh": 0,
      "hooray": 0,
      "confused": 0,
      "heart": 0,
      "rocket": 0,
      "eyes": 0
    },
    "performed_via_github_app": null
  },
  {
    "url": "https://api.github.com/repos/bitcoin/bitcoin/issues/comments/356090305",
    "html_url": "https://github.com/bitcoin/bitcoin/pull/12076#issuecomment-356090305",
    "issue_url": "https://api.github.com/repos/bitcoin/bitcoin/issues/12076",
    "id": 356090305,
    "node_id": "MDEyOklzc3VlQ29tbWVudDM1NjA5MDMwNQ==",
    "user": {
      "login": "promag",
      "id": 3534524,
      "node_id": "MDQ6VXNlcjM1MzQ1MjQ=",
      "avatar_url": "https://avatars.githubusercontent.com/u/3534524?v=4",
      "gravatar_id": "",
      "url": "https://api.github.com/users/promag",
      "html_url": "https://github.com/promag",
      "followers_url": "https://api.github.com/users/promag/followers",
      "following_url": "https://api.github.com/users/promag/following{/other_user}",
      "gists_url": "https://api.github.com/users/promag/gists{/gist_id}",
      "starred_url": "https://api.github.com/users/promag/starred{/owner}{/repo}",
      "subscriptions_url": "https://api.github.com/users/promag/subscriptions",
      "organizations_url": "https://api.github.com/users/promag/orgs",
      "repos_url": "https://api.github.com/users/promag/repos",
      "events_url": "https://api.github.com/users/promag/events{/privacy}",
      "received_events_url": "https://api.github.com/users/promag/received_events",
      "type": "User",
      "site_admin": false
    },
    "created_at": "2018-01-08T20:43:42Z",
    "updated_at": "2018-01-08T20:43:42Z",
    "author_association": "MEMBER",
    "body_html": "<p dir=\"auto\"><a class=\"user-mention notranslate\" data-hovercard-type=\"user\" data-hovercard-url=\"/users/jnewbery/hovercard\" data-octo-click=\"hovercard-link-click\" data-octo-dimensions=\"link_type:self\" href=\"https://github.com/jnewbery\">@jnewbery</a> I guess either are ok. You prefer <code class=\"notranslate\">node[i].path()</code> or something like that? My suggestion was to avoid <code class=\"notranslate\">os.path.join()</code> or <code class=\"notranslate\">datadir + '/' foo</code> all over the tests.</p>",
    "body_text": "@jnewbery I guess either are ok. You prefer node[i].path() or something like that? My suggestion was to avoid os.path.join() or datadir + '/' foo all over the tests.",
    "body": "@jnewbery I guess either are ok. You prefer `node[i].path()` or something like that? My suggestion was to avoid `os.path.join()` or `datadir + '/' foo` all over the tests.",
    "reactions": {
      "url": "https://api.github.com/repos/bitcoin/bitcoin/issues/comments/356090305/reactions",
      "total_count": 0,
      "+1": 0,
      "-1": 0,
      "laugh": 0,
      "hooray": 0,
      "confused": 0,
      "heart": 0,
      "rocket": 0,
      "eyes": 0
    },
    "performed_via_github_app": null
  }
]
