{
  "url": "https://api.github.com/repos/bitcoin/bitcoin/issues/3846",
  "repository_url": "https://api.github.com/repos/bitcoin/bitcoin",
  "labels_url": "https://api.github.com/repos/bitcoin/bitcoin/issues/3846/labels{/name}",
  "comments_url": "https://api.github.com/repos/bitcoin/bitcoin/issues/3846/comments",
  "events_url": "https://api.github.com/repos/bitcoin/bitcoin/issues/3846/events",
  "html_url": "https://github.com/bitcoin/bitcoin/pull/3846",
  "id": 29179197,
  "node_id": "MDExOlB1bGxSZXF1ZXN0MTM0MjA3MzM=",
  "number": 3846,
  "title": "[Qt] Fix coin control qt5 checkbox bug in tree mode",
  "user": {
    "login": "cozz",
    "id": 2814559,
    "node_id": "MDQ6VXNlcjI4MTQ1NTk=",
    "avatar_url": "https://avatars.githubusercontent.com/u/2814559?v=4",
    "gravatar_id": "",
    "url": "https://api.github.com/users/cozz",
    "html_url": "https://github.com/cozz",
    "followers_url": "https://api.github.com/users/cozz/followers",
    "following_url": "https://api.github.com/users/cozz/following{/other_user}",
    "gists_url": "https://api.github.com/users/cozz/gists{/gist_id}",
    "starred_url": "https://api.github.com/users/cozz/starred{/owner}{/repo}",
    "subscriptions_url": "https://api.github.com/users/cozz/subscriptions",
    "organizations_url": "https://api.github.com/users/cozz/orgs",
    "repos_url": "https://api.github.com/users/cozz/repos",
    "events_url": "https://api.github.com/users/cozz/events{/privacy}",
    "received_events_url": "https://api.github.com/users/cozz/received_events",
    "type": "User",
    "site_admin": false
  },
  "labels": [

  ],
  "state": "closed",
  "locked": true,
  "assignee": null,
  "assignees": [

  ],
  "milestone": null,
  "comments": 3,
  "created_at": "2014-03-11T13:46:59Z",
  "updated_at": "2021-09-08T10:32:11Z",
  "closed_at": "2014-03-13T14:19:36Z",
  "author_association": "CONTRIBUTOR",
  "active_lock_reason": "resolved",
  "draft": false,
  "pull_request": {
    "url": "https://api.github.com/repos/bitcoin/bitcoin/pulls/3846",
    "html_url": "https://github.com/bitcoin/bitcoin/pull/3846",
    "diff_url": "https://github.com/bitcoin/bitcoin/pull/3846.diff",
    "patch_url": "https://github.com/bitcoin/bitcoin/pull/3846.patch",
    "merged_at": "2014-03-13T14:19:36Z"
  },
  "body_html": "<p dir=\"auto\">There is a qt5 bug in how the treewidget handles checkboxes in treemode.<br>\nNothing critical, does not affect coin control, but the checkboxes appear to be buggy to the user.<br>\nSee inline code comment.</p>\n<p dir=\"auto\">Fixes point 3 of <a class=\"issue-link js-issue-link\" data-error-text=\"Failed to load title\" data-id=\"29131659\" data-permission-text=\"Title is private\" data-url=\"https://github.com/bitcoin/bitcoin/issues/3840\" data-hovercard-type=\"issue\" data-hovercard-url=\"/bitcoin/bitcoin/issues/3840/hovercard\" href=\"https://github.com/bitcoin/bitcoin/issues/3840\">#3840</a>.</p>",
  "body_text": "There is a qt5 bug in how the treewidget handles checkboxes in treemode.\nNothing critical, does not affect coin control, but the checkboxes appear to be buggy to the user.\nSee inline code comment.\nFixes point 3 of #3840.",
  "body": "There is a qt5 bug in how the treewidget handles checkboxes in treemode.\nNothing critical, does not affect coin control, but the checkboxes appear to be buggy to the user.\nSee inline code comment.\n\nFixes point 3 of #3840.\n",
  "closed_by": {
    "login": "laanwj",
    "id": 126646,
    "node_id": "MDQ6VXNlcjEyNjY0Ng==",
    "avatar_url": "https://avatars.githubusercontent.com/u/126646?v=4",
    "gravatar_id": "",
    "url": "https://api.github.com/users/laanwj",
    "html_url": "https://github.com/laanwj",
    "followers_url": "https://api.github.com/users/laanwj/followers",
    "following_url": "https://api.github.com/users/laanwj/following{/other_user}",
    "gists_url": "https://api.github.com/users/laanwj/gists{/gist_id}",
    "starred_url": "https://api.github.com/users/laanwj/starred{/owner}{/repo}",
    "subscriptions_url": "https://api.github.com/users/laanwj/subscriptions",
    "organizations_url": "https://api.github.com/users/laanwj/orgs",
    "repos_url": "https://api.github.com/users/laanwj/repos",
    "events_url": "https://api.github.com/users/laanwj/events{/privacy}",
    "received_events_url": "https://api.github.com/users/laanwj/received_events",
    "type": "User",
    "site_admin": false
  },
  "reactions": {
    "url": "https://api.github.com/repos/bitcoin/bitcoin/issues/3846/reactions",
    "total_count": 0,
    "+1": 0,
    "-1": 0,
    "laugh": 0,
    "hooray": 0,
    "confused": 0,
    "heart": 0,
    "rocket": 0,
    "eyes": 0
  },
  "timeline_url": "https://api.github.com/repos/bitcoin/bitcoin/issues/3846/timeline",
  "performed_via_github_app": null,
  "state_reason": null
}
