{
  "url": "https://api.github.com/repos/bitcoin/bitcoin/issues/21946",
  "repository_url": "https://api.github.com/repos/bitcoin/bitcoin",
  "labels_url": "https://api.github.com/repos/bitcoin/bitcoin/issues/21946/labels{/name}",
  "comments_url": "https://api.github.com/repos/bitcoin/bitcoin/issues/21946/comments",
  "events_url": "https://api.github.com/repos/bitcoin/bitcoin/issues/21946/events",
  "html_url": "https://github.com/bitcoin/bitcoin/pull/21946",
  "id": 891258971,
  "node_id": "MDExOlB1bGxSZXF1ZXN0NjQ0MTUzOTA2",
  "number": 21946,
  "title": "Document and test lack of inherited signaling in RBF policy",
  "user": {
    "login": "ariard",
    "id": 23310655,
    "node_id": "MDQ6VXNlcjIzMzEwNjU1",
    "avatar_url": "https://avatars.githubusercontent.com/u/23310655?v=4",
    "gravatar_id": "",
    "url": "https://api.github.com/users/ariard",
    "html_url": "https://github.com/ariard",
    "followers_url": "https://api.github.com/users/ariard/followers",
    "following_url": "https://api.github.com/users/ariard/following{/other_user}",
    "gists_url": "https://api.github.com/users/ariard/gists{/gist_id}",
    "starred_url": "https://api.github.com/users/ariard/starred{/owner}{/repo}",
    "subscriptions_url": "https://api.github.com/users/ariard/subscriptions",
    "organizations_url": "https://api.github.com/users/ariard/orgs",
    "repos_url": "https://api.github.com/users/ariard/repos",
    "events_url": "https://api.github.com/users/ariard/events{/privacy}",
    "received_events_url": "https://api.github.com/users/ariard/received_events",
    "type": "User",
    "site_admin": false
  },
  "labels": [
    {
      "id": 118379652,
      "node_id": "MDU6TGFiZWwxMTgzNzk2NTI=",
      "url": "https://api.github.com/repos/bitcoin/bitcoin/labels/Validation",
      "name": "Validation",
      "color": "6060aa",
      "default": false,
      "description": null
    }
  ],
  "state": "closed",
  "locked": true,
  "assignee": null,
  "assignees": [

  ],
  "milestone": null,
  "comments": 13,
  "created_at": "2021-05-13T18:15:56Z",
  "updated_at": "2022-08-16T17:24:10Z",
  "closed_at": "2021-06-08T15:02:10Z",
  "author_association": "MEMBER",
  "active_lock_reason": "resolved",
  "draft": false,
  "pull_request": {
    "url": "https://api.github.com/repos/bitcoin/bitcoin/pulls/21946",
    "html_url": "https://github.com/bitcoin/bitcoin/pull/21946",
    "diff_url": "https://github.com/bitcoin/bitcoin/pull/21946.diff",
    "patch_url": "https://github.com/bitcoin/bitcoin/pull/21946.patch",
    "merged_at": "2021-06-08T15:02:10Z"
  },
  "body_html": "<p dir=\"auto\">Contrary to BIP125 or other full-node implementation (e.g btcd), Bitcoin Core's mempool policy doesn't implement inherited signaling.</p>\n<p dir=\"auto\">This PR documents our mempool behavior on this and add a test demonstrating the case.</p>",
  "body_text": "Contrary to BIP125 or other full-node implementation (e.g btcd), Bitcoin Core's mempool policy doesn't implement inherited signaling.\nThis PR documents our mempool behavior on this and add a test demonstrating the case.",
  "body": "Contrary to BIP125 or other full-node implementation (e.g btcd), Bitcoin Core's mempool policy doesn't implement inherited signaling. \r\n\r\nThis PR documents our mempool behavior on this and add a test demonstrating the case.\r\n\r\n",
  "closed_by": {
    "login": "maflcko",
    "id": 6399679,
    "node_id": "MDQ6VXNlcjYzOTk2Nzk=",
    "avatar_url": "https://avatars.githubusercontent.com/u/6399679?v=4",
    "gravatar_id": "",
    "url": "https://api.github.com/users/maflcko",
    "html_url": "https://github.com/maflcko",
    "followers_url": "https://api.github.com/users/maflcko/followers",
    "following_url": "https://api.github.com/users/maflcko/following{/other_user}",
    "gists_url": "https://api.github.com/users/maflcko/gists{/gist_id}",
    "starred_url": "https://api.github.com/users/maflcko/starred{/owner}{/repo}",
    "subscriptions_url": "https://api.github.com/users/maflcko/subscriptions",
    "organizations_url": "https://api.github.com/users/maflcko/orgs",
    "repos_url": "https://api.github.com/users/maflcko/repos",
    "events_url": "https://api.github.com/users/maflcko/events{/privacy}",
    "received_events_url": "https://api.github.com/users/maflcko/received_events",
    "type": "User",
    "site_admin": false
  },
  "reactions": {
    "url": "https://api.github.com/repos/bitcoin/bitcoin/issues/21946/reactions",
    "total_count": 4,
    "+1": 4,
    "-1": 0,
    "laugh": 0,
    "hooray": 0,
    "confused": 0,
    "heart": 0,
    "rocket": 0,
    "eyes": 0
  },
  "timeline_url": "https://api.github.com/repos/bitcoin/bitcoin/issues/21946/timeline",
  "performed_via_github_app": null,
  "state_reason": null
}
