{
  "url": "https://api.github.com/repos/bitcoin/bitcoin/issues/9021",
  "repository_url": "https://api.github.com/repos/bitcoin/bitcoin",
  "labels_url": "https://api.github.com/repos/bitcoin/bitcoin/issues/9021/labels{/name}",
  "comments_url": "https://api.github.com/repos/bitcoin/bitcoin/issues/9021/comments",
  "events_url": "https://api.github.com/repos/bitcoin/bitcoin/issues/9021/events",
  "html_url": "https://github.com/bitcoin/bitcoin/pull/9021",
  "id": 185349737,
  "node_id": "MDExOlB1bGxSZXF1ZXN0OTA5NzMzMjQ=",
  "number": 9021,
  "title": "zetacoin 0.13",
  "user": {
    "login": "gzuser01",
    "id": 18202400,
    "node_id": "MDQ6VXNlcjE4MjAyNDAw",
    "avatar_url": "https://avatars.githubusercontent.com/u/18202400?v=4",
    "gravatar_id": "",
    "url": "https://api.github.com/users/gzuser01",
    "html_url": "https://github.com/gzuser01",
    "followers_url": "https://api.github.com/users/gzuser01/followers",
    "following_url": "https://api.github.com/users/gzuser01/following{/other_user}",
    "gists_url": "https://api.github.com/users/gzuser01/gists{/gist_id}",
    "starred_url": "https://api.github.com/users/gzuser01/starred{/owner}{/repo}",
    "subscriptions_url": "https://api.github.com/users/gzuser01/subscriptions",
    "organizations_url": "https://api.github.com/users/gzuser01/orgs",
    "repos_url": "https://api.github.com/users/gzuser01/repos",
    "events_url": "https://api.github.com/users/gzuser01/events{/privacy}",
    "received_events_url": "https://api.github.com/users/gzuser01/received_events",
    "type": "User",
    "site_admin": false
  },
  "labels": [

  ],
  "state": "closed",
  "locked": true,
  "assignee": null,
  "assignees": [

  ],
  "milestone": null,
  "comments": 2,
  "created_at": "2016-10-26T10:06:04Z",
  "updated_at": "2021-09-08T11:42:02Z",
  "closed_at": "2016-10-26T10:06:34Z",
  "author_association": "NONE",
  "active_lock_reason": "resolved",
  "draft": false,
  "pull_request": {
    "url": "https://api.github.com/repos/bitcoin/bitcoin/pulls/9021",
    "html_url": "https://github.com/bitcoin/bitcoin/pull/9021",
    "diff_url": "https://github.com/bitcoin/bitcoin/pull/9021.diff",
    "patch_url": "https://github.com/bitcoin/bitcoin/pull/9021.patch",
    "merged_at": null
  },
  "body_html": "",
  "body_text": "",
  "body": "",
  "closed_by": {
    "login": "laanwj",
    "id": 126646,
    "node_id": "MDQ6VXNlcjEyNjY0Ng==",
    "avatar_url": "https://avatars.githubusercontent.com/u/126646?v=4",
    "gravatar_id": "",
    "url": "https://api.github.com/users/laanwj",
    "html_url": "https://github.com/laanwj",
    "followers_url": "https://api.github.com/users/laanwj/followers",
    "following_url": "https://api.github.com/users/laanwj/following{/other_user}",
    "gists_url": "https://api.github.com/users/laanwj/gists{/gist_id}",
    "starred_url": "https://api.github.com/users/laanwj/starred{/owner}{/repo}",
    "subscriptions_url": "https://api.github.com/users/laanwj/subscriptions",
    "organizations_url": "https://api.github.com/users/laanwj/orgs",
    "repos_url": "https://api.github.com/users/laanwj/repos",
    "events_url": "https://api.github.com/users/laanwj/events{/privacy}",
    "received_events_url": "https://api.github.com/users/laanwj/received_events",
    "type": "User",
    "site_admin": false
  },
  "reactions": {
    "url": "https://api.github.com/repos/bitcoin/bitcoin/issues/9021/reactions",
    "total_count": 0,
    "+1": 0,
    "-1": 0,
    "laugh": 0,
    "hooray": 0,
    "confused": 0,
    "heart": 0,
    "rocket": 0,
    "eyes": 0
  },
  "timeline_url": "https://api.github.com/repos/bitcoin/bitcoin/issues/9021/timeline",
  "performed_via_github_app": null,
  "state_reason": null
}
