{
  "url": "https://api.github.com/repos/bitcoin/bitcoin/issues/8495",
  "repository_url": "https://api.github.com/repos/bitcoin/bitcoin",
  "labels_url": "https://api.github.com/repos/bitcoin/bitcoin/issues/8495/labels{/name}",
  "comments_url": "https://api.github.com/repos/bitcoin/bitcoin/issues/8495/comments",
  "events_url": "https://api.github.com/repos/bitcoin/bitcoin/issues/8495/events",
  "html_url": "https://github.com/bitcoin/bitcoin/pull/8495",
  "id": 170352940,
  "node_id": "MDExOlB1bGxSZXF1ZXN0ODA3NDkxMzc=",
  "number": 8495,
  "title": "[0.13] Bugfix: Use pre-BIP141 sigops until segwit activates (GBT)",
  "user": {
    "login": "luke-jr",
    "id": 1095675,
    "node_id": "MDQ6VXNlcjEwOTU2NzU=",
    "avatar_url": "https://avatars.githubusercontent.com/u/1095675?v=4",
    "gravatar_id": "",
    "url": "https://api.github.com/users/luke-jr",
    "html_url": "https://github.com/luke-jr",
    "followers_url": "https://api.github.com/users/luke-jr/followers",
    "following_url": "https://api.github.com/users/luke-jr/following{/other_user}",
    "gists_url": "https://api.github.com/users/luke-jr/gists{/gist_id}",
    "starred_url": "https://api.github.com/users/luke-jr/starred{/owner}{/repo}",
    "subscriptions_url": "https://api.github.com/users/luke-jr/subscriptions",
    "organizations_url": "https://api.github.com/users/luke-jr/orgs",
    "repos_url": "https://api.github.com/users/luke-jr/repos",
    "events_url": "https://api.github.com/users/luke-jr/events{/privacy}",
    "received_events_url": "https://api.github.com/users/luke-jr/received_events",
    "type": "User",
    "site_admin": false
  },
  "labels": [

  ],
  "state": "closed",
  "locked": true,
  "assignee": null,
  "assignees": [

  ],
  "milestone": null,
  "comments": 1,
  "created_at": "2016-08-10T07:49:32Z",
  "updated_at": "2021-09-08T11:03:20Z",
  "closed_at": "2016-08-10T13:05:06Z",
  "author_association": "MEMBER",
  "active_lock_reason": "resolved",
  "draft": false,
  "pull_request": {
    "url": "https://api.github.com/repos/bitcoin/bitcoin/pulls/8495",
    "html_url": "https://github.com/bitcoin/bitcoin/pull/8495",
    "diff_url": "https://github.com/bitcoin/bitcoin/pull/8495.diff",
    "patch_url": "https://github.com/bitcoin/bitcoin/pull/8495.patch",
    "merged_at": null
  },
  "body_html": "<p dir=\"auto\">Backport of <a class=\"issue-link js-issue-link\" data-error-text=\"Failed to load title\" data-id=\"170036061\" data-permission-text=\"Title is private\" data-url=\"https://github.com/bitcoin/bitcoin/issues/8489\" data-hovercard-type=\"pull_request\" data-hovercard-url=\"/bitcoin/bitcoin/pull/8489/hovercard\" href=\"https://github.com/bitcoin/bitcoin/pull/8489\">#8489</a></p>",
  "body_text": "Backport of #8489",
  "body": "Backport of #8489\n",
  "closed_by": {
    "login": "laanwj",
    "id": 126646,
    "node_id": "MDQ6VXNlcjEyNjY0Ng==",
    "avatar_url": "https://avatars.githubusercontent.com/u/126646?v=4",
    "gravatar_id": "",
    "url": "https://api.github.com/users/laanwj",
    "html_url": "https://github.com/laanwj",
    "followers_url": "https://api.github.com/users/laanwj/followers",
    "following_url": "https://api.github.com/users/laanwj/following{/other_user}",
    "gists_url": "https://api.github.com/users/laanwj/gists{/gist_id}",
    "starred_url": "https://api.github.com/users/laanwj/starred{/owner}{/repo}",
    "subscriptions_url": "https://api.github.com/users/laanwj/subscriptions",
    "organizations_url": "https://api.github.com/users/laanwj/orgs",
    "repos_url": "https://api.github.com/users/laanwj/repos",
    "events_url": "https://api.github.com/users/laanwj/events{/privacy}",
    "received_events_url": "https://api.github.com/users/laanwj/received_events",
    "type": "User",
    "site_admin": false
  },
  "reactions": {
    "url": "https://api.github.com/repos/bitcoin/bitcoin/issues/8495/reactions",
    "total_count": 0,
    "+1": 0,
    "-1": 0,
    "laugh": 0,
    "hooray": 0,
    "confused": 0,
    "heart": 0,
    "rocket": 0,
    "eyes": 0
  },
  "timeline_url": "https://api.github.com/repos/bitcoin/bitcoin/issues/8495/timeline",
  "performed_via_github_app": null,
  "state_reason": null
}
