{
  "url": "https://api.github.com/repos/bitcoin/bitcoin/issues/14285",
  "repository_url": "https://api.github.com/repos/bitcoin/bitcoin",
  "labels_url": "https://api.github.com/repos/bitcoin/bitcoin/issues/14285/labels{/name}",
  "comments_url": "https://api.github.com/repos/bitcoin/bitcoin/issues/14285/comments",
  "events_url": "https://api.github.com/repos/bitcoin/bitcoin/issues/14285/events",
  "html_url": "https://github.com/bitcoin/bitcoin/issues/14285",
  "id": 362456943,
  "node_id": "MDU6SXNzdWUzNjI0NTY5NDM=",
  "number": 14285,
  "title": "Issue",
  "user": {
    "login": "Sunit41557077",
    "id": 39864920,
    "node_id": "MDQ6VXNlcjM5ODY0OTIw",
    "avatar_url": "https://avatars.githubusercontent.com/u/39864920?v=4",
    "gravatar_id": "",
    "url": "https://api.github.com/users/Sunit41557077",
    "html_url": "https://github.com/Sunit41557077",
    "followers_url": "https://api.github.com/users/Sunit41557077/followers",
    "following_url": "https://api.github.com/users/Sunit41557077/following{/other_user}",
    "gists_url": "https://api.github.com/users/Sunit41557077/gists{/gist_id}",
    "starred_url": "https://api.github.com/users/Sunit41557077/starred{/owner}{/repo}",
    "subscriptions_url": "https://api.github.com/users/Sunit41557077/subscriptions",
    "organizations_url": "https://api.github.com/users/Sunit41557077/orgs",
    "repos_url": "https://api.github.com/users/Sunit41557077/repos",
    "events_url": "https://api.github.com/users/Sunit41557077/events{/privacy}",
    "received_events_url": "https://api.github.com/users/Sunit41557077/received_events",
    "type": "User",
    "site_admin": false
  },
  "labels": [

  ],
  "state": "closed",
  "locked": true,
  "assignee": null,
  "assignees": [

  ],
  "milestone": null,
  "comments": 0,
  "created_at": "2018-09-21T05:05:04Z",
  "updated_at": "2018-09-21T07:15:18Z",
  "closed_at": "2018-09-21T05:18:19Z",
  "author_association": "NONE",
  "active_lock_reason": null,
  "body_html": "\n\n\n\n\n\n\n\n",
  "body_text": "",
  "body": "\r\n<!-- This issue tracker is only for technical issues related to Bitcoin Core.\r\n\r\nGeneral bitcoin questions and/or support requests are best directed to the Bitcoin StackExchange at https://bitcoin.stackexchange.com.\r\n\r\nFor reporting security issues, please read instructions at https://bitcoincore.org/en/contact/.\r\n\r\nIf the node is \"stuck\" during sync or giving \"block checksum mismatch\" errors, please ensure your hardware is stable by running memtest and observe CPU temperature with a load-test tool such as linpack before creating an issue! -->\r\n\r\n<!-- Describe the issue -->\r\n<!--- What behavior did you expect? -->\r\n\r\n<!--- What was the actual behavior (provide screenshots if the issue is GUI-related)? -->\r\n\r\n<!--- How reliably can you reproduce the issue, what are the steps to do so? -->\r\n\r\n<!-- What version of Bitcoin Core are you using, where did you get it (website, self-compiled, etc)? -->\r\n\r\n<!-- What type of machine are you observing the error on (OS/CPU and disk type)? -->\r\n\r\n<!-- Any extra information that might be useful in the debugging process. -->\r\n<!--- This is normally the contents of a `debug.log` or `config.log` file. Raw text or a link to a pastebin type site are preferred. -->\r\n",
  "closed_by": {
    "login": "Sunit41557077",
    "id": 39864920,
    "node_id": "MDQ6VXNlcjM5ODY0OTIw",
    "avatar_url": "https://avatars.githubusercontent.com/u/39864920?v=4",
    "gravatar_id": "",
    "url": "https://api.github.com/users/Sunit41557077",
    "html_url": "https://github.com/Sunit41557077",
    "followers_url": "https://api.github.com/users/Sunit41557077/followers",
    "following_url": "https://api.github.com/users/Sunit41557077/following{/other_user}",
    "gists_url": "https://api.github.com/users/Sunit41557077/gists{/gist_id}",
    "starred_url": "https://api.github.com/users/Sunit41557077/starred{/owner}{/repo}",
    "subscriptions_url": "https://api.github.com/users/Sunit41557077/subscriptions",
    "organizations_url": "https://api.github.com/users/Sunit41557077/orgs",
    "repos_url": "https://api.github.com/users/Sunit41557077/repos",
    "events_url": "https://api.github.com/users/Sunit41557077/events{/privacy}",
    "received_events_url": "https://api.github.com/users/Sunit41557077/received_events",
    "type": "User",
    "site_admin": false
  },
  "reactions": {
    "url": "https://api.github.com/repos/bitcoin/bitcoin/issues/14285/reactions",
    "total_count": 0,
    "+1": 0,
    "-1": 0,
    "laugh": 0,
    "hooray": 0,
    "confused": 0,
    "heart": 0,
    "rocket": 0,
    "eyes": 0
  },
  "timeline_url": "https://api.github.com/repos/bitcoin/bitcoin/issues/14285/timeline",
  "performed_via_github_app": null,
  "state_reason": "completed"
}
