[
  {
    "url": "https://api.github.com/repos/bitcoin/bitcoin/issues/comments/482856863",
    "html_url": "https://github.com/bitcoin/bitcoin/issues/15808#issuecomment-482856863",
    "issue_url": "https://api.github.com/repos/bitcoin/bitcoin/issues/15808",
    "id": 482856863,
    "node_id": "MDEyOklzc3VlQ29tbWVudDQ4Mjg1Njg2Mw==",
    "user": {
      "login": "benthecarman",
      "id": 15256660,
      "node_id": "MDQ6VXNlcjE1MjU2NjYw",
      "avatar_url": "https://avatars.githubusercontent.com/u/15256660?v=4",
      "gravatar_id": "",
      "url": "https://api.github.com/users/benthecarman",
      "html_url": "https://github.com/benthecarman",
      "followers_url": "https://api.github.com/users/benthecarman/followers",
      "following_url": "https://api.github.com/users/benthecarman/following{/other_user}",
      "gists_url": "https://api.github.com/users/benthecarman/gists{/gist_id}",
      "starred_url": "https://api.github.com/users/benthecarman/starred{/owner}{/repo}",
      "subscriptions_url": "https://api.github.com/users/benthecarman/subscriptions",
      "organizations_url": "https://api.github.com/users/benthecarman/orgs",
      "repos_url": "https://api.github.com/users/benthecarman/repos",
      "events_url": "https://api.github.com/users/benthecarman/events{/privacy}",
      "received_events_url": "https://api.github.com/users/benthecarman/received_events",
      "type": "User",
      "site_admin": false
    },
    "created_at": "2019-04-13T18:16:50Z",
    "updated_at": "2019-04-13T18:16:50Z",
    "author_association": "CONTRIBUTOR",
    "body_html": "<p dir=\"auto\">You can't have mainnet and a testnet node using the same zmq port.  You can use <a href=\"https://github.com/bitcoin/bitcoin/blob/master/doc/bitcoin-conf.md#network-specific-options\">network specific options</a> to differentiate the two.</p>",
    "body_text": "You can't have mainnet and a testnet node using the same zmq port.  You can use network specific options to differentiate the two.",
    "body": "You can't have mainnet and a testnet node using the same zmq port.  You can use [network specific options](https://github.com/bitcoin/bitcoin/blob/master/doc/bitcoin-conf.md#network-specific-options) to differentiate the two. ",
    "reactions": {
      "url": "https://api.github.com/repos/bitcoin/bitcoin/issues/comments/482856863/reactions",
      "total_count": 1,
      "+1": 1,
      "-1": 0,
      "laugh": 0,
      "hooray": 0,
      "confused": 0,
      "heart": 0,
      "rocket": 0,
      "eyes": 0
    },
    "performed_via_github_app": null
  }
]
