[
  {
    "url": "https://api.github.com/repos/bitcoin/bitcoin/issues/comments/439794076",
    "html_url": "https://github.com/bitcoin/bitcoin/pull/13884#issuecomment-439794076",
    "issue_url": "https://api.github.com/repos/bitcoin/bitcoin/issues/13884",
    "id": 439794076,
    "node_id": "MDEyOklzc3VlQ29tbWVudDQzOTc5NDA3Ng==",
    "user": {
      "login": "meshcollider",
      "id": 3211283,
      "node_id": "MDQ6VXNlcjMyMTEyODM=",
      "avatar_url": "https://avatars.githubusercontent.com/u/3211283?v=4",
      "gravatar_id": "",
      "url": "https://api.github.com/users/meshcollider",
      "html_url": "https://github.com/meshcollider",
      "followers_url": "https://api.github.com/users/meshcollider/followers",
      "following_url": "https://api.github.com/users/meshcollider/following{/other_user}",
      "gists_url": "https://api.github.com/users/meshcollider/gists{/gist_id}",
      "starred_url": "https://api.github.com/users/meshcollider/starred{/owner}{/repo}",
      "subscriptions_url": "https://api.github.com/users/meshcollider/subscriptions",
      "organizations_url": "https://api.github.com/users/meshcollider/orgs",
      "repos_url": "https://api.github.com/users/meshcollider/repos",
      "events_url": "https://api.github.com/users/meshcollider/events{/privacy}",
      "received_events_url": "https://api.github.com/users/meshcollider/received_events",
      "type": "User",
      "site_admin": false
    },
    "created_at": "2018-11-19T07:18:53Z",
    "updated_at": "2018-11-19T07:18:53Z",
    "author_association": "CONTRIBUTOR",
    "body_html": "<p dir=\"auto\">utACK <a class=\"commit-link\" data-hovercard-type=\"commit\" data-hovercard-url=\"https://github.com/bitcoin/bitcoin/commit/5bb0164ceecc2e61f1839b482e821909e05a736e/hovercard\" href=\"https://github.com/bitcoin/bitcoin/commit/5bb0164ceecc2e61f1839b482e821909e05a736e\"><tt>5bb0164</tt></a></p>",
    "body_text": "utACK 5bb0164",
    "body": "utACK https://github.com/bitcoin/bitcoin/commit/5bb0164ceecc2e61f1839b482e821909e05a736e",
    "reactions": {
      "url": "https://api.github.com/repos/bitcoin/bitcoin/issues/comments/439794076/reactions",
      "total_count": 0,
      "+1": 0,
      "-1": 0,
      "laugh": 0,
      "hooray": 0,
      "confused": 0,
      "heart": 0,
      "rocket": 0,
      "eyes": 0
    },
    "performed_via_github_app": null
  },
  {
    "url": "https://api.github.com/repos/bitcoin/bitcoin/issues/comments/451307586",
    "html_url": "https://github.com/bitcoin/bitcoin/pull/13884#issuecomment-451307586",
    "issue_url": "https://api.github.com/repos/bitcoin/bitcoin/issues/13884",
    "id": 451307586,
    "node_id": "MDEyOklzc3VlQ29tbWVudDQ1MTMwNzU4Ng==",
    "user": {
      "login": "fanquake",
      "id": 863730,
      "node_id": "MDQ6VXNlcjg2MzczMA==",
      "avatar_url": "https://avatars.githubusercontent.com/u/863730?v=4",
      "gravatar_id": "",
      "url": "https://api.github.com/users/fanquake",
      "html_url": "https://github.com/fanquake",
      "followers_url": "https://api.github.com/users/fanquake/followers",
      "following_url": "https://api.github.com/users/fanquake/following{/other_user}",
      "gists_url": "https://api.github.com/users/fanquake/gists{/gist_id}",
      "starred_url": "https://api.github.com/users/fanquake/starred{/owner}{/repo}",
      "subscriptions_url": "https://api.github.com/users/fanquake/subscriptions",
      "organizations_url": "https://api.github.com/users/fanquake/orgs",
      "repos_url": "https://api.github.com/users/fanquake/repos",
      "events_url": "https://api.github.com/users/fanquake/events{/privacy}",
      "received_events_url": "https://api.github.com/users/fanquake/received_events",
      "type": "User",
      "site_admin": false
    },
    "created_at": "2019-01-03T23:11:45Z",
    "updated_at": "2019-01-03T23:11:45Z",
    "author_association": "MEMBER",
    "body_html": "<p dir=\"auto\">Should this be backported?</p>",
    "body_text": "Should this be backported?",
    "body": "Should this be backported?",
    "reactions": {
      "url": "https://api.github.com/repos/bitcoin/bitcoin/issues/comments/451307586/reactions",
      "total_count": 0,
      "+1": 0,
      "-1": 0,
      "laugh": 0,
      "hooray": 0,
      "confused": 0,
      "heart": 0,
      "rocket": 0,
      "eyes": 0
    },
    "performed_via_github_app": null
  },
  {
    "url": "https://api.github.com/repos/bitcoin/bitcoin/issues/comments/451307913",
    "html_url": "https://github.com/bitcoin/bitcoin/pull/13884#issuecomment-451307913",
    "issue_url": "https://api.github.com/repos/bitcoin/bitcoin/issues/13884",
    "id": 451307913,
    "node_id": "MDEyOklzc3VlQ29tbWVudDQ1MTMwNzkxMw==",
    "user": {
      "login": "maflcko",
      "id": 6399679,
      "node_id": "MDQ6VXNlcjYzOTk2Nzk=",
      "avatar_url": "https://avatars.githubusercontent.com/u/6399679?v=4",
      "gravatar_id": "",
      "url": "https://api.github.com/users/maflcko",
      "html_url": "https://github.com/maflcko",
      "followers_url": "https://api.github.com/users/maflcko/followers",
      "following_url": "https://api.github.com/users/maflcko/following{/other_user}",
      "gists_url": "https://api.github.com/users/maflcko/gists{/gist_id}",
      "starred_url": "https://api.github.com/users/maflcko/starred{/owner}{/repo}",
      "subscriptions_url": "https://api.github.com/users/maflcko/subscriptions",
      "organizations_url": "https://api.github.com/users/maflcko/orgs",
      "repos_url": "https://api.github.com/users/maflcko/repos",
      "events_url": "https://api.github.com/users/maflcko/events{/privacy}",
      "received_events_url": "https://api.github.com/users/maflcko/received_events",
      "type": "User",
      "site_admin": false
    },
    "created_at": "2019-01-03T23:13:19Z",
    "updated_at": "2019-01-03T23:13:19Z",
    "author_association": "MEMBER",
    "body_html": "<p dir=\"auto\">It could, but without unicode support from leveldb, the gains are rather limited.</p>",
    "body_text": "It could, but without unicode support from leveldb, the gains are rather limited.",
    "body": "It could, but without unicode support from leveldb, the gains are rather limited.",
    "reactions": {
      "url": "https://api.github.com/repos/bitcoin/bitcoin/issues/comments/451307913/reactions",
      "total_count": 0,
      "+1": 0,
      "-1": 0,
      "laugh": 0,
      "hooray": 0,
      "confused": 0,
      "heart": 0,
      "rocket": 0,
      "eyes": 0
    },
    "performed_via_github_app": null
  }
]
