[
  {
    "url": "https://api.github.com/repos/bitcoin/bitcoin/issues/comments/1683806630",
    "html_url": "https://github.com/bitcoin/bitcoin/pull/28294#issuecomment-1683806630",
    "issue_url": "https://api.github.com/repos/bitcoin/bitcoin/issues/28294",
    "id": 1683806630,
    "node_id": "IC_kwDOABII585kXNmm",
    "user": {
      "login": "DrahtBot",
      "id": 39886733,
      "node_id": "MDQ6VXNlcjM5ODg2NzMz",
      "avatar_url": "https://avatars.githubusercontent.com/u/39886733?v=4",
      "gravatar_id": "",
      "url": "https://api.github.com/users/DrahtBot",
      "html_url": "https://github.com/DrahtBot",
      "followers_url": "https://api.github.com/users/DrahtBot/followers",
      "following_url": "https://api.github.com/users/DrahtBot/following{/other_user}",
      "gists_url": "https://api.github.com/users/DrahtBot/gists{/gist_id}",
      "starred_url": "https://api.github.com/users/DrahtBot/starred{/owner}{/repo}",
      "subscriptions_url": "https://api.github.com/users/DrahtBot/subscriptions",
      "organizations_url": "https://api.github.com/users/DrahtBot/orgs",
      "repos_url": "https://api.github.com/users/DrahtBot/repos",
      "events_url": "https://api.github.com/users/DrahtBot/events{/privacy}",
      "received_events_url": "https://api.github.com/users/DrahtBot/received_events",
      "type": "User",
      "site_admin": false
    },
    "created_at": "2023-08-18T11:52:12Z",
    "updated_at": "2023-08-22T13:44:17Z",
    "author_association": "CONTRIBUTOR",
    "body_html": "\n<p dir=\"auto\">The following sections might be updated with supplementary metadata relevant to reviewers and maintainers.</p>\n\n<h3 dir=\"auto\">Reviews</h3>\n<p dir=\"auto\">See <a href=\"https://github.com/bitcoin/bitcoin/blob/master/CONTRIBUTING.md#code-review\">the guideline</a> for information on the review process.</p>\n<table role=\"table\">\n<thead>\n<tr>\n<th>Type</th>\n<th>Reviewers</th>\n</tr>\n</thead>\n<tbody>\n<tr>\n<td>ACK</td>\n<td><a href=\"https://github.com/bitcoin/bitcoin/pull/28294#pullrequestreview-1589485458\" data-hovercard-type=\"pull_request\" data-hovercard-url=\"/bitcoin/bitcoin/pull/28294/hovercard\">TheCharlatan</a></td>\n</tr>\n</tbody>\n</table>\n<p dir=\"auto\">If your review is incorrectly listed, please react with 👎 to this comment and the bot will ignore it on the next update.</p>\n\n<h3 dir=\"auto\">Conflicts</h3>\n<p dir=\"auto\">Reviewers, this pull request conflicts with the following ones:</p>\n<ul dir=\"auto\">\n<li><a href=\"https://github.com/bitcoin/bitcoin/pull/28151\" data-hovercard-type=\"pull_request\" data-hovercard-url=\"/bitcoin/bitcoin/pull/28151/hovercard\">#28151</a> ([WIP] guix: use <code class=\"notranslate\">-muse-unaligned-vector-move</code> for Windows builds by fanquake)</li>\n<li><a href=\"https://github.com/bitcoin/bitcoin/pull/27897\" data-hovercard-type=\"pull_request\" data-hovercard-url=\"/bitcoin/bitcoin/pull/27897/hovercard\">#27897</a> (guix: use GCC 12.3.0 to build releases by fanquake)</li>\n<li><a href=\"https://github.com/bitcoin/bitcoin/pull/25573\" data-hovercard-type=\"pull_request\" data-hovercard-url=\"/bitcoin/bitcoin/pull/25573/hovercard\">#25573</a> ([POC] guix: produce a fully <code class=\"notranslate\">-static-pie</code> bitcoind by fanquake)</li>\n<li><a href=\"https://github.com/bitcoin/bitcoin/pull/25391\" data-hovercard-type=\"pull_request\" data-hovercard-url=\"/bitcoin/bitcoin/pull/25391/hovercard\">#25391</a> (guix: Use LTO to build releases by fanquake)</li>\n<li><a href=\"https://github.com/bitcoin/bitcoin/pull/24123\" data-hovercard-type=\"pull_request\" data-hovercard-url=\"/bitcoin/bitcoin/pull/24123/hovercard\">#24123</a> (build: Pointer Authentication and Branch Target Identification for aarch64 Linux (Guix) by fanquake)</li>\n<li><a href=\"https://github.com/bitcoin/bitcoin/pull/21778\" data-hovercard-type=\"pull_request\" data-hovercard-url=\"/bitcoin/bitcoin/pull/21778/hovercard\">#21778</a> (build: LLVM 16 &amp; LLD based macOS toolchain by fanquake)</li>\n</ul>\n<p dir=\"auto\">If you consider this pull request important, please also help to review the conflicting pull requests. Ideally, start with the one that should be merged first.</p>",
    "body_text": "The following sections might be updated with supplementary metadata relevant to reviewers and maintainers.\n\nReviews\nSee the guideline for information on the review process.\n\n\n\nType\nReviewers\n\n\n\n\nACK\nTheCharlatan\n\n\n\nIf your review is incorrectly listed, please react with 👎 to this comment and the bot will ignore it on the next update.\n\nConflicts\nReviewers, this pull request conflicts with the following ones:\n\n#28151 ([WIP] guix: use -muse-unaligned-vector-move for Windows builds by fanquake)\n#27897 (guix: use GCC 12.3.0 to build releases by fanquake)\n#25573 ([POC] guix: produce a fully -static-pie bitcoind by fanquake)\n#25391 (guix: Use LTO to build releases by fanquake)\n#24123 (build: Pointer Authentication and Branch Target Identification for aarch64 Linux (Guix) by fanquake)\n#21778 (build: LLVM 16 & LLD based macOS toolchain by fanquake)\n\nIf you consider this pull request important, please also help to review the conflicting pull requests. Ideally, start with the one that should be merged first.",
    "body": "<!--e57a25ab6845829454e8d69fc972939a-->\n\nThe following sections might be updated with supplementary metadata relevant to reviewers and maintainers.\n\n<!--021abf342d371248e50ceaed478a90ca-->\n### Reviews\nSee [the guideline](https://github.com/bitcoin/bitcoin/blob/master/CONTRIBUTING.md#code-review) for information on the review process.\n| Type | Reviewers |\n| ---- | --------- |\n| ACK | [TheCharlatan](https://github.com/bitcoin/bitcoin/pull/28294#pullrequestreview-1589485458) |\n\nIf your review is incorrectly listed, please react with 👎 to this comment and the bot will ignore it on the next update.\n<!--174a7506f384e20aa4161008e828411d-->\n### Conflicts\nReviewers, this pull request conflicts with the following ones:\n\n* [#28151](https://github.com/bitcoin/bitcoin/pull/28151) ([WIP] guix: use `-muse-unaligned-vector-move` for Windows builds by fanquake)\n* [#27897](https://github.com/bitcoin/bitcoin/pull/27897) (guix: use GCC 12.3.0 to build releases by fanquake)\n* [#25573](https://github.com/bitcoin/bitcoin/pull/25573) ([POC] guix: produce a fully `-static-pie` bitcoind by fanquake)\n* [#25391](https://github.com/bitcoin/bitcoin/pull/25391) (guix: Use LTO to build releases by fanquake)\n* [#24123](https://github.com/bitcoin/bitcoin/pull/24123) (build: Pointer Authentication and Branch Target Identification for aarch64 Linux (Guix) by fanquake)\n* [#21778](https://github.com/bitcoin/bitcoin/pull/21778) (build: LLVM 16 & LLD based macOS toolchain by fanquake)\n\nIf you consider this pull request important, please also help to review the conflicting pull requests. Ideally, start with the one that should be merged first.\n",
    "reactions": {
      "url": "https://api.github.com/repos/bitcoin/bitcoin/issues/comments/1683806630/reactions",
      "total_count": 0,
      "+1": 0,
      "-1": 0,
      "laugh": 0,
      "hooray": 0,
      "confused": 0,
      "heart": 0,
      "rocket": 0,
      "eyes": 0
    },
    "performed_via_github_app": null
  },
  {
    "url": "https://api.github.com/repos/bitcoin/bitcoin/issues/comments/1684733217",
    "html_url": "https://github.com/bitcoin/bitcoin/pull/28294#issuecomment-1684733217",
    "issue_url": "https://api.github.com/repos/bitcoin/bitcoin/issues/28294",
    "id": 1684733217,
    "node_id": "IC_kwDOABII585kav0h",
    "user": {
      "login": "DrahtBot",
      "id": 39886733,
      "node_id": "MDQ6VXNlcjM5ODg2NzMz",
      "avatar_url": "https://avatars.githubusercontent.com/u/39886733?v=4",
      "gravatar_id": "",
      "url": "https://api.github.com/users/DrahtBot",
      "html_url": "https://github.com/DrahtBot",
      "followers_url": "https://api.github.com/users/DrahtBot/followers",
      "following_url": "https://api.github.com/users/DrahtBot/following{/other_user}",
      "gists_url": "https://api.github.com/users/DrahtBot/gists{/gist_id}",
      "starred_url": "https://api.github.com/users/DrahtBot/starred{/owner}{/repo}",
      "subscriptions_url": "https://api.github.com/users/DrahtBot/subscriptions",
      "organizations_url": "https://api.github.com/users/DrahtBot/orgs",
      "repos_url": "https://api.github.com/users/DrahtBot/repos",
      "events_url": "https://api.github.com/users/DrahtBot/events{/privacy}",
      "received_events_url": "https://api.github.com/users/DrahtBot/received_events",
      "type": "User",
      "site_admin": false
    },
    "created_at": "2023-08-19T03:25:32Z",
    "updated_at": "2023-08-19T03:25:32Z",
    "author_association": "CONTRIBUTOR",
    "body_html": "\n<h3 dir=\"auto\">Guix builds</h3>\n<table role=\"table\">\n<thead>\n<tr>\n<th>File</th>\n<th>commit <a class=\"commit-link\" data-hovercard-type=\"commit\" data-hovercard-url=\"https://github.com/bitcoin/bitcoin/commit/7bf078f2b7d4a0339d053144b4fb35fe020dac25/hovercard\" href=\"https://github.com/bitcoin/bitcoin/commit/7bf078f2b7d4a0339d053144b4fb35fe020dac25\"><tt>7bf078f</tt></a><br>(master)</th>\n<th>commit <a class=\"commit-link\" data-hovercard-type=\"commit\" data-hovercard-url=\"https://github.com/bitcoin/bitcoin/commit/b505c44cbd8b2d5741620f74c37efc45b5bcda96/hovercard\" href=\"https://github.com/bitcoin/bitcoin/commit/b505c44cbd8b2d5741620f74c37efc45b5bcda96\"><tt>b505c44</tt></a><br>(master and this pull)</th>\n</tr>\n</thead>\n<tbody>\n<tr>\n<td>SHA256SUMS.part</td>\n<td><a href=\"https://drahtbot.space/guix/bitcoin/bitcoin/7bf078f2b7d4a0339d053144b4fb35fe020dac25/SHA256SUMS.part\" rel=\"nofollow\"><code class=\"notranslate\">d81349061cab17da...</code></a></td>\n<td><a href=\"https://drahtbot.space/guix/bitcoin/bitcoin/b505c44cbd8b2d5741620f74c37efc45b5bcda96/SHA256SUMS.part\" rel=\"nofollow\"><code class=\"notranslate\">fa5f9e2ea247568a...</code></a></td>\n</tr>\n<tr>\n<td>*-aarch64-linux-gnu-debug.tar.gz</td>\n<td><a href=\"https://drahtbot.space/guix/bitcoin/bitcoin/7bf078f2b7d4a0339d053144b4fb35fe020dac25/bitcoin-7bf078f2b7d4-aarch64-linux-gnu-debug.tar.gz\" rel=\"nofollow\"><code class=\"notranslate\">6d175297dbb8831e...</code></a></td>\n<td><a href=\"https://drahtbot.space/guix/bitcoin/bitcoin/b505c44cbd8b2d5741620f74c37efc45b5bcda96/bitcoin-b505c44cbd8b-aarch64-linux-gnu-debug.tar.gz\" rel=\"nofollow\"><code class=\"notranslate\">40e5ff0d6536a925...</code></a></td>\n</tr>\n<tr>\n<td>*-aarch64-linux-gnu.tar.gz</td>\n<td><a href=\"https://drahtbot.space/guix/bitcoin/bitcoin/7bf078f2b7d4a0339d053144b4fb35fe020dac25/bitcoin-7bf078f2b7d4-aarch64-linux-gnu.tar.gz\" rel=\"nofollow\"><code class=\"notranslate\">e61e8603f9297017...</code></a></td>\n<td><a href=\"https://drahtbot.space/guix/bitcoin/bitcoin/b505c44cbd8b2d5741620f74c37efc45b5bcda96/bitcoin-b505c44cbd8b-aarch64-linux-gnu.tar.gz\" rel=\"nofollow\"><code class=\"notranslate\">8da68855f47f9f1f...</code></a></td>\n</tr>\n<tr>\n<td>*-arm-linux-gnueabihf-debug.tar.gz</td>\n<td><a href=\"https://drahtbot.space/guix/bitcoin/bitcoin/7bf078f2b7d4a0339d053144b4fb35fe020dac25/bitcoin-7bf078f2b7d4-arm-linux-gnueabihf-debug.tar.gz\" rel=\"nofollow\"><code class=\"notranslate\">e56d667d9b891b61...</code></a></td>\n<td><a href=\"https://drahtbot.space/guix/bitcoin/bitcoin/b505c44cbd8b2d5741620f74c37efc45b5bcda96/bitcoin-b505c44cbd8b-arm-linux-gnueabihf-debug.tar.gz\" rel=\"nofollow\"><code class=\"notranslate\">0b8ca8ddff1e5441...</code></a></td>\n</tr>\n<tr>\n<td>*-arm-linux-gnueabihf.tar.gz</td>\n<td><a href=\"https://drahtbot.space/guix/bitcoin/bitcoin/7bf078f2b7d4a0339d053144b4fb35fe020dac25/bitcoin-7bf078f2b7d4-arm-linux-gnueabihf.tar.gz\" rel=\"nofollow\"><code class=\"notranslate\">c1816a22884e5971...</code></a></td>\n<td><a href=\"https://drahtbot.space/guix/bitcoin/bitcoin/b505c44cbd8b2d5741620f74c37efc45b5bcda96/bitcoin-b505c44cbd8b-arm-linux-gnueabihf.tar.gz\" rel=\"nofollow\"><code class=\"notranslate\">0e00bff374308318...</code></a></td>\n</tr>\n<tr>\n<td>*-arm64-apple-darwin-unsigned.dmg</td>\n<td><a href=\"https://drahtbot.space/guix/bitcoin/bitcoin/7bf078f2b7d4a0339d053144b4fb35fe020dac25/bitcoin-7bf078f2b7d4-arm64-apple-darwin-unsigned.dmg\" rel=\"nofollow\"><code class=\"notranslate\">30dde8ffdbf60854...</code></a></td>\n<td><a href=\"https://drahtbot.space/guix/bitcoin/bitcoin/b505c44cbd8b2d5741620f74c37efc45b5bcda96/bitcoin-b505c44cbd8b-arm64-apple-darwin-unsigned.dmg\" rel=\"nofollow\"><code class=\"notranslate\">7d763b42e0da5662...</code></a></td>\n</tr>\n<tr>\n<td>*-arm64-apple-darwin-unsigned.tar.gz</td>\n<td><a href=\"https://drahtbot.space/guix/bitcoin/bitcoin/7bf078f2b7d4a0339d053144b4fb35fe020dac25/bitcoin-7bf078f2b7d4-arm64-apple-darwin-unsigned.tar.gz\" rel=\"nofollow\"><code class=\"notranslate\">c7f351889d8f90d8...</code></a></td>\n<td><a href=\"https://drahtbot.space/guix/bitcoin/bitcoin/b505c44cbd8b2d5741620f74c37efc45b5bcda96/bitcoin-b505c44cbd8b-arm64-apple-darwin-unsigned.tar.gz\" rel=\"nofollow\"><code class=\"notranslate\">2698da70dfa0165b...</code></a></td>\n</tr>\n<tr>\n<td>*-arm64-apple-darwin.tar.gz</td>\n<td><a href=\"https://drahtbot.space/guix/bitcoin/bitcoin/7bf078f2b7d4a0339d053144b4fb35fe020dac25/bitcoin-7bf078f2b7d4-arm64-apple-darwin.tar.gz\" rel=\"nofollow\"><code class=\"notranslate\">ceb1730404429e8f...</code></a></td>\n<td><a href=\"https://drahtbot.space/guix/bitcoin/bitcoin/b505c44cbd8b2d5741620f74c37efc45b5bcda96/bitcoin-b505c44cbd8b-arm64-apple-darwin.tar.gz\" rel=\"nofollow\"><code class=\"notranslate\">12bb8618553b3e7f...</code></a></td>\n</tr>\n<tr>\n<td>*-powerpc64-linux-gnu-debug.tar.gz</td>\n<td><a href=\"https://drahtbot.space/guix/bitcoin/bitcoin/7bf078f2b7d4a0339d053144b4fb35fe020dac25/bitcoin-7bf078f2b7d4-powerpc64-linux-gnu-debug.tar.gz\" rel=\"nofollow\"><code class=\"notranslate\">1e65b4b50fdf2e34...</code></a></td>\n<td><a href=\"https://drahtbot.space/guix/bitcoin/bitcoin/b505c44cbd8b2d5741620f74c37efc45b5bcda96/bitcoin-b505c44cbd8b-powerpc64-linux-gnu-debug.tar.gz\" rel=\"nofollow\"><code class=\"notranslate\">541c41e21fe59eb5...</code></a></td>\n</tr>\n<tr>\n<td>*-powerpc64-linux-gnu.tar.gz</td>\n<td><a href=\"https://drahtbot.space/guix/bitcoin/bitcoin/7bf078f2b7d4a0339d053144b4fb35fe020dac25/bitcoin-7bf078f2b7d4-powerpc64-linux-gnu.tar.gz\" rel=\"nofollow\"><code class=\"notranslate\">d279fca50aebd7f0...</code></a></td>\n<td><a href=\"https://drahtbot.space/guix/bitcoin/bitcoin/b505c44cbd8b2d5741620f74c37efc45b5bcda96/bitcoin-b505c44cbd8b-powerpc64-linux-gnu.tar.gz\" rel=\"nofollow\"><code class=\"notranslate\">67a9ca863ffaa7fa...</code></a></td>\n</tr>\n<tr>\n<td>*-powerpc64le-linux-gnu-debug.tar.gz</td>\n<td><a href=\"https://drahtbot.space/guix/bitcoin/bitcoin/7bf078f2b7d4a0339d053144b4fb35fe020dac25/bitcoin-7bf078f2b7d4-powerpc64le-linux-gnu-debug.tar.gz\" rel=\"nofollow\"><code class=\"notranslate\">b6c352a13e7507e2...</code></a></td>\n<td><a href=\"https://drahtbot.space/guix/bitcoin/bitcoin/b505c44cbd8b2d5741620f74c37efc45b5bcda96/bitcoin-b505c44cbd8b-powerpc64le-linux-gnu-debug.tar.gz\" rel=\"nofollow\"><code class=\"notranslate\">802ad46786dec57e...</code></a></td>\n</tr>\n<tr>\n<td>*-powerpc64le-linux-gnu.tar.gz</td>\n<td><a href=\"https://drahtbot.space/guix/bitcoin/bitcoin/7bf078f2b7d4a0339d053144b4fb35fe020dac25/bitcoin-7bf078f2b7d4-powerpc64le-linux-gnu.tar.gz\" rel=\"nofollow\"><code class=\"notranslate\">cbd513ae2dc9d5ac...</code></a></td>\n<td><a href=\"https://drahtbot.space/guix/bitcoin/bitcoin/b505c44cbd8b2d5741620f74c37efc45b5bcda96/bitcoin-b505c44cbd8b-powerpc64le-linux-gnu.tar.gz\" rel=\"nofollow\"><code class=\"notranslate\">30bb7a90124187ff...</code></a></td>\n</tr>\n<tr>\n<td>*-riscv64-linux-gnu-debug.tar.gz</td>\n<td><a href=\"https://drahtbot.space/guix/bitcoin/bitcoin/7bf078f2b7d4a0339d053144b4fb35fe020dac25/bitcoin-7bf078f2b7d4-riscv64-linux-gnu-debug.tar.gz\" rel=\"nofollow\"><code class=\"notranslate\">7d8b9014969a08da...</code></a></td>\n<td><a href=\"https://drahtbot.space/guix/bitcoin/bitcoin/b505c44cbd8b2d5741620f74c37efc45b5bcda96/bitcoin-b505c44cbd8b-riscv64-linux-gnu-debug.tar.gz\" rel=\"nofollow\"><code class=\"notranslate\">bfd196dfb0cc4476...</code></a></td>\n</tr>\n<tr>\n<td>*-riscv64-linux-gnu.tar.gz</td>\n<td><a href=\"https://drahtbot.space/guix/bitcoin/bitcoin/7bf078f2b7d4a0339d053144b4fb35fe020dac25/bitcoin-7bf078f2b7d4-riscv64-linux-gnu.tar.gz\" rel=\"nofollow\"><code class=\"notranslate\">438b42da9a291e2f...</code></a></td>\n<td><a href=\"https://drahtbot.space/guix/bitcoin/bitcoin/b505c44cbd8b2d5741620f74c37efc45b5bcda96/bitcoin-b505c44cbd8b-riscv64-linux-gnu.tar.gz\" rel=\"nofollow\"><code class=\"notranslate\">cee7445fde95370d...</code></a></td>\n</tr>\n<tr>\n<td>*-x86_64-apple-darwin-unsigned.dmg</td>\n<td><a href=\"https://drahtbot.space/guix/bitcoin/bitcoin/7bf078f2b7d4a0339d053144b4fb35fe020dac25/bitcoin-7bf078f2b7d4-x86_64-apple-darwin-unsigned.dmg\" rel=\"nofollow\"><code class=\"notranslate\">78ca4e79ed9ece24...</code></a></td>\n<td><a href=\"https://drahtbot.space/guix/bitcoin/bitcoin/b505c44cbd8b2d5741620f74c37efc45b5bcda96/bitcoin-b505c44cbd8b-x86_64-apple-darwin-unsigned.dmg\" rel=\"nofollow\"><code class=\"notranslate\">545a76ff14755dfb...</code></a></td>\n</tr>\n<tr>\n<td>*-x86_64-apple-darwin-unsigned.tar.gz</td>\n<td><a href=\"https://drahtbot.space/guix/bitcoin/bitcoin/7bf078f2b7d4a0339d053144b4fb35fe020dac25/bitcoin-7bf078f2b7d4-x86_64-apple-darwin-unsigned.tar.gz\" rel=\"nofollow\"><code class=\"notranslate\">d095933ca892b94d...</code></a></td>\n<td><a href=\"https://drahtbot.space/guix/bitcoin/bitcoin/b505c44cbd8b2d5741620f74c37efc45b5bcda96/bitcoin-b505c44cbd8b-x86_64-apple-darwin-unsigned.tar.gz\" rel=\"nofollow\"><code class=\"notranslate\">d555c5cfb6c67dc0...</code></a></td>\n</tr>\n<tr>\n<td>*-x86_64-apple-darwin.tar.gz</td>\n<td><a href=\"https://drahtbot.space/guix/bitcoin/bitcoin/7bf078f2b7d4a0339d053144b4fb35fe020dac25/bitcoin-7bf078f2b7d4-x86_64-apple-darwin.tar.gz\" rel=\"nofollow\"><code class=\"notranslate\">205fcb134ef6c0af...</code></a></td>\n<td><a href=\"https://drahtbot.space/guix/bitcoin/bitcoin/b505c44cbd8b2d5741620f74c37efc45b5bcda96/bitcoin-b505c44cbd8b-x86_64-apple-darwin.tar.gz\" rel=\"nofollow\"><code class=\"notranslate\">2834046930232f7e...</code></a></td>\n</tr>\n<tr>\n<td>*-x86_64-linux-gnu-debug.tar.gz</td>\n<td><a href=\"https://drahtbot.space/guix/bitcoin/bitcoin/7bf078f2b7d4a0339d053144b4fb35fe020dac25/bitcoin-7bf078f2b7d4-x86_64-linux-gnu-debug.tar.gz\" rel=\"nofollow\"><code class=\"notranslate\">84f7446ac841adfc...</code></a></td>\n<td><a href=\"https://drahtbot.space/guix/bitcoin/bitcoin/b505c44cbd8b2d5741620f74c37efc45b5bcda96/bitcoin-b505c44cbd8b-x86_64-linux-gnu-debug.tar.gz\" rel=\"nofollow\"><code class=\"notranslate\">904fe07e3a50d1b3...</code></a></td>\n</tr>\n<tr>\n<td>*-x86_64-linux-gnu.tar.gz</td>\n<td><a href=\"https://drahtbot.space/guix/bitcoin/bitcoin/7bf078f2b7d4a0339d053144b4fb35fe020dac25/bitcoin-7bf078f2b7d4-x86_64-linux-gnu.tar.gz\" rel=\"nofollow\"><code class=\"notranslate\">5e993ccc4b8fddcc...</code></a></td>\n<td><a href=\"https://drahtbot.space/guix/bitcoin/bitcoin/b505c44cbd8b2d5741620f74c37efc45b5bcda96/bitcoin-b505c44cbd8b-x86_64-linux-gnu.tar.gz\" rel=\"nofollow\"><code class=\"notranslate\">05c5500593801a2e...</code></a></td>\n</tr>\n<tr>\n<td>*.tar.gz</td>\n<td><a href=\"https://drahtbot.space/guix/bitcoin/bitcoin/7bf078f2b7d4a0339d053144b4fb35fe020dac25/bitcoin-7bf078f2b7d4.tar.gz\" rel=\"nofollow\"><code class=\"notranslate\">d6df1b6cfcaf61ef...</code></a></td>\n<td><a href=\"https://drahtbot.space/guix/bitcoin/bitcoin/b505c44cbd8b2d5741620f74c37efc45b5bcda96/bitcoin-b505c44cbd8b.tar.gz\" rel=\"nofollow\"><code class=\"notranslate\">0c141d625ab848f1...</code></a></td>\n</tr>\n<tr>\n<td>guix_build.log</td>\n<td><a href=\"https://drahtbot.space/guix/bitcoin/bitcoin/7bf078f2b7d4a0339d053144b4fb35fe020dac25/guix_build.log\" rel=\"nofollow\"><code class=\"notranslate\">f3041abc3dda7e6d...</code></a></td>\n<td><a href=\"https://drahtbot.space/guix/bitcoin/bitcoin/b505c44cbd8b2d5741620f74c37efc45b5bcda96/guix_build.log\" rel=\"nofollow\"><code class=\"notranslate\">6eea07345df6be47...</code></a></td>\n</tr>\n<tr>\n<td>guix_build.log.diff</td>\n<td></td>\n<td><a href=\"https://drahtbot.space/guix/bitcoin/bitcoin/b505c44cbd8b2d5741620f74c37efc45b5bcda96/guix_build.log.diff\" rel=\"nofollow\"><code class=\"notranslate\">c500fae4a57fa582...</code></a></td>\n</tr>\n</tbody>\n</table>",
    "body_text": "Guix builds\n\n\n\nFile\ncommit 7bf078f(master)\ncommit b505c44(master and this pull)\n\n\n\n\nSHA256SUMS.part\nd81349061cab17da...\nfa5f9e2ea247568a...\n\n\n*-aarch64-linux-gnu-debug.tar.gz\n6d175297dbb8831e...\n40e5ff0d6536a925...\n\n\n*-aarch64-linux-gnu.tar.gz\ne61e8603f9297017...\n8da68855f47f9f1f...\n\n\n*-arm-linux-gnueabihf-debug.tar.gz\ne56d667d9b891b61...\n0b8ca8ddff1e5441...\n\n\n*-arm-linux-gnueabihf.tar.gz\nc1816a22884e5971...\n0e00bff374308318...\n\n\n*-arm64-apple-darwin-unsigned.dmg\n30dde8ffdbf60854...\n7d763b42e0da5662...\n\n\n*-arm64-apple-darwin-unsigned.tar.gz\nc7f351889d8f90d8...\n2698da70dfa0165b...\n\n\n*-arm64-apple-darwin.tar.gz\nceb1730404429e8f...\n12bb8618553b3e7f...\n\n\n*-powerpc64-linux-gnu-debug.tar.gz\n1e65b4b50fdf2e34...\n541c41e21fe59eb5...\n\n\n*-powerpc64-linux-gnu.tar.gz\nd279fca50aebd7f0...\n67a9ca863ffaa7fa...\n\n\n*-powerpc64le-linux-gnu-debug.tar.gz\nb6c352a13e7507e2...\n802ad46786dec57e...\n\n\n*-powerpc64le-linux-gnu.tar.gz\ncbd513ae2dc9d5ac...\n30bb7a90124187ff...\n\n\n*-riscv64-linux-gnu-debug.tar.gz\n7d8b9014969a08da...\nbfd196dfb0cc4476...\n\n\n*-riscv64-linux-gnu.tar.gz\n438b42da9a291e2f...\ncee7445fde95370d...\n\n\n*-x86_64-apple-darwin-unsigned.dmg\n78ca4e79ed9ece24...\n545a76ff14755dfb...\n\n\n*-x86_64-apple-darwin-unsigned.tar.gz\nd095933ca892b94d...\nd555c5cfb6c67dc0...\n\n\n*-x86_64-apple-darwin.tar.gz\n205fcb134ef6c0af...\n2834046930232f7e...\n\n\n*-x86_64-linux-gnu-debug.tar.gz\n84f7446ac841adfc...\n904fe07e3a50d1b3...\n\n\n*-x86_64-linux-gnu.tar.gz\n5e993ccc4b8fddcc...\n05c5500593801a2e...\n\n\n*.tar.gz\nd6df1b6cfcaf61ef...\n0c141d625ab848f1...\n\n\nguix_build.log\nf3041abc3dda7e6d...\n6eea07345df6be47...\n\n\nguix_build.log.diff\n\nc500fae4a57fa582...",
    "body": "<!--9cd9c72976c961c55c7acef8f6ba82cd-->\n### Guix builds\n\n| File | commit 7bf078f2b7d4a0339d053144b4fb35fe020dac25<br>(master) | commit b505c44cbd8b2d5741620f74c37efc45b5bcda96<br>(master and this pull) |\n|--|--|--|\n| SHA256SUMS.part | [`d81349061cab17da...`](https://drahtbot.space/guix/bitcoin/bitcoin/7bf078f2b7d4a0339d053144b4fb35fe020dac25/SHA256SUMS.part) | [`fa5f9e2ea247568a...`](https://drahtbot.space/guix/bitcoin/bitcoin/b505c44cbd8b2d5741620f74c37efc45b5bcda96/SHA256SUMS.part) |\n| *-aarch64-linux-gnu-debug.tar.gz | [`6d175297dbb8831e...`](https://drahtbot.space/guix/bitcoin/bitcoin/7bf078f2b7d4a0339d053144b4fb35fe020dac25/bitcoin-7bf078f2b7d4-aarch64-linux-gnu-debug.tar.gz) | [`40e5ff0d6536a925...`](https://drahtbot.space/guix/bitcoin/bitcoin/b505c44cbd8b2d5741620f74c37efc45b5bcda96/bitcoin-b505c44cbd8b-aarch64-linux-gnu-debug.tar.gz) |\n| *-aarch64-linux-gnu.tar.gz | [`e61e8603f9297017...`](https://drahtbot.space/guix/bitcoin/bitcoin/7bf078f2b7d4a0339d053144b4fb35fe020dac25/bitcoin-7bf078f2b7d4-aarch64-linux-gnu.tar.gz) | [`8da68855f47f9f1f...`](https://drahtbot.space/guix/bitcoin/bitcoin/b505c44cbd8b2d5741620f74c37efc45b5bcda96/bitcoin-b505c44cbd8b-aarch64-linux-gnu.tar.gz) |\n| *-arm-linux-gnueabihf-debug.tar.gz | [`e56d667d9b891b61...`](https://drahtbot.space/guix/bitcoin/bitcoin/7bf078f2b7d4a0339d053144b4fb35fe020dac25/bitcoin-7bf078f2b7d4-arm-linux-gnueabihf-debug.tar.gz) | [`0b8ca8ddff1e5441...`](https://drahtbot.space/guix/bitcoin/bitcoin/b505c44cbd8b2d5741620f74c37efc45b5bcda96/bitcoin-b505c44cbd8b-arm-linux-gnueabihf-debug.tar.gz) |\n| *-arm-linux-gnueabihf.tar.gz | [`c1816a22884e5971...`](https://drahtbot.space/guix/bitcoin/bitcoin/7bf078f2b7d4a0339d053144b4fb35fe020dac25/bitcoin-7bf078f2b7d4-arm-linux-gnueabihf.tar.gz) | [`0e00bff374308318...`](https://drahtbot.space/guix/bitcoin/bitcoin/b505c44cbd8b2d5741620f74c37efc45b5bcda96/bitcoin-b505c44cbd8b-arm-linux-gnueabihf.tar.gz) |\n| *-arm64-apple-darwin-unsigned.dmg | [`30dde8ffdbf60854...`](https://drahtbot.space/guix/bitcoin/bitcoin/7bf078f2b7d4a0339d053144b4fb35fe020dac25/bitcoin-7bf078f2b7d4-arm64-apple-darwin-unsigned.dmg) | [`7d763b42e0da5662...`](https://drahtbot.space/guix/bitcoin/bitcoin/b505c44cbd8b2d5741620f74c37efc45b5bcda96/bitcoin-b505c44cbd8b-arm64-apple-darwin-unsigned.dmg) |\n| *-arm64-apple-darwin-unsigned.tar.gz | [`c7f351889d8f90d8...`](https://drahtbot.space/guix/bitcoin/bitcoin/7bf078f2b7d4a0339d053144b4fb35fe020dac25/bitcoin-7bf078f2b7d4-arm64-apple-darwin-unsigned.tar.gz) | [`2698da70dfa0165b...`](https://drahtbot.space/guix/bitcoin/bitcoin/b505c44cbd8b2d5741620f74c37efc45b5bcda96/bitcoin-b505c44cbd8b-arm64-apple-darwin-unsigned.tar.gz) |\n| *-arm64-apple-darwin.tar.gz | [`ceb1730404429e8f...`](https://drahtbot.space/guix/bitcoin/bitcoin/7bf078f2b7d4a0339d053144b4fb35fe020dac25/bitcoin-7bf078f2b7d4-arm64-apple-darwin.tar.gz) | [`12bb8618553b3e7f...`](https://drahtbot.space/guix/bitcoin/bitcoin/b505c44cbd8b2d5741620f74c37efc45b5bcda96/bitcoin-b505c44cbd8b-arm64-apple-darwin.tar.gz) |\n| *-powerpc64-linux-gnu-debug.tar.gz | [`1e65b4b50fdf2e34...`](https://drahtbot.space/guix/bitcoin/bitcoin/7bf078f2b7d4a0339d053144b4fb35fe020dac25/bitcoin-7bf078f2b7d4-powerpc64-linux-gnu-debug.tar.gz) | [`541c41e21fe59eb5...`](https://drahtbot.space/guix/bitcoin/bitcoin/b505c44cbd8b2d5741620f74c37efc45b5bcda96/bitcoin-b505c44cbd8b-powerpc64-linux-gnu-debug.tar.gz) |\n| *-powerpc64-linux-gnu.tar.gz | [`d279fca50aebd7f0...`](https://drahtbot.space/guix/bitcoin/bitcoin/7bf078f2b7d4a0339d053144b4fb35fe020dac25/bitcoin-7bf078f2b7d4-powerpc64-linux-gnu.tar.gz) | [`67a9ca863ffaa7fa...`](https://drahtbot.space/guix/bitcoin/bitcoin/b505c44cbd8b2d5741620f74c37efc45b5bcda96/bitcoin-b505c44cbd8b-powerpc64-linux-gnu.tar.gz) |\n| *-powerpc64le-linux-gnu-debug.tar.gz | [`b6c352a13e7507e2...`](https://drahtbot.space/guix/bitcoin/bitcoin/7bf078f2b7d4a0339d053144b4fb35fe020dac25/bitcoin-7bf078f2b7d4-powerpc64le-linux-gnu-debug.tar.gz) | [`802ad46786dec57e...`](https://drahtbot.space/guix/bitcoin/bitcoin/b505c44cbd8b2d5741620f74c37efc45b5bcda96/bitcoin-b505c44cbd8b-powerpc64le-linux-gnu-debug.tar.gz) |\n| *-powerpc64le-linux-gnu.tar.gz | [`cbd513ae2dc9d5ac...`](https://drahtbot.space/guix/bitcoin/bitcoin/7bf078f2b7d4a0339d053144b4fb35fe020dac25/bitcoin-7bf078f2b7d4-powerpc64le-linux-gnu.tar.gz) | [`30bb7a90124187ff...`](https://drahtbot.space/guix/bitcoin/bitcoin/b505c44cbd8b2d5741620f74c37efc45b5bcda96/bitcoin-b505c44cbd8b-powerpc64le-linux-gnu.tar.gz) |\n| *-riscv64-linux-gnu-debug.tar.gz | [`7d8b9014969a08da...`](https://drahtbot.space/guix/bitcoin/bitcoin/7bf078f2b7d4a0339d053144b4fb35fe020dac25/bitcoin-7bf078f2b7d4-riscv64-linux-gnu-debug.tar.gz) | [`bfd196dfb0cc4476...`](https://drahtbot.space/guix/bitcoin/bitcoin/b505c44cbd8b2d5741620f74c37efc45b5bcda96/bitcoin-b505c44cbd8b-riscv64-linux-gnu-debug.tar.gz) |\n| *-riscv64-linux-gnu.tar.gz | [`438b42da9a291e2f...`](https://drahtbot.space/guix/bitcoin/bitcoin/7bf078f2b7d4a0339d053144b4fb35fe020dac25/bitcoin-7bf078f2b7d4-riscv64-linux-gnu.tar.gz) | [`cee7445fde95370d...`](https://drahtbot.space/guix/bitcoin/bitcoin/b505c44cbd8b2d5741620f74c37efc45b5bcda96/bitcoin-b505c44cbd8b-riscv64-linux-gnu.tar.gz) |\n| *-x86_64-apple-darwin-unsigned.dmg | [`78ca4e79ed9ece24...`](https://drahtbot.space/guix/bitcoin/bitcoin/7bf078f2b7d4a0339d053144b4fb35fe020dac25/bitcoin-7bf078f2b7d4-x86_64-apple-darwin-unsigned.dmg) | [`545a76ff14755dfb...`](https://drahtbot.space/guix/bitcoin/bitcoin/b505c44cbd8b2d5741620f74c37efc45b5bcda96/bitcoin-b505c44cbd8b-x86_64-apple-darwin-unsigned.dmg) |\n| *-x86_64-apple-darwin-unsigned.tar.gz | [`d095933ca892b94d...`](https://drahtbot.space/guix/bitcoin/bitcoin/7bf078f2b7d4a0339d053144b4fb35fe020dac25/bitcoin-7bf078f2b7d4-x86_64-apple-darwin-unsigned.tar.gz) | [`d555c5cfb6c67dc0...`](https://drahtbot.space/guix/bitcoin/bitcoin/b505c44cbd8b2d5741620f74c37efc45b5bcda96/bitcoin-b505c44cbd8b-x86_64-apple-darwin-unsigned.tar.gz) |\n| *-x86_64-apple-darwin.tar.gz | [`205fcb134ef6c0af...`](https://drahtbot.space/guix/bitcoin/bitcoin/7bf078f2b7d4a0339d053144b4fb35fe020dac25/bitcoin-7bf078f2b7d4-x86_64-apple-darwin.tar.gz) | [`2834046930232f7e...`](https://drahtbot.space/guix/bitcoin/bitcoin/b505c44cbd8b2d5741620f74c37efc45b5bcda96/bitcoin-b505c44cbd8b-x86_64-apple-darwin.tar.gz) |\n| *-x86_64-linux-gnu-debug.tar.gz | [`84f7446ac841adfc...`](https://drahtbot.space/guix/bitcoin/bitcoin/7bf078f2b7d4a0339d053144b4fb35fe020dac25/bitcoin-7bf078f2b7d4-x86_64-linux-gnu-debug.tar.gz) | [`904fe07e3a50d1b3...`](https://drahtbot.space/guix/bitcoin/bitcoin/b505c44cbd8b2d5741620f74c37efc45b5bcda96/bitcoin-b505c44cbd8b-x86_64-linux-gnu-debug.tar.gz) |\n| *-x86_64-linux-gnu.tar.gz | [`5e993ccc4b8fddcc...`](https://drahtbot.space/guix/bitcoin/bitcoin/7bf078f2b7d4a0339d053144b4fb35fe020dac25/bitcoin-7bf078f2b7d4-x86_64-linux-gnu.tar.gz) | [`05c5500593801a2e...`](https://drahtbot.space/guix/bitcoin/bitcoin/b505c44cbd8b2d5741620f74c37efc45b5bcda96/bitcoin-b505c44cbd8b-x86_64-linux-gnu.tar.gz) |\n| *.tar.gz | [`d6df1b6cfcaf61ef...`](https://drahtbot.space/guix/bitcoin/bitcoin/7bf078f2b7d4a0339d053144b4fb35fe020dac25/bitcoin-7bf078f2b7d4.tar.gz) | [`0c141d625ab848f1...`](https://drahtbot.space/guix/bitcoin/bitcoin/b505c44cbd8b2d5741620f74c37efc45b5bcda96/bitcoin-b505c44cbd8b.tar.gz) |\n| guix_build.log | [`f3041abc3dda7e6d...`](https://drahtbot.space/guix/bitcoin/bitcoin/7bf078f2b7d4a0339d053144b4fb35fe020dac25/guix_build.log) | [`6eea07345df6be47...`](https://drahtbot.space/guix/bitcoin/bitcoin/b505c44cbd8b2d5741620f74c37efc45b5bcda96/guix_build.log) |\n| guix_build.log.diff |  | [`c500fae4a57fa582...`](https://drahtbot.space/guix/bitcoin/bitcoin/b505c44cbd8b2d5741620f74c37efc45b5bcda96/guix_build.log.diff) |\n\n",
    "reactions": {
      "url": "https://api.github.com/repos/bitcoin/bitcoin/issues/comments/1684733217/reactions",
      "total_count": 0,
      "+1": 0,
      "-1": 0,
      "laugh": 0,
      "hooray": 0,
      "confused": 0,
      "heart": 0,
      "rocket": 0,
      "eyes": 0
    },
    "performed_via_github_app": null
  },
  {
    "url": "https://api.github.com/repos/bitcoin/bitcoin/issues/comments/1685892959",
    "html_url": "https://github.com/bitcoin/bitcoin/pull/28294#issuecomment-1685892959",
    "issue_url": "https://api.github.com/repos/bitcoin/bitcoin/issues/28294",
    "id": 1685892959,
    "node_id": "IC_kwDOABII585kfK9f",
    "user": {
      "login": "maflcko",
      "id": 6399679,
      "node_id": "MDQ6VXNlcjYzOTk2Nzk=",
      "avatar_url": "https://avatars.githubusercontent.com/u/6399679?v=4",
      "gravatar_id": "",
      "url": "https://api.github.com/users/maflcko",
      "html_url": "https://github.com/maflcko",
      "followers_url": "https://api.github.com/users/maflcko/followers",
      "following_url": "https://api.github.com/users/maflcko/following{/other_user}",
      "gists_url": "https://api.github.com/users/maflcko/gists{/gist_id}",
      "starred_url": "https://api.github.com/users/maflcko/starred{/owner}{/repo}",
      "subscriptions_url": "https://api.github.com/users/maflcko/subscriptions",
      "organizations_url": "https://api.github.com/users/maflcko/orgs",
      "repos_url": "https://api.github.com/users/maflcko/repos",
      "events_url": "https://api.github.com/users/maflcko/events{/privacy}",
      "received_events_url": "https://api.github.com/users/maflcko/received_events",
      "type": "User",
      "site_admin": false
    },
    "created_at": "2023-08-21T08:34:00Z",
    "updated_at": "2023-08-21T08:34:00Z",
    "author_association": "MEMBER",
    "body_html": "<p dir=\"auto\">DrahtBot doesn't build windows for now, see <a class=\"commit-link\" data-hovercard-type=\"commit\" data-hovercard-url=\"https://github.com/maflcko/DrahtBot/commit/f276c7e52a9939119ddd9dde620539a6de49a083/hovercard\" href=\"https://github.com/maflcko/DrahtBot/commit/f276c7e52a9939119ddd9dde620539a6de49a083\">maflcko/DrahtBot@<tt>f276c7e</tt></a></p>",
    "body_text": "DrahtBot doesn't build windows for now, see maflcko/DrahtBot@f276c7e",
    "body": "DrahtBot doesn't build windows for now, see https://github.com/MarcoFalke/DrahtBot/commit/f276c7e52a9939119ddd9dde620539a6de49a083",
    "reactions": {
      "url": "https://api.github.com/repos/bitcoin/bitcoin/issues/comments/1685892959/reactions",
      "total_count": 0,
      "+1": 0,
      "-1": 0,
      "laugh": 0,
      "hooray": 0,
      "confused": 0,
      "heart": 0,
      "rocket": 0,
      "eyes": 0
    },
    "performed_via_github_app": null
  },
  {
    "url": "https://api.github.com/repos/bitcoin/bitcoin/issues/comments/1688035939",
    "html_url": "https://github.com/bitcoin/bitcoin/pull/28294#issuecomment-1688035939",
    "issue_url": "https://api.github.com/repos/bitcoin/bitcoin/issues/28294",
    "id": 1688035939,
    "node_id": "IC_kwDOABII585knWJj",
    "user": {
      "login": "fanquake",
      "id": 863730,
      "node_id": "MDQ6VXNlcjg2MzczMA==",
      "avatar_url": "https://avatars.githubusercontent.com/u/863730?v=4",
      "gravatar_id": "",
      "url": "https://api.github.com/users/fanquake",
      "html_url": "https://github.com/fanquake",
      "followers_url": "https://api.github.com/users/fanquake/followers",
      "following_url": "https://api.github.com/users/fanquake/following{/other_user}",
      "gists_url": "https://api.github.com/users/fanquake/gists{/gist_id}",
      "starred_url": "https://api.github.com/users/fanquake/starred{/owner}{/repo}",
      "subscriptions_url": "https://api.github.com/users/fanquake/subscriptions",
      "organizations_url": "https://api.github.com/users/fanquake/orgs",
      "repos_url": "https://api.github.com/users/fanquake/repos",
      "events_url": "https://api.github.com/users/fanquake/events{/privacy}",
      "received_events_url": "https://api.github.com/users/fanquake/received_events",
      "type": "User",
      "site_admin": false
    },
    "created_at": "2023-08-22T11:50:42Z",
    "updated_at": "2023-08-22T11:50:42Z",
    "author_association": "MEMBER",
    "body_html": "<blockquote>\n<p dir=\"auto\">DrahtBot doesn't build windows for now,</p>\n</blockquote>\n<p dir=\"auto\">Added hashes to the OP so people can compare if they'd like.</p>",
    "body_text": "DrahtBot doesn't build windows for now,\n\nAdded hashes to the OP so people can compare if they'd like.",
    "body": "> DrahtBot doesn't build windows for now,\r\n\r\nAdded hashes to the OP so people can compare if they'd like.",
    "reactions": {
      "url": "https://api.github.com/repos/bitcoin/bitcoin/issues/comments/1688035939/reactions",
      "total_count": 0,
      "+1": 0,
      "-1": 0,
      "laugh": 0,
      "hooray": 0,
      "confused": 0,
      "heart": 0,
      "rocket": 0,
      "eyes": 0
    },
    "performed_via_github_app": null
  }
]
