{
  "url": "https://api.github.com/repos/bitcoin/bitcoin/issues/9193",
  "repository_url": "https://api.github.com/repos/bitcoin/bitcoin",
  "labels_url": "https://api.github.com/repos/bitcoin/bitcoin/issues/9193/labels{/name}",
  "comments_url": "https://api.github.com/repos/bitcoin/bitcoin/issues/9193/comments",
  "events_url": "https://api.github.com/repos/bitcoin/bitcoin/issues/9193/events",
  "html_url": "https://github.com/bitcoin/bitcoin/pull/9193",
  "id": 190552892,
  "node_id": "MDExOlB1bGxSZXF1ZXN0OTQ1MTQ5OTY=",
  "number": 9193,
  "title": "Update copyright year to 2016",
  "user": {
    "login": "jeot",
    "id": 4253298,
    "node_id": "MDQ6VXNlcjQyNTMyOTg=",
    "avatar_url": "https://avatars.githubusercontent.com/u/4253298?v=4",
    "gravatar_id": "",
    "url": "https://api.github.com/users/jeot",
    "html_url": "https://github.com/jeot",
    "followers_url": "https://api.github.com/users/jeot/followers",
    "following_url": "https://api.github.com/users/jeot/following{/other_user}",
    "gists_url": "https://api.github.com/users/jeot/gists{/gist_id}",
    "starred_url": "https://api.github.com/users/jeot/starred{/owner}{/repo}",
    "subscriptions_url": "https://api.github.com/users/jeot/subscriptions",
    "organizations_url": "https://api.github.com/users/jeot/orgs",
    "repos_url": "https://api.github.com/users/jeot/repos",
    "events_url": "https://api.github.com/users/jeot/events{/privacy}",
    "received_events_url": "https://api.github.com/users/jeot/received_events",
    "type": "User",
    "site_admin": false
  },
  "labels": [
    {
      "id": 148216,
      "node_id": "MDU6TGFiZWwxNDgyMTY=",
      "url": "https://api.github.com/repos/bitcoin/bitcoin/labels/Docs",
      "name": "Docs",
      "color": "02d7e1",
      "default": false,
      "description": null
    }
  ],
  "state": "closed",
  "locked": true,
  "assignee": null,
  "assignees": [

  ],
  "milestone": null,
  "comments": 2,
  "created_at": "2016-11-20T11:33:32Z",
  "updated_at": "2021-09-08T11:23:36Z",
  "closed_at": "2016-11-21T07:37:38Z",
  "author_association": "NONE",
  "active_lock_reason": "resolved",
  "draft": false,
  "pull_request": {
    "url": "https://api.github.com/repos/bitcoin/bitcoin/pulls/9193",
    "html_url": "https://github.com/bitcoin/bitcoin/pull/9193",
    "diff_url": "https://github.com/bitcoin/bitcoin/pull/9193.diff",
    "patch_url": "https://github.com/bitcoin/bitcoin/pull/9193.patch",
    "merged_at": null
  },
  "body_html": "",
  "body_text": "",
  "body": "",
  "closed_by": {
    "login": "laanwj",
    "id": 126646,
    "node_id": "MDQ6VXNlcjEyNjY0Ng==",
    "avatar_url": "https://avatars.githubusercontent.com/u/126646?v=4",
    "gravatar_id": "",
    "url": "https://api.github.com/users/laanwj",
    "html_url": "https://github.com/laanwj",
    "followers_url": "https://api.github.com/users/laanwj/followers",
    "following_url": "https://api.github.com/users/laanwj/following{/other_user}",
    "gists_url": "https://api.github.com/users/laanwj/gists{/gist_id}",
    "starred_url": "https://api.github.com/users/laanwj/starred{/owner}{/repo}",
    "subscriptions_url": "https://api.github.com/users/laanwj/subscriptions",
    "organizations_url": "https://api.github.com/users/laanwj/orgs",
    "repos_url": "https://api.github.com/users/laanwj/repos",
    "events_url": "https://api.github.com/users/laanwj/events{/privacy}",
    "received_events_url": "https://api.github.com/users/laanwj/received_events",
    "type": "User",
    "site_admin": false
  },
  "reactions": {
    "url": "https://api.github.com/repos/bitcoin/bitcoin/issues/9193/reactions",
    "total_count": 0,
    "+1": 0,
    "-1": 0,
    "laugh": 0,
    "hooray": 0,
    "confused": 0,
    "heart": 0,
    "rocket": 0,
    "eyes": 0
  },
  "timeline_url": "https://api.github.com/repos/bitcoin/bitcoin/issues/9193/timeline",
  "performed_via_github_app": null,
  "state_reason": null
}
