[
  {
    "url": "https://api.github.com/repos/bitcoin/bitcoin/issues/comments/220760848",
    "html_url": "https://github.com/bitcoin/bitcoin/pull/8080#issuecomment-220760848",
    "issue_url": "https://api.github.com/repos/bitcoin/bitcoin/issues/8080",
    "id": 220760848,
    "node_id": "MDEyOklzc3VlQ29tbWVudDIyMDc2MDg0OA==",
    "user": {
      "login": "jonasschnelli",
      "id": 178464,
      "node_id": "MDQ6VXNlcjE3ODQ2NA==",
      "avatar_url": "https://avatars.githubusercontent.com/u/178464?v=4",
      "gravatar_id": "",
      "url": "https://api.github.com/users/jonasschnelli",
      "html_url": "https://github.com/jonasschnelli",
      "followers_url": "https://api.github.com/users/jonasschnelli/followers",
      "following_url": "https://api.github.com/users/jonasschnelli/following{/other_user}",
      "gists_url": "https://api.github.com/users/jonasschnelli/gists{/gist_id}",
      "starred_url": "https://api.github.com/users/jonasschnelli/starred{/owner}{/repo}",
      "subscriptions_url": "https://api.github.com/users/jonasschnelli/subscriptions",
      "organizations_url": "https://api.github.com/users/jonasschnelli/orgs",
      "repos_url": "https://api.github.com/users/jonasschnelli/repos",
      "events_url": "https://api.github.com/users/jonasschnelli/events{/privacy}",
      "received_events_url": "https://api.github.com/users/jonasschnelli/received_events",
      "type": "User",
      "site_admin": false
    },
    "created_at": "2016-05-21T06:01:09Z",
    "updated_at": "2016-05-21T06:01:09Z",
    "author_association": "CONTRIBUTOR",
    "body_html": "<p dir=\"auto\">utACK ef6c31142e52e56af93486986319f5499e72c7df</p>",
    "body_text": "utACK ef6c31142e52e56af93486986319f5499e72c7df",
    "body": "utACK ef6c31142e52e56af93486986319f5499e72c7df\n",
    "reactions": {
      "url": "https://api.github.com/repos/bitcoin/bitcoin/issues/comments/220760848/reactions",
      "total_count": 0,
      "+1": 0,
      "-1": 0,
      "laugh": 0,
      "hooray": 0,
      "confused": 0,
      "heart": 0,
      "rocket": 0,
      "eyes": 0
    },
    "performed_via_github_app": null
  },
  {
    "url": "https://api.github.com/repos/bitcoin/bitcoin/issues/comments/220762516",
    "html_url": "https://github.com/bitcoin/bitcoin/pull/8080#issuecomment-220762516",
    "issue_url": "https://api.github.com/repos/bitcoin/bitcoin/issues/8080",
    "id": 220762516,
    "node_id": "MDEyOklzc3VlQ29tbWVudDIyMDc2MjUxNg==",
    "user": {
      "login": "sipa",
      "id": 548488,
      "node_id": "MDQ6VXNlcjU0ODQ4OA==",
      "avatar_url": "https://avatars.githubusercontent.com/u/548488?v=4",
      "gravatar_id": "",
      "url": "https://api.github.com/users/sipa",
      "html_url": "https://github.com/sipa",
      "followers_url": "https://api.github.com/users/sipa/followers",
      "following_url": "https://api.github.com/users/sipa/following{/other_user}",
      "gists_url": "https://api.github.com/users/sipa/gists{/gist_id}",
      "starred_url": "https://api.github.com/users/sipa/starred{/owner}{/repo}",
      "subscriptions_url": "https://api.github.com/users/sipa/subscriptions",
      "organizations_url": "https://api.github.com/users/sipa/orgs",
      "repos_url": "https://api.github.com/users/sipa/repos",
      "events_url": "https://api.github.com/users/sipa/events{/privacy}",
      "received_events_url": "https://api.github.com/users/sipa/received_events",
      "type": "User",
      "site_admin": false
    },
    "created_at": "2016-05-21T06:52:05Z",
    "updated_at": "2016-05-21T06:52:05Z",
    "author_association": "MEMBER",
    "body_html": "<p dir=\"auto\">utACK ef6c31142e52e56af93486986319f5499e72c7df</p>",
    "body_text": "utACK ef6c31142e52e56af93486986319f5499e72c7df",
    "body": "utACK ef6c31142e52e56af93486986319f5499e72c7df\n",
    "reactions": {
      "url": "https://api.github.com/repos/bitcoin/bitcoin/issues/comments/220762516/reactions",
      "total_count": 0,
      "+1": 0,
      "-1": 0,
      "laugh": 0,
      "hooray": 0,
      "confused": 0,
      "heart": 0,
      "rocket": 0,
      "eyes": 0
    },
    "performed_via_github_app": null
  },
  {
    "url": "https://api.github.com/repos/bitcoin/bitcoin/issues/comments/220890886",
    "html_url": "https://github.com/bitcoin/bitcoin/pull/8080#issuecomment-220890886",
    "issue_url": "https://api.github.com/repos/bitcoin/bitcoin/issues/8080",
    "id": 220890886,
    "node_id": "MDEyOklzc3VlQ29tbWVudDIyMDg5MDg4Ng==",
    "user": {
      "login": "gmaxwell",
      "id": 858454,
      "node_id": "MDQ6VXNlcjg1ODQ1NA==",
      "avatar_url": "https://avatars.githubusercontent.com/u/858454?v=4",
      "gravatar_id": "",
      "url": "https://api.github.com/users/gmaxwell",
      "html_url": "https://github.com/gmaxwell",
      "followers_url": "https://api.github.com/users/gmaxwell/followers",
      "following_url": "https://api.github.com/users/gmaxwell/following{/other_user}",
      "gists_url": "https://api.github.com/users/gmaxwell/gists{/gist_id}",
      "starred_url": "https://api.github.com/users/gmaxwell/starred{/owner}{/repo}",
      "subscriptions_url": "https://api.github.com/users/gmaxwell/subscriptions",
      "organizations_url": "https://api.github.com/users/gmaxwell/orgs",
      "repos_url": "https://api.github.com/users/gmaxwell/repos",
      "events_url": "https://api.github.com/users/gmaxwell/events{/privacy}",
      "received_events_url": "https://api.github.com/users/gmaxwell/received_events",
      "type": "User",
      "site_admin": false
    },
    "created_at": "2016-05-23T05:34:50Z",
    "updated_at": "2016-05-23T05:34:50Z",
    "author_association": "CONTRIBUTOR",
    "body_html": "<p dir=\"auto\">Changed the variable name and added a comment in response to Petertodd's comments, also avoided the nested if per jonasschnelli's comments.</p>",
    "body_text": "Changed the variable name and added a comment in response to Petertodd's comments, also avoided the nested if per jonasschnelli's comments.",
    "body": "Changed the variable name and added a comment in response to Petertodd's comments, also avoided the nested if per jonasschnelli's comments.\n",
    "reactions": {
      "url": "https://api.github.com/repos/bitcoin/bitcoin/issues/comments/220890886/reactions",
      "total_count": 0,
      "+1": 0,
      "-1": 0,
      "laugh": 0,
      "hooray": 0,
      "confused": 0,
      "heart": 0,
      "rocket": 0,
      "eyes": 0
    },
    "performed_via_github_app": null
  },
  {
    "url": "https://api.github.com/repos/bitcoin/bitcoin/issues/comments/221086359",
    "html_url": "https://github.com/bitcoin/bitcoin/pull/8080#issuecomment-221086359",
    "issue_url": "https://api.github.com/repos/bitcoin/bitcoin/issues/8080",
    "id": 221086359,
    "node_id": "MDEyOklzc3VlQ29tbWVudDIyMTA4NjM1OQ==",
    "user": {
      "login": "petertodd",
      "id": 7042,
      "node_id": "MDQ6VXNlcjcwNDI=",
      "avatar_url": "https://avatars.githubusercontent.com/u/7042?v=4",
      "gravatar_id": "",
      "url": "https://api.github.com/users/petertodd",
      "html_url": "https://github.com/petertodd",
      "followers_url": "https://api.github.com/users/petertodd/followers",
      "following_url": "https://api.github.com/users/petertodd/following{/other_user}",
      "gists_url": "https://api.github.com/users/petertodd/gists{/gist_id}",
      "starred_url": "https://api.github.com/users/petertodd/starred{/owner}{/repo}",
      "subscriptions_url": "https://api.github.com/users/petertodd/subscriptions",
      "organizations_url": "https://api.github.com/users/petertodd/orgs",
      "repos_url": "https://api.github.com/users/petertodd/repos",
      "events_url": "https://api.github.com/users/petertodd/events{/privacy}",
      "received_events_url": "https://api.github.com/users/petertodd/received_events",
      "type": "User",
      "site_admin": false
    },
    "created_at": "2016-05-23T20:28:52Z",
    "updated_at": "2016-05-23T20:28:52Z",
    "author_association": "CONTRIBUTOR",
    "body_html": "<p dir=\"auto\">utACK <a class=\"commit-link\" data-hovercard-type=\"commit\" data-hovercard-url=\"https://github.com/bitcoin/bitcoin/commit/8e9890f4ecbc08676d66479ed473d06036ca82be/hovercard\" href=\"https://github.com/bitcoin/bitcoin/commit/8e9890f4ecbc08676d66479ed473d06036ca82be\"><tt>8e9890f</tt></a></p>",
    "body_text": "utACK 8e9890f",
    "body": "utACK https://github.com/bitcoin/bitcoin/pull/8080/commits/8e9890f4ecbc08676d66479ed473d06036ca82be\n",
    "reactions": {
      "url": "https://api.github.com/repos/bitcoin/bitcoin/issues/comments/221086359/reactions",
      "total_count": 0,
      "+1": 0,
      "-1": 0,
      "laugh": 0,
      "hooray": 0,
      "confused": 0,
      "heart": 0,
      "rocket": 0,
      "eyes": 0
    },
    "performed_via_github_app": null
  },
  {
    "url": "https://api.github.com/repos/bitcoin/bitcoin/issues/comments/221170243",
    "html_url": "https://github.com/bitcoin/bitcoin/pull/8080#issuecomment-221170243",
    "issue_url": "https://api.github.com/repos/bitcoin/bitcoin/issues/8080",
    "id": 221170243,
    "node_id": "MDEyOklzc3VlQ29tbWVudDIyMTE3MDI0Mw==",
    "user": {
      "login": "paveljanik",
      "id": 6848764,
      "node_id": "MDQ6VXNlcjY4NDg3NjQ=",
      "avatar_url": "https://avatars.githubusercontent.com/u/6848764?v=4",
      "gravatar_id": "",
      "url": "https://api.github.com/users/paveljanik",
      "html_url": "https://github.com/paveljanik",
      "followers_url": "https://api.github.com/users/paveljanik/followers",
      "following_url": "https://api.github.com/users/paveljanik/following{/other_user}",
      "gists_url": "https://api.github.com/users/paveljanik/gists{/gist_id}",
      "starred_url": "https://api.github.com/users/paveljanik/starred{/owner}{/repo}",
      "subscriptions_url": "https://api.github.com/users/paveljanik/subscriptions",
      "organizations_url": "https://api.github.com/users/paveljanik/orgs",
      "repos_url": "https://api.github.com/users/paveljanik/repos",
      "events_url": "https://api.github.com/users/paveljanik/events{/privacy}",
      "received_events_url": "https://api.github.com/users/paveljanik/received_events",
      "type": "User",
      "site_admin": false
    },
    "created_at": "2016-05-24T05:29:27Z",
    "updated_at": "2016-05-24T05:29:27Z",
    "author_association": "CONTRIBUTOR",
    "body_html": "<p dir=\"auto\">Concept ACK.</p>",
    "body_text": "Concept ACK.",
    "body": "Concept ACK.\n",
    "reactions": {
      "url": "https://api.github.com/repos/bitcoin/bitcoin/issues/comments/221170243/reactions",
      "total_count": 0,
      "+1": 0,
      "-1": 0,
      "laugh": 0,
      "hooray": 0,
      "confused": 0,
      "heart": 0,
      "rocket": 0,
      "eyes": 0
    },
    "performed_via_github_app": null
  },
  {
    "url": "https://api.github.com/repos/bitcoin/bitcoin/issues/comments/221510338",
    "html_url": "https://github.com/bitcoin/bitcoin/pull/8080#issuecomment-221510338",
    "issue_url": "https://api.github.com/repos/bitcoin/bitcoin/issues/8080",
    "id": 221510338,
    "node_id": "MDEyOklzc3VlQ29tbWVudDIyMTUxMDMzOA==",
    "user": {
      "login": "arowser",
      "id": 541066,
      "node_id": "MDQ6VXNlcjU0MTA2Ng==",
      "avatar_url": "https://avatars.githubusercontent.com/u/541066?v=4",
      "gravatar_id": "",
      "url": "https://api.github.com/users/arowser",
      "html_url": "https://github.com/arowser",
      "followers_url": "https://api.github.com/users/arowser/followers",
      "following_url": "https://api.github.com/users/arowser/following{/other_user}",
      "gists_url": "https://api.github.com/users/arowser/gists{/gist_id}",
      "starred_url": "https://api.github.com/users/arowser/starred{/owner}{/repo}",
      "subscriptions_url": "https://api.github.com/users/arowser/subscriptions",
      "organizations_url": "https://api.github.com/users/arowser/orgs",
      "repos_url": "https://api.github.com/users/arowser/repos",
      "events_url": "https://api.github.com/users/arowser/events{/privacy}",
      "received_events_url": "https://api.github.com/users/arowser/received_events",
      "type": "User",
      "site_admin": false
    },
    "created_at": "2016-05-25T08:43:20Z",
    "updated_at": "2016-05-25T08:43:20Z",
    "author_association": "CONTRIBUTOR",
    "body_html": "<p dir=\"auto\">Can one of the admins verify this patch?</p>",
    "body_text": "Can one of the admins verify this patch?",
    "body": "Can one of the admins verify this patch?\n",
    "reactions": {
      "url": "https://api.github.com/repos/bitcoin/bitcoin/issues/comments/221510338/reactions",
      "total_count": 1,
      "+1": 0,
      "-1": 1,
      "laugh": 0,
      "hooray": 0,
      "confused": 0,
      "heart": 0,
      "rocket": 0,
      "eyes": 0
    },
    "performed_via_github_app": null
  }
]
