[
  {
    "url": "https://api.github.com/repos/bitcoin/bitcoin/issues/comments/777863489",
    "html_url": "https://github.com/bitcoin/bitcoin/pull/21157#issuecomment-777863489",
    "issue_url": "https://api.github.com/repos/bitcoin/bitcoin/issues/21157",
    "id": 777863489,
    "node_id": "MDEyOklzc3VlQ29tbWVudDc3Nzg2MzQ4OQ==",
    "user": {
      "login": "jonatack",
      "id": 2415484,
      "node_id": "MDQ6VXNlcjI0MTU0ODQ=",
      "avatar_url": "https://avatars.githubusercontent.com/u/2415484?v=4",
      "gravatar_id": "",
      "url": "https://api.github.com/users/jonatack",
      "html_url": "https://github.com/jonatack",
      "followers_url": "https://api.github.com/users/jonatack/followers",
      "following_url": "https://api.github.com/users/jonatack/following{/other_user}",
      "gists_url": "https://api.github.com/users/jonatack/gists{/gist_id}",
      "starred_url": "https://api.github.com/users/jonatack/starred{/owner}{/repo}",
      "subscriptions_url": "https://api.github.com/users/jonatack/subscriptions",
      "organizations_url": "https://api.github.com/users/jonatack/orgs",
      "repos_url": "https://api.github.com/users/jonatack/repos",
      "events_url": "https://api.github.com/users/jonatack/events{/privacy}",
      "received_events_url": "https://api.github.com/users/jonatack/received_events",
      "type": "User",
      "site_admin": false
    },
    "created_at": "2021-02-11T23:27:00Z",
    "updated_at": "2021-02-11T23:27:00Z",
    "author_association": "CONTRIBUTOR",
    "body_html": "<p dir=\"auto\">(p.s. thank you, it's very kind, but no need to add me as a co-author just for reviewing)</p>",
    "body_text": "(p.s. thank you, it's very kind, but no need to add me as a co-author just for reviewing)",
    "body": "(p.s. thank you, it's very kind, but no need to add me as a co-author just for reviewing) ",
    "reactions": {
      "url": "https://api.github.com/repos/bitcoin/bitcoin/issues/comments/777863489/reactions",
      "total_count": 1,
      "+1": 1,
      "-1": 0,
      "laugh": 0,
      "hooray": 0,
      "confused": 0,
      "heart": 0,
      "rocket": 0,
      "eyes": 0
    },
    "performed_via_github_app": null
  },
  {
    "url": "https://api.github.com/repos/bitcoin/bitcoin/issues/comments/778143776",
    "html_url": "https://github.com/bitcoin/bitcoin/pull/21157#issuecomment-778143776",
    "issue_url": "https://api.github.com/repos/bitcoin/bitcoin/issues/21157",
    "id": 778143776,
    "node_id": "MDEyOklzc3VlQ29tbWVudDc3ODE0Mzc3Ng==",
    "user": {
      "login": "Saibato",
      "id": 34917548,
      "node_id": "MDQ6VXNlcjM0OTE3NTQ4",
      "avatar_url": "https://avatars.githubusercontent.com/u/34917548?v=4",
      "gravatar_id": "",
      "url": "https://api.github.com/users/Saibato",
      "html_url": "https://github.com/Saibato",
      "followers_url": "https://api.github.com/users/Saibato/followers",
      "following_url": "https://api.github.com/users/Saibato/following{/other_user}",
      "gists_url": "https://api.github.com/users/Saibato/gists{/gist_id}",
      "starred_url": "https://api.github.com/users/Saibato/starred{/owner}{/repo}",
      "subscriptions_url": "https://api.github.com/users/Saibato/subscriptions",
      "organizations_url": "https://api.github.com/users/Saibato/orgs",
      "repos_url": "https://api.github.com/users/Saibato/repos",
      "events_url": "https://api.github.com/users/Saibato/events{/privacy}",
      "received_events_url": "https://api.github.com/users/Saibato/received_events",
      "type": "User",
      "site_admin": false
    },
    "created_at": "2021-02-12T11:36:14Z",
    "updated_at": "2021-02-12T11:36:14Z",
    "author_association": "CONTRIBUTOR",
    "body_html": "<p dir=\"auto\">tACK <a class=\"commit-link\" data-hovercard-type=\"commit\" data-hovercard-url=\"https://github.com/bitcoin/bitcoin/commit/056ad79f3899272a2c2b0583f4c9953bbb7387bc/hovercard\" href=\"https://github.com/bitcoin/bitcoin/commit/056ad79f3899272a2c2b0583f4c9953bbb7387bc\"><tt>056ad79</tt></a></p>\n<p dir=\"auto\">nit, Maybe u can add a followup PR?<br>\nAnd electorate further a max privacy ( probable dual node remote Tor service ) config, and the subsequent config steps. since by default a node will listen for clearnet and Tor connections.<br>\nAnd service ( if that became or is possible, instantly even later on the fly  i.e when the node runs and a user would  just install first time Tor or enable it, while a default configed node is running ) in and outbound pure Tor onions, while all dns (UDP) and gossip (TCP) will still route over ip4/6.</p>\n<blockquote>\n<p dir=\"auto\">For maximal privacy, not listening at all is preferable over creating an<br>\nonion service</p>\n</blockquote>",
    "body_text": "tACK 056ad79\nnit, Maybe u can add a followup PR?\nAnd electorate further a max privacy ( probable dual node remote Tor service ) config, and the subsequent config steps. since by default a node will listen for clearnet and Tor connections.\nAnd service ( if that became or is possible, instantly even later on the fly  i.e when the node runs and a user would  just install first time Tor or enable it, while a default configed node is running ) in and outbound pure Tor onions, while all dns (UDP) and gossip (TCP) will still route over ip4/6.\n\nFor maximal privacy, not listening at all is preferable over creating an\nonion service",
    "body": "tACK https://github.com/bitcoin/bitcoin/pull/21157/commits/056ad79f3899272a2c2b0583f4c9953bbb7387bc\r\n\r\nnit, Maybe u can add a followup PR?\r\nAnd electorate further a max privacy ( probable dual node remote Tor service ) config, and the subsequent config steps. since by default a node will listen for clearnet and Tor connections. \r\nAnd service ( if that became or is possible, instantly even later on the fly  i.e when the node runs and a user would  just install first time Tor or enable it, while a default configed node is running ) in and outbound pure Tor onions, while all dns (UDP) and gossip (TCP) will still route over ip4/6.\r\n    \r\n> For maximal privacy, not listening at all is preferable over creating an\r\n  onion service",
    "reactions": {
      "url": "https://api.github.com/repos/bitcoin/bitcoin/issues/comments/778143776/reactions",
      "total_count": 0,
      "+1": 0,
      "-1": 0,
      "laugh": 0,
      "hooray": 0,
      "confused": 0,
      "heart": 0,
      "rocket": 0,
      "eyes": 0
    },
    "performed_via_github_app": null
  },
  {
    "url": "https://api.github.com/repos/bitcoin/bitcoin/issues/comments/778215611",
    "html_url": "https://github.com/bitcoin/bitcoin/pull/21157#issuecomment-778215611",
    "issue_url": "https://api.github.com/repos/bitcoin/bitcoin/issues/21157",
    "id": 778215611,
    "node_id": "MDEyOklzc3VlQ29tbWVudDc3ODIxNTYxMQ==",
    "user": {
      "login": "ghost",
      "id": 10137,
      "node_id": "MDQ6VXNlcjEwMTM3",
      "avatar_url": "https://avatars.githubusercontent.com/u/10137?v=4",
      "gravatar_id": "",
      "url": "https://api.github.com/users/ghost",
      "html_url": "https://github.com/ghost",
      "followers_url": "https://api.github.com/users/ghost/followers",
      "following_url": "https://api.github.com/users/ghost/following{/other_user}",
      "gists_url": "https://api.github.com/users/ghost/gists{/gist_id}",
      "starred_url": "https://api.github.com/users/ghost/starred{/owner}{/repo}",
      "subscriptions_url": "https://api.github.com/users/ghost/subscriptions",
      "organizations_url": "https://api.github.com/users/ghost/orgs",
      "repos_url": "https://api.github.com/users/ghost/repos",
      "events_url": "https://api.github.com/users/ghost/events{/privacy}",
      "received_events_url": "https://api.github.com/users/ghost/received_events",
      "type": "User",
      "site_admin": false
    },
    "created_at": "2021-02-12T14:05:33Z",
    "updated_at": "2021-02-12T14:06:18Z",
    "author_association": "NONE",
    "body_html": "<blockquote>\n<p dir=\"auto\">And electorate further a max privacy ( probable dual node remote Tor service ) config, and the subsequent config steps. since by default a node will listen for clearnet and Tor connections.<br>\nAnd service ( if that became or is possible, instantly even later on the fly i.e when the node runs and a user would just install first time Tor or enable it, while a default configed node is running ) in and outbound pure Tor onions, while all dns (UDP) and gossip (TCP) will still route over ip4/6.</p>\n</blockquote>\n<p dir=\"auto\">This looks interesting but I think we can do this in a new PR together if you could share more details with me on <a href=\"https://twitter.com/prayankgahlot\" rel=\"nofollow\">Twitter</a><br>\nor <a href=\"https://reddit.com/u/prayank_23\" rel=\"nofollow\">Reddit</a> I will experiment with things and let you know.</p>",
    "body_text": "And electorate further a max privacy ( probable dual node remote Tor service ) config, and the subsequent config steps. since by default a node will listen for clearnet and Tor connections.\nAnd service ( if that became or is possible, instantly even later on the fly i.e when the node runs and a user would just install first time Tor or enable it, while a default configed node is running ) in and outbound pure Tor onions, while all dns (UDP) and gossip (TCP) will still route over ip4/6.\n\nThis looks interesting but I think we can do this in a new PR together if you could share more details with me on Twitter\nor Reddit I will experiment with things and let you know.",
    "body": "> And electorate further a max privacy ( probable dual node remote Tor service ) config, and the subsequent config steps. since by default a node will listen for clearnet and Tor connections.\r\nAnd service ( if that became or is possible, instantly even later on the fly i.e when the node runs and a user would just install first time Tor or enable it, while a default configed node is running ) in and outbound pure Tor onions, while all dns (UDP) and gossip (TCP) will still route over ip4/6.\r\n\r\nThis looks interesting but I think we can do this in a new PR together if you could share more details with me on [Twitter](https://twitter.com/prayankgahlot)\r\nor [Reddit](https://reddit.com/u/prayank_23) I will experiment with things and let you know.",
    "reactions": {
      "url": "https://api.github.com/repos/bitcoin/bitcoin/issues/comments/778215611/reactions",
      "total_count": 1,
      "+1": 1,
      "-1": 0,
      "laugh": 0,
      "hooray": 0,
      "confused": 0,
      "heart": 0,
      "rocket": 0,
      "eyes": 0
    },
    "performed_via_github_app": null
  },
  {
    "url": "https://api.github.com/repos/bitcoin/bitcoin/issues/comments/778322430",
    "html_url": "https://github.com/bitcoin/bitcoin/pull/21157#issuecomment-778322430",
    "issue_url": "https://api.github.com/repos/bitcoin/bitcoin/issues/21157",
    "id": 778322430,
    "node_id": "MDEyOklzc3VlQ29tbWVudDc3ODMyMjQzMA==",
    "user": {
      "login": "ghost",
      "id": 10137,
      "node_id": "MDQ6VXNlcjEwMTM3",
      "avatar_url": "https://avatars.githubusercontent.com/u/10137?v=4",
      "gravatar_id": "",
      "url": "https://api.github.com/users/ghost",
      "html_url": "https://github.com/ghost",
      "followers_url": "https://api.github.com/users/ghost/followers",
      "following_url": "https://api.github.com/users/ghost/following{/other_user}",
      "gists_url": "https://api.github.com/users/ghost/gists{/gist_id}",
      "starred_url": "https://api.github.com/users/ghost/starred{/owner}{/repo}",
      "subscriptions_url": "https://api.github.com/users/ghost/subscriptions",
      "organizations_url": "https://api.github.com/users/ghost/orgs",
      "repos_url": "https://api.github.com/users/ghost/repos",
      "events_url": "https://api.github.com/users/ghost/events{/privacy}",
      "received_events_url": "https://api.github.com/users/ghost/received_events",
      "type": "User",
      "site_admin": false
    },
    "created_at": "2021-02-12T17:11:44Z",
    "updated_at": "2021-02-12T17:11:44Z",
    "author_association": "NONE",
    "body_html": "<blockquote>\n<p dir=\"auto\">it would seem valuable to add some of the points mentioned by <a class=\"user-mention notranslate\" data-hovercard-type=\"user\" data-hovercard-url=\"/users/sipa/hovercard\" data-octo-click=\"hovercard-link-click\" data-octo-dimensions=\"link_type:self\" href=\"https://github.com/sipa\">@sipa</a> or maybe the wiki I linked, but that could also be done in a different pull</p>\n</blockquote>\n<p dir=\"auto\">Sure. We can add some of the things <a href=\"https://github.com/bitcoin/bitcoin/pull/21157#discussion_r574894711\" data-hovercard-type=\"pull_request\" data-hovercard-url=\"/bitcoin/bitcoin/pull/21157/hovercard\">mentioned above</a> about <code class=\"notranslate\">onlynet=onion</code></p>\n<p dir=\"auto\">Maybe in \"Privacy Recommendations\"? Can include few important points mentioned by <a class=\"user-mention notranslate\" data-hovercard-type=\"user\" data-hovercard-url=\"/users/sipa/hovercard\" data-octo-click=\"hovercard-link-click\" data-octo-dimensions=\"link_type:self\" href=\"https://github.com/sipa\">@sipa</a> and <a class=\"user-mention notranslate\" data-hovercard-type=\"user\" data-hovercard-url=\"/users/jonatack/hovercard\" data-octo-click=\"hovercard-link-click\" data-octo-dimensions=\"link_type:self\" href=\"https://github.com/jonatack\">@jonatack</a></p>\n<p dir=\"auto\">Not sure what exactly should be the sentences and if this PR or a new PR.</p>",
    "body_text": "it would seem valuable to add some of the points mentioned by @sipa or maybe the wiki I linked, but that could also be done in a different pull\n\nSure. We can add some of the things mentioned above about onlynet=onion\nMaybe in \"Privacy Recommendations\"? Can include few important points mentioned by @sipa and @jonatack\nNot sure what exactly should be the sentences and if this PR or a new PR.",
    "body": "> it would seem valuable to add some of the points mentioned by @sipa or maybe the wiki I linked, but that could also be done in a different pull\r\n\r\nSure. We can add some of the things [mentioned above](https://github.com/bitcoin/bitcoin/pull/21157#discussion_r574894711) about `onlynet=onion`\r\n\r\nMaybe in \"Privacy Recommendations\"? Can include few important points mentioned by @sipa and @jonatack \r\n\r\nNot sure what exactly should be the sentences and if this PR or a new PR.",
    "reactions": {
      "url": "https://api.github.com/repos/bitcoin/bitcoin/issues/comments/778322430/reactions",
      "total_count": 1,
      "+1": 0,
      "-1": 0,
      "laugh": 0,
      "hooray": 0,
      "confused": 0,
      "heart": 0,
      "rocket": 0,
      "eyes": 1
    },
    "performed_via_github_app": null
  },
  {
    "url": "https://api.github.com/repos/bitcoin/bitcoin/issues/comments/779206384",
    "html_url": "https://github.com/bitcoin/bitcoin/pull/21157#issuecomment-779206384",
    "issue_url": "https://api.github.com/repos/bitcoin/bitcoin/issues/21157",
    "id": 779206384,
    "node_id": "MDEyOklzc3VlQ29tbWVudDc3OTIwNjM4NA==",
    "user": {
      "login": "RiccardoMasutti",
      "id": 46527252,
      "node_id": "MDQ6VXNlcjQ2NTI3MjUy",
      "avatar_url": "https://avatars.githubusercontent.com/u/46527252?v=4",
      "gravatar_id": "",
      "url": "https://api.github.com/users/RiccardoMasutti",
      "html_url": "https://github.com/RiccardoMasutti",
      "followers_url": "https://api.github.com/users/RiccardoMasutti/followers",
      "following_url": "https://api.github.com/users/RiccardoMasutti/following{/other_user}",
      "gists_url": "https://api.github.com/users/RiccardoMasutti/gists{/gist_id}",
      "starred_url": "https://api.github.com/users/RiccardoMasutti/starred{/owner}{/repo}",
      "subscriptions_url": "https://api.github.com/users/RiccardoMasutti/subscriptions",
      "organizations_url": "https://api.github.com/users/RiccardoMasutti/orgs",
      "repos_url": "https://api.github.com/users/RiccardoMasutti/repos",
      "events_url": "https://api.github.com/users/RiccardoMasutti/events{/privacy}",
      "received_events_url": "https://api.github.com/users/RiccardoMasutti/received_events",
      "type": "User",
      "site_admin": false
    },
    "created_at": "2021-02-15T12:55:57Z",
    "updated_at": "2021-02-15T12:55:57Z",
    "author_association": "CONTRIBUTOR",
    "body_html": "<p dir=\"auto\">I think we should also talk about <a href=\"https://gitlab.torproject.org/legacy/trac/-/wikis/doc/torsocks\" rel=\"nofollow\">torsocks</a> and advice users to download packages with it:</p>\n<blockquote>\n<p dir=\"auto\">Torsocks is a torifying wrapper that is primarily used to redirect all the network traffic of individual SOCKS-friendly applications through the Tor network. It also ensures DNS queries are handled correctly and explicitly blocks all UDP traffic from the application in question. Torsocks is the successor of tsocks and is still actively maintained. It is simply packaged as <strong>torsocks</strong> and is available (and often automatically included with the <strong>tor</strong> package) in many *nix based distributions.</p>\n</blockquote>",
    "body_text": "I think we should also talk about torsocks and advice users to download packages with it:\n\nTorsocks is a torifying wrapper that is primarily used to redirect all the network traffic of individual SOCKS-friendly applications through the Tor network. It also ensures DNS queries are handled correctly and explicitly blocks all UDP traffic from the application in question. Torsocks is the successor of tsocks and is still actively maintained. It is simply packaged as torsocks and is available (and often automatically included with the tor package) in many *nix based distributions.",
    "body": "I think we should also talk about [torsocks](https://gitlab.torproject.org/legacy/trac/-/wikis/doc/torsocks) and advice users to download packages with it:\r\n\r\n> Torsocks is a torifying wrapper that is primarily used to redirect all the network traffic of individual SOCKS-friendly applications through the Tor network. It also ensures DNS queries are handled correctly and explicitly blocks all UDP traffic from the application in question. Torsocks is the successor of tsocks and is still actively maintained. It is simply packaged as **torsocks** and is available (and often automatically included with the **tor** package) in many \\*nix based distributions.",
    "reactions": {
      "url": "https://api.github.com/repos/bitcoin/bitcoin/issues/comments/779206384/reactions",
      "total_count": 0,
      "+1": 0,
      "-1": 0,
      "laugh": 0,
      "hooray": 0,
      "confused": 0,
      "heart": 0,
      "rocket": 0,
      "eyes": 0
    },
    "performed_via_github_app": null
  },
  {
    "url": "https://api.github.com/repos/bitcoin/bitcoin/issues/comments/779309015",
    "html_url": "https://github.com/bitcoin/bitcoin/pull/21157#issuecomment-779309015",
    "issue_url": "https://api.github.com/repos/bitcoin/bitcoin/issues/21157",
    "id": 779309015,
    "node_id": "MDEyOklzc3VlQ29tbWVudDc3OTMwOTAxNQ==",
    "user": {
      "login": "ghost",
      "id": 10137,
      "node_id": "MDQ6VXNlcjEwMTM3",
      "avatar_url": "https://avatars.githubusercontent.com/u/10137?v=4",
      "gravatar_id": "",
      "url": "https://api.github.com/users/ghost",
      "html_url": "https://github.com/ghost",
      "followers_url": "https://api.github.com/users/ghost/followers",
      "following_url": "https://api.github.com/users/ghost/following{/other_user}",
      "gists_url": "https://api.github.com/users/ghost/gists{/gist_id}",
      "starred_url": "https://api.github.com/users/ghost/starred{/owner}{/repo}",
      "subscriptions_url": "https://api.github.com/users/ghost/subscriptions",
      "organizations_url": "https://api.github.com/users/ghost/orgs",
      "repos_url": "https://api.github.com/users/ghost/repos",
      "events_url": "https://api.github.com/users/ghost/events{/privacy}",
      "received_events_url": "https://api.github.com/users/ghost/received_events",
      "type": "User",
      "site_admin": false
    },
    "created_at": "2021-02-15T15:52:10Z",
    "updated_at": "2021-02-15T15:52:10Z",
    "author_association": "NONE",
    "body_html": "<blockquote>\n<p dir=\"auto\">I think we should also talk about torsocks and advice users to download packages with it:</p>\n</blockquote>\n<p dir=\"auto\">Sure. Let me add this and other things suggested above by <em>sipa</em> and <em>jonatack</em>.</p>",
    "body_text": "I think we should also talk about torsocks and advice users to download packages with it:\n\nSure. Let me add this and other things suggested above by sipa and jonatack.",
    "body": "> I think we should also talk about torsocks and advice users to download packages with it:\r\n\r\nSure. Let me add this and other things suggested above by _sipa_ and _jonatack_.",
    "reactions": {
      "url": "https://api.github.com/repos/bitcoin/bitcoin/issues/comments/779309015/reactions",
      "total_count": 0,
      "+1": 0,
      "-1": 0,
      "laugh": 0,
      "hooray": 0,
      "confused": 0,
      "heart": 0,
      "rocket": 0,
      "eyes": 0
    },
    "performed_via_github_app": null
  },
  {
    "url": "https://api.github.com/repos/bitcoin/bitcoin/issues/comments/779486168",
    "html_url": "https://github.com/bitcoin/bitcoin/pull/21157#issuecomment-779486168",
    "issue_url": "https://api.github.com/repos/bitcoin/bitcoin/issues/21157",
    "id": 779486168,
    "node_id": "MDEyOklzc3VlQ29tbWVudDc3OTQ4NjE2OA==",
    "user": {
      "login": "ghost",
      "id": 10137,
      "node_id": "MDQ6VXNlcjEwMTM3",
      "avatar_url": "https://avatars.githubusercontent.com/u/10137?v=4",
      "gravatar_id": "",
      "url": "https://api.github.com/users/ghost",
      "html_url": "https://github.com/ghost",
      "followers_url": "https://api.github.com/users/ghost/followers",
      "following_url": "https://api.github.com/users/ghost/following{/other_user}",
      "gists_url": "https://api.github.com/users/ghost/gists{/gist_id}",
      "starred_url": "https://api.github.com/users/ghost/starred{/owner}{/repo}",
      "subscriptions_url": "https://api.github.com/users/ghost/subscriptions",
      "organizations_url": "https://api.github.com/users/ghost/orgs",
      "repos_url": "https://api.github.com/users/ghost/repos",
      "events_url": "https://api.github.com/users/ghost/events{/privacy}",
      "received_events_url": "https://api.github.com/users/ghost/received_events",
      "type": "User",
      "site_admin": false
    },
    "created_at": "2021-02-15T23:07:44Z",
    "updated_at": "2021-02-15T23:07:44Z",
    "author_association": "NONE",
    "body_html": "<p dir=\"auto\">I have added things suggested by <a class=\"user-mention notranslate\" data-hovercard-type=\"user\" data-hovercard-url=\"/users/sipa/hovercard\" data-octo-click=\"hovercard-link-click\" data-octo-dimensions=\"link_type:self\" href=\"https://github.com/sipa\">@sipa</a> and <a class=\"user-mention notranslate\" data-hovercard-type=\"user\" data-hovercard-url=\"/users/jonatack/hovercard\" data-octo-click=\"hovercard-link-click\" data-octo-dimensions=\"link_type:self\" href=\"https://github.com/jonatack\">@jonatack</a> related to usage of <code class=\"notranslate\">onlynet=onion</code> and downloading packages using <code class=\"notranslate\">torsocks</code> suggested by <a class=\"user-mention notranslate\" data-hovercard-type=\"user\" data-hovercard-url=\"/users/RiccardoMasutti/hovercard\" data-octo-click=\"hovercard-link-click\" data-octo-dimensions=\"link_type:self\" href=\"https://github.com/RiccardoMasutti\">@RiccardoMasutti</a> as privacy recommendations in <a class=\"commit-link\" data-hovercard-type=\"commit\" data-hovercard-url=\"https://github.com/bitcoin/bitcoin/commit/c3f2243100c518fb52ba0f65874dad8e51de6b80/hovercard\" href=\"https://github.com/bitcoin/bitcoin/commit/c3f2243100c518fb52ba0f65874dad8e51de6b80\"><tt>c3f2243</tt></a></p>",
    "body_text": "I have added things suggested by @sipa and @jonatack related to usage of onlynet=onion and downloading packages using torsocks suggested by @RiccardoMasutti as privacy recommendations in c3f2243",
    "body": "I have added things suggested by @sipa and @jonatack related to usage of `onlynet=onion` and downloading packages using `torsocks` suggested by @RiccardoMasutti as privacy recommendations in https://github.com/bitcoin/bitcoin/pull/21157/commits/c3f2243100c518fb52ba0f65874dad8e51de6b80",
    "reactions": {
      "url": "https://api.github.com/repos/bitcoin/bitcoin/issues/comments/779486168/reactions",
      "total_count": 1,
      "+1": 0,
      "-1": 0,
      "laugh": 0,
      "hooray": 0,
      "confused": 0,
      "heart": 0,
      "rocket": 1,
      "eyes": 0
    },
    "performed_via_github_app": null
  },
  {
    "url": "https://api.github.com/repos/bitcoin/bitcoin/issues/comments/784150836",
    "html_url": "https://github.com/bitcoin/bitcoin/pull/21157#issuecomment-784150836",
    "issue_url": "https://api.github.com/repos/bitcoin/bitcoin/issues/21157",
    "id": 784150836,
    "node_id": "MDEyOklzc3VlQ29tbWVudDc4NDE1MDgzNg==",
    "user": {
      "login": "ghost",
      "id": 10137,
      "node_id": "MDQ6VXNlcjEwMTM3",
      "avatar_url": "https://avatars.githubusercontent.com/u/10137?v=4",
      "gravatar_id": "",
      "url": "https://api.github.com/users/ghost",
      "html_url": "https://github.com/ghost",
      "followers_url": "https://api.github.com/users/ghost/followers",
      "following_url": "https://api.github.com/users/ghost/following{/other_user}",
      "gists_url": "https://api.github.com/users/ghost/gists{/gist_id}",
      "starred_url": "https://api.github.com/users/ghost/starred{/owner}{/repo}",
      "subscriptions_url": "https://api.github.com/users/ghost/subscriptions",
      "organizations_url": "https://api.github.com/users/ghost/orgs",
      "repos_url": "https://api.github.com/users/ghost/repos",
      "events_url": "https://api.github.com/users/ghost/events{/privacy}",
      "received_events_url": "https://api.github.com/users/ghost/received_events",
      "type": "User",
      "site_admin": false
    },
    "created_at": "2021-02-23T12:00:12Z",
    "updated_at": "2021-02-23T12:00:12Z",
    "author_association": "NONE",
    "body_html": "<p dir=\"auto\">Let's make it less complicated by improving docs:</p>\n<p dir=\"auto\"><a href=\"https://twitter.com/StopAndDecrypt/status/1363977828291784706\" rel=\"nofollow\">https://twitter.com/StopAndDecrypt/status/1363977828291784706</a></p>",
    "body_text": "Let's make it less complicated by improving docs:\nhttps://twitter.com/StopAndDecrypt/status/1363977828291784706",
    "body": "Let's make it less complicated by improving docs:\r\n\r\nhttps://twitter.com/StopAndDecrypt/status/1363977828291784706\r\n\r\n",
    "reactions": {
      "url": "https://api.github.com/repos/bitcoin/bitcoin/issues/comments/784150836/reactions",
      "total_count": 1,
      "+1": 1,
      "-1": 0,
      "laugh": 0,
      "hooray": 0,
      "confused": 0,
      "heart": 0,
      "rocket": 0,
      "eyes": 0
    },
    "performed_via_github_app": null
  },
  {
    "url": "https://api.github.com/repos/bitcoin/bitcoin/issues/comments/799574692",
    "html_url": "https://github.com/bitcoin/bitcoin/pull/21157#issuecomment-799574692",
    "issue_url": "https://api.github.com/repos/bitcoin/bitcoin/issues/21157",
    "id": 799574692,
    "node_id": "MDEyOklzc3VlQ29tbWVudDc5OTU3NDY5Mg==",
    "user": {
      "login": "DrahtBot",
      "id": 39886733,
      "node_id": "MDQ6VXNlcjM5ODg2NzMz",
      "avatar_url": "https://avatars.githubusercontent.com/u/39886733?v=4",
      "gravatar_id": "",
      "url": "https://api.github.com/users/DrahtBot",
      "html_url": "https://github.com/DrahtBot",
      "followers_url": "https://api.github.com/users/DrahtBot/followers",
      "following_url": "https://api.github.com/users/DrahtBot/following{/other_user}",
      "gists_url": "https://api.github.com/users/DrahtBot/gists{/gist_id}",
      "starred_url": "https://api.github.com/users/DrahtBot/starred{/owner}{/repo}",
      "subscriptions_url": "https://api.github.com/users/DrahtBot/subscriptions",
      "organizations_url": "https://api.github.com/users/DrahtBot/orgs",
      "repos_url": "https://api.github.com/users/DrahtBot/repos",
      "events_url": "https://api.github.com/users/DrahtBot/events{/privacy}",
      "received_events_url": "https://api.github.com/users/DrahtBot/received_events",
      "type": "User",
      "site_admin": false
    },
    "created_at": "2021-03-15T16:50:08Z",
    "updated_at": "2021-03-15T16:50:08Z",
    "author_association": "CONTRIBUTOR",
    "body_html": "\n<p dir=\"auto\">🕵️ <a class=\"user-mention notranslate\" data-hovercard-type=\"user\" data-hovercard-url=\"/users/harding/hovercard\" data-octo-click=\"hovercard-link-click\" data-octo-dimensions=\"link_type:self\" href=\"https://github.com/harding\">@harding</a> has been requested to review this pull request as specified in the REVIEWERS file.</p>",
    "body_text": "🕵️ @harding has been requested to review this pull request as specified in the REVIEWERS file.",
    "body": "<!--4a62be1de6b64f3ed646cdc7932c8cf5-->\n🕵️ @harding has been requested to review this pull request as specified in the REVIEWERS file.",
    "reactions": {
      "url": "https://api.github.com/repos/bitcoin/bitcoin/issues/comments/799574692/reactions",
      "total_count": 0,
      "+1": 0,
      "-1": 0,
      "laugh": 0,
      "hooray": 0,
      "confused": 0,
      "heart": 0,
      "rocket": 0,
      "eyes": 0
    },
    "performed_via_github_app": null
  },
  {
    "url": "https://api.github.com/repos/bitcoin/bitcoin/issues/comments/803324727",
    "html_url": "https://github.com/bitcoin/bitcoin/pull/21157#issuecomment-803324727",
    "issue_url": "https://api.github.com/repos/bitcoin/bitcoin/issues/21157",
    "id": 803324727,
    "node_id": "MDEyOklzc3VlQ29tbWVudDgwMzMyNDcyNw==",
    "user": {
      "login": "Willtech",
      "id": 1173622,
      "node_id": "MDQ6VXNlcjExNzM2MjI=",
      "avatar_url": "https://avatars.githubusercontent.com/u/1173622?v=4",
      "gravatar_id": "",
      "url": "https://api.github.com/users/Willtech",
      "html_url": "https://github.com/Willtech",
      "followers_url": "https://api.github.com/users/Willtech/followers",
      "following_url": "https://api.github.com/users/Willtech/following{/other_user}",
      "gists_url": "https://api.github.com/users/Willtech/gists{/gist_id}",
      "starred_url": "https://api.github.com/users/Willtech/starred{/owner}{/repo}",
      "subscriptions_url": "https://api.github.com/users/Willtech/subscriptions",
      "organizations_url": "https://api.github.com/users/Willtech/orgs",
      "repos_url": "https://api.github.com/users/Willtech/repos",
      "events_url": "https://api.github.com/users/Willtech/events{/privacy}",
      "received_events_url": "https://api.github.com/users/Willtech/received_events",
      "type": "User",
      "site_admin": false
    },
    "created_at": "2021-03-20T13:47:52Z",
    "updated_at": "2021-03-20T13:52:10Z",
    "author_association": "CONTRIBUTOR",
    "body_html": "<p dir=\"auto\"><code class=\"notranslate\">torsocks</code> seems to easily work with <code class=\"notranslate\">torsocks bitcoin-qt --listen=0</code> in my testing. Requires <code class=\"notranslate\">--listen=0</code></p>\n<p dir=\"auto\"><code class=\"notranslate\">torsocks</code> is included by default with <code class=\"notranslate\">sudo get install tor</code> on any recent Fedora</p>\n<ul dir=\"auto\">\n<li>\n<p dir=\"auto\">Is it useful to tell people to install <code class=\"notranslate\">nyx</code> if they wish to monitor Tor?</p>\n</li>\n<li>\n<p dir=\"auto\">If we become Tor central is that bad?</p>\n</li>\n</ul>\n<blockquote>\n<p dir=\"auto\">I think we should also talk about <a href=\"https://gitlab.torproject.org/legacy/trac/-/wikis/doc/torsocks\" rel=\"nofollow\">torsocks</a> and advice users to download packages with it:</p>\n</blockquote>",
    "body_text": "torsocks seems to easily work with torsocks bitcoin-qt --listen=0 in my testing. Requires --listen=0\ntorsocks is included by default with sudo get install tor on any recent Fedora\n\n\nIs it useful to tell people to install nyx if they wish to monitor Tor?\n\n\nIf we become Tor central is that bad?\n\n\n\nI think we should also talk about torsocks and advice users to download packages with it:",
    "body": "`torsocks` seems to easily work with `torsocks bitcoin-qt --listen=0` in my testing. Requires `--listen=0`\r\n\r\n`torsocks` is included by default with `sudo get install tor` on any recent Fedora\r\n\r\n - Is it useful to tell people to install `nyx` if they wish to monitor Tor?\r\n\r\n - If we become Tor central is that bad?\r\n \r\n> I think we should also talk about [torsocks](https://gitlab.torproject.org/legacy/trac/-/wikis/doc/torsocks) and advice users to download packages with it:",
    "reactions": {
      "url": "https://api.github.com/repos/bitcoin/bitcoin/issues/comments/803324727/reactions",
      "total_count": 0,
      "+1": 0,
      "-1": 0,
      "laugh": 0,
      "hooray": 0,
      "confused": 0,
      "heart": 0,
      "rocket": 0,
      "eyes": 0
    },
    "performed_via_github_app": null
  },
  {
    "url": "https://api.github.com/repos/bitcoin/bitcoin/issues/comments/803519963",
    "html_url": "https://github.com/bitcoin/bitcoin/pull/21157#issuecomment-803519963",
    "issue_url": "https://api.github.com/repos/bitcoin/bitcoin/issues/21157",
    "id": 803519963,
    "node_id": "MDEyOklzc3VlQ29tbWVudDgwMzUxOTk2Mw==",
    "user": {
      "login": "ghost",
      "id": 10137,
      "node_id": "MDQ6VXNlcjEwMTM3",
      "avatar_url": "https://avatars.githubusercontent.com/u/10137?v=4",
      "gravatar_id": "",
      "url": "https://api.github.com/users/ghost",
      "html_url": "https://github.com/ghost",
      "followers_url": "https://api.github.com/users/ghost/followers",
      "following_url": "https://api.github.com/users/ghost/following{/other_user}",
      "gists_url": "https://api.github.com/users/ghost/gists{/gist_id}",
      "starred_url": "https://api.github.com/users/ghost/starred{/owner}{/repo}",
      "subscriptions_url": "https://api.github.com/users/ghost/subscriptions",
      "organizations_url": "https://api.github.com/users/ghost/orgs",
      "repos_url": "https://api.github.com/users/ghost/repos",
      "events_url": "https://api.github.com/users/ghost/events{/privacy}",
      "received_events_url": "https://api.github.com/users/ghost/received_events",
      "type": "User",
      "site_admin": false
    },
    "created_at": "2021-03-21T06:18:36Z",
    "updated_at": "2021-03-21T13:41:33Z",
    "author_association": "NONE",
    "body_html": "<blockquote>\n<p dir=\"auto\">Is it useful to tell people to install nyx if they wish to monitor Tor?</p>\n</blockquote>\n<p dir=\"auto\">Yes. Looks interesting. Never used it before but tried today and best thing I like about is the description in FAQ:</p>\n<p dir=\"auto\"><em>Simple - because the Greek goddess of night is short and memorable. Terminal applications are handiest when they're brief and easy to type. Top, ssh, scp - anything longer is just begging to be aliased down.</em></p>\n<p dir=\"auto\"><a target=\"_blank\" rel=\"noopener noreferrer nofollow\" href=\"https://user-images.githubusercontent.com/13405205/111895694-51338800-8a3a-11eb-9062-28a3d1c6de6d.png\"><img src=\"https://user-images.githubusercontent.com/13405205/111895694-51338800-8a3a-11eb-9062-28a3d1c6de6d.png\" alt=\"image\" style=\"max-width: 100%;\"></a></p>\n<p dir=\"auto\">Maybe we can have a mini nyx for <code class=\"notranslate\">bitcoind</code> or new RPC. Although a new follow up PR would be better to increase the probability of getting things merged soon and make it easier for people to review.</p>\n<blockquote>\n<p dir=\"auto\">If we become Tor central is that bad?</p>\n</blockquote>\n<p dir=\"auto\">Can you explain this in detail?</p>",
    "body_text": "Is it useful to tell people to install nyx if they wish to monitor Tor?\n\nYes. Looks interesting. Never used it before but tried today and best thing I like about is the description in FAQ:\nSimple - because the Greek goddess of night is short and memorable. Terminal applications are handiest when they're brief and easy to type. Top, ssh, scp - anything longer is just begging to be aliased down.\n\nMaybe we can have a mini nyx for bitcoind or new RPC. Although a new follow up PR would be better to increase the probability of getting things merged soon and make it easier for people to review.\n\nIf we become Tor central is that bad?\n\nCan you explain this in detail?",
    "body": "> Is it useful to tell people to install nyx if they wish to monitor Tor?\r\n\r\nYes. Looks interesting. Never used it before but tried today and best thing I like about is the description in FAQ:\r\n\r\n_Simple - because the Greek goddess of night is short and memorable. Terminal applications are handiest when they're brief and easy to type. Top, ssh, scp - anything longer is just begging to be aliased down._\r\n\r\n![image](https://user-images.githubusercontent.com/13405205/111895694-51338800-8a3a-11eb-9062-28a3d1c6de6d.png)\r\n\r\nMaybe we can have a mini nyx for `bitcoind` or new RPC. Although a new follow up PR would be better to increase the probability of getting things merged soon and make it easier for people to review.\r\n\r\n> If we become Tor central is that bad?\r\n\r\nCan you explain this in detail?",
    "reactions": {
      "url": "https://api.github.com/repos/bitcoin/bitcoin/issues/comments/803519963/reactions",
      "total_count": 0,
      "+1": 0,
      "-1": 0,
      "laugh": 0,
      "hooray": 0,
      "confused": 0,
      "heart": 0,
      "rocket": 0,
      "eyes": 0
    },
    "performed_via_github_app": null
  },
  {
    "url": "https://api.github.com/repos/bitcoin/bitcoin/issues/comments/803591583",
    "html_url": "https://github.com/bitcoin/bitcoin/pull/21157#issuecomment-803591583",
    "issue_url": "https://api.github.com/repos/bitcoin/bitcoin/issues/21157",
    "id": 803591583,
    "node_id": "MDEyOklzc3VlQ29tbWVudDgwMzU5MTU4Mw==",
    "user": {
      "login": "jonatack",
      "id": 2415484,
      "node_id": "MDQ6VXNlcjI0MTU0ODQ=",
      "avatar_url": "https://avatars.githubusercontent.com/u/2415484?v=4",
      "gravatar_id": "",
      "url": "https://api.github.com/users/jonatack",
      "html_url": "https://github.com/jonatack",
      "followers_url": "https://api.github.com/users/jonatack/followers",
      "following_url": "https://api.github.com/users/jonatack/following{/other_user}",
      "gists_url": "https://api.github.com/users/jonatack/gists{/gist_id}",
      "starred_url": "https://api.github.com/users/jonatack/starred{/owner}{/repo}",
      "subscriptions_url": "https://api.github.com/users/jonatack/subscriptions",
      "organizations_url": "https://api.github.com/users/jonatack/orgs",
      "repos_url": "https://api.github.com/users/jonatack/repos",
      "events_url": "https://api.github.com/users/jonatack/events{/privacy}",
      "received_events_url": "https://api.github.com/users/jonatack/received_events",
      "type": "User",
      "site_admin": false
    },
    "created_at": "2021-03-21T14:27:36Z",
    "updated_at": "2021-03-21T14:28:00Z",
    "author_association": "CONTRIBUTOR",
    "body_html": "<blockquote>\n<p dir=\"auto\"><code class=\"notranslate\">torsocks</code> seems to easily work with <code class=\"notranslate\">torsocks bitcoin-qt --listen=0</code> in my testing. Requires <code class=\"notranslate\">--listen=0</code><br>\n* Is it useful to tell people to install <code class=\"notranslate\">nyx</code> if they wish to monitor Tor?</p>\n</blockquote>\n<p dir=\"auto\">Mentioning using <code class=\"notranslate\">nyz</code> (and <code class=\"notranslate\">watch -netinfo</code>, e.g. <code class=\"notranslate\">bitcoin-cli -netinfo help</code>) as node network monitoring tools could be useful indeed.</p>",
    "body_text": "torsocks seems to easily work with torsocks bitcoin-qt --listen=0 in my testing. Requires --listen=0\n* Is it useful to tell people to install nyx if they wish to monitor Tor?\n\nMentioning using nyz (and watch -netinfo, e.g. bitcoin-cli -netinfo help) as node network monitoring tools could be useful indeed.",
    "body": "> `torsocks` seems to easily work with `torsocks bitcoin-qt --listen=0` in my testing. Requires `--listen=0`\r\n>     * Is it useful to tell people to install `nyx` if they wish to monitor Tor?\r\n\r\nMentioning using `nyz` (and `watch -netinfo`, e.g. `bitcoin-cli -netinfo help`) as node network monitoring tools could be useful indeed.",
    "reactions": {
      "url": "https://api.github.com/repos/bitcoin/bitcoin/issues/comments/803591583/reactions",
      "total_count": 0,
      "+1": 0,
      "-1": 0,
      "laugh": 0,
      "hooray": 0,
      "confused": 0,
      "heart": 0,
      "rocket": 0,
      "eyes": 0
    },
    "performed_via_github_app": null
  },
  {
    "url": "https://api.github.com/repos/bitcoin/bitcoin/issues/comments/803631283",
    "html_url": "https://github.com/bitcoin/bitcoin/pull/21157#issuecomment-803631283",
    "issue_url": "https://api.github.com/repos/bitcoin/bitcoin/issues/21157",
    "id": 803631283,
    "node_id": "MDEyOklzc3VlQ29tbWVudDgwMzYzMTI4Mw==",
    "user": {
      "login": "ghost",
      "id": 10137,
      "node_id": "MDQ6VXNlcjEwMTM3",
      "avatar_url": "https://avatars.githubusercontent.com/u/10137?v=4",
      "gravatar_id": "",
      "url": "https://api.github.com/users/ghost",
      "html_url": "https://github.com/ghost",
      "followers_url": "https://api.github.com/users/ghost/followers",
      "following_url": "https://api.github.com/users/ghost/following{/other_user}",
      "gists_url": "https://api.github.com/users/ghost/gists{/gist_id}",
      "starred_url": "https://api.github.com/users/ghost/starred{/owner}{/repo}",
      "subscriptions_url": "https://api.github.com/users/ghost/subscriptions",
      "organizations_url": "https://api.github.com/users/ghost/orgs",
      "repos_url": "https://api.github.com/users/ghost/repos",
      "events_url": "https://api.github.com/users/ghost/events{/privacy}",
      "received_events_url": "https://api.github.com/users/ghost/received_events",
      "type": "User",
      "site_admin": false
    },
    "created_at": "2021-03-21T17:50:07Z",
    "updated_at": "2021-03-21T17:50:07Z",
    "author_association": "NONE",
    "body_html": "<blockquote>\n<p dir=\"auto\">A few grammar fixups and suggestions.</p>\n</blockquote>\n<p dir=\"auto\"><a class=\"user-mention notranslate\" data-hovercard-type=\"user\" data-hovercard-url=\"/users/jonatack/hovercard\" data-octo-click=\"hovercard-link-click\" data-octo-dimensions=\"link_type:self\" href=\"https://github.com/jonatack\">@jonatack</a> Thanks for the review. Made changes in <a class=\"commit-link\" data-hovercard-type=\"commit\" data-hovercard-url=\"https://github.com/bitcoin/bitcoin/commit/193f24c8b9b7d3b8c31f99e42b1511163aaaf492/hovercard\" href=\"https://github.com/bitcoin/bitcoin/commit/193f24c8b9b7d3b8c31f99e42b1511163aaaf492\"><tt>193f24c</tt></a></p>",
    "body_text": "A few grammar fixups and suggestions.\n\n@jonatack Thanks for the review. Made changes in 193f24c",
    "body": "> A few grammar fixups and suggestions.\r\n\r\n@jonatack Thanks for the review. Made changes in https://github.com/bitcoin/bitcoin/pull/21157/commits/193f24c8b9b7d3b8c31f99e42b1511163aaaf492",
    "reactions": {
      "url": "https://api.github.com/repos/bitcoin/bitcoin/issues/comments/803631283/reactions",
      "total_count": 1,
      "+1": 1,
      "-1": 0,
      "laugh": 0,
      "hooray": 0,
      "confused": 0,
      "heart": 0,
      "rocket": 0,
      "eyes": 0
    },
    "performed_via_github_app": null
  },
  {
    "url": "https://api.github.com/repos/bitcoin/bitcoin/issues/comments/808907976",
    "html_url": "https://github.com/bitcoin/bitcoin/pull/21157#issuecomment-808907976",
    "issue_url": "https://api.github.com/repos/bitcoin/bitcoin/issues/21157",
    "id": 808907976,
    "node_id": "MDEyOklzc3VlQ29tbWVudDgwODkwNzk3Ng==",
    "user": {
      "login": "ghost",
      "id": 10137,
      "node_id": "MDQ6VXNlcjEwMTM3",
      "avatar_url": "https://avatars.githubusercontent.com/u/10137?v=4",
      "gravatar_id": "",
      "url": "https://api.github.com/users/ghost",
      "html_url": "https://github.com/ghost",
      "followers_url": "https://api.github.com/users/ghost/followers",
      "following_url": "https://api.github.com/users/ghost/following{/other_user}",
      "gists_url": "https://api.github.com/users/ghost/gists{/gist_id}",
      "starred_url": "https://api.github.com/users/ghost/starred{/owner}{/repo}",
      "subscriptions_url": "https://api.github.com/users/ghost/subscriptions",
      "organizations_url": "https://api.github.com/users/ghost/orgs",
      "repos_url": "https://api.github.com/users/ghost/repos",
      "events_url": "https://api.github.com/users/ghost/events{/privacy}",
      "received_events_url": "https://api.github.com/users/ghost/received_events",
      "type": "User",
      "site_admin": false
    },
    "created_at": "2021-03-28T14:55:36Z",
    "updated_at": "2021-04-11T13:44:27Z",
    "author_association": "NONE",
    "body_html": "<p dir=\"auto\"><del>I won't be active anymore. This is my only PR open in Bitcoin Core. Maintainers can close it or keep it open based on process followed.</del></p>\n<p dir=\"auto\"><del>Thanks everyone.</del></p>\n<p dir=\"auto\">Reopened PR. Will update with one change discussed above about <code class=\"notranslate\">reboot</code></p>",
    "body_text": "I won't be active anymore. This is my only PR open in Bitcoin Core. Maintainers can close it or keep it open based on process followed.\nThanks everyone.\nReopened PR. Will update with one change discussed above about reboot",
    "body": "~~I won't be active anymore. This is my only PR open in Bitcoin Core. Maintainers can close it or keep it open based on process followed.~~\r\n\r\n~~Thanks everyone.~~\r\n\r\nReopened PR. Will update with one change discussed above about `reboot`",
    "reactions": {
      "url": "https://api.github.com/repos/bitcoin/bitcoin/issues/comments/808907976/reactions",
      "total_count": 0,
      "+1": 0,
      "-1": 0,
      "laugh": 0,
      "hooray": 0,
      "confused": 0,
      "heart": 0,
      "rocket": 0,
      "eyes": 0
    },
    "performed_via_github_app": null
  },
  {
    "url": "https://api.github.com/repos/bitcoin/bitcoin/issues/comments/812415710",
    "html_url": "https://github.com/bitcoin/bitcoin/pull/21157#issuecomment-812415710",
    "issue_url": "https://api.github.com/repos/bitcoin/bitcoin/issues/21157",
    "id": 812415710,
    "node_id": "MDEyOklzc3VlQ29tbWVudDgxMjQxNTcxMA==",
    "user": {
      "login": "Willtech",
      "id": 1173622,
      "node_id": "MDQ6VXNlcjExNzM2MjI=",
      "avatar_url": "https://avatars.githubusercontent.com/u/1173622?v=4",
      "gravatar_id": "",
      "url": "https://api.github.com/users/Willtech",
      "html_url": "https://github.com/Willtech",
      "followers_url": "https://api.github.com/users/Willtech/followers",
      "following_url": "https://api.github.com/users/Willtech/following{/other_user}",
      "gists_url": "https://api.github.com/users/Willtech/gists{/gist_id}",
      "starred_url": "https://api.github.com/users/Willtech/starred{/owner}{/repo}",
      "subscriptions_url": "https://api.github.com/users/Willtech/subscriptions",
      "organizations_url": "https://api.github.com/users/Willtech/orgs",
      "repos_url": "https://api.github.com/users/Willtech/repos",
      "events_url": "https://api.github.com/users/Willtech/events{/privacy}",
      "received_events_url": "https://api.github.com/users/Willtech/received_events",
      "type": "User",
      "site_admin": false
    },
    "created_at": "2021-04-02T08:36:02Z",
    "updated_at": "2021-04-02T08:36:02Z",
    "author_association": "CONTRIBUTOR",
    "body_html": "<p dir=\"auto\">Concept ACK<br>\nNeed to re-check the proposed merge e.g. <a class=\"issue-link js-issue-link\" data-error-text=\"Failed to load title\" data-id=\"806768161\" data-permission-text=\"Title is private\" data-url=\"https://github.com/bitcoin/bitcoin/issues/21157\" data-hovercard-type=\"pull_request\" data-hovercard-url=\"/bitcoin/bitcoin/pull/21157/hovercard?comment_id=606136913&amp;comment_type=review_comment\" href=\"https://github.com/bitcoin/bitcoin/pull/21157#discussion_r606136913\">#21157 (comment)</a></p>",
    "body_text": "Concept ACK\nNeed to re-check the proposed merge e.g. #21157 (comment)",
    "body": "Concept ACK \r\nNeed to re-check the proposed merge e.g. https://github.com/bitcoin/bitcoin/pull/21157#discussion_r606136913",
    "reactions": {
      "url": "https://api.github.com/repos/bitcoin/bitcoin/issues/comments/812415710/reactions",
      "total_count": 0,
      "+1": 0,
      "-1": 0,
      "laugh": 0,
      "hooray": 0,
      "confused": 0,
      "heart": 0,
      "rocket": 0,
      "eyes": 0
    },
    "performed_via_github_app": null
  },
  {
    "url": "https://api.github.com/repos/bitcoin/bitcoin/issues/comments/819551862",
    "html_url": "https://github.com/bitcoin/bitcoin/pull/21157#issuecomment-819551862",
    "issue_url": "https://api.github.com/repos/bitcoin/bitcoin/issues/21157",
    "id": 819551862,
    "node_id": "MDEyOklzc3VlQ29tbWVudDgxOTU1MTg2Mg==",
    "user": {
      "login": "laanwj",
      "id": 126646,
      "node_id": "MDQ6VXNlcjEyNjY0Ng==",
      "avatar_url": "https://avatars.githubusercontent.com/u/126646?v=4",
      "gravatar_id": "",
      "url": "https://api.github.com/users/laanwj",
      "html_url": "https://github.com/laanwj",
      "followers_url": "https://api.github.com/users/laanwj/followers",
      "following_url": "https://api.github.com/users/laanwj/following{/other_user}",
      "gists_url": "https://api.github.com/users/laanwj/gists{/gist_id}",
      "starred_url": "https://api.github.com/users/laanwj/starred{/owner}{/repo}",
      "subscriptions_url": "https://api.github.com/users/laanwj/subscriptions",
      "organizations_url": "https://api.github.com/users/laanwj/orgs",
      "repos_url": "https://api.github.com/users/laanwj/repos",
      "events_url": "https://api.github.com/users/laanwj/events{/privacy}",
      "received_events_url": "https://api.github.com/users/laanwj/received_events",
      "type": "User",
      "site_admin": false
    },
    "created_at": "2021-04-14T14:14:32Z",
    "updated_at": "2021-04-14T14:14:32Z",
    "author_association": "MEMBER",
    "body_html": "<blockquote>\n<p dir=\"auto\">Maybe we can have a mini nyx for bitcoind or new RPC. Although a new follow up PR would be better to increase the probability of getting things merged soon and make it easier for people to review.</p>\n</blockquote>\n<p dir=\"auto\">FWIW there are various wonderful terminal tools to monitor a bitcoind node, for example <a href=\"https://github.com/esotericnonsense/bitcoind-ncurses2\">bitcoind-ncurses</a> and <a href=\"https://github.com/curly60e/pyblock\">pyblock</a>. But I'm not really in favor of mentioning them in the repository, I haven't vetted this software, and don't want to maintain a list of them, it's typically more of a wiki thing.</p>",
    "body_text": "Maybe we can have a mini nyx for bitcoind or new RPC. Although a new follow up PR would be better to increase the probability of getting things merged soon and make it easier for people to review.\n\nFWIW there are various wonderful terminal tools to monitor a bitcoind node, for example bitcoind-ncurses and pyblock. But I'm not really in favor of mentioning them in the repository, I haven't vetted this software, and don't want to maintain a list of them, it's typically more of a wiki thing.",
    "body": "> Maybe we can have a mini nyx for bitcoind or new RPC. Although a new follow up PR would be better to increase the probability of getting things merged soon and make it easier for people to review.\r\n\r\nFWIW there are various wonderful terminal tools to monitor a bitcoind node, for example [bitcoind-ncurses](https://github.com/esotericnonsense/bitcoind-ncurses2) and [pyblock](https://github.com/curly60e/pyblock). But I'm not really in favor of mentioning them in the repository, I haven't vetted this software, and don't want to maintain a list of them, it's typically more of a wiki thing.",
    "reactions": {
      "url": "https://api.github.com/repos/bitcoin/bitcoin/issues/comments/819551862/reactions",
      "total_count": 0,
      "+1": 0,
      "-1": 0,
      "laugh": 0,
      "hooray": 0,
      "confused": 0,
      "heart": 0,
      "rocket": 0,
      "eyes": 0
    },
    "performed_via_github_app": null
  },
  {
    "url": "https://api.github.com/repos/bitcoin/bitcoin/issues/comments/831260642",
    "html_url": "https://github.com/bitcoin/bitcoin/pull/21157#issuecomment-831260642",
    "issue_url": "https://api.github.com/repos/bitcoin/bitcoin/issues/21157",
    "id": 831260642,
    "node_id": "MDEyOklzc3VlQ29tbWVudDgzMTI2MDY0Mg==",
    "user": {
      "login": "rebroad",
      "id": 1530283,
      "node_id": "MDQ6VXNlcjE1MzAyODM=",
      "avatar_url": "https://avatars.githubusercontent.com/u/1530283?v=4",
      "gravatar_id": "",
      "url": "https://api.github.com/users/rebroad",
      "html_url": "https://github.com/rebroad",
      "followers_url": "https://api.github.com/users/rebroad/followers",
      "following_url": "https://api.github.com/users/rebroad/following{/other_user}",
      "gists_url": "https://api.github.com/users/rebroad/gists{/gist_id}",
      "starred_url": "https://api.github.com/users/rebroad/starred{/owner}{/repo}",
      "subscriptions_url": "https://api.github.com/users/rebroad/subscriptions",
      "organizations_url": "https://api.github.com/users/rebroad/orgs",
      "repos_url": "https://api.github.com/users/rebroad/repos",
      "events_url": "https://api.github.com/users/rebroad/events{/privacy}",
      "received_events_url": "https://api.github.com/users/rebroad/received_events",
      "type": "User",
      "site_admin": false
    },
    "created_at": "2021-05-03T13:30:24Z",
    "updated_at": "2021-05-03T13:30:39Z",
    "author_association": "CONTRIBUTOR",
    "body_html": "<p dir=\"auto\">Have you mentioned the importance of using Tor version 4? Ideally it would be nice if bitcoin-qt could pop up an alert to the user if the tor version is too old to be useable.</p>",
    "body_text": "Have you mentioned the importance of using Tor version 4? Ideally it would be nice if bitcoin-qt could pop up an alert to the user if the tor version is too old to be useable.",
    "body": "Have you mentioned the importance of using Tor version 4? Ideally it would be nice if bitcoin-qt could pop up an alert to the user if the tor version is too old to be useable.",
    "reactions": {
      "url": "https://api.github.com/repos/bitcoin/bitcoin/issues/comments/831260642/reactions",
      "total_count": 1,
      "+1": 1,
      "-1": 0,
      "laugh": 0,
      "hooray": 0,
      "confused": 0,
      "heart": 0,
      "rocket": 0,
      "eyes": 0
    },
    "performed_via_github_app": null
  },
  {
    "url": "https://api.github.com/repos/bitcoin/bitcoin/issues/comments/832113748",
    "html_url": "https://github.com/bitcoin/bitcoin/pull/21157#issuecomment-832113748",
    "issue_url": "https://api.github.com/repos/bitcoin/bitcoin/issues/21157",
    "id": 832113748,
    "node_id": "MDEyOklzc3VlQ29tbWVudDgzMjExMzc0OA==",
    "user": {
      "login": "michaelfolkson",
      "id": 16323900,
      "node_id": "MDQ6VXNlcjE2MzIzOTAw",
      "avatar_url": "https://avatars.githubusercontent.com/u/16323900?v=4",
      "gravatar_id": "",
      "url": "https://api.github.com/users/michaelfolkson",
      "html_url": "https://github.com/michaelfolkson",
      "followers_url": "https://api.github.com/users/michaelfolkson/followers",
      "following_url": "https://api.github.com/users/michaelfolkson/following{/other_user}",
      "gists_url": "https://api.github.com/users/michaelfolkson/gists{/gist_id}",
      "starred_url": "https://api.github.com/users/michaelfolkson/starred{/owner}{/repo}",
      "subscriptions_url": "https://api.github.com/users/michaelfolkson/subscriptions",
      "organizations_url": "https://api.github.com/users/michaelfolkson/orgs",
      "repos_url": "https://api.github.com/users/michaelfolkson/repos",
      "events_url": "https://api.github.com/users/michaelfolkson/events{/privacy}",
      "received_events_url": "https://api.github.com/users/michaelfolkson/received_events",
      "type": "User",
      "site_admin": false
    },
    "created_at": "2021-05-04T17:27:53Z",
    "updated_at": "2021-05-04T17:27:53Z",
    "author_association": "CONTRIBUTOR",
    "body_html": "<p dir=\"auto\"><a class=\"user-mention notranslate\" data-hovercard-type=\"user\" data-hovercard-url=\"/users/rebroad/hovercard\" data-octo-click=\"hovercard-link-click\" data-octo-dimensions=\"link_type:self\" href=\"https://github.com/rebroad\">@rebroad</a>:</p>\n<blockquote>\n<p dir=\"auto\">Have you mentioned the importance of using Tor version 4?</p>\n</blockquote>\n<p dir=\"auto\">What is the importance of using Tor version 4? It is important to use Tor v3 addresses as v2 addresses are EOL but beyond that I'm not clear on the importance of using Tor version 4. Some critical bug fixes?</p>",
    "body_text": "@rebroad:\n\nHave you mentioned the importance of using Tor version 4?\n\nWhat is the importance of using Tor version 4? It is important to use Tor v3 addresses as v2 addresses are EOL but beyond that I'm not clear on the importance of using Tor version 4. Some critical bug fixes?",
    "body": "@rebroad:\r\n\r\n> Have you mentioned the importance of using Tor version 4?\r\n\r\nWhat is the importance of using Tor version 4? It is important to use Tor v3 addresses as v2 addresses are EOL but beyond that I'm not clear on the importance of using Tor version 4. Some critical bug fixes?",
    "reactions": {
      "url": "https://api.github.com/repos/bitcoin/bitcoin/issues/comments/832113748/reactions",
      "total_count": 0,
      "+1": 0,
      "-1": 0,
      "laugh": 0,
      "hooray": 0,
      "confused": 0,
      "heart": 0,
      "rocket": 0,
      "eyes": 0
    },
    "performed_via_github_app": null
  },
  {
    "url": "https://api.github.com/repos/bitcoin/bitcoin/issues/comments/832931889",
    "html_url": "https://github.com/bitcoin/bitcoin/pull/21157#issuecomment-832931889",
    "issue_url": "https://api.github.com/repos/bitcoin/bitcoin/issues/21157",
    "id": 832931889,
    "node_id": "MDEyOklzc3VlQ29tbWVudDgzMjkzMTg4OQ==",
    "user": {
      "login": "ghost",
      "id": 10137,
      "node_id": "MDQ6VXNlcjEwMTM3",
      "avatar_url": "https://avatars.githubusercontent.com/u/10137?v=4",
      "gravatar_id": "",
      "url": "https://api.github.com/users/ghost",
      "html_url": "https://github.com/ghost",
      "followers_url": "https://api.github.com/users/ghost/followers",
      "following_url": "https://api.github.com/users/ghost/following{/other_user}",
      "gists_url": "https://api.github.com/users/ghost/gists{/gist_id}",
      "starred_url": "https://api.github.com/users/ghost/starred{/owner}{/repo}",
      "subscriptions_url": "https://api.github.com/users/ghost/subscriptions",
      "organizations_url": "https://api.github.com/users/ghost/orgs",
      "repos_url": "https://api.github.com/users/ghost/repos",
      "events_url": "https://api.github.com/users/ghost/events{/privacy}",
      "received_events_url": "https://api.github.com/users/ghost/received_events",
      "type": "User",
      "site_admin": false
    },
    "created_at": "2021-05-05T18:57:15Z",
    "updated_at": "2021-05-05T18:57:15Z",
    "author_association": "NONE",
    "body_html": "<blockquote>\n<p dir=\"auto\">Have you mentioned the importance of using Tor version 4?</p>\n</blockquote>\n<p dir=\"auto\">Latest Tor version is 0.4.5.7 according to <a href=\"https://www.torproject.org/download/tor/\" rel=\"nofollow\">https://www.torproject.org/download/tor/</a></p>\n<blockquote>\n<p dir=\"auto\">Ideally it would be nice if bitcoin-qt could pop up an alert to the user if the tor version is too old to be useable.</p>\n</blockquote>\n<p dir=\"auto\">I think this is a good suggestion and can be added with a new PR if others agree with it. I had some issues with Tor version once: <a class=\"issue-link js-issue-link\" data-error-text=\"Failed to load title\" data-id=\"805962903\" data-permission-text=\"Title is private\" data-url=\"https://github.com/bitcoin/bitcoin/issues/21147\" data-hovercard-type=\"issue\" data-hovercard-url=\"/bitcoin/bitcoin/issues/21147/hovercard\" href=\"https://github.com/bitcoin/bitcoin/issues/21147\">#21147</a></p>",
    "body_text": "Have you mentioned the importance of using Tor version 4?\n\nLatest Tor version is 0.4.5.7 according to https://www.torproject.org/download/tor/\n\nIdeally it would be nice if bitcoin-qt could pop up an alert to the user if the tor version is too old to be useable.\n\nI think this is a good suggestion and can be added with a new PR if others agree with it. I had some issues with Tor version once: #21147",
    "body": "> Have you mentioned the importance of using Tor version 4? \r\n\r\nLatest Tor version is 0.4.5.7 according to https://www.torproject.org/download/tor/\r\n\r\n\r\n> Ideally it would be nice if bitcoin-qt could pop up an alert to the user if the tor version is too old to be useable.\r\n\r\nI think this is a good suggestion and can be added with a new PR if others agree with it. I had some issues with Tor version once: https://github.com/bitcoin/bitcoin/issues/21147",
    "reactions": {
      "url": "https://api.github.com/repos/bitcoin/bitcoin/issues/comments/832931889/reactions",
      "total_count": 0,
      "+1": 0,
      "-1": 0,
      "laugh": 0,
      "hooray": 0,
      "confused": 0,
      "heart": 0,
      "rocket": 0,
      "eyes": 0
    },
    "performed_via_github_app": null
  },
  {
    "url": "https://api.github.com/repos/bitcoin/bitcoin/issues/comments/853177384",
    "html_url": "https://github.com/bitcoin/bitcoin/pull/21157#issuecomment-853177384",
    "issue_url": "https://api.github.com/repos/bitcoin/bitcoin/issues/21157",
    "id": 853177384,
    "node_id": "MDEyOklzc3VlQ29tbWVudDg1MzE3NzM4NA==",
    "user": {
      "login": "ghost",
      "id": 10137,
      "node_id": "MDQ6VXNlcjEwMTM3",
      "avatar_url": "https://avatars.githubusercontent.com/u/10137?v=4",
      "gravatar_id": "",
      "url": "https://api.github.com/users/ghost",
      "html_url": "https://github.com/ghost",
      "followers_url": "https://api.github.com/users/ghost/followers",
      "following_url": "https://api.github.com/users/ghost/following{/other_user}",
      "gists_url": "https://api.github.com/users/ghost/gists{/gist_id}",
      "starred_url": "https://api.github.com/users/ghost/starred{/owner}{/repo}",
      "subscriptions_url": "https://api.github.com/users/ghost/subscriptions",
      "organizations_url": "https://api.github.com/users/ghost/orgs",
      "repos_url": "https://api.github.com/users/ghost/repos",
      "events_url": "https://api.github.com/users/ghost/events{/privacy}",
      "received_events_url": "https://api.github.com/users/ghost/received_events",
      "type": "User",
      "site_admin": false
    },
    "created_at": "2021-06-02T16:35:14Z",
    "updated_at": "2021-06-02T16:35:14Z",
    "author_association": "NONE",
    "body_html": "<p dir=\"auto\">Added <code class=\"notranslate\">proxy</code> in example and rephrased one trade-off according to the suggestion in <a class=\"issue-link js-issue-link\" data-error-text=\"Failed to load title\" data-id=\"806768161\" data-permission-text=\"Title is private\" data-url=\"https://github.com/bitcoin/bitcoin/issues/21157\" data-hovercard-type=\"pull_request\" data-hovercard-url=\"/bitcoin/bitcoin/pull/21157/hovercard?comment_id=627144450&amp;comment_type=review_comment\" href=\"https://github.com/bitcoin/bitcoin/pull/21157#discussion_r627144450\">#21157 (comment)</a></p>\n<p dir=\"auto\">Its been 4 months, PR reviewed by 11 people, almost every suggestion according to the scope of PR was acknowledged and made changes accordingly. Feel free to ACK/NACK so that we can merge this soon and improve Tor docs.</p>",
    "body_text": "Added proxy in example and rephrased one trade-off according to the suggestion in #21157 (comment)\nIts been 4 months, PR reviewed by 11 people, almost every suggestion according to the scope of PR was acknowledged and made changes accordingly. Feel free to ACK/NACK so that we can merge this soon and improve Tor docs.",
    "body": "Added `proxy` in example and rephrased one trade-off according to the suggestion in https://github.com/bitcoin/bitcoin/pull/21157#discussion_r627144450\r\n\r\nIts been 4 months, PR reviewed by 11 people, almost every suggestion according to the scope of PR was acknowledged and made changes accordingly. Feel free to ACK/NACK so that we can merge this soon and improve Tor docs.",
    "reactions": {
      "url": "https://api.github.com/repos/bitcoin/bitcoin/issues/comments/853177384/reactions",
      "total_count": 0,
      "+1": 0,
      "-1": 0,
      "laugh": 0,
      "hooray": 0,
      "confused": 0,
      "heart": 0,
      "rocket": 0,
      "eyes": 0
    },
    "performed_via_github_app": null
  },
  {
    "url": "https://api.github.com/repos/bitcoin/bitcoin/issues/comments/853429166",
    "html_url": "https://github.com/bitcoin/bitcoin/pull/21157#issuecomment-853429166",
    "issue_url": "https://api.github.com/repos/bitcoin/bitcoin/issues/21157",
    "id": 853429166,
    "node_id": "MDEyOklzc3VlQ29tbWVudDg1MzQyOTE2Ng==",
    "user": {
      "login": "harding",
      "id": 61096,
      "node_id": "MDQ6VXNlcjYxMDk2",
      "avatar_url": "https://avatars.githubusercontent.com/u/61096?v=4",
      "gravatar_id": "",
      "url": "https://api.github.com/users/harding",
      "html_url": "https://github.com/harding",
      "followers_url": "https://api.github.com/users/harding/followers",
      "following_url": "https://api.github.com/users/harding/following{/other_user}",
      "gists_url": "https://api.github.com/users/harding/gists{/gist_id}",
      "starred_url": "https://api.github.com/users/harding/starred{/owner}{/repo}",
      "subscriptions_url": "https://api.github.com/users/harding/subscriptions",
      "organizations_url": "https://api.github.com/users/harding/orgs",
      "repos_url": "https://api.github.com/users/harding/repos",
      "events_url": "https://api.github.com/users/harding/events{/privacy}",
      "received_events_url": "https://api.github.com/users/harding/received_events",
      "type": "User",
      "site_admin": false
    },
    "created_at": "2021-06-02T22:41:09Z",
    "updated_at": "2021-06-02T22:41:09Z",
    "author_association": "CONTRIBUTOR",
    "body_html": "<p dir=\"auto\">ACK <a class=\"commit-link\" data-hovercard-type=\"commit\" data-hovercard-url=\"https://github.com/bitcoin/bitcoin/commit/cb46911a3b09f126eeb40e02234d8ca57757e3d6/hovercard\" href=\"https://github.com/bitcoin/bitcoin/commit/cb46911a3b09f126eeb40e02234d8ca57757e3d6\"><tt>cb46911</tt></a> .  Also implementing the suggestion in <a href=\"https://github.com/bitcoin/bitcoin/pull/21157/files#r644364143\">https://github.com/bitcoin/bitcoin/pull/21157/files#r644364143</a> would be fine (I don't think it matters either way)</p>",
    "body_text": "ACK cb46911 .  Also implementing the suggestion in https://github.com/bitcoin/bitcoin/pull/21157/files#r644364143 would be fine (I don't think it matters either way)",
    "body": "ACK cb46911a3b09f126eeb40e02234d8ca57757e3d6 .  Also implementing the suggestion in https://github.com/bitcoin/bitcoin/pull/21157/files#r644364143 would be fine (I don't think it matters either way)",
    "reactions": {
      "url": "https://api.github.com/repos/bitcoin/bitcoin/issues/comments/853429166/reactions",
      "total_count": 0,
      "+1": 0,
      "-1": 0,
      "laugh": 0,
      "hooray": 0,
      "confused": 0,
      "heart": 0,
      "rocket": 0,
      "eyes": 0
    },
    "performed_via_github_app": null
  },
  {
    "url": "https://api.github.com/repos/bitcoin/bitcoin/issues/comments/866447950",
    "html_url": "https://github.com/bitcoin/bitcoin/pull/21157#issuecomment-866447950",
    "issue_url": "https://api.github.com/repos/bitcoin/bitcoin/issues/21157",
    "id": 866447950,
    "node_id": "MDEyOklzc3VlQ29tbWVudDg2NjQ0Nzk1MA==",
    "user": {
      "login": "ghost",
      "id": 10137,
      "node_id": "MDQ6VXNlcjEwMTM3",
      "avatar_url": "https://avatars.githubusercontent.com/u/10137?v=4",
      "gravatar_id": "",
      "url": "https://api.github.com/users/ghost",
      "html_url": "https://github.com/ghost",
      "followers_url": "https://api.github.com/users/ghost/followers",
      "following_url": "https://api.github.com/users/ghost/following{/other_user}",
      "gists_url": "https://api.github.com/users/ghost/gists{/gist_id}",
      "starred_url": "https://api.github.com/users/ghost/starred{/owner}{/repo}",
      "subscriptions_url": "https://api.github.com/users/ghost/subscriptions",
      "organizations_url": "https://api.github.com/users/ghost/orgs",
      "repos_url": "https://api.github.com/users/ghost/repos",
      "events_url": "https://api.github.com/users/ghost/events{/privacy}",
      "received_events_url": "https://api.github.com/users/ghost/received_events",
      "type": "User",
      "site_admin": false
    },
    "created_at": "2021-06-23T01:16:48Z",
    "updated_at": "2021-06-23T01:16:48Z",
    "author_association": "NONE",
    "body_html": "<p dir=\"auto\">Thanks everyone for review. I am closing this PR in favor of alternative PRs: 22316 and 22317</p>\n<p dir=\"auto\">Almost everything remains same. Feel free to ACK/NACK it. Keeping things separate so that one type of change doesn't keep the whole PR pending.</p>",
    "body_text": "Thanks everyone for review. I am closing this PR in favor of alternative PRs: 22316 and 22317\nAlmost everything remains same. Feel free to ACK/NACK it. Keeping things separate so that one type of change doesn't keep the whole PR pending.",
    "body": "Thanks everyone for review. I am closing this PR in favor of alternative PRs: 22316 and 22317\r\n\r\nAlmost everything remains same. Feel free to ACK/NACK it. Keeping things separate so that one type of change doesn't keep the whole PR pending.",
    "reactions": {
      "url": "https://api.github.com/repos/bitcoin/bitcoin/issues/comments/866447950/reactions",
      "total_count": 2,
      "+1": 2,
      "-1": 0,
      "laugh": 0,
      "hooray": 0,
      "confused": 0,
      "heart": 0,
      "rocket": 0,
      "eyes": 0
    },
    "performed_via_github_app": null
  },
  {
    "url": "https://api.github.com/repos/bitcoin/bitcoin/issues/comments/866527841",
    "html_url": "https://github.com/bitcoin/bitcoin/pull/21157#issuecomment-866527841",
    "issue_url": "https://api.github.com/repos/bitcoin/bitcoin/issues/21157",
    "id": 866527841,
    "node_id": "MDEyOklzc3VlQ29tbWVudDg2NjUyNzg0MQ==",
    "user": {
      "login": "DrahtBot",
      "id": 39886733,
      "node_id": "MDQ6VXNlcjM5ODg2NzMz",
      "avatar_url": "https://avatars.githubusercontent.com/u/39886733?v=4",
      "gravatar_id": "",
      "url": "https://api.github.com/users/DrahtBot",
      "html_url": "https://github.com/DrahtBot",
      "followers_url": "https://api.github.com/users/DrahtBot/followers",
      "following_url": "https://api.github.com/users/DrahtBot/following{/other_user}",
      "gists_url": "https://api.github.com/users/DrahtBot/gists{/gist_id}",
      "starred_url": "https://api.github.com/users/DrahtBot/starred{/owner}{/repo}",
      "subscriptions_url": "https://api.github.com/users/DrahtBot/subscriptions",
      "organizations_url": "https://api.github.com/users/DrahtBot/orgs",
      "repos_url": "https://api.github.com/users/DrahtBot/repos",
      "events_url": "https://api.github.com/users/DrahtBot/events{/privacy}",
      "received_events_url": "https://api.github.com/users/DrahtBot/received_events",
      "type": "User",
      "site_admin": false
    },
    "created_at": "2021-06-23T05:12:52Z",
    "updated_at": "2021-06-23T05:12:52Z",
    "author_association": "CONTRIBUTOR",
    "body_html": "\n<p dir=\"auto\">The following sections might be updated with supplementary metadata relevant to reviewers and maintainers.</p>\n\n<h3 dir=\"auto\">Conflicts</h3>\n<p dir=\"auto\">Reviewers, this pull request conflicts with the following ones:</p>\n<ul dir=\"auto\">\n<li><a class=\"issue-link js-issue-link\" data-error-text=\"Failed to load title\" data-id=\"927736687\" data-permission-text=\"Title is private\" data-url=\"https://github.com/bitcoin/bitcoin/issues/22317\" data-hovercard-type=\"pull_request\" data-hovercard-url=\"/bitcoin/bitcoin/pull/22317/hovercard\" href=\"https://github.com/bitcoin/bitcoin/pull/22317\">#22317</a> (doc: Highlight DNS requests part in tor.md by prayank23)</li>\n<li><a class=\"issue-link js-issue-link\" data-error-text=\"Failed to load title\" data-id=\"927736565\" data-permission-text=\"Title is private\" data-url=\"https://github.com/bitcoin/bitcoin/issues/22316\" data-hovercard-type=\"pull_request\" data-hovercard-url=\"/bitcoin/bitcoin/pull/22316/hovercard\" href=\"https://github.com/bitcoin/bitcoin/pull/22316\">#22316</a> (doc: Add 5 privacy recommendations in tor.md by prayank23)</li>\n</ul>\n<p dir=\"auto\">If you consider this pull request important, please also help to review the conflicting pull requests. Ideally, start with the one that should be merged first.</p>",
    "body_text": "The following sections might be updated with supplementary metadata relevant to reviewers and maintainers.\n\nConflicts\nReviewers, this pull request conflicts with the following ones:\n\n#22317 (doc: Highlight DNS requests part in tor.md by prayank23)\n#22316 (doc: Add 5 privacy recommendations in tor.md by prayank23)\n\nIf you consider this pull request important, please also help to review the conflicting pull requests. Ideally, start with the one that should be merged first.",
    "body": "<!--e57a25ab6845829454e8d69fc972939a-->\n\nThe following sections might be updated with supplementary metadata relevant to reviewers and maintainers.\n\n<!--174a7506f384e20aa4161008e828411d-->\n### Conflicts\nReviewers, this pull request conflicts with the following ones:\n\n* #22317 (doc: Highlight DNS requests part in tor.md by prayank23)\n* #22316 (doc: Add 5 privacy recommendations in tor.md by prayank23)\n\nIf you consider this pull request important, please also help to review the conflicting pull requests. Ideally, start with the one that should be merged first.",
    "reactions": {
      "url": "https://api.github.com/repos/bitcoin/bitcoin/issues/comments/866527841/reactions",
      "total_count": 0,
      "+1": 0,
      "-1": 0,
      "laugh": 0,
      "hooray": 0,
      "confused": 0,
      "heart": 0,
      "rocket": 0,
      "eyes": 0
    },
    "performed_via_github_app": null
  }
]
