{
  "url": "https://api.github.com/repos/bitcoin/bitcoin/issues/18988",
  "repository_url": "https://api.github.com/repos/bitcoin/bitcoin",
  "labels_url": "https://api.github.com/repos/bitcoin/bitcoin/issues/18988/labels{/name}",
  "comments_url": "https://api.github.com/repos/bitcoin/bitcoin/issues/18988/comments",
  "events_url": "https://api.github.com/repos/bitcoin/bitcoin/issues/18988/events",
  "html_url": "https://github.com/bitcoin/bitcoin/pull/18988",
  "id": 619442451,
  "node_id": "MDExOlB1bGxSZXF1ZXN0NDE4OTUwNzA0",
  "number": 18988,
  "title": "RFC: Introducing AltNet, a pluggable framework for alternative transports",
  "user": {
    "login": "ariard",
    "id": 23310655,
    "node_id": "MDQ6VXNlcjIzMzEwNjU1",
    "avatar_url": "https://avatars.githubusercontent.com/u/23310655?v=4",
    "gravatar_id": "",
    "url": "https://api.github.com/users/ariard",
    "html_url": "https://github.com/ariard",
    "followers_url": "https://api.github.com/users/ariard/followers",
    "following_url": "https://api.github.com/users/ariard/following{/other_user}",
    "gists_url": "https://api.github.com/users/ariard/gists{/gist_id}",
    "starred_url": "https://api.github.com/users/ariard/starred{/owner}{/repo}",
    "subscriptions_url": "https://api.github.com/users/ariard/subscriptions",
    "organizations_url": "https://api.github.com/users/ariard/orgs",
    "repos_url": "https://api.github.com/users/ariard/repos",
    "events_url": "https://api.github.com/users/ariard/events{/privacy}",
    "received_events_url": "https://api.github.com/users/ariard/received_events",
    "type": "User",
    "site_admin": false
  },
  "labels": [
    {
      "id": 61889416,
      "node_id": "MDU6TGFiZWw2MTg4OTQxNg==",
      "url": "https://api.github.com/repos/bitcoin/bitcoin/labels/Build%20system",
      "name": "Build system",
      "color": "5319e7",
      "default": false,
      "description": null
    },
    {
      "id": 98298007,
      "node_id": "MDU6TGFiZWw5ODI5ODAwNw==",
      "url": "https://api.github.com/repos/bitcoin/bitcoin/labels/P2P",
      "name": "P2P",
      "color": "006b75",
      "default": false,
      "description": null
    },
    {
      "id": 955867938,
      "node_id": "MDU6TGFiZWw5NTU4Njc5Mzg=",
      "url": "https://api.github.com/repos/bitcoin/bitcoin/labels/Needs%20rebase",
      "name": "Needs rebase",
      "color": "cccccc",
      "default": false,
      "description": ""
    }
  ],
  "state": "closed",
  "locked": true,
  "assignee": null,
  "assignees": [

  ],
  "milestone": null,
  "comments": 31,
  "created_at": "2020-05-16T10:50:02Z",
  "updated_at": "2023-05-12T10:01:25Z",
  "closed_at": "2022-05-12T13:30:04Z",
  "author_association": "MEMBER",
  "active_lock_reason": null,
  "draft": false,
  "pull_request": {
    "url": "https://api.github.com/repos/bitcoin/bitcoin/pulls/18988",
    "html_url": "https://github.com/bitcoin/bitcoin/pull/18988",
    "diff_url": "https://github.com/bitcoin/bitcoin/pull/18988.diff",
    "patch_url": "https://github.com/bitcoin/bitcoin/pull/18988.patch",
    "merged_at": null
  },
  "body_html": "<p dir=\"auto\"><strong>As of 14/03/2022 (chain tip hash : 00000000000000000000628002621832be9281faf72c394e66a8bc8446f80c75), this project is under implementation in separate process relying on the multiprocess framework. See <a class=\"issue-link js-issue-link\" data-error-text=\"Failed to load title\" data-id=\"951742885\" data-permission-text=\"Title is private\" data-url=\"https://github.com/chaincodelabs/libmultiprocess/issues/56\" data-hovercard-type=\"issue\" data-hovercard-url=\"/chaincodelabs/libmultiprocess/issues/56/hovercard\" href=\"https://github.com/chaincodelabs/libmultiprocess/issues/56\">chaincodelabs/libmultiprocess#56</a> for more information on current state.</strong></p>\n<p dir=\"auto\">This PR proposes to introduce a new subsystem aiming towards providing a generic framework for integrating alternative transport communication channels inside Bitcoin Core. This PR is a functional proof-of-concept using LN transport protocol as a new link layer for header fetching. See <a class=\"issue-link js-issue-link\" data-error-text=\"Failed to load title\" data-id=\"619442481\" data-permission-text=\"Title is private\" data-url=\"https://github.com/bitcoin/bitcoin/issues/18989\" data-hovercard-type=\"issue\" data-hovercard-url=\"/bitcoin/bitcoin/issues/18989/hovercard\" href=\"https://github.com/bitcoin/bitcoin/issues/18989\">#18989</a> for high-level discussion and proposal merits.</p>\n<h2 dir=\"auto\">The Design</h2>\n<p dir=\"auto\">Previous <a href=\"https://github.com/bitcoin/bitcoin/pull/17376\" data-hovercard-type=\"pull_request\" data-hovercard-url=\"/bitcoin/bitcoin/pull/17376/hovercard\">work</a> has been attempted to increase network security and robustness by increasing communication redundancy. While being optional and fault-tolerant, these attempt don't scale well to integrate a wide-range of alternatives such as <a href=\"https://www.bamsoftware.com/papers/fronting/\" rel=\"nofollow\">domain-fronting</a>, <a href=\"https://github.com/Blockstream/satellite\">orbital communications</a>, <a href=\"https://en.wikipedia.org/wiki/DASH7\" rel=\"nofollow\">amateur radio</a>, <a href=\"https://snowflake.torproject.org/\" rel=\"nofollow\">Tor pluggable transports</a>, unlicensed UHF, Bluetooth, <a href=\"https://geti2p.net/en/\" rel=\"nofollow\">I2P</a>, Lightning<a href=\"http://noiseprotocol.org/\" rel=\"nofollow\"> Noise transport</a>, ... Each of these transports has its own availability, latency, don't bind to the Berkeley sockets model, are unidirectional, require custom peer discovery, are not suited for block traffic, ...</p>\n<p dir=\"auto\">This proposal tries to overcome these issues by laying out a generic \"driver\" framework with its own new processing stack, thereby encapsulating per-transport oddities. It introduces:</p>\n<ul dir=\"auto\">\n<li>Per-transport capabilities (<code class=\"notranslate\">TransportCapabilities</code>). Originally declared by each driver, they abstract driver specifities to general flags, like directionality, protocol messages scope. They could be extended with further attributes, like max bandwidth for adjusted packing or \"privacy\"/\"trustness\" niceness of the link.</li>\n<li>Abstract driver model (<code class=\"notranslate\">CDriver</code>). Basically, it dissociate driver warmup, message preprocessing, sending and reception. Ideally you would want to load them dynamically.</li>\n<li>\"Anycast\" header-fetching (<code class=\"notranslate\">AltLogicValidation::BlockHeaderAnomalie</code>). After notification from the <a href=\"https://github.com/bitcoin/bitcoin/pull/18987\" data-hovercard-type=\"pull_request\" data-hovercard-url=\"/bitcoin/bitcoin/pull/18987/hovercard\">watchdog module</a>, it sends a <code class=\"notranslate\">GETHEADERS</code> message to any peers supporting bidirectionality and headers processing.</li>\n<li>Alternative processing stack (<code class=\"notranslate\">AltLogicValidation</code>). Relying on its own threads, it manages drivers and may take action based on static logical capabilites instead of peer state, reducing likelihood of bugs. In the future, one could implement a more robust headers-syncing strategy like reverse-header or compressed headers. It may also leverage a <a href=\"https://github.com/bitcoin/bitcoin/pull/18963\" data-hovercard-type=\"pull_request\" data-hovercard-url=\"/bitcoin/bitcoin/pull/18963/hovercard\">future asynchronous validation interface</a>.</li>\n</ul>\n<p dir=\"auto\">There are many advantages of this kind of design --, it is easy to integrate new drivers binding to an abstract class, it is easy to reason about due to logical capabilities and at the same time provides granular tuning due to the fine-integration with rpc. Peer discovery and policy or bandwidth/memory DoS-protection are all possible driver add-ons as well. One could envision an rpc like <code class=\"notranslate\">sendemergencytx</code>, broadcasting a transaction on any transport protocol available, like a <a href=\"https://github.com/lightningnetwork/lightning-rfc/blob/master/05-onchain.md#revoked-transaction-close-handling\">LN's justice transaction</a> after detection of being eclipsed.</p>\n<p dir=\"auto\">This module could be made entirely optional at compile-time with <code class=\"notranslate\">--enable-altnet</code> even if such integration with the build system hasn't been made.</p>\n<p dir=\"auto\">Obviously this is an exploratory PoC, I don't expect code here to be merged. Beyond worthiness of doing this in Rust there are a lot of open questions, including the threading/memory model, interface with existing codebase, build system, resources consumption and fault-tolerance. As next steps, I would favor building on the multiprocess work and hosting this new network stack in its own to avoid any bug contamination from introducing complex driver. I encourage those with opinions on the higher level motivation and design discussion to leave their ideas on the linked issue.</p>\n<p dir=\"auto\">High-level design:</p>\n<div class=\"snippet-clipboard-content notranslate position-relative overflow-auto\" data-snippet-clipboard-copy-content=\"          ___________            ______________________\n         |           |          |                      |\n         | CWatchdog |----------|  AltLogicValidation  |\n         |___________|          |______________________|\n                                           |\n                                     ______|______\n                                    |             |\n                                    |  CAltstack  |                                                         \n                                    |_____________| \n                                           |\n                                       ____|____\n                                      |         |\n                                      | CDriver |\n                                      |_________|\n                                           |\n                                   ________|__________\n                                  |                  |\n                                  | ClightningDriver |\n                                  |__________________|\"><pre class=\"notranslate\"><code class=\"notranslate\">          ___________            ______________________\n         |           |          |                      |\n         | CWatchdog |----------|  AltLogicValidation  |\n         |___________|          |______________________|\n                                           |\n                                     ______|______\n                                    |             |\n                                    |  CAltstack  |                                                         \n                                    |_____________| \n                                           |\n                                       ____|____\n                                      |         |\n                                      | CDriver |\n                                      |_________|\n                                           |\n                                   ________|__________\n                                  |                  |\n                                  | ClightningDriver |\n                                  |__________________|\n</code></pre></div>\n<h2 dir=\"auto\">The Demo</h2>\n<p dir=\"auto\">This PoC features a header-fetching round-trip, leveraging LN connection protocol. Each LN node connects to its peers through an encrypted and authenticated channel. Since your LN peer must have chain access, you could leverage this privileged link to create a redundant chain access.</p>\n<p dir=\"auto\">Using C-lightning <a href=\"https://github.com/ElementsProject/lightning/pull/3315\" data-hovercard-type=\"pull_request\" data-hovercard-url=\"/ElementsProject/lightning/pull/3315/hovercard\">custom LN message support</a> and <a href=\"https://github.com/ElementsProject/lightning/blob/master/doc/PLUGINS.md\">plugin API</a>, we could embed directly inside <code class=\"notranslate\">HEADERS</code>/<code class=\"notranslate\">GETHEADERS</code> and realize a round-trip between 2 disconnected bitcoin nodes through their respective C-lightning nodes.</p>\n<p dir=\"auto\">For this to work, you need to compile and run 2 C-lightning nodes,  each with its own data directory and launched with this <a href=\"https://github.com/ariard/bridge-layer\">custom bridge plugin</a>. Once those LN nodes are running, activate bridges by <code class=\"notranslate\">lightning-cli alice_on</code> and <code class=\"notranslate\">lightning-cli bob_on</code>. The plugin doesn't seem to accept CLI argument so I had to hardcode some node addresses.</p>\n<p dir=\"auto\">Then compile 2 bitcoin nodes with this patchset. For one of them you must change the hardcoded port in C-lightning driver and deactivate the watchdog logic. Also, it would be best if you changed <code class=\"notranslate\">SCAN_INTERVAL</code> to something reasonable, for instance 1 min.</p>\n<p dir=\"auto\">High-level setup:</p>\n<div class=\"snippet-clipboard-content notranslate position-relative overflow-auto\" data-snippet-clipboard-copy-content=\"                                             --&gt;\n\n                __________          LN_msg(`GETHEADERS`)                   ________\n               |          |                                               |        |\n               | CL-Alice |-----------------------------------------------| CL-Bob |\n               |__________|                                               |________|           \n                    |               LN_msg(`HEADERS`)                         |\n                ____|_____                                                 ___|_____\n               |          |                 &lt;--                           |         |\n               |  bridge  |                                               | bridge  |\n               |__________|                                               |_________|\n                    |                                                         |\n                ____|_____                                                 ___|____\n               |          |                                               |        |\n               | BC-Alice |                                               | BC-Bob |\n               |__________|                                               |________|\n\n                  HEIGHT                                                   HEIGH + 1\"><pre class=\"notranslate\"><code class=\"notranslate\">                                             --&gt;\n\n                __________          LN_msg(`GETHEADERS`)                   ________\n               |          |                                               |        |\n               | CL-Alice |-----------------------------------------------| CL-Bob |\n               |__________|                                               |________|           \n                    |               LN_msg(`HEADERS`)                         |\n                ____|_____                                                 ___|_____\n               |          |                 &lt;--                           |         |\n               |  bridge  |                                               | bridge  |\n               |__________|                                               |_________|\n                    |                                                         |\n                ____|_____                                                 ___|____\n               |          |                                               |        |\n               | BC-Alice |                                               | BC-Bob |\n               |__________|                                               |________|\n\n                  HEIGHT                                                   HEIGH + 1\n</code></pre></div>\n<p dir=\"auto\">Running both nodes, they should automatically connect to the bridge, and after anomaly detection realize a header exchange, if one of them is at least one block forward (run <code class=\"notranslate\">generatetoaddress 1 $ADDR</code>).</p>\n<p dir=\"auto\">Otherwise you may observe past logs:</p>\n<p dir=\"auto\">Alice:</p>\n<div class=\"snippet-clipboard-content notranslate position-relative overflow-auto\" data-snippet-clipboard-copy-content=\"Ê0-05-16T00:55:11Z Boostrapping Altstack\n2020-05-16T00:55:11Z init message: Done loading\n2020-05-16T00:55:11Z msghand thread start\n2020-05-16T00:55:11Z drivers-warmup thread start\n2020-05-16T00:55:11Z addcon thread start\n2020-05-16T00:55:11Z Registered driver with 0\n2020-05-16T00:55:11Z net thread start\n2020-05-16T00:55:11Z altstack-processing thread start\n2020-05-16T00:55:11Z Clightning - Warmup\n2020-05-16T00:55:11Z dnsseed thread start\n2020-05-16T00:55:11Z altstack-handle thread start\n2020-05-16T00:55:11Z 0 addresses found from DNS seeds\n2020-05-16T00:55:11Z dnsseed thread exit\n2020-05-16T00:55:11Z Clightning - Bridge connection\n2020-05-16T00:55:11Z Registering node_id 0 with driver_id 0\n2020-05-16T00:55:11Z drivers-warmup thread exit\n2020-05-16T00:55:16Z Block header anomalie detected - notifying subscribers\n2020-05-16T00:55:16Z Block header anomalie detected - Anycasting header fetching from 0f9188f13cb7b2c71f2a335e3a4fc328bf5beb436012afca590b1a11466e2206\n2020-05-16T00:55:16Z Clightning - Preprocessing getheader\n2020-05-16T00:55:16Z Cligthning - Bridge send success 71\n2020-05-16T00:55:19Z Cligtning - Bridge receive success\n2020-05-16T00:55:19Z Receive HEADERS from 0\n2020-05-16T00:55:19Z Receiver header 65084efeaffe9929de0a0bb747cf48ac7f9b4edb214b2d1ad2ea468977be8e1e vs tip 0f9188f13cb7b2c71f2a335e3a4fc328bf5beb436012afca590b1a11466e2206\"><pre class=\"notranslate\"><code class=\"notranslate\">Ê0-05-16T00:55:11Z Boostrapping Altstack\n2020-05-16T00:55:11Z init message: Done loading\n2020-05-16T00:55:11Z msghand thread start\n2020-05-16T00:55:11Z drivers-warmup thread start\n2020-05-16T00:55:11Z addcon thread start\n2020-05-16T00:55:11Z Registered driver with 0\n2020-05-16T00:55:11Z net thread start\n2020-05-16T00:55:11Z altstack-processing thread start\n2020-05-16T00:55:11Z Clightning - Warmup\n2020-05-16T00:55:11Z dnsseed thread start\n2020-05-16T00:55:11Z altstack-handle thread start\n2020-05-16T00:55:11Z 0 addresses found from DNS seeds\n2020-05-16T00:55:11Z dnsseed thread exit\n2020-05-16T00:55:11Z Clightning - Bridge connection\n2020-05-16T00:55:11Z Registering node_id 0 with driver_id 0\n2020-05-16T00:55:11Z drivers-warmup thread exit\n2020-05-16T00:55:16Z Block header anomalie detected - notifying subscribers\n2020-05-16T00:55:16Z Block header anomalie detected - Anycasting header fetching from 0f9188f13cb7b2c71f2a335e3a4fc328bf5beb436012afca590b1a11466e2206\n2020-05-16T00:55:16Z Clightning - Preprocessing getheader\n2020-05-16T00:55:16Z Cligthning - Bridge send success 71\n2020-05-16T00:55:19Z Cligtning - Bridge receive success\n2020-05-16T00:55:19Z Receive HEADERS from 0\n2020-05-16T00:55:19Z Receiver header 65084efeaffe9929de0a0bb747cf48ac7f9b4edb214b2d1ad2ea468977be8e1e vs tip 0f9188f13cb7b2c71f2a335e3a4fc328bf5beb436012afca590b1a11466e2206\n</code></pre></div>\n<p dir=\"auto\">Bob:</p>\n<div class=\"snippet-clipboard-content notranslate position-relative overflow-auto\" data-snippet-clipboard-copy-content=\"2020-05-16T00:55:09Z Boostrapping Altstack\n2020-05-16T00:55:09Z addcon thread start\n2020-05-16T00:55:09Z opencon thread start\n2020-05-16T00:55:09Z msghand thread start\n2020-05-16T00:55:09Z drivers-warmup thread start\n2020-05-16T00:55:09Z Registered driver with 0\n2020-05-16T00:55:09Z Clightning - Warmup\n2020-05-16T00:55:09Z init message: Done loading\n2020-05-16T00:55:09Z dnsseed thread exit\n2020-05-16T00:55:09Z altstack-processing thread start\n2020-05-16T00:55:09Z altstack-handle thread start\n2020-05-16T00:55:09Z Clightning - Bridge connection\n2020-05-16T00:55:09Z Registering node_id 0 with driver_id 0\n2020-05-16T00:55:09Z drivers-warmup thread exit\n2020-05-16T00:55:10Z Leaving InitialBlockDownload (latching to false)\n2020-05-16T00:55:17Z Cligtning - Bridge receive success\n2020-05-16T00:55:17Z Receive GETHEADERS from 0\n2020-05-16T00:55:17Z Fetch header starting from 0f9188f13cb7b2c71f2a335e3a4fc328bf5beb436012afca590b1a11466e2206, tip 65084efeaffe9929de0a0bb747cf48ac7f9b4edb214b2d1ad2ea468977be8e1e\n2020-05-16T00:55:17Z Sending back 1 headers\n2020-05-16T00:55:17Z Clightning - Preprocessing header\n2020-05-16T00:55:17Z Cligthning - Bridge send success 84\n2020-05-16T00:56:10Z Adding fixed seed nodes as DNS doesn't seem to be available.\"><pre class=\"notranslate\"><code class=\"notranslate\">2020-05-16T00:55:09Z Boostrapping Altstack\n2020-05-16T00:55:09Z addcon thread start\n2020-05-16T00:55:09Z opencon thread start\n2020-05-16T00:55:09Z msghand thread start\n2020-05-16T00:55:09Z drivers-warmup thread start\n2020-05-16T00:55:09Z Registered driver with 0\n2020-05-16T00:55:09Z Clightning - Warmup\n2020-05-16T00:55:09Z init message: Done loading\n2020-05-16T00:55:09Z dnsseed thread exit\n2020-05-16T00:55:09Z altstack-processing thread start\n2020-05-16T00:55:09Z altstack-handle thread start\n2020-05-16T00:55:09Z Clightning - Bridge connection\n2020-05-16T00:55:09Z Registering node_id 0 with driver_id 0\n2020-05-16T00:55:09Z drivers-warmup thread exit\n2020-05-16T00:55:10Z Leaving InitialBlockDownload (latching to false)\n2020-05-16T00:55:17Z Cligtning - Bridge receive success\n2020-05-16T00:55:17Z Receive GETHEADERS from 0\n2020-05-16T00:55:17Z Fetch header starting from 0f9188f13cb7b2c71f2a335e3a4fc328bf5beb436012afca590b1a11466e2206, tip 65084efeaffe9929de0a0bb747cf48ac7f9b4edb214b2d1ad2ea468977be8e1e\n2020-05-16T00:55:17Z Sending back 1 headers\n2020-05-16T00:55:17Z Clightning - Preprocessing header\n2020-05-16T00:55:17Z Cligthning - Bridge send success 84\n2020-05-16T00:56:10Z Adding fixed seed nodes as DNS doesn't seem to be available.\n</code></pre></div>",
  "body_text": "As of 14/03/2022 (chain tip hash : 00000000000000000000628002621832be9281faf72c394e66a8bc8446f80c75), this project is under implementation in separate process relying on the multiprocess framework. See chaincodelabs/libmultiprocess#56 for more information on current state.\nThis PR proposes to introduce a new subsystem aiming towards providing a generic framework for integrating alternative transport communication channels inside Bitcoin Core. This PR is a functional proof-of-concept using LN transport protocol as a new link layer for header fetching. See #18989 for high-level discussion and proposal merits.\nThe Design\nPrevious work has been attempted to increase network security and robustness by increasing communication redundancy. While being optional and fault-tolerant, these attempt don't scale well to integrate a wide-range of alternatives such as domain-fronting, orbital communications, amateur radio, Tor pluggable transports, unlicensed UHF, Bluetooth, I2P, Lightning Noise transport, ... Each of these transports has its own availability, latency, don't bind to the Berkeley sockets model, are unidirectional, require custom peer discovery, are not suited for block traffic, ...\nThis proposal tries to overcome these issues by laying out a generic \"driver\" framework with its own new processing stack, thereby encapsulating per-transport oddities. It introduces:\n\nPer-transport capabilities (TransportCapabilities). Originally declared by each driver, they abstract driver specifities to general flags, like directionality, protocol messages scope. They could be extended with further attributes, like max bandwidth for adjusted packing or \"privacy\"/\"trustness\" niceness of the link.\nAbstract driver model (CDriver). Basically, it dissociate driver warmup, message preprocessing, sending and reception. Ideally you would want to load them dynamically.\n\"Anycast\" header-fetching (AltLogicValidation::BlockHeaderAnomalie). After notification from the watchdog module, it sends a GETHEADERS message to any peers supporting bidirectionality and headers processing.\nAlternative processing stack (AltLogicValidation). Relying on its own threads, it manages drivers and may take action based on static logical capabilites instead of peer state, reducing likelihood of bugs. In the future, one could implement a more robust headers-syncing strategy like reverse-header or compressed headers. It may also leverage a future asynchronous validation interface.\n\nThere are many advantages of this kind of design --, it is easy to integrate new drivers binding to an abstract class, it is easy to reason about due to logical capabilities and at the same time provides granular tuning due to the fine-integration with rpc. Peer discovery and policy or bandwidth/memory DoS-protection are all possible driver add-ons as well. One could envision an rpc like sendemergencytx, broadcasting a transaction on any transport protocol available, like a LN's justice transaction after detection of being eclipsed.\nThis module could be made entirely optional at compile-time with --enable-altnet even if such integration with the build system hasn't been made.\nObviously this is an exploratory PoC, I don't expect code here to be merged. Beyond worthiness of doing this in Rust there are a lot of open questions, including the threading/memory model, interface with existing codebase, build system, resources consumption and fault-tolerance. As next steps, I would favor building on the multiprocess work and hosting this new network stack in its own to avoid any bug contamination from introducing complex driver. I encourage those with opinions on the higher level motivation and design discussion to leave their ideas on the linked issue.\nHigh-level design:\n          ___________            ______________________\n         |           |          |                      |\n         | CWatchdog |----------|  AltLogicValidation  |\n         |___________|          |______________________|\n                                           |\n                                     ______|______\n                                    |             |\n                                    |  CAltstack  |                                                         \n                                    |_____________| \n                                           |\n                                       ____|____\n                                      |         |\n                                      | CDriver |\n                                      |_________|\n                                           |\n                                   ________|__________\n                                  |                  |\n                                  | ClightningDriver |\n                                  |__________________|\n\nThe Demo\nThis PoC features a header-fetching round-trip, leveraging LN connection protocol. Each LN node connects to its peers through an encrypted and authenticated channel. Since your LN peer must have chain access, you could leverage this privileged link to create a redundant chain access.\nUsing C-lightning custom LN message support and plugin API, we could embed directly inside HEADERS/GETHEADERS and realize a round-trip between 2 disconnected bitcoin nodes through their respective C-lightning nodes.\nFor this to work, you need to compile and run 2 C-lightning nodes,  each with its own data directory and launched with this custom bridge plugin. Once those LN nodes are running, activate bridges by lightning-cli alice_on and lightning-cli bob_on. The plugin doesn't seem to accept CLI argument so I had to hardcode some node addresses.\nThen compile 2 bitcoin nodes with this patchset. For one of them you must change the hardcoded port in C-lightning driver and deactivate the watchdog logic. Also, it would be best if you changed SCAN_INTERVAL to something reasonable, for instance 1 min.\nHigh-level setup:\n                                             -->\n\n                __________          LN_msg(`GETHEADERS`)                   ________\n               |          |                                               |        |\n               | CL-Alice |-----------------------------------------------| CL-Bob |\n               |__________|                                               |________|           \n                    |               LN_msg(`HEADERS`)                         |\n                ____|_____                                                 ___|_____\n               |          |                 <--                           |         |\n               |  bridge  |                                               | bridge  |\n               |__________|                                               |_________|\n                    |                                                         |\n                ____|_____                                                 ___|____\n               |          |                                               |        |\n               | BC-Alice |                                               | BC-Bob |\n               |__________|                                               |________|\n\n                  HEIGHT                                                   HEIGH + 1\n\nRunning both nodes, they should automatically connect to the bridge, and after anomaly detection realize a header exchange, if one of them is at least one block forward (run generatetoaddress 1 $ADDR).\nOtherwise you may observe past logs:\nAlice:\nÊ0-05-16T00:55:11Z Boostrapping Altstack\n2020-05-16T00:55:11Z init message: Done loading\n2020-05-16T00:55:11Z msghand thread start\n2020-05-16T00:55:11Z drivers-warmup thread start\n2020-05-16T00:55:11Z addcon thread start\n2020-05-16T00:55:11Z Registered driver with 0\n2020-05-16T00:55:11Z net thread start\n2020-05-16T00:55:11Z altstack-processing thread start\n2020-05-16T00:55:11Z Clightning - Warmup\n2020-05-16T00:55:11Z dnsseed thread start\n2020-05-16T00:55:11Z altstack-handle thread start\n2020-05-16T00:55:11Z 0 addresses found from DNS seeds\n2020-05-16T00:55:11Z dnsseed thread exit\n2020-05-16T00:55:11Z Clightning - Bridge connection\n2020-05-16T00:55:11Z Registering node_id 0 with driver_id 0\n2020-05-16T00:55:11Z drivers-warmup thread exit\n2020-05-16T00:55:16Z Block header anomalie detected - notifying subscribers\n2020-05-16T00:55:16Z Block header anomalie detected - Anycasting header fetching from 0f9188f13cb7b2c71f2a335e3a4fc328bf5beb436012afca590b1a11466e2206\n2020-05-16T00:55:16Z Clightning - Preprocessing getheader\n2020-05-16T00:55:16Z Cligthning - Bridge send success 71\n2020-05-16T00:55:19Z Cligtning - Bridge receive success\n2020-05-16T00:55:19Z Receive HEADERS from 0\n2020-05-16T00:55:19Z Receiver header 65084efeaffe9929de0a0bb747cf48ac7f9b4edb214b2d1ad2ea468977be8e1e vs tip 0f9188f13cb7b2c71f2a335e3a4fc328bf5beb436012afca590b1a11466e2206\n\nBob:\n2020-05-16T00:55:09Z Boostrapping Altstack\n2020-05-16T00:55:09Z addcon thread start\n2020-05-16T00:55:09Z opencon thread start\n2020-05-16T00:55:09Z msghand thread start\n2020-05-16T00:55:09Z drivers-warmup thread start\n2020-05-16T00:55:09Z Registered driver with 0\n2020-05-16T00:55:09Z Clightning - Warmup\n2020-05-16T00:55:09Z init message: Done loading\n2020-05-16T00:55:09Z dnsseed thread exit\n2020-05-16T00:55:09Z altstack-processing thread start\n2020-05-16T00:55:09Z altstack-handle thread start\n2020-05-16T00:55:09Z Clightning - Bridge connection\n2020-05-16T00:55:09Z Registering node_id 0 with driver_id 0\n2020-05-16T00:55:09Z drivers-warmup thread exit\n2020-05-16T00:55:10Z Leaving InitialBlockDownload (latching to false)\n2020-05-16T00:55:17Z Cligtning - Bridge receive success\n2020-05-16T00:55:17Z Receive GETHEADERS from 0\n2020-05-16T00:55:17Z Fetch header starting from 0f9188f13cb7b2c71f2a335e3a4fc328bf5beb436012afca590b1a11466e2206, tip 65084efeaffe9929de0a0bb747cf48ac7f9b4edb214b2d1ad2ea468977be8e1e\n2020-05-16T00:55:17Z Sending back 1 headers\n2020-05-16T00:55:17Z Clightning - Preprocessing header\n2020-05-16T00:55:17Z Cligthning - Bridge send success 84\n2020-05-16T00:56:10Z Adding fixed seed nodes as DNS doesn't seem to be available.",
  "body": "**As of 14/03/2022 (chain tip hash : 00000000000000000000628002621832be9281faf72c394e66a8bc8446f80c75), this project is under implementation in separate process relying on the multiprocess framework. See https://github.com/chaincodelabs/libmultiprocess/issues/56 for more information on current state.**\r\n\r\nThis PR proposes to introduce a new subsystem aiming towards providing a generic framework for integrating alternative transport communication channels inside Bitcoin Core. This PR is a functional proof-of-concept using LN transport protocol as a new link layer for header fetching. See https://github.com/bitcoin/bitcoin/issues/18989 for high-level discussion and proposal merits.\r\n\r\n## The Design \r\n\r\nPrevious [work](https://github.com/bitcoin/bitcoin/pull/17376) has been attempted to increase network security and robustness by increasing communication redundancy. While being optional and fault-tolerant, these attempt don't scale well to integrate a wide-range of alternatives such as [domain-fronting](https://www.bamsoftware.com/papers/fronting/), [orbital communications](https://github.com/Blockstream/satellite), [amateur radio](https://en.wikipedia.org/wiki/DASH7), [Tor pluggable transports](https://snowflake.torproject.org/), unlicensed UHF, Bluetooth, [I2P](https://geti2p.net/en/), Lightning[ Noise transport](http://noiseprotocol.org/), ... Each of these transports has its own availability, latency, don't bind to the Berkeley sockets model, are unidirectional, require custom peer discovery, are not suited for block traffic, ...\r\n\r\nThis proposal tries to overcome these issues by laying out a generic \"driver\" framework with its own new processing stack, thereby encapsulating per-transport oddities. It introduces:\r\n\r\n* Per-transport capabilities (`TransportCapabilities`). Originally declared by each driver, they abstract driver specifities to general flags, like directionality, protocol messages scope. They could be extended with further attributes, like max bandwidth for adjusted packing or \"privacy\"/\"trustness\" niceness of the link.\r\n* Abstract driver model (`CDriver`). Basically, it dissociate driver warmup, message preprocessing, sending and reception. Ideally you would want to load them dynamically.\r\n* \"Anycast\" header-fetching (`AltLogicValidation::BlockHeaderAnomalie`). After notification from the [watchdog module](https://github.com/bitcoin/bitcoin/pull/18987), it sends a `GETHEADERS` message to any peers supporting bidirectionality and headers processing.\r\n* Alternative processing stack (`AltLogicValidation`). Relying on its own threads, it manages drivers and may take action based on static logical capabilites instead of peer state, reducing likelihood of bugs. In the future, one could implement a more robust headers-syncing strategy like reverse-header or compressed headers. It may also leverage a [future asynchronous validation interface](https://github.com/bitcoin/bitcoin/pull/18963).\r\n\r\nThere are many advantages of this kind of design --, it is easy to integrate new drivers binding to an abstract class, it is easy to reason about due to logical capabilities and at the same time provides granular tuning due to the fine-integration with rpc. Peer discovery and policy or bandwidth/memory DoS-protection are all possible driver add-ons as well. One could envision an rpc like `sendemergencytx`, broadcasting a transaction on any transport protocol available, like a [LN's justice transaction](https://github.com/lightningnetwork/lightning-rfc/blob/master/05-onchain.md#revoked-transaction-close-handling) after detection of being eclipsed.\r\n\r\nThis module could be made entirely optional at compile-time with `--enable-altnet` even if such integration with the build system hasn't been made.\r\n\r\nObviously this is an exploratory PoC, I don't expect code here to be merged. Beyond worthiness of doing this in Rust there are a lot of open questions, including the threading/memory model, interface with existing codebase, build system, resources consumption and fault-tolerance. As next steps, I would favor building on the multiprocess work and hosting this new network stack in its own to avoid any bug contamination from introducing complex driver. I encourage those with opinions on the higher level motivation and design discussion to leave their ideas on the linked issue.\r\n\r\nHigh-level design:\r\n\r\n\r\n              ___________            ______________________\r\n             |           |          |                      |\r\n             | CWatchdog |----------|  AltLogicValidation  |\r\n             |___________|          |______________________|\r\n                                               |\r\n                                         ______|______\r\n                                        |             |\r\n                                        |  CAltstack  |                                                         \r\n                                        |_____________| \r\n                                               |\r\n                                           ____|____\r\n                                          |         |\r\n                                          | CDriver |\r\n                                          |_________|\r\n                                               |\r\n                                       ________|__________\r\n                                      |                  |\r\n                                      | ClightningDriver |\r\n                                      |__________________|\r\n                                      \r\n                                                   \r\n\r\n## The Demo\r\n\r\nThis PoC features a header-fetching round-trip, leveraging LN connection protocol. Each LN node connects to its peers through an encrypted and authenticated channel. Since your LN peer must have chain access, you could leverage this privileged link to create a redundant chain access.\r\n\r\nUsing C-lightning [custom LN message support](https://github.com/ElementsProject/lightning/pull/3315) and [plugin API](https://github.com/ElementsProject/lightning/blob/master/doc/PLUGINS.md), we could embed directly inside `HEADERS`/`GETHEADERS` and realize a round-trip between 2 disconnected bitcoin nodes through their respective C-lightning nodes.\r\n\r\nFor this to work, you need to compile and run 2 C-lightning nodes,  each with its own data directory and launched with this [custom bridge plugin](https://github.com/ariard/bridge-layer). Once those LN nodes are running, activate bridges by `lightning-cli alice_on` and `lightning-cli bob_on`. The plugin doesn't seem to accept CLI argument so I had to hardcode some node addresses.\r\n\r\nThen compile 2 bitcoin nodes with this patchset. For one of them you must change the hardcoded port in C-lightning driver and deactivate the watchdog logic. Also, it would be best if you changed `SCAN_INTERVAL` to something reasonable, for instance 1 min.\r\n\r\nHigh-level setup:\r\n\r\n\r\n                                                 -->\r\n\r\n                    __________          LN_msg(`GETHEADERS`)                   ________\r\n                   |          |                                               |        |\r\n                   | CL-Alice |-----------------------------------------------| CL-Bob |\r\n                   |__________|                                               |________|           \r\n                        |               LN_msg(`HEADERS`)                         |\r\n                    ____|_____                                                 ___|_____\r\n                   |          |                 <--                           |         |\r\n                   |  bridge  |                                               | bridge  |\r\n                   |__________|                                               |_________|\r\n                        |                                                         |\r\n                    ____|_____                                                 ___|____\r\n                   |          |                                               |        |\r\n                   | BC-Alice |                                               | BC-Bob |\r\n                   |__________|                                               |________|\r\n\r\n                      HEIGHT                                                   HEIGH + 1\r\n\r\n\r\n\r\nRunning both nodes, they should automatically connect to the bridge, and after anomaly detection realize a header exchange, if one of them is at least one block forward (run `generatetoaddress 1 $ADDR`).\r\n\r\nOtherwise you may observe past logs:\r\n\r\nAlice:\r\n```\r\nÊ0-05-16T00:55:11Z Boostrapping Altstack\r\n2020-05-16T00:55:11Z init message: Done loading\r\n2020-05-16T00:55:11Z msghand thread start\r\n2020-05-16T00:55:11Z drivers-warmup thread start\r\n2020-05-16T00:55:11Z addcon thread start\r\n2020-05-16T00:55:11Z Registered driver with 0\r\n2020-05-16T00:55:11Z net thread start\r\n2020-05-16T00:55:11Z altstack-processing thread start\r\n2020-05-16T00:55:11Z Clightning - Warmup\r\n2020-05-16T00:55:11Z dnsseed thread start\r\n2020-05-16T00:55:11Z altstack-handle thread start\r\n2020-05-16T00:55:11Z 0 addresses found from DNS seeds\r\n2020-05-16T00:55:11Z dnsseed thread exit\r\n2020-05-16T00:55:11Z Clightning - Bridge connection\r\n2020-05-16T00:55:11Z Registering node_id 0 with driver_id 0\r\n2020-05-16T00:55:11Z drivers-warmup thread exit\r\n2020-05-16T00:55:16Z Block header anomalie detected - notifying subscribers\r\n2020-05-16T00:55:16Z Block header anomalie detected - Anycasting header fetching from 0f9188f13cb7b2c71f2a335e3a4fc328bf5beb436012afca590b1a11466e2206\r\n2020-05-16T00:55:16Z Clightning - Preprocessing getheader\r\n2020-05-16T00:55:16Z Cligthning - Bridge send success 71\r\n2020-05-16T00:55:19Z Cligtning - Bridge receive success\r\n2020-05-16T00:55:19Z Receive HEADERS from 0\r\n2020-05-16T00:55:19Z Receiver header 65084efeaffe9929de0a0bb747cf48ac7f9b4edb214b2d1ad2ea468977be8e1e vs tip 0f9188f13cb7b2c71f2a335e3a4fc328bf5beb436012afca590b1a11466e2206\r\n```\r\n\r\nBob:\r\n``` \r\n2020-05-16T00:55:09Z Boostrapping Altstack\r\n2020-05-16T00:55:09Z addcon thread start\r\n2020-05-16T00:55:09Z opencon thread start\r\n2020-05-16T00:55:09Z msghand thread start\r\n2020-05-16T00:55:09Z drivers-warmup thread start\r\n2020-05-16T00:55:09Z Registered driver with 0\r\n2020-05-16T00:55:09Z Clightning - Warmup\r\n2020-05-16T00:55:09Z init message: Done loading\r\n2020-05-16T00:55:09Z dnsseed thread exit\r\n2020-05-16T00:55:09Z altstack-processing thread start\r\n2020-05-16T00:55:09Z altstack-handle thread start\r\n2020-05-16T00:55:09Z Clightning - Bridge connection\r\n2020-05-16T00:55:09Z Registering node_id 0 with driver_id 0\r\n2020-05-16T00:55:09Z drivers-warmup thread exit\r\n2020-05-16T00:55:10Z Leaving InitialBlockDownload (latching to false)\r\n2020-05-16T00:55:17Z Cligtning - Bridge receive success\r\n2020-05-16T00:55:17Z Receive GETHEADERS from 0\r\n2020-05-16T00:55:17Z Fetch header starting from 0f9188f13cb7b2c71f2a335e3a4fc328bf5beb436012afca590b1a11466e2206, tip 65084efeaffe9929de0a0bb747cf48ac7f9b4edb214b2d1ad2ea468977be8e1e\r\n2020-05-16T00:55:17Z Sending back 1 headers\r\n2020-05-16T00:55:17Z Clightning - Preprocessing header\r\n2020-05-16T00:55:17Z Cligthning - Bridge send success 84\r\n2020-05-16T00:56:10Z Adding fixed seed nodes as DNS doesn't seem to be available.\r\n```",
  "closed_by": {
    "login": "fanquake",
    "id": 863730,
    "node_id": "MDQ6VXNlcjg2MzczMA==",
    "avatar_url": "https://avatars.githubusercontent.com/u/863730?v=4",
    "gravatar_id": "",
    "url": "https://api.github.com/users/fanquake",
    "html_url": "https://github.com/fanquake",
    "followers_url": "https://api.github.com/users/fanquake/followers",
    "following_url": "https://api.github.com/users/fanquake/following{/other_user}",
    "gists_url": "https://api.github.com/users/fanquake/gists{/gist_id}",
    "starred_url": "https://api.github.com/users/fanquake/starred{/owner}{/repo}",
    "subscriptions_url": "https://api.github.com/users/fanquake/subscriptions",
    "organizations_url": "https://api.github.com/users/fanquake/orgs",
    "repos_url": "https://api.github.com/users/fanquake/repos",
    "events_url": "https://api.github.com/users/fanquake/events{/privacy}",
    "received_events_url": "https://api.github.com/users/fanquake/received_events",
    "type": "User",
    "site_admin": false
  },
  "reactions": {
    "url": "https://api.github.com/repos/bitcoin/bitcoin/issues/18988/reactions",
    "total_count": 2,
    "+1": 2,
    "-1": 0,
    "laugh": 0,
    "hooray": 0,
    "confused": 0,
    "heart": 0,
    "rocket": 0,
    "eyes": 0
  },
  "timeline_url": "https://api.github.com/repos/bitcoin/bitcoin/issues/18988/timeline",
  "performed_via_github_app": null,
  "state_reason": null
}
