{
  "url": "https://api.github.com/repos/bitcoin/bitcoin/issues/12526",
  "repository_url": "https://api.github.com/repos/bitcoin/bitcoin",
  "labels_url": "https://api.github.com/repos/bitcoin/bitcoin/issues/12526/labels{/name}",
  "comments_url": "https://api.github.com/repos/bitcoin/bitcoin/issues/12526/comments",
  "events_url": "https://api.github.com/repos/bitcoin/bitcoin/issues/12526/events",
  "html_url": "https://github.com/bitcoin/bitcoin/pull/12526",
  "id": 299941155,
  "node_id": "MDExOlB1bGxSZXF1ZXN0MTcxMTc4NzQ0",
  "number": 12526,
  "title": "Docs: Minor description fix to build procedure on Debian wrt BerkeleyDB",
  "user": {
    "login": "shigeya",
    "id": 69672,
    "node_id": "MDQ6VXNlcjY5Njcy",
    "avatar_url": "https://avatars.githubusercontent.com/u/69672?v=4",
    "gravatar_id": "",
    "url": "https://api.github.com/users/shigeya",
    "html_url": "https://github.com/shigeya",
    "followers_url": "https://api.github.com/users/shigeya/followers",
    "following_url": "https://api.github.com/users/shigeya/following{/other_user}",
    "gists_url": "https://api.github.com/users/shigeya/gists{/gist_id}",
    "starred_url": "https://api.github.com/users/shigeya/starred{/owner}{/repo}",
    "subscriptions_url": "https://api.github.com/users/shigeya/subscriptions",
    "organizations_url": "https://api.github.com/users/shigeya/orgs",
    "repos_url": "https://api.github.com/users/shigeya/repos",
    "events_url": "https://api.github.com/users/shigeya/events{/privacy}",
    "received_events_url": "https://api.github.com/users/shigeya/received_events",
    "type": "User",
    "site_admin": false
  },
  "labels": [
    {
      "id": 148216,
      "node_id": "MDU6TGFiZWwxNDgyMTY=",
      "url": "https://api.github.com/repos/bitcoin/bitcoin/labels/Docs",
      "name": "Docs",
      "color": "02d7e1",
      "default": false,
      "description": null
    }
  ],
  "state": "closed",
  "locked": true,
  "assignee": null,
  "assignees": [

  ],
  "milestone": null,
  "comments": 6,
  "created_at": "2018-02-24T13:28:10Z",
  "updated_at": "2021-09-08T11:53:03Z",
  "closed_at": "2018-04-11T19:31:22Z",
  "author_association": "CONTRIBUTOR",
  "active_lock_reason": "resolved",
  "draft": false,
  "pull_request": {
    "url": "https://api.github.com/repos/bitcoin/bitcoin/pulls/12526",
    "html_url": "https://github.com/bitcoin/bitcoin/pull/12526",
    "diff_url": "https://github.com/bitcoin/bitcoin/pull/12526.diff",
    "patch_url": "https://github.com/bitcoin/bitcoin/pull/12526.patch",
    "merged_at": null
  },
  "body_html": "<p dir=\"auto\">There is some unclear description on this, and I have confused.<br>\nTrying to be clear on options.</p>\n<p dir=\"auto\">Verified on Debian 9.3.</p>",
  "body_text": "There is some unclear description on this, and I have confused.\nTrying to be clear on options.\nVerified on Debian 9.3.",
  "body": "There is some unclear description on this, and I have confused.\r\nTrying to be clear on options.\r\n\r\nVerified on Debian 9.3.\r\n",
  "closed_by": {
    "login": "maflcko",
    "id": 6399679,
    "node_id": "MDQ6VXNlcjYzOTk2Nzk=",
    "avatar_url": "https://avatars.githubusercontent.com/u/6399679?v=4",
    "gravatar_id": "",
    "url": "https://api.github.com/users/maflcko",
    "html_url": "https://github.com/maflcko",
    "followers_url": "https://api.github.com/users/maflcko/followers",
    "following_url": "https://api.github.com/users/maflcko/following{/other_user}",
    "gists_url": "https://api.github.com/users/maflcko/gists{/gist_id}",
    "starred_url": "https://api.github.com/users/maflcko/starred{/owner}{/repo}",
    "subscriptions_url": "https://api.github.com/users/maflcko/subscriptions",
    "organizations_url": "https://api.github.com/users/maflcko/orgs",
    "repos_url": "https://api.github.com/users/maflcko/repos",
    "events_url": "https://api.github.com/users/maflcko/events{/privacy}",
    "received_events_url": "https://api.github.com/users/maflcko/received_events",
    "type": "User",
    "site_admin": false
  },
  "reactions": {
    "url": "https://api.github.com/repos/bitcoin/bitcoin/issues/12526/reactions",
    "total_count": 1,
    "+1": 1,
    "-1": 0,
    "laugh": 0,
    "hooray": 0,
    "confused": 0,
    "heart": 0,
    "rocket": 0,
    "eyes": 0
  },
  "timeline_url": "https://api.github.com/repos/bitcoin/bitcoin/issues/12526/timeline",
  "performed_via_github_app": null,
  "state_reason": null
}
