[
  {
    "url": "https://api.github.com/repos/bitcoin/bitcoin/issues/comments/274159681",
    "html_url": "https://github.com/bitcoin/bitcoin/pull/9604#issuecomment-274159681",
    "issue_url": "https://api.github.com/repos/bitcoin/bitcoin/issues/9604",
    "id": 274159681,
    "node_id": "MDEyOklzc3VlQ29tbWVudDI3NDE1OTY4MQ==",
    "user": {
      "login": "morcos",
      "id": 4360349,
      "node_id": "MDQ6VXNlcjQzNjAzNDk=",
      "avatar_url": "https://avatars.githubusercontent.com/u/4360349?v=4",
      "gravatar_id": "",
      "url": "https://api.github.com/users/morcos",
      "html_url": "https://github.com/morcos",
      "followers_url": "https://api.github.com/users/morcos/followers",
      "following_url": "https://api.github.com/users/morcos/following{/other_user}",
      "gists_url": "https://api.github.com/users/morcos/gists{/gist_id}",
      "starred_url": "https://api.github.com/users/morcos/starred{/owner}{/repo}",
      "subscriptions_url": "https://api.github.com/users/morcos/subscriptions",
      "organizations_url": "https://api.github.com/users/morcos/orgs",
      "repos_url": "https://api.github.com/users/morcos/repos",
      "events_url": "https://api.github.com/users/morcos/events{/privacy}",
      "received_events_url": "https://api.github.com/users/morcos/received_events",
      "type": "User",
      "site_admin": false
    },
    "created_at": "2017-01-20T19:34:21Z",
    "updated_at": "2017-01-20T19:34:21Z",
    "author_association": "MEMBER",
    "body_html": "<p dir=\"auto\">utACK</p>",
    "body_text": "utACK",
    "body": "utACK",
    "reactions": {
      "url": "https://api.github.com/repos/bitcoin/bitcoin/issues/comments/274159681/reactions",
      "total_count": 0,
      "+1": 0,
      "-1": 0,
      "laugh": 0,
      "hooray": 0,
      "confused": 0,
      "heart": 0,
      "rocket": 0,
      "eyes": 0
    },
    "performed_via_github_app": null
  },
  {
    "url": "https://api.github.com/repos/bitcoin/bitcoin/issues/comments/274167313",
    "html_url": "https://github.com/bitcoin/bitcoin/pull/9604#issuecomment-274167313",
    "issue_url": "https://api.github.com/repos/bitcoin/bitcoin/issues/9604",
    "id": 274167313,
    "node_id": "MDEyOklzc3VlQ29tbWVudDI3NDE2NzMxMw==",
    "user": {
      "login": "jnewbery",
      "id": 1063656,
      "node_id": "MDQ6VXNlcjEwNjM2NTY=",
      "avatar_url": "https://avatars.githubusercontent.com/u/1063656?v=4",
      "gravatar_id": "",
      "url": "https://api.github.com/users/jnewbery",
      "html_url": "https://github.com/jnewbery",
      "followers_url": "https://api.github.com/users/jnewbery/followers",
      "following_url": "https://api.github.com/users/jnewbery/following{/other_user}",
      "gists_url": "https://api.github.com/users/jnewbery/gists{/gist_id}",
      "starred_url": "https://api.github.com/users/jnewbery/starred{/owner}{/repo}",
      "subscriptions_url": "https://api.github.com/users/jnewbery/subscriptions",
      "organizations_url": "https://api.github.com/users/jnewbery/orgs",
      "repos_url": "https://api.github.com/users/jnewbery/repos",
      "events_url": "https://api.github.com/users/jnewbery/events{/privacy}",
      "received_events_url": "https://api.github.com/users/jnewbery/received_events",
      "type": "User",
      "site_admin": false
    },
    "created_at": "2017-01-20T20:07:01Z",
    "updated_at": "2017-01-20T20:07:01Z",
    "author_association": "CONTRIBUTOR",
    "body_html": "<p dir=\"auto\">Updated comment to \"This is currently the best block we're aware of\"</p>",
    "body_text": "Updated comment to \"This is currently the best block we're aware of\"",
    "body": "Updated comment to \"This is currently the best block we're aware of\"",
    "reactions": {
      "url": "https://api.github.com/repos/bitcoin/bitcoin/issues/comments/274167313/reactions",
      "total_count": 0,
      "+1": 0,
      "-1": 0,
      "laugh": 0,
      "hooray": 0,
      "confused": 0,
      "heart": 0,
      "rocket": 0,
      "eyes": 0
    },
    "performed_via_github_app": null
  },
  {
    "url": "https://api.github.com/repos/bitcoin/bitcoin/issues/comments/274211618",
    "html_url": "https://github.com/bitcoin/bitcoin/pull/9604#issuecomment-274211618",
    "issue_url": "https://api.github.com/repos/bitcoin/bitcoin/issues/9604",
    "id": 274211618,
    "node_id": "MDEyOklzc3VlQ29tbWVudDI3NDIxMTYxOA==",
    "user": {
      "login": "TheBlueMatt",
      "id": 649246,
      "node_id": "MDQ6VXNlcjY0OTI0Ng==",
      "avatar_url": "https://avatars.githubusercontent.com/u/649246?v=4",
      "gravatar_id": "",
      "url": "https://api.github.com/users/TheBlueMatt",
      "html_url": "https://github.com/TheBlueMatt",
      "followers_url": "https://api.github.com/users/TheBlueMatt/followers",
      "following_url": "https://api.github.com/users/TheBlueMatt/following{/other_user}",
      "gists_url": "https://api.github.com/users/TheBlueMatt/gists{/gist_id}",
      "starred_url": "https://api.github.com/users/TheBlueMatt/starred{/owner}{/repo}",
      "subscriptions_url": "https://api.github.com/users/TheBlueMatt/subscriptions",
      "organizations_url": "https://api.github.com/users/TheBlueMatt/orgs",
      "repos_url": "https://api.github.com/users/TheBlueMatt/repos",
      "events_url": "https://api.github.com/users/TheBlueMatt/events{/privacy}",
      "received_events_url": "https://api.github.com/users/TheBlueMatt/received_events",
      "type": "User",
      "site_admin": false
    },
    "created_at": "2017-01-21T00:00:16Z",
    "updated_at": "2017-01-21T00:00:16Z",
    "author_association": "CONTRIBUTOR",
    "body_html": "<p dir=\"auto\">ACK</p>",
    "body_text": "ACK",
    "body": "ACK",
    "reactions": {
      "url": "https://api.github.com/repos/bitcoin/bitcoin/issues/comments/274211618/reactions",
      "total_count": 0,
      "+1": 0,
      "-1": 0,
      "laugh": 0,
      "hooray": 0,
      "confused": 0,
      "heart": 0,
      "rocket": 0,
      "eyes": 0
    },
    "performed_via_github_app": null
  },
  {
    "url": "https://api.github.com/repos/bitcoin/bitcoin/issues/comments/274217503",
    "html_url": "https://github.com/bitcoin/bitcoin/pull/9604#issuecomment-274217503",
    "issue_url": "https://api.github.com/repos/bitcoin/bitcoin/issues/9604",
    "id": 274217503,
    "node_id": "MDEyOklzc3VlQ29tbWVudDI3NDIxNzUwMw==",
    "user": {
      "login": "gmaxwell",
      "id": 858454,
      "node_id": "MDQ6VXNlcjg1ODQ1NA==",
      "avatar_url": "https://avatars.githubusercontent.com/u/858454?v=4",
      "gravatar_id": "",
      "url": "https://api.github.com/users/gmaxwell",
      "html_url": "https://github.com/gmaxwell",
      "followers_url": "https://api.github.com/users/gmaxwell/followers",
      "following_url": "https://api.github.com/users/gmaxwell/following{/other_user}",
      "gists_url": "https://api.github.com/users/gmaxwell/gists{/gist_id}",
      "starred_url": "https://api.github.com/users/gmaxwell/starred{/owner}{/repo}",
      "subscriptions_url": "https://api.github.com/users/gmaxwell/subscriptions",
      "organizations_url": "https://api.github.com/users/gmaxwell/orgs",
      "repos_url": "https://api.github.com/users/gmaxwell/repos",
      "events_url": "https://api.github.com/users/gmaxwell/events{/privacy}",
      "received_events_url": "https://api.github.com/users/gmaxwell/received_events",
      "type": "User",
      "site_admin": false
    },
    "created_at": "2017-01-21T00:48:43Z",
    "updated_at": "2017-01-21T00:48:43Z",
    "author_association": "CONTRIBUTOR",
    "body_html": "<p dir=\"auto\">ACK.</p>",
    "body_text": "ACK.",
    "body": "ACK.",
    "reactions": {
      "url": "https://api.github.com/repos/bitcoin/bitcoin/issues/comments/274217503/reactions",
      "total_count": 0,
      "+1": 0,
      "-1": 0,
      "laugh": 0,
      "hooray": 0,
      "confused": 0,
      "heart": 0,
      "rocket": 0,
      "eyes": 0
    },
    "performed_via_github_app": null
  },
  {
    "url": "https://api.github.com/repos/bitcoin/bitcoin/issues/comments/274531499",
    "html_url": "https://github.com/bitcoin/bitcoin/pull/9604#issuecomment-274531499",
    "issue_url": "https://api.github.com/repos/bitcoin/bitcoin/issues/9604",
    "id": 274531499,
    "node_id": "MDEyOklzc3VlQ29tbWVudDI3NDUzMTQ5OQ==",
    "user": {
      "login": "paveljanik",
      "id": 6848764,
      "node_id": "MDQ6VXNlcjY4NDg3NjQ=",
      "avatar_url": "https://avatars.githubusercontent.com/u/6848764?v=4",
      "gravatar_id": "",
      "url": "https://api.github.com/users/paveljanik",
      "html_url": "https://github.com/paveljanik",
      "followers_url": "https://api.github.com/users/paveljanik/followers",
      "following_url": "https://api.github.com/users/paveljanik/following{/other_user}",
      "gists_url": "https://api.github.com/users/paveljanik/gists{/gist_id}",
      "starred_url": "https://api.github.com/users/paveljanik/starred{/owner}{/repo}",
      "subscriptions_url": "https://api.github.com/users/paveljanik/subscriptions",
      "organizations_url": "https://api.github.com/users/paveljanik/orgs",
      "repos_url": "https://api.github.com/users/paveljanik/repos",
      "events_url": "https://api.github.com/users/paveljanik/events{/privacy}",
      "received_events_url": "https://api.github.com/users/paveljanik/received_events",
      "type": "User",
      "site_admin": false
    },
    "created_at": "2017-01-23T16:10:44Z",
    "updated_at": "2017-01-23T16:10:44Z",
    "author_association": "CONTRIBUTOR",
    "body_html": "<p dir=\"auto\">ACK <a class=\"commit-link\" data-hovercard-type=\"commit\" data-hovercard-url=\"https://github.com/bitcoin/bitcoin/commit/dd5b0114cf9021e8639e48c2a33f0aaf82aeb14e/hovercard\" href=\"https://github.com/bitcoin/bitcoin/commit/dd5b0114cf9021e8639e48c2a33f0aaf82aeb14e\"><tt>dd5b011</tt></a></p>",
    "body_text": "ACK dd5b011",
    "body": "ACK https://github.com/bitcoin/bitcoin/pull/9604/commits/dd5b0114cf9021e8639e48c2a33f0aaf82aeb14e",
    "reactions": {
      "url": "https://api.github.com/repos/bitcoin/bitcoin/issues/comments/274531499/reactions",
      "total_count": 0,
      "+1": 0,
      "-1": 0,
      "laugh": 0,
      "hooray": 0,
      "confused": 0,
      "heart": 0,
      "rocket": 0,
      "eyes": 0
    },
    "performed_via_github_app": null
  }
]
