[
  {
    "url": "https://api.github.com/repos/bitcoin/bitcoin/issues/comments/5796076",
    "html_url": "https://github.com/bitcoin/bitcoin/pull/1351#issuecomment-5796076",
    "issue_url": "https://api.github.com/repos/bitcoin/bitcoin/issues/1351",
    "id": 5796076,
    "node_id": "MDEyOklzc3VlQ29tbWVudDU3OTYwNzY=",
    "user": {
      "login": "Diapolo",
      "id": 1419649,
      "node_id": "MDQ6VXNlcjE0MTk2NDk=",
      "avatar_url": "https://avatars.githubusercontent.com/u/1419649?v=4",
      "gravatar_id": "",
      "url": "https://api.github.com/users/Diapolo",
      "html_url": "https://github.com/Diapolo",
      "followers_url": "https://api.github.com/users/Diapolo/followers",
      "following_url": "https://api.github.com/users/Diapolo/following{/other_user}",
      "gists_url": "https://api.github.com/users/Diapolo/gists{/gist_id}",
      "starred_url": "https://api.github.com/users/Diapolo/starred{/owner}{/repo}",
      "subscriptions_url": "https://api.github.com/users/Diapolo/subscriptions",
      "organizations_url": "https://api.github.com/users/Diapolo/orgs",
      "repos_url": "https://api.github.com/users/Diapolo/repos",
      "events_url": "https://api.github.com/users/Diapolo/events{/privacy}",
      "received_events_url": "https://api.github.com/users/Diapolo/received_events",
      "type": "User",
      "site_admin": false
    },
    "created_at": "2012-05-18T21:21:18Z",
    "updated_at": "2012-05-18T21:21:37Z",
    "author_association": "NONE",
    "body_html": "<p dir=\"auto\">Updated to reflect suggestion from <a class=\"user-mention notranslate\" data-hovercard-type=\"user\" data-hovercard-url=\"/users/luke-jr/hovercard\" data-octo-click=\"hovercard-link-click\" data-octo-dimensions=\"link_type:self\" href=\"https://github.com/luke-jr\">@luke-jr</a>.</p>",
    "body_text": "Updated to reflect suggestion from @luke-jr.",
    "body": "Updated to reflect suggestion from @luke-jr.\n",
    "reactions": {
      "url": "https://api.github.com/repos/bitcoin/bitcoin/issues/comments/5796076/reactions",
      "total_count": 0,
      "+1": 0,
      "-1": 0,
      "laugh": 0,
      "hooray": 0,
      "confused": 0,
      "heart": 0,
      "rocket": 0,
      "eyes": 0
    },
    "performed_via_github_app": null
  },
  {
    "url": "https://api.github.com/repos/bitcoin/bitcoin/issues/comments/5801603",
    "html_url": "https://github.com/bitcoin/bitcoin/pull/1351#issuecomment-5801603",
    "issue_url": "https://api.github.com/repos/bitcoin/bitcoin/issues/1351",
    "id": 5801603,
    "node_id": "MDEyOklzc3VlQ29tbWVudDU4MDE2MDM=",
    "user": {
      "login": "gavinandresen",
      "id": 331997,
      "node_id": "MDQ6VXNlcjMzMTk5Nw==",
      "avatar_url": "https://avatars.githubusercontent.com/u/331997?v=4",
      "gravatar_id": "",
      "url": "https://api.github.com/users/gavinandresen",
      "html_url": "https://github.com/gavinandresen",
      "followers_url": "https://api.github.com/users/gavinandresen/followers",
      "following_url": "https://api.github.com/users/gavinandresen/following{/other_user}",
      "gists_url": "https://api.github.com/users/gavinandresen/gists{/gist_id}",
      "starred_url": "https://api.github.com/users/gavinandresen/starred{/owner}{/repo}",
      "subscriptions_url": "https://api.github.com/users/gavinandresen/subscriptions",
      "organizations_url": "https://api.github.com/users/gavinandresen/orgs",
      "repos_url": "https://api.github.com/users/gavinandresen/repos",
      "events_url": "https://api.github.com/users/gavinandresen/events{/privacy}",
      "received_events_url": "https://api.github.com/users/gavinandresen/received_events",
      "type": "User",
      "site_admin": false
    },
    "created_at": "2012-05-19T13:08:35Z",
    "updated_at": "2012-05-19T13:09:21Z",
    "author_association": "CONTRIBUTOR",
    "body_html": "<p dir=\"auto\">NACK.  It would be better to get rid of usage of strncasecmp all together and use boost's case-insensitive string support.</p>\n<p dir=\"auto\">E.g.<br>\n-        if (strlen(argv[i]) &gt; 7 &amp;&amp; strncasecmp(argv[i], \"bitcoin:\", 8) == 0)<br>\n+        if (boost::algorithm::istarts_with(argv[i], \"bitcoin:\"))</p>\n<p dir=\"auto\">istarts_with is in  boost/algorithm/string/predicate.hpp</p>",
    "body_text": "NACK.  It would be better to get rid of usage of strncasecmp all together and use boost's case-insensitive string support.\nE.g.\n-        if (strlen(argv[i]) > 7 && strncasecmp(argv[i], \"bitcoin:\", 8) == 0)\n+        if (boost::algorithm::istarts_with(argv[i], \"bitcoin:\"))\nistarts_with is in  boost/algorithm/string/predicate.hpp",
    "body": "NACK.  It would be better to get rid of usage of strncasecmp all together and use boost's case-insensitive string support.\n\nE.g.\n    -        if (strlen(argv[i]) > 7 && strncasecmp(argv[i], \"bitcoin:\", 8) == 0)\n    +        if (boost::algorithm::istarts_with(argv[i], \"bitcoin:\"))\n\nistarts_with is in  boost/algorithm/string/predicate.hpp \n",
    "reactions": {
      "url": "https://api.github.com/repos/bitcoin/bitcoin/issues/comments/5801603/reactions",
      "total_count": 0,
      "+1": 0,
      "-1": 0,
      "laugh": 0,
      "hooray": 0,
      "confused": 0,
      "heart": 0,
      "rocket": 0,
      "eyes": 0
    },
    "performed_via_github_app": null
  },
  {
    "url": "https://api.github.com/repos/bitcoin/bitcoin/issues/comments/5805212",
    "html_url": "https://github.com/bitcoin/bitcoin/pull/1351#issuecomment-5805212",
    "issue_url": "https://api.github.com/repos/bitcoin/bitcoin/issues/1351",
    "id": 5805212,
    "node_id": "MDEyOklzc3VlQ29tbWVudDU4MDUyMTI=",
    "user": {
      "login": "Diapolo",
      "id": 1419649,
      "node_id": "MDQ6VXNlcjE0MTk2NDk=",
      "avatar_url": "https://avatars.githubusercontent.com/u/1419649?v=4",
      "gravatar_id": "",
      "url": "https://api.github.com/users/Diapolo",
      "html_url": "https://github.com/Diapolo",
      "followers_url": "https://api.github.com/users/Diapolo/followers",
      "following_url": "https://api.github.com/users/Diapolo/following{/other_user}",
      "gists_url": "https://api.github.com/users/Diapolo/gists{/gist_id}",
      "starred_url": "https://api.github.com/users/Diapolo/starred{/owner}{/repo}",
      "subscriptions_url": "https://api.github.com/users/Diapolo/subscriptions",
      "organizations_url": "https://api.github.com/users/Diapolo/orgs",
      "repos_url": "https://api.github.com/users/Diapolo/repos",
      "events_url": "https://api.github.com/users/Diapolo/events{/privacy}",
      "received_events_url": "https://api.github.com/users/Diapolo/received_events",
      "type": "User",
      "site_admin": false
    },
    "created_at": "2012-05-19T22:19:33Z",
    "updated_at": "2012-05-19T22:19:33Z",
    "author_association": "NONE",
    "body_html": "<p dir=\"auto\"><a class=\"user-mention notranslate\" data-hovercard-type=\"user\" data-hovercard-url=\"/users/gavinandresen/hovercard\" data-octo-click=\"hovercard-link-click\" data-octo-dimensions=\"link_type:self\" href=\"https://github.com/gavinandresen\">@gavinandresen</a> Are you fine with massive boost usage now? I will update that pull and use what you suggested, no problem.</p>",
    "body_text": "@gavinandresen Are you fine with massive boost usage now? I will update that pull and use what you suggested, no problem.",
    "body": "@gavinandresen Are you fine with massive boost usage now? I will update that pull and use what you suggested, no problem.\n",
    "reactions": {
      "url": "https://api.github.com/repos/bitcoin/bitcoin/issues/comments/5805212/reactions",
      "total_count": 0,
      "+1": 0,
      "-1": 0,
      "laugh": 0,
      "hooray": 0,
      "confused": 0,
      "heart": 0,
      "rocket": 0,
      "eyes": 0
    },
    "performed_via_github_app": null
  },
  {
    "url": "https://api.github.com/repos/bitcoin/bitcoin/issues/comments/5805448",
    "html_url": "https://github.com/bitcoin/bitcoin/pull/1351#issuecomment-5805448",
    "issue_url": "https://api.github.com/repos/bitcoin/bitcoin/issues/1351",
    "id": 5805448,
    "node_id": "MDEyOklzc3VlQ29tbWVudDU4MDU0NDg=",
    "user": {
      "login": "Diapolo",
      "id": 1419649,
      "node_id": "MDQ6VXNlcjE0MTk2NDk=",
      "avatar_url": "https://avatars.githubusercontent.com/u/1419649?v=4",
      "gravatar_id": "",
      "url": "https://api.github.com/users/Diapolo",
      "html_url": "https://github.com/Diapolo",
      "followers_url": "https://api.github.com/users/Diapolo/followers",
      "following_url": "https://api.github.com/users/Diapolo/following{/other_user}",
      "gists_url": "https://api.github.com/users/Diapolo/gists{/gist_id}",
      "starred_url": "https://api.github.com/users/Diapolo/starred{/owner}{/repo}",
      "subscriptions_url": "https://api.github.com/users/Diapolo/subscriptions",
      "organizations_url": "https://api.github.com/users/Diapolo/orgs",
      "repos_url": "https://api.github.com/users/Diapolo/repos",
      "events_url": "https://api.github.com/users/Diapolo/events{/privacy}",
      "received_events_url": "https://api.github.com/users/Diapolo/received_events",
      "type": "User",
      "site_admin": false
    },
    "created_at": "2012-05-19T23:02:57Z",
    "updated_at": "2012-05-19T23:02:57Z",
    "author_association": "NONE",
    "body_html": "<p dir=\"auto\">Closed in favor of <a class=\"issue-link js-issue-link\" data-error-text=\"Failed to load title\" data-id=\"4657224\" data-permission-text=\"Title is private\" data-url=\"https://github.com/bitcoin/bitcoin/issues/1363\" data-hovercard-type=\"pull_request\" data-hovercard-url=\"/bitcoin/bitcoin/pull/1363/hovercard\" href=\"https://github.com/bitcoin/bitcoin/pull/1363\">#1363</a>!</p>",
    "body_text": "Closed in favor of #1363!",
    "body": "Closed in favor of #1363!\n",
    "reactions": {
      "url": "https://api.github.com/repos/bitcoin/bitcoin/issues/comments/5805448/reactions",
      "total_count": 0,
      "+1": 0,
      "-1": 0,
      "laugh": 0,
      "hooray": 0,
      "confused": 0,
      "heart": 0,
      "rocket": 0,
      "eyes": 0
    },
    "performed_via_github_app": null
  },
  {
    "url": "https://api.github.com/repos/bitcoin/bitcoin/issues/comments/5805496",
    "html_url": "https://github.com/bitcoin/bitcoin/pull/1351#issuecomment-5805496",
    "issue_url": "https://api.github.com/repos/bitcoin/bitcoin/issues/1351",
    "id": 5805496,
    "node_id": "MDEyOklzc3VlQ29tbWVudDU4MDU0OTY=",
    "user": {
      "login": "gavinandresen",
      "id": 331997,
      "node_id": "MDQ6VXNlcjMzMTk5Nw==",
      "avatar_url": "https://avatars.githubusercontent.com/u/331997?v=4",
      "gravatar_id": "",
      "url": "https://api.github.com/users/gavinandresen",
      "html_url": "https://github.com/gavinandresen",
      "followers_url": "https://api.github.com/users/gavinandresen/followers",
      "following_url": "https://api.github.com/users/gavinandresen/following{/other_user}",
      "gists_url": "https://api.github.com/users/gavinandresen/gists{/gist_id}",
      "starred_url": "https://api.github.com/users/gavinandresen/starred{/owner}{/repo}",
      "subscriptions_url": "https://api.github.com/users/gavinandresen/subscriptions",
      "organizations_url": "https://api.github.com/users/gavinandresen/orgs",
      "repos_url": "https://api.github.com/users/gavinandresen/repos",
      "events_url": "https://api.github.com/users/gavinandresen/events{/privacy}",
      "received_events_url": "https://api.github.com/users/gavinandresen/received_events",
      "type": "User",
      "site_admin": false
    },
    "created_at": "2012-05-19T23:16:49Z",
    "updated_at": "2012-05-19T23:16:49Z",
    "author_association": "CONTRIBUTOR",
    "body_html": "<p dir=\"auto\">RE: \"massive boost usage\" :</p>\n<p dir=\"auto\">I'm all for making the code clearer and more cross-platform, and we're dependent on boost anyway. The string algorithms are nice little self-contained pieces of functionality.</p>\n<p dir=\"auto\">But I'm on the fence for changes like sipa's pull request that uses boost::variant for bitcoin addresses (and requires writing little visitor classes to do simple things). I think template metaprogramming is the wrong way to go, it makes code hard to debug, creates cryptic compiler messages, etc.</p>\n<p dir=\"auto\">And I was using boost's compile-time regex library for a pull request, but one of the reasons it never got pulled was because it would increase compile times and memory usage when compiling.</p>",
    "body_text": "RE: \"massive boost usage\" :\nI'm all for making the code clearer and more cross-platform, and we're dependent on boost anyway. The string algorithms are nice little self-contained pieces of functionality.\nBut I'm on the fence for changes like sipa's pull request that uses boost::variant for bitcoin addresses (and requires writing little visitor classes to do simple things). I think template metaprogramming is the wrong way to go, it makes code hard to debug, creates cryptic compiler messages, etc.\nAnd I was using boost's compile-time regex library for a pull request, but one of the reasons it never got pulled was because it would increase compile times and memory usage when compiling.",
    "body": "RE: \"massive boost usage\" :\n\nI'm all for making the code clearer and more cross-platform, and we're dependent on boost anyway. The string algorithms are nice little self-contained pieces of functionality.\n\nBut I'm on the fence for changes like sipa's pull request that uses boost::variant for bitcoin addresses (and requires writing little visitor classes to do simple things). I think template metaprogramming is the wrong way to go, it makes code hard to debug, creates cryptic compiler messages, etc.\n\nAnd I was using boost's compile-time regex library for a pull request, but one of the reasons it never got pulled was because it would increase compile times and memory usage when compiling.\n",
    "reactions": {
      "url": "https://api.github.com/repos/bitcoin/bitcoin/issues/comments/5805496/reactions",
      "total_count": 0,
      "+1": 0,
      "-1": 0,
      "laugh": 0,
      "hooray": 0,
      "confused": 0,
      "heart": 0,
      "rocket": 0,
      "eyes": 0
    },
    "performed_via_github_app": null
  },
  {
    "url": "https://api.github.com/repos/bitcoin/bitcoin/issues/comments/5807274",
    "html_url": "https://github.com/bitcoin/bitcoin/pull/1351#issuecomment-5807274",
    "issue_url": "https://api.github.com/repos/bitcoin/bitcoin/issues/1351",
    "id": 5807274,
    "node_id": "MDEyOklzc3VlQ29tbWVudDU4MDcyNzQ=",
    "user": {
      "login": "laanwj",
      "id": 126646,
      "node_id": "MDQ6VXNlcjEyNjY0Ng==",
      "avatar_url": "https://avatars.githubusercontent.com/u/126646?v=4",
      "gravatar_id": "",
      "url": "https://api.github.com/users/laanwj",
      "html_url": "https://github.com/laanwj",
      "followers_url": "https://api.github.com/users/laanwj/followers",
      "following_url": "https://api.github.com/users/laanwj/following{/other_user}",
      "gists_url": "https://api.github.com/users/laanwj/gists{/gist_id}",
      "starred_url": "https://api.github.com/users/laanwj/starred{/owner}{/repo}",
      "subscriptions_url": "https://api.github.com/users/laanwj/subscriptions",
      "organizations_url": "https://api.github.com/users/laanwj/orgs",
      "repos_url": "https://api.github.com/users/laanwj/repos",
      "events_url": "https://api.github.com/users/laanwj/events{/privacy}",
      "received_events_url": "https://api.github.com/users/laanwj/received_events",
      "type": "User",
      "site_admin": false
    },
    "created_at": "2012-05-20T08:15:57Z",
    "updated_at": "2012-05-20T08:15:57Z",
    "author_association": "MEMBER",
    "body_html": "<p dir=\"auto\"><em>creates cryptic compiler messages, etc.</em></p>\n<p dir=\"auto\">One nitpick: you could use clang. In contrary to gcc, it has wonderfully clear error messages, even with template metaprogramming. Also it compiles much faster.</p>\n<p dir=\"auto\">But I agree that usage of boost should improve readability, not decrease it.</p>\n<p dir=\"auto\">And compile-time work is great for time-sensitive inner loops that need to be optimized for specific cases, but using it unnecessarily increases code size and compile time.</p>",
    "body_text": "creates cryptic compiler messages, etc.\nOne nitpick: you could use clang. In contrary to gcc, it has wonderfully clear error messages, even with template metaprogramming. Also it compiles much faster.\nBut I agree that usage of boost should improve readability, not decrease it.\nAnd compile-time work is great for time-sensitive inner loops that need to be optimized for specific cases, but using it unnecessarily increases code size and compile time.",
    "body": "_creates cryptic compiler messages, etc._\n\nOne nitpick: you could use clang. In contrary to gcc, it has wonderfully clear error messages, even with template metaprogramming. Also it compiles much faster.\n\nBut I agree that usage of boost should improve readability, not decrease it. \n\nAnd compile-time work is great for time-sensitive inner loops that need to be optimized for specific cases, but using it unnecessarily increases code size and compile time. \n",
    "reactions": {
      "url": "https://api.github.com/repos/bitcoin/bitcoin/issues/comments/5807274/reactions",
      "total_count": 0,
      "+1": 0,
      "-1": 0,
      "laugh": 0,
      "hooray": 0,
      "confused": 0,
      "heart": 0,
      "rocket": 0,
      "eyes": 0
    },
    "performed_via_github_app": null
  }
]
