{
  "url": "https://api.github.com/repos/bitcoin/bitcoin/issues/20045",
  "repository_url": "https://api.github.com/repos/bitcoin/bitcoin",
  "labels_url": "https://api.github.com/repos/bitcoin/bitcoin/issues/20045/labels{/name}",
  "comments_url": "https://api.github.com/repos/bitcoin/bitcoin/issues/20045/comments",
  "events_url": "https://api.github.com/repos/bitcoin/bitcoin/issues/20045/events",
  "html_url": "https://github.com/bitcoin/bitcoin/pull/20045",
  "id": 711874960,
  "node_id": "MDExOlB1bGxSZXF1ZXN0NDk1NDQ4OTg5",
  "number": 20045,
  "title": "upstream: add and use defaulted getters to UniValue",
  "user": {
    "login": "kallewoof",
    "id": 250224,
    "node_id": "MDQ6VXNlcjI1MDIyNA==",
    "avatar_url": "https://avatars.githubusercontent.com/u/250224?v=4",
    "gravatar_id": "",
    "url": "https://api.github.com/users/kallewoof",
    "html_url": "https://github.com/kallewoof",
    "followers_url": "https://api.github.com/users/kallewoof/followers",
    "following_url": "https://api.github.com/users/kallewoof/following{/other_user}",
    "gists_url": "https://api.github.com/users/kallewoof/gists{/gist_id}",
    "starred_url": "https://api.github.com/users/kallewoof/starred{/owner}{/repo}",
    "subscriptions_url": "https://api.github.com/users/kallewoof/subscriptions",
    "organizations_url": "https://api.github.com/users/kallewoof/orgs",
    "repos_url": "https://api.github.com/users/kallewoof/repos",
    "events_url": "https://api.github.com/users/kallewoof/events{/privacy}",
    "received_events_url": "https://api.github.com/users/kallewoof/received_events",
    "type": "User",
    "site_admin": false
  },
  "labels": [
    {
      "id": 98279177,
      "node_id": "MDU6TGFiZWw5ODI3OTE3Nw==",
      "url": "https://api.github.com/repos/bitcoin/bitcoin/labels/RPC/REST/ZMQ",
      "name": "RPC/REST/ZMQ",
      "color": "0052cc",
      "default": false,
      "description": null
    },
    {
      "id": 159815356,
      "node_id": "MDU6TGFiZWwxNTk4MTUzNTY=",
      "url": "https://api.github.com/repos/bitcoin/bitcoin/labels/Upstream",
      "name": "Upstream",
      "color": "bfd4f2",
      "default": false,
      "description": null
    }
  ],
  "state": "closed",
  "locked": true,
  "assignee": null,
  "assignees": [

  ],
  "milestone": null,
  "comments": 3,
  "created_at": "2020-09-30T11:43:39Z",
  "updated_at": "2022-02-15T10:47:55Z",
  "closed_at": "2020-10-01T07:18:35Z",
  "author_association": "MEMBER",
  "active_lock_reason": "resolved",
  "draft": false,
  "pull_request": {
    "url": "https://api.github.com/repos/bitcoin/bitcoin/pulls/20045",
    "html_url": "https://github.com/bitcoin/bitcoin/pull/20045",
    "diff_url": "https://github.com/bitcoin/bitcoin/pull/20045.diff",
    "patch_url": "https://github.com/bitcoin/bitcoin/pull/20045.patch",
    "merged_at": null
  },
  "body_html": "<p dir=\"auto\">The first commit is supposed to go upstream.</p>\n<p dir=\"auto\">The second commit shows how we could use this to clean up the code substantially. (140 lines removed)</p>",
  "body_text": "The first commit is supposed to go upstream.\nThe second commit shows how we could use this to clean up the code substantially. (140 lines removed)",
  "body": "The first commit is supposed to go upstream.\r\n\r\nThe second commit shows how we could use this to clean up the code substantially. (140 lines removed)\r\n",
  "closed_by": {
    "login": "kallewoof",
    "id": 250224,
    "node_id": "MDQ6VXNlcjI1MDIyNA==",
    "avatar_url": "https://avatars.githubusercontent.com/u/250224?v=4",
    "gravatar_id": "",
    "url": "https://api.github.com/users/kallewoof",
    "html_url": "https://github.com/kallewoof",
    "followers_url": "https://api.github.com/users/kallewoof/followers",
    "following_url": "https://api.github.com/users/kallewoof/following{/other_user}",
    "gists_url": "https://api.github.com/users/kallewoof/gists{/gist_id}",
    "starred_url": "https://api.github.com/users/kallewoof/starred{/owner}{/repo}",
    "subscriptions_url": "https://api.github.com/users/kallewoof/subscriptions",
    "organizations_url": "https://api.github.com/users/kallewoof/orgs",
    "repos_url": "https://api.github.com/users/kallewoof/repos",
    "events_url": "https://api.github.com/users/kallewoof/events{/privacy}",
    "received_events_url": "https://api.github.com/users/kallewoof/received_events",
    "type": "User",
    "site_admin": false
  },
  "reactions": {
    "url": "https://api.github.com/repos/bitcoin/bitcoin/issues/20045/reactions",
    "total_count": 0,
    "+1": 0,
    "-1": 0,
    "laugh": 0,
    "hooray": 0,
    "confused": 0,
    "heart": 0,
    "rocket": 0,
    "eyes": 0
  },
  "timeline_url": "https://api.github.com/repos/bitcoin/bitcoin/issues/20045/timeline",
  "performed_via_github_app": null,
  "state_reason": null
}
