[
  {
    "url": "https://api.github.com/repos/bitcoin/bitcoin/issues/comments/756346617",
    "html_url": "https://github.com/bitcoin/bitcoin/pull/20874#issuecomment-756346617",
    "issue_url": "https://api.github.com/repos/bitcoin/bitcoin/issues/20874",
    "id": 756346617,
    "node_id": "MDEyOklzc3VlQ29tbWVudDc1NjM0NjYxNw==",
    "user": {
      "login": "DrahtBot",
      "id": 39886733,
      "node_id": "MDQ6VXNlcjM5ODg2NzMz",
      "avatar_url": "https://avatars.githubusercontent.com/u/39886733?v=4",
      "gravatar_id": "",
      "url": "https://api.github.com/users/DrahtBot",
      "html_url": "https://github.com/DrahtBot",
      "followers_url": "https://api.github.com/users/DrahtBot/followers",
      "following_url": "https://api.github.com/users/DrahtBot/following{/other_user}",
      "gists_url": "https://api.github.com/users/DrahtBot/gists{/gist_id}",
      "starred_url": "https://api.github.com/users/DrahtBot/starred{/owner}{/repo}",
      "subscriptions_url": "https://api.github.com/users/DrahtBot/subscriptions",
      "organizations_url": "https://api.github.com/users/DrahtBot/orgs",
      "repos_url": "https://api.github.com/users/DrahtBot/repos",
      "events_url": "https://api.github.com/users/DrahtBot/events{/privacy}",
      "received_events_url": "https://api.github.com/users/DrahtBot/received_events",
      "type": "User",
      "site_admin": false
    },
    "created_at": "2021-01-07T19:55:13Z",
    "updated_at": "2021-05-28T07:55:41Z",
    "author_association": "CONTRIBUTOR",
    "body_html": "\n<p dir=\"auto\">The following sections might be updated with supplementary metadata relevant to reviewers and maintainers.</p>\n\n<h3 dir=\"auto\">Conflicts</h3>\n<p dir=\"auto\">Reviewers, this pull request conflicts with the following ones:</p>\n<ul dir=\"auto\">\n<li><a class=\"issue-link js-issue-link\" data-error-text=\"Failed to load title\" data-id=\"808139121\" data-permission-text=\"Title is private\" data-url=\"https://github.com/bitcoin/bitcoin/issues/21178\" data-hovercard-type=\"pull_request\" data-hovercard-url=\"/bitcoin/bitcoin/pull/21178/hovercard\" href=\"https://github.com/bitcoin/bitcoin/pull/21178\">#21178</a> (test: run mempool_reorg.py even with wallet disabled by DariusParvin)</li>\n</ul>\n<p dir=\"auto\">If you consider this pull request important, please also help to review the conflicting pull requests. Ideally, start with the one that should be merged first.</p>",
    "body_text": "The following sections might be updated with supplementary metadata relevant to reviewers and maintainers.\n\nConflicts\nReviewers, this pull request conflicts with the following ones:\n\n#21178 (test: run mempool_reorg.py even with wallet disabled by DariusParvin)\n\nIf you consider this pull request important, please also help to review the conflicting pull requests. Ideally, start with the one that should be merged first.",
    "body": "<!--e57a25ab6845829454e8d69fc972939a-->\n\nThe following sections might be updated with supplementary metadata relevant to reviewers and maintainers.\n\n<!--174a7506f384e20aa4161008e828411d-->\n### Conflicts\nReviewers, this pull request conflicts with the following ones:\n\n* #21178 (test: run mempool_reorg.py even with wallet disabled by DariusParvin)\n\nIf you consider this pull request important, please also help to review the conflicting pull requests. Ideally, start with the one that should be merged first.",
    "reactions": {
      "url": "https://api.github.com/repos/bitcoin/bitcoin/issues/comments/756346617/reactions",
      "total_count": 0,
      "+1": 0,
      "-1": 0,
      "laugh": 0,
      "hooray": 0,
      "confused": 0,
      "heart": 0,
      "rocket": 0,
      "eyes": 0
    },
    "performed_via_github_app": null
  },
  {
    "url": "https://api.github.com/repos/bitcoin/bitcoin/issues/comments/757083465",
    "html_url": "https://github.com/bitcoin/bitcoin/pull/20874#issuecomment-757083465",
    "issue_url": "https://api.github.com/repos/bitcoin/bitcoin/issues/20874",
    "id": 757083465,
    "node_id": "MDEyOklzc3VlQ29tbWVudDc1NzA4MzQ2NQ==",
    "user": {
      "login": "stackman27",
      "id": 26356227,
      "node_id": "MDQ6VXNlcjI2MzU2MjI3",
      "avatar_url": "https://avatars.githubusercontent.com/u/26356227?v=4",
      "gravatar_id": "",
      "url": "https://api.github.com/users/stackman27",
      "html_url": "https://github.com/stackman27",
      "followers_url": "https://api.github.com/users/stackman27/followers",
      "following_url": "https://api.github.com/users/stackman27/following{/other_user}",
      "gists_url": "https://api.github.com/users/stackman27/gists{/gist_id}",
      "starred_url": "https://api.github.com/users/stackman27/starred{/owner}{/repo}",
      "subscriptions_url": "https://api.github.com/users/stackman27/subscriptions",
      "organizations_url": "https://api.github.com/users/stackman27/orgs",
      "repos_url": "https://api.github.com/users/stackman27/repos",
      "events_url": "https://api.github.com/users/stackman27/events{/privacy}",
      "received_events_url": "https://api.github.com/users/stackman27/received_events",
      "type": "User",
      "site_admin": false
    },
    "created_at": "2021-01-09T02:52:21Z",
    "updated_at": "2021-01-09T02:57:02Z",
    "author_association": "CONTRIBUTOR",
    "body_html": "<p dir=\"auto\"><a class=\"user-mention notranslate\" data-hovercard-type=\"user\" data-hovercard-url=\"/users/mjdietzx/hovercard\" data-octo-click=\"hovercard-link-click\" data-octo-dimensions=\"link_type:self\" href=\"https://github.com/mjdietzx\">@mjdietzx</a> Thank you very much for the review. I just pushed an update shortening the methods in <code class=\"notranslate\">miniwallet</code> class by adding <code class=\"notranslate\">prepare_tx</code> and also resolved most of your comments</p>",
    "body_text": "@mjdietzx Thank you very much for the review. I just pushed an update shortening the methods in miniwallet class by adding prepare_tx and also resolved most of your comments",
    "body": "@mjdietzx Thank you very much for the review. I just pushed an update shortening the methods in `miniwallet` class by adding `prepare_tx` and also resolved most of your comments ",
    "reactions": {
      "url": "https://api.github.com/repos/bitcoin/bitcoin/issues/comments/757083465/reactions",
      "total_count": 1,
      "+1": 1,
      "-1": 0,
      "laugh": 0,
      "hooray": 0,
      "confused": 0,
      "heart": 0,
      "rocket": 0,
      "eyes": 0
    },
    "performed_via_github_app": null
  },
  {
    "url": "https://api.github.com/repos/bitcoin/bitcoin/issues/comments/757576998",
    "html_url": "https://github.com/bitcoin/bitcoin/pull/20874#issuecomment-757576998",
    "issue_url": "https://api.github.com/repos/bitcoin/bitcoin/issues/20874",
    "id": 757576998,
    "node_id": "MDEyOklzc3VlQ29tbWVudDc1NzU3Njk5OA==",
    "user": {
      "login": "stackman27",
      "id": 26356227,
      "node_id": "MDQ6VXNlcjI2MzU2MjI3",
      "avatar_url": "https://avatars.githubusercontent.com/u/26356227?v=4",
      "gravatar_id": "",
      "url": "https://api.github.com/users/stackman27",
      "html_url": "https://github.com/stackman27",
      "followers_url": "https://api.github.com/users/stackman27/followers",
      "following_url": "https://api.github.com/users/stackman27/following{/other_user}",
      "gists_url": "https://api.github.com/users/stackman27/gists{/gist_id}",
      "starred_url": "https://api.github.com/users/stackman27/starred{/owner}{/repo}",
      "subscriptions_url": "https://api.github.com/users/stackman27/subscriptions",
      "organizations_url": "https://api.github.com/users/stackman27/orgs",
      "repos_url": "https://api.github.com/users/stackman27/repos",
      "events_url": "https://api.github.com/users/stackman27/events{/privacy}",
      "received_events_url": "https://api.github.com/users/stackman27/received_events",
      "type": "User",
      "site_admin": false
    },
    "created_at": "2021-01-11T00:57:07Z",
    "updated_at": "2021-01-11T00:57:07Z",
    "author_association": "CONTRIBUTOR",
    "body_html": "<p dir=\"auto\"><a class=\"user-mention notranslate\" data-hovercard-type=\"user\" data-hovercard-url=\"/users/mjdietzx/hovercard\" data-octo-click=\"hovercard-link-click\" data-octo-dimensions=\"link_type:self\" href=\"https://github.com/mjdietzx\">@mjdietzx</a> Thank you very much for the review. Pushed a new update highlighting all the comments and also updated <code class=\"notranslate\">MiniWallet</code> by adding  just-create-don't-send method as proposed by <a class=\"user-mention notranslate\" data-hovercard-type=\"user\" data-hovercard-url=\"/users/glozow/hovercard\" data-octo-click=\"hovercard-link-click\" data-octo-dimensions=\"link_type:self\" href=\"https://github.com/glozow\">@glozow</a> in <a class=\"issue-link js-issue-link\" data-error-text=\"Failed to load title\" data-id=\"781420742\" data-permission-text=\"Title is private\" data-url=\"https://github.com/bitcoin/bitcoin/issues/20876\" data-hovercard-type=\"pull_request\" data-hovercard-url=\"/bitcoin/bitcoin/pull/20876/hovercard\" href=\"https://github.com/bitcoin/bitcoin/pull/20876\">#20876</a>. Also, I believe the new <code class=\"notranslate\">create_and_sign_rawtx</code> method should resolve <a class=\"user-mention notranslate\" data-hovercard-type=\"user\" data-hovercard-url=\"/users/nginocchio/hovercard\" data-octo-click=\"hovercard-link-click\" data-octo-dimensions=\"link_type:self\" href=\"https://github.com/nginocchio\">@nginocchio</a>'s issues as proposed in <a class=\"issue-link js-issue-link\" data-error-text=\"Failed to load title\" data-id=\"776687537\" data-permission-text=\"Title is private\" data-url=\"https://github.com/bitcoin/bitcoin/issues/20808\" data-hovercard-type=\"pull_request\" data-hovercard-url=\"/bitcoin/bitcoin/pull/20808/hovercard\" href=\"https://github.com/bitcoin/bitcoin/pull/20808\">#20808</a></p>",
    "body_text": "@mjdietzx Thank you very much for the review. Pushed a new update highlighting all the comments and also updated MiniWallet by adding  just-create-don't-send method as proposed by @glozow in #20876. Also, I believe the new create_and_sign_rawtx method should resolve @nginocchio's issues as proposed in #20808",
    "body": "@mjdietzx Thank you very much for the review. Pushed a new update highlighting all the comments and also updated `MiniWallet` by adding  just-create-don't-send method as proposed by @glozow in #20876. Also, I believe the new `create_and_sign_rawtx` method should resolve @nginocchio's issues as proposed in #20808",
    "reactions": {
      "url": "https://api.github.com/repos/bitcoin/bitcoin/issues/comments/757576998/reactions",
      "total_count": 0,
      "+1": 0,
      "-1": 0,
      "laugh": 0,
      "hooray": 0,
      "confused": 0,
      "heart": 0,
      "rocket": 0,
      "eyes": 0
    },
    "performed_via_github_app": null
  },
  {
    "url": "https://api.github.com/repos/bitcoin/bitcoin/issues/comments/771118938",
    "html_url": "https://github.com/bitcoin/bitcoin/pull/20874#issuecomment-771118938",
    "issue_url": "https://api.github.com/repos/bitcoin/bitcoin/issues/20874",
    "id": 771118938,
    "node_id": "MDEyOklzc3VlQ29tbWVudDc3MTExODkzOA==",
    "user": {
      "login": "stackman27",
      "id": 26356227,
      "node_id": "MDQ6VXNlcjI2MzU2MjI3",
      "avatar_url": "https://avatars.githubusercontent.com/u/26356227?v=4",
      "gravatar_id": "",
      "url": "https://api.github.com/users/stackman27",
      "html_url": "https://github.com/stackman27",
      "followers_url": "https://api.github.com/users/stackman27/followers",
      "following_url": "https://api.github.com/users/stackman27/following{/other_user}",
      "gists_url": "https://api.github.com/users/stackman27/gists{/gist_id}",
      "starred_url": "https://api.github.com/users/stackman27/starred{/owner}{/repo}",
      "subscriptions_url": "https://api.github.com/users/stackman27/subscriptions",
      "organizations_url": "https://api.github.com/users/stackman27/orgs",
      "repos_url": "https://api.github.com/users/stackman27/repos",
      "events_url": "https://api.github.com/users/stackman27/events{/privacy}",
      "received_events_url": "https://api.github.com/users/stackman27/received_events",
      "type": "User",
      "site_admin": false
    },
    "created_at": "2021-02-01T19:59:47Z",
    "updated_at": "2021-02-01T19:59:47Z",
    "author_association": "CONTRIBUTOR",
    "body_html": "<p dir=\"auto\">Thank you <a class=\"user-mention notranslate\" data-hovercard-type=\"user\" data-hovercard-url=\"/users/glozow/hovercard\" data-octo-click=\"hovercard-link-click\" data-octo-dimensions=\"link_type:self\" href=\"https://github.com/glozow\">@glozow</a> <a class=\"user-mention notranslate\" data-hovercard-type=\"user\" data-hovercard-url=\"/users/mjdietzx/hovercard\" data-octo-click=\"hovercard-link-click\" data-octo-dimensions=\"link_type:self\" href=\"https://github.com/mjdietzx\">@mjdietzx</a>  for the review. Added stronger assertion as suggested :)</p>",
    "body_text": "Thank you @glozow @mjdietzx  for the review. Added stronger assertion as suggested :)",
    "body": "Thank you @glozow @mjdietzx  for the review. Added stronger assertion as suggested :) ",
    "reactions": {
      "url": "https://api.github.com/repos/bitcoin/bitcoin/issues/comments/771118938/reactions",
      "total_count": 0,
      "+1": 0,
      "-1": 0,
      "laugh": 0,
      "hooray": 0,
      "confused": 0,
      "heart": 0,
      "rocket": 0,
      "eyes": 0
    },
    "performed_via_github_app": null
  },
  {
    "url": "https://api.github.com/repos/bitcoin/bitcoin/issues/comments/790713787",
    "html_url": "https://github.com/bitcoin/bitcoin/pull/20874#issuecomment-790713787",
    "issue_url": "https://api.github.com/repos/bitcoin/bitcoin/issues/20874",
    "id": 790713787,
    "node_id": "MDEyOklzc3VlQ29tbWVudDc5MDcxMzc4Nw==",
    "user": {
      "login": "stackman27",
      "id": 26356227,
      "node_id": "MDQ6VXNlcjI2MzU2MjI3",
      "avatar_url": "https://avatars.githubusercontent.com/u/26356227?v=4",
      "gravatar_id": "",
      "url": "https://api.github.com/users/stackman27",
      "html_url": "https://github.com/stackman27",
      "followers_url": "https://api.github.com/users/stackman27/followers",
      "following_url": "https://api.github.com/users/stackman27/following{/other_user}",
      "gists_url": "https://api.github.com/users/stackman27/gists{/gist_id}",
      "starred_url": "https://api.github.com/users/stackman27/starred{/owner}{/repo}",
      "subscriptions_url": "https://api.github.com/users/stackman27/subscriptions",
      "organizations_url": "https://api.github.com/users/stackman27/orgs",
      "repos_url": "https://api.github.com/users/stackman27/repos",
      "events_url": "https://api.github.com/users/stackman27/events{/privacy}",
      "received_events_url": "https://api.github.com/users/stackman27/received_events",
      "type": "User",
      "site_admin": false
    },
    "created_at": "2021-03-04T15:46:48Z",
    "updated_at": "2021-03-04T15:46:48Z",
    "author_association": "CONTRIBUTOR",
    "body_html": "<blockquote>\n<p dir=\"auto\">Concept ACK. I actually think a cleaner approach would be to make <code class=\"notranslate\">create_lots_of_big_transactions</code> and the other util.py transaction not need wallet. Could reduce the amount of refactoring needed in each of the functional tests?</p>\n</blockquote>\n<p dir=\"auto\"><a class=\"user-mention notranslate\" data-hovercard-type=\"user\" data-hovercard-url=\"/users/glozow/hovercard\" data-octo-click=\"hovercard-link-click\" data-octo-dimensions=\"link_type:self\" href=\"https://github.com/glozow\">@glozow</a> Thank you very much for the review!<br>\nAre you suggesting an alternative way to create_lots_of_big_transactions or just simply getting rid of it?</p>",
    "body_text": "Concept ACK. I actually think a cleaner approach would be to make create_lots_of_big_transactions and the other util.py transaction not need wallet. Could reduce the amount of refactoring needed in each of the functional tests?\n\n@glozow Thank you very much for the review!\nAre you suggesting an alternative way to create_lots_of_big_transactions or just simply getting rid of it?",
    "body": "> Concept ACK. I actually think a cleaner approach would be to make `create_lots_of_big_transactions` and the other util.py transaction not need wallet. Could reduce the amount of refactoring needed in each of the functional tests?\r\n\r\n@glozow Thank you very much for the review!\r\nAre you suggesting an alternative way to create_lots_of_big_transactions or just simply getting rid of it?",
    "reactions": {
      "url": "https://api.github.com/repos/bitcoin/bitcoin/issues/comments/790713787/reactions",
      "total_count": 0,
      "+1": 0,
      "-1": 0,
      "laugh": 0,
      "hooray": 0,
      "confused": 0,
      "heart": 0,
      "rocket": 0,
      "eyes": 0
    },
    "performed_via_github_app": null
  },
  {
    "url": "https://api.github.com/repos/bitcoin/bitcoin/issues/comments/821574478",
    "html_url": "https://github.com/bitcoin/bitcoin/pull/20874#issuecomment-821574478",
    "issue_url": "https://api.github.com/repos/bitcoin/bitcoin/issues/20874",
    "id": 821574478,
    "node_id": "MDEyOklzc3VlQ29tbWVudDgyMTU3NDQ3OA==",
    "user": {
      "login": "stackman27",
      "id": 26356227,
      "node_id": "MDQ6VXNlcjI2MzU2MjI3",
      "avatar_url": "https://avatars.githubusercontent.com/u/26356227?v=4",
      "gravatar_id": "",
      "url": "https://api.github.com/users/stackman27",
      "html_url": "https://github.com/stackman27",
      "followers_url": "https://api.github.com/users/stackman27/followers",
      "following_url": "https://api.github.com/users/stackman27/following{/other_user}",
      "gists_url": "https://api.github.com/users/stackman27/gists{/gist_id}",
      "starred_url": "https://api.github.com/users/stackman27/starred{/owner}{/repo}",
      "subscriptions_url": "https://api.github.com/users/stackman27/subscriptions",
      "organizations_url": "https://api.github.com/users/stackman27/orgs",
      "repos_url": "https://api.github.com/users/stackman27/repos",
      "events_url": "https://api.github.com/users/stackman27/events{/privacy}",
      "received_events_url": "https://api.github.com/users/stackman27/received_events",
      "type": "User",
      "site_admin": false
    },
    "created_at": "2021-04-16T21:31:14Z",
    "updated_at": "2021-04-16T21:31:14Z",
    "author_association": "CONTRIBUTOR",
    "body_html": "<p dir=\"auto\">Thank you <a class=\"user-mention notranslate\" data-hovercard-type=\"user\" data-hovercard-url=\"/users/DariusParvin/hovercard\" data-octo-click=\"hovercard-link-click\" data-octo-dimensions=\"link_type:self\" href=\"https://github.com/DariusParvin\">@DariusParvin</a>  for the review. Added changes as suggested</p>",
    "body_text": "Thank you @DariusParvin  for the review. Added changes as suggested",
    "body": "Thank you @DariusParvin  for the review. Added changes as suggested",
    "reactions": {
      "url": "https://api.github.com/repos/bitcoin/bitcoin/issues/comments/821574478/reactions",
      "total_count": 1,
      "+1": 1,
      "-1": 0,
      "laugh": 0,
      "hooray": 0,
      "confused": 0,
      "heart": 0,
      "rocket": 0,
      "eyes": 0
    },
    "performed_via_github_app": null
  },
  {
    "url": "https://api.github.com/repos/bitcoin/bitcoin/issues/comments/852164687",
    "html_url": "https://github.com/bitcoin/bitcoin/pull/20874#issuecomment-852164687",
    "issue_url": "https://api.github.com/repos/bitcoin/bitcoin/issues/20874",
    "id": 852164687,
    "node_id": "MDEyOklzc3VlQ29tbWVudDg1MjE2NDY4Nw==",
    "user": {
      "login": "DrahtBot",
      "id": 39886733,
      "node_id": "MDQ6VXNlcjM5ODg2NzMz",
      "avatar_url": "https://avatars.githubusercontent.com/u/39886733?v=4",
      "gravatar_id": "",
      "url": "https://api.github.com/users/DrahtBot",
      "html_url": "https://github.com/DrahtBot",
      "followers_url": "https://api.github.com/users/DrahtBot/followers",
      "following_url": "https://api.github.com/users/DrahtBot/following{/other_user}",
      "gists_url": "https://api.github.com/users/DrahtBot/gists{/gist_id}",
      "starred_url": "https://api.github.com/users/DrahtBot/starred{/owner}{/repo}",
      "subscriptions_url": "https://api.github.com/users/DrahtBot/subscriptions",
      "organizations_url": "https://api.github.com/users/DrahtBot/orgs",
      "repos_url": "https://api.github.com/users/DrahtBot/repos",
      "events_url": "https://api.github.com/users/DrahtBot/events{/privacy}",
      "received_events_url": "https://api.github.com/users/DrahtBot/received_events",
      "type": "User",
      "site_admin": false
    },
    "created_at": "2021-06-01T14:19:25Z",
    "updated_at": "2021-06-01T14:19:25Z",
    "author_association": "CONTRIBUTOR",
    "body_html": "\n<p dir=\"auto\">🐙 This pull request conflicts with the target branch and <a href=\"https://github.com/bitcoin/bitcoin/blob/master/CONTRIBUTING.md#rebasing-changes\">needs rebase</a>.</p>\n<p dir=\"auto\"><sub>Want to unsubscribe from rebase notifications on this pull request? Just convert this pull request to a \"draft\".</sub></p>",
    "body_text": "🐙 This pull request conflicts with the target branch and needs rebase.\nWant to unsubscribe from rebase notifications on this pull request? Just convert this pull request to a \"draft\".",
    "body": "<!--cf906140f33d8803c4a75a2196329ecb-->\n🐙 This pull request conflicts with the target branch and [needs rebase](https://github.com/bitcoin/bitcoin/blob/master/CONTRIBUTING.md#rebasing-changes).\n\n<sub>Want to unsubscribe from rebase notifications on this pull request? Just convert this pull request to a \"draft\".</sub>",
    "reactions": {
      "url": "https://api.github.com/repos/bitcoin/bitcoin/issues/comments/852164687/reactions",
      "total_count": 0,
      "+1": 0,
      "-1": 0,
      "laugh": 0,
      "hooray": 0,
      "confused": 0,
      "heart": 0,
      "rocket": 0,
      "eyes": 0
    },
    "performed_via_github_app": null
  },
  {
    "url": "https://api.github.com/repos/bitcoin/bitcoin/issues/comments/883165494",
    "html_url": "https://github.com/bitcoin/bitcoin/pull/20874#issuecomment-883165494",
    "issue_url": "https://api.github.com/repos/bitcoin/bitcoin/issues/20874",
    "id": 883165494,
    "node_id": "IC_kwDOABII5840pAk2",
    "user": {
      "login": "maflcko",
      "id": 6399679,
      "node_id": "MDQ6VXNlcjYzOTk2Nzk=",
      "avatar_url": "https://avatars.githubusercontent.com/u/6399679?v=4",
      "gravatar_id": "",
      "url": "https://api.github.com/users/maflcko",
      "html_url": "https://github.com/maflcko",
      "followers_url": "https://api.github.com/users/maflcko/followers",
      "following_url": "https://api.github.com/users/maflcko/following{/other_user}",
      "gists_url": "https://api.github.com/users/maflcko/gists{/gist_id}",
      "starred_url": "https://api.github.com/users/maflcko/starred{/owner}{/repo}",
      "subscriptions_url": "https://api.github.com/users/maflcko/subscriptions",
      "organizations_url": "https://api.github.com/users/maflcko/orgs",
      "repos_url": "https://api.github.com/users/maflcko/repos",
      "events_url": "https://api.github.com/users/maflcko/events{/privacy}",
      "received_events_url": "https://api.github.com/users/maflcko/received_events",
      "type": "User",
      "site_admin": false
    },
    "created_at": "2021-07-20T07:32:49Z",
    "updated_at": "2021-07-20T07:32:49Z",
    "author_association": "MEMBER",
    "body_html": "<p dir=\"auto\">Are you still working on this?</p>",
    "body_text": "Are you still working on this?",
    "body": "Are you still working on this?",
    "reactions": {
      "url": "https://api.github.com/repos/bitcoin/bitcoin/issues/comments/883165494/reactions",
      "total_count": 0,
      "+1": 0,
      "-1": 0,
      "laugh": 0,
      "hooray": 0,
      "confused": 0,
      "heart": 0,
      "rocket": 0,
      "eyes": 0
    },
    "performed_via_github_app": null
  },
  {
    "url": "https://api.github.com/repos/bitcoin/bitcoin/issues/comments/883623943",
    "html_url": "https://github.com/bitcoin/bitcoin/pull/20874#issuecomment-883623943",
    "issue_url": "https://api.github.com/repos/bitcoin/bitcoin/issues/20874",
    "id": 883623943,
    "node_id": "IC_kwDOABII5840qwgH",
    "user": {
      "login": "stackman27",
      "id": 26356227,
      "node_id": "MDQ6VXNlcjI2MzU2MjI3",
      "avatar_url": "https://avatars.githubusercontent.com/u/26356227?v=4",
      "gravatar_id": "",
      "url": "https://api.github.com/users/stackman27",
      "html_url": "https://github.com/stackman27",
      "followers_url": "https://api.github.com/users/stackman27/followers",
      "following_url": "https://api.github.com/users/stackman27/following{/other_user}",
      "gists_url": "https://api.github.com/users/stackman27/gists{/gist_id}",
      "starred_url": "https://api.github.com/users/stackman27/starred{/owner}{/repo}",
      "subscriptions_url": "https://api.github.com/users/stackman27/subscriptions",
      "organizations_url": "https://api.github.com/users/stackman27/orgs",
      "repos_url": "https://api.github.com/users/stackman27/repos",
      "events_url": "https://api.github.com/users/stackman27/events{/privacy}",
      "received_events_url": "https://api.github.com/users/stackman27/received_events",
      "type": "User",
      "site_admin": false
    },
    "created_at": "2021-07-20T19:02:30Z",
    "updated_at": "2021-07-20T19:02:30Z",
    "author_association": "CONTRIBUTOR",
    "body_html": "<blockquote>\n<p dir=\"auto\">Are you still working on this?</p>\n</blockquote>\n<p dir=\"auto\">Not at the moment, have been busy with work and classes</p>",
    "body_text": "Are you still working on this?\n\nNot at the moment, have been busy with work and classes",
    "body": "> Are you still working on this?\r\n\r\nNot at the moment, have been busy with work and classes",
    "reactions": {
      "url": "https://api.github.com/repos/bitcoin/bitcoin/issues/comments/883623943/reactions",
      "total_count": 0,
      "+1": 0,
      "-1": 0,
      "laugh": 0,
      "hooray": 0,
      "confused": 0,
      "heart": 0,
      "rocket": 0,
      "eyes": 0
    },
    "performed_via_github_app": null
  }
]
