{
  "url": "https://api.github.com/repos/bitcoin/bitcoin/issues/1186",
  "repository_url": "https://api.github.com/repos/bitcoin/bitcoin",
  "labels_url": "https://api.github.com/repos/bitcoin/bitcoin/issues/1186/labels{/name}",
  "comments_url": "https://api.github.com/repos/bitcoin/bitcoin/issues/1186/comments",
  "events_url": "https://api.github.com/repos/bitcoin/bitcoin/issues/1186/events",
  "html_url": "https://github.com/bitcoin/bitcoin/issues/1186",
  "id": 4395222,
  "node_id": "MDU6SXNzdWU0Mzk1MjIy",
  "number": 1186,
  "title": "not very clear what \"sign message\" feature is for",
  "user": {
    "login": "rebroad",
    "id": 1530283,
    "node_id": "MDQ6VXNlcjE1MzAyODM=",
    "avatar_url": "https://avatars.githubusercontent.com/u/1530283?v=4",
    "gravatar_id": "",
    "url": "https://api.github.com/users/rebroad",
    "html_url": "https://github.com/rebroad",
    "followers_url": "https://api.github.com/users/rebroad/followers",
    "following_url": "https://api.github.com/users/rebroad/following{/other_user}",
    "gists_url": "https://api.github.com/users/rebroad/gists{/gist_id}",
    "starred_url": "https://api.github.com/users/rebroad/starred{/owner}{/repo}",
    "subscriptions_url": "https://api.github.com/users/rebroad/subscriptions",
    "organizations_url": "https://api.github.com/users/rebroad/orgs",
    "repos_url": "https://api.github.com/users/rebroad/repos",
    "events_url": "https://api.github.com/users/rebroad/events{/privacy}",
    "received_events_url": "https://api.github.com/users/rebroad/received_events",
    "type": "User",
    "site_admin": false
  },
  "labels": [

  ],
  "state": "closed",
  "locked": true,
  "assignee": null,
  "assignees": [

  ],
  "milestone": null,
  "comments": 8,
  "created_at": "2012-05-02T22:48:52Z",
  "updated_at": "2021-09-08T12:31:20Z",
  "closed_at": "2012-05-04T17:21:05Z",
  "author_association": "CONTRIBUTOR",
  "active_lock_reason": "resolved",
  "body_html": "<p dir=\"auto\">It's not clear to me what this feature is for or when I'd use it. I fear that this may be the case for other users of bitcoin-qt, and as such they must be missing out on what is obviously (given its prominence) an important facility. Can something be done to raise awareness of the purpose of this feature?</p>",
  "body_text": "It's not clear to me what this feature is for or when I'd use it. I fear that this may be the case for other users of bitcoin-qt, and as such they must be missing out on what is obviously (given its prominence) an important facility. Can something be done to raise awareness of the purpose of this feature?",
  "body": "It's not clear to me what this feature is for or when I'd use it. I fear that this may be the case for other users of bitcoin-qt, and as such they must be missing out on what is obviously (given its prominence) an important facility. Can something be done to raise awareness of the purpose of this feature?\n",
  "closed_by": {
    "login": "laanwj",
    "id": 126646,
    "node_id": "MDQ6VXNlcjEyNjY0Ng==",
    "avatar_url": "https://avatars.githubusercontent.com/u/126646?v=4",
    "gravatar_id": "",
    "url": "https://api.github.com/users/laanwj",
    "html_url": "https://github.com/laanwj",
    "followers_url": "https://api.github.com/users/laanwj/followers",
    "following_url": "https://api.github.com/users/laanwj/following{/other_user}",
    "gists_url": "https://api.github.com/users/laanwj/gists{/gist_id}",
    "starred_url": "https://api.github.com/users/laanwj/starred{/owner}{/repo}",
    "subscriptions_url": "https://api.github.com/users/laanwj/subscriptions",
    "organizations_url": "https://api.github.com/users/laanwj/orgs",
    "repos_url": "https://api.github.com/users/laanwj/repos",
    "events_url": "https://api.github.com/users/laanwj/events{/privacy}",
    "received_events_url": "https://api.github.com/users/laanwj/received_events",
    "type": "User",
    "site_admin": false
  },
  "reactions": {
    "url": "https://api.github.com/repos/bitcoin/bitcoin/issues/1186/reactions",
    "total_count": 0,
    "+1": 0,
    "-1": 0,
    "laugh": 0,
    "hooray": 0,
    "confused": 0,
    "heart": 0,
    "rocket": 0,
    "eyes": 0
  },
  "timeline_url": "https://api.github.com/repos/bitcoin/bitcoin/issues/1186/timeline",
  "performed_via_github_app": null,
  "state_reason": "completed"
}
