{
  "url": "https://api.github.com/repos/bitcoin/bitcoin/issues/17805",
  "repository_url": "https://api.github.com/repos/bitcoin/bitcoin",
  "labels_url": "https://api.github.com/repos/bitcoin/bitcoin/issues/17805/labels{/name}",
  "comments_url": "https://api.github.com/repos/bitcoin/bitcoin/issues/17805/comments",
  "events_url": "https://api.github.com/repos/bitcoin/bitcoin/issues/17805/events",
  "html_url": "https://github.com/bitcoin/bitcoin/pull/17805",
  "id": 542977279,
  "node_id": "MDExOlB1bGxSZXF1ZXN0MzU3MzE3NzUy",
  "number": 17805,
  "title": "test: Add test for rpcwhitelistdefault",
  "user": {
    "login": "emilengler",
    "id": 12272949,
    "node_id": "MDQ6VXNlcjEyMjcyOTQ5",
    "avatar_url": "https://avatars.githubusercontent.com/u/12272949?v=4",
    "gravatar_id": "",
    "url": "https://api.github.com/users/emilengler",
    "html_url": "https://github.com/emilengler",
    "followers_url": "https://api.github.com/users/emilengler/followers",
    "following_url": "https://api.github.com/users/emilengler/following{/other_user}",
    "gists_url": "https://api.github.com/users/emilengler/gists{/gist_id}",
    "starred_url": "https://api.github.com/users/emilengler/starred{/owner}{/repo}",
    "subscriptions_url": "https://api.github.com/users/emilengler/subscriptions",
    "organizations_url": "https://api.github.com/users/emilengler/orgs",
    "repos_url": "https://api.github.com/users/emilengler/repos",
    "events_url": "https://api.github.com/users/emilengler/events{/privacy}",
    "received_events_url": "https://api.github.com/users/emilengler/received_events",
    "type": "User",
    "site_admin": false
  },
  "labels": [
    {
      "id": 62963516,
      "node_id": "MDU6TGFiZWw2Mjk2MzUxNg==",
      "url": "https://api.github.com/repos/bitcoin/bitcoin/labels/Tests",
      "name": "Tests",
      "color": "d4c5f9",
      "default": false,
      "description": null
    }
  ],
  "state": "closed",
  "locked": true,
  "assignee": null,
  "assignees": [

  ],
  "milestone": null,
  "comments": 7,
  "created_at": "2019-12-27T20:09:59Z",
  "updated_at": "2024-04-12T06:26:32Z",
  "closed_at": "2021-08-18T08:05:16Z",
  "author_association": "CONTRIBUTOR",
  "active_lock_reason": "resolved",
  "draft": false,
  "pull_request": {
    "url": "https://api.github.com/repos/bitcoin/bitcoin/pulls/17805",
    "html_url": "https://github.com/bitcoin/bitcoin/pull/17805",
    "diff_url": "https://github.com/bitcoin/bitcoin/pull/17805.diff",
    "patch_url": "https://github.com/bitcoin/bitcoin/pull/17805.patch",
    "merged_at": null
  },
  "body_html": "<p dir=\"auto\">A test for <code class=\"notranslate\">rpcwhitelistdefault</code>.</p>",
  "body_text": "A test for rpcwhitelistdefault.",
  "body": "A test for `rpcwhitelistdefault`.",
  "closed_by": {
    "login": "fanquake",
    "id": 863730,
    "node_id": "MDQ6VXNlcjg2MzczMA==",
    "avatar_url": "https://avatars.githubusercontent.com/u/863730?v=4",
    "gravatar_id": "",
    "url": "https://api.github.com/users/fanquake",
    "html_url": "https://github.com/fanquake",
    "followers_url": "https://api.github.com/users/fanquake/followers",
    "following_url": "https://api.github.com/users/fanquake/following{/other_user}",
    "gists_url": "https://api.github.com/users/fanquake/gists{/gist_id}",
    "starred_url": "https://api.github.com/users/fanquake/starred{/owner}{/repo}",
    "subscriptions_url": "https://api.github.com/users/fanquake/subscriptions",
    "organizations_url": "https://api.github.com/users/fanquake/orgs",
    "repos_url": "https://api.github.com/users/fanquake/repos",
    "events_url": "https://api.github.com/users/fanquake/events{/privacy}",
    "received_events_url": "https://api.github.com/users/fanquake/received_events",
    "type": "User",
    "site_admin": false
  },
  "reactions": {
    "url": "https://api.github.com/repos/bitcoin/bitcoin/issues/17805/reactions",
    "total_count": 0,
    "+1": 0,
    "-1": 0,
    "laugh": 0,
    "hooray": 0,
    "confused": 0,
    "heart": 0,
    "rocket": 0,
    "eyes": 0
  },
  "timeline_url": "https://api.github.com/repos/bitcoin/bitcoin/issues/17805/timeline",
  "performed_via_github_app": null,
  "state_reason": null
}
