{
  "url": "https://api.github.com/repos/bitcoin/bitcoin/issues/10842",
  "repository_url": "https://api.github.com/repos/bitcoin/bitcoin",
  "labels_url": "https://api.github.com/repos/bitcoin/bitcoin/issues/10842/labels{/name}",
  "comments_url": "https://api.github.com/repos/bitcoin/bitcoin/issues/10842/comments",
  "events_url": "https://api.github.com/repos/bitcoin/bitcoin/issues/10842/events",
  "html_url": "https://github.com/bitcoin/bitcoin/pull/10842",
  "id": 243230710,
  "node_id": "MDExOlB1bGxSZXF1ZXN0MTMwNzQ2MjYw",
  "number": 10842,
  "title": "Fix incorrect Doxygen tag (@ince → @since). Doxygen parameter name matching.",
  "user": {
    "login": "practicalswift",
    "id": 7826565,
    "node_id": "MDQ6VXNlcjc4MjY1NjU=",
    "avatar_url": "https://avatars.githubusercontent.com/u/7826565?v=4",
    "gravatar_id": "",
    "url": "https://api.github.com/users/practicalswift",
    "html_url": "https://github.com/practicalswift",
    "followers_url": "https://api.github.com/users/practicalswift/followers",
    "following_url": "https://api.github.com/users/practicalswift/following{/other_user}",
    "gists_url": "https://api.github.com/users/practicalswift/gists{/gist_id}",
    "starred_url": "https://api.github.com/users/practicalswift/starred{/owner}{/repo}",
    "subscriptions_url": "https://api.github.com/users/practicalswift/subscriptions",
    "organizations_url": "https://api.github.com/users/practicalswift/orgs",
    "repos_url": "https://api.github.com/users/practicalswift/repos",
    "events_url": "https://api.github.com/users/practicalswift/events{/privacy}",
    "received_events_url": "https://api.github.com/users/practicalswift/received_events",
    "type": "User",
    "site_admin": false
  },
  "labels": [
    {
      "id": 148216,
      "node_id": "MDU6TGFiZWwxNDgyMTY=",
      "url": "https://api.github.com/repos/bitcoin/bitcoin/labels/Docs",
      "name": "Docs",
      "color": "02d7e1",
      "default": false,
      "description": null
    }
  ],
  "state": "closed",
  "locked": true,
  "assignee": null,
  "assignees": [

  ],
  "milestone": null,
  "comments": 5,
  "created_at": "2017-07-16T10:22:27Z",
  "updated_at": "2022-08-16T17:15:08Z",
  "closed_at": "2017-07-16T21:45:03Z",
  "author_association": "CONTRIBUTOR",
  "active_lock_reason": "resolved",
  "draft": false,
  "pull_request": {
    "url": "https://api.github.com/repos/bitcoin/bitcoin/pulls/10842",
    "html_url": "https://github.com/bitcoin/bitcoin/pull/10842",
    "diff_url": "https://github.com/bitcoin/bitcoin/pull/10842.diff",
    "patch_url": "https://github.com/bitcoin/bitcoin/pull/10842.patch",
    "merged_at": "2017-07-16T21:45:03Z"
  },
  "body_html": "<p dir=\"auto\">Doxygen fixes:</p>\n<ul dir=\"auto\">\n<li>Fix incorrect Doxygen tag (<code class=\"notranslate\">@ince</code> → <code class=\"notranslate\">@since</code>).</li>\n<li>Make Doxygen parameter names match actual parameter names.</li>\n</ul>",
  "body_text": "Doxygen fixes:\n\nFix incorrect Doxygen tag (@ince → @since).\nMake Doxygen parameter names match actual parameter names.",
  "body": "Doxygen fixes:\r\n* Fix incorrect Doxygen tag (`@ince` → `@since`).\r\n* Make Doxygen parameter names match actual parameter names.",
  "closed_by": {
    "login": "maflcko",
    "id": 6399679,
    "node_id": "MDQ6VXNlcjYzOTk2Nzk=",
    "avatar_url": "https://avatars.githubusercontent.com/u/6399679?v=4",
    "gravatar_id": "",
    "url": "https://api.github.com/users/maflcko",
    "html_url": "https://github.com/maflcko",
    "followers_url": "https://api.github.com/users/maflcko/followers",
    "following_url": "https://api.github.com/users/maflcko/following{/other_user}",
    "gists_url": "https://api.github.com/users/maflcko/gists{/gist_id}",
    "starred_url": "https://api.github.com/users/maflcko/starred{/owner}{/repo}",
    "subscriptions_url": "https://api.github.com/users/maflcko/subscriptions",
    "organizations_url": "https://api.github.com/users/maflcko/orgs",
    "repos_url": "https://api.github.com/users/maflcko/repos",
    "events_url": "https://api.github.com/users/maflcko/events{/privacy}",
    "received_events_url": "https://api.github.com/users/maflcko/received_events",
    "type": "User",
    "site_admin": false
  },
  "reactions": {
    "url": "https://api.github.com/repos/bitcoin/bitcoin/issues/10842/reactions",
    "total_count": 0,
    "+1": 0,
    "-1": 0,
    "laugh": 0,
    "hooray": 0,
    "confused": 0,
    "heart": 0,
    "rocket": 0,
    "eyes": 0
  },
  "timeline_url": "https://api.github.com/repos/bitcoin/bitcoin/issues/10842/timeline",
  "performed_via_github_app": null,
  "state_reason": null
}
