[
  {
    "url": "https://api.github.com/repos/bitcoin/bitcoin/issues/comments/499035320",
    "html_url": "https://github.com/bitcoin/bitcoin/pull/16146#issuecomment-499035320",
    "issue_url": "https://api.github.com/repos/bitcoin/bitcoin/issues/16146",
    "id": 499035320,
    "node_id": "MDEyOklzc3VlQ29tbWVudDQ5OTAzNTMyMA==",
    "user": {
      "login": "mxaddict",
      "id": 1060905,
      "node_id": "MDQ6VXNlcjEwNjA5MDU=",
      "avatar_url": "https://avatars.githubusercontent.com/u/1060905?v=4",
      "gravatar_id": "",
      "url": "https://api.github.com/users/mxaddict",
      "html_url": "https://github.com/mxaddict",
      "followers_url": "https://api.github.com/users/mxaddict/followers",
      "following_url": "https://api.github.com/users/mxaddict/following{/other_user}",
      "gists_url": "https://api.github.com/users/mxaddict/gists{/gist_id}",
      "starred_url": "https://api.github.com/users/mxaddict/starred{/owner}{/repo}",
      "subscriptions_url": "https://api.github.com/users/mxaddict/subscriptions",
      "organizations_url": "https://api.github.com/users/mxaddict/orgs",
      "repos_url": "https://api.github.com/users/mxaddict/repos",
      "events_url": "https://api.github.com/users/mxaddict/events{/privacy}",
      "received_events_url": "https://api.github.com/users/mxaddict/received_events",
      "type": "User",
      "site_admin": false
    },
    "created_at": "2019-06-05T10:51:12Z",
    "updated_at": "2019-06-05T10:51:12Z",
    "author_association": "CONTRIBUTOR",
    "body_html": "<p dir=\"auto\"><a class=\"user-mention notranslate\" data-hovercard-type=\"user\" data-hovercard-url=\"/users/fanquake/hovercard\" data-octo-click=\"hovercard-link-click\" data-octo-dimensions=\"link_type:self\" href=\"https://github.com/fanquake\">@fanquake</a> I've checked the travis error, but I'm confused what the error means:</p>\n<div class=\"snippet-clipboard-content notranslate position-relative overflow-auto\" data-snippet-clipboard-copy-content=\"FAIL: subtree directory was touched without subtree merge\"><pre class=\"notranslate\"><code class=\"notranslate\">FAIL: subtree directory was touched without subtree merge\n</code></pre></div>",
    "body_text": "@fanquake I've checked the travis error, but I'm confused what the error means:\nFAIL: subtree directory was touched without subtree merge",
    "body": "@fanquake I've checked the travis error, but I'm confused what the error means:\r\n\r\n```\r\nFAIL: subtree directory was touched without subtree merge\r\n```",
    "reactions": {
      "url": "https://api.github.com/repos/bitcoin/bitcoin/issues/comments/499035320/reactions",
      "total_count": 0,
      "+1": 0,
      "-1": 0,
      "laugh": 0,
      "hooray": 0,
      "confused": 0,
      "heart": 0,
      "rocket": 0,
      "eyes": 0
    },
    "performed_via_github_app": null
  },
  {
    "url": "https://api.github.com/repos/bitcoin/bitcoin/issues/comments/499035468",
    "html_url": "https://github.com/bitcoin/bitcoin/pull/16146#issuecomment-499035468",
    "issue_url": "https://api.github.com/repos/bitcoin/bitcoin/issues/16146",
    "id": 499035468,
    "node_id": "MDEyOklzc3VlQ29tbWVudDQ5OTAzNTQ2OA==",
    "user": {
      "login": "maflcko",
      "id": 6399679,
      "node_id": "MDQ6VXNlcjYzOTk2Nzk=",
      "avatar_url": "https://avatars.githubusercontent.com/u/6399679?v=4",
      "gravatar_id": "",
      "url": "https://api.github.com/users/maflcko",
      "html_url": "https://github.com/maflcko",
      "followers_url": "https://api.github.com/users/maflcko/followers",
      "following_url": "https://api.github.com/users/maflcko/following{/other_user}",
      "gists_url": "https://api.github.com/users/maflcko/gists{/gist_id}",
      "starred_url": "https://api.github.com/users/maflcko/starred{/owner}{/repo}",
      "subscriptions_url": "https://api.github.com/users/maflcko/subscriptions",
      "organizations_url": "https://api.github.com/users/maflcko/orgs",
      "repos_url": "https://api.github.com/users/maflcko/repos",
      "events_url": "https://api.github.com/users/maflcko/events{/privacy}",
      "received_events_url": "https://api.github.com/users/maflcko/received_events",
      "type": "User",
      "site_admin": false
    },
    "created_at": "2019-06-05T10:51:42Z",
    "updated_at": "2019-06-05T10:51:42Z",
    "author_association": "MEMBER",
    "body_html": "<p dir=\"auto\">Subtrees need to be updated upstream. Please refer to the markdown docs in this repo</p>",
    "body_text": "Subtrees need to be updated upstream. Please refer to the markdown docs in this repo",
    "body": "Subtrees need to be updated upstream. Please refer to the markdown docs in this repo",
    "reactions": {
      "url": "https://api.github.com/repos/bitcoin/bitcoin/issues/comments/499035468/reactions",
      "total_count": 0,
      "+1": 0,
      "-1": 0,
      "laugh": 0,
      "hooray": 0,
      "confused": 0,
      "heart": 0,
      "rocket": 0,
      "eyes": 0
    },
    "performed_via_github_app": null
  },
  {
    "url": "https://api.github.com/repos/bitcoin/bitcoin/issues/comments/499035786",
    "html_url": "https://github.com/bitcoin/bitcoin/pull/16146#issuecomment-499035786",
    "issue_url": "https://api.github.com/repos/bitcoin/bitcoin/issues/16146",
    "id": 499035786,
    "node_id": "MDEyOklzc3VlQ29tbWVudDQ5OTAzNTc4Ng==",
    "user": {
      "login": "mxaddict",
      "id": 1060905,
      "node_id": "MDQ6VXNlcjEwNjA5MDU=",
      "avatar_url": "https://avatars.githubusercontent.com/u/1060905?v=4",
      "gravatar_id": "",
      "url": "https://api.github.com/users/mxaddict",
      "html_url": "https://github.com/mxaddict",
      "followers_url": "https://api.github.com/users/mxaddict/followers",
      "following_url": "https://api.github.com/users/mxaddict/following{/other_user}",
      "gists_url": "https://api.github.com/users/mxaddict/gists{/gist_id}",
      "starred_url": "https://api.github.com/users/mxaddict/starred{/owner}{/repo}",
      "subscriptions_url": "https://api.github.com/users/mxaddict/subscriptions",
      "organizations_url": "https://api.github.com/users/mxaddict/orgs",
      "repos_url": "https://api.github.com/users/mxaddict/repos",
      "events_url": "https://api.github.com/users/mxaddict/events{/privacy}",
      "received_events_url": "https://api.github.com/users/mxaddict/received_events",
      "type": "User",
      "site_admin": false
    },
    "created_at": "2019-06-05T10:52:47Z",
    "updated_at": "2019-06-05T10:52:47Z",
    "author_association": "CONTRIBUTOR",
    "body_html": "<p dir=\"auto\"><a class=\"user-mention notranslate\" data-hovercard-type=\"user\" data-hovercard-url=\"/users/MarcoFalke/hovercard\" data-octo-click=\"hovercard-link-click\" data-octo-dimensions=\"link_type:self\" href=\"https://github.com/MarcoFalke\">@MarcoFalke</a> I see, is there a reason why these are not loaded as submodules?</p>",
    "body_text": "@MarcoFalke I see, is there a reason why these are not loaded as submodules?",
    "body": "@MarcoFalke I see, is there a reason why these are not loaded as submodules?",
    "reactions": {
      "url": "https://api.github.com/repos/bitcoin/bitcoin/issues/comments/499035786/reactions",
      "total_count": 0,
      "+1": 0,
      "-1": 0,
      "laugh": 0,
      "hooray": 0,
      "confused": 0,
      "heart": 0,
      "rocket": 0,
      "eyes": 0
    },
    "performed_via_github_app": null
  },
  {
    "url": "https://api.github.com/repos/bitcoin/bitcoin/issues/comments/499037388",
    "html_url": "https://github.com/bitcoin/bitcoin/pull/16146#issuecomment-499037388",
    "issue_url": "https://api.github.com/repos/bitcoin/bitcoin/issues/16146",
    "id": 499037388,
    "node_id": "MDEyOklzc3VlQ29tbWVudDQ5OTAzNzM4OA==",
    "user": {
      "login": "maflcko",
      "id": 6399679,
      "node_id": "MDQ6VXNlcjYzOTk2Nzk=",
      "avatar_url": "https://avatars.githubusercontent.com/u/6399679?v=4",
      "gravatar_id": "",
      "url": "https://api.github.com/users/maflcko",
      "html_url": "https://github.com/maflcko",
      "followers_url": "https://api.github.com/users/maflcko/followers",
      "following_url": "https://api.github.com/users/maflcko/following{/other_user}",
      "gists_url": "https://api.github.com/users/maflcko/gists{/gist_id}",
      "starred_url": "https://api.github.com/users/maflcko/starred{/owner}{/repo}",
      "subscriptions_url": "https://api.github.com/users/maflcko/subscriptions",
      "organizations_url": "https://api.github.com/users/maflcko/orgs",
      "repos_url": "https://api.github.com/users/maflcko/repos",
      "events_url": "https://api.github.com/users/maflcko/events{/privacy}",
      "received_events_url": "https://api.github.com/users/maflcko/received_events",
      "type": "User",
      "site_admin": false
    },
    "created_at": "2019-06-05T10:58:38Z",
    "updated_at": "2019-06-05T10:58:38Z",
    "author_association": "MEMBER",
    "body_html": "<p dir=\"auto\">I think they are the same (c.f. <a href=\"https://stackoverflow.com/a/35549033/2084795\" rel=\"nofollow\">https://stackoverflow.com/a/35549033/2084795</a>)</p>",
    "body_text": "I think they are the same (c.f. https://stackoverflow.com/a/35549033/2084795)",
    "body": "I think they are the same (c.f. https://stackoverflow.com/a/35549033/2084795)",
    "reactions": {
      "url": "https://api.github.com/repos/bitcoin/bitcoin/issues/comments/499037388/reactions",
      "total_count": 0,
      "+1": 0,
      "-1": 0,
      "laugh": 0,
      "hooray": 0,
      "confused": 0,
      "heart": 0,
      "rocket": 0,
      "eyes": 0
    },
    "performed_via_github_app": null
  }
]
