[
  {
    "url": "https://api.github.com/repos/bitcoin/bitcoin/issues/comments/548880522",
    "html_url": "https://github.com/bitcoin/bitcoin/pull/17345#issuecomment-548880522",
    "issue_url": "https://api.github.com/repos/bitcoin/bitcoin/issues/17345",
    "id": 548880522,
    "node_id": "MDEyOklzc3VlQ29tbWVudDU0ODg4MDUyMg==",
    "user": {
      "login": "maflcko",
      "id": 6399679,
      "node_id": "MDQ6VXNlcjYzOTk2Nzk=",
      "avatar_url": "https://avatars.githubusercontent.com/u/6399679?v=4",
      "gravatar_id": "",
      "url": "https://api.github.com/users/maflcko",
      "html_url": "https://github.com/maflcko",
      "followers_url": "https://api.github.com/users/maflcko/followers",
      "following_url": "https://api.github.com/users/maflcko/following{/other_user}",
      "gists_url": "https://api.github.com/users/maflcko/gists{/gist_id}",
      "starred_url": "https://api.github.com/users/maflcko/starred{/owner}{/repo}",
      "subscriptions_url": "https://api.github.com/users/maflcko/subscriptions",
      "organizations_url": "https://api.github.com/users/maflcko/orgs",
      "repos_url": "https://api.github.com/users/maflcko/repos",
      "events_url": "https://api.github.com/users/maflcko/events{/privacy}",
      "received_events_url": "https://api.github.com/users/maflcko/received_events",
      "type": "User",
      "site_admin": false
    },
    "created_at": "2019-11-01T17:35:23Z",
    "updated_at": "2019-11-01T17:35:23Z",
    "author_association": "MEMBER",
    "body_html": "<p dir=\"auto\">unsigned ACK <a class=\"commit-link\" data-hovercard-type=\"commit\" data-hovercard-url=\"https://github.com/bitcoin/bitcoin/commit/59853c33f1c8781480549effc39baee60ffd837c/hovercard\" href=\"https://github.com/bitcoin/bitcoin/commit/59853c33f1c8781480549effc39baee60ffd837c\"><tt>59853c3</tt></a></p>",
    "body_text": "unsigned ACK 59853c3",
    "body": "unsigned ACK 59853c33f1c8781480549effc39baee60ffd837c",
    "reactions": {
      "url": "https://api.github.com/repos/bitcoin/bitcoin/issues/comments/548880522/reactions",
      "total_count": 0,
      "+1": 0,
      "-1": 0,
      "laugh": 0,
      "hooray": 0,
      "confused": 0,
      "heart": 0,
      "rocket": 0,
      "eyes": 0
    },
    "performed_via_github_app": null
  },
  {
    "url": "https://api.github.com/repos/bitcoin/bitcoin/issues/comments/548884299",
    "html_url": "https://github.com/bitcoin/bitcoin/pull/17345#issuecomment-548884299",
    "issue_url": "https://api.github.com/repos/bitcoin/bitcoin/issues/17345",
    "id": 548884299,
    "node_id": "MDEyOklzc3VlQ29tbWVudDU0ODg4NDI5OQ==",
    "user": {
      "login": "naumenkogs",
      "id": 7975071,
      "node_id": "MDQ6VXNlcjc5NzUwNzE=",
      "avatar_url": "https://avatars.githubusercontent.com/u/7975071?v=4",
      "gravatar_id": "",
      "url": "https://api.github.com/users/naumenkogs",
      "html_url": "https://github.com/naumenkogs",
      "followers_url": "https://api.github.com/users/naumenkogs/followers",
      "following_url": "https://api.github.com/users/naumenkogs/following{/other_user}",
      "gists_url": "https://api.github.com/users/naumenkogs/gists{/gist_id}",
      "starred_url": "https://api.github.com/users/naumenkogs/starred{/owner}{/repo}",
      "subscriptions_url": "https://api.github.com/users/naumenkogs/subscriptions",
      "organizations_url": "https://api.github.com/users/naumenkogs/orgs",
      "repos_url": "https://api.github.com/users/naumenkogs/repos",
      "events_url": "https://api.github.com/users/naumenkogs/events{/privacy}",
      "received_events_url": "https://api.github.com/users/naumenkogs/received_events",
      "type": "User",
      "site_admin": false
    },
    "created_at": "2019-11-01T17:45:20Z",
    "updated_at": "2019-11-01T17:45:20Z",
    "author_association": "MEMBER",
    "body_html": "<p dir=\"auto\">ACK <a class=\"commit-link\" data-hovercard-type=\"commit\" data-hovercard-url=\"https://github.com/bitcoin/bitcoin/commit/59853c33f1c8781480549effc39baee60ffd837c/hovercard\" href=\"https://github.com/bitcoin/bitcoin/commit/59853c33f1c8781480549effc39baee60ffd837c\"><tt>59853c3</tt></a></p>",
    "body_text": "ACK 59853c3",
    "body": "ACK 59853c3",
    "reactions": {
      "url": "https://api.github.com/repos/bitcoin/bitcoin/issues/comments/548884299/reactions",
      "total_count": 0,
      "+1": 0,
      "-1": 0,
      "laugh": 0,
      "hooray": 0,
      "confused": 0,
      "heart": 0,
      "rocket": 0,
      "eyes": 0
    },
    "performed_via_github_app": null
  }
]
