{
  "url": "https://api.github.com/repos/bitcoin/bitcoin/issues/1553",
  "repository_url": "https://api.github.com/repos/bitcoin/bitcoin",
  "labels_url": "https://api.github.com/repos/bitcoin/bitcoin/issues/1553/labels{/name}",
  "comments_url": "https://api.github.com/repos/bitcoin/bitcoin/issues/1553/comments",
  "events_url": "https://api.github.com/repos/bitcoin/bitcoin/issues/1553/events",
  "html_url": "https://github.com/bitcoin/bitcoin/pull/1553",
  "id": 5409584,
  "node_id": "MDExOlB1bGxSZXF1ZXN0MTcwNjg2Mw==",
  "number": 1553,
  "title": "Work around a distcc bug where -MMD output isn't copied.",
  "user": {
    "login": "TheBlueMatt",
    "id": 649246,
    "node_id": "MDQ6VXNlcjY0OTI0Ng==",
    "avatar_url": "https://avatars.githubusercontent.com/u/649246?v=4",
    "gravatar_id": "",
    "url": "https://api.github.com/users/TheBlueMatt",
    "html_url": "https://github.com/TheBlueMatt",
    "followers_url": "https://api.github.com/users/TheBlueMatt/followers",
    "following_url": "https://api.github.com/users/TheBlueMatt/following{/other_user}",
    "gists_url": "https://api.github.com/users/TheBlueMatt/gists{/gist_id}",
    "starred_url": "https://api.github.com/users/TheBlueMatt/starred{/owner}{/repo}",
    "subscriptions_url": "https://api.github.com/users/TheBlueMatt/subscriptions",
    "organizations_url": "https://api.github.com/users/TheBlueMatt/orgs",
    "repos_url": "https://api.github.com/users/TheBlueMatt/repos",
    "events_url": "https://api.github.com/users/TheBlueMatt/events{/privacy}",
    "received_events_url": "https://api.github.com/users/TheBlueMatt/received_events",
    "type": "User",
    "site_admin": false
  },
  "labels": [

  ],
  "state": "closed",
  "locked": true,
  "assignee": null,
  "assignees": [

  ],
  "milestone": null,
  "comments": 0,
  "created_at": "2012-07-03T15:31:26Z",
  "updated_at": "2021-09-08T10:13:26Z",
  "closed_at": "2012-07-04T14:51:51Z",
  "author_association": "CONTRIBUTOR",
  "active_lock_reason": "resolved",
  "draft": false,
  "pull_request": {
    "url": "https://api.github.com/repos/bitcoin/bitcoin/pulls/1553",
    "html_url": "https://github.com/bitcoin/bitcoin/pull/1553",
    "diff_url": "https://github.com/bitcoin/bitcoin/pull/1553.diff",
    "patch_url": "https://github.com/bitcoin/bitcoin/pull/1553.patch",
    "merged_at": "2012-07-04T14:51:51Z"
  },
  "body_html": "<p dir=\"auto\">Look for -MD at <a href=\"http://distcc.googlecode.com/svn/trunk/doc/web/man/distcc_1.html#TOC_24\" rel=\"nofollow\">http://distcc.googlecode.com/svn/trunk/doc/web/man/distcc_1.html#TOC_24</a><br>\nThis just explicitly sets the output of -MMD using -MF to the default of where the output would otherwise have gone.</p>",
  "body_text": "Look for -MD at http://distcc.googlecode.com/svn/trunk/doc/web/man/distcc_1.html#TOC_24\nThis just explicitly sets the output of -MMD using -MF to the default of where the output would otherwise have gone.",
  "body": "Look for -MD at http://distcc.googlecode.com/svn/trunk/doc/web/man/distcc_1.html#TOC_24\nThis just explicitly sets the output of -MMD using -MF to the default of where the output would otherwise have gone.\n",
  "closed_by": {
    "login": "gavinandresen",
    "id": 331997,
    "node_id": "MDQ6VXNlcjMzMTk5Nw==",
    "avatar_url": "https://avatars.githubusercontent.com/u/331997?v=4",
    "gravatar_id": "",
    "url": "https://api.github.com/users/gavinandresen",
    "html_url": "https://github.com/gavinandresen",
    "followers_url": "https://api.github.com/users/gavinandresen/followers",
    "following_url": "https://api.github.com/users/gavinandresen/following{/other_user}",
    "gists_url": "https://api.github.com/users/gavinandresen/gists{/gist_id}",
    "starred_url": "https://api.github.com/users/gavinandresen/starred{/owner}{/repo}",
    "subscriptions_url": "https://api.github.com/users/gavinandresen/subscriptions",
    "organizations_url": "https://api.github.com/users/gavinandresen/orgs",
    "repos_url": "https://api.github.com/users/gavinandresen/repos",
    "events_url": "https://api.github.com/users/gavinandresen/events{/privacy}",
    "received_events_url": "https://api.github.com/users/gavinandresen/received_events",
    "type": "User",
    "site_admin": false
  },
  "reactions": {
    "url": "https://api.github.com/repos/bitcoin/bitcoin/issues/1553/reactions",
    "total_count": 0,
    "+1": 0,
    "-1": 0,
    "laugh": 0,
    "hooray": 0,
    "confused": 0,
    "heart": 0,
    "rocket": 0,
    "eyes": 0
  },
  "timeline_url": "https://api.github.com/repos/bitcoin/bitcoin/issues/1553/timeline",
  "performed_via_github_app": null,
  "state_reason": null
}
