[
  {
    "url": "https://api.github.com/repos/bitcoin/bitcoin/issues/comments/437387782",
    "html_url": "https://github.com/bitcoin/bitcoin/pull/14698#issuecomment-437387782",
    "issue_url": "https://api.github.com/repos/bitcoin/bitcoin/issues/14698",
    "id": 437387782,
    "node_id": "MDEyOklzc3VlQ29tbWVudDQzNzM4Nzc4Mg==",
    "user": {
      "login": "maflcko",
      "id": 6399679,
      "node_id": "MDQ6VXNlcjYzOTk2Nzk=",
      "avatar_url": "https://avatars.githubusercontent.com/u/6399679?v=4",
      "gravatar_id": "",
      "url": "https://api.github.com/users/maflcko",
      "html_url": "https://github.com/maflcko",
      "followers_url": "https://api.github.com/users/maflcko/followers",
      "following_url": "https://api.github.com/users/maflcko/following{/other_user}",
      "gists_url": "https://api.github.com/users/maflcko/gists{/gist_id}",
      "starred_url": "https://api.github.com/users/maflcko/starred{/owner}{/repo}",
      "subscriptions_url": "https://api.github.com/users/maflcko/subscriptions",
      "organizations_url": "https://api.github.com/users/maflcko/orgs",
      "repos_url": "https://api.github.com/users/maflcko/repos",
      "events_url": "https://api.github.com/users/maflcko/events{/privacy}",
      "received_events_url": "https://api.github.com/users/maflcko/received_events",
      "type": "User",
      "site_admin": false
    },
    "created_at": "2018-11-09T15:08:55Z",
    "updated_at": "2018-11-09T15:08:55Z",
    "author_association": "MEMBER",
    "body_html": "<p dir=\"auto\">utACK <a class=\"commit-link\" data-hovercard-type=\"commit\" data-hovercard-url=\"https://github.com/bitcoin/bitcoin/commit/5c5902acc515c8f46ad73222cd57a29c4c13b92c/hovercard\" href=\"https://github.com/bitcoin/bitcoin/commit/5c5902acc515c8f46ad73222cd57a29c4c13b92c\"><tt>5c5902a</tt></a>. Also, we are running the util tests in appveyor (on windows), so bitcoin-tx should have basic test coverage.</p>",
    "body_text": "utACK 5c5902a. Also, we are running the util tests in appveyor (on windows), so bitcoin-tx should have basic test coverage.",
    "body": "utACK 5c5902acc515c8f46ad73222cd57a29c4c13b92c. Also, we are running the util tests in appveyor (on windows), so bitcoin-tx should have basic test coverage.",
    "reactions": {
      "url": "https://api.github.com/repos/bitcoin/bitcoin/issues/comments/437387782/reactions",
      "total_count": 0,
      "+1": 0,
      "-1": 0,
      "laugh": 0,
      "hooray": 0,
      "confused": 0,
      "heart": 0,
      "rocket": 0,
      "eyes": 0
    },
    "performed_via_github_app": null
  },
  {
    "url": "https://api.github.com/repos/bitcoin/bitcoin/issues/comments/437554904",
    "html_url": "https://github.com/bitcoin/bitcoin/pull/14698#issuecomment-437554904",
    "issue_url": "https://api.github.com/repos/bitcoin/bitcoin/issues/14698",
    "id": 437554904,
    "node_id": "MDEyOklzc3VlQ29tbWVudDQzNzU1NDkwNA==",
    "user": {
      "login": "DrahtBot",
      "id": 39886733,
      "node_id": "MDQ6VXNlcjM5ODg2NzMz",
      "avatar_url": "https://avatars.githubusercontent.com/u/39886733?v=4",
      "gravatar_id": "",
      "url": "https://api.github.com/users/DrahtBot",
      "html_url": "https://github.com/DrahtBot",
      "followers_url": "https://api.github.com/users/DrahtBot/followers",
      "following_url": "https://api.github.com/users/DrahtBot/following{/other_user}",
      "gists_url": "https://api.github.com/users/DrahtBot/gists{/gist_id}",
      "starred_url": "https://api.github.com/users/DrahtBot/starred{/owner}{/repo}",
      "subscriptions_url": "https://api.github.com/users/DrahtBot/subscriptions",
      "organizations_url": "https://api.github.com/users/DrahtBot/orgs",
      "repos_url": "https://api.github.com/users/DrahtBot/repos",
      "events_url": "https://api.github.com/users/DrahtBot/events{/privacy}",
      "received_events_url": "https://api.github.com/users/DrahtBot/received_events",
      "type": "User",
      "site_admin": false
    },
    "created_at": "2018-11-10T03:30:14Z",
    "updated_at": "2018-11-10T03:30:14Z",
    "author_association": "CONTRIBUTOR",
    "body_html": "\n<p dir=\"auto\">Gitian builds for commit <a class=\"commit-link\" data-hovercard-type=\"commit\" data-hovercard-url=\"https://github.com/bitcoin/bitcoin/commit/cbf00939b5e813937fb21466aa3e229ca81cb6ba/hovercard\" href=\"https://github.com/bitcoin/bitcoin/commit/cbf00939b5e813937fb21466aa3e229ca81cb6ba\"><tt>cbf0093</tt></a> (master):</p>\n<ul dir=\"auto\">\n<li><code class=\"notranslate\">03de9c4e0db99546880b65d8ee0fc79d...</code> <a href=\"https://drahtbot.space/gitian/bitcoin/bitcoin/cbf00939b5e813937fb21466aa3e229ca81cb6ba/bitcoin-0.17.99-aarch64-linux-gnu-debug.tar.gz\" rel=\"nofollow\">bitcoin-0.17.99-aarch64-linux-gnu-debug.tar.gz</a></li>\n<li><code class=\"notranslate\">7af1f2f1d136e77e6f66e1b5c835883f...</code> <a href=\"https://drahtbot.space/gitian/bitcoin/bitcoin/cbf00939b5e813937fb21466aa3e229ca81cb6ba/bitcoin-0.17.99-aarch64-linux-gnu.tar.gz\" rel=\"nofollow\">bitcoin-0.17.99-aarch64-linux-gnu.tar.gz</a></li>\n<li><code class=\"notranslate\">4bbe5efbc1ce10923842064acf0049d5...</code> <a href=\"https://drahtbot.space/gitian/bitcoin/bitcoin/cbf00939b5e813937fb21466aa3e229ca81cb6ba/bitcoin-0.17.99-arm-linux-gnueabihf-debug.tar.gz\" rel=\"nofollow\">bitcoin-0.17.99-arm-linux-gnueabihf-debug.tar.gz</a></li>\n<li><code class=\"notranslate\">90f5b87c8024326da340e1d047b74d53...</code> <a href=\"https://drahtbot.space/gitian/bitcoin/bitcoin/cbf00939b5e813937fb21466aa3e229ca81cb6ba/bitcoin-0.17.99-arm-linux-gnueabihf.tar.gz\" rel=\"nofollow\">bitcoin-0.17.99-arm-linux-gnueabihf.tar.gz</a></li>\n<li><code class=\"notranslate\">bb1146de8b266f0219609f4bea1a83b6...</code> <a href=\"https://drahtbot.space/gitian/bitcoin/bitcoin/cbf00939b5e813937fb21466aa3e229ca81cb6ba/bitcoin-0.17.99-i686-pc-linux-gnu-debug.tar.gz\" rel=\"nofollow\">bitcoin-0.17.99-i686-pc-linux-gnu-debug.tar.gz</a></li>\n<li><code class=\"notranslate\">e0df04f2434300d247393b934c1dc72a...</code> <a href=\"https://drahtbot.space/gitian/bitcoin/bitcoin/cbf00939b5e813937fb21466aa3e229ca81cb6ba/bitcoin-0.17.99-i686-pc-linux-gnu.tar.gz\" rel=\"nofollow\">bitcoin-0.17.99-i686-pc-linux-gnu.tar.gz</a></li>\n<li><code class=\"notranslate\">b8af39344ef7921fdd0652630ea42ff2...</code> <a href=\"https://drahtbot.space/gitian/bitcoin/bitcoin/cbf00939b5e813937fb21466aa3e229ca81cb6ba/bitcoin-0.17.99-osx-unsigned.dmg\" rel=\"nofollow\">bitcoin-0.17.99-osx-unsigned.dmg</a></li>\n<li><code class=\"notranslate\">bcf05778936b0ea27158d9314e9a2f5f...</code> <a href=\"https://drahtbot.space/gitian/bitcoin/bitcoin/cbf00939b5e813937fb21466aa3e229ca81cb6ba/bitcoin-0.17.99-osx64.tar.gz\" rel=\"nofollow\">bitcoin-0.17.99-osx64.tar.gz</a></li>\n<li><code class=\"notranslate\">8c96f213dd5f5942f5d73e7157f1517d...</code> <a href=\"https://drahtbot.space/gitian/bitcoin/bitcoin/cbf00939b5e813937fb21466aa3e229ca81cb6ba/bitcoin-0.17.99-riscv64-linux-gnu-debug.tar.gz\" rel=\"nofollow\">bitcoin-0.17.99-riscv64-linux-gnu-debug.tar.gz</a></li>\n<li><code class=\"notranslate\">7c0a3a8a7b197cd66a6560344e305e4b...</code> <a href=\"https://drahtbot.space/gitian/bitcoin/bitcoin/cbf00939b5e813937fb21466aa3e229ca81cb6ba/bitcoin-0.17.99-riscv64-linux-gnu.tar.gz\" rel=\"nofollow\">bitcoin-0.17.99-riscv64-linux-gnu.tar.gz</a></li>\n<li><code class=\"notranslate\">509e055b986d9b4d4b71f4cdbea276d0...</code> <a href=\"https://drahtbot.space/gitian/bitcoin/bitcoin/cbf00939b5e813937fb21466aa3e229ca81cb6ba/bitcoin-0.17.99-win32-debug.zip\" rel=\"nofollow\">bitcoin-0.17.99-win32-debug.zip</a></li>\n<li><code class=\"notranslate\">be3df67299583f6c810c784a995299a0...</code> <a href=\"https://drahtbot.space/gitian/bitcoin/bitcoin/cbf00939b5e813937fb21466aa3e229ca81cb6ba/bitcoin-0.17.99-win32-setup-unsigned.exe\" rel=\"nofollow\">bitcoin-0.17.99-win32-setup-unsigned.exe</a></li>\n<li><code class=\"notranslate\">0e90c8b0af1d2d2385459c894d7e93fd...</code> <a href=\"https://drahtbot.space/gitian/bitcoin/bitcoin/cbf00939b5e813937fb21466aa3e229ca81cb6ba/bitcoin-0.17.99-win32.zip\" rel=\"nofollow\">bitcoin-0.17.99-win32.zip</a></li>\n<li><code class=\"notranslate\">a6be69167e1a79e84ac4926aed93255d...</code> <a href=\"https://drahtbot.space/gitian/bitcoin/bitcoin/cbf00939b5e813937fb21466aa3e229ca81cb6ba/bitcoin-0.17.99-win64-debug.zip\" rel=\"nofollow\">bitcoin-0.17.99-win64-debug.zip</a></li>\n<li><code class=\"notranslate\">e7861849b5158549c31f3283b78b0b76...</code> <a href=\"https://drahtbot.space/gitian/bitcoin/bitcoin/cbf00939b5e813937fb21466aa3e229ca81cb6ba/bitcoin-0.17.99-win64-setup-unsigned.exe\" rel=\"nofollow\">bitcoin-0.17.99-win64-setup-unsigned.exe</a></li>\n<li><code class=\"notranslate\">647612752f3a19ce177a0f5c9edee8d2...</code> <a href=\"https://drahtbot.space/gitian/bitcoin/bitcoin/cbf00939b5e813937fb21466aa3e229ca81cb6ba/bitcoin-0.17.99-win64.zip\" rel=\"nofollow\">bitcoin-0.17.99-win64.zip</a></li>\n<li><code class=\"notranslate\">909330723b61413c178ac291b42985b4...</code> <a href=\"https://drahtbot.space/gitian/bitcoin/bitcoin/cbf00939b5e813937fb21466aa3e229ca81cb6ba/bitcoin-0.17.99-x86_64-linux-gnu-debug.tar.gz\" rel=\"nofollow\">bitcoin-0.17.99-x86_64-linux-gnu-debug.tar.gz</a></li>\n<li><code class=\"notranslate\">b761461a2fb68ed6c0f04ec14c5ecccc...</code> <a href=\"https://drahtbot.space/gitian/bitcoin/bitcoin/cbf00939b5e813937fb21466aa3e229ca81cb6ba/bitcoin-0.17.99-x86_64-linux-gnu.tar.gz\" rel=\"nofollow\">bitcoin-0.17.99-x86_64-linux-gnu.tar.gz</a></li>\n<li><code class=\"notranslate\">63a34c10fc9a55ebde302d2c0f6eae0d...</code> <a href=\"https://drahtbot.space/gitian/bitcoin/bitcoin/cbf00939b5e813937fb21466aa3e229ca81cb6ba/bitcoin-0.17.99.tar.gz\" rel=\"nofollow\">bitcoin-0.17.99.tar.gz</a></li>\n<li><code class=\"notranslate\">aa5caaec57d1adbca7fdc26fd5efcbd3...</code> <a href=\"https://drahtbot.space/gitian/bitcoin/bitcoin/cbf00939b5e813937fb21466aa3e229ca81cb6ba/bitcoin-linux-0.18-res.yml\" rel=\"nofollow\">bitcoin-linux-0.18-res.yml</a></li>\n<li><code class=\"notranslate\">48197e3e8d7bfa97e05a6acb6b9e747f...</code> <a href=\"https://drahtbot.space/gitian/bitcoin/bitcoin/cbf00939b5e813937fb21466aa3e229ca81cb6ba/bitcoin-linux-build.log\" rel=\"nofollow\">bitcoin-linux-build.log</a></li>\n<li><code class=\"notranslate\">0fbd023e6b56584025f93c19ee7aa65e...</code> <a href=\"https://drahtbot.space/gitian/bitcoin/bitcoin/cbf00939b5e813937fb21466aa3e229ca81cb6ba/bitcoin-osx-0.18-res.yml\" rel=\"nofollow\">bitcoin-osx-0.18-res.yml</a></li>\n<li><code class=\"notranslate\">518e7f5d508130854e14154eed87a446...</code> <a href=\"https://drahtbot.space/gitian/bitcoin/bitcoin/cbf00939b5e813937fb21466aa3e229ca81cb6ba/bitcoin-osx-build.log\" rel=\"nofollow\">bitcoin-osx-build.log</a></li>\n<li><code class=\"notranslate\">c2d4a565f5af557396654c6b424ce3e7...</code> <a href=\"https://drahtbot.space/gitian/bitcoin/bitcoin/cbf00939b5e813937fb21466aa3e229ca81cb6ba/bitcoin-win-0.18-res.yml\" rel=\"nofollow\">bitcoin-win-0.18-res.yml</a></li>\n<li><code class=\"notranslate\">7614daf7b130ad51bb5c3c18807a18ea...</code> <a href=\"https://drahtbot.space/gitian/bitcoin/bitcoin/cbf00939b5e813937fb21466aa3e229ca81cb6ba/bitcoin-win-build.log\" rel=\"nofollow\">bitcoin-win-build.log</a></li>\n</ul>\n<p dir=\"auto\">Gitian builds for commit 233aca186fe95af66e6d5ffd2f50fae358c0d1d6 (master and this pull):</p>\n<ul dir=\"auto\">\n<li><code class=\"notranslate\">0aab25d989da1503c32f8d82e1fb80bd...</code> <a href=\"https://drahtbot.space/gitian/bitcoin/bitcoin/233aca186fe95af66e6d5ffd2f50fae358c0d1d6/bitcoin-0.17.99-aarch64-linux-gnu-debug.tar.gz\" rel=\"nofollow\">bitcoin-0.17.99-aarch64-linux-gnu-debug.tar.gz</a></li>\n<li><code class=\"notranslate\">90240e49afb856ace1c6c4232f28d99c...</code> <a href=\"https://drahtbot.space/gitian/bitcoin/bitcoin/233aca186fe95af66e6d5ffd2f50fae358c0d1d6/bitcoin-0.17.99-aarch64-linux-gnu.tar.gz\" rel=\"nofollow\">bitcoin-0.17.99-aarch64-linux-gnu.tar.gz</a></li>\n<li><code class=\"notranslate\">1d59ec89c8a590c0f3d5c6ee6102cf1d...</code> <a href=\"https://drahtbot.space/gitian/bitcoin/bitcoin/233aca186fe95af66e6d5ffd2f50fae358c0d1d6/bitcoin-0.17.99-arm-linux-gnueabihf-debug.tar.gz\" rel=\"nofollow\">bitcoin-0.17.99-arm-linux-gnueabihf-debug.tar.gz</a></li>\n<li><code class=\"notranslate\">8fcd629066906af4a0e7aa374d74f8ed...</code> <a href=\"https://drahtbot.space/gitian/bitcoin/bitcoin/233aca186fe95af66e6d5ffd2f50fae358c0d1d6/bitcoin-0.17.99-arm-linux-gnueabihf.tar.gz\" rel=\"nofollow\">bitcoin-0.17.99-arm-linux-gnueabihf.tar.gz</a></li>\n<li><code class=\"notranslate\">152261531d207517eb1900fdeddb03c0...</code> <a href=\"https://drahtbot.space/gitian/bitcoin/bitcoin/233aca186fe95af66e6d5ffd2f50fae358c0d1d6/bitcoin-0.17.99-i686-pc-linux-gnu-debug.tar.gz\" rel=\"nofollow\">bitcoin-0.17.99-i686-pc-linux-gnu-debug.tar.gz</a></li>\n<li><code class=\"notranslate\">c44e685b879971410675489a82e561fc...</code> <a href=\"https://drahtbot.space/gitian/bitcoin/bitcoin/233aca186fe95af66e6d5ffd2f50fae358c0d1d6/bitcoin-0.17.99-i686-pc-linux-gnu.tar.gz\" rel=\"nofollow\">bitcoin-0.17.99-i686-pc-linux-gnu.tar.gz</a></li>\n<li><code class=\"notranslate\">4b6d2f7b9e54223ea7450852b510a187...</code> <a href=\"https://drahtbot.space/gitian/bitcoin/bitcoin/233aca186fe95af66e6d5ffd2f50fae358c0d1d6/bitcoin-0.17.99-osx-unsigned.dmg\" rel=\"nofollow\">bitcoin-0.17.99-osx-unsigned.dmg</a></li>\n<li><code class=\"notranslate\">a82bca27ca802158e173fb61d443c48f...</code> <a href=\"https://drahtbot.space/gitian/bitcoin/bitcoin/233aca186fe95af66e6d5ffd2f50fae358c0d1d6/bitcoin-0.17.99-osx64.tar.gz\" rel=\"nofollow\">bitcoin-0.17.99-osx64.tar.gz</a></li>\n<li><code class=\"notranslate\">c97d3b694427dd32aa42a462318d9f0d...</code> <a href=\"https://drahtbot.space/gitian/bitcoin/bitcoin/233aca186fe95af66e6d5ffd2f50fae358c0d1d6/bitcoin-0.17.99-riscv64-linux-gnu-debug.tar.gz\" rel=\"nofollow\">bitcoin-0.17.99-riscv64-linux-gnu-debug.tar.gz</a></li>\n<li><code class=\"notranslate\">6930614e84dd245ad6c39a21209c4c1a...</code> <a href=\"https://drahtbot.space/gitian/bitcoin/bitcoin/233aca186fe95af66e6d5ffd2f50fae358c0d1d6/bitcoin-0.17.99-riscv64-linux-gnu.tar.gz\" rel=\"nofollow\">bitcoin-0.17.99-riscv64-linux-gnu.tar.gz</a></li>\n<li><code class=\"notranslate\">da5fc796181f0ddd9af7659057919f66...</code> <a href=\"https://drahtbot.space/gitian/bitcoin/bitcoin/233aca186fe95af66e6d5ffd2f50fae358c0d1d6/bitcoin-0.17.99-win32-debug.zip\" rel=\"nofollow\">bitcoin-0.17.99-win32-debug.zip</a></li>\n<li><code class=\"notranslate\">fbc4ef451f37995162a14f172822be96...</code> <a href=\"https://drahtbot.space/gitian/bitcoin/bitcoin/233aca186fe95af66e6d5ffd2f50fae358c0d1d6/bitcoin-0.17.99-win32-setup-unsigned.exe\" rel=\"nofollow\">bitcoin-0.17.99-win32-setup-unsigned.exe</a></li>\n<li><code class=\"notranslate\">993cec26c5df4bf52dd4a39d0bc3a89d...</code> <a href=\"https://drahtbot.space/gitian/bitcoin/bitcoin/233aca186fe95af66e6d5ffd2f50fae358c0d1d6/bitcoin-0.17.99-win32.zip\" rel=\"nofollow\">bitcoin-0.17.99-win32.zip</a></li>\n<li><code class=\"notranslate\">6a8976a5cbba7ae21458dc97fe529e01...</code> <a href=\"https://drahtbot.space/gitian/bitcoin/bitcoin/233aca186fe95af66e6d5ffd2f50fae358c0d1d6/bitcoin-0.17.99-win64-debug.zip\" rel=\"nofollow\">bitcoin-0.17.99-win64-debug.zip</a></li>\n<li><code class=\"notranslate\">8c2cb0dc138e80e694761ec37a0da3a6...</code> <a href=\"https://drahtbot.space/gitian/bitcoin/bitcoin/233aca186fe95af66e6d5ffd2f50fae358c0d1d6/bitcoin-0.17.99-win64-setup-unsigned.exe\" rel=\"nofollow\">bitcoin-0.17.99-win64-setup-unsigned.exe</a></li>\n<li><code class=\"notranslate\">3183c65183b291673e3fc208e8492e1c...</code> <a href=\"https://drahtbot.space/gitian/bitcoin/bitcoin/233aca186fe95af66e6d5ffd2f50fae358c0d1d6/bitcoin-0.17.99-win64.zip\" rel=\"nofollow\">bitcoin-0.17.99-win64.zip</a></li>\n<li><code class=\"notranslate\">e1a04a119e3c0f012c430cdc454b97e1...</code> <a href=\"https://drahtbot.space/gitian/bitcoin/bitcoin/233aca186fe95af66e6d5ffd2f50fae358c0d1d6/bitcoin-0.17.99-x86_64-linux-gnu-debug.tar.gz\" rel=\"nofollow\">bitcoin-0.17.99-x86_64-linux-gnu-debug.tar.gz</a></li>\n<li><code class=\"notranslate\">79d2ba2a2637ab46da17db31df22ff71...</code> <a href=\"https://drahtbot.space/gitian/bitcoin/bitcoin/233aca186fe95af66e6d5ffd2f50fae358c0d1d6/bitcoin-0.17.99-x86_64-linux-gnu.tar.gz\" rel=\"nofollow\">bitcoin-0.17.99-x86_64-linux-gnu.tar.gz</a></li>\n<li><code class=\"notranslate\">5d58288dd93d1b7fa88c00d07a9b2132...</code> <a href=\"https://drahtbot.space/gitian/bitcoin/bitcoin/233aca186fe95af66e6d5ffd2f50fae358c0d1d6/bitcoin-0.17.99.tar.gz\" rel=\"nofollow\">bitcoin-0.17.99.tar.gz</a></li>\n<li><code class=\"notranslate\">425305d930303b30d4d958627e14d9f1...</code> <a href=\"https://drahtbot.space/gitian/bitcoin/bitcoin/233aca186fe95af66e6d5ffd2f50fae358c0d1d6/bitcoin-linux-0.18-res.yml\" rel=\"nofollow\">bitcoin-linux-0.18-res.yml</a></li>\n<li><code class=\"notranslate\">b8ba0d6dfb956b207a010f6c68629eb4...</code> <a href=\"https://drahtbot.space/gitian/bitcoin/bitcoin/233aca186fe95af66e6d5ffd2f50fae358c0d1d6/bitcoin-linux-build.log\" rel=\"nofollow\">bitcoin-linux-build.log</a></li>\n<li><code class=\"notranslate\">14eb841cad239a428ba785030640cec4...</code> <a href=\"https://drahtbot.space/gitian/bitcoin/bitcoin/233aca186fe95af66e6d5ffd2f50fae358c0d1d6/bitcoin-osx-0.18-res.yml\" rel=\"nofollow\">bitcoin-osx-0.18-res.yml</a></li>\n<li><code class=\"notranslate\">16d9e936a9eadc4ad44b739c974c8974...</code> <a href=\"https://drahtbot.space/gitian/bitcoin/bitcoin/233aca186fe95af66e6d5ffd2f50fae358c0d1d6/bitcoin-osx-build.log\" rel=\"nofollow\">bitcoin-osx-build.log</a></li>\n<li><code class=\"notranslate\">d30561bc86c36ba52363814dfc4c13a8...</code> <a href=\"https://drahtbot.space/gitian/bitcoin/bitcoin/233aca186fe95af66e6d5ffd2f50fae358c0d1d6/bitcoin-win-0.18-res.yml\" rel=\"nofollow\">bitcoin-win-0.18-res.yml</a></li>\n<li><code class=\"notranslate\">ea8c9f2e132b18bceec09d04a7248c29...</code> <a href=\"https://drahtbot.space/gitian/bitcoin/bitcoin/233aca186fe95af66e6d5ffd2f50fae358c0d1d6/bitcoin-win-build.log\" rel=\"nofollow\">bitcoin-win-build.log</a></li>\n</ul>",
    "body_text": "Gitian builds for commit cbf0093 (master):\n\n03de9c4e0db99546880b65d8ee0fc79d... bitcoin-0.17.99-aarch64-linux-gnu-debug.tar.gz\n7af1f2f1d136e77e6f66e1b5c835883f... bitcoin-0.17.99-aarch64-linux-gnu.tar.gz\n4bbe5efbc1ce10923842064acf0049d5... bitcoin-0.17.99-arm-linux-gnueabihf-debug.tar.gz\n90f5b87c8024326da340e1d047b74d53... bitcoin-0.17.99-arm-linux-gnueabihf.tar.gz\nbb1146de8b266f0219609f4bea1a83b6... bitcoin-0.17.99-i686-pc-linux-gnu-debug.tar.gz\ne0df04f2434300d247393b934c1dc72a... bitcoin-0.17.99-i686-pc-linux-gnu.tar.gz\nb8af39344ef7921fdd0652630ea42ff2... bitcoin-0.17.99-osx-unsigned.dmg\nbcf05778936b0ea27158d9314e9a2f5f... bitcoin-0.17.99-osx64.tar.gz\n8c96f213dd5f5942f5d73e7157f1517d... bitcoin-0.17.99-riscv64-linux-gnu-debug.tar.gz\n7c0a3a8a7b197cd66a6560344e305e4b... bitcoin-0.17.99-riscv64-linux-gnu.tar.gz\n509e055b986d9b4d4b71f4cdbea276d0... bitcoin-0.17.99-win32-debug.zip\nbe3df67299583f6c810c784a995299a0... bitcoin-0.17.99-win32-setup-unsigned.exe\n0e90c8b0af1d2d2385459c894d7e93fd... bitcoin-0.17.99-win32.zip\na6be69167e1a79e84ac4926aed93255d... bitcoin-0.17.99-win64-debug.zip\ne7861849b5158549c31f3283b78b0b76... bitcoin-0.17.99-win64-setup-unsigned.exe\n647612752f3a19ce177a0f5c9edee8d2... bitcoin-0.17.99-win64.zip\n909330723b61413c178ac291b42985b4... bitcoin-0.17.99-x86_64-linux-gnu-debug.tar.gz\nb761461a2fb68ed6c0f04ec14c5ecccc... bitcoin-0.17.99-x86_64-linux-gnu.tar.gz\n63a34c10fc9a55ebde302d2c0f6eae0d... bitcoin-0.17.99.tar.gz\naa5caaec57d1adbca7fdc26fd5efcbd3... bitcoin-linux-0.18-res.yml\n48197e3e8d7bfa97e05a6acb6b9e747f... bitcoin-linux-build.log\n0fbd023e6b56584025f93c19ee7aa65e... bitcoin-osx-0.18-res.yml\n518e7f5d508130854e14154eed87a446... bitcoin-osx-build.log\nc2d4a565f5af557396654c6b424ce3e7... bitcoin-win-0.18-res.yml\n7614daf7b130ad51bb5c3c18807a18ea... bitcoin-win-build.log\n\nGitian builds for commit 233aca186fe95af66e6d5ffd2f50fae358c0d1d6 (master and this pull):\n\n0aab25d989da1503c32f8d82e1fb80bd... bitcoin-0.17.99-aarch64-linux-gnu-debug.tar.gz\n90240e49afb856ace1c6c4232f28d99c... bitcoin-0.17.99-aarch64-linux-gnu.tar.gz\n1d59ec89c8a590c0f3d5c6ee6102cf1d... bitcoin-0.17.99-arm-linux-gnueabihf-debug.tar.gz\n8fcd629066906af4a0e7aa374d74f8ed... bitcoin-0.17.99-arm-linux-gnueabihf.tar.gz\n152261531d207517eb1900fdeddb03c0... bitcoin-0.17.99-i686-pc-linux-gnu-debug.tar.gz\nc44e685b879971410675489a82e561fc... bitcoin-0.17.99-i686-pc-linux-gnu.tar.gz\n4b6d2f7b9e54223ea7450852b510a187... bitcoin-0.17.99-osx-unsigned.dmg\na82bca27ca802158e173fb61d443c48f... bitcoin-0.17.99-osx64.tar.gz\nc97d3b694427dd32aa42a462318d9f0d... bitcoin-0.17.99-riscv64-linux-gnu-debug.tar.gz\n6930614e84dd245ad6c39a21209c4c1a... bitcoin-0.17.99-riscv64-linux-gnu.tar.gz\nda5fc796181f0ddd9af7659057919f66... bitcoin-0.17.99-win32-debug.zip\nfbc4ef451f37995162a14f172822be96... bitcoin-0.17.99-win32-setup-unsigned.exe\n993cec26c5df4bf52dd4a39d0bc3a89d... bitcoin-0.17.99-win32.zip\n6a8976a5cbba7ae21458dc97fe529e01... bitcoin-0.17.99-win64-debug.zip\n8c2cb0dc138e80e694761ec37a0da3a6... bitcoin-0.17.99-win64-setup-unsigned.exe\n3183c65183b291673e3fc208e8492e1c... bitcoin-0.17.99-win64.zip\ne1a04a119e3c0f012c430cdc454b97e1... bitcoin-0.17.99-x86_64-linux-gnu-debug.tar.gz\n79d2ba2a2637ab46da17db31df22ff71... bitcoin-0.17.99-x86_64-linux-gnu.tar.gz\n5d58288dd93d1b7fa88c00d07a9b2132... bitcoin-0.17.99.tar.gz\n425305d930303b30d4d958627e14d9f1... bitcoin-linux-0.18-res.yml\nb8ba0d6dfb956b207a010f6c68629eb4... bitcoin-linux-build.log\n14eb841cad239a428ba785030640cec4... bitcoin-osx-0.18-res.yml\n16d9e936a9eadc4ad44b739c974c8974... bitcoin-osx-build.log\nd30561bc86c36ba52363814dfc4c13a8... bitcoin-win-0.18-res.yml\nea8c9f2e132b18bceec09d04a7248c29... bitcoin-win-build.log",
    "body": "<!--a722867cd34abeea1fadc8d60700f111-->\nGitian builds for commit cbf00939b5e813937fb21466aa3e229ca81cb6ba (master):\n * `03de9c4e0db99546880b65d8ee0fc79d...` [bitcoin-0.17.99-aarch64-linux-gnu-debug.tar.gz](https://drahtbot.space/gitian/bitcoin/bitcoin/cbf00939b5e813937fb21466aa3e229ca81cb6ba/bitcoin-0.17.99-aarch64-linux-gnu-debug.tar.gz)\n * `7af1f2f1d136e77e6f66e1b5c835883f...` [bitcoin-0.17.99-aarch64-linux-gnu.tar.gz](https://drahtbot.space/gitian/bitcoin/bitcoin/cbf00939b5e813937fb21466aa3e229ca81cb6ba/bitcoin-0.17.99-aarch64-linux-gnu.tar.gz)\n * `4bbe5efbc1ce10923842064acf0049d5...` [bitcoin-0.17.99-arm-linux-gnueabihf-debug.tar.gz](https://drahtbot.space/gitian/bitcoin/bitcoin/cbf00939b5e813937fb21466aa3e229ca81cb6ba/bitcoin-0.17.99-arm-linux-gnueabihf-debug.tar.gz)\n * `90f5b87c8024326da340e1d047b74d53...` [bitcoin-0.17.99-arm-linux-gnueabihf.tar.gz](https://drahtbot.space/gitian/bitcoin/bitcoin/cbf00939b5e813937fb21466aa3e229ca81cb6ba/bitcoin-0.17.99-arm-linux-gnueabihf.tar.gz)\n * `bb1146de8b266f0219609f4bea1a83b6...` [bitcoin-0.17.99-i686-pc-linux-gnu-debug.tar.gz](https://drahtbot.space/gitian/bitcoin/bitcoin/cbf00939b5e813937fb21466aa3e229ca81cb6ba/bitcoin-0.17.99-i686-pc-linux-gnu-debug.tar.gz)\n * `e0df04f2434300d247393b934c1dc72a...` [bitcoin-0.17.99-i686-pc-linux-gnu.tar.gz](https://drahtbot.space/gitian/bitcoin/bitcoin/cbf00939b5e813937fb21466aa3e229ca81cb6ba/bitcoin-0.17.99-i686-pc-linux-gnu.tar.gz)\n * `b8af39344ef7921fdd0652630ea42ff2...` [bitcoin-0.17.99-osx-unsigned.dmg](https://drahtbot.space/gitian/bitcoin/bitcoin/cbf00939b5e813937fb21466aa3e229ca81cb6ba/bitcoin-0.17.99-osx-unsigned.dmg)\n * `bcf05778936b0ea27158d9314e9a2f5f...` [bitcoin-0.17.99-osx64.tar.gz](https://drahtbot.space/gitian/bitcoin/bitcoin/cbf00939b5e813937fb21466aa3e229ca81cb6ba/bitcoin-0.17.99-osx64.tar.gz)\n * `8c96f213dd5f5942f5d73e7157f1517d...` [bitcoin-0.17.99-riscv64-linux-gnu-debug.tar.gz](https://drahtbot.space/gitian/bitcoin/bitcoin/cbf00939b5e813937fb21466aa3e229ca81cb6ba/bitcoin-0.17.99-riscv64-linux-gnu-debug.tar.gz)\n * `7c0a3a8a7b197cd66a6560344e305e4b...` [bitcoin-0.17.99-riscv64-linux-gnu.tar.gz](https://drahtbot.space/gitian/bitcoin/bitcoin/cbf00939b5e813937fb21466aa3e229ca81cb6ba/bitcoin-0.17.99-riscv64-linux-gnu.tar.gz)\n * `509e055b986d9b4d4b71f4cdbea276d0...` [bitcoin-0.17.99-win32-debug.zip](https://drahtbot.space/gitian/bitcoin/bitcoin/cbf00939b5e813937fb21466aa3e229ca81cb6ba/bitcoin-0.17.99-win32-debug.zip)\n * `be3df67299583f6c810c784a995299a0...` [bitcoin-0.17.99-win32-setup-unsigned.exe](https://drahtbot.space/gitian/bitcoin/bitcoin/cbf00939b5e813937fb21466aa3e229ca81cb6ba/bitcoin-0.17.99-win32-setup-unsigned.exe)\n * `0e90c8b0af1d2d2385459c894d7e93fd...` [bitcoin-0.17.99-win32.zip](https://drahtbot.space/gitian/bitcoin/bitcoin/cbf00939b5e813937fb21466aa3e229ca81cb6ba/bitcoin-0.17.99-win32.zip)\n * `a6be69167e1a79e84ac4926aed93255d...` [bitcoin-0.17.99-win64-debug.zip](https://drahtbot.space/gitian/bitcoin/bitcoin/cbf00939b5e813937fb21466aa3e229ca81cb6ba/bitcoin-0.17.99-win64-debug.zip)\n * `e7861849b5158549c31f3283b78b0b76...` [bitcoin-0.17.99-win64-setup-unsigned.exe](https://drahtbot.space/gitian/bitcoin/bitcoin/cbf00939b5e813937fb21466aa3e229ca81cb6ba/bitcoin-0.17.99-win64-setup-unsigned.exe)\n * `647612752f3a19ce177a0f5c9edee8d2...` [bitcoin-0.17.99-win64.zip](https://drahtbot.space/gitian/bitcoin/bitcoin/cbf00939b5e813937fb21466aa3e229ca81cb6ba/bitcoin-0.17.99-win64.zip)\n * `909330723b61413c178ac291b42985b4...` [bitcoin-0.17.99-x86_64-linux-gnu-debug.tar.gz](https://drahtbot.space/gitian/bitcoin/bitcoin/cbf00939b5e813937fb21466aa3e229ca81cb6ba/bitcoin-0.17.99-x86_64-linux-gnu-debug.tar.gz)\n * `b761461a2fb68ed6c0f04ec14c5ecccc...` [bitcoin-0.17.99-x86_64-linux-gnu.tar.gz](https://drahtbot.space/gitian/bitcoin/bitcoin/cbf00939b5e813937fb21466aa3e229ca81cb6ba/bitcoin-0.17.99-x86_64-linux-gnu.tar.gz)\n * `63a34c10fc9a55ebde302d2c0f6eae0d...` [bitcoin-0.17.99.tar.gz](https://drahtbot.space/gitian/bitcoin/bitcoin/cbf00939b5e813937fb21466aa3e229ca81cb6ba/bitcoin-0.17.99.tar.gz)\n * `aa5caaec57d1adbca7fdc26fd5efcbd3...` [bitcoin-linux-0.18-res.yml](https://drahtbot.space/gitian/bitcoin/bitcoin/cbf00939b5e813937fb21466aa3e229ca81cb6ba/bitcoin-linux-0.18-res.yml)\n * `48197e3e8d7bfa97e05a6acb6b9e747f...` [bitcoin-linux-build.log](https://drahtbot.space/gitian/bitcoin/bitcoin/cbf00939b5e813937fb21466aa3e229ca81cb6ba/bitcoin-linux-build.log)\n * `0fbd023e6b56584025f93c19ee7aa65e...` [bitcoin-osx-0.18-res.yml](https://drahtbot.space/gitian/bitcoin/bitcoin/cbf00939b5e813937fb21466aa3e229ca81cb6ba/bitcoin-osx-0.18-res.yml)\n * `518e7f5d508130854e14154eed87a446...` [bitcoin-osx-build.log](https://drahtbot.space/gitian/bitcoin/bitcoin/cbf00939b5e813937fb21466aa3e229ca81cb6ba/bitcoin-osx-build.log)\n * `c2d4a565f5af557396654c6b424ce3e7...` [bitcoin-win-0.18-res.yml](https://drahtbot.space/gitian/bitcoin/bitcoin/cbf00939b5e813937fb21466aa3e229ca81cb6ba/bitcoin-win-0.18-res.yml)\n * `7614daf7b130ad51bb5c3c18807a18ea...` [bitcoin-win-build.log](https://drahtbot.space/gitian/bitcoin/bitcoin/cbf00939b5e813937fb21466aa3e229ca81cb6ba/bitcoin-win-build.log)\n\n\nGitian builds for commit 233aca186fe95af66e6d5ffd2f50fae358c0d1d6 (master and this pull):\n * `0aab25d989da1503c32f8d82e1fb80bd...` [bitcoin-0.17.99-aarch64-linux-gnu-debug.tar.gz](https://drahtbot.space/gitian/bitcoin/bitcoin/233aca186fe95af66e6d5ffd2f50fae358c0d1d6/bitcoin-0.17.99-aarch64-linux-gnu-debug.tar.gz)\n * `90240e49afb856ace1c6c4232f28d99c...` [bitcoin-0.17.99-aarch64-linux-gnu.tar.gz](https://drahtbot.space/gitian/bitcoin/bitcoin/233aca186fe95af66e6d5ffd2f50fae358c0d1d6/bitcoin-0.17.99-aarch64-linux-gnu.tar.gz)\n * `1d59ec89c8a590c0f3d5c6ee6102cf1d...` [bitcoin-0.17.99-arm-linux-gnueabihf-debug.tar.gz](https://drahtbot.space/gitian/bitcoin/bitcoin/233aca186fe95af66e6d5ffd2f50fae358c0d1d6/bitcoin-0.17.99-arm-linux-gnueabihf-debug.tar.gz)\n * `8fcd629066906af4a0e7aa374d74f8ed...` [bitcoin-0.17.99-arm-linux-gnueabihf.tar.gz](https://drahtbot.space/gitian/bitcoin/bitcoin/233aca186fe95af66e6d5ffd2f50fae358c0d1d6/bitcoin-0.17.99-arm-linux-gnueabihf.tar.gz)\n * `152261531d207517eb1900fdeddb03c0...` [bitcoin-0.17.99-i686-pc-linux-gnu-debug.tar.gz](https://drahtbot.space/gitian/bitcoin/bitcoin/233aca186fe95af66e6d5ffd2f50fae358c0d1d6/bitcoin-0.17.99-i686-pc-linux-gnu-debug.tar.gz)\n * `c44e685b879971410675489a82e561fc...` [bitcoin-0.17.99-i686-pc-linux-gnu.tar.gz](https://drahtbot.space/gitian/bitcoin/bitcoin/233aca186fe95af66e6d5ffd2f50fae358c0d1d6/bitcoin-0.17.99-i686-pc-linux-gnu.tar.gz)\n * `4b6d2f7b9e54223ea7450852b510a187...` [bitcoin-0.17.99-osx-unsigned.dmg](https://drahtbot.space/gitian/bitcoin/bitcoin/233aca186fe95af66e6d5ffd2f50fae358c0d1d6/bitcoin-0.17.99-osx-unsigned.dmg)\n * `a82bca27ca802158e173fb61d443c48f...` [bitcoin-0.17.99-osx64.tar.gz](https://drahtbot.space/gitian/bitcoin/bitcoin/233aca186fe95af66e6d5ffd2f50fae358c0d1d6/bitcoin-0.17.99-osx64.tar.gz)\n * `c97d3b694427dd32aa42a462318d9f0d...` [bitcoin-0.17.99-riscv64-linux-gnu-debug.tar.gz](https://drahtbot.space/gitian/bitcoin/bitcoin/233aca186fe95af66e6d5ffd2f50fae358c0d1d6/bitcoin-0.17.99-riscv64-linux-gnu-debug.tar.gz)\n * `6930614e84dd245ad6c39a21209c4c1a...` [bitcoin-0.17.99-riscv64-linux-gnu.tar.gz](https://drahtbot.space/gitian/bitcoin/bitcoin/233aca186fe95af66e6d5ffd2f50fae358c0d1d6/bitcoin-0.17.99-riscv64-linux-gnu.tar.gz)\n * `da5fc796181f0ddd9af7659057919f66...` [bitcoin-0.17.99-win32-debug.zip](https://drahtbot.space/gitian/bitcoin/bitcoin/233aca186fe95af66e6d5ffd2f50fae358c0d1d6/bitcoin-0.17.99-win32-debug.zip)\n * `fbc4ef451f37995162a14f172822be96...` [bitcoin-0.17.99-win32-setup-unsigned.exe](https://drahtbot.space/gitian/bitcoin/bitcoin/233aca186fe95af66e6d5ffd2f50fae358c0d1d6/bitcoin-0.17.99-win32-setup-unsigned.exe)\n * `993cec26c5df4bf52dd4a39d0bc3a89d...` [bitcoin-0.17.99-win32.zip](https://drahtbot.space/gitian/bitcoin/bitcoin/233aca186fe95af66e6d5ffd2f50fae358c0d1d6/bitcoin-0.17.99-win32.zip)\n * `6a8976a5cbba7ae21458dc97fe529e01...` [bitcoin-0.17.99-win64-debug.zip](https://drahtbot.space/gitian/bitcoin/bitcoin/233aca186fe95af66e6d5ffd2f50fae358c0d1d6/bitcoin-0.17.99-win64-debug.zip)\n * `8c2cb0dc138e80e694761ec37a0da3a6...` [bitcoin-0.17.99-win64-setup-unsigned.exe](https://drahtbot.space/gitian/bitcoin/bitcoin/233aca186fe95af66e6d5ffd2f50fae358c0d1d6/bitcoin-0.17.99-win64-setup-unsigned.exe)\n * `3183c65183b291673e3fc208e8492e1c...` [bitcoin-0.17.99-win64.zip](https://drahtbot.space/gitian/bitcoin/bitcoin/233aca186fe95af66e6d5ffd2f50fae358c0d1d6/bitcoin-0.17.99-win64.zip)\n * `e1a04a119e3c0f012c430cdc454b97e1...` [bitcoin-0.17.99-x86_64-linux-gnu-debug.tar.gz](https://drahtbot.space/gitian/bitcoin/bitcoin/233aca186fe95af66e6d5ffd2f50fae358c0d1d6/bitcoin-0.17.99-x86_64-linux-gnu-debug.tar.gz)\n * `79d2ba2a2637ab46da17db31df22ff71...` [bitcoin-0.17.99-x86_64-linux-gnu.tar.gz](https://drahtbot.space/gitian/bitcoin/bitcoin/233aca186fe95af66e6d5ffd2f50fae358c0d1d6/bitcoin-0.17.99-x86_64-linux-gnu.tar.gz)\n * `5d58288dd93d1b7fa88c00d07a9b2132...` [bitcoin-0.17.99.tar.gz](https://drahtbot.space/gitian/bitcoin/bitcoin/233aca186fe95af66e6d5ffd2f50fae358c0d1d6/bitcoin-0.17.99.tar.gz)\n * `425305d930303b30d4d958627e14d9f1...` [bitcoin-linux-0.18-res.yml](https://drahtbot.space/gitian/bitcoin/bitcoin/233aca186fe95af66e6d5ffd2f50fae358c0d1d6/bitcoin-linux-0.18-res.yml)\n * `b8ba0d6dfb956b207a010f6c68629eb4...` [bitcoin-linux-build.log](https://drahtbot.space/gitian/bitcoin/bitcoin/233aca186fe95af66e6d5ffd2f50fae358c0d1d6/bitcoin-linux-build.log)\n * `14eb841cad239a428ba785030640cec4...` [bitcoin-osx-0.18-res.yml](https://drahtbot.space/gitian/bitcoin/bitcoin/233aca186fe95af66e6d5ffd2f50fae358c0d1d6/bitcoin-osx-0.18-res.yml)\n * `16d9e936a9eadc4ad44b739c974c8974...` [bitcoin-osx-build.log](https://drahtbot.space/gitian/bitcoin/bitcoin/233aca186fe95af66e6d5ffd2f50fae358c0d1d6/bitcoin-osx-build.log)\n * `d30561bc86c36ba52363814dfc4c13a8...` [bitcoin-win-0.18-res.yml](https://drahtbot.space/gitian/bitcoin/bitcoin/233aca186fe95af66e6d5ffd2f50fae358c0d1d6/bitcoin-win-0.18-res.yml)\n * `ea8c9f2e132b18bceec09d04a7248c29...` [bitcoin-win-build.log](https://drahtbot.space/gitian/bitcoin/bitcoin/233aca186fe95af66e6d5ffd2f50fae358c0d1d6/bitcoin-win-build.log)\n",
    "reactions": {
      "url": "https://api.github.com/repos/bitcoin/bitcoin/issues/comments/437554904/reactions",
      "total_count": 0,
      "+1": 0,
      "-1": 0,
      "laugh": 0,
      "hooray": 0,
      "confused": 0,
      "heart": 0,
      "rocket": 0,
      "eyes": 0
    },
    "performed_via_github_app": null
  },
  {
    "url": "https://api.github.com/repos/bitcoin/bitcoin/issues/comments/437578741",
    "html_url": "https://github.com/bitcoin/bitcoin/pull/14698#issuecomment-437578741",
    "issue_url": "https://api.github.com/repos/bitcoin/bitcoin/issues/14698",
    "id": 437578741,
    "node_id": "MDEyOklzc3VlQ29tbWVudDQzNzU3ODc0MQ==",
    "user": {
      "login": "laanwj",
      "id": 126646,
      "node_id": "MDQ6VXNlcjEyNjY0Ng==",
      "avatar_url": "https://avatars.githubusercontent.com/u/126646?v=4",
      "gravatar_id": "",
      "url": "https://api.github.com/users/laanwj",
      "html_url": "https://github.com/laanwj",
      "followers_url": "https://api.github.com/users/laanwj/followers",
      "following_url": "https://api.github.com/users/laanwj/following{/other_user}",
      "gists_url": "https://api.github.com/users/laanwj/gists{/gist_id}",
      "starred_url": "https://api.github.com/users/laanwj/starred{/owner}{/repo}",
      "subscriptions_url": "https://api.github.com/users/laanwj/subscriptions",
      "organizations_url": "https://api.github.com/users/laanwj/orgs",
      "repos_url": "https://api.github.com/users/laanwj/repos",
      "events_url": "https://api.github.com/users/laanwj/events{/privacy}",
      "received_events_url": "https://api.github.com/users/laanwj/received_events",
      "type": "User",
      "site_admin": false
    },
    "created_at": "2018-11-10T11:54:57Z",
    "updated_at": "2018-11-10T11:57:56Z",
    "author_association": "MEMBER",
    "body_html": "<p dir=\"auto\">I'm surprised that this has been the case for so long and we only notice now.</p>\n<p dir=\"auto\">utACK in any case</p>",
    "body_text": "I'm surprised that this has been the case for so long and we only notice now.\nutACK in any case",
    "body": "I'm surprised that this has been the case for so long and we only notice now.\r\n\r\nutACK in any case",
    "reactions": {
      "url": "https://api.github.com/repos/bitcoin/bitcoin/issues/comments/437578741/reactions",
      "total_count": 0,
      "+1": 0,
      "-1": 0,
      "laugh": 0,
      "hooray": 0,
      "confused": 0,
      "heart": 0,
      "rocket": 0,
      "eyes": 0
    },
    "performed_via_github_app": null
  },
  {
    "url": "https://api.github.com/repos/bitcoin/bitcoin/issues/comments/437621727",
    "html_url": "https://github.com/bitcoin/bitcoin/pull/14698#issuecomment-437621727",
    "issue_url": "https://api.github.com/repos/bitcoin/bitcoin/issues/14698",
    "id": 437621727,
    "node_id": "MDEyOklzc3VlQ29tbWVudDQzNzYyMTcyNw==",
    "user": {
      "login": "hebasto",
      "id": 32963518,
      "node_id": "MDQ6VXNlcjMyOTYzNTE4",
      "avatar_url": "https://avatars.githubusercontent.com/u/32963518?v=4",
      "gravatar_id": "",
      "url": "https://api.github.com/users/hebasto",
      "html_url": "https://github.com/hebasto",
      "followers_url": "https://api.github.com/users/hebasto/followers",
      "following_url": "https://api.github.com/users/hebasto/following{/other_user}",
      "gists_url": "https://api.github.com/users/hebasto/gists{/gist_id}",
      "starred_url": "https://api.github.com/users/hebasto/starred{/owner}{/repo}",
      "subscriptions_url": "https://api.github.com/users/hebasto/subscriptions",
      "organizations_url": "https://api.github.com/users/hebasto/orgs",
      "repos_url": "https://api.github.com/users/hebasto/repos",
      "events_url": "https://api.github.com/users/hebasto/events{/privacy}",
      "received_events_url": "https://api.github.com/users/hebasto/received_events",
      "type": "User",
      "site_admin": false
    },
    "created_at": "2018-11-10T21:13:18Z",
    "updated_at": "2018-11-10T21:13:18Z",
    "author_association": "MEMBER",
    "body_html": "<p dir=\"auto\">utACK <a class=\"commit-link\" data-hovercard-type=\"commit\" data-hovercard-url=\"https://github.com/bitcoin/bitcoin/commit/5c5902acc515c8f46ad73222cd57a29c4c13b92c/hovercard\" href=\"https://github.com/bitcoin/bitcoin/commit/5c5902acc515c8f46ad73222cd57a29c4c13b92c\"><tt>5c5902a</tt></a></p>",
    "body_text": "utACK 5c5902a",
    "body": "utACK 5c5902acc515c8f46ad73222cd57a29c4c13b92c",
    "reactions": {
      "url": "https://api.github.com/repos/bitcoin/bitcoin/issues/comments/437621727/reactions",
      "total_count": 0,
      "+1": 0,
      "-1": 0,
      "laugh": 0,
      "hooray": 0,
      "confused": 0,
      "heart": 0,
      "rocket": 0,
      "eyes": 0
    },
    "performed_via_github_app": null
  },
  {
    "url": "https://api.github.com/repos/bitcoin/bitcoin/issues/comments/437645127",
    "html_url": "https://github.com/bitcoin/bitcoin/pull/14698#issuecomment-437645127",
    "issue_url": "https://api.github.com/repos/bitcoin/bitcoin/issues/14698",
    "id": 437645127,
    "node_id": "MDEyOklzc3VlQ29tbWVudDQzNzY0NTEyNw==",
    "user": {
      "login": "fanquake",
      "id": 863730,
      "node_id": "MDQ6VXNlcjg2MzczMA==",
      "avatar_url": "https://avatars.githubusercontent.com/u/863730?v=4",
      "gravatar_id": "",
      "url": "https://api.github.com/users/fanquake",
      "html_url": "https://github.com/fanquake",
      "followers_url": "https://api.github.com/users/fanquake/followers",
      "following_url": "https://api.github.com/users/fanquake/following{/other_user}",
      "gists_url": "https://api.github.com/users/fanquake/gists{/gist_id}",
      "starred_url": "https://api.github.com/users/fanquake/starred{/owner}{/repo}",
      "subscriptions_url": "https://api.github.com/users/fanquake/subscriptions",
      "organizations_url": "https://api.github.com/users/fanquake/orgs",
      "repos_url": "https://api.github.com/users/fanquake/repos",
      "events_url": "https://api.github.com/users/fanquake/events{/privacy}",
      "received_events_url": "https://api.github.com/users/fanquake/received_events",
      "type": "User",
      "site_admin": false
    },
    "created_at": "2018-11-11T05:32:27Z",
    "updated_at": "2018-11-11T05:32:27Z",
    "author_association": "MEMBER",
    "body_html": "<p dir=\"auto\">utACK <a class=\"commit-link\" data-hovercard-type=\"commit\" data-hovercard-url=\"https://github.com/bitcoin/bitcoin/commit/5c5902acc515c8f46ad73222cd57a29c4c13b92c/hovercard\" href=\"https://github.com/bitcoin/bitcoin/commit/5c5902acc515c8f46ad73222cd57a29c4c13b92c\"><tt>5c5902a</tt></a></p>",
    "body_text": "utACK 5c5902a",
    "body": "utACK 5c5902a",
    "reactions": {
      "url": "https://api.github.com/repos/bitcoin/bitcoin/issues/comments/437645127/reactions",
      "total_count": 0,
      "+1": 0,
      "-1": 0,
      "laugh": 0,
      "hooray": 0,
      "confused": 0,
      "heart": 0,
      "rocket": 0,
      "eyes": 0
    },
    "performed_via_github_app": null
  },
  {
    "url": "https://api.github.com/repos/bitcoin/bitcoin/issues/comments/437660030",
    "html_url": "https://github.com/bitcoin/bitcoin/pull/14698#issuecomment-437660030",
    "issue_url": "https://api.github.com/repos/bitcoin/bitcoin/issues/14698",
    "id": 437660030,
    "node_id": "MDEyOklzc3VlQ29tbWVudDQzNzY2MDAzMA==",
    "user": {
      "login": "jonasschnelli",
      "id": 178464,
      "node_id": "MDQ6VXNlcjE3ODQ2NA==",
      "avatar_url": "https://avatars.githubusercontent.com/u/178464?v=4",
      "gravatar_id": "",
      "url": "https://api.github.com/users/jonasschnelli",
      "html_url": "https://github.com/jonasschnelli",
      "followers_url": "https://api.github.com/users/jonasschnelli/followers",
      "following_url": "https://api.github.com/users/jonasschnelli/following{/other_user}",
      "gists_url": "https://api.github.com/users/jonasschnelli/gists{/gist_id}",
      "starred_url": "https://api.github.com/users/jonasschnelli/starred{/owner}{/repo}",
      "subscriptions_url": "https://api.github.com/users/jonasschnelli/subscriptions",
      "organizations_url": "https://api.github.com/users/jonasschnelli/orgs",
      "repos_url": "https://api.github.com/users/jonasschnelli/repos",
      "events_url": "https://api.github.com/users/jonasschnelli/events{/privacy}",
      "received_events_url": "https://api.github.com/users/jonasschnelli/received_events",
      "type": "User",
      "site_admin": false
    },
    "created_at": "2018-11-11T10:53:33Z",
    "updated_at": "2018-11-11T10:53:33Z",
    "author_association": "CONTRIBUTOR",
    "body_html": "<p dir=\"auto\">utACK <a class=\"commit-link\" data-hovercard-type=\"commit\" data-hovercard-url=\"https://github.com/bitcoin/bitcoin/commit/5c5902acc515c8f46ad73222cd57a29c4c13b92c/hovercard\" href=\"https://github.com/bitcoin/bitcoin/commit/5c5902acc515c8f46ad73222cd57a29c4c13b92c\"><tt>5c5902a</tt></a></p>",
    "body_text": "utACK 5c5902a",
    "body": "utACK 5c5902ac",
    "reactions": {
      "url": "https://api.github.com/repos/bitcoin/bitcoin/issues/comments/437660030/reactions",
      "total_count": 0,
      "+1": 0,
      "-1": 0,
      "laugh": 0,
      "hooray": 0,
      "confused": 0,
      "heart": 0,
      "rocket": 0,
      "eyes": 0
    },
    "performed_via_github_app": null
  },
  {
    "url": "https://api.github.com/repos/bitcoin/bitcoin/issues/comments/438598651",
    "html_url": "https://github.com/bitcoin/bitcoin/pull/14698#issuecomment-438598651",
    "issue_url": "https://api.github.com/repos/bitcoin/bitcoin/issues/14698",
    "id": 438598651,
    "node_id": "MDEyOklzc3VlQ29tbWVudDQzODU5ODY1MQ==",
    "user": {
      "login": "murrayn",
      "id": 5404807,
      "node_id": "MDQ6VXNlcjU0MDQ4MDc=",
      "avatar_url": "https://avatars.githubusercontent.com/u/5404807?v=4",
      "gravatar_id": "",
      "url": "https://api.github.com/users/murrayn",
      "html_url": "https://github.com/murrayn",
      "followers_url": "https://api.github.com/users/murrayn/followers",
      "following_url": "https://api.github.com/users/murrayn/following{/other_user}",
      "gists_url": "https://api.github.com/users/murrayn/gists{/gist_id}",
      "starred_url": "https://api.github.com/users/murrayn/starred{/owner}{/repo}",
      "subscriptions_url": "https://api.github.com/users/murrayn/subscriptions",
      "organizations_url": "https://api.github.com/users/murrayn/orgs",
      "repos_url": "https://api.github.com/users/murrayn/repos",
      "events_url": "https://api.github.com/users/murrayn/events{/privacy}",
      "received_events_url": "https://api.github.com/users/murrayn/received_events",
      "type": "User",
      "site_admin": false
    },
    "created_at": "2018-11-14T09:38:12Z",
    "updated_at": "2018-11-14T09:38:12Z",
    "author_association": "CONTRIBUTOR",
    "body_html": "<p dir=\"auto\">utACK <a class=\"commit-link\" data-hovercard-type=\"commit\" data-hovercard-url=\"https://github.com/bitcoin/bitcoin/commit/5c5902acc515c8f46ad73222cd57a29c4c13b92c/hovercard\" href=\"https://github.com/bitcoin/bitcoin/commit/5c5902acc515c8f46ad73222cd57a29c4c13b92c\"><tt>5c5902a</tt></a></p>",
    "body_text": "utACK 5c5902a",
    "body": "utACK https://github.com/bitcoin/bitcoin/commit/5c5902acc515c8f46ad73222cd57a29c4c13b92c",
    "reactions": {
      "url": "https://api.github.com/repos/bitcoin/bitcoin/issues/comments/438598651/reactions",
      "total_count": 0,
      "+1": 0,
      "-1": 0,
      "laugh": 0,
      "hooray": 0,
      "confused": 0,
      "heart": 0,
      "rocket": 0,
      "eyes": 0
    },
    "performed_via_github_app": null
  },
  {
    "url": "https://api.github.com/repos/bitcoin/bitcoin/issues/comments/438629225",
    "html_url": "https://github.com/bitcoin/bitcoin/pull/14698#issuecomment-438629225",
    "issue_url": "https://api.github.com/repos/bitcoin/bitcoin/issues/14698",
    "id": 438629225,
    "node_id": "MDEyOklzc3VlQ29tbWVudDQzODYyOTIyNQ==",
    "user": {
      "login": "meshcollider",
      "id": 3211283,
      "node_id": "MDQ6VXNlcjMyMTEyODM=",
      "avatar_url": "https://avatars.githubusercontent.com/u/3211283?v=4",
      "gravatar_id": "",
      "url": "https://api.github.com/users/meshcollider",
      "html_url": "https://github.com/meshcollider",
      "followers_url": "https://api.github.com/users/meshcollider/followers",
      "following_url": "https://api.github.com/users/meshcollider/following{/other_user}",
      "gists_url": "https://api.github.com/users/meshcollider/gists{/gist_id}",
      "starred_url": "https://api.github.com/users/meshcollider/starred{/owner}{/repo}",
      "subscriptions_url": "https://api.github.com/users/meshcollider/subscriptions",
      "organizations_url": "https://api.github.com/users/meshcollider/orgs",
      "repos_url": "https://api.github.com/users/meshcollider/repos",
      "events_url": "https://api.github.com/users/meshcollider/events{/privacy}",
      "received_events_url": "https://api.github.com/users/meshcollider/received_events",
      "type": "User",
      "site_admin": false
    },
    "created_at": "2018-11-14T11:22:20Z",
    "updated_at": "2018-11-14T11:22:20Z",
    "author_association": "CONTRIBUTOR",
    "body_html": "<p dir=\"auto\">Tested the 64 bit installer from the gitian build above</p>\n<p dir=\"auto\">ACK <a class=\"commit-link\" data-hovercard-type=\"commit\" data-hovercard-url=\"https://github.com/bitcoin/bitcoin/commit/5c5902acc515c8f46ad73222cd57a29c4c13b92c/hovercard\" href=\"https://github.com/bitcoin/bitcoin/commit/5c5902acc515c8f46ad73222cd57a29c4c13b92c\"><tt>5c5902a</tt></a></p>",
    "body_text": "Tested the 64 bit installer from the gitian build above\nACK 5c5902a",
    "body": "Tested the 64 bit installer from the gitian build above\r\n\r\nACK https://github.com/bitcoin/bitcoin/pull/14698/commits/5c5902acc515c8f46ad73222cd57a29c4c13b92c",
    "reactions": {
      "url": "https://api.github.com/repos/bitcoin/bitcoin/issues/comments/438629225/reactions",
      "total_count": 0,
      "+1": 0,
      "-1": 0,
      "laugh": 0,
      "hooray": 0,
      "confused": 0,
      "heart": 0,
      "rocket": 0,
      "eyes": 0
    },
    "performed_via_github_app": null
  },
  {
    "url": "https://api.github.com/repos/bitcoin/bitcoin/issues/comments/440093356",
    "html_url": "https://github.com/bitcoin/bitcoin/pull/14698#issuecomment-440093356",
    "issue_url": "https://api.github.com/repos/bitcoin/bitcoin/issues/14698",
    "id": 440093356,
    "node_id": "MDEyOklzc3VlQ29tbWVudDQ0MDA5MzM1Ng==",
    "user": {
      "login": "gmaxwell",
      "id": 858454,
      "node_id": "MDQ6VXNlcjg1ODQ1NA==",
      "avatar_url": "https://avatars.githubusercontent.com/u/858454?v=4",
      "gravatar_id": "",
      "url": "https://api.github.com/users/gmaxwell",
      "html_url": "https://github.com/gmaxwell",
      "followers_url": "https://api.github.com/users/gmaxwell/followers",
      "following_url": "https://api.github.com/users/gmaxwell/following{/other_user}",
      "gists_url": "https://api.github.com/users/gmaxwell/gists{/gist_id}",
      "starred_url": "https://api.github.com/users/gmaxwell/starred{/owner}{/repo}",
      "subscriptions_url": "https://api.github.com/users/gmaxwell/subscriptions",
      "organizations_url": "https://api.github.com/users/gmaxwell/orgs",
      "repos_url": "https://api.github.com/users/gmaxwell/repos",
      "events_url": "https://api.github.com/users/gmaxwell/events{/privacy}",
      "received_events_url": "https://api.github.com/users/gmaxwell/received_events",
      "type": "User",
      "site_admin": false
    },
    "created_at": "2018-11-20T00:36:46Z",
    "updated_at": "2018-11-20T00:36:46Z",
    "author_association": "CONTRIBUTOR",
    "body_html": "<p dir=\"auto\">Should this be tagged for backport?</p>",
    "body_text": "Should this be tagged for backport?",
    "body": "Should this be tagged for backport?",
    "reactions": {
      "url": "https://api.github.com/repos/bitcoin/bitcoin/issues/comments/440093356/reactions",
      "total_count": 0,
      "+1": 0,
      "-1": 0,
      "laugh": 0,
      "hooray": 0,
      "confused": 0,
      "heart": 0,
      "rocket": 0,
      "eyes": 0
    },
    "performed_via_github_app": null
  },
  {
    "url": "https://api.github.com/repos/bitcoin/bitcoin/issues/comments/440875367",
    "html_url": "https://github.com/bitcoin/bitcoin/pull/14698#issuecomment-440875367",
    "issue_url": "https://api.github.com/repos/bitcoin/bitcoin/issues/14698",
    "id": 440875367,
    "node_id": "MDEyOklzc3VlQ29tbWVudDQ0MDg3NTM2Nw==",
    "user": {
      "login": "sipa",
      "id": 548488,
      "node_id": "MDQ6VXNlcjU0ODQ4OA==",
      "avatar_url": "https://avatars.githubusercontent.com/u/548488?v=4",
      "gravatar_id": "",
      "url": "https://api.github.com/users/sipa",
      "html_url": "https://github.com/sipa",
      "followers_url": "https://api.github.com/users/sipa/followers",
      "following_url": "https://api.github.com/users/sipa/following{/other_user}",
      "gists_url": "https://api.github.com/users/sipa/gists{/gist_id}",
      "starred_url": "https://api.github.com/users/sipa/starred{/owner}{/repo}",
      "subscriptions_url": "https://api.github.com/users/sipa/subscriptions",
      "organizations_url": "https://api.github.com/users/sipa/orgs",
      "repos_url": "https://api.github.com/users/sipa/repos",
      "events_url": "https://api.github.com/users/sipa/events{/privacy}",
      "received_events_url": "https://api.github.com/users/sipa/received_events",
      "type": "User",
      "site_admin": false
    },
    "created_at": "2018-11-22T01:07:23Z",
    "updated_at": "2018-11-22T01:07:23Z",
    "author_association": "MEMBER",
    "body_html": "<p dir=\"auto\"><a class=\"user-mention notranslate\" data-hovercard-type=\"user\" data-hovercard-url=\"/users/gmaxwell/hovercard\" data-octo-click=\"hovercard-link-click\" data-octo-dimensions=\"link_type:self\" href=\"https://github.com/gmaxwell\">@gmaxwell</a> This seems more a new feature than a bugfix, though I think it's trivial enough we may want to backport it. Other opinions?</p>",
    "body_text": "@gmaxwell This seems more a new feature than a bugfix, though I think it's trivial enough we may want to backport it. Other opinions?",
    "body": "@gmaxwell This seems more a new feature than a bugfix, though I think it's trivial enough we may want to backport it. Other opinions?",
    "reactions": {
      "url": "https://api.github.com/repos/bitcoin/bitcoin/issues/comments/440875367/reactions",
      "total_count": 1,
      "+1": 1,
      "-1": 0,
      "laugh": 0,
      "hooray": 0,
      "confused": 0,
      "heart": 0,
      "rocket": 0,
      "eyes": 0
    },
    "performed_via_github_app": null
  }
]
