{
  "url": "https://api.github.com/repos/bitcoin/bitcoin/issues/7030",
  "repository_url": "https://api.github.com/repos/bitcoin/bitcoin",
  "labels_url": "https://api.github.com/repos/bitcoin/bitcoin/issues/7030/labels{/name}",
  "comments_url": "https://api.github.com/repos/bitcoin/bitcoin/issues/7030/comments",
  "events_url": "https://api.github.com/repos/bitcoin/bitcoin/issues/7030/events",
  "html_url": "https://github.com/bitcoin/bitcoin/pull/7030",
  "id": 117144580,
  "node_id": "MDExOlB1bGxSZXF1ZXN0NTA4MjA5ODQ=",
  "number": 7030,
  "title": "[contrib] Delete test-patches",
  "user": {
    "login": "maflcko",
    "id": 6399679,
    "node_id": "MDQ6VXNlcjYzOTk2Nzk=",
    "avatar_url": "https://avatars.githubusercontent.com/u/6399679?v=4",
    "gravatar_id": "",
    "url": "https://api.github.com/users/maflcko",
    "html_url": "https://github.com/maflcko",
    "followers_url": "https://api.github.com/users/maflcko/followers",
    "following_url": "https://api.github.com/users/maflcko/following{/other_user}",
    "gists_url": "https://api.github.com/users/maflcko/gists{/gist_id}",
    "starred_url": "https://api.github.com/users/maflcko/starred{/owner}{/repo}",
    "subscriptions_url": "https://api.github.com/users/maflcko/subscriptions",
    "organizations_url": "https://api.github.com/users/maflcko/orgs",
    "repos_url": "https://api.github.com/users/maflcko/repos",
    "events_url": "https://api.github.com/users/maflcko/events{/privacy}",
    "received_events_url": "https://api.github.com/users/maflcko/received_events",
    "type": "User",
    "site_admin": false
  },
  "labels": [
    {
      "id": 231994551,
      "node_id": "MDU6TGFiZWwyMzE5OTQ1NTE=",
      "url": "https://api.github.com/repos/bitcoin/bitcoin/labels/Scripts%20and%20tools",
      "name": "Scripts and tools",
      "color": "ffffee",
      "default": false,
      "description": null
    }
  ],
  "state": "closed",
  "locked": true,
  "assignee": null,
  "assignees": [

  ],
  "milestone": null,
  "comments": 2,
  "created_at": "2015-11-16T15:08:01Z",
  "updated_at": "2021-09-08T10:57:16Z",
  "closed_at": "2015-11-18T08:50:10Z",
  "author_association": "MEMBER",
  "active_lock_reason": "resolved",
  "draft": false,
  "pull_request": {
    "url": "https://api.github.com/repos/bitcoin/bitcoin/pulls/7030",
    "html_url": "https://github.com/bitcoin/bitcoin/pull/7030",
    "diff_url": "https://github.com/bitcoin/bitcoin/pull/7030.diff",
    "patch_url": "https://github.com/bitcoin/bitcoin/pull/7030.patch",
    "merged_at": "2015-11-18T08:50:10Z"
  },
  "body_html": "<p dir=\"auto\">Follow up of <a class=\"issue-link js-issue-link\" data-error-text=\"Failed to load title\" data-id=\"116537430\" data-permission-text=\"Title is private\" data-url=\"https://github.com/bitcoin/bitcoin/issues/6998\" data-hovercard-type=\"pull_request\" data-hovercard-url=\"/bitcoin/bitcoin/pull/6998/hovercard\" href=\"https://github.com/bitcoin/bitcoin/pull/6998\">#6998</a>?</p>",
  "body_text": "Follow up of #6998?",
  "body": "Follow up of #6998?\n",
  "closed_by": {
    "login": "laanwj",
    "id": 126646,
    "node_id": "MDQ6VXNlcjEyNjY0Ng==",
    "avatar_url": "https://avatars.githubusercontent.com/u/126646?v=4",
    "gravatar_id": "",
    "url": "https://api.github.com/users/laanwj",
    "html_url": "https://github.com/laanwj",
    "followers_url": "https://api.github.com/users/laanwj/followers",
    "following_url": "https://api.github.com/users/laanwj/following{/other_user}",
    "gists_url": "https://api.github.com/users/laanwj/gists{/gist_id}",
    "starred_url": "https://api.github.com/users/laanwj/starred{/owner}{/repo}",
    "subscriptions_url": "https://api.github.com/users/laanwj/subscriptions",
    "organizations_url": "https://api.github.com/users/laanwj/orgs",
    "repos_url": "https://api.github.com/users/laanwj/repos",
    "events_url": "https://api.github.com/users/laanwj/events{/privacy}",
    "received_events_url": "https://api.github.com/users/laanwj/received_events",
    "type": "User",
    "site_admin": false
  },
  "reactions": {
    "url": "https://api.github.com/repos/bitcoin/bitcoin/issues/7030/reactions",
    "total_count": 0,
    "+1": 0,
    "-1": 0,
    "laugh": 0,
    "hooray": 0,
    "confused": 0,
    "heart": 0,
    "rocket": 0,
    "eyes": 0
  },
  "timeline_url": "https://api.github.com/repos/bitcoin/bitcoin/issues/7030/timeline",
  "performed_via_github_app": null,
  "state_reason": null
}
