{
  "url": "https://api.github.com/repos/bitcoin/bitcoin/issues/19832",
  "repository_url": "https://api.github.com/repos/bitcoin/bitcoin",
  "labels_url": "https://api.github.com/repos/bitcoin/bitcoin/issues/19832/labels{/name}",
  "comments_url": "https://api.github.com/repos/bitcoin/bitcoin/issues/19832/comments",
  "events_url": "https://api.github.com/repos/bitcoin/bitcoin/issues/19832/events",
  "html_url": "https://github.com/bitcoin/bitcoin/pull/19832",
  "id": 688542735,
  "node_id": "MDExOlB1bGxSZXF1ZXN0NDc1NzgzNjA1",
  "number": 19832,
  "title": "p2p: Put disconnecting logs into BCLog::NET category",
  "user": {
    "login": "hebasto",
    "id": 32963518,
    "node_id": "MDQ6VXNlcjMyOTYzNTE4",
    "avatar_url": "https://avatars.githubusercontent.com/u/32963518?v=4",
    "gravatar_id": "",
    "url": "https://api.github.com/users/hebasto",
    "html_url": "https://github.com/hebasto",
    "followers_url": "https://api.github.com/users/hebasto/followers",
    "following_url": "https://api.github.com/users/hebasto/following{/other_user}",
    "gists_url": "https://api.github.com/users/hebasto/gists{/gist_id}",
    "starred_url": "https://api.github.com/users/hebasto/starred{/owner}{/repo}",
    "subscriptions_url": "https://api.github.com/users/hebasto/subscriptions",
    "organizations_url": "https://api.github.com/users/hebasto/orgs",
    "repos_url": "https://api.github.com/users/hebasto/repos",
    "events_url": "https://api.github.com/users/hebasto/events{/privacy}",
    "received_events_url": "https://api.github.com/users/hebasto/received_events",
    "type": "User",
    "site_admin": false
  },
  "labels": [
    {
      "id": 98298007,
      "node_id": "MDU6TGFiZWw5ODI5ODAwNw==",
      "url": "https://api.github.com/repos/bitcoin/bitcoin/labels/P2P",
      "name": "P2P",
      "color": "006b75",
      "default": false,
      "description": null
    }
  ],
  "state": "closed",
  "locked": true,
  "assignee": null,
  "assignees": [

  ],
  "milestone": null,
  "comments": 36,
  "created_at": "2020-08-29T14:24:38Z",
  "updated_at": "2022-08-16T17:12:01Z",
  "closed_at": "2020-12-07T08:10:09Z",
  "author_association": "MEMBER",
  "active_lock_reason": "resolved",
  "draft": false,
  "pull_request": {
    "url": "https://api.github.com/repos/bitcoin/bitcoin/pulls/19832",
    "html_url": "https://github.com/bitcoin/bitcoin/pull/19832",
    "diff_url": "https://github.com/bitcoin/bitcoin/pull/19832.diff",
    "patch_url": "https://github.com/bitcoin/bitcoin/pull/19832.patch",
    "merged_at": "2020-12-07T08:10:09Z"
  },
  "body_html": "<p dir=\"auto\">It's too noisy:</p>\n<div class=\"snippet-clipboard-content notranslate position-relative overflow-auto\" data-snippet-clipboard-copy-content=\"$ cat debug.log | wc -l\n28529\n$ cat debug.log | grep &quot;Disconnecting and discouraging peer&quot; | wc -l\n10177\"><pre class=\"notranslate\"><code class=\"notranslate\">$ cat debug.log | wc -l\n28529\n$ cat debug.log | grep \"Disconnecting and discouraging peer\" | wc -l\n10177\n</code></pre></div>",
  "body_text": "It's too noisy:\n$ cat debug.log | wc -l\n28529\n$ cat debug.log | grep \"Disconnecting and discouraging peer\" | wc -l\n10177",
  "body": "It's too noisy:\r\n```\r\n$ cat debug.log | wc -l\r\n28529\r\n$ cat debug.log | grep \"Disconnecting and discouraging peer\" | wc -l\r\n10177\r\n```",
  "closed_by": {
    "login": "maflcko",
    "id": 6399679,
    "node_id": "MDQ6VXNlcjYzOTk2Nzk=",
    "avatar_url": "https://avatars.githubusercontent.com/u/6399679?v=4",
    "gravatar_id": "",
    "url": "https://api.github.com/users/maflcko",
    "html_url": "https://github.com/maflcko",
    "followers_url": "https://api.github.com/users/maflcko/followers",
    "following_url": "https://api.github.com/users/maflcko/following{/other_user}",
    "gists_url": "https://api.github.com/users/maflcko/gists{/gist_id}",
    "starred_url": "https://api.github.com/users/maflcko/starred{/owner}{/repo}",
    "subscriptions_url": "https://api.github.com/users/maflcko/subscriptions",
    "organizations_url": "https://api.github.com/users/maflcko/orgs",
    "repos_url": "https://api.github.com/users/maflcko/repos",
    "events_url": "https://api.github.com/users/maflcko/events{/privacy}",
    "received_events_url": "https://api.github.com/users/maflcko/received_events",
    "type": "User",
    "site_admin": false
  },
  "reactions": {
    "url": "https://api.github.com/repos/bitcoin/bitcoin/issues/19832/reactions",
    "total_count": 0,
    "+1": 0,
    "-1": 0,
    "laugh": 0,
    "hooray": 0,
    "confused": 0,
    "heart": 0,
    "rocket": 0,
    "eyes": 0
  },
  "timeline_url": "https://api.github.com/repos/bitcoin/bitcoin/issues/19832/timeline",
  "performed_via_github_app": null,
  "state_reason": null
}
