{
  "url": "https://api.github.com/repos/bitcoin/bitcoin/issues/9839",
  "repository_url": "https://api.github.com/repos/bitcoin/bitcoin",
  "labels_url": "https://api.github.com/repos/bitcoin/bitcoin/issues/9839/labels{/name}",
  "comments_url": "https://api.github.com/repos/bitcoin/bitcoin/issues/9839/comments",
  "events_url": "https://api.github.com/repos/bitcoin/bitcoin/issues/9839/events",
  "html_url": "https://github.com/bitcoin/bitcoin/pull/9839",
  "id": 209842359,
  "node_id": "MDExOlB1bGxSZXF1ZXN0MTA3NjgyMzE0",
  "number": 9839,
  "title": "[qa] Make import-rescan.py watchonly check reliable",
  "user": {
    "login": "ryanofsky",
    "id": 7133040,
    "node_id": "MDQ6VXNlcjcxMzMwNDA=",
    "avatar_url": "https://avatars.githubusercontent.com/u/7133040?v=4",
    "gravatar_id": "",
    "url": "https://api.github.com/users/ryanofsky",
    "html_url": "https://github.com/ryanofsky",
    "followers_url": "https://api.github.com/users/ryanofsky/followers",
    "following_url": "https://api.github.com/users/ryanofsky/following{/other_user}",
    "gists_url": "https://api.github.com/users/ryanofsky/gists{/gist_id}",
    "starred_url": "https://api.github.com/users/ryanofsky/starred{/owner}{/repo}",
    "subscriptions_url": "https://api.github.com/users/ryanofsky/subscriptions",
    "organizations_url": "https://api.github.com/users/ryanofsky/orgs",
    "repos_url": "https://api.github.com/users/ryanofsky/repos",
    "events_url": "https://api.github.com/users/ryanofsky/events{/privacy}",
    "received_events_url": "https://api.github.com/users/ryanofsky/received_events",
    "type": "User",
    "site_admin": false
  },
  "labels": [
    {
      "id": 62963516,
      "node_id": "MDU6TGFiZWw2Mjk2MzUxNg==",
      "url": "https://api.github.com/repos/bitcoin/bitcoin/labels/Tests",
      "name": "Tests",
      "color": "d4c5f9",
      "default": false,
      "description": null
    }
  ],
  "state": "closed",
  "locked": true,
  "assignee": null,
  "assignees": [

  ],
  "milestone": null,
  "comments": 3,
  "created_at": "2017-02-23T18:19:09Z",
  "updated_at": "2021-09-08T11:24:23Z",
  "closed_at": "2017-02-27T07:46:51Z",
  "author_association": "CONTRIBUTOR",
  "active_lock_reason": "resolved",
  "draft": false,
  "pull_request": {
    "url": "https://api.github.com/repos/bitcoin/bitcoin/pulls/9839",
    "html_url": "https://github.com/bitcoin/bitcoin/pull/9839",
    "diff_url": "https://github.com/bitcoin/bitcoin/pull/9839.diff",
    "patch_url": "https://github.com/bitcoin/bitcoin/pull/9839.patch",
    "merged_at": "2017-02-27T07:46:51Z"
  },
  "body_html": "<p dir=\"auto\">Send payments during the test from a different node than the node generating keys to be imported, so the spending node doesn't create transactions that inadvertently involve (spend funds from) the imported keys.</p>\n<p dir=\"auto\"><span class=\"issue-keyword tooltipped tooltipped-se\" aria-label=\"This pull request closes issue #9826.\">Fixes</span> <a class=\"issue-link js-issue-link\" data-error-text=\"Failed to load title\" data-id=\"209487719\" data-permission-text=\"Title is private\" data-url=\"https://github.com/bitcoin/bitcoin/issues/9826\" data-hovercard-type=\"issue\" data-hovercard-url=\"/bitcoin/bitcoin/issues/9826/hovercard\" href=\"https://github.com/bitcoin/bitcoin/issues/9826\">#9826</a></p>",
  "body_text": "Send payments during the test from a different node than the node generating keys to be imported, so the spending node doesn't create transactions that inadvertently involve (spend funds from) the imported keys.\nFixes #9826",
  "body": "Send payments during the test from a different node than the node generating keys to be imported, so the spending node doesn't create transactions that inadvertently involve (spend funds from) the imported keys.\r\n\r\nFixes #9826",
  "closed_by": {
    "login": "laanwj",
    "id": 126646,
    "node_id": "MDQ6VXNlcjEyNjY0Ng==",
    "avatar_url": "https://avatars.githubusercontent.com/u/126646?v=4",
    "gravatar_id": "",
    "url": "https://api.github.com/users/laanwj",
    "html_url": "https://github.com/laanwj",
    "followers_url": "https://api.github.com/users/laanwj/followers",
    "following_url": "https://api.github.com/users/laanwj/following{/other_user}",
    "gists_url": "https://api.github.com/users/laanwj/gists{/gist_id}",
    "starred_url": "https://api.github.com/users/laanwj/starred{/owner}{/repo}",
    "subscriptions_url": "https://api.github.com/users/laanwj/subscriptions",
    "organizations_url": "https://api.github.com/users/laanwj/orgs",
    "repos_url": "https://api.github.com/users/laanwj/repos",
    "events_url": "https://api.github.com/users/laanwj/events{/privacy}",
    "received_events_url": "https://api.github.com/users/laanwj/received_events",
    "type": "User",
    "site_admin": false
  },
  "reactions": {
    "url": "https://api.github.com/repos/bitcoin/bitcoin/issues/9839/reactions",
    "total_count": 0,
    "+1": 0,
    "-1": 0,
    "laugh": 0,
    "hooray": 0,
    "confused": 0,
    "heart": 0,
    "rocket": 0,
    "eyes": 0
  },
  "timeline_url": "https://api.github.com/repos/bitcoin/bitcoin/issues/9839/timeline",
  "performed_via_github_app": null,
  "state_reason": null
}
