[
  {
    "url": "https://api.github.com/repos/bitcoin/bitcoin/issues/comments/73494489",
    "html_url": "https://github.com/bitcoin/bitcoin/pull/5773#issuecomment-73494489",
    "issue_url": "https://api.github.com/repos/bitcoin/bitcoin/issues/5773",
    "id": 73494489,
    "node_id": "MDEyOklzc3VlQ29tbWVudDczNDk0NDg5",
    "user": {
      "login": "laanwj",
      "id": 126646,
      "node_id": "MDQ6VXNlcjEyNjY0Ng==",
      "avatar_url": "https://avatars.githubusercontent.com/u/126646?v=4",
      "gravatar_id": "",
      "url": "https://api.github.com/users/laanwj",
      "html_url": "https://github.com/laanwj",
      "followers_url": "https://api.github.com/users/laanwj/followers",
      "following_url": "https://api.github.com/users/laanwj/following{/other_user}",
      "gists_url": "https://api.github.com/users/laanwj/gists{/gist_id}",
      "starred_url": "https://api.github.com/users/laanwj/starred{/owner}{/repo}",
      "subscriptions_url": "https://api.github.com/users/laanwj/subscriptions",
      "organizations_url": "https://api.github.com/users/laanwj/orgs",
      "repos_url": "https://api.github.com/users/laanwj/repos",
      "events_url": "https://api.github.com/users/laanwj/events{/privacy}",
      "received_events_url": "https://api.github.com/users/laanwj/received_events",
      "type": "User",
      "site_admin": false
    },
    "created_at": "2015-02-09T11:31:12Z",
    "updated_at": "2015-02-09T11:31:12Z",
    "author_association": "MEMBER",
    "body_html": "<p dir=\"auto\">Concept ACK, but you'll need to make sure this compiles and works too.</p>",
    "body_text": "Concept ACK, but you'll need to make sure this compiles and works too.",
    "body": "Concept ACK, but you'll need to make sure this compiles and works too.\n",
    "reactions": {
      "url": "https://api.github.com/repos/bitcoin/bitcoin/issues/comments/73494489/reactions",
      "total_count": 0,
      "+1": 0,
      "-1": 0,
      "laugh": 0,
      "hooray": 0,
      "confused": 0,
      "heart": 0,
      "rocket": 0,
      "eyes": 0
    },
    "performed_via_github_app": null
  },
  {
    "url": "https://api.github.com/repos/bitcoin/bitcoin/issues/comments/73524737",
    "html_url": "https://github.com/bitcoin/bitcoin/pull/5773#issuecomment-73524737",
    "issue_url": "https://api.github.com/repos/bitcoin/bitcoin/issues/5773",
    "id": 73524737,
    "node_id": "MDEyOklzc3VlQ29tbWVudDczNTI0NzM3",
    "user": {
      "login": "charlescharles",
      "id": 4009487,
      "node_id": "MDQ6VXNlcjQwMDk0ODc=",
      "avatar_url": "https://avatars.githubusercontent.com/u/4009487?v=4",
      "gravatar_id": "",
      "url": "https://api.github.com/users/charlescharles",
      "html_url": "https://github.com/charlescharles",
      "followers_url": "https://api.github.com/users/charlescharles/followers",
      "following_url": "https://api.github.com/users/charlescharles/following{/other_user}",
      "gists_url": "https://api.github.com/users/charlescharles/gists{/gist_id}",
      "starred_url": "https://api.github.com/users/charlescharles/starred{/owner}{/repo}",
      "subscriptions_url": "https://api.github.com/users/charlescharles/subscriptions",
      "organizations_url": "https://api.github.com/users/charlescharles/orgs",
      "repos_url": "https://api.github.com/users/charlescharles/repos",
      "events_url": "https://api.github.com/users/charlescharles/events{/privacy}",
      "received_events_url": "https://api.github.com/users/charlescharles/received_events",
      "type": "User",
      "site_admin": false
    },
    "created_at": "2015-02-09T15:14:08Z",
    "updated_at": "2015-02-09T15:14:08Z",
    "author_association": "CONTRIBUTOR",
    "body_html": "<p dir=\"auto\">Fixed, it compiles for me now. Sorry about that; it seemed like a trivial change and I was careless.</p>",
    "body_text": "Fixed, it compiles for me now. Sorry about that; it seemed like a trivial change and I was careless.",
    "body": "Fixed, it compiles for me now. Sorry about that; it seemed like a trivial change and I was careless.\n",
    "reactions": {
      "url": "https://api.github.com/repos/bitcoin/bitcoin/issues/comments/73524737/reactions",
      "total_count": 0,
      "+1": 0,
      "-1": 0,
      "laugh": 0,
      "hooray": 0,
      "confused": 0,
      "heart": 0,
      "rocket": 0,
      "eyes": 0
    },
    "performed_via_github_app": null
  },
  {
    "url": "https://api.github.com/repos/bitcoin/bitcoin/issues/comments/73683539",
    "html_url": "https://github.com/bitcoin/bitcoin/pull/5773#issuecomment-73683539",
    "issue_url": "https://api.github.com/repos/bitcoin/bitcoin/issues/5773",
    "id": 73683539,
    "node_id": "MDEyOklzc3VlQ29tbWVudDczNjgzNTM5",
    "user": {
      "login": "laanwj",
      "id": 126646,
      "node_id": "MDQ6VXNlcjEyNjY0Ng==",
      "avatar_url": "https://avatars.githubusercontent.com/u/126646?v=4",
      "gravatar_id": "",
      "url": "https://api.github.com/users/laanwj",
      "html_url": "https://github.com/laanwj",
      "followers_url": "https://api.github.com/users/laanwj/followers",
      "following_url": "https://api.github.com/users/laanwj/following{/other_user}",
      "gists_url": "https://api.github.com/users/laanwj/gists{/gist_id}",
      "starred_url": "https://api.github.com/users/laanwj/starred{/owner}{/repo}",
      "subscriptions_url": "https://api.github.com/users/laanwj/subscriptions",
      "organizations_url": "https://api.github.com/users/laanwj/orgs",
      "repos_url": "https://api.github.com/users/laanwj/repos",
      "events_url": "https://api.github.com/users/laanwj/events{/privacy}",
      "received_events_url": "https://api.github.com/users/laanwj/received_events",
      "type": "User",
      "site_admin": false
    },
    "created_at": "2015-02-10T11:18:10Z",
    "updated_at": "2015-02-10T11:18:10Z",
    "author_association": "MEMBER",
    "body_html": "<p dir=\"auto\">ACK, can go into trival branch <a class=\"user-mention notranslate\" data-hovercard-type=\"user\" data-hovercard-url=\"/users/theuni/hovercard\" data-octo-click=\"hovercard-link-click\" data-octo-dimensions=\"link_type:self\" href=\"https://github.com/theuni\">@theuni</a></p>",
    "body_text": "ACK, can go into trival branch @theuni",
    "body": "ACK, can go into trival branch @theuni\n",
    "reactions": {
      "url": "https://api.github.com/repos/bitcoin/bitcoin/issues/comments/73683539/reactions",
      "total_count": 0,
      "+1": 0,
      "-1": 0,
      "laugh": 0,
      "hooray": 0,
      "confused": 0,
      "heart": 0,
      "rocket": 0,
      "eyes": 0
    },
    "performed_via_github_app": null
  },
  {
    "url": "https://api.github.com/repos/bitcoin/bitcoin/issues/comments/74507748",
    "html_url": "https://github.com/bitcoin/bitcoin/pull/5773#issuecomment-74507748",
    "issue_url": "https://api.github.com/repos/bitcoin/bitcoin/issues/5773",
    "id": 74507748,
    "node_id": "MDEyOklzc3VlQ29tbWVudDc0NTA3NzQ4",
    "user": {
      "login": "fanquake",
      "id": 863730,
      "node_id": "MDQ6VXNlcjg2MzczMA==",
      "avatar_url": "https://avatars.githubusercontent.com/u/863730?v=4",
      "gravatar_id": "",
      "url": "https://api.github.com/users/fanquake",
      "html_url": "https://github.com/fanquake",
      "followers_url": "https://api.github.com/users/fanquake/followers",
      "following_url": "https://api.github.com/users/fanquake/following{/other_user}",
      "gists_url": "https://api.github.com/users/fanquake/gists{/gist_id}",
      "starred_url": "https://api.github.com/users/fanquake/starred{/owner}{/repo}",
      "subscriptions_url": "https://api.github.com/users/fanquake/subscriptions",
      "organizations_url": "https://api.github.com/users/fanquake/orgs",
      "repos_url": "https://api.github.com/users/fanquake/repos",
      "events_url": "https://api.github.com/users/fanquake/events{/privacy}",
      "received_events_url": "https://api.github.com/users/fanquake/received_events",
      "type": "User",
      "site_admin": false
    },
    "created_at": "2015-02-16T13:26:38Z",
    "updated_at": "2015-02-16T13:26:38Z",
    "author_association": "MEMBER",
    "body_html": "<p dir=\"auto\">ACK</p>",
    "body_text": "ACK",
    "body": "ACK\n",
    "reactions": {
      "url": "https://api.github.com/repos/bitcoin/bitcoin/issues/comments/74507748/reactions",
      "total_count": 0,
      "+1": 0,
      "-1": 0,
      "laugh": 0,
      "hooray": 0,
      "confused": 0,
      "heart": 0,
      "rocket": 0,
      "eyes": 0
    },
    "performed_via_github_app": null
  },
  {
    "url": "https://api.github.com/repos/bitcoin/bitcoin/issues/comments/74547111",
    "html_url": "https://github.com/bitcoin/bitcoin/pull/5773#issuecomment-74547111",
    "issue_url": "https://api.github.com/repos/bitcoin/bitcoin/issues/5773",
    "id": 74547111,
    "node_id": "MDEyOklzc3VlQ29tbWVudDc0NTQ3MTEx",
    "user": {
      "login": "theuni",
      "id": 417043,
      "node_id": "MDQ6VXNlcjQxNzA0Mw==",
      "avatar_url": "https://avatars.githubusercontent.com/u/417043?v=4",
      "gravatar_id": "",
      "url": "https://api.github.com/users/theuni",
      "html_url": "https://github.com/theuni",
      "followers_url": "https://api.github.com/users/theuni/followers",
      "following_url": "https://api.github.com/users/theuni/following{/other_user}",
      "gists_url": "https://api.github.com/users/theuni/gists{/gist_id}",
      "starred_url": "https://api.github.com/users/theuni/starred{/owner}{/repo}",
      "subscriptions_url": "https://api.github.com/users/theuni/subscriptions",
      "organizations_url": "https://api.github.com/users/theuni/orgs",
      "repos_url": "https://api.github.com/users/theuni/repos",
      "events_url": "https://api.github.com/users/theuni/events{/privacy}",
      "received_events_url": "https://api.github.com/users/theuni/received_events",
      "type": "User",
      "site_admin": false
    },
    "created_at": "2015-02-16T17:49:23Z",
    "updated_at": "2015-02-16T17:49:23Z",
    "author_association": "MEMBER",
    "body_html": "<p dir=\"auto\">Merged to trivial-next, this can be closed.</p>",
    "body_text": "Merged to trivial-next, this can be closed.",
    "body": "Merged to trivial-next, this can be closed.\n",
    "reactions": {
      "url": "https://api.github.com/repos/bitcoin/bitcoin/issues/comments/74547111/reactions",
      "total_count": 0,
      "+1": 0,
      "-1": 0,
      "laugh": 0,
      "hooray": 0,
      "confused": 0,
      "heart": 0,
      "rocket": 0,
      "eyes": 0
    },
    "performed_via_github_app": null
  },
  {
    "url": "https://api.github.com/repos/bitcoin/bitcoin/issues/comments/74551900",
    "html_url": "https://github.com/bitcoin/bitcoin/pull/5773#issuecomment-74551900",
    "issue_url": "https://api.github.com/repos/bitcoin/bitcoin/issues/5773",
    "id": 74551900,
    "node_id": "MDEyOklzc3VlQ29tbWVudDc0NTUxOTAw",
    "user": {
      "login": "charlescharles",
      "id": 4009487,
      "node_id": "MDQ6VXNlcjQwMDk0ODc=",
      "avatar_url": "https://avatars.githubusercontent.com/u/4009487?v=4",
      "gravatar_id": "",
      "url": "https://api.github.com/users/charlescharles",
      "html_url": "https://github.com/charlescharles",
      "followers_url": "https://api.github.com/users/charlescharles/followers",
      "following_url": "https://api.github.com/users/charlescharles/following{/other_user}",
      "gists_url": "https://api.github.com/users/charlescharles/gists{/gist_id}",
      "starred_url": "https://api.github.com/users/charlescharles/starred{/owner}{/repo}",
      "subscriptions_url": "https://api.github.com/users/charlescharles/subscriptions",
      "organizations_url": "https://api.github.com/users/charlescharles/orgs",
      "repos_url": "https://api.github.com/users/charlescharles/repos",
      "events_url": "https://api.github.com/users/charlescharles/events{/privacy}",
      "received_events_url": "https://api.github.com/users/charlescharles/received_events",
      "type": "User",
      "site_admin": false
    },
    "created_at": "2015-02-16T18:23:18Z",
    "updated_at": "2015-02-16T18:23:18Z",
    "author_association": "CONTRIBUTOR",
    "body_html": "<p dir=\"auto\">thanks!</p>",
    "body_text": "thanks!",
    "body": "thanks!\n",
    "reactions": {
      "url": "https://api.github.com/repos/bitcoin/bitcoin/issues/comments/74551900/reactions",
      "total_count": 0,
      "+1": 0,
      "-1": 0,
      "laugh": 0,
      "hooray": 0,
      "confused": 0,
      "heart": 0,
      "rocket": 0,
      "eyes": 0
    },
    "performed_via_github_app": null
  }
]
