{
  "url": "https://api.github.com/repos/bitcoin/bitcoin/issues/5462",
  "repository_url": "https://api.github.com/repos/bitcoin/bitcoin",
  "labels_url": "https://api.github.com/repos/bitcoin/bitcoin/issues/5462/labels{/name}",
  "comments_url": "https://api.github.com/repos/bitcoin/bitcoin/issues/5462/comments",
  "events_url": "https://api.github.com/repos/bitcoin/bitcoin/issues/5462/events",
  "html_url": "https://github.com/bitcoin/bitcoin/issues/5462",
  "id": 51723735,
  "node_id": "MDU6SXNzdWU1MTcyMzczNQ==",
  "number": 5462,
  "title": "Node continues running after LevelDB throws an error",
  "user": {
    "login": "gmaxwell",
    "id": 858454,
    "node_id": "MDQ6VXNlcjg1ODQ1NA==",
    "avatar_url": "https://avatars.githubusercontent.com/u/858454?v=4",
    "gravatar_id": "",
    "url": "https://api.github.com/users/gmaxwell",
    "html_url": "https://github.com/gmaxwell",
    "followers_url": "https://api.github.com/users/gmaxwell/followers",
    "following_url": "https://api.github.com/users/gmaxwell/following{/other_user}",
    "gists_url": "https://api.github.com/users/gmaxwell/gists{/gist_id}",
    "starred_url": "https://api.github.com/users/gmaxwell/starred{/owner}{/repo}",
    "subscriptions_url": "https://api.github.com/users/gmaxwell/subscriptions",
    "organizations_url": "https://api.github.com/users/gmaxwell/orgs",
    "repos_url": "https://api.github.com/users/gmaxwell/repos",
    "events_url": "https://api.github.com/users/gmaxwell/events{/privacy}",
    "received_events_url": "https://api.github.com/users/gmaxwell/received_events",
    "type": "User",
    "site_admin": false
  },
  "labels": [

  ],
  "state": "closed",
  "locked": true,
  "assignee": {
    "login": "gmaxwell",
    "id": 858454,
    "node_id": "MDQ6VXNlcjg1ODQ1NA==",
    "avatar_url": "https://avatars.githubusercontent.com/u/858454?v=4",
    "gravatar_id": "",
    "url": "https://api.github.com/users/gmaxwell",
    "html_url": "https://github.com/gmaxwell",
    "followers_url": "https://api.github.com/users/gmaxwell/followers",
    "following_url": "https://api.github.com/users/gmaxwell/following{/other_user}",
    "gists_url": "https://api.github.com/users/gmaxwell/gists{/gist_id}",
    "starred_url": "https://api.github.com/users/gmaxwell/starred{/owner}{/repo}",
    "subscriptions_url": "https://api.github.com/users/gmaxwell/subscriptions",
    "organizations_url": "https://api.github.com/users/gmaxwell/orgs",
    "repos_url": "https://api.github.com/users/gmaxwell/repos",
    "events_url": "https://api.github.com/users/gmaxwell/events{/privacy}",
    "received_events_url": "https://api.github.com/users/gmaxwell/received_events",
    "type": "User",
    "site_admin": false
  },
  "assignees": [
    {
      "login": "gmaxwell",
      "id": 858454,
      "node_id": "MDQ6VXNlcjg1ODQ1NA==",
      "avatar_url": "https://avatars.githubusercontent.com/u/858454?v=4",
      "gravatar_id": "",
      "url": "https://api.github.com/users/gmaxwell",
      "html_url": "https://github.com/gmaxwell",
      "followers_url": "https://api.github.com/users/gmaxwell/followers",
      "following_url": "https://api.github.com/users/gmaxwell/following{/other_user}",
      "gists_url": "https://api.github.com/users/gmaxwell/gists{/gist_id}",
      "starred_url": "https://api.github.com/users/gmaxwell/starred{/owner}{/repo}",
      "subscriptions_url": "https://api.github.com/users/gmaxwell/subscriptions",
      "organizations_url": "https://api.github.com/users/gmaxwell/orgs",
      "repos_url": "https://api.github.com/users/gmaxwell/repos",
      "events_url": "https://api.github.com/users/gmaxwell/events{/privacy}",
      "received_events_url": "https://api.github.com/users/gmaxwell/received_events",
      "type": "User",
      "site_admin": false
    }
  ],
  "milestone": {
    "url": "https://api.github.com/repos/bitcoin/bitcoin/milestones/14",
    "html_url": "https://github.com/bitcoin/bitcoin/milestone/14",
    "labels_url": "https://api.github.com/repos/bitcoin/bitcoin/milestones/14/labels",
    "id": 505738,
    "node_id": "MDk6TWlsZXN0b25lNTA1NzM4",
    "number": 14,
    "title": "0.10.0",
    "description": "",
    "creator": {
      "login": "laanwj",
      "id": 126646,
      "node_id": "MDQ6VXNlcjEyNjY0Ng==",
      "avatar_url": "https://avatars.githubusercontent.com/u/126646?v=4",
      "gravatar_id": "",
      "url": "https://api.github.com/users/laanwj",
      "html_url": "https://github.com/laanwj",
      "followers_url": "https://api.github.com/users/laanwj/followers",
      "following_url": "https://api.github.com/users/laanwj/following{/other_user}",
      "gists_url": "https://api.github.com/users/laanwj/gists{/gist_id}",
      "starred_url": "https://api.github.com/users/laanwj/starred{/owner}{/repo}",
      "subscriptions_url": "https://api.github.com/users/laanwj/subscriptions",
      "organizations_url": "https://api.github.com/users/laanwj/orgs",
      "repos_url": "https://api.github.com/users/laanwj/repos",
      "events_url": "https://api.github.com/users/laanwj/events{/privacy}",
      "received_events_url": "https://api.github.com/users/laanwj/received_events",
      "type": "User",
      "site_admin": false
    },
    "open_issues": 0,
    "closed_issues": 134,
    "state": "closed",
    "created_at": "2013-12-05T10:34:42Z",
    "updated_at": "2015-12-03T11:08:31Z",
    "due_on": null,
    "closed_at": "2015-12-03T11:08:31Z"
  },
  "comments": 4,
  "created_at": "2014-12-11T18:56:56Z",
  "updated_at": "2021-09-08T12:48:18Z",
  "closed_at": "2015-01-12T10:38:55Z",
  "author_association": "CONTRIBUTOR",
  "active_lock_reason": "resolved",
  "body_html": "<p dir=\"auto\">I observed a node w/ git master at  continuing to run after encountering a leveldb error:</p>\n<p dir=\"auto\">2014-12-11 03:48:57 LevelDB read failure: Corruption: block checksum mismatch<br>\n2014-12-11 03:48:57 Corruption: block checksum mismatch</p>\n<hr>\n<p dir=\"auto\">EXCEPTION: 13leveldb_error<br>\nDatabase corrupted<br>\nbitcoin in ProcessMessages()<br>\n...<br>\n2014-12-11 03:48:57 ProcessMessage(block, 162248 bytes) FAILED peer=1<br>\n2014-12-11 03:48:58 UpdateTip: new best=0000000000000000053cc9e138c09d9923bab3c1274bbbab762a2f5d5512c767  height=326925  log2_work=81.217819  tx=49707296  date=2014-10-25 12:21:19 progress=0.879732  cache=66628</p>\n<p dir=\"auto\">We should shut down immediately after database errors to avoid a repeat of the pre-0.8 forking behavior on BDB-error. If an \"impossible\" database error happens, better to assume we're busted and shut down than potentially start creating a chain fork.</p>\n<p dir=\"auto\">(Looking into it, just opening the issue so this isn't forgotten. Should be fixed before release if at all possible.)</p>",
  "body_text": "I observed a node w/ git master at  continuing to run after encountering a leveldb error:\n2014-12-11 03:48:57 LevelDB read failure: Corruption: block checksum mismatch\n2014-12-11 03:48:57 Corruption: block checksum mismatch\n\nEXCEPTION: 13leveldb_error\nDatabase corrupted\nbitcoin in ProcessMessages()\n...\n2014-12-11 03:48:57 ProcessMessage(block, 162248 bytes) FAILED peer=1\n2014-12-11 03:48:58 UpdateTip: new best=0000000000000000053cc9e138c09d9923bab3c1274bbbab762a2f5d5512c767  height=326925  log2_work=81.217819  tx=49707296  date=2014-10-25 12:21:19 progress=0.879732  cache=66628\nWe should shut down immediately after database errors to avoid a repeat of the pre-0.8 forking behavior on BDB-error. If an \"impossible\" database error happens, better to assume we're busted and shut down than potentially start creating a chain fork.\n(Looking into it, just opening the issue so this isn't forgotten. Should be fixed before release if at all possible.)",
  "body": "I observed a node w/ git master at  continuing to run after encountering a leveldb error:\n\n2014-12-11 03:48:57 LevelDB read failure: Corruption: block checksum mismatch\n2014-12-11 03:48:57 Corruption: block checksum mismatch\n\n---\n\nEXCEPTION: 13leveldb_error  \nDatabase corrupted  \nbitcoin in ProcessMessages()\n...\n2014-12-11 03:48:57 ProcessMessage(block, 162248 bytes) FAILED peer=1\n2014-12-11 03:48:58 UpdateTip: new best=0000000000000000053cc9e138c09d9923bab3c1274bbbab762a2f5d5512c767  height=326925  log2_work=81.217819  tx=49707296  date=2014-10-25 12:21:19 progress=0.879732  cache=66628\n\nWe should shut down immediately after database errors to avoid a repeat of the pre-0.8 forking behavior on BDB-error. If an \"impossible\" database error happens, better to assume we're busted and shut down than potentially start creating a chain fork.\n\n(Looking into it, just opening the issue so this isn't forgotten. Should be fixed before release if at all possible.)\n",
  "closed_by": {
    "login": "laanwj",
    "id": 126646,
    "node_id": "MDQ6VXNlcjEyNjY0Ng==",
    "avatar_url": "https://avatars.githubusercontent.com/u/126646?v=4",
    "gravatar_id": "",
    "url": "https://api.github.com/users/laanwj",
    "html_url": "https://github.com/laanwj",
    "followers_url": "https://api.github.com/users/laanwj/followers",
    "following_url": "https://api.github.com/users/laanwj/following{/other_user}",
    "gists_url": "https://api.github.com/users/laanwj/gists{/gist_id}",
    "starred_url": "https://api.github.com/users/laanwj/starred{/owner}{/repo}",
    "subscriptions_url": "https://api.github.com/users/laanwj/subscriptions",
    "organizations_url": "https://api.github.com/users/laanwj/orgs",
    "repos_url": "https://api.github.com/users/laanwj/repos",
    "events_url": "https://api.github.com/users/laanwj/events{/privacy}",
    "received_events_url": "https://api.github.com/users/laanwj/received_events",
    "type": "User",
    "site_admin": false
  },
  "reactions": {
    "url": "https://api.github.com/repos/bitcoin/bitcoin/issues/5462/reactions",
    "total_count": 0,
    "+1": 0,
    "-1": 0,
    "laugh": 0,
    "hooray": 0,
    "confused": 0,
    "heart": 0,
    "rocket": 0,
    "eyes": 0
  },
  "timeline_url": "https://api.github.com/repos/bitcoin/bitcoin/issues/5462/timeline",
  "performed_via_github_app": null,
  "state_reason": "completed"
}
