{
  "url": "https://api.github.com/repos/bitcoin/bitcoin/issues/1355",
  "repository_url": "https://api.github.com/repos/bitcoin/bitcoin",
  "labels_url": "https://api.github.com/repos/bitcoin/bitcoin/issues/1355/labels{/name}",
  "comments_url": "https://api.github.com/repos/bitcoin/bitcoin/issues/1355/comments",
  "events_url": "https://api.github.com/repos/bitcoin/bitcoin/issues/1355/events",
  "html_url": "https://github.com/bitcoin/bitcoin/pull/1355",
  "id": 4645858,
  "node_id": "MDExOlB1bGxSZXF1ZXN0MTM4MzExNA==",
  "number": 1355,
  "title": "getblocktemplate: longpolling support",
  "user": {
    "login": "luke-jr",
    "id": 1095675,
    "node_id": "MDQ6VXNlcjEwOTU2NzU=",
    "avatar_url": "https://avatars.githubusercontent.com/u/1095675?v=4",
    "gravatar_id": "",
    "url": "https://api.github.com/users/luke-jr",
    "html_url": "https://github.com/luke-jr",
    "followers_url": "https://api.github.com/users/luke-jr/followers",
    "following_url": "https://api.github.com/users/luke-jr/following{/other_user}",
    "gists_url": "https://api.github.com/users/luke-jr/gists{/gist_id}",
    "starred_url": "https://api.github.com/users/luke-jr/starred{/owner}{/repo}",
    "subscriptions_url": "https://api.github.com/users/luke-jr/subscriptions",
    "organizations_url": "https://api.github.com/users/luke-jr/orgs",
    "repos_url": "https://api.github.com/users/luke-jr/repos",
    "events_url": "https://api.github.com/users/luke-jr/events{/privacy}",
    "received_events_url": "https://api.github.com/users/luke-jr/received_events",
    "type": "User",
    "site_admin": false
  },
  "labels": [

  ],
  "state": "closed",
  "locked": true,
  "assignee": null,
  "assignees": [

  ],
  "milestone": null,
  "comments": 14,
  "created_at": "2012-05-18T17:15:08Z",
  "updated_at": "2021-09-08T10:11:37Z",
  "closed_at": "2013-07-16T23:00:54Z",
  "author_association": "MEMBER",
  "active_lock_reason": "resolved",
  "draft": false,
  "pull_request": {
    "url": "https://api.github.com/repos/bitcoin/bitcoin/pulls/1355",
    "html_url": "https://github.com/bitcoin/bitcoin/pull/1355",
    "diff_url": "https://github.com/bitcoin/bitcoin/pull/1355.diff",
    "patch_url": "https://github.com/bitcoin/bitcoin/pull/1355.patch",
    "merged_at": null
  },
  "body_html": "<p dir=\"auto\">Built on top of <a class=\"issue-link js-issue-link\" data-error-text=\"Failed to load title\" data-id=\"3629773\" data-permission-text=\"Title is private\" data-url=\"https://github.com/bitcoin/bitcoin/issues/936\" data-hovercard-type=\"pull_request\" data-hovercard-url=\"/bitcoin/bitcoin/pull/936/hovercard\" href=\"https://github.com/bitcoin/bitcoin/pull/936\">#936</a>, this adds support for getblocktemplate longpolling to bitcoind.</p>",
  "body_text": "Built on top of #936, this adds support for getblocktemplate longpolling to bitcoind.",
  "body": "Built on top of #936, this adds support for getblocktemplate longpolling to bitcoind.\n",
  "closed_by": {
    "login": "luke-jr",
    "id": 1095675,
    "node_id": "MDQ6VXNlcjEwOTU2NzU=",
    "avatar_url": "https://avatars.githubusercontent.com/u/1095675?v=4",
    "gravatar_id": "",
    "url": "https://api.github.com/users/luke-jr",
    "html_url": "https://github.com/luke-jr",
    "followers_url": "https://api.github.com/users/luke-jr/followers",
    "following_url": "https://api.github.com/users/luke-jr/following{/other_user}",
    "gists_url": "https://api.github.com/users/luke-jr/gists{/gist_id}",
    "starred_url": "https://api.github.com/users/luke-jr/starred{/owner}{/repo}",
    "subscriptions_url": "https://api.github.com/users/luke-jr/subscriptions",
    "organizations_url": "https://api.github.com/users/luke-jr/orgs",
    "repos_url": "https://api.github.com/users/luke-jr/repos",
    "events_url": "https://api.github.com/users/luke-jr/events{/privacy}",
    "received_events_url": "https://api.github.com/users/luke-jr/received_events",
    "type": "User",
    "site_admin": false
  },
  "reactions": {
    "url": "https://api.github.com/repos/bitcoin/bitcoin/issues/1355/reactions",
    "total_count": 0,
    "+1": 0,
    "-1": 0,
    "laugh": 0,
    "hooray": 0,
    "confused": 0,
    "heart": 0,
    "rocket": 0,
    "eyes": 0
  },
  "timeline_url": "https://api.github.com/repos/bitcoin/bitcoin/issues/1355/timeline",
  "performed_via_github_app": null,
  "state_reason": null
}
