[
  {
    "url": "https://api.github.com/repos/bitcoin/bitcoin/issues/comments/426890206",
    "html_url": "https://github.com/bitcoin/bitcoin/pull/14383#issuecomment-426890206",
    "issue_url": "https://api.github.com/repos/bitcoin/bitcoin/issues/14383",
    "id": 426890206,
    "node_id": "MDEyOklzc3VlQ29tbWVudDQyNjg5MDIwNg==",
    "user": {
      "login": "DrahtBot",
      "id": 39886733,
      "node_id": "MDQ6VXNlcjM5ODg2NzMz",
      "avatar_url": "https://avatars.githubusercontent.com/u/39886733?v=4",
      "gravatar_id": "",
      "url": "https://api.github.com/users/DrahtBot",
      "html_url": "https://github.com/DrahtBot",
      "followers_url": "https://api.github.com/users/DrahtBot/followers",
      "following_url": "https://api.github.com/users/DrahtBot/following{/other_user}",
      "gists_url": "https://api.github.com/users/DrahtBot/gists{/gist_id}",
      "starred_url": "https://api.github.com/users/DrahtBot/starred{/owner}{/repo}",
      "subscriptions_url": "https://api.github.com/users/DrahtBot/subscriptions",
      "organizations_url": "https://api.github.com/users/DrahtBot/orgs",
      "repos_url": "https://api.github.com/users/DrahtBot/repos",
      "events_url": "https://api.github.com/users/DrahtBot/events{/privacy}",
      "received_events_url": "https://api.github.com/users/DrahtBot/received_events",
      "type": "User",
      "site_admin": false
    },
    "created_at": "2018-10-04T05:30:14Z",
    "updated_at": "2018-10-04T05:30:14Z",
    "author_association": "CONTRIBUTOR",
    "body_html": "\n<table role=\"table\">\n<thead>\n<tr>\n<th>Coverage</th>\n<th>Change (<a href=\"https://drahtbot.github.io/reports/coverage/bitcoin/bitcoin/14383/total.coverage/index.html\" rel=\"nofollow\">pull 14383</a>)</th>\n<th>Reference (<a href=\"https://drahtbot.github.io/reports/coverage/bitcoin/bitcoin/master/total.coverage/index.html\" rel=\"nofollow\">master</a>)</th>\n</tr>\n</thead>\n<tbody>\n<tr>\n<td>Lines</td>\n<td>-0.0132 %</td>\n<td>87.0471 %</td>\n</tr>\n<tr>\n<td>Functions</td>\n<td>+0.0000 %</td>\n<td>84.1130 %</td>\n</tr>\n<tr>\n<td>Branches</td>\n<td>-0.0104 %</td>\n<td>51.5403 %</td>\n</tr>\n</tbody>\n</table>",
    "body_text": "Coverage\nChange (pull 14383)\nReference (master)\n\n\n\n\nLines\n-0.0132 %\n87.0471 %\n\n\nFunctions\n+0.0000 %\n84.1130 %\n\n\nBranches\n-0.0104 %\n51.5403 %",
    "body": "<!--32850dd3fdea838b4049e64f46995ea2-->\n| Coverage  | Change ([pull 14383](https://drahtbot.github.io/reports/coverage/bitcoin/bitcoin/14383/total.coverage/index.html)) | Reference ([master](https://drahtbot.github.io/reports/coverage/bitcoin/bitcoin/master/total.coverage/index.html))   |\n|-----------|-------------------------|--------------------|\n| Lines     | -0.0132 %            | 87.0471 %        |\n| Functions | +0.0000 %            | 84.1130 %        |\n| Branches  | -0.0104 %            | 51.5403 %        |\n",
    "reactions": {
      "url": "https://api.github.com/repos/bitcoin/bitcoin/issues/comments/426890206/reactions",
      "total_count": 0,
      "+1": 0,
      "-1": 0,
      "laugh": 0,
      "hooray": 0,
      "confused": 0,
      "heart": 0,
      "rocket": 0,
      "eyes": 0
    },
    "performed_via_github_app": null
  },
  {
    "url": "https://api.github.com/repos/bitcoin/bitcoin/issues/comments/427517324",
    "html_url": "https://github.com/bitcoin/bitcoin/pull/14383#issuecomment-427517324",
    "issue_url": "https://api.github.com/repos/bitcoin/bitcoin/issues/14383",
    "id": 427517324,
    "node_id": "MDEyOklzc3VlQ29tbWVudDQyNzUxNzMyNA==",
    "user": {
      "login": "hebasto",
      "id": 32963518,
      "node_id": "MDQ6VXNlcjMyOTYzNTE4",
      "avatar_url": "https://avatars.githubusercontent.com/u/32963518?v=4",
      "gravatar_id": "",
      "url": "https://api.github.com/users/hebasto",
      "html_url": "https://github.com/hebasto",
      "followers_url": "https://api.github.com/users/hebasto/followers",
      "following_url": "https://api.github.com/users/hebasto/following{/other_user}",
      "gists_url": "https://api.github.com/users/hebasto/gists{/gist_id}",
      "starred_url": "https://api.github.com/users/hebasto/starred{/owner}{/repo}",
      "subscriptions_url": "https://api.github.com/users/hebasto/subscriptions",
      "organizations_url": "https://api.github.com/users/hebasto/orgs",
      "repos_url": "https://api.github.com/users/hebasto/repos",
      "events_url": "https://api.github.com/users/hebasto/events{/privacy}",
      "received_events_url": "https://api.github.com/users/hebasto/received_events",
      "type": "User",
      "site_admin": false
    },
    "created_at": "2018-10-05T22:40:30Z",
    "updated_at": "2018-10-05T22:40:30Z",
    "author_association": "MEMBER",
    "body_html": "<p dir=\"auto\"><a class=\"user-mention notranslate\" data-hovercard-type=\"user\" data-hovercard-url=\"/users/Sjors/hovercard\" data-octo-click=\"hovercard-link-click\" data-octo-dimensions=\"link_type:self\" href=\"https://github.com/Sjors\">@Sjors</a><br>\nThank you for your review.</p>\n<blockquote>\n<p dir=\"auto\">I'm confused: why would you remove the debug window menu item?</p>\n</blockquote>\n<p dir=\"auto\">In the node mode:<br>\n</p><div class=\"Box Box--condensed my-2\">\n  <div class=\"Box-header f6\">\n    <p class=\"mb-0 text-bold\">\n      <a href=\"https://github.com/bitcoin/bitcoin/blob/fa7e9694e1ed5406036620d4bf0b72a2aa984578/src/qt/bitcoingui.cpp#L114-L117\">bitcoin/src/qt/bitcoingui.cpp</a>\n    </p>\n    <p class=\"mb-0 color-fg-muted\">\n        Lines 114 to 117\n      in\n      <a data-pjax=\"true\" class=\"commit-tease-sha Link--inTextBlock\" href=\"/bitcoin/bitcoin/commit/fa7e9694e1ed5406036620d4bf0b72a2aa984578\">fa7e969</a>\n    </p>\n  </div>\n  <div itemprop=\"text\" class=\"Box-body p-0 blob-wrapper blob-wrapper-embedded data\">\n    <table class=\"highlight tab-size mb-0 js-file-line-container\" data-tab-size=\"8\" data-paste-markdown-skip=\"\">\n\n        <tbody><tr class=\"border-0\">\n          <td id=\"L114\" class=\"blob-num border-0 px-3 py-0 color-bg-default\" data-line-number=\"114\"></td>\n          <td id=\"LC114\" class=\"blob-code border-0 px-3 py-0 color-bg-default blob-code-inner js-file-line\">         <span class=\"pl-c\"><span class=\"pl-c\">/*</span> When compiled without wallet or -disablewallet is provided,</span> </td>\n        </tr>\n\n        <tr class=\"border-0\">\n          <td id=\"L115\" class=\"blob-num border-0 px-3 py-0 color-bg-default\" data-line-number=\"115\"></td>\n          <td id=\"LC115\" class=\"blob-code border-0 px-3 py-0 color-bg-default blob-code-inner js-file-line\"> <span class=\"pl-c\">         * the central widget is the rpc console.</span> </td>\n        </tr>\n\n        <tr class=\"border-0\">\n          <td id=\"L116\" class=\"blob-num border-0 px-3 py-0 color-bg-default\" data-line-number=\"116\"></td>\n          <td id=\"LC116\" class=\"blob-code border-0 px-3 py-0 color-bg-default blob-code-inner js-file-line\"> <span class=\"pl-c\">         <span class=\"pl-c\">*/</span></span> </td>\n        </tr>\n\n        <tr class=\"border-0\">\n          <td id=\"L117\" class=\"blob-num border-0 px-3 py-0 color-bg-default\" data-line-number=\"117\"></td>\n          <td id=\"LC117\" class=\"blob-code border-0 px-3 py-0 color-bg-default blob-code-inner js-file-line\">         <span class=\"pl-c1\">setCentralWidget</span>(rpcConsole); </td>\n        </tr>\n    </tbody></table>\n  </div>\n</div>\n<p></p>\n<p dir=\"auto\">and<br>\n</p><div class=\"Box Box--condensed my-2\">\n  <div class=\"Box-header f6\">\n    <p class=\"mb-0 text-bold\">\n      <a href=\"https://github.com/bitcoin/bitcoin/blob/fa7e9694e1ed5406036620d4bf0b72a2aa984578/src/qt/bitcoingui.cpp#L343\">bitcoin/src/qt/bitcoingui.cpp</a>\n    </p>\n    <p class=\"mb-0 color-fg-muted\">\n         Line 343\n      in\n      <a data-pjax=\"true\" class=\"commit-tease-sha Link--inTextBlock\" href=\"/bitcoin/bitcoin/commit/fa7e9694e1ed5406036620d4bf0b72a2aa984578\">fa7e969</a>\n    </p>\n  </div>\n  <div itemprop=\"text\" class=\"Box-body p-0 blob-wrapper blob-wrapper-embedded data\">\n    <table class=\"highlight tab-size mb-0 js-file-line-container\" data-tab-size=\"8\" data-paste-markdown-skip=\"\">\n\n        <tbody><tr class=\"border-0\">\n          <td id=\"L343\" class=\"blob-num border-0 px-3 py-0 color-bg-default\" data-line-number=\"343\"></td>\n          <td id=\"LC343\" class=\"blob-code border-0 px-3 py-0 color-bg-default blob-code-inner js-file-line\"> <span class=\"pl-c1\">connect</span>(openRPCConsoleAction, &amp;QAction::triggered, <span class=\"pl-c1\">this</span>, &amp;BitcoinGUI::showDebugWindow); </td>\n        </tr>\n    </tbody></table>\n  </div>\n</div>\n<p></p>\n<p dir=\"auto\">effectively disable this slot:<br>\n</p><div class=\"Box Box--condensed my-2\">\n  <div class=\"Box-header f6\">\n    <p class=\"mb-0 text-bold\">\n      <a href=\"https://github.com/bitcoin/bitcoin/blob/fa7e9694e1ed5406036620d4bf0b72a2aa984578/src/qt/bitcoingui.cpp#L662-L668\">bitcoin/src/qt/bitcoingui.cpp</a>\n    </p>\n    <p class=\"mb-0 color-fg-muted\">\n        Lines 662 to 668\n      in\n      <a data-pjax=\"true\" class=\"commit-tease-sha Link--inTextBlock\" href=\"/bitcoin/bitcoin/commit/fa7e9694e1ed5406036620d4bf0b72a2aa984578\">fa7e969</a>\n    </p>\n  </div>\n  <div itemprop=\"text\" class=\"Box-body p-0 blob-wrapper blob-wrapper-embedded data\">\n    <table class=\"highlight tab-size mb-0 js-file-line-container\" data-tab-size=\"8\" data-paste-markdown-skip=\"\">\n\n        <tbody><tr class=\"border-0\">\n          <td id=\"L662\" class=\"blob-num border-0 px-3 py-0 color-bg-default\" data-line-number=\"662\"></td>\n          <td id=\"LC662\" class=\"blob-code border-0 px-3 py-0 color-bg-default blob-code-inner js-file-line\"> <span class=\"pl-k\">void</span> <span class=\"pl-en\">BitcoinGUI::showDebugWindow</span>() </td>\n        </tr>\n\n        <tr class=\"border-0\">\n          <td id=\"L663\" class=\"blob-num border-0 px-3 py-0 color-bg-default\" data-line-number=\"663\"></td>\n          <td id=\"LC663\" class=\"blob-code border-0 px-3 py-0 color-bg-default blob-code-inner js-file-line\"> { </td>\n        </tr>\n\n        <tr class=\"border-0\">\n          <td id=\"L664\" class=\"blob-num border-0 px-3 py-0 color-bg-default\" data-line-number=\"664\"></td>\n          <td id=\"LC664\" class=\"blob-code border-0 px-3 py-0 color-bg-default blob-code-inner js-file-line\">     rpcConsole-&gt;<span class=\"pl-c1\">showNormal</span>(); </td>\n        </tr>\n\n        <tr class=\"border-0\">\n          <td id=\"L665\" class=\"blob-num border-0 px-3 py-0 color-bg-default\" data-line-number=\"665\"></td>\n          <td id=\"LC665\" class=\"blob-code border-0 px-3 py-0 color-bg-default blob-code-inner js-file-line\">     rpcConsole-&gt;<span class=\"pl-c1\">show</span>(); </td>\n        </tr>\n\n        <tr class=\"border-0\">\n          <td id=\"L666\" class=\"blob-num border-0 px-3 py-0 color-bg-default\" data-line-number=\"666\"></td>\n          <td id=\"LC666\" class=\"blob-code border-0 px-3 py-0 color-bg-default blob-code-inner js-file-line\">     rpcConsole-&gt;<span class=\"pl-c1\">raise</span>(); </td>\n        </tr>\n\n        <tr class=\"border-0\">\n          <td id=\"L667\" class=\"blob-num border-0 px-3 py-0 color-bg-default\" data-line-number=\"667\"></td>\n          <td id=\"LC667\" class=\"blob-code border-0 px-3 py-0 color-bg-default blob-code-inner js-file-line\">     rpcConsole-&gt;<span class=\"pl-c1\">activateWindow</span>(); </td>\n        </tr>\n\n        <tr class=\"border-0\">\n          <td id=\"L668\" class=\"blob-num border-0 px-3 py-0 color-bg-default\" data-line-number=\"668\"></td>\n          <td id=\"LC668\" class=\"blob-code border-0 px-3 py-0 color-bg-default blob-code-inner js-file-line\"> } </td>\n        </tr>\n    </tbody></table>\n  </div>\n</div>\n<p></p>\n<p dir=\"auto\">The <code class=\"notranslate\">Debug window</code> menu item is already removed from the main window <code class=\"notranslate\">Help</code> menu for the node mode:<br>\n</p><div class=\"Box Box--condensed my-2\">\n  <div class=\"Box-header f6\">\n    <p class=\"mb-0 text-bold\">\n      <a href=\"https://github.com/bitcoin/bitcoin/blob/fa7e9694e1ed5406036620d4bf0b72a2aa984578/src/qt/bitcoingui.cpp#L400-L403\">bitcoin/src/qt/bitcoingui.cpp</a>\n    </p>\n    <p class=\"mb-0 color-fg-muted\">\n        Lines 400 to 403\n      in\n      <a data-pjax=\"true\" class=\"commit-tease-sha Link--inTextBlock\" href=\"/bitcoin/bitcoin/commit/fa7e9694e1ed5406036620d4bf0b72a2aa984578\">fa7e969</a>\n    </p>\n  </div>\n  <div itemprop=\"text\" class=\"Box-body p-0 blob-wrapper blob-wrapper-embedded data\">\n    <table class=\"highlight tab-size mb-0 js-file-line-container\" data-tab-size=\"8\" data-paste-markdown-skip=\"\">\n\n        <tbody><tr class=\"border-0\">\n          <td id=\"L400\" class=\"blob-num border-0 px-3 py-0 color-bg-default\" data-line-number=\"400\"></td>\n          <td id=\"LC400\" class=\"blob-code border-0 px-3 py-0 color-bg-default blob-code-inner js-file-line\"> <span class=\"pl-k\">if</span>(walletFrame) </td>\n        </tr>\n\n        <tr class=\"border-0\">\n          <td id=\"L401\" class=\"blob-num border-0 px-3 py-0 color-bg-default\" data-line-number=\"401\"></td>\n          <td id=\"LC401\" class=\"blob-code border-0 px-3 py-0 color-bg-default blob-code-inner js-file-line\"> { </td>\n        </tr>\n\n        <tr class=\"border-0\">\n          <td id=\"L402\" class=\"blob-num border-0 px-3 py-0 color-bg-default\" data-line-number=\"402\"></td>\n          <td id=\"LC402\" class=\"blob-code border-0 px-3 py-0 color-bg-default blob-code-inner js-file-line\">     help-&gt;<span class=\"pl-c1\">addAction</span>(openRPCConsoleAction); </td>\n        </tr>\n\n        <tr class=\"border-0\">\n          <td id=\"L403\" class=\"blob-num border-0 px-3 py-0 color-bg-default\" data-line-number=\"403\"></td>\n          <td id=\"LC403\" class=\"blob-code border-0 px-3 py-0 color-bg-default blob-code-inner js-file-line\"> } </td>\n        </tr>\n    </tbody></table>\n  </div>\n</div>\n<br>\nand this PR aims to align the system tray icon menu with the main window <code class=\"notranslate\">Help</code> menu.<p></p>",
    "body_text": "@Sjors\nThank you for your review.\n\nI'm confused: why would you remove the debug window menu item?\n\nIn the node mode:\n\n  \n    \n      bitcoin/src/qt/bitcoingui.cpp\n    \n    \n        Lines 114 to 117\n      in\n      fa7e969\n    \n  \n  \n    \n\n        \n          \n                   /* When compiled without wallet or -disablewallet is provided, \n        \n\n        \n          \n                    * the central widget is the rpc console. \n        \n\n        \n          \n                    */ \n        \n\n        \n          \n                   setCentralWidget(rpcConsole); \n        \n    \n  \n\n\nand\n\n  \n    \n      bitcoin/src/qt/bitcoingui.cpp\n    \n    \n         Line 343\n      in\n      fa7e969\n    \n  \n  \n    \n\n        \n          \n           connect(openRPCConsoleAction, &QAction::triggered, this, &BitcoinGUI::showDebugWindow); \n        \n    \n  \n\n\neffectively disable this slot:\n\n  \n    \n      bitcoin/src/qt/bitcoingui.cpp\n    \n    \n        Lines 662 to 668\n      in\n      fa7e969\n    \n  \n  \n    \n\n        \n          \n           void BitcoinGUI::showDebugWindow() \n        \n\n        \n          \n           { \n        \n\n        \n          \n               rpcConsole->showNormal(); \n        \n\n        \n          \n               rpcConsole->show(); \n        \n\n        \n          \n               rpcConsole->raise(); \n        \n\n        \n          \n               rpcConsole->activateWindow(); \n        \n\n        \n          \n           } \n        \n    \n  \n\n\nThe Debug window menu item is already removed from the main window Help menu for the node mode:\n\n  \n    \n      bitcoin/src/qt/bitcoingui.cpp\n    \n    \n        Lines 400 to 403\n      in\n      fa7e969\n    \n  \n  \n    \n\n        \n          \n           if(walletFrame) \n        \n\n        \n          \n           { \n        \n\n        \n          \n               help->addAction(openRPCConsoleAction); \n        \n\n        \n          \n           } \n        \n    \n  \n\n\nand this PR aims to align the system tray icon menu with the main window Help menu.",
    "body": "@Sjors \r\nThank you for your review.\r\n\r\n> I'm confused: why would you remove the debug window menu item?\r\n\r\nIn the node mode:\r\nhttps://github.com/bitcoin/bitcoin/blob/fa7e9694e1ed5406036620d4bf0b72a2aa984578/src/qt/bitcoingui.cpp#L114-L117\r\n\r\nand\r\nhttps://github.com/bitcoin/bitcoin/blob/fa7e9694e1ed5406036620d4bf0b72a2aa984578/src/qt/bitcoingui.cpp#L343\r\n\r\neffectively disable this slot:\r\nhttps://github.com/bitcoin/bitcoin/blob/fa7e9694e1ed5406036620d4bf0b72a2aa984578/src/qt/bitcoingui.cpp#L662-L668\r\n\r\nThe `Debug window` menu item is already removed from the main window `Help` menu for the node mode:\r\nhttps://github.com/bitcoin/bitcoin/blob/fa7e9694e1ed5406036620d4bf0b72a2aa984578/src/qt/bitcoingui.cpp#L400-L403\r\nand this PR aims to align the system tray icon menu with the main window `Help` menu.",
    "reactions": {
      "url": "https://api.github.com/repos/bitcoin/bitcoin/issues/comments/427517324/reactions",
      "total_count": 0,
      "+1": 0,
      "-1": 0,
      "laugh": 0,
      "hooray": 0,
      "confused": 0,
      "heart": 0,
      "rocket": 0,
      "eyes": 0
    },
    "performed_via_github_app": null
  },
  {
    "url": "https://api.github.com/repos/bitcoin/bitcoin/issues/comments/427529983",
    "html_url": "https://github.com/bitcoin/bitcoin/pull/14383#issuecomment-427529983",
    "issue_url": "https://api.github.com/repos/bitcoin/bitcoin/issues/14383",
    "id": 427529983,
    "node_id": "MDEyOklzc3VlQ29tbWVudDQyNzUyOTk4Mw==",
    "user": {
      "login": "hebasto",
      "id": 32963518,
      "node_id": "MDQ6VXNlcjMyOTYzNTE4",
      "avatar_url": "https://avatars.githubusercontent.com/u/32963518?v=4",
      "gravatar_id": "",
      "url": "https://api.github.com/users/hebasto",
      "html_url": "https://github.com/hebasto",
      "followers_url": "https://api.github.com/users/hebasto/followers",
      "following_url": "https://api.github.com/users/hebasto/following{/other_user}",
      "gists_url": "https://api.github.com/users/hebasto/gists{/gist_id}",
      "starred_url": "https://api.github.com/users/hebasto/starred{/owner}{/repo}",
      "subscriptions_url": "https://api.github.com/users/hebasto/subscriptions",
      "organizations_url": "https://api.github.com/users/hebasto/orgs",
      "repos_url": "https://api.github.com/users/hebasto/repos",
      "events_url": "https://api.github.com/users/hebasto/events{/privacy}",
      "received_events_url": "https://api.github.com/users/hebasto/received_events",
      "type": "User",
      "site_admin": false
    },
    "created_at": "2018-10-06T00:12:43Z",
    "updated_at": "2018-10-06T00:12:43Z",
    "author_association": "MEMBER",
    "body_html": "<p dir=\"auto\">All thoughts above are implemented.</p>\n<p dir=\"auto\">Master [wallet mode]<br>\n<a target=\"_blank\" rel=\"noopener noreferrer nofollow\" href=\"https://user-images.githubusercontent.com/32963518/46564983-c9ae3900-c913-11e8-901a-66690f97e3b2.png\"><img src=\"https://user-images.githubusercontent.com/32963518/46564983-c9ae3900-c913-11e8-901a-66690f97e3b2.png\" alt=\"tray_wallet_before\" style=\"max-width: 100%;\"></a></p>\n<p dir=\"auto\">This PR [wallet mode]<br>\n<a target=\"_blank\" rel=\"noopener noreferrer nofollow\" href=\"https://user-images.githubusercontent.com/32963518/46565132-2d853180-c915-11e8-858b-29aa8111f78e.png\"><img src=\"https://user-images.githubusercontent.com/32963518/46565132-2d853180-c915-11e8-858b-29aa8111f78e.png\" alt=\"tray_wallet_after2\" style=\"max-width: 100%;\"></a></p>\n<p dir=\"auto\">Master [node mode]<br>\n<a target=\"_blank\" rel=\"noopener noreferrer nofollow\" href=\"https://user-images.githubusercontent.com/32963518/46565157-61605700-c915-11e8-9764-f39274012c44.png\"><img src=\"https://user-images.githubusercontent.com/32963518/46565157-61605700-c915-11e8-9764-f39274012c44.png\" alt=\"tray_node_before\" style=\"max-width: 100%;\"></a></p>\n<p dir=\"auto\">This PR [node mode]<br>\n<a target=\"_blank\" rel=\"noopener noreferrer nofollow\" href=\"https://user-images.githubusercontent.com/32963518/46565161-67563800-c915-11e8-811b-4e6cc4a03774.png\"><img src=\"https://user-images.githubusercontent.com/32963518/46565161-67563800-c915-11e8-811b-4e6cc4a03774.png\" alt=\"tray_node_after2\" style=\"max-width: 100%;\"></a></p>\n<p dir=\"auto\"><a class=\"user-mention notranslate\" data-hovercard-type=\"user\" data-hovercard-url=\"/users/promag/hovercard\" data-octo-click=\"hovercard-link-click\" data-octo-dimensions=\"link_type:self\" href=\"https://github.com/promag\">@promag</a> <a class=\"user-mention notranslate\" data-hovercard-type=\"user\" data-hovercard-url=\"/users/Sjors/hovercard\" data-octo-click=\"hovercard-link-click\" data-octo-dimensions=\"link_type:self\" href=\"https://github.com/Sjors\">@Sjors</a> please re-review and test on macos.</p>",
    "body_text": "All thoughts above are implemented.\nMaster [wallet mode]\n\nThis PR [wallet mode]\n\nMaster [node mode]\n\nThis PR [node mode]\n\n@promag @Sjors please re-review and test on macos.",
    "body": "All thoughts above are implemented.\r\n\r\nMaster [wallet mode]\r\n![tray_wallet_before](https://user-images.githubusercontent.com/32963518/46564983-c9ae3900-c913-11e8-901a-66690f97e3b2.png)\r\n\r\nThis PR [wallet mode]\r\n![tray_wallet_after2](https://user-images.githubusercontent.com/32963518/46565132-2d853180-c915-11e8-858b-29aa8111f78e.png)\r\n\r\nMaster [node mode]\r\n![tray_node_before](https://user-images.githubusercontent.com/32963518/46565157-61605700-c915-11e8-9764-f39274012c44.png)\r\n\r\nThis PR [node mode]\r\n![tray_node_after2](https://user-images.githubusercontent.com/32963518/46565161-67563800-c915-11e8-811b-4e6cc4a03774.png)\r\n\r\n\r\n@promag @Sjors please re-review and test on macos.\r\n",
    "reactions": {
      "url": "https://api.github.com/repos/bitcoin/bitcoin/issues/comments/427529983/reactions",
      "total_count": 0,
      "+1": 0,
      "-1": 0,
      "laugh": 0,
      "hooray": 0,
      "confused": 0,
      "heart": 0,
      "rocket": 0,
      "eyes": 0
    },
    "performed_via_github_app": null
  },
  {
    "url": "https://api.github.com/repos/bitcoin/bitcoin/issues/comments/428083210",
    "html_url": "https://github.com/bitcoin/bitcoin/pull/14383#issuecomment-428083210",
    "issue_url": "https://api.github.com/repos/bitcoin/bitcoin/issues/14383",
    "id": 428083210,
    "node_id": "MDEyOklzc3VlQ29tbWVudDQyODA4MzIxMA==",
    "user": {
      "login": "fanquake",
      "id": 863730,
      "node_id": "MDQ6VXNlcjg2MzczMA==",
      "avatar_url": "https://avatars.githubusercontent.com/u/863730?v=4",
      "gravatar_id": "",
      "url": "https://api.github.com/users/fanquake",
      "html_url": "https://github.com/fanquake",
      "followers_url": "https://api.github.com/users/fanquake/followers",
      "following_url": "https://api.github.com/users/fanquake/following{/other_user}",
      "gists_url": "https://api.github.com/users/fanquake/gists{/gist_id}",
      "starred_url": "https://api.github.com/users/fanquake/starred{/owner}{/repo}",
      "subscriptions_url": "https://api.github.com/users/fanquake/subscriptions",
      "organizations_url": "https://api.github.com/users/fanquake/orgs",
      "repos_url": "https://api.github.com/users/fanquake/repos",
      "events_url": "https://api.github.com/users/fanquake/events{/privacy}",
      "received_events_url": "https://api.github.com/users/fanquake/received_events",
      "type": "User",
      "site_admin": false
    },
    "created_at": "2018-10-09T07:04:08Z",
    "updated_at": "2018-10-09T07:04:08Z",
    "author_association": "MEMBER",
    "body_html": "<p dir=\"auto\">tACK 36323e2<br>\nTested on macOS 10.14</p>\n<p dir=\"auto\">master (<a class=\"commit-link\" data-hovercard-type=\"commit\" data-hovercard-url=\"https://github.com/bitcoin/bitcoin/commit/1d1417430c829a0c21bf5a2fe4a5b2f592a9423f/hovercard\" href=\"https://github.com/bitcoin/bitcoin/commit/1d1417430c829a0c21bf5a2fe4a5b2f592a9423f\"><tt>1d14174</tt></a>):<br>\n<a target=\"_blank\" rel=\"noopener noreferrer nofollow\" href=\"https://user-images.githubusercontent.com/863730/46652006-c13c5380-cbdc-11e8-84f2-dd8185e00882.png\"><img src=\"https://user-images.githubusercontent.com/863730/46652006-c13c5380-cbdc-11e8-84f2-dd8185e00882.png\" alt=\"master\" style=\"max-width: 100%;\"></a></p>\n<p dir=\"auto\">master (<a class=\"commit-link\" data-hovercard-type=\"commit\" data-hovercard-url=\"https://github.com/bitcoin/bitcoin/commit/1d1417430c829a0c21bf5a2fe4a5b2f592a9423f/hovercard\" href=\"https://github.com/bitcoin/bitcoin/commit/1d1417430c829a0c21bf5a2fe4a5b2f592a9423f\"><tt>1d14174</tt></a>) -disablewallet:<br>\n<a target=\"_blank\" rel=\"noopener noreferrer nofollow\" href=\"https://user-images.githubusercontent.com/863730/46652025-c8fbf800-cbdc-11e8-9ae7-c84252a939d8.png\"><img src=\"https://user-images.githubusercontent.com/863730/46652025-c8fbf800-cbdc-11e8-9ae7-c84252a939d8.png\" alt=\"master -disablewallet\" style=\"max-width: 100%;\"></a></p>\n<p dir=\"auto\">PR (36323e2):<br>\n<a target=\"_blank\" rel=\"noopener noreferrer nofollow\" href=\"https://user-images.githubusercontent.com/863730/46652043-d3b68d00-cbdc-11e8-912b-e51833307915.png\"><img src=\"https://user-images.githubusercontent.com/863730/46652043-d3b68d00-cbdc-11e8-912b-e51833307915.png\" alt=\"pr\" style=\"max-width: 100%;\"></a></p>\n<p dir=\"auto\">PR (36323e2) -disablwallet:<br>\n<a target=\"_blank\" rel=\"noopener noreferrer nofollow\" href=\"https://user-images.githubusercontent.com/863730/46652055-dadd9b00-cbdc-11e8-8088-be9239b58fc5.png\"><img src=\"https://user-images.githubusercontent.com/863730/46652055-dadd9b00-cbdc-11e8-8088-be9239b58fc5.png\" alt=\"pr - disablewallet\" style=\"max-width: 100%;\"></a></p>",
    "body_text": "tACK 36323e2\nTested on macOS 10.14\nmaster (1d14174):\n\nmaster (1d14174) -disablewallet:\n\nPR (36323e2):\n\nPR (36323e2) -disablwallet:",
    "body": "tACK 36323e2\r\nTested on macOS 10.14\r\n\r\nmaster (1d14174):\r\n![master](https://user-images.githubusercontent.com/863730/46652006-c13c5380-cbdc-11e8-84f2-dd8185e00882.png)\r\n\r\nmaster (1d14174) -disablewallet:\r\n![master -disablewallet](https://user-images.githubusercontent.com/863730/46652025-c8fbf800-cbdc-11e8-9ae7-c84252a939d8.png)\r\n\r\nPR (36323e2):\r\n![pr](https://user-images.githubusercontent.com/863730/46652043-d3b68d00-cbdc-11e8-912b-e51833307915.png)\r\n\r\nPR (36323e2) -disablwallet:\r\n![pr - disablewallet](https://user-images.githubusercontent.com/863730/46652055-dadd9b00-cbdc-11e8-8088-be9239b58fc5.png)\r\n\r\n",
    "reactions": {
      "url": "https://api.github.com/repos/bitcoin/bitcoin/issues/comments/428083210/reactions",
      "total_count": 0,
      "+1": 0,
      "-1": 0,
      "laugh": 0,
      "hooray": 0,
      "confused": 0,
      "heart": 0,
      "rocket": 0,
      "eyes": 0
    },
    "performed_via_github_app": null
  },
  {
    "url": "https://api.github.com/repos/bitcoin/bitcoin/issues/comments/428084769",
    "html_url": "https://github.com/bitcoin/bitcoin/pull/14383#issuecomment-428084769",
    "issue_url": "https://api.github.com/repos/bitcoin/bitcoin/issues/14383",
    "id": 428084769,
    "node_id": "MDEyOklzc3VlQ29tbWVudDQyODA4NDc2OQ==",
    "user": {
      "login": "promag",
      "id": 3534524,
      "node_id": "MDQ6VXNlcjM1MzQ1MjQ=",
      "avatar_url": "https://avatars.githubusercontent.com/u/3534524?v=4",
      "gravatar_id": "",
      "url": "https://api.github.com/users/promag",
      "html_url": "https://github.com/promag",
      "followers_url": "https://api.github.com/users/promag/followers",
      "following_url": "https://api.github.com/users/promag/following{/other_user}",
      "gists_url": "https://api.github.com/users/promag/gists{/gist_id}",
      "starred_url": "https://api.github.com/users/promag/starred{/owner}{/repo}",
      "subscriptions_url": "https://api.github.com/users/promag/subscriptions",
      "organizations_url": "https://api.github.com/users/promag/orgs",
      "repos_url": "https://api.github.com/users/promag/repos",
      "events_url": "https://api.github.com/users/promag/events{/privacy}",
      "received_events_url": "https://api.github.com/users/promag/received_events",
      "type": "User",
      "site_admin": false
    },
    "created_at": "2018-10-09T07:10:44Z",
    "updated_at": "2018-10-09T07:10:44Z",
    "author_association": "MEMBER",
    "body_html": "<p dir=\"auto\">utACK 36323e2.</p>",
    "body_text": "utACK 36323e2.",
    "body": "utACK 36323e2.",
    "reactions": {
      "url": "https://api.github.com/repos/bitcoin/bitcoin/issues/comments/428084769/reactions",
      "total_count": 0,
      "+1": 0,
      "-1": 0,
      "laugh": 0,
      "hooray": 0,
      "confused": 0,
      "heart": 0,
      "rocket": 0,
      "eyes": 0
    },
    "performed_via_github_app": null
  },
  {
    "url": "https://api.github.com/repos/bitcoin/bitcoin/issues/comments/428420723",
    "html_url": "https://github.com/bitcoin/bitcoin/pull/14383#issuecomment-428420723",
    "issue_url": "https://api.github.com/repos/bitcoin/bitcoin/issues/14383",
    "id": 428420723,
    "node_id": "MDEyOklzc3VlQ29tbWVudDQyODQyMDcyMw==",
    "user": {
      "login": "Sjors",
      "id": 10217,
      "node_id": "MDQ6VXNlcjEwMjE3",
      "avatar_url": "https://avatars.githubusercontent.com/u/10217?v=4",
      "gravatar_id": "",
      "url": "https://api.github.com/users/Sjors",
      "html_url": "https://github.com/Sjors",
      "followers_url": "https://api.github.com/users/Sjors/followers",
      "following_url": "https://api.github.com/users/Sjors/following{/other_user}",
      "gists_url": "https://api.github.com/users/Sjors/gists{/gist_id}",
      "starred_url": "https://api.github.com/users/Sjors/starred{/owner}{/repo}",
      "subscriptions_url": "https://api.github.com/users/Sjors/subscriptions",
      "organizations_url": "https://api.github.com/users/Sjors/orgs",
      "repos_url": "https://api.github.com/users/Sjors/repos",
      "events_url": "https://api.github.com/users/Sjors/events{/privacy}",
      "received_events_url": "https://api.github.com/users/Sjors/received_events",
      "type": "User",
      "site_admin": false
    },
    "created_at": "2018-10-10T02:54:09Z",
    "updated_at": "2018-10-10T02:54:09Z",
    "author_association": "MEMBER",
    "body_html": "<p dir=\"auto\">tACK 36323e2</p>",
    "body_text": "tACK 36323e2",
    "body": "tACK 36323e2",
    "reactions": {
      "url": "https://api.github.com/repos/bitcoin/bitcoin/issues/comments/428420723/reactions",
      "total_count": 0,
      "+1": 0,
      "-1": 0,
      "laugh": 0,
      "hooray": 0,
      "confused": 0,
      "heart": 0,
      "rocket": 0,
      "eyes": 0
    },
    "performed_via_github_app": null
  }
]
