{
  "url": "https://api.github.com/repos/bitcoin/bitcoin/issues/29809",
  "repository_url": "https://api.github.com/repos/bitcoin/bitcoin",
  "labels_url": "https://api.github.com/repos/bitcoin/bitcoin/issues/29809/labels{/name}",
  "comments_url": "https://api.github.com/repos/bitcoin/bitcoin/issues/29809/comments",
  "events_url": "https://api.github.com/repos/bitcoin/bitcoin/issues/29809/events",
  "html_url": "https://github.com/bitcoin/bitcoin/pull/29809",
  "id": 2226471046,
  "node_id": "PR_kwDOABII585rwqOV",
  "number": 29809,
  "title": "net: update comment for service bit support info for seed.bitcoin.sipa.be",
  "user": {
    "login": "naiyoma",
    "id": 40592031,
    "node_id": "MDQ6VXNlcjQwNTkyMDMx",
    "avatar_url": "https://avatars.githubusercontent.com/u/40592031?v=4",
    "gravatar_id": "",
    "url": "https://api.github.com/users/naiyoma",
    "html_url": "https://github.com/naiyoma",
    "followers_url": "https://api.github.com/users/naiyoma/followers",
    "following_url": "https://api.github.com/users/naiyoma/following{/other_user}",
    "gists_url": "https://api.github.com/users/naiyoma/gists{/gist_id}",
    "starred_url": "https://api.github.com/users/naiyoma/starred{/owner}{/repo}",
    "subscriptions_url": "https://api.github.com/users/naiyoma/subscriptions",
    "organizations_url": "https://api.github.com/users/naiyoma/orgs",
    "repos_url": "https://api.github.com/users/naiyoma/repos",
    "events_url": "https://api.github.com/users/naiyoma/events{/privacy}",
    "received_events_url": "https://api.github.com/users/naiyoma/received_events",
    "type": "User",
    "site_admin": false
  },
  "labels": [
    {
      "id": 98298007,
      "node_id": "MDU6TGFiZWw5ODI5ODAwNw==",
      "url": "https://api.github.com/repos/bitcoin/bitcoin/labels/P2P",
      "name": "P2P",
      "color": "006b75",
      "default": false,
      "description": null
    }
  ],
  "state": "open",
  "locked": false,
  "assignee": null,
  "assignees": [

  ],
  "milestone": null,
  "comments": 6,
  "created_at": "2024-04-04T20:40:51Z",
  "updated_at": "2024-04-26T10:43:07Z",
  "closed_at": null,
  "author_association": "CONTRIBUTOR",
  "active_lock_reason": null,
  "draft": true,
  "pull_request": {
    "url": "https://api.github.com/repos/bitcoin/bitcoin/pulls/29809",
    "html_url": "https://github.com/bitcoin/bitcoin/pull/29809",
    "diff_url": "https://github.com/bitcoin/bitcoin/pull/29809.diff",
    "patch_url": "https://github.com/bitcoin/bitcoin/pull/29809.patch",
    "merged_at": null
  },
  "body_html": "<p dir=\"auto\">This PR updates the comment regarding the supported service  bits for <code class=\"notranslate\">seed.bitcoin.sipa.be</code> based on this reference: <a href=\"https://github.com/sipa/bitcoin-seeder/blob/ff482e465ff84ea6fa276d858ccb7ef32e3355d3/main.cpp#L208\">https://github.com/sipa/bitcoin-seeder/blob/ff482e465ff84ea6fa276d858ccb7ef32e3355d3/main.cpp#L208</a></p>",
  "body_text": "This PR updates the comment regarding the supported service  bits for seed.bitcoin.sipa.be based on this reference: https://github.com/sipa/bitcoin-seeder/blob/ff482e465ff84ea6fa276d858ccb7ef32e3355d3/main.cpp#L208",
  "body": " This PR updates the comment regarding the supported service  bits for `seed.bitcoin.sipa.be` based on this reference: https://github.com/sipa/bitcoin-seeder/blob/ff482e465ff84ea6fa276d858ccb7ef32e3355d3/main.cpp#L208\r\n\r\n",
  "closed_by": null,
  "reactions": {
    "url": "https://api.github.com/repos/bitcoin/bitcoin/issues/29809/reactions",
    "total_count": 0,
    "+1": 0,
    "-1": 0,
    "laugh": 0,
    "hooray": 0,
    "confused": 0,
    "heart": 0,
    "rocket": 0,
    "eyes": 0
  },
  "timeline_url": "https://api.github.com/repos/bitcoin/bitcoin/issues/29809/timeline",
  "performed_via_github_app": null,
  "state_reason": null
}
