{
  "url": "https://api.github.com/repos/bitcoin/bitcoin/issues/4026",
  "repository_url": "https://api.github.com/repos/bitcoin/bitcoin",
  "labels_url": "https://api.github.com/repos/bitcoin/bitcoin/issues/4026/labels{/name}",
  "comments_url": "https://api.github.com/repos/bitcoin/bitcoin/issues/4026/comments",
  "events_url": "https://api.github.com/repos/bitcoin/bitcoin/issues/4026/events",
  "html_url": "https://github.com/bitcoin/bitcoin/issues/4026",
  "id": 31111197,
  "node_id": "MDU6SXNzdWUzMTExMTE5Nw==",
  "number": 4026,
  "title": "Backport of SSL fix (CVE-2014-0160) for 0.8.6",
  "user": {
    "login": "h0jeZvgoxFepBQ2C",
    "id": 10075,
    "node_id": "MDQ6VXNlcjEwMDc1",
    "avatar_url": "https://avatars.githubusercontent.com/u/10075?v=4",
    "gravatar_id": "",
    "url": "https://api.github.com/users/h0jeZvgoxFepBQ2C",
    "html_url": "https://github.com/h0jeZvgoxFepBQ2C",
    "followers_url": "https://api.github.com/users/h0jeZvgoxFepBQ2C/followers",
    "following_url": "https://api.github.com/users/h0jeZvgoxFepBQ2C/following{/other_user}",
    "gists_url": "https://api.github.com/users/h0jeZvgoxFepBQ2C/gists{/gist_id}",
    "starred_url": "https://api.github.com/users/h0jeZvgoxFepBQ2C/starred{/owner}{/repo}",
    "subscriptions_url": "https://api.github.com/users/h0jeZvgoxFepBQ2C/subscriptions",
    "organizations_url": "https://api.github.com/users/h0jeZvgoxFepBQ2C/orgs",
    "repos_url": "https://api.github.com/users/h0jeZvgoxFepBQ2C/repos",
    "events_url": "https://api.github.com/users/h0jeZvgoxFepBQ2C/events{/privacy}",
    "received_events_url": "https://api.github.com/users/h0jeZvgoxFepBQ2C/received_events",
    "type": "User",
    "site_admin": false
  },
  "labels": [

  ],
  "state": "closed",
  "locked": true,
  "assignee": null,
  "assignees": [

  ],
  "milestone": null,
  "comments": 6,
  "created_at": "2014-04-08T21:34:59Z",
  "updated_at": "2021-09-08T12:42:14Z",
  "closed_at": "2014-05-02T07:18:02Z",
  "author_association": "NONE",
  "active_lock_reason": "resolved",
  "body_html": "<p dir=\"auto\">Can you maybe publish a fixed version for 0.8.6?<br>\n0.9 introduces some changes which affords some changes to my service, so i would be happy if you could publish a fixed 0.8.6 version?</p>\n<p dir=\"auto\">Thanks!!!</p>",
  "body_text": "Can you maybe publish a fixed version for 0.8.6?\n0.9 introduces some changes which affords some changes to my service, so i would be happy if you could publish a fixed 0.8.6 version?\nThanks!!!",
  "body": "Can you maybe publish a fixed version for 0.8.6?\n0.9 introduces some changes which affords some changes to my service, so i would be happy if you could publish a fixed 0.8.6 version?\n\nThanks!!!\n",
  "closed_by": {
    "login": "laanwj",
    "id": 126646,
    "node_id": "MDQ6VXNlcjEyNjY0Ng==",
    "avatar_url": "https://avatars.githubusercontent.com/u/126646?v=4",
    "gravatar_id": "",
    "url": "https://api.github.com/users/laanwj",
    "html_url": "https://github.com/laanwj",
    "followers_url": "https://api.github.com/users/laanwj/followers",
    "following_url": "https://api.github.com/users/laanwj/following{/other_user}",
    "gists_url": "https://api.github.com/users/laanwj/gists{/gist_id}",
    "starred_url": "https://api.github.com/users/laanwj/starred{/owner}{/repo}",
    "subscriptions_url": "https://api.github.com/users/laanwj/subscriptions",
    "organizations_url": "https://api.github.com/users/laanwj/orgs",
    "repos_url": "https://api.github.com/users/laanwj/repos",
    "events_url": "https://api.github.com/users/laanwj/events{/privacy}",
    "received_events_url": "https://api.github.com/users/laanwj/received_events",
    "type": "User",
    "site_admin": false
  },
  "reactions": {
    "url": "https://api.github.com/repos/bitcoin/bitcoin/issues/4026/reactions",
    "total_count": 0,
    "+1": 0,
    "-1": 0,
    "laugh": 0,
    "hooray": 0,
    "confused": 0,
    "heart": 0,
    "rocket": 0,
    "eyes": 0
  },
  "timeline_url": "https://api.github.com/repos/bitcoin/bitcoin/issues/4026/timeline",
  "performed_via_github_app": null,
  "state_reason": "completed"
}
