[
  {
    "url": "https://api.github.com/repos/bitcoin/bitcoin/issues/comments/974462997",
    "html_url": "https://github.com/bitcoin/bitcoin/pull/23552#issuecomment-974462997",
    "issue_url": "https://api.github.com/repos/bitcoin/bitcoin/issues/23552",
    "id": 974462997,
    "node_id": "IC_kwDOABII5846FSAV",
    "user": {
      "login": "DrahtBot",
      "id": 39886733,
      "node_id": "MDQ6VXNlcjM5ODg2NzMz",
      "avatar_url": "https://avatars.githubusercontent.com/u/39886733?v=4",
      "gravatar_id": "",
      "url": "https://api.github.com/users/DrahtBot",
      "html_url": "https://github.com/DrahtBot",
      "followers_url": "https://api.github.com/users/DrahtBot/followers",
      "following_url": "https://api.github.com/users/DrahtBot/following{/other_user}",
      "gists_url": "https://api.github.com/users/DrahtBot/gists{/gist_id}",
      "starred_url": "https://api.github.com/users/DrahtBot/starred{/owner}{/repo}",
      "subscriptions_url": "https://api.github.com/users/DrahtBot/subscriptions",
      "organizations_url": "https://api.github.com/users/DrahtBot/orgs",
      "repos_url": "https://api.github.com/users/DrahtBot/repos",
      "events_url": "https://api.github.com/users/DrahtBot/events{/privacy}",
      "received_events_url": "https://api.github.com/users/DrahtBot/received_events",
      "type": "User",
      "site_admin": false
    },
    "created_at": "2021-11-19T20:49:57Z",
    "updated_at": "2021-11-19T20:49:57Z",
    "author_association": "CONTRIBUTOR",
    "body_html": "\n<p dir=\"auto\">The following sections might be updated with supplementary metadata relevant to reviewers and maintainers.</p>\n\n<h3 dir=\"auto\">Conflicts</h3>\n<p dir=\"auto\">Reviewers, this pull request conflicts with the following ones:</p>\n<ul dir=\"auto\">\n<li><a href=\"https://github.com/bitcoin/bitcoin/pull/23495\" data-hovercard-type=\"pull_request\" data-hovercard-url=\"/bitcoin/bitcoin/pull/23495/hovercard\">#23495</a> (build: Bump Fontconfig version up to 2.12.6 by hebasto)</li>\n<li><a href=\"https://github.com/bitcoin/bitcoin/pull/22708\" data-hovercard-type=\"pull_request\" data-hovercard-url=\"/bitcoin/bitcoin/pull/22708/hovercard\">#22708</a> (build, qt: Add Wayland support for Linux builds with depends by hebasto)</li>\n<li><a href=\"https://github.com/bitcoin/bitcoin/pull/22555\" data-hovercard-type=\"pull_request\" data-hovercard-url=\"/bitcoin/bitcoin/pull/22555/hovercard\">#22555</a> (build: Fix <code class=\"notranslate\">make apk</code> for Android w/ non-default SOURCES_PATH in depends by hebasto)</li>\n<li><a href=\"https://github.com/bitcoin/bitcoin/pull/22552\" data-hovercard-type=\"pull_request\" data-hovercard-url=\"/bitcoin/bitcoin/pull/22552/hovercard\">#22552</a> (build: Improve depends build system robustness by hebasto)</li>\n<li><a href=\"https://github.com/bitcoin/bitcoin/pull/22487\" data-hovercard-type=\"pull_request\" data-hovercard-url=\"/bitcoin/bitcoin/pull/22487/hovercard\">#22487</a> (build, qt: Fix cross-compiling detection on M1-based macOS (aarch64) by hebasto)</li>\n</ul>\n<p dir=\"auto\">If you consider this pull request important, please also help to review the conflicting pull requests. Ideally, start with the one that should be merged first.</p>",
    "body_text": "The following sections might be updated with supplementary metadata relevant to reviewers and maintainers.\n\nConflicts\nReviewers, this pull request conflicts with the following ones:\n\n#23495 (build: Bump Fontconfig version up to 2.12.6 by hebasto)\n#22708 (build, qt: Add Wayland support for Linux builds with depends by hebasto)\n#22555 (build: Fix make apk for Android w/ non-default SOURCES_PATH in depends by hebasto)\n#22552 (build: Improve depends build system robustness by hebasto)\n#22487 (build, qt: Fix cross-compiling detection on M1-based macOS (aarch64) by hebasto)\n\nIf you consider this pull request important, please also help to review the conflicting pull requests. Ideally, start with the one that should be merged first.",
    "body": "<!--e57a25ab6845829454e8d69fc972939a-->\n\nThe following sections might be updated with supplementary metadata relevant to reviewers and maintainers.\n\n<!--174a7506f384e20aa4161008e828411d-->\n### Conflicts\nReviewers, this pull request conflicts with the following ones:\n\n* [#23495](https://github.com/bitcoin/bitcoin/pull/23495) (build: Bump Fontconfig version up to 2.12.6 by hebasto)\n* [#22708](https://github.com/bitcoin/bitcoin/pull/22708) (build, qt: Add Wayland support for Linux builds with depends by hebasto)\n* [#22555](https://github.com/bitcoin/bitcoin/pull/22555) (build: Fix `make apk` for Android w/ non-default SOURCES_PATH in depends by hebasto)\n* [#22552](https://github.com/bitcoin/bitcoin/pull/22552) (build: Improve depends build system robustness by hebasto)\n* [#22487](https://github.com/bitcoin/bitcoin/pull/22487) (build, qt: Fix cross-compiling detection on M1-based macOS (aarch64) by hebasto)\n\nIf you consider this pull request important, please also help to review the conflicting pull requests. Ideally, start with the one that should be merged first.",
    "reactions": {
      "url": "https://api.github.com/repos/bitcoin/bitcoin/issues/comments/974462997/reactions",
      "total_count": 0,
      "+1": 0,
      "-1": 0,
      "laugh": 0,
      "hooray": 0,
      "confused": 0,
      "heart": 0,
      "rocket": 0,
      "eyes": 0
    },
    "performed_via_github_app": null
  },
  {
    "url": "https://api.github.com/repos/bitcoin/bitcoin/issues/comments/974757980",
    "html_url": "https://github.com/bitcoin/bitcoin/pull/23552#issuecomment-974757980",
    "issue_url": "https://api.github.com/repos/bitcoin/bitcoin/issues/23552",
    "id": 974757980,
    "node_id": "IC_kwDOABII5846GaBc",
    "user": {
      "login": "fanquake",
      "id": 863730,
      "node_id": "MDQ6VXNlcjg2MzczMA==",
      "avatar_url": "https://avatars.githubusercontent.com/u/863730?v=4",
      "gravatar_id": "",
      "url": "https://api.github.com/users/fanquake",
      "html_url": "https://github.com/fanquake",
      "followers_url": "https://api.github.com/users/fanquake/followers",
      "following_url": "https://api.github.com/users/fanquake/following{/other_user}",
      "gists_url": "https://api.github.com/users/fanquake/gists{/gist_id}",
      "starred_url": "https://api.github.com/users/fanquake/starred{/owner}{/repo}",
      "subscriptions_url": "https://api.github.com/users/fanquake/subscriptions",
      "organizations_url": "https://api.github.com/users/fanquake/orgs",
      "repos_url": "https://api.github.com/users/fanquake/repos",
      "events_url": "https://api.github.com/users/fanquake/events{/privacy}",
      "received_events_url": "https://api.github.com/users/fanquake/received_events",
      "type": "User",
      "site_admin": false
    },
    "created_at": "2021-11-21T05:20:20Z",
    "updated_at": "2021-11-21T05:20:20Z",
    "author_association": "MEMBER",
    "body_html": "<p dir=\"auto\">Cherry-picked into <a class=\"issue-link js-issue-link\" data-error-text=\"Failed to load title\" data-id=\"1051651103\" data-permission-text=\"Title is private\" data-url=\"https://github.com/bitcoin/bitcoin/issues/23489\" data-hovercard-type=\"pull_request\" data-hovercard-url=\"/bitcoin/bitcoin/pull/23489/hovercard\" href=\"https://github.com/bitcoin/bitcoin/pull/23489\">#23489</a>.</p>",
    "body_text": "Cherry-picked into #23489.",
    "body": "Cherry-picked into #23489.",
    "reactions": {
      "url": "https://api.github.com/repos/bitcoin/bitcoin/issues/comments/974757980/reactions",
      "total_count": 0,
      "+1": 0,
      "-1": 0,
      "laugh": 0,
      "hooray": 0,
      "confused": 0,
      "heart": 0,
      "rocket": 0,
      "eyes": 0
    },
    "performed_via_github_app": null
  }
]
