{
  "url": "https://api.github.com/repos/bitcoin/bitcoin/issues/22496",
  "repository_url": "https://api.github.com/repos/bitcoin/bitcoin",
  "labels_url": "https://api.github.com/repos/bitcoin/bitcoin/issues/22496/labels{/name}",
  "comments_url": "https://api.github.com/repos/bitcoin/bitcoin/issues/22496/comments",
  "events_url": "https://api.github.com/repos/bitcoin/bitcoin/issues/22496/events",
  "html_url": "https://github.com/bitcoin/bitcoin/pull/22496",
  "id": 947597054,
  "node_id": "MDExOlB1bGxSZXF1ZXN0NjkyNTU4MTEy",
  "number": 22496,
  "title": "addrman: Remove addrman hotfixes",
  "user": {
    "login": "jnewbery",
    "id": 1063656,
    "node_id": "MDQ6VXNlcjEwNjM2NTY=",
    "avatar_url": "https://avatars.githubusercontent.com/u/1063656?v=4",
    "gravatar_id": "",
    "url": "https://api.github.com/users/jnewbery",
    "html_url": "https://github.com/jnewbery",
    "followers_url": "https://api.github.com/users/jnewbery/followers",
    "following_url": "https://api.github.com/users/jnewbery/following{/other_user}",
    "gists_url": "https://api.github.com/users/jnewbery/gists{/gist_id}",
    "starred_url": "https://api.github.com/users/jnewbery/starred{/owner}{/repo}",
    "subscriptions_url": "https://api.github.com/users/jnewbery/subscriptions",
    "organizations_url": "https://api.github.com/users/jnewbery/orgs",
    "repos_url": "https://api.github.com/users/jnewbery/repos",
    "events_url": "https://api.github.com/users/jnewbery/events{/privacy}",
    "received_events_url": "https://api.github.com/users/jnewbery/received_events",
    "type": "User",
    "site_admin": false
  },
  "labels": [
    {
      "id": 98298007,
      "node_id": "MDU6TGFiZWw5ODI5ODAwNw==",
      "url": "https://api.github.com/repos/bitcoin/bitcoin/labels/P2P",
      "name": "P2P",
      "color": "006b75",
      "default": false,
      "description": null
    }
  ],
  "state": "closed",
  "locked": true,
  "assignee": null,
  "assignees": [

  ],
  "milestone": null,
  "comments": 12,
  "created_at": "2021-07-19T12:21:16Z",
  "updated_at": "2022-08-18T18:36:55Z",
  "closed_at": "2021-08-03T07:41:11Z",
  "author_association": "CONTRIBUTOR",
  "active_lock_reason": "resolved",
  "draft": false,
  "pull_request": {
    "url": "https://api.github.com/repos/bitcoin/bitcoin/pulls/22496",
    "html_url": "https://github.com/bitcoin/bitcoin/pull/22496",
    "diff_url": "https://github.com/bitcoin/bitcoin/pull/22496.diff",
    "patch_url": "https://github.com/bitcoin/bitcoin/pull/22496.patch",
    "merged_at": "2021-08-03T07:41:11Z"
  },
  "body_html": "<p dir=\"auto\">PRs <a class=\"issue-link js-issue-link\" data-error-text=\"Failed to load title\" data-id=\"913426557\" data-permission-text=\"Title is private\" data-url=\"https://github.com/bitcoin/bitcoin/issues/22179\" data-hovercard-type=\"pull_request\" data-hovercard-url=\"/bitcoin/bitcoin/pull/22179/hovercard\" href=\"https://github.com/bitcoin/bitcoin/pull/22179\">#22179</a> and <a class=\"issue-link js-issue-link\" data-error-text=\"Failed to load title\" data-id=\"907599491\" data-permission-text=\"Title is private\" data-url=\"https://github.com/bitcoin/bitcoin/issues/22112\" data-hovercard-type=\"pull_request\" data-hovercard-url=\"/bitcoin/bitcoin/pull/22112/hovercard\" href=\"https://github.com/bitcoin/bitcoin/pull/22112\">#22112</a> (EDIT: later reverted in <a class=\"issue-link js-issue-link\" data-error-text=\"Failed to load title\" data-id=\"947601021\" data-permission-text=\"Title is private\" data-url=\"https://github.com/bitcoin/bitcoin/issues/22497\" data-hovercard-type=\"pull_request\" data-hovercard-url=\"/bitcoin/bitcoin/pull/22497/hovercard\" href=\"https://github.com/bitcoin/bitcoin/pull/22497\">#22497</a>) added hotfix code to addrman to remove invalid addresses and mutate the ports of I2P entries after entering into addrman. Those hotfixes included at least two addrman data corruption bugs:</p>\n<ul dir=\"auto\">\n<li><a class=\"issue-link js-issue-link\" data-error-text=\"Failed to load title\" data-id=\"946163435\" data-permission-text=\"Title is private\" data-url=\"https://github.com/bitcoin/bitcoin/issues/22467\" data-hovercard-type=\"issue\" data-hovercard-url=\"/bitcoin/bitcoin/issues/22467/hovercard\" href=\"https://github.com/bitcoin/bitcoin/issues/22467\">#22467</a> (Assertion `nRndPos1 &lt; vRandom.size() &amp;&amp; nRndPos2 &lt; vRandom.size()' failed)</li>\n<li><a class=\"issue-link js-issue-link\" data-error-text=\"Failed to load title\" data-id=\"946436900\" data-permission-text=\"Title is private\" data-url=\"https://github.com/bitcoin/bitcoin/issues/22470\" data-hovercard-type=\"issue\" data-hovercard-url=\"/bitcoin/bitcoin/issues/22470/hovercard\" href=\"https://github.com/bitcoin/bitcoin/issues/22470\">#22470</a> (Changing I2P ports in addrman may wronly skip some entries from \"new\" buckets)</li>\n</ul>\n<p dir=\"auto\">Hotfixing addrman is inherently dangerous. There are many members that have implicit assumptions on each others' state, and mutating those directly can lead to violating addrman's internal invariants.</p>\n<p dir=\"auto\">Instead of trying to hotfix addrman, just don't insert any invalid addresses. For now, those are addresses which fail <code class=\"notranslate\">CNetAddr::IsValid()</code>.</p>",
  "body_text": "PRs #22179 and #22112 (EDIT: later reverted in #22497) added hotfix code to addrman to remove invalid addresses and mutate the ports of I2P entries after entering into addrman. Those hotfixes included at least two addrman data corruption bugs:\n\n#22467 (Assertion `nRndPos1 < vRandom.size() && nRndPos2 < vRandom.size()' failed)\n#22470 (Changing I2P ports in addrman may wronly skip some entries from \"new\" buckets)\n\nHotfixing addrman is inherently dangerous. There are many members that have implicit assumptions on each others' state, and mutating those directly can lead to violating addrman's internal invariants.\nInstead of trying to hotfix addrman, just don't insert any invalid addresses. For now, those are addresses which fail CNetAddr::IsValid().",
  "body": "PRs #22179 and #22112 (EDIT: later reverted in #22497) added hotfix code to addrman to remove invalid addresses and mutate the ports of I2P entries after entering into addrman. Those hotfixes included at least two addrman data corruption bugs:\r\n\r\n- #22467 (Assertion `nRndPos1 < vRandom.size() && nRndPos2 < vRandom.size()' failed)\r\n- #22470 (Changing I2P ports in addrman may wronly skip some entries from \"new\" buckets)\r\n\r\nHotfixing addrman is inherently dangerous. There are many members that have implicit assumptions on each others' state, and mutating those directly can lead to violating addrman's internal invariants.\r\n\r\nInstead of trying to hotfix addrman, just don't insert any invalid addresses. For now, those are addresses which fail `CNetAddr::IsValid()`.",
  "closed_by": {
    "login": "fanquake",
    "id": 863730,
    "node_id": "MDQ6VXNlcjg2MzczMA==",
    "avatar_url": "https://avatars.githubusercontent.com/u/863730?v=4",
    "gravatar_id": "",
    "url": "https://api.github.com/users/fanquake",
    "html_url": "https://github.com/fanquake",
    "followers_url": "https://api.github.com/users/fanquake/followers",
    "following_url": "https://api.github.com/users/fanquake/following{/other_user}",
    "gists_url": "https://api.github.com/users/fanquake/gists{/gist_id}",
    "starred_url": "https://api.github.com/users/fanquake/starred{/owner}{/repo}",
    "subscriptions_url": "https://api.github.com/users/fanquake/subscriptions",
    "organizations_url": "https://api.github.com/users/fanquake/orgs",
    "repos_url": "https://api.github.com/users/fanquake/repos",
    "events_url": "https://api.github.com/users/fanquake/events{/privacy}",
    "received_events_url": "https://api.github.com/users/fanquake/received_events",
    "type": "User",
    "site_admin": false
  },
  "reactions": {
    "url": "https://api.github.com/repos/bitcoin/bitcoin/issues/22496/reactions",
    "total_count": 0,
    "+1": 0,
    "-1": 0,
    "laugh": 0,
    "hooray": 0,
    "confused": 0,
    "heart": 0,
    "rocket": 0,
    "eyes": 0
  },
  "timeline_url": "https://api.github.com/repos/bitcoin/bitcoin/issues/22496/timeline",
  "performed_via_github_app": null,
  "state_reason": null
}
