[
  {
    "url": "https://api.github.com/repos/bitcoin/bitcoin/issues/comments/544447678",
    "html_url": "https://github.com/bitcoin/bitcoin/pull/17197#issuecomment-544447678",
    "issue_url": "https://api.github.com/repos/bitcoin/bitcoin/issues/17197",
    "id": 544447678,
    "node_id": "MDEyOklzc3VlQ29tbWVudDU0NDQ0NzY3OA==",
    "user": {
      "login": "laanwj",
      "id": 126646,
      "node_id": "MDQ6VXNlcjEyNjY0Ng==",
      "avatar_url": "https://avatars.githubusercontent.com/u/126646?v=4",
      "gravatar_id": "",
      "url": "https://api.github.com/users/laanwj",
      "html_url": "https://github.com/laanwj",
      "followers_url": "https://api.github.com/users/laanwj/followers",
      "following_url": "https://api.github.com/users/laanwj/following{/other_user}",
      "gists_url": "https://api.github.com/users/laanwj/gists{/gist_id}",
      "starred_url": "https://api.github.com/users/laanwj/starred{/owner}{/repo}",
      "subscriptions_url": "https://api.github.com/users/laanwj/subscriptions",
      "organizations_url": "https://api.github.com/users/laanwj/orgs",
      "repos_url": "https://api.github.com/users/laanwj/repos",
      "events_url": "https://api.github.com/users/laanwj/events{/privacy}",
      "received_events_url": "https://api.github.com/users/laanwj/received_events",
      "type": "User",
      "site_admin": false
    },
    "created_at": "2019-10-21T10:13:01Z",
    "updated_at": "2019-10-21T10:13:01Z",
    "author_association": "MEMBER",
    "body_html": "<p dir=\"auto\">Thanks!</p>\n<p dir=\"auto\">ACK  <a class=\"commit-link\" data-hovercard-type=\"commit\" data-hovercard-url=\"https://github.com/bitcoin/bitcoin/commit/334e27ed5aae2dbe767b73eac8876edf5ab2b797/hovercard\" href=\"https://github.com/bitcoin/bitcoin/commit/334e27ed5aae2dbe767b73eac8876edf5ab2b797\"><tt>334e27e</tt></a></p>",
    "body_text": "Thanks!\nACK  334e27e",
    "body": "Thanks!\r\n\r\nACK  334e27ed5aae2dbe767b73eac8876edf5ab2b797",
    "reactions": {
      "url": "https://api.github.com/repos/bitcoin/bitcoin/issues/comments/544447678/reactions",
      "total_count": 0,
      "+1": 0,
      "-1": 0,
      "laugh": 0,
      "hooray": 0,
      "confused": 0,
      "heart": 0,
      "rocket": 0,
      "eyes": 0
    },
    "performed_via_github_app": null
  },
  {
    "url": "https://api.github.com/repos/bitcoin/bitcoin/issues/comments/544474907",
    "html_url": "https://github.com/bitcoin/bitcoin/pull/17197#issuecomment-544474907",
    "issue_url": "https://api.github.com/repos/bitcoin/bitcoin/issues/17197",
    "id": 544474907,
    "node_id": "MDEyOklzc3VlQ29tbWVudDU0NDQ3NDkwNw==",
    "user": {
      "login": "promag",
      "id": 3534524,
      "node_id": "MDQ6VXNlcjM1MzQ1MjQ=",
      "avatar_url": "https://avatars.githubusercontent.com/u/3534524?v=4",
      "gravatar_id": "",
      "url": "https://api.github.com/users/promag",
      "html_url": "https://github.com/promag",
      "followers_url": "https://api.github.com/users/promag/followers",
      "following_url": "https://api.github.com/users/promag/following{/other_user}",
      "gists_url": "https://api.github.com/users/promag/gists{/gist_id}",
      "starred_url": "https://api.github.com/users/promag/starred{/owner}{/repo}",
      "subscriptions_url": "https://api.github.com/users/promag/subscriptions",
      "organizations_url": "https://api.github.com/users/promag/orgs",
      "repos_url": "https://api.github.com/users/promag/repos",
      "events_url": "https://api.github.com/users/promag/events{/privacy}",
      "received_events_url": "https://api.github.com/users/promag/received_events",
      "type": "User",
      "site_admin": false
    },
    "created_at": "2019-10-21T11:36:58Z",
    "updated_at": "2019-10-21T11:36:58Z",
    "author_association": "MEMBER",
    "body_html": "<p dir=\"auto\">ACK <a class=\"commit-link\" data-hovercard-type=\"commit\" data-hovercard-url=\"https://github.com/bitcoin/bitcoin/commit/334e27ed5aae2dbe767b73eac8876edf5ab2b797/hovercard\" href=\"https://github.com/bitcoin/bitcoin/commit/334e27ed5aae2dbe767b73eac8876edf5ab2b797\"><tt>334e27e</tt></a>.</p>",
    "body_text": "ACK 334e27e.",
    "body": "ACK 334e27e.",
    "reactions": {
      "url": "https://api.github.com/repos/bitcoin/bitcoin/issues/comments/544474907/reactions",
      "total_count": 0,
      "+1": 0,
      "-1": 0,
      "laugh": 0,
      "hooray": 0,
      "confused": 0,
      "heart": 0,
      "rocket": 0,
      "eyes": 0
    },
    "performed_via_github_app": null
  }
]
