{
  "url": "https://api.github.com/repos/bitcoin/bitcoin/issues/19144",
  "repository_url": "https://api.github.com/repos/bitcoin/bitcoin",
  "labels_url": "https://api.github.com/repos/bitcoin/bitcoin/issues/19144/labels{/name}",
  "comments_url": "https://api.github.com/repos/bitcoin/bitcoin/issues/19144/comments",
  "events_url": "https://api.github.com/repos/bitcoin/bitcoin/issues/19144/events",
  "html_url": "https://github.com/bitcoin/bitcoin/pull/19144",
  "id": 629530020,
  "node_id": "MDExOlB1bGxSZXF1ZXN0NDI2ODQxMDcw",
  "number": 19144,
  "title": "include QPainterPath to fix compile error with Qt 5.15",
  "user": {
    "login": "puchu",
    "id": 3678296,
    "node_id": "MDQ6VXNlcjM2NzgyOTY=",
    "avatar_url": "https://avatars.githubusercontent.com/u/3678296?v=4",
    "gravatar_id": "",
    "url": "https://api.github.com/users/puchu",
    "html_url": "https://github.com/puchu",
    "followers_url": "https://api.github.com/users/puchu/followers",
    "following_url": "https://api.github.com/users/puchu/following{/other_user}",
    "gists_url": "https://api.github.com/users/puchu/gists{/gist_id}",
    "starred_url": "https://api.github.com/users/puchu/starred{/owner}{/repo}",
    "subscriptions_url": "https://api.github.com/users/puchu/subscriptions",
    "organizations_url": "https://api.github.com/users/puchu/orgs",
    "repos_url": "https://api.github.com/users/puchu/repos",
    "events_url": "https://api.github.com/users/puchu/events{/privacy}",
    "received_events_url": "https://api.github.com/users/puchu/received_events",
    "type": "User",
    "site_admin": false
  },
  "labels": [
    {
      "id": 135946,
      "node_id": "MDU6TGFiZWwxMzU5NDY=",
      "url": "https://api.github.com/repos/bitcoin/bitcoin/labels/GUI",
      "name": "GUI",
      "color": "02d7e1",
      "default": false,
      "description": null
    }
  ],
  "state": "closed",
  "locked": true,
  "assignee": null,
  "assignees": [

  ],
  "milestone": null,
  "comments": 7,
  "created_at": "2020-06-02T21:32:41Z",
  "updated_at": "2022-02-15T10:59:20Z",
  "closed_at": "2020-06-04T22:22:08Z",
  "author_association": "CONTRIBUTOR",
  "active_lock_reason": "resolved",
  "draft": false,
  "pull_request": {
    "url": "https://api.github.com/repos/bitcoin/bitcoin/pulls/19144",
    "html_url": "https://github.com/bitcoin/bitcoin/pull/19144",
    "diff_url": "https://github.com/bitcoin/bitcoin/pull/19144.diff",
    "patch_url": "https://github.com/bitcoin/bitcoin/pull/19144.patch",
    "merged_at": null
  },
  "body_html": "<p dir=\"auto\">include QPainterPath to fix compile error with Qt 5.15</p>",
  "body_text": "include QPainterPath to fix compile error with Qt 5.15",
  "body": "include QPainterPath to fix compile error with Qt 5.15\r\n",
  "closed_by": {
    "login": "maflcko",
    "id": 6399679,
    "node_id": "MDQ6VXNlcjYzOTk2Nzk=",
    "avatar_url": "https://avatars.githubusercontent.com/u/6399679?v=4",
    "gravatar_id": "",
    "url": "https://api.github.com/users/maflcko",
    "html_url": "https://github.com/maflcko",
    "followers_url": "https://api.github.com/users/maflcko/followers",
    "following_url": "https://api.github.com/users/maflcko/following{/other_user}",
    "gists_url": "https://api.github.com/users/maflcko/gists{/gist_id}",
    "starred_url": "https://api.github.com/users/maflcko/starred{/owner}{/repo}",
    "subscriptions_url": "https://api.github.com/users/maflcko/subscriptions",
    "organizations_url": "https://api.github.com/users/maflcko/orgs",
    "repos_url": "https://api.github.com/users/maflcko/repos",
    "events_url": "https://api.github.com/users/maflcko/events{/privacy}",
    "received_events_url": "https://api.github.com/users/maflcko/received_events",
    "type": "User",
    "site_admin": false
  },
  "reactions": {
    "url": "https://api.github.com/repos/bitcoin/bitcoin/issues/19144/reactions",
    "total_count": 0,
    "+1": 0,
    "-1": 0,
    "laugh": 0,
    "hooray": 0,
    "confused": 0,
    "heart": 0,
    "rocket": 0,
    "eyes": 0
  },
  "timeline_url": "https://api.github.com/repos/bitcoin/bitcoin/issues/19144/timeline",
  "performed_via_github_app": null,
  "state_reason": null
}
