[
  {
    "url": "https://api.github.com/repos/bitcoin/bitcoin/issues/comments/1647892866",
    "html_url": "https://github.com/bitcoin/bitcoin/pull/28138#issuecomment-1647892866",
    "issue_url": "https://api.github.com/repos/bitcoin/bitcoin/issues/28138",
    "id": 1647892866,
    "node_id": "IC_kwDOABII585iONmC",
    "user": {
      "login": "DrahtBot",
      "id": 39886733,
      "node_id": "MDQ6VXNlcjM5ODg2NzMz",
      "avatar_url": "https://avatars.githubusercontent.com/u/39886733?v=4",
      "gravatar_id": "",
      "url": "https://api.github.com/users/DrahtBot",
      "html_url": "https://github.com/DrahtBot",
      "followers_url": "https://api.github.com/users/DrahtBot/followers",
      "following_url": "https://api.github.com/users/DrahtBot/following{/other_user}",
      "gists_url": "https://api.github.com/users/DrahtBot/gists{/gist_id}",
      "starred_url": "https://api.github.com/users/DrahtBot/starred{/owner}{/repo}",
      "subscriptions_url": "https://api.github.com/users/DrahtBot/subscriptions",
      "organizations_url": "https://api.github.com/users/DrahtBot/orgs",
      "repos_url": "https://api.github.com/users/DrahtBot/repos",
      "events_url": "https://api.github.com/users/DrahtBot/events{/privacy}",
      "received_events_url": "https://api.github.com/users/DrahtBot/received_events",
      "type": "User",
      "site_admin": false
    },
    "created_at": "2023-07-24T13:16:57Z",
    "updated_at": "2023-07-28T11:17:37Z",
    "author_association": "CONTRIBUTOR",
    "body_html": "\n<p dir=\"auto\">The following sections might be updated with supplementary metadata relevant to reviewers and maintainers.</p>\n\n<h3 dir=\"auto\">Reviews</h3>\n<p dir=\"auto\">See <a href=\"https://github.com/bitcoin/bitcoin/blob/master/CONTRIBUTING.md#code-review\">the guideline</a> for information on the review process.</p>\n<table role=\"table\">\n<thead>\n<tr>\n<th>Type</th>\n<th>Reviewers</th>\n</tr>\n</thead>\n<tbody>\n<tr>\n<td>ACK</td>\n<td><a href=\"https://github.com/bitcoin/bitcoin/pull/28138#pullrequestreview-1551904341\" data-hovercard-type=\"pull_request\" data-hovercard-url=\"/bitcoin/bitcoin/pull/28138/hovercard\">TheCharlatan</a></td>\n</tr>\n</tbody>\n</table>\n<p dir=\"auto\">If your review is incorrectly listed, please react with 👎 to this comment and the bot will ignore it on the next update.</p>\n\n<h3 dir=\"auto\">Conflicts</h3>\n<p dir=\"auto\">Reviewers, this pull request conflicts with the following ones:</p>\n<ul dir=\"auto\">\n<li><a href=\"https://github.com/bitcoin/bitcoin/pull/27976\" data-hovercard-type=\"pull_request\" data-hovercard-url=\"/bitcoin/bitcoin/pull/27976/hovercard\">#27976</a> (ci: Start with clean env by MarcoFalke)</li>\n<li><a href=\"https://github.com/bitcoin/bitcoin/pull/27793\" data-hovercard-type=\"pull_request\" data-hovercard-url=\"/bitcoin/bitcoin/pull/27793/hovercard\">#27793</a> (ci: label docker images and prune dangling images selectively by stickies-v)</li>\n</ul>\n<p dir=\"auto\">If you consider this pull request important, please also help to review the conflicting pull requests. Ideally, start with the one that should be merged first.</p>",
    "body_text": "The following sections might be updated with supplementary metadata relevant to reviewers and maintainers.\n\nReviews\nSee the guideline for information on the review process.\n\n\n\nType\nReviewers\n\n\n\n\nACK\nTheCharlatan\n\n\n\nIf your review is incorrectly listed, please react with 👎 to this comment and the bot will ignore it on the next update.\n\nConflicts\nReviewers, this pull request conflicts with the following ones:\n\n#27976 (ci: Start with clean env by MarcoFalke)\n#27793 (ci: label docker images and prune dangling images selectively by stickies-v)\n\nIf you consider this pull request important, please also help to review the conflicting pull requests. Ideally, start with the one that should be merged first.",
    "body": "<!--e57a25ab6845829454e8d69fc972939a-->\n\nThe following sections might be updated with supplementary metadata relevant to reviewers and maintainers.\n\n<!--021abf342d371248e50ceaed478a90ca-->\n### Reviews\nSee [the guideline](https://github.com/bitcoin/bitcoin/blob/master/CONTRIBUTING.md#code-review) for information on the review process.\n| Type | Reviewers |\n| ---- | --------- |\n| ACK | [TheCharlatan](https://github.com/bitcoin/bitcoin/pull/28138#pullrequestreview-1551904341) |\n\nIf your review is incorrectly listed, please react with 👎 to this comment and the bot will ignore it on the next update.\n<!--174a7506f384e20aa4161008e828411d-->\n### Conflicts\nReviewers, this pull request conflicts with the following ones:\n\n* [#27976](https://github.com/bitcoin/bitcoin/pull/27976) (ci: Start with clean env by MarcoFalke)\n* [#27793](https://github.com/bitcoin/bitcoin/pull/27793) (ci: label docker images and prune dangling images selectively by stickies-v)\n\nIf you consider this pull request important, please also help to review the conflicting pull requests. Ideally, start with the one that should be merged first.\n",
    "reactions": {
      "url": "https://api.github.com/repos/bitcoin/bitcoin/issues/comments/1647892866/reactions",
      "total_count": 0,
      "+1": 0,
      "-1": 0,
      "laugh": 0,
      "hooray": 0,
      "confused": 0,
      "heart": 0,
      "rocket": 0,
      "eyes": 0
    },
    "performed_via_github_app": null
  }
]
