[
  {
    "url": "https://api.github.com/repos/bitcoin/bitcoin/issues/comments/260058022",
    "html_url": "https://github.com/bitcoin/bitcoin/issues/9134#issuecomment-260058022",
    "issue_url": "https://api.github.com/repos/bitcoin/bitcoin/issues/9134",
    "id": 260058022,
    "node_id": "MDEyOklzc3VlQ29tbWVudDI2MDA1ODAyMg==",
    "user": {
      "login": "unsystemizer",
      "id": 13134193,
      "node_id": "MDQ6VXNlcjEzMTM0MTkz",
      "avatar_url": "https://avatars.githubusercontent.com/u/13134193?v=4",
      "gravatar_id": "",
      "url": "https://api.github.com/users/unsystemizer",
      "html_url": "https://github.com/unsystemizer",
      "followers_url": "https://api.github.com/users/unsystemizer/followers",
      "following_url": "https://api.github.com/users/unsystemizer/following{/other_user}",
      "gists_url": "https://api.github.com/users/unsystemizer/gists{/gist_id}",
      "starred_url": "https://api.github.com/users/unsystemizer/starred{/owner}{/repo}",
      "subscriptions_url": "https://api.github.com/users/unsystemizer/subscriptions",
      "organizations_url": "https://api.github.com/users/unsystemizer/orgs",
      "repos_url": "https://api.github.com/users/unsystemizer/repos",
      "events_url": "https://api.github.com/users/unsystemizer/events{/privacy}",
      "received_events_url": "https://api.github.com/users/unsystemizer/received_events",
      "type": "User",
      "site_admin": false
    },
    "created_at": "2016-11-11T21:19:39Z",
    "updated_at": "2016-11-11T21:24:59Z",
    "author_association": "CONTRIBUTOR",
    "body_html": "<p dir=\"auto\">I think the scripts are broken, I tried to work by that document last week and it doesn't work (the doc has bugs for sure, the scripts may have some too and I think the current gitian has some bugs as well).<br>\nI think you should try the manual procedure and then compare with the scripts. Or wait for someone to tell us what exact environment they use and when they tried (maybe it worked with some older version of gitian).<br>\nIt's on my \"to do\" wishlist to contribute to the docs, but there were too many problems that I couldn't resolve so I haven't submitted documentation bugs/corrections yet.</p>",
    "body_text": "I think the scripts are broken, I tried to work by that document last week and it doesn't work (the doc has bugs for sure, the scripts may have some too and I think the current gitian has some bugs as well).\nI think you should try the manual procedure and then compare with the scripts. Or wait for someone to tell us what exact environment they use and when they tried (maybe it worked with some older version of gitian).\nIt's on my \"to do\" wishlist to contribute to the docs, but there were too many problems that I couldn't resolve so I haven't submitted documentation bugs/corrections yet.",
    "body": "I think the scripts are broken, I tried to work by that document last week and it doesn't work (the doc has bugs for sure, the scripts may have some too and I think the current gitian has some bugs as well). \nI think you should try the manual procedure and then compare with the scripts. Or wait for someone to tell us what exact environment they use and when they tried (maybe it worked with some older version of gitian).\nIt's on my \"to do\" wishlist to contribute to the docs, but there were too many problems that I couldn't resolve so I haven't submitted documentation bugs/corrections yet.\n",
    "reactions": {
      "url": "https://api.github.com/repos/bitcoin/bitcoin/issues/comments/260058022/reactions",
      "total_count": 0,
      "+1": 0,
      "-1": 0,
      "laugh": 0,
      "hooray": 0,
      "confused": 0,
      "heart": 0,
      "rocket": 0,
      "eyes": 0
    },
    "performed_via_github_app": null
  },
  {
    "url": "https://api.github.com/repos/bitcoin/bitcoin/issues/comments/260062191",
    "html_url": "https://github.com/bitcoin/bitcoin/issues/9134#issuecomment-260062191",
    "issue_url": "https://api.github.com/repos/bitcoin/bitcoin/issues/9134",
    "id": 260062191,
    "node_id": "MDEyOklzc3VlQ29tbWVudDI2MDA2MjE5MQ==",
    "user": {
      "login": "ghost",
      "id": 10137,
      "node_id": "MDQ6VXNlcjEwMTM3",
      "avatar_url": "https://avatars.githubusercontent.com/u/10137?v=4",
      "gravatar_id": "",
      "url": "https://api.github.com/users/ghost",
      "html_url": "https://github.com/ghost",
      "followers_url": "https://api.github.com/users/ghost/followers",
      "following_url": "https://api.github.com/users/ghost/following{/other_user}",
      "gists_url": "https://api.github.com/users/ghost/gists{/gist_id}",
      "starred_url": "https://api.github.com/users/ghost/starred{/owner}{/repo}",
      "subscriptions_url": "https://api.github.com/users/ghost/subscriptions",
      "organizations_url": "https://api.github.com/users/ghost/orgs",
      "repos_url": "https://api.github.com/users/ghost/repos",
      "events_url": "https://api.github.com/users/ghost/events{/privacy}",
      "received_events_url": "https://api.github.com/users/ghost/received_events",
      "type": "User",
      "site_admin": false
    },
    "created_at": "2016-11-11T21:42:02Z",
    "updated_at": "2016-11-11T21:42:02Z",
    "author_association": "NONE",
    "body_html": "<p dir=\"auto\">I tried to change the username on ubuntu<br>\nDid not help</p>",
    "body_text": "I tried to change the username on ubuntu\nDid not help",
    "body": "I tried to change the username on ubuntu\nDid not help\n",
    "reactions": {
      "url": "https://api.github.com/repos/bitcoin/bitcoin/issues/comments/260062191/reactions",
      "total_count": 0,
      "+1": 0,
      "-1": 0,
      "laugh": 0,
      "hooray": 0,
      "confused": 0,
      "heart": 0,
      "rocket": 0,
      "eyes": 0
    },
    "performed_via_github_app": null
  },
  {
    "url": "https://api.github.com/repos/bitcoin/bitcoin/issues/comments/260065025",
    "html_url": "https://github.com/bitcoin/bitcoin/issues/9134#issuecomment-260065025",
    "issue_url": "https://api.github.com/repos/bitcoin/bitcoin/issues/9134",
    "id": 260065025,
    "node_id": "MDEyOklzc3VlQ29tbWVudDI2MDA2NTAyNQ==",
    "user": {
      "login": "unsystemizer",
      "id": 13134193,
      "node_id": "MDQ6VXNlcjEzMTM0MTkz",
      "avatar_url": "https://avatars.githubusercontent.com/u/13134193?v=4",
      "gravatar_id": "",
      "url": "https://api.github.com/users/unsystemizer",
      "html_url": "https://github.com/unsystemizer",
      "followers_url": "https://api.github.com/users/unsystemizer/followers",
      "following_url": "https://api.github.com/users/unsystemizer/following{/other_user}",
      "gists_url": "https://api.github.com/users/unsystemizer/gists{/gist_id}",
      "starred_url": "https://api.github.com/users/unsystemizer/starred{/owner}{/repo}",
      "subscriptions_url": "https://api.github.com/users/unsystemizer/subscriptions",
      "organizations_url": "https://api.github.com/users/unsystemizer/orgs",
      "repos_url": "https://api.github.com/users/unsystemizer/repos",
      "events_url": "https://api.github.com/users/unsystemizer/events{/privacy}",
      "received_events_url": "https://api.github.com/users/unsystemizer/received_events",
      "type": "User",
      "site_admin": false
    },
    "created_at": "2016-11-11T21:57:37Z",
    "updated_at": "2016-11-11T21:57:44Z",
    "author_association": "CONTRIBUTOR",
    "body_html": "<p dir=\"auto\">If it were that simple... As I said I think it's likely multiple bugs in the docs and the code (either the script or gitian or most likely both).</p>",
    "body_text": "If it were that simple... As I said I think it's likely multiple bugs in the docs and the code (either the script or gitian or most likely both).",
    "body": "If it were that simple... As I said I think it's likely multiple bugs in the docs and the code (either the script or gitian or most likely both).\n",
    "reactions": {
      "url": "https://api.github.com/repos/bitcoin/bitcoin/issues/comments/260065025/reactions",
      "total_count": 0,
      "+1": 0,
      "-1": 0,
      "laugh": 0,
      "hooray": 0,
      "confused": 0,
      "heart": 0,
      "rocket": 0,
      "eyes": 0
    },
    "performed_via_github_app": null
  },
  {
    "url": "https://api.github.com/repos/bitcoin/bitcoin/issues/comments/260199793",
    "html_url": "https://github.com/bitcoin/bitcoin/issues/9134#issuecomment-260199793",
    "issue_url": "https://api.github.com/repos/bitcoin/bitcoin/issues/9134",
    "id": 260199793,
    "node_id": "MDEyOklzc3VlQ29tbWVudDI2MDE5OTc5Mw==",
    "user": {
      "login": "ghost",
      "id": 10137,
      "node_id": "MDQ6VXNlcjEwMTM3",
      "avatar_url": "https://avatars.githubusercontent.com/u/10137?v=4",
      "gravatar_id": "",
      "url": "https://api.github.com/users/ghost",
      "html_url": "https://github.com/ghost",
      "followers_url": "https://api.github.com/users/ghost/followers",
      "following_url": "https://api.github.com/users/ghost/following{/other_user}",
      "gists_url": "https://api.github.com/users/ghost/gists{/gist_id}",
      "starred_url": "https://api.github.com/users/ghost/starred{/owner}{/repo}",
      "subscriptions_url": "https://api.github.com/users/ghost/subscriptions",
      "organizations_url": "https://api.github.com/users/ghost/orgs",
      "repos_url": "https://api.github.com/users/ghost/repos",
      "events_url": "https://api.github.com/users/ghost/events{/privacy}",
      "received_events_url": "https://api.github.com/users/ghost/received_events",
      "type": "User",
      "site_admin": false
    },
    "created_at": "2016-11-13T17:31:10Z",
    "updated_at": "2016-11-13T17:31:10Z",
    "author_association": "NONE",
    "body_html": "<p dir=\"auto\"><strong>This is the solution!</strong><br>\nThe error occurs because of lack of memory</p>",
    "body_text": "This is the solution!\nThe error occurs because of lack of memory",
    "body": "**This is the solution!**\nThe error occurs because of lack of memory\n",
    "reactions": {
      "url": "https://api.github.com/repos/bitcoin/bitcoin/issues/comments/260199793/reactions",
      "total_count": 0,
      "+1": 0,
      "-1": 0,
      "laugh": 0,
      "hooray": 0,
      "confused": 0,
      "heart": 0,
      "rocket": 0,
      "eyes": 0
    },
    "performed_via_github_app": null
  },
  {
    "url": "https://api.github.com/repos/bitcoin/bitcoin/issues/comments/260200127",
    "html_url": "https://github.com/bitcoin/bitcoin/issues/9134#issuecomment-260200127",
    "issue_url": "https://api.github.com/repos/bitcoin/bitcoin/issues/9134",
    "id": 260200127,
    "node_id": "MDEyOklzc3VlQ29tbWVudDI2MDIwMDEyNw==",
    "user": {
      "login": "maflcko",
      "id": 6399679,
      "node_id": "MDQ6VXNlcjYzOTk2Nzk=",
      "avatar_url": "https://avatars.githubusercontent.com/u/6399679?v=4",
      "gravatar_id": "",
      "url": "https://api.github.com/users/maflcko",
      "html_url": "https://github.com/maflcko",
      "followers_url": "https://api.github.com/users/maflcko/followers",
      "following_url": "https://api.github.com/users/maflcko/following{/other_user}",
      "gists_url": "https://api.github.com/users/maflcko/gists{/gist_id}",
      "starred_url": "https://api.github.com/users/maflcko/starred{/owner}{/repo}",
      "subscriptions_url": "https://api.github.com/users/maflcko/subscriptions",
      "organizations_url": "https://api.github.com/users/maflcko/orgs",
      "repos_url": "https://api.github.com/users/maflcko/repos",
      "events_url": "https://api.github.com/users/maflcko/events{/privacy}",
      "received_events_url": "https://api.github.com/users/maflcko/received_events",
      "type": "User",
      "site_admin": false
    },
    "created_at": "2016-11-13T17:37:18Z",
    "updated_at": "2016-11-13T17:37:18Z",
    "author_association": "MEMBER",
    "body_html": "<p dir=\"auto\">Thanks for letting us know. I will close the issue now.</p>",
    "body_text": "Thanks for letting us know. I will close the issue now.",
    "body": "Thanks for letting us know. I will close the issue now.\n",
    "reactions": {
      "url": "https://api.github.com/repos/bitcoin/bitcoin/issues/comments/260200127/reactions",
      "total_count": 0,
      "+1": 0,
      "-1": 0,
      "laugh": 0,
      "hooray": 0,
      "confused": 0,
      "heart": 0,
      "rocket": 0,
      "eyes": 0
    },
    "performed_via_github_app": null
  },
  {
    "url": "https://api.github.com/repos/bitcoin/bitcoin/issues/comments/260641806",
    "html_url": "https://github.com/bitcoin/bitcoin/issues/9134#issuecomment-260641806",
    "issue_url": "https://api.github.com/repos/bitcoin/bitcoin/issues/9134",
    "id": 260641806,
    "node_id": "MDEyOklzc3VlQ29tbWVudDI2MDY0MTgwNg==",
    "user": {
      "login": "aniket-kumar",
      "id": 19814736,
      "node_id": "MDQ6VXNlcjE5ODE0NzM2",
      "avatar_url": "https://avatars.githubusercontent.com/u/19814736?v=4",
      "gravatar_id": "",
      "url": "https://api.github.com/users/aniket-kumar",
      "html_url": "https://github.com/aniket-kumar",
      "followers_url": "https://api.github.com/users/aniket-kumar/followers",
      "following_url": "https://api.github.com/users/aniket-kumar/following{/other_user}",
      "gists_url": "https://api.github.com/users/aniket-kumar/gists{/gist_id}",
      "starred_url": "https://api.github.com/users/aniket-kumar/starred{/owner}{/repo}",
      "subscriptions_url": "https://api.github.com/users/aniket-kumar/subscriptions",
      "organizations_url": "https://api.github.com/users/aniket-kumar/orgs",
      "repos_url": "https://api.github.com/users/aniket-kumar/repos",
      "events_url": "https://api.github.com/users/aniket-kumar/events{/privacy}",
      "received_events_url": "https://api.github.com/users/aniket-kumar/received_events",
      "type": "User",
      "site_admin": false
    },
    "created_at": "2016-11-15T13:32:31Z",
    "updated_at": "2016-11-15T13:33:30Z",
    "author_association": "NONE",
    "body_html": "<p dir=\"auto\"><a class=\"user-mention notranslate\" data-hovercard-type=\"user\" data-hovercard-url=\"/users/twepl/hovercard\" data-octo-click=\"hovercard-link-click\" data-octo-dimensions=\"link_type:self\" href=\"https://github.com/twepl\">@twepl</a> I don't think that is the solution. I am also facing the same issue. I have sufficient memory on my system. I am just trying to create windows binary file using gitian-build. Any help will be appreciated.</p>",
    "body_text": "@twepl I don't think that is the solution. I am also facing the same issue. I have sufficient memory on my system. I am just trying to create windows binary file using gitian-build. Any help will be appreciated.",
    "body": "@twepl I don't think that is the solution. I am also facing the same issue. I have sufficient memory on my system. I am just trying to create windows binary file using gitian-build. Any help will be appreciated.\n",
    "reactions": {
      "url": "https://api.github.com/repos/bitcoin/bitcoin/issues/comments/260641806/reactions",
      "total_count": 0,
      "+1": 0,
      "-1": 0,
      "laugh": 0,
      "hooray": 0,
      "confused": 0,
      "heart": 0,
      "rocket": 0,
      "eyes": 0
    },
    "performed_via_github_app": null
  },
  {
    "url": "https://api.github.com/repos/bitcoin/bitcoin/issues/comments/260653869",
    "html_url": "https://github.com/bitcoin/bitcoin/issues/9134#issuecomment-260653869",
    "issue_url": "https://api.github.com/repos/bitcoin/bitcoin/issues/9134",
    "id": 260653869,
    "node_id": "MDEyOklzc3VlQ29tbWVudDI2MDY1Mzg2OQ==",
    "user": {
      "login": "ghost",
      "id": 10137,
      "node_id": "MDQ6VXNlcjEwMTM3",
      "avatar_url": "https://avatars.githubusercontent.com/u/10137?v=4",
      "gravatar_id": "",
      "url": "https://api.github.com/users/ghost",
      "html_url": "https://github.com/ghost",
      "followers_url": "https://api.github.com/users/ghost/followers",
      "following_url": "https://api.github.com/users/ghost/following{/other_user}",
      "gists_url": "https://api.github.com/users/ghost/gists{/gist_id}",
      "starred_url": "https://api.github.com/users/ghost/starred{/owner}{/repo}",
      "subscriptions_url": "https://api.github.com/users/ghost/subscriptions",
      "organizations_url": "https://api.github.com/users/ghost/orgs",
      "repos_url": "https://api.github.com/users/ghost/repos",
      "events_url": "https://api.github.com/users/ghost/events{/privacy}",
      "received_events_url": "https://api.github.com/users/ghost/received_events",
      "type": "User",
      "site_admin": false
    },
    "created_at": "2016-11-15T14:23:38Z",
    "updated_at": "2016-11-15T14:28:24Z",
    "author_association": "NONE",
    "body_html": "<p dir=\"auto\"><a class=\"user-mention notranslate\" data-hovercard-type=\"user\" data-hovercard-url=\"/users/aniket-kumar/hovercard\" data-octo-click=\"hovercard-link-click\" data-octo-dimensions=\"link_type:self\" href=\"https://github.com/aniket-kumar\">@aniket-kumar</a>  I made a small guide for you</p>\n<p dir=\"auto\"><a href=\"https://github.com/bitcoin/bitcoin/blob/master/doc/gitian-building.md\">https://github.com/bitcoin/bitcoin/blob/master/doc/gitian-building.md</a></p>\n<p dir=\"auto\">Install VirtualBox VM and debian-8.5.0-amd64-netinst.iso</p>\n<p dir=\"auto\">Writing to the console</p>\n<div class=\"snippet-clipboard-content notranslate position-relative overflow-auto\" data-snippet-clipboard-copy-content=\"sed -i 's/^PermitRootLogin.*/PermitRootLogin yes/' /etc/ssh/sshd_config\n\n/etc/init.d/ssh restart\n\napt-get install git ruby sudo apt-cacher-ng qemu-utils debootstrap lxc python-cheetah parted kpartx bridge-utils make ubuntu-archive-keyring curl\n\nadduser debian sudo\n\n\necho &quot;%sudo ALL=NOPASSWD: /usr/bin/lxc-start&quot; &gt; /etc/sudoers.d/gitian-lxc\necho &quot;%sudo ALL=NOPASSWD: /usr/bin/lxc-execute&quot; &gt;&gt; /etc/sudoers.d/gitian-lxc\necho '#!/bin/sh -e' &gt; /etc/rc.local\necho 'brctl addbr br0' &gt;&gt; /etc/rc.local\necho 'ifconfig br0 10.0.3.2/24 up' &gt;&gt; /etc/rc.local\necho 'iptables -t nat -A POSTROUTING -o eth0 -j MASQUERADE' &gt;&gt; /etc/rc.local\necho 'echo 1 &gt; /proc/sys/net/ipv4/ip_forward' &gt;&gt; /etc/rc.local\necho 'exit 0' &gt;&gt; /etc/rc.local\necho 'export USE_LXC=1' &gt;&gt; /home/debian/.profile\necho 'export GITIAN_HOST_IP=10.0.3.2' &gt;&gt; /home/debian/.profile\necho 'export LXC_GUEST_IP=10.0.3.5' &gt;&gt; /home/debian/.profile\nreboot\"><pre class=\"notranslate\"><code class=\"notranslate\">sed -i 's/^PermitRootLogin.*/PermitRootLogin yes/' /etc/ssh/sshd_config\n\n/etc/init.d/ssh restart\n\napt-get install git ruby sudo apt-cacher-ng qemu-utils debootstrap lxc python-cheetah parted kpartx bridge-utils make ubuntu-archive-keyring curl\n\nadduser debian sudo\n\n\necho \"%sudo ALL=NOPASSWD: /usr/bin/lxc-start\" &gt; /etc/sudoers.d/gitian-lxc\necho \"%sudo ALL=NOPASSWD: /usr/bin/lxc-execute\" &gt;&gt; /etc/sudoers.d/gitian-lxc\necho '#!/bin/sh -e' &gt; /etc/rc.local\necho 'brctl addbr br0' &gt;&gt; /etc/rc.local\necho 'ifconfig br0 10.0.3.2/24 up' &gt;&gt; /etc/rc.local\necho 'iptables -t nat -A POSTROUTING -o eth0 -j MASQUERADE' &gt;&gt; /etc/rc.local\necho 'echo 1 &gt; /proc/sys/net/ipv4/ip_forward' &gt;&gt; /etc/rc.local\necho 'exit 0' &gt;&gt; /etc/rc.local\necho 'export USE_LXC=1' &gt;&gt; /home/debian/.profile\necho 'export GITIAN_HOST_IP=10.0.3.2' &gt;&gt; /home/debian/.profile\necho 'export LXC_GUEST_IP=10.0.3.5' &gt;&gt; /home/debian/.profile\nreboot\n</code></pre></div>\n<p dir=\"auto\"><strong>SSH</strong> localhost 22222<br>\nuser debian</p>\n<div class=\"snippet-clipboard-content notranslate position-relative overflow-auto\" data-snippet-clipboard-copy-content=\"sudo apt-get update\n\nsudo apt-get install build-essential libtool autotools-dev automake pkg-config libssl-dev libevent-dev bsdmainutils\n\nsudo apt-get install libqt5gui5 libqt5core5a libqt5dbus5 qttools5-dev qttools5-dev-tools libprotobuf-dev protobuf-compiler\n\nwget http://archive.ubuntu.com/ubuntu/pool/universe/v/vm-builder/vm-builder_0.12.4+bzr494.orig.tar.gz\necho &quot;76cbf8c52c391160b2641e7120dbade5afded713afaa6032f733a261f13e6a8e  vm-builder_0.12.4+bzr494.orig.tar.gz&quot; | sha256sum -c\n# (verification -- must return OK)\ntar -zxvf vm-builder_0.12.4+bzr494.orig.tar.gz\ncd vm-builder-0.12.4+bzr494\nsudo python setup.py install\ncd ..\n\nreboot\"><pre class=\"notranslate\"><code class=\"notranslate\">sudo apt-get update\n\nsudo apt-get install build-essential libtool autotools-dev automake pkg-config libssl-dev libevent-dev bsdmainutils\n\nsudo apt-get install libqt5gui5 libqt5core5a libqt5dbus5 qttools5-dev qttools5-dev-tools libprotobuf-dev protobuf-compiler\n\nwget http://archive.ubuntu.com/ubuntu/pool/universe/v/vm-builder/vm-builder_0.12.4+bzr494.orig.tar.gz\necho \"76cbf8c52c391160b2641e7120dbade5afded713afaa6032f733a261f13e6a8e  vm-builder_0.12.4+bzr494.orig.tar.gz\" | sha256sum -c\n# (verification -- must return OK)\ntar -zxvf vm-builder_0.12.4+bzr494.orig.tar.gz\ncd vm-builder-0.12.4+bzr494\nsudo python setup.py install\ncd ..\n\nreboot\n</code></pre></div>\n<p dir=\"auto\">Create a clone VirtualBox VM debian 2</p>\n<p dir=\"auto\"><strong>SSH</strong> localhost 22222<br>\nuser debian</p>\n<p dir=\"auto\">Writing to the console</p>\n<div class=\"snippet-clipboard-content notranslate position-relative overflow-auto\" data-snippet-clipboard-copy-content=\"git clone https://github.com/devrandom/gitian-builder.git\ngit clone https://github.com/bitcoin/bitcoin\ngit clone https://github.com/bitcoin-core/gitian.sigs.git\n\ncd gitian-builder\nbin/make-base-vm --lxc --arch amd64 --suite trusty\n\npushd ./gitian-builder\nmkdir -p inputs\nwget -P inputs https://bitcoincore.org/cfields/osslsigncode-Backports-to-1.7.1.patch\nwget -P inputs http://downloads.sourceforge.net/project/osslsigncode/osslsigncode/osslsigncode-1.7.1.tar.gz\npopd\n\npushd ./gitian-builder\nmake -C ../bitcoin/depends download SOURCES_PATH=`pwd`/cache/common\npopd\"><pre class=\"notranslate\"><code class=\"notranslate\">git clone https://github.com/devrandom/gitian-builder.git\ngit clone https://github.com/bitcoin/bitcoin\ngit clone https://github.com/bitcoin-core/gitian.sigs.git\n\ncd gitian-builder\nbin/make-base-vm --lxc --arch amd64 --suite trusty\n\npushd ./gitian-builder\nmkdir -p inputs\nwget -P inputs https://bitcoincore.org/cfields/osslsigncode-Backports-to-1.7.1.patch\nwget -P inputs http://downloads.sourceforge.net/project/osslsigncode/osslsigncode/osslsigncode-1.7.1.tar.gz\npopd\n\npushd ./gitian-builder\nmake -C ../bitcoin/depends download SOURCES_PATH=`pwd`/cache/common\npopd\n</code></pre></div>\n<p dir=\"auto\"><strong>LINUX OS</strong></p>\n<div class=\"snippet-clipboard-content notranslate position-relative overflow-auto\" data-snippet-clipboard-copy-content=\"pushd ./gitian-builder\n./bin/gbuild --memory 3000 --commit bitcoin=master ../bitcoin/contrib/gitian-descriptors/gitian-linux.yml\n./bin/gsign --signer $SIGNER --release ${VERSION}-linux --destination ../gitian.sigs/ ../bitcoin/contrib/gitian-descriptors/gitian-linux.yml\nmv build/out/bitcoin-*.tar.gz build/out/src/bitcoin-*.tar.gz ../\npopd\"><pre class=\"notranslate\"><code class=\"notranslate\">pushd ./gitian-builder\n./bin/gbuild --memory 3000 --commit bitcoin=master ../bitcoin/contrib/gitian-descriptors/gitian-linux.yml\n./bin/gsign --signer $SIGNER --release ${VERSION}-linux --destination ../gitian.sigs/ ../bitcoin/contrib/gitian-descriptors/gitian-linux.yml\nmv build/out/bitcoin-*.tar.gz build/out/src/bitcoin-*.tar.gz ../\npopd\n</code></pre></div>\n<p dir=\"auto\"><strong>Windows OS</strong></p>\n<div class=\"snippet-clipboard-content notranslate position-relative overflow-auto\" data-snippet-clipboard-copy-content=\"pushd ./gitian-builder\n./bin/gbuild --memory 3000 --commit bitcoin=master  ../bitcoin/contrib/gitian-descriptors/gitian-win.yml\n./bin/gsign --signer $SIGNER --release ${VERSION}-win-unsigned --destination ../gitian.sigs/ ../bitcoin/contrib/gitian-descriptors/gitian-win.yml\nmv build/out/bitcoin-*-win-unsigned.tar.gz inputs/bitcoin-win-unsigned.tar.gz\nmv build/out/bitcoin-*.zip build/out/bitcoin-*.exe ../\npopd\"><pre class=\"notranslate\"><code class=\"notranslate\">pushd ./gitian-builder\n./bin/gbuild --memory 3000 --commit bitcoin=master  ../bitcoin/contrib/gitian-descriptors/gitian-win.yml\n./bin/gsign --signer $SIGNER --release ${VERSION}-win-unsigned --destination ../gitian.sigs/ ../bitcoin/contrib/gitian-descriptors/gitian-win.yml\nmv build/out/bitcoin-*-win-unsigned.tar.gz inputs/bitcoin-win-unsigned.tar.gz\nmv build/out/bitcoin-*.zip build/out/bitcoin-*.exe ../\npopd\n</code></pre></div>\n<p dir=\"auto\"><strong>Mac OS X</strong></p>\n<div class=\"snippet-clipboard-content notranslate position-relative overflow-auto\" data-snippet-clipboard-copy-content=\"pushd ./gitian-builder\n./bin/gbuild --memory 3000 --commit bitcoin=master  ../bitcoin/contrib/gitian-descriptors/gitian-osx.yml\n./bin/gsign --signer $SIGNER --release ${VERSION}-osx-unsigned --destination ../gitian.sigs/ ../bitcoin/contrib/gitian-descriptors/gitian-osx.yml\nmv build/out/bitcoin-*-osx-unsigned.tar.gz inputs/bitcoin-osx-unsigned.tar.gz\nmv build/out/bitcoin-*.tar.gz build/out/bitcoin-*.dmg ../\npopd\"><pre class=\"notranslate\"><code class=\"notranslate\">pushd ./gitian-builder\n./bin/gbuild --memory 3000 --commit bitcoin=master  ../bitcoin/contrib/gitian-descriptors/gitian-osx.yml\n./bin/gsign --signer $SIGNER --release ${VERSION}-osx-unsigned --destination ../gitian.sigs/ ../bitcoin/contrib/gitian-descriptors/gitian-osx.yml\nmv build/out/bitcoin-*-osx-unsigned.tar.gz inputs/bitcoin-osx-unsigned.tar.gz\nmv build/out/bitcoin-*.tar.gz build/out/bitcoin-*.dmg ../\npopd\n</code></pre></div>",
    "body_text": "@aniket-kumar  I made a small guide for you\nhttps://github.com/bitcoin/bitcoin/blob/master/doc/gitian-building.md\nInstall VirtualBox VM and debian-8.5.0-amd64-netinst.iso\nWriting to the console\nsed -i 's/^PermitRootLogin.*/PermitRootLogin yes/' /etc/ssh/sshd_config\n\n/etc/init.d/ssh restart\n\napt-get install git ruby sudo apt-cacher-ng qemu-utils debootstrap lxc python-cheetah parted kpartx bridge-utils make ubuntu-archive-keyring curl\n\nadduser debian sudo\n\n\necho \"%sudo ALL=NOPASSWD: /usr/bin/lxc-start\" > /etc/sudoers.d/gitian-lxc\necho \"%sudo ALL=NOPASSWD: /usr/bin/lxc-execute\" >> /etc/sudoers.d/gitian-lxc\necho '#!/bin/sh -e' > /etc/rc.local\necho 'brctl addbr br0' >> /etc/rc.local\necho 'ifconfig br0 10.0.3.2/24 up' >> /etc/rc.local\necho 'iptables -t nat -A POSTROUTING -o eth0 -j MASQUERADE' >> /etc/rc.local\necho 'echo 1 > /proc/sys/net/ipv4/ip_forward' >> /etc/rc.local\necho 'exit 0' >> /etc/rc.local\necho 'export USE_LXC=1' >> /home/debian/.profile\necho 'export GITIAN_HOST_IP=10.0.3.2' >> /home/debian/.profile\necho 'export LXC_GUEST_IP=10.0.3.5' >> /home/debian/.profile\nreboot\n\nSSH localhost 22222\nuser debian\nsudo apt-get update\n\nsudo apt-get install build-essential libtool autotools-dev automake pkg-config libssl-dev libevent-dev bsdmainutils\n\nsudo apt-get install libqt5gui5 libqt5core5a libqt5dbus5 qttools5-dev qttools5-dev-tools libprotobuf-dev protobuf-compiler\n\nwget http://archive.ubuntu.com/ubuntu/pool/universe/v/vm-builder/vm-builder_0.12.4+bzr494.orig.tar.gz\necho \"76cbf8c52c391160b2641e7120dbade5afded713afaa6032f733a261f13e6a8e  vm-builder_0.12.4+bzr494.orig.tar.gz\" | sha256sum -c\n# (verification -- must return OK)\ntar -zxvf vm-builder_0.12.4+bzr494.orig.tar.gz\ncd vm-builder-0.12.4+bzr494\nsudo python setup.py install\ncd ..\n\nreboot\n\nCreate a clone VirtualBox VM debian 2\nSSH localhost 22222\nuser debian\nWriting to the console\ngit clone https://github.com/devrandom/gitian-builder.git\ngit clone https://github.com/bitcoin/bitcoin\ngit clone https://github.com/bitcoin-core/gitian.sigs.git\n\ncd gitian-builder\nbin/make-base-vm --lxc --arch amd64 --suite trusty\n\npushd ./gitian-builder\nmkdir -p inputs\nwget -P inputs https://bitcoincore.org/cfields/osslsigncode-Backports-to-1.7.1.patch\nwget -P inputs http://downloads.sourceforge.net/project/osslsigncode/osslsigncode/osslsigncode-1.7.1.tar.gz\npopd\n\npushd ./gitian-builder\nmake -C ../bitcoin/depends download SOURCES_PATH=`pwd`/cache/common\npopd\n\nLINUX OS\npushd ./gitian-builder\n./bin/gbuild --memory 3000 --commit bitcoin=master ../bitcoin/contrib/gitian-descriptors/gitian-linux.yml\n./bin/gsign --signer $SIGNER --release ${VERSION}-linux --destination ../gitian.sigs/ ../bitcoin/contrib/gitian-descriptors/gitian-linux.yml\nmv build/out/bitcoin-*.tar.gz build/out/src/bitcoin-*.tar.gz ../\npopd\n\nWindows OS\npushd ./gitian-builder\n./bin/gbuild --memory 3000 --commit bitcoin=master  ../bitcoin/contrib/gitian-descriptors/gitian-win.yml\n./bin/gsign --signer $SIGNER --release ${VERSION}-win-unsigned --destination ../gitian.sigs/ ../bitcoin/contrib/gitian-descriptors/gitian-win.yml\nmv build/out/bitcoin-*-win-unsigned.tar.gz inputs/bitcoin-win-unsigned.tar.gz\nmv build/out/bitcoin-*.zip build/out/bitcoin-*.exe ../\npopd\n\nMac OS X\npushd ./gitian-builder\n./bin/gbuild --memory 3000 --commit bitcoin=master  ../bitcoin/contrib/gitian-descriptors/gitian-osx.yml\n./bin/gsign --signer $SIGNER --release ${VERSION}-osx-unsigned --destination ../gitian.sigs/ ../bitcoin/contrib/gitian-descriptors/gitian-osx.yml\nmv build/out/bitcoin-*-osx-unsigned.tar.gz inputs/bitcoin-osx-unsigned.tar.gz\nmv build/out/bitcoin-*.tar.gz build/out/bitcoin-*.dmg ../\npopd",
    "body": "@aniket-kumar  I made a small guide for you\n\nhttps://github.com/bitcoin/bitcoin/blob/master/doc/gitian-building.md\n\nInstall VirtualBox VM and debian-8.5.0-amd64-netinst.iso\n\nWriting to the console\n\n```\nsed -i 's/^PermitRootLogin.*/PermitRootLogin yes/' /etc/ssh/sshd_config\n\n/etc/init.d/ssh restart\n\napt-get install git ruby sudo apt-cacher-ng qemu-utils debootstrap lxc python-cheetah parted kpartx bridge-utils make ubuntu-archive-keyring curl\n\nadduser debian sudo\n\n\necho \"%sudo ALL=NOPASSWD: /usr/bin/lxc-start\" > /etc/sudoers.d/gitian-lxc\necho \"%sudo ALL=NOPASSWD: /usr/bin/lxc-execute\" >> /etc/sudoers.d/gitian-lxc\necho '#!/bin/sh -e' > /etc/rc.local\necho 'brctl addbr br0' >> /etc/rc.local\necho 'ifconfig br0 10.0.3.2/24 up' >> /etc/rc.local\necho 'iptables -t nat -A POSTROUTING -o eth0 -j MASQUERADE' >> /etc/rc.local\necho 'echo 1 > /proc/sys/net/ipv4/ip_forward' >> /etc/rc.local\necho 'exit 0' >> /etc/rc.local\necho 'export USE_LXC=1' >> /home/debian/.profile\necho 'export GITIAN_HOST_IP=10.0.3.2' >> /home/debian/.profile\necho 'export LXC_GUEST_IP=10.0.3.5' >> /home/debian/.profile\nreboot\n```\n\n**SSH** localhost 22222\nuser debian\n\n```\nsudo apt-get update\n\nsudo apt-get install build-essential libtool autotools-dev automake pkg-config libssl-dev libevent-dev bsdmainutils\n\nsudo apt-get install libqt5gui5 libqt5core5a libqt5dbus5 qttools5-dev qttools5-dev-tools libprotobuf-dev protobuf-compiler\n\nwget http://archive.ubuntu.com/ubuntu/pool/universe/v/vm-builder/vm-builder_0.12.4+bzr494.orig.tar.gz\necho \"76cbf8c52c391160b2641e7120dbade5afded713afaa6032f733a261f13e6a8e  vm-builder_0.12.4+bzr494.orig.tar.gz\" | sha256sum -c\n# (verification -- must return OK)\ntar -zxvf vm-builder_0.12.4+bzr494.orig.tar.gz\ncd vm-builder-0.12.4+bzr494\nsudo python setup.py install\ncd ..\n\nreboot\n```\n\nCreate a clone VirtualBox VM debian 2\n\n**SSH** localhost 22222\nuser debian\n\nWriting to the console\n\n```\ngit clone https://github.com/devrandom/gitian-builder.git\ngit clone https://github.com/bitcoin/bitcoin\ngit clone https://github.com/bitcoin-core/gitian.sigs.git\n\ncd gitian-builder\nbin/make-base-vm --lxc --arch amd64 --suite trusty\n\npushd ./gitian-builder\nmkdir -p inputs\nwget -P inputs https://bitcoincore.org/cfields/osslsigncode-Backports-to-1.7.1.patch\nwget -P inputs http://downloads.sourceforge.net/project/osslsigncode/osslsigncode/osslsigncode-1.7.1.tar.gz\npopd\n\npushd ./gitian-builder\nmake -C ../bitcoin/depends download SOURCES_PATH=`pwd`/cache/common\npopd\n```\n\n**LINUX OS**\n\n```\npushd ./gitian-builder\n./bin/gbuild --memory 3000 --commit bitcoin=master ../bitcoin/contrib/gitian-descriptors/gitian-linux.yml\n./bin/gsign --signer $SIGNER --release ${VERSION}-linux --destination ../gitian.sigs/ ../bitcoin/contrib/gitian-descriptors/gitian-linux.yml\nmv build/out/bitcoin-*.tar.gz build/out/src/bitcoin-*.tar.gz ../\npopd\n```\n\n**Windows OS**\n\n```\npushd ./gitian-builder\n./bin/gbuild --memory 3000 --commit bitcoin=master  ../bitcoin/contrib/gitian-descriptors/gitian-win.yml\n./bin/gsign --signer $SIGNER --release ${VERSION}-win-unsigned --destination ../gitian.sigs/ ../bitcoin/contrib/gitian-descriptors/gitian-win.yml\nmv build/out/bitcoin-*-win-unsigned.tar.gz inputs/bitcoin-win-unsigned.tar.gz\nmv build/out/bitcoin-*.zip build/out/bitcoin-*.exe ../\npopd\n```\n\n**Mac OS X**\n\n```\npushd ./gitian-builder\n./bin/gbuild --memory 3000 --commit bitcoin=master  ../bitcoin/contrib/gitian-descriptors/gitian-osx.yml\n./bin/gsign --signer $SIGNER --release ${VERSION}-osx-unsigned --destination ../gitian.sigs/ ../bitcoin/contrib/gitian-descriptors/gitian-osx.yml\nmv build/out/bitcoin-*-osx-unsigned.tar.gz inputs/bitcoin-osx-unsigned.tar.gz\nmv build/out/bitcoin-*.tar.gz build/out/bitcoin-*.dmg ../\npopd\n```\n",
    "reactions": {
      "url": "https://api.github.com/repos/bitcoin/bitcoin/issues/comments/260653869/reactions",
      "total_count": 2,
      "+1": 2,
      "-1": 0,
      "laugh": 0,
      "hooray": 0,
      "confused": 0,
      "heart": 0,
      "rocket": 0,
      "eyes": 0
    },
    "performed_via_github_app": null
  },
  {
    "url": "https://api.github.com/repos/bitcoin/bitcoin/issues/comments/260658659",
    "html_url": "https://github.com/bitcoin/bitcoin/issues/9134#issuecomment-260658659",
    "issue_url": "https://api.github.com/repos/bitcoin/bitcoin/issues/9134",
    "id": 260658659,
    "node_id": "MDEyOklzc3VlQ29tbWVudDI2MDY1ODY1OQ==",
    "user": {
      "login": "aniket-kumar",
      "id": 19814736,
      "node_id": "MDQ6VXNlcjE5ODE0NzM2",
      "avatar_url": "https://avatars.githubusercontent.com/u/19814736?v=4",
      "gravatar_id": "",
      "url": "https://api.github.com/users/aniket-kumar",
      "html_url": "https://github.com/aniket-kumar",
      "followers_url": "https://api.github.com/users/aniket-kumar/followers",
      "following_url": "https://api.github.com/users/aniket-kumar/following{/other_user}",
      "gists_url": "https://api.github.com/users/aniket-kumar/gists{/gist_id}",
      "starred_url": "https://api.github.com/users/aniket-kumar/starred{/owner}{/repo}",
      "subscriptions_url": "https://api.github.com/users/aniket-kumar/subscriptions",
      "organizations_url": "https://api.github.com/users/aniket-kumar/orgs",
      "repos_url": "https://api.github.com/users/aniket-kumar/repos",
      "events_url": "https://api.github.com/users/aniket-kumar/events{/privacy}",
      "received_events_url": "https://api.github.com/users/aniket-kumar/received_events",
      "type": "User",
      "site_admin": false
    },
    "created_at": "2016-11-15T14:41:23Z",
    "updated_at": "2016-11-15T14:45:45Z",
    "author_association": "NONE",
    "body_html": "<p dir=\"auto\"><a class=\"user-mention notranslate\" data-hovercard-type=\"user\" data-hovercard-url=\"/users/twepl/hovercard\" data-octo-click=\"hovercard-link-click\" data-octo-dimensions=\"link_type:self\" href=\"https://github.com/twepl\">@twepl</a>  I am not using any VM, doing this on my machine.I have executed all other commands , only the windows binary build command is throwing error. I applied the changes in my command according to your answer, still getting the same error :</p>\n<p dir=\"auto\">Running build script (log in var/build.log)<br>\n./bin/gbuild:21:in <code class=\"notranslate\">system!': failed to run on-target setarch x86_64 bash -x &lt; var/build-script &gt; var/build.log 2&gt;&amp;1 (RuntimeError) from ./bin/gbuild:149:in</code>build_one_configuration'<br>\nfrom ./bin/gbuild:285:in <code class=\"notranslate\">block (2 levels) in &lt;main&gt;' from ./bin/gbuild:280:in</code>each'<br>\nfrom ./bin/gbuild:280:in <code class=\"notranslate\">block in &lt;main&gt;' from ./bin/gbuild:278:in</code>each'<br>\nfrom ./bin/gbuild:278:in `</p>'<p dir=\"auto\"></p>",
    "body_text": "@twepl  I am not using any VM, doing this on my machine.I have executed all other commands , only the windows binary build command is throwing error. I applied the changes in my command according to your answer, still getting the same error :\nRunning build script (log in var/build.log)\n./bin/gbuild:21:in system!': failed to run on-target setarch x86_64 bash -x < var/build-script > var/build.log 2>&1 (RuntimeError) from ./bin/gbuild:149:inbuild_one_configuration'\nfrom ./bin/gbuild:285:in block (2 levels) in <main>' from ./bin/gbuild:280:ineach'\nfrom ./bin/gbuild:280:in block in <main>' from ./bin/gbuild:278:ineach'\nfrom ./bin/gbuild:278:in `'",
    "body": "@twepl  I am not using any VM, doing this on my machine.I have executed all other commands , only the windows binary build command is throwing error. I applied the changes in my command according to your answer, still getting the same error : \n\nRunning build script (log in var/build.log)\n./bin/gbuild:21:in `system!': failed to run on-target setarch x86_64 bash -x < var/build-script > var/build.log 2>&1 (RuntimeError)\n    from ./bin/gbuild:149:in`build_one_configuration'\n    from ./bin/gbuild:285:in `block (2 levels) in <main>'\n    from ./bin/gbuild:280:in`each'\n    from ./bin/gbuild:280:in `block in <main>'\n    from ./bin/gbuild:278:in`each'\n    from ./bin/gbuild:278:in `<main>' \n",
    "reactions": {
      "url": "https://api.github.com/repos/bitcoin/bitcoin/issues/comments/260658659/reactions",
      "total_count": 0,
      "+1": 0,
      "-1": 0,
      "laugh": 0,
      "hooray": 0,
      "confused": 0,
      "heart": 0,
      "rocket": 0,
      "eyes": 0
    },
    "performed_via_github_app": null
  },
  {
    "url": "https://api.github.com/repos/bitcoin/bitcoin/issues/comments/340238701",
    "html_url": "https://github.com/bitcoin/bitcoin/issues/9134#issuecomment-340238701",
    "issue_url": "https://api.github.com/repos/bitcoin/bitcoin/issues/9134",
    "id": 340238701,
    "node_id": "MDEyOklzc3VlQ29tbWVudDM0MDIzODcwMQ==",
    "user": {
      "login": "marvic41",
      "id": 7259753,
      "node_id": "MDQ6VXNlcjcyNTk3NTM=",
      "avatar_url": "https://avatars.githubusercontent.com/u/7259753?v=4",
      "gravatar_id": "",
      "url": "https://api.github.com/users/marvic41",
      "html_url": "https://github.com/marvic41",
      "followers_url": "https://api.github.com/users/marvic41/followers",
      "following_url": "https://api.github.com/users/marvic41/following{/other_user}",
      "gists_url": "https://api.github.com/users/marvic41/gists{/gist_id}",
      "starred_url": "https://api.github.com/users/marvic41/starred{/owner}{/repo}",
      "subscriptions_url": "https://api.github.com/users/marvic41/subscriptions",
      "organizations_url": "https://api.github.com/users/marvic41/orgs",
      "repos_url": "https://api.github.com/users/marvic41/repos",
      "events_url": "https://api.github.com/users/marvic41/events{/privacy}",
      "received_events_url": "https://api.github.com/users/marvic41/received_events",
      "type": "User",
      "site_admin": false
    },
    "created_at": "2017-10-29T05:24:44Z",
    "updated_at": "2017-10-29T05:24:44Z",
    "author_association": "NONE",
    "body_html": "<p dir=\"auto\"><a class=\"user-mention notranslate\" data-hovercard-type=\"user\" data-hovercard-url=\"/users/aniket-kumar/hovercard\" data-octo-click=\"hovercard-link-click\" data-octo-dimensions=\"link_type:self\" href=\"https://github.com/aniket-kumar\">@aniket-kumar</a> I tried for mac it flashes errors. do you have a procedure to build for mac.<br>\nFor Linux and Win (32,64) i able to create binaries.</p>",
    "body_text": "@aniket-kumar I tried for mac it flashes errors. do you have a procedure to build for mac.\nFor Linux and Win (32,64) i able to create binaries.",
    "body": "@aniket-kumar I tried for mac it flashes errors. do you have a procedure to build for mac.\r\nFor Linux and Win (32,64) i able to create binaries.\r\n",
    "reactions": {
      "url": "https://api.github.com/repos/bitcoin/bitcoin/issues/comments/340238701/reactions",
      "total_count": 0,
      "+1": 0,
      "-1": 0,
      "laugh": 0,
      "hooray": 0,
      "confused": 0,
      "heart": 0,
      "rocket": 0,
      "eyes": 0
    },
    "performed_via_github_app": null
  },
  {
    "url": "https://api.github.com/repos/bitcoin/bitcoin/issues/comments/568289647",
    "html_url": "https://github.com/bitcoin/bitcoin/issues/9134#issuecomment-568289647",
    "issue_url": "https://api.github.com/repos/bitcoin/bitcoin/issues/9134",
    "id": 568289647,
    "node_id": "MDEyOklzc3VlQ29tbWVudDU2ODI4OTY0Nw==",
    "user": {
      "login": "gwpreggae",
      "id": 43702276,
      "node_id": "MDQ6VXNlcjQzNzAyMjc2",
      "avatar_url": "https://avatars.githubusercontent.com/u/43702276?v=4",
      "gravatar_id": "",
      "url": "https://api.github.com/users/gwpreggae",
      "html_url": "https://github.com/gwpreggae",
      "followers_url": "https://api.github.com/users/gwpreggae/followers",
      "following_url": "https://api.github.com/users/gwpreggae/following{/other_user}",
      "gists_url": "https://api.github.com/users/gwpreggae/gists{/gist_id}",
      "starred_url": "https://api.github.com/users/gwpreggae/starred{/owner}{/repo}",
      "subscriptions_url": "https://api.github.com/users/gwpreggae/subscriptions",
      "organizations_url": "https://api.github.com/users/gwpreggae/orgs",
      "repos_url": "https://api.github.com/users/gwpreggae/repos",
      "events_url": "https://api.github.com/users/gwpreggae/events{/privacy}",
      "received_events_url": "https://api.github.com/users/gwpreggae/received_events",
      "type": "User",
      "site_admin": false
    },
    "created_at": "2019-12-22T18:14:00Z",
    "updated_at": "2019-12-22T18:14:00Z",
    "author_association": "NONE",
    "body_html": "<blockquote>\n<p dir=\"auto\"><a class=\"user-mention notranslate\" data-hovercard-type=\"user\" data-hovercard-url=\"/users/twepl/hovercard\" data-octo-click=\"hovercard-link-click\" data-octo-dimensions=\"link_type:self\" href=\"https://github.com/twepl\">@twepl</a> I don't think that is the solution. I am also facing the same issue. I have sufficient memory on my system. I am just trying to create windows binary file using gitian-build. Any help will be appreciated.</p>\n</blockquote>\n<p dir=\"auto\">Did you figure this out? I am stuck here too.</p>",
    "body_text": "@twepl I don't think that is the solution. I am also facing the same issue. I have sufficient memory on my system. I am just trying to create windows binary file using gitian-build. Any help will be appreciated.\n\nDid you figure this out? I am stuck here too.",
    "body": "> @twepl I don't think that is the solution. I am also facing the same issue. I have sufficient memory on my system. I am just trying to create windows binary file using gitian-build. Any help will be appreciated.\r\n\r\nDid you figure this out? I am stuck here too.",
    "reactions": {
      "url": "https://api.github.com/repos/bitcoin/bitcoin/issues/comments/568289647/reactions",
      "total_count": 0,
      "+1": 0,
      "-1": 0,
      "laugh": 0,
      "hooray": 0,
      "confused": 0,
      "heart": 0,
      "rocket": 0,
      "eyes": 0
    },
    "performed_via_github_app": null
  },
  {
    "url": "https://api.github.com/repos/bitcoin/bitcoin/issues/comments/615833367",
    "html_url": "https://github.com/bitcoin/bitcoin/issues/9134#issuecomment-615833367",
    "issue_url": "https://api.github.com/repos/bitcoin/bitcoin/issues/9134",
    "id": 615833367,
    "node_id": "MDEyOklzc3VlQ29tbWVudDYxNTgzMzM2Nw==",
    "user": {
      "login": "realcaesar",
      "id": 63470989,
      "node_id": "MDQ6VXNlcjYzNDcwOTg5",
      "avatar_url": "https://avatars.githubusercontent.com/u/63470989?v=4",
      "gravatar_id": "",
      "url": "https://api.github.com/users/realcaesar",
      "html_url": "https://github.com/realcaesar",
      "followers_url": "https://api.github.com/users/realcaesar/followers",
      "following_url": "https://api.github.com/users/realcaesar/following{/other_user}",
      "gists_url": "https://api.github.com/users/realcaesar/gists{/gist_id}",
      "starred_url": "https://api.github.com/users/realcaesar/starred{/owner}{/repo}",
      "subscriptions_url": "https://api.github.com/users/realcaesar/subscriptions",
      "organizations_url": "https://api.github.com/users/realcaesar/orgs",
      "repos_url": "https://api.github.com/users/realcaesar/repos",
      "events_url": "https://api.github.com/users/realcaesar/events{/privacy}",
      "received_events_url": "https://api.github.com/users/realcaesar/received_events",
      "type": "User",
      "site_admin": false
    },
    "created_at": "2020-04-18T09:45:10Z",
    "updated_at": "2020-04-18T09:45:10Z",
    "author_association": "NONE",
    "body_html": "<blockquote>\n<blockquote>\n<p dir=\"auto\"><a class=\"user-mention notranslate\" data-hovercard-type=\"user\" data-hovercard-url=\"/users/twepl/hovercard\" data-octo-click=\"hovercard-link-click\" data-octo-dimensions=\"link_type:self\" href=\"https://github.com/twepl\">@twepl</a> I don't think that is the solution. I am also facing the same issue. I have sufficient memory on my system. I am just trying to create windows binary file using gitian-build. Any help will be appreciated.</p>\n</blockquote>\n<p dir=\"auto\">Did you figure this out? I am stuck here too.</p>\n</blockquote>\n<p dir=\"auto\">Did you?? same problem here!</p>",
    "body_text": "@twepl I don't think that is the solution. I am also facing the same issue. I have sufficient memory on my system. I am just trying to create windows binary file using gitian-build. Any help will be appreciated.\n\nDid you figure this out? I am stuck here too.\n\nDid you?? same problem here!",
    "body": "> > @twepl I don't think that is the solution. I am also facing the same issue. I have sufficient memory on my system. I am just trying to create windows binary file using gitian-build. Any help will be appreciated.\r\n> \r\n> Did you figure this out? I am stuck here too.\r\n\r\nDid you?? same problem here!\r\n",
    "reactions": {
      "url": "https://api.github.com/repos/bitcoin/bitcoin/issues/comments/615833367/reactions",
      "total_count": 0,
      "+1": 0,
      "-1": 0,
      "laugh": 0,
      "hooray": 0,
      "confused": 0,
      "heart": 0,
      "rocket": 0,
      "eyes": 0
    },
    "performed_via_github_app": null
  },
  {
    "url": "https://api.github.com/repos/bitcoin/bitcoin/issues/comments/619519328",
    "html_url": "https://github.com/bitcoin/bitcoin/issues/9134#issuecomment-619519328",
    "issue_url": "https://api.github.com/repos/bitcoin/bitcoin/issues/9134",
    "id": 619519328,
    "node_id": "MDEyOklzc3VlQ29tbWVudDYxOTUxOTMyOA==",
    "user": {
      "login": "realcaesar",
      "id": 63470989,
      "node_id": "MDQ6VXNlcjYzNDcwOTg5",
      "avatar_url": "https://avatars.githubusercontent.com/u/63470989?v=4",
      "gravatar_id": "",
      "url": "https://api.github.com/users/realcaesar",
      "html_url": "https://github.com/realcaesar",
      "followers_url": "https://api.github.com/users/realcaesar/followers",
      "following_url": "https://api.github.com/users/realcaesar/following{/other_user}",
      "gists_url": "https://api.github.com/users/realcaesar/gists{/gist_id}",
      "starred_url": "https://api.github.com/users/realcaesar/starred{/owner}{/repo}",
      "subscriptions_url": "https://api.github.com/users/realcaesar/subscriptions",
      "organizations_url": "https://api.github.com/users/realcaesar/orgs",
      "repos_url": "https://api.github.com/users/realcaesar/repos",
      "events_url": "https://api.github.com/users/realcaesar/events{/privacy}",
      "received_events_url": "https://api.github.com/users/realcaesar/received_events",
      "type": "User",
      "site_admin": false
    },
    "created_at": "2020-04-26T09:44:26Z",
    "updated_at": "2020-04-26T09:44:26Z",
    "author_association": "NONE",
    "body_html": "<p dir=\"auto\">Anyone solved this \"failed to run on-target setarch x86_64 bash\" problem?  I tried a lot of combinations even differnt boost-win32 versions but no success.</p>",
    "body_text": "Anyone solved this \"failed to run on-target setarch x86_64 bash\" problem?  I tried a lot of combinations even differnt boost-win32 versions but no success.",
    "body": "Anyone solved this \"failed to run on-target setarch x86_64 bash\" problem?  I tried a lot of combinations even differnt boost-win32 versions but no success.",
    "reactions": {
      "url": "https://api.github.com/repos/bitcoin/bitcoin/issues/comments/619519328/reactions",
      "total_count": 0,
      "+1": 0,
      "-1": 0,
      "laugh": 0,
      "hooray": 0,
      "confused": 0,
      "heart": 0,
      "rocket": 0,
      "eyes": 0
    },
    "performed_via_github_app": null
  },
  {
    "url": "https://api.github.com/repos/bitcoin/bitcoin/issues/comments/619540712",
    "html_url": "https://github.com/bitcoin/bitcoin/issues/9134#issuecomment-619540712",
    "issue_url": "https://api.github.com/repos/bitcoin/bitcoin/issues/9134",
    "id": 619540712,
    "node_id": "MDEyOklzc3VlQ29tbWVudDYxOTU0MDcxMg==",
    "user": {
      "login": "gwpreggae",
      "id": 43702276,
      "node_id": "MDQ6VXNlcjQzNzAyMjc2",
      "avatar_url": "https://avatars.githubusercontent.com/u/43702276?v=4",
      "gravatar_id": "",
      "url": "https://api.github.com/users/gwpreggae",
      "html_url": "https://github.com/gwpreggae",
      "followers_url": "https://api.github.com/users/gwpreggae/followers",
      "following_url": "https://api.github.com/users/gwpreggae/following{/other_user}",
      "gists_url": "https://api.github.com/users/gwpreggae/gists{/gist_id}",
      "starred_url": "https://api.github.com/users/gwpreggae/starred{/owner}{/repo}",
      "subscriptions_url": "https://api.github.com/users/gwpreggae/subscriptions",
      "organizations_url": "https://api.github.com/users/gwpreggae/orgs",
      "repos_url": "https://api.github.com/users/gwpreggae/repos",
      "events_url": "https://api.github.com/users/gwpreggae/events{/privacy}",
      "received_events_url": "https://api.github.com/users/gwpreggae/received_events",
      "type": "User",
      "site_admin": false
    },
    "created_at": "2020-04-26T12:18:50Z",
    "updated_at": "2020-04-26T12:18:50Z",
    "author_association": "NONE",
    "body_html": "<div class=\"email-fragment\">I really tried to figure it out to no avail. I got linux version working\nfine but can't get windows to compile. I've moved on for now to work on\nother things.</div>\n<span class=\"email-hidden-toggle\"><a href=\"#\">…</a></span><div class=\"email-hidden-reply\">\n<div class=\"email-quoted-reply\">On Sun, Apr 26, 2020, 5:44 AM caesar-ski ***@***.***&gt; wrote:\n Anyone solved this \"failed to run on-target setarch x86_64 bash\" problem?\n I tried a lot of combinations even differnt boost-win32 versions but no\n success.\n\n —\n You are receiving this because you commented.\n Reply to this email directly, view it on GitHub\n &lt;<a class=\"issue-link js-issue-link\" data-error-text=\"Failed to load title\" data-id=\"188822772\" data-permission-text=\"Title is private\" data-url=\"https://github.com/bitcoin/bitcoin/issues/9134\" href=\"https://github.com/bitcoin/bitcoin/issues/9134#issuecomment-619519328\">#9134 (comment)</a>&gt;,\n or unsubscribe\n &lt;<a href=\"https://github.com/notifications/unsubscribe-auth/AKNNQBB4JKVW4YNEQI6TT4TROP7ARANCNFSM4CWACPIA\">https://github.com/notifications/unsubscribe-auth/AKNNQBB4JKVW4YNEQI6TT4TROP7ARANCNFSM4CWACPIA</a>&gt;\n .\n</div>\n<div class=\"email-fragment\"></div>\n</div>",
    "body_text": "I really tried to figure it out to no avail. I got linux version working\nfine but can't get windows to compile. I've moved on for now to work on\nother things.\n…\nOn Sun, Apr 26, 2020, 5:44 AM caesar-ski ***@***.***> wrote:\n Anyone solved this \"failed to run on-target setarch x86_64 bash\" problem?\n I tried a lot of combinations even differnt boost-win32 versions but no\n success.\n\n —\n You are receiving this because you commented.\n Reply to this email directly, view it on GitHub\n <#9134 (comment)>,\n or unsubscribe\n <https://github.com/notifications/unsubscribe-auth/AKNNQBB4JKVW4YNEQI6TT4TROP7ARANCNFSM4CWACPIA>\n .",
    "body": "I really tried to figure it out to no avail. I got linux version working\nfine but can't get windows to compile. I've moved on for now to work on\nother things.\n\nOn Sun, Apr 26, 2020, 5:44 AM caesar-ski <notifications@github.com> wrote:\n\n> Anyone solved this \"failed to run on-target setarch x86_64 bash\" problem?\n> I tried a lot of combinations even differnt boost-win32 versions but no\n> success.\n>\n> —\n> You are receiving this because you commented.\n> Reply to this email directly, view it on GitHub\n> <https://github.com/bitcoin/bitcoin/issues/9134#issuecomment-619519328>,\n> or unsubscribe\n> <https://github.com/notifications/unsubscribe-auth/AKNNQBB4JKVW4YNEQI6TT4TROP7ARANCNFSM4CWACPIA>\n> .\n>\n",
    "reactions": {
      "url": "https://api.github.com/repos/bitcoin/bitcoin/issues/comments/619540712/reactions",
      "total_count": 0,
      "+1": 0,
      "-1": 0,
      "laugh": 0,
      "hooray": 0,
      "confused": 0,
      "heart": 0,
      "rocket": 0,
      "eyes": 0
    },
    "performed_via_github_app": null
  },
  {
    "url": "https://api.github.com/repos/bitcoin/bitcoin/issues/comments/823174442",
    "html_url": "https://github.com/bitcoin/bitcoin/issues/9134#issuecomment-823174442",
    "issue_url": "https://api.github.com/repos/bitcoin/bitcoin/issues/9134",
    "id": 823174442,
    "node_id": "MDEyOklzc3VlQ29tbWVudDgyMzE3NDQ0Mg==",
    "user": {
      "login": "Limecoin-LIME",
      "id": 82853461,
      "node_id": "MDQ6VXNlcjgyODUzNDYx",
      "avatar_url": "https://avatars.githubusercontent.com/u/82853461?v=4",
      "gravatar_id": "",
      "url": "https://api.github.com/users/Limecoin-LIME",
      "html_url": "https://github.com/Limecoin-LIME",
      "followers_url": "https://api.github.com/users/Limecoin-LIME/followers",
      "following_url": "https://api.github.com/users/Limecoin-LIME/following{/other_user}",
      "gists_url": "https://api.github.com/users/Limecoin-LIME/gists{/gist_id}",
      "starred_url": "https://api.github.com/users/Limecoin-LIME/starred{/owner}{/repo}",
      "subscriptions_url": "https://api.github.com/users/Limecoin-LIME/subscriptions",
      "organizations_url": "https://api.github.com/users/Limecoin-LIME/orgs",
      "repos_url": "https://api.github.com/users/Limecoin-LIME/repos",
      "events_url": "https://api.github.com/users/Limecoin-LIME/events{/privacy}",
      "received_events_url": "https://api.github.com/users/Limecoin-LIME/received_events",
      "type": "User",
      "site_admin": false
    },
    "created_at": "2021-04-20T10:45:02Z",
    "updated_at": "2021-04-20T10:49:39Z",
    "author_association": "NONE",
    "body_html": "<p dir=\"auto\">Same Problem here... hours of research so far without success. I will keep you updated and communicate as soon as I have a solution. Or have any of you solved the problem in the meantime?<br>\nEdit: It definitely can't be the RAM, I have my VM fueled with 16+ GB.<br>\n<a class=\"user-mention notranslate\" data-hovercard-type=\"user\" data-hovercard-url=\"/users/realcaesar/hovercard\" data-octo-click=\"hovercard-link-click\" data-octo-dimensions=\"link_type:self\" href=\"https://github.com/realcaesar\">@realcaesar</a> <a class=\"user-mention notranslate\" data-hovercard-type=\"user\" data-hovercard-url=\"/users/gwpreggae/hovercard\" data-octo-click=\"hovercard-link-click\" data-octo-dimensions=\"link_type:self\" href=\"https://github.com/gwpreggae\">@gwpreggae</a></p>",
    "body_text": "Same Problem here... hours of research so far without success. I will keep you updated and communicate as soon as I have a solution. Or have any of you solved the problem in the meantime?\nEdit: It definitely can't be the RAM, I have my VM fueled with 16+ GB.\n@realcaesar @gwpreggae",
    "body": "Same Problem here... hours of research so far without success. I will keep you updated and communicate as soon as I have a solution. Or have any of you solved the problem in the meantime?\r\nEdit: It definitely can't be the RAM, I have my VM fueled with 16+ GB.\r\n@realcaesar @gwpreggae",
    "reactions": {
      "url": "https://api.github.com/repos/bitcoin/bitcoin/issues/comments/823174442/reactions",
      "total_count": 0,
      "+1": 0,
      "-1": 0,
      "laugh": 0,
      "hooray": 0,
      "confused": 0,
      "heart": 0,
      "rocket": 0,
      "eyes": 0
    },
    "performed_via_github_app": null
  },
  {
    "url": "https://api.github.com/repos/bitcoin/bitcoin/issues/comments/823219900",
    "html_url": "https://github.com/bitcoin/bitcoin/issues/9134#issuecomment-823219900",
    "issue_url": "https://api.github.com/repos/bitcoin/bitcoin/issues/9134",
    "id": 823219900,
    "node_id": "MDEyOklzc3VlQ29tbWVudDgyMzIxOTkwMA==",
    "user": {
      "login": "realcaesar",
      "id": 63470989,
      "node_id": "MDQ6VXNlcjYzNDcwOTg5",
      "avatar_url": "https://avatars.githubusercontent.com/u/63470989?v=4",
      "gravatar_id": "",
      "url": "https://api.github.com/users/realcaesar",
      "html_url": "https://github.com/realcaesar",
      "followers_url": "https://api.github.com/users/realcaesar/followers",
      "following_url": "https://api.github.com/users/realcaesar/following{/other_user}",
      "gists_url": "https://api.github.com/users/realcaesar/gists{/gist_id}",
      "starred_url": "https://api.github.com/users/realcaesar/starred{/owner}{/repo}",
      "subscriptions_url": "https://api.github.com/users/realcaesar/subscriptions",
      "organizations_url": "https://api.github.com/users/realcaesar/orgs",
      "repos_url": "https://api.github.com/users/realcaesar/repos",
      "events_url": "https://api.github.com/users/realcaesar/events{/privacy}",
      "received_events_url": "https://api.github.com/users/realcaesar/received_events",
      "type": "User",
      "site_admin": false
    },
    "created_at": "2021-04-20T12:06:50Z",
    "updated_at": "2021-04-20T12:06:50Z",
    "author_association": "NONE",
    "body_html": "<p dir=\"auto\">I somehow fixed it but it was so long ago i cant remember sorry.<br>\nBut there was an solution.<br>\nPs : i made like 6 diffrent Vms till it worked (or just use snapshots)</p>",
    "body_text": "I somehow fixed it but it was so long ago i cant remember sorry.\nBut there was an solution.\nPs : i made like 6 diffrent Vms till it worked (or just use snapshots)",
    "body": "I somehow fixed it but it was so long ago i cant remember sorry.\r\nBut there was an solution.\r\nPs : i made like 6 diffrent Vms till it worked (or just use snapshots)",
    "reactions": {
      "url": "https://api.github.com/repos/bitcoin/bitcoin/issues/comments/823219900/reactions",
      "total_count": 0,
      "+1": 0,
      "-1": 0,
      "laugh": 0,
      "hooray": 0,
      "confused": 0,
      "heart": 0,
      "rocket": 0,
      "eyes": 0
    },
    "performed_via_github_app": null
  }
]
