{
  "url": "https://api.github.com/repos/bitcoin/bitcoin/issues/11729",
  "repository_url": "https://api.github.com/repos/bitcoin/bitcoin",
  "labels_url": "https://api.github.com/repos/bitcoin/bitcoin/issues/11729/labels{/name}",
  "comments_url": "https://api.github.com/repos/bitcoin/bitcoin/issues/11729/comments",
  "events_url": "https://api.github.com/repos/bitcoin/bitcoin/issues/11729/events",
  "html_url": "https://github.com/bitcoin/bitcoin/pull/11729",
  "id": 275166474,
  "node_id": "MDExOlB1bGxSZXF1ZXN0MTUzNTAwNTQ3",
  "number": 11729,
  "title": "[docs] links to code style guides",
  "user": {
    "login": "Sjors",
    "id": 10217,
    "node_id": "MDQ6VXNlcjEwMjE3",
    "avatar_url": "https://avatars.githubusercontent.com/u/10217?v=4",
    "gravatar_id": "",
    "url": "https://api.github.com/users/Sjors",
    "html_url": "https://github.com/Sjors",
    "followers_url": "https://api.github.com/users/Sjors/followers",
    "following_url": "https://api.github.com/users/Sjors/following{/other_user}",
    "gists_url": "https://api.github.com/users/Sjors/gists{/gist_id}",
    "starred_url": "https://api.github.com/users/Sjors/starred{/owner}{/repo}",
    "subscriptions_url": "https://api.github.com/users/Sjors/subscriptions",
    "organizations_url": "https://api.github.com/users/Sjors/orgs",
    "repos_url": "https://api.github.com/users/Sjors/repos",
    "events_url": "https://api.github.com/users/Sjors/events{/privacy}",
    "received_events_url": "https://api.github.com/users/Sjors/received_events",
    "type": "User",
    "site_admin": false
  },
  "labels": [
    {
      "id": 148216,
      "node_id": "MDU6TGFiZWwxNDgyMTY=",
      "url": "https://api.github.com/repos/bitcoin/bitcoin/labels/Docs",
      "name": "Docs",
      "color": "02d7e1",
      "default": false,
      "description": null
    }
  ],
  "state": "closed",
  "locked": true,
  "assignee": null,
  "assignees": [

  ],
  "milestone": null,
  "comments": 4,
  "created_at": "2017-11-19T15:13:56Z",
  "updated_at": "2021-09-08T11:31:01Z",
  "closed_at": "2017-11-20T20:18:00Z",
  "author_association": "MEMBER",
  "active_lock_reason": "resolved",
  "draft": false,
  "pull_request": {
    "url": "https://api.github.com/repos/bitcoin/bitcoin/pulls/11729",
    "html_url": "https://github.com/bitcoin/bitcoin/pull/11729",
    "diff_url": "https://github.com/bitcoin/bitcoin/pull/11729.diff",
    "patch_url": "https://github.com/bitcoin/bitcoin/pull/11729.patch",
    "merged_at": "2017-11-20T20:18:00Z"
  },
  "body_html": "<p dir=\"auto\">I always have difficulty finding these, probably because they're not actually called \"code style guideline\".</p>",
  "body_text": "I always have difficulty finding these, probably because they're not actually called \"code style guideline\".",
  "body": "I always have difficulty finding these, probably because they're not actually called \"code style guideline\".",
  "closed_by": {
    "login": "maflcko",
    "id": 6399679,
    "node_id": "MDQ6VXNlcjYzOTk2Nzk=",
    "avatar_url": "https://avatars.githubusercontent.com/u/6399679?v=4",
    "gravatar_id": "",
    "url": "https://api.github.com/users/maflcko",
    "html_url": "https://github.com/maflcko",
    "followers_url": "https://api.github.com/users/maflcko/followers",
    "following_url": "https://api.github.com/users/maflcko/following{/other_user}",
    "gists_url": "https://api.github.com/users/maflcko/gists{/gist_id}",
    "starred_url": "https://api.github.com/users/maflcko/starred{/owner}{/repo}",
    "subscriptions_url": "https://api.github.com/users/maflcko/subscriptions",
    "organizations_url": "https://api.github.com/users/maflcko/orgs",
    "repos_url": "https://api.github.com/users/maflcko/repos",
    "events_url": "https://api.github.com/users/maflcko/events{/privacy}",
    "received_events_url": "https://api.github.com/users/maflcko/received_events",
    "type": "User",
    "site_admin": false
  },
  "reactions": {
    "url": "https://api.github.com/repos/bitcoin/bitcoin/issues/11729/reactions",
    "total_count": 0,
    "+1": 0,
    "-1": 0,
    "laugh": 0,
    "hooray": 0,
    "confused": 0,
    "heart": 0,
    "rocket": 0,
    "eyes": 0
  },
  "timeline_url": "https://api.github.com/repos/bitcoin/bitcoin/issues/11729/timeline",
  "performed_via_github_app": null,
  "state_reason": null
}
