[
  {
    "url": "https://api.github.com/repos/bitcoin/bitcoin/issues/comments/3236009",
    "html_url": "https://github.com/bitcoin/bitcoin/pull/720#issuecomment-3236009",
    "issue_url": "https://api.github.com/repos/bitcoin/bitcoin/issues/720",
    "id": 3236009,
    "node_id": "MDEyOklzc3VlQ29tbWVudDMyMzYwMDk=",
    "user": {
      "login": "jgarzik",
      "id": 494411,
      "node_id": "MDQ6VXNlcjQ5NDQxMQ==",
      "avatar_url": "https://avatars.githubusercontent.com/u/494411?v=4",
      "gravatar_id": "",
      "url": "https://api.github.com/users/jgarzik",
      "html_url": "https://github.com/jgarzik",
      "followers_url": "https://api.github.com/users/jgarzik/followers",
      "following_url": "https://api.github.com/users/jgarzik/following{/other_user}",
      "gists_url": "https://api.github.com/users/jgarzik/gists{/gist_id}",
      "starred_url": "https://api.github.com/users/jgarzik/starred{/owner}{/repo}",
      "subscriptions_url": "https://api.github.com/users/jgarzik/subscriptions",
      "organizations_url": "https://api.github.com/users/jgarzik/orgs",
      "repos_url": "https://api.github.com/users/jgarzik/repos",
      "events_url": "https://api.github.com/users/jgarzik/events{/privacy}",
      "received_events_url": "https://api.github.com/users/jgarzik/received_events",
      "type": "User",
      "site_admin": false
    },
    "created_at": "2011-12-21T16:38:58Z",
    "updated_at": "2011-12-21T16:38:58Z",
    "author_association": "CONTRIBUTOR",
    "body_html": "<p dir=\"auto\">ACK, though I'm unsure of the value of this code churn</p>",
    "body_text": "ACK, though I'm unsure of the value of this code churn",
    "body": "ACK, though I'm unsure of the value of this code churn\n",
    "reactions": {
      "url": "https://api.github.com/repos/bitcoin/bitcoin/issues/comments/3236009/reactions",
      "total_count": 0,
      "+1": 0,
      "-1": 0,
      "laugh": 0,
      "hooray": 0,
      "confused": 0,
      "heart": 0,
      "rocket": 0,
      "eyes": 0
    },
    "performed_via_github_app": null
  }
]
