{
  "url": "https://api.github.com/repos/bitcoin/bitcoin/issues/13397",
  "repository_url": "https://api.github.com/repos/bitcoin/bitcoin",
  "labels_url": "https://api.github.com/repos/bitcoin/bitcoin/issues/13397/labels{/name}",
  "comments_url": "https://api.github.com/repos/bitcoin/bitcoin/issues/13397/comments",
  "events_url": "https://api.github.com/repos/bitcoin/bitcoin/issues/13397/events",
  "html_url": "https://github.com/bitcoin/bitcoin/issues/13397",
  "id": 329474789,
  "node_id": "MDU6SXNzdWUzMjk0NzQ3ODk=",
  "number": 13397,
  "title": "tor: Error connecting to Tor control socket",
  "user": {
    "login": "pruflyos",
    "id": 30443750,
    "node_id": "MDQ6VXNlcjMwNDQzNzUw",
    "avatar_url": "https://avatars.githubusercontent.com/u/30443750?v=4",
    "gravatar_id": "",
    "url": "https://api.github.com/users/pruflyos",
    "html_url": "https://github.com/pruflyos",
    "followers_url": "https://api.github.com/users/pruflyos/followers",
    "following_url": "https://api.github.com/users/pruflyos/following{/other_user}",
    "gists_url": "https://api.github.com/users/pruflyos/gists{/gist_id}",
    "starred_url": "https://api.github.com/users/pruflyos/starred{/owner}{/repo}",
    "subscriptions_url": "https://api.github.com/users/pruflyos/subscriptions",
    "organizations_url": "https://api.github.com/users/pruflyos/orgs",
    "repos_url": "https://api.github.com/users/pruflyos/repos",
    "events_url": "https://api.github.com/users/pruflyos/events{/privacy}",
    "received_events_url": "https://api.github.com/users/pruflyos/received_events",
    "type": "User",
    "site_admin": false
  },
  "labels": [
    {
      "id": 98298007,
      "node_id": "MDU6TGFiZWw5ODI5ODAwNw==",
      "url": "https://api.github.com/repos/bitcoin/bitcoin/labels/P2P",
      "name": "P2P",
      "color": "006b75",
      "default": false,
      "description": null
    }
  ],
  "state": "closed",
  "locked": true,
  "assignee": null,
  "assignees": [

  ],
  "milestone": null,
  "comments": 3,
  "created_at": "2018-06-05T14:10:48Z",
  "updated_at": "2022-02-15T10:41:59Z",
  "closed_at": "2020-03-19T13:00:15Z",
  "author_association": "NONE",
  "active_lock_reason": "resolved",
  "body_html": "\n\n<p dir=\"auto\">bitcoin-0.16.0 (pre-compiled, downloaded from bitcoin.org)<br>\nDebian Stretch</p>\n\n<p dir=\"auto\">Following <a href=\"https://github.com/bitcoin/bitcoin/blob/master/doc/tor.md\">https://github.com/bitcoin/bitcoin/blob/master/doc/tor.md</a> I face a couple of issues:</p>\n<p dir=\"auto\">First, here's my current understanding: Tor offers <strong>two ways</strong> of being controlled on Linux.</p>\n<ol dir=\"auto\">\n<li><code class=\"notranslate\">TCP Control Port</code> (by default 127.0.0.1:9051 but disabled)</li>\n<li><code class=\"notranslate\">Control Socket</code> which is Unix Domain Socket (by default <code class=\"notranslate\">/run/tor/control</code> on Debian)</li>\n</ol>\n<p dir=\"auto\">By reading the Bitcoin Core Tor documentation, it sounds like the 2nd (newer) way is supported:</p>\n<blockquote>\n<p dir=\"auto\">Starting with Tor version 0.2.7.1 it is possible, through Tor's control socket API, to create and destroy 'ephemeral' hidden services programmatically. Bitcoin Core has been updated to make use of this.</p>\n</blockquote>\n<p dir=\"auto\">That's what I'm trying to achieve. <code class=\"notranslate\">Tor Control Port (TCP)</code> is disabled by default on Debian anyway, but <code class=\"notranslate\">Tor Control Socket</code> is enabled. Here are the respective sections from the config files:</p>\n<p dir=\"auto\"><strong>/etc/bitcoin/bitcoin.conf</strong></p>\n<div class=\"snippet-clipboard-content notranslate position-relative overflow-auto\" data-snippet-clipboard-copy-content=\"# [debug]\ndebug=tor\n\n# [network]\n# Accept incoming connections from peers.   \nlisten=1\n# connect to peers via Tor.\nonlynet=onion\n# Connect through &lt;ip:port&gt; SOCKS5 proxy.   \nproxy=127.0.0.1:9050\"><pre class=\"notranslate\"><code class=\"notranslate\"># [debug]\ndebug=tor\n\n# [network]\n# Accept incoming connections from peers.   \nlisten=1\n# connect to peers via Tor.\nonlynet=onion\n# Connect through &lt;ip:port&gt; SOCKS5 proxy.   \nproxy=127.0.0.1:9050\n</code></pre></div>\n<p dir=\"auto\"><strong>/usr/share/tor/tor-service-defaults-torrc</strong></p>\n<div class=\"snippet-clipboard-content notranslate position-relative overflow-auto\" data-snippet-clipboard-copy-content=\"User debian-tor\n\nControlSocket /var/run/tor/control GroupWritable RelaxDirModeCheck\nControlSocketsGroupWritable 1\nSocksPort unix:/var/run/tor/socks WorldWritable\nSocksPort 9050\n\nCookieAuthentication 1\nCookieAuthFileGroupReadable 1\nCookieAuthFile /var/run/tor/control.authcookie\"><pre class=\"notranslate\"><code class=\"notranslate\">User debian-tor\n\nControlSocket /var/run/tor/control GroupWritable RelaxDirModeCheck\nControlSocketsGroupWritable 1\nSocksPort unix:/var/run/tor/socks WorldWritable\nSocksPort 9050\n\nCookieAuthentication 1\nCookieAuthFileGroupReadable 1\nCookieAuthFile /var/run/tor/control.authcookie\n</code></pre></div>\n<p dir=\"auto\">However, I get the following error in <code class=\"notranslate\">~/.bitcoin/debug.log</code>:</p>\n<div class=\"snippet-clipboard-content notranslate position-relative overflow-auto\" data-snippet-clipboard-copy-content=\"tor: Error connecting to Tor control socket\ntor: Not connected to Tor control port 127.0.0.1:9051, trying to reconnect\"><pre class=\"notranslate\"><code class=\"notranslate\">tor: Error connecting to Tor control socket\ntor: Not connected to Tor control port 127.0.0.1:9051, trying to reconnect\n</code></pre></div>\n<p dir=\"auto\">The second error is expected, because Tor control port is disabled. But the first error is unexpected.<br>\nIt's not a file permision issue, because I added the user who runs <code class=\"notranslate\">bitcoind</code> to the group <code class=\"notranslate\">debian-tor</code>:</p>\n<div class=\"snippet-clipboard-content notranslate position-relative overflow-auto\" data-snippet-clipboard-copy-content=\"$ ls -la /run/tor/\ntotal 8\ndrwxr-sr-x  2 debian-tor debian-tor 100 ---  - --:-- .\ndrwxr-xr-x 20 root       root       760 ---  - --:-- ..\nsrw-rw----  1 debian-tor debian-tor   0 ---  - --:-- control\n-rw-rw----  1 debian-tor debian-tor  32 ---  - --:-- control.authcookie\n-rw-r--r--  1 debian-tor debian-tor   5 ---  - --:-- tor.pid\n\n$ cat /etc/group | grep bitcoind\ndebian-tor:x:114:bitcoind\n\nps aux | grep bitcoind\nbitcoind  ----  ---  --- ------ ----- ?        Rsl  --:--   --:-- /usr/local/bin/bitcoind -daemon -conf=/etc/bitcoin/bitcoin.conf -pid=/run/bitcoind/bitcoind.pid -rpccookiefile=/run/bitcoind/authcookie\"><pre class=\"notranslate\"><code class=\"notranslate\">$ ls -la /run/tor/\ntotal 8\ndrwxr-sr-x  2 debian-tor debian-tor 100 ---  - --:-- .\ndrwxr-xr-x 20 root       root       760 ---  - --:-- ..\nsrw-rw----  1 debian-tor debian-tor   0 ---  - --:-- control\n-rw-rw----  1 debian-tor debian-tor  32 ---  - --:-- control.authcookie\n-rw-r--r--  1 debian-tor debian-tor   5 ---  - --:-- tor.pid\n\n$ cat /etc/group | grep bitcoind\ndebian-tor:x:114:bitcoind\n\nps aux | grep bitcoind\nbitcoind  ----  ---  --- ------ ----- ?        Rsl  --:--   --:-- /usr/local/bin/bitcoind -daemon -conf=/etc/bitcoin/bitcoin.conf -pid=/run/bitcoind/bitcoind.pid -rpccookiefile=/run/bitcoind/authcookie\n</code></pre></div>\n<p dir=\"auto\">I also tried to explictly tell bitcoind the path to the control socket by adding <code class=\"notranslate\">torcontrol=/run/tor/control</code> as a config option:</p>\n<div class=\"snippet-clipboard-content notranslate position-relative overflow-auto\" data-snippet-clipboard-copy-content=\"# [debug]\ndebug=tor\n\n# [network]\n# Accept incoming connections from peers.   \nlisten=1\n# connect to peers via Tor.\nonlynet=onion\ntorcontrol=/run/tor/control\"><pre class=\"notranslate\"><code class=\"notranslate\"># [debug]\ndebug=tor\n\n# [network]\n# Accept incoming connections from peers.   \nlisten=1\n# connect to peers via Tor.\nonlynet=onion\ntorcontrol=/run/tor/control\n</code></pre></div>\n<p dir=\"auto\">However, this results the following error:</p>\n<div class=\"snippet-clipboard-content notranslate position-relative overflow-auto\" data-snippet-clipboard-copy-content=\"tor: Error parsing socket address /run/tor/control\ntor: Initiating connection to Tor control port /run/tor/control failed\"><pre class=\"notranslate\"><code class=\"notranslate\">tor: Error parsing socket address /run/tor/control\ntor: Initiating connection to Tor control port /run/tor/control failed\n</code></pre></div>\n<p dir=\"auto\">So obviously, the <code class=\"notranslate\">torcontrol</code> option only allows to specify the <code class=\"notranslate\">TCP Tor control port</code>. How does <code class=\"notranslate\">bitcoind</code> know the path to the <code class=\"notranslate\">Tor control socket</code>? Is there an undocumented config option to set it? Is it hard coded? Or is the documentation just ambiguous and it isn't supported yet?</p>\n<p dir=\"auto\">Final issue with the documentation is:</p>\n<blockquote>\n<p dir=\"auto\">For cookie authentication the user running bitcoind must have write access to the CookieAuthFile specified in Tor configuration.</p>\n</blockquote>\n<p dir=\"auto\">Why <code class=\"notranslate\">write access</code>??? <code class=\"notranslate\">Read access</code> should be sufficient! It's just the cookie file.</p>\n\n\n\n\n\n",
  "body_text": "bitcoin-0.16.0 (pre-compiled, downloaded from bitcoin.org)\nDebian Stretch\n\nFollowing https://github.com/bitcoin/bitcoin/blob/master/doc/tor.md I face a couple of issues:\nFirst, here's my current understanding: Tor offers two ways of being controlled on Linux.\n\nTCP Control Port (by default 127.0.0.1:9051 but disabled)\nControl Socket which is Unix Domain Socket (by default /run/tor/control on Debian)\n\nBy reading the Bitcoin Core Tor documentation, it sounds like the 2nd (newer) way is supported:\n\nStarting with Tor version 0.2.7.1 it is possible, through Tor's control socket API, to create and destroy 'ephemeral' hidden services programmatically. Bitcoin Core has been updated to make use of this.\n\nThat's what I'm trying to achieve. Tor Control Port (TCP) is disabled by default on Debian anyway, but Tor Control Socket is enabled. Here are the respective sections from the config files:\n/etc/bitcoin/bitcoin.conf\n# [debug]\ndebug=tor\n\n# [network]\n# Accept incoming connections from peers.   \nlisten=1\n# connect to peers via Tor.\nonlynet=onion\n# Connect through <ip:port> SOCKS5 proxy.   \nproxy=127.0.0.1:9050\n\n/usr/share/tor/tor-service-defaults-torrc\nUser debian-tor\n\nControlSocket /var/run/tor/control GroupWritable RelaxDirModeCheck\nControlSocketsGroupWritable 1\nSocksPort unix:/var/run/tor/socks WorldWritable\nSocksPort 9050\n\nCookieAuthentication 1\nCookieAuthFileGroupReadable 1\nCookieAuthFile /var/run/tor/control.authcookie\n\nHowever, I get the following error in ~/.bitcoin/debug.log:\ntor: Error connecting to Tor control socket\ntor: Not connected to Tor control port 127.0.0.1:9051, trying to reconnect\n\nThe second error is expected, because Tor control port is disabled. But the first error is unexpected.\nIt's not a file permision issue, because I added the user who runs bitcoind to the group debian-tor:\n$ ls -la /run/tor/\ntotal 8\ndrwxr-sr-x  2 debian-tor debian-tor 100 ---  - --:-- .\ndrwxr-xr-x 20 root       root       760 ---  - --:-- ..\nsrw-rw----  1 debian-tor debian-tor   0 ---  - --:-- control\n-rw-rw----  1 debian-tor debian-tor  32 ---  - --:-- control.authcookie\n-rw-r--r--  1 debian-tor debian-tor   5 ---  - --:-- tor.pid\n\n$ cat /etc/group | grep bitcoind\ndebian-tor:x:114:bitcoind\n\nps aux | grep bitcoind\nbitcoind  ----  ---  --- ------ ----- ?        Rsl  --:--   --:-- /usr/local/bin/bitcoind -daemon -conf=/etc/bitcoin/bitcoin.conf -pid=/run/bitcoind/bitcoind.pid -rpccookiefile=/run/bitcoind/authcookie\n\nI also tried to explictly tell bitcoind the path to the control socket by adding torcontrol=/run/tor/control as a config option:\n# [debug]\ndebug=tor\n\n# [network]\n# Accept incoming connections from peers.   \nlisten=1\n# connect to peers via Tor.\nonlynet=onion\ntorcontrol=/run/tor/control\n\nHowever, this results the following error:\ntor: Error parsing socket address /run/tor/control\ntor: Initiating connection to Tor control port /run/tor/control failed\n\nSo obviously, the torcontrol option only allows to specify the TCP Tor control port. How does bitcoind know the path to the Tor control socket? Is there an undocumented config option to set it? Is it hard coded? Or is the documentation just ambiguous and it isn't supported yet?\nFinal issue with the documentation is:\n\nFor cookie authentication the user running bitcoind must have write access to the CookieAuthFile specified in Tor configuration.\n\nWhy write access??? Read access should be sufficient! It's just the cookie file.",
  "body": "<!-- This issue tracker is only for technical issues related to Bitcoin Core.\r\n\r\nGeneral bitcoin questions and/or support requests are best directed to the Bitcoin StackExchange at https://bitcoin.stackexchange.com.\r\n\r\nFor reporting security issues, please read instructions at https://bitcoincore.org/en/contact/.\r\n\r\nIf the node is \"stuck\" during sync or giving \"block checksum mismatch\" errors, please ensure your hardware is stable by running memtest and observe CPU temperature with a load-test tool such as linpack before creating an issue! -->\r\n\r\n<!-- Describe the issue -->\r\nbitcoin-0.16.0 (pre-compiled, downloaded from bitcoin.org)\r\nDebian Stretch\r\n<!--- What behavior did you expect? -->\r\nFollowing https://github.com/bitcoin/bitcoin/blob/master/doc/tor.md I face a couple of issues:\r\n\r\nFirst, here's my current understanding: Tor offers **two ways** of being controlled on Linux.\r\n1. `TCP Control Port` (by default 127.0.0.1:9051 but disabled)\r\n2. `Control Socket` which is Unix Domain Socket (by default `/run/tor/control` on Debian)\r\n\r\nBy reading the Bitcoin Core Tor documentation, it sounds like the 2nd (newer) way is supported:\r\n> Starting with Tor version 0.2.7.1 it is possible, through Tor's control socket API, to create and destroy 'ephemeral' hidden services programmatically. Bitcoin Core has been updated to make use of this.\r\n\r\nThat's what I'm trying to achieve. `Tor Control Port (TCP)` is disabled by default on Debian anyway, but `Tor Control Socket` is enabled. Here are the respective sections from the config files:\r\n\r\n**/etc/bitcoin/bitcoin.conf**\r\n```\r\n# [debug]\r\ndebug=tor\r\n\r\n# [network]\r\n# Accept incoming connections from peers.   \r\nlisten=1\r\n# connect to peers via Tor.\r\nonlynet=onion\r\n# Connect through <ip:port> SOCKS5 proxy.   \r\nproxy=127.0.0.1:9050\r\n```\r\n**/usr/share/tor/tor-service-defaults-torrc**\r\n```\r\nUser debian-tor\r\n\r\nControlSocket /var/run/tor/control GroupWritable RelaxDirModeCheck\r\nControlSocketsGroupWritable 1\r\nSocksPort unix:/var/run/tor/socks WorldWritable\r\nSocksPort 9050\r\n\r\nCookieAuthentication 1\r\nCookieAuthFileGroupReadable 1\r\nCookieAuthFile /var/run/tor/control.authcookie\r\n```\r\n\r\nHowever, I get the following error in `~/.bitcoin/debug.log`:\r\n```\r\ntor: Error connecting to Tor control socket\r\ntor: Not connected to Tor control port 127.0.0.1:9051, trying to reconnect\r\n```\r\nThe second error is expected, because Tor control port is disabled. But the first error is unexpected.\r\nIt's not a file permision issue, because I added the user who runs `bitcoind` to the group `debian-tor`:\r\n```\r\n$ ls -la /run/tor/\r\ntotal 8\r\ndrwxr-sr-x  2 debian-tor debian-tor 100 ---  - --:-- .\r\ndrwxr-xr-x 20 root       root       760 ---  - --:-- ..\r\nsrw-rw----  1 debian-tor debian-tor   0 ---  - --:-- control\r\n-rw-rw----  1 debian-tor debian-tor  32 ---  - --:-- control.authcookie\r\n-rw-r--r--  1 debian-tor debian-tor   5 ---  - --:-- tor.pid\r\n\r\n$ cat /etc/group | grep bitcoind\r\ndebian-tor:x:114:bitcoind\r\n\r\nps aux | grep bitcoind\r\nbitcoind  ----  ---  --- ------ ----- ?        Rsl  --:--   --:-- /usr/local/bin/bitcoind -daemon -conf=/etc/bitcoin/bitcoin.conf -pid=/run/bitcoind/bitcoind.pid -rpccookiefile=/run/bitcoind/authcookie\r\n```\r\n\r\nI also tried to explictly tell bitcoind the path to the control socket by adding `torcontrol=/run/tor/control` as a config option:\r\n```\r\n# [debug]\r\ndebug=tor\r\n\r\n# [network]\r\n# Accept incoming connections from peers.   \r\nlisten=1\r\n# connect to peers via Tor.\r\nonlynet=onion\r\ntorcontrol=/run/tor/control\r\n```\r\n\r\nHowever, this results the following error:\r\n```\r\ntor: Error parsing socket address /run/tor/control\r\ntor: Initiating connection to Tor control port /run/tor/control failed\r\n```\r\nSo obviously, the `torcontrol` option only allows to specify the `TCP Tor control port`. How does `bitcoind` know the path to the `Tor control socket`? Is there an undocumented config option to set it? Is it hard coded? Or is the documentation just ambiguous and it isn't supported yet?\r\n\r\nFinal issue with the documentation is:\r\n> For cookie authentication the user running bitcoind must have write access to the CookieAuthFile specified in Tor configuration.\r\n\r\nWhy `write access`??? `Read access` should be sufficient! It's just the cookie file.\r\n\r\n<!--- What was the actual behavior (provide screenshots if the issue is GUI-related)? -->\r\n\r\n<!--- How reliably can you reproduce the issue, what are the steps to do so? -->\r\n\r\n<!-- What version of Bitcoin Core are you using, where did you get it (website, self-compiled, etc)? -->\r\n\r\n<!-- What type of machine are you observing the error on (OS/CPU and disk type)? -->\r\n\r\n<!-- Any extra information that might be useful in the debugging process. -->\r\n<!--- This is normally the contents of a `debug.log` or `config.log` file. Raw text or a link to a pastebin type site are preferred. -->\r\n",
  "closed_by": {
    "login": "maflcko",
    "id": 6399679,
    "node_id": "MDQ6VXNlcjYzOTk2Nzk=",
    "avatar_url": "https://avatars.githubusercontent.com/u/6399679?v=4",
    "gravatar_id": "",
    "url": "https://api.github.com/users/maflcko",
    "html_url": "https://github.com/maflcko",
    "followers_url": "https://api.github.com/users/maflcko/followers",
    "following_url": "https://api.github.com/users/maflcko/following{/other_user}",
    "gists_url": "https://api.github.com/users/maflcko/gists{/gist_id}",
    "starred_url": "https://api.github.com/users/maflcko/starred{/owner}{/repo}",
    "subscriptions_url": "https://api.github.com/users/maflcko/subscriptions",
    "organizations_url": "https://api.github.com/users/maflcko/orgs",
    "repos_url": "https://api.github.com/users/maflcko/repos",
    "events_url": "https://api.github.com/users/maflcko/events{/privacy}",
    "received_events_url": "https://api.github.com/users/maflcko/received_events",
    "type": "User",
    "site_admin": false
  },
  "reactions": {
    "url": "https://api.github.com/repos/bitcoin/bitcoin/issues/13397/reactions",
    "total_count": 0,
    "+1": 0,
    "-1": 0,
    "laugh": 0,
    "hooray": 0,
    "confused": 0,
    "heart": 0,
    "rocket": 0,
    "eyes": 0
  },
  "timeline_url": "https://api.github.com/repos/bitcoin/bitcoin/issues/13397/timeline",
  "performed_via_github_app": null,
  "state_reason": "completed"
}
