{
  "url": "https://api.github.com/repos/bitcoin/bitcoin/issues/15275",
  "repository_url": "https://api.github.com/repos/bitcoin/bitcoin",
  "labels_url": "https://api.github.com/repos/bitcoin/bitcoin/issues/15275/labels{/name}",
  "comments_url": "https://api.github.com/repos/bitcoin/bitcoin/issues/15275/comments",
  "events_url": "https://api.github.com/repos/bitcoin/bitcoin/issues/15275/events",
  "html_url": "https://github.com/bitcoin/bitcoin/pull/15275",
  "id": 403781551,
  "node_id": "MDExOlB1bGxSZXF1ZXN0MjQ4MTE0OTQx",
  "number": 15275,
  "title": "Add gitian PGP key for hebasto",
  "user": {
    "login": "hebasto",
    "id": 32963518,
    "node_id": "MDQ6VXNlcjMyOTYzNTE4",
    "avatar_url": "https://avatars.githubusercontent.com/u/32963518?v=4",
    "gravatar_id": "",
    "url": "https://api.github.com/users/hebasto",
    "html_url": "https://github.com/hebasto",
    "followers_url": "https://api.github.com/users/hebasto/followers",
    "following_url": "https://api.github.com/users/hebasto/following{/other_user}",
    "gists_url": "https://api.github.com/users/hebasto/gists{/gist_id}",
    "starred_url": "https://api.github.com/users/hebasto/starred{/owner}{/repo}",
    "subscriptions_url": "https://api.github.com/users/hebasto/subscriptions",
    "organizations_url": "https://api.github.com/users/hebasto/orgs",
    "repos_url": "https://api.github.com/users/hebasto/repos",
    "events_url": "https://api.github.com/users/hebasto/events{/privacy}",
    "received_events_url": "https://api.github.com/users/hebasto/received_events",
    "type": "User",
    "site_admin": false
  },
  "labels": [
    {
      "id": 148216,
      "node_id": "MDU6TGFiZWwxNDgyMTY=",
      "url": "https://api.github.com/repos/bitcoin/bitcoin/labels/Docs",
      "name": "Docs",
      "color": "02d7e1",
      "default": false,
      "description": null
    }
  ],
  "state": "closed",
  "locked": true,
  "assignee": null,
  "assignees": [

  ],
  "milestone": null,
  "comments": 4,
  "created_at": "2019-01-28T12:03:29Z",
  "updated_at": "2021-12-16T13:54:24Z",
  "closed_at": "2019-01-31T09:51:35Z",
  "author_association": "MEMBER",
  "active_lock_reason": "resolved",
  "draft": false,
  "pull_request": {
    "url": "https://api.github.com/repos/bitcoin/bitcoin/pulls/15275",
    "html_url": "https://github.com/bitcoin/bitcoin/pull/15275",
    "diff_url": "https://github.com/bitcoin/bitcoin/pull/15275.diff",
    "patch_url": "https://github.com/bitcoin/bitcoin/pull/15275.patch",
    "merged_at": "2019-01-31T09:51:35Z"
  },
  "body_html": "",
  "body_text": "",
  "body": "",
  "closed_by": {
    "login": "laanwj",
    "id": 126646,
    "node_id": "MDQ6VXNlcjEyNjY0Ng==",
    "avatar_url": "https://avatars.githubusercontent.com/u/126646?v=4",
    "gravatar_id": "",
    "url": "https://api.github.com/users/laanwj",
    "html_url": "https://github.com/laanwj",
    "followers_url": "https://api.github.com/users/laanwj/followers",
    "following_url": "https://api.github.com/users/laanwj/following{/other_user}",
    "gists_url": "https://api.github.com/users/laanwj/gists{/gist_id}",
    "starred_url": "https://api.github.com/users/laanwj/starred{/owner}{/repo}",
    "subscriptions_url": "https://api.github.com/users/laanwj/subscriptions",
    "organizations_url": "https://api.github.com/users/laanwj/orgs",
    "repos_url": "https://api.github.com/users/laanwj/repos",
    "events_url": "https://api.github.com/users/laanwj/events{/privacy}",
    "received_events_url": "https://api.github.com/users/laanwj/received_events",
    "type": "User",
    "site_admin": false
  },
  "reactions": {
    "url": "https://api.github.com/repos/bitcoin/bitcoin/issues/15275/reactions",
    "total_count": 0,
    "+1": 0,
    "-1": 0,
    "laugh": 0,
    "hooray": 0,
    "confused": 0,
    "heart": 0,
    "rocket": 0,
    "eyes": 0
  },
  "timeline_url": "https://api.github.com/repos/bitcoin/bitcoin/issues/15275/timeline",
  "performed_via_github_app": null,
  "state_reason": null
}
