[
  {
    "url": "https://api.github.com/repos/bitcoin/bitcoin/issues/comments/606608141",
    "html_url": "https://github.com/bitcoin/bitcoin/pull/18247#issuecomment-606608141",
    "issue_url": "https://api.github.com/repos/bitcoin/bitcoin/issues/18247",
    "id": 606608141,
    "node_id": "MDEyOklzc3VlQ29tbWVudDYwNjYwODE0MQ==",
    "user": {
      "login": "maflcko",
      "id": 6399679,
      "node_id": "MDQ6VXNlcjYzOTk2Nzk=",
      "avatar_url": "https://avatars.githubusercontent.com/u/6399679?v=4",
      "gravatar_id": "",
      "url": "https://api.github.com/users/maflcko",
      "html_url": "https://github.com/maflcko",
      "followers_url": "https://api.github.com/users/maflcko/followers",
      "following_url": "https://api.github.com/users/maflcko/following{/other_user}",
      "gists_url": "https://api.github.com/users/maflcko/gists{/gist_id}",
      "starred_url": "https://api.github.com/users/maflcko/starred{/owner}{/repo}",
      "subscriptions_url": "https://api.github.com/users/maflcko/subscriptions",
      "organizations_url": "https://api.github.com/users/maflcko/orgs",
      "repos_url": "https://api.github.com/users/maflcko/repos",
      "events_url": "https://api.github.com/users/maflcko/events{/privacy}",
      "received_events_url": "https://api.github.com/users/maflcko/received_events",
      "type": "User",
      "site_admin": false
    },
    "created_at": "2020-03-31T12:53:57Z",
    "updated_at": "2020-03-31T12:53:57Z",
    "author_association": "MEMBER",
    "body_html": "<p dir=\"auto\">Would be nice to move forward with this. I am seeing about one ci failure each day because of this bug.</p>",
    "body_text": "Would be nice to move forward with this. I am seeing about one ci failure each day because of this bug.",
    "body": "Would be nice to move forward with this. I am seeing about one ci failure each day because of this bug.",
    "reactions": {
      "url": "https://api.github.com/repos/bitcoin/bitcoin/issues/comments/606608141/reactions",
      "total_count": 0,
      "+1": 0,
      "-1": 0,
      "laugh": 0,
      "hooray": 0,
      "confused": 0,
      "heart": 0,
      "rocket": 0,
      "eyes": 0
    },
    "performed_via_github_app": null
  },
  {
    "url": "https://api.github.com/repos/bitcoin/bitcoin/issues/comments/606881499",
    "html_url": "https://github.com/bitcoin/bitcoin/pull/18247#issuecomment-606881499",
    "issue_url": "https://api.github.com/repos/bitcoin/bitcoin/issues/18247",
    "id": 606881499,
    "node_id": "MDEyOklzc3VlQ29tbWVudDYwNjg4MTQ5OQ==",
    "user": {
      "login": "jonatack",
      "id": 2415484,
      "node_id": "MDQ6VXNlcjI0MTU0ODQ=",
      "avatar_url": "https://avatars.githubusercontent.com/u/2415484?v=4",
      "gravatar_id": "",
      "url": "https://api.github.com/users/jonatack",
      "html_url": "https://github.com/jonatack",
      "followers_url": "https://api.github.com/users/jonatack/followers",
      "following_url": "https://api.github.com/users/jonatack/following{/other_user}",
      "gists_url": "https://api.github.com/users/jonatack/gists{/gist_id}",
      "starred_url": "https://api.github.com/users/jonatack/starred{/owner}{/repo}",
      "subscriptions_url": "https://api.github.com/users/jonatack/subscriptions",
      "organizations_url": "https://api.github.com/users/jonatack/orgs",
      "repos_url": "https://api.github.com/users/jonatack/repos",
      "events_url": "https://api.github.com/users/jonatack/events{/privacy}",
      "received_events_url": "https://api.github.com/users/jonatack/received_events",
      "type": "User",
      "site_admin": false
    },
    "created_at": "2020-03-31T21:18:49Z",
    "updated_at": "2020-03-31T21:18:49Z",
    "author_association": "CONTRIBUTOR",
    "body_html": "<p dir=\"auto\">ACK <a class=\"commit-link\" data-hovercard-type=\"commit\" data-hovercard-url=\"https://github.com/bitcoin/bitcoin/commit/faf1d047313e71658fb31f6b94fdd5d37705ab85/hovercard\" href=\"https://github.com/bitcoin/bitcoin/commit/faf1d047313e71658fb31f6b94fdd5d37705ab85\"><tt>faf1d04</tt></a></p>\n<p dir=\"auto\">Verified that p2p_leaks and p2p_timeouts needed these changes and looked at other tests.</p>",
    "body_text": "ACK faf1d04\nVerified that p2p_leaks and p2p_timeouts needed these changes and looked at other tests.",
    "body": "ACK faf1d04\r\n\r\nVerified that p2p_leaks and p2p_timeouts needed these changes and looked at other tests.",
    "reactions": {
      "url": "https://api.github.com/repos/bitcoin/bitcoin/issues/comments/606881499/reactions",
      "total_count": 0,
      "+1": 0,
      "-1": 0,
      "laugh": 0,
      "hooray": 0,
      "confused": 0,
      "heart": 0,
      "rocket": 0,
      "eyes": 0
    },
    "performed_via_github_app": null
  }
]
