[
  {
    "url": "https://api.github.com/repos/bitcoin/bitcoin/issues/comments/423809758",
    "html_url": "https://github.com/bitcoin/bitcoin/pull/14281#issuecomment-423809758",
    "issue_url": "https://api.github.com/repos/bitcoin/bitcoin/issues/14281",
    "id": 423809758,
    "node_id": "MDEyOklzc3VlQ29tbWVudDQyMzgwOTc1OA==",
    "user": {
      "login": "laanwj",
      "id": 126646,
      "node_id": "MDQ6VXNlcjEyNjY0Ng==",
      "avatar_url": "https://avatars.githubusercontent.com/u/126646?v=4",
      "gravatar_id": "",
      "url": "https://api.github.com/users/laanwj",
      "html_url": "https://github.com/laanwj",
      "followers_url": "https://api.github.com/users/laanwj/followers",
      "following_url": "https://api.github.com/users/laanwj/following{/other_user}",
      "gists_url": "https://api.github.com/users/laanwj/gists{/gist_id}",
      "starred_url": "https://api.github.com/users/laanwj/starred{/owner}{/repo}",
      "subscriptions_url": "https://api.github.com/users/laanwj/subscriptions",
      "organizations_url": "https://api.github.com/users/laanwj/orgs",
      "repos_url": "https://api.github.com/users/laanwj/repos",
      "events_url": "https://api.github.com/users/laanwj/events{/privacy}",
      "received_events_url": "https://api.github.com/users/laanwj/received_events",
      "type": "User",
      "site_admin": false
    },
    "created_at": "2018-09-23T11:31:21Z",
    "updated_at": "2018-09-23T11:31:21Z",
    "author_association": "MEMBER",
    "body_html": "<p dir=\"auto\">utACK <a class=\"commit-link\" data-hovercard-type=\"commit\" data-hovercard-url=\"https://github.com/bitcoin/bitcoin/commit/fa6b30c40b84b58f9c5327481a91292e23ed3a7c/hovercard\" href=\"https://github.com/bitcoin/bitcoin/commit/fa6b30c40b84b58f9c5327481a91292e23ed3a7c\"><tt>fa6b30c</tt></a></p>",
    "body_text": "utACK fa6b30c",
    "body": "utACK fa6b30c40b84b58f9c5327481a91292e23ed3a7c",
    "reactions": {
      "url": "https://api.github.com/repos/bitcoin/bitcoin/issues/comments/423809758/reactions",
      "total_count": 0,
      "+1": 0,
      "-1": 0,
      "laugh": 0,
      "hooray": 0,
      "confused": 0,
      "heart": 0,
      "rocket": 0,
      "eyes": 0
    },
    "performed_via_github_app": null
  },
  {
    "url": "https://api.github.com/repos/bitcoin/bitcoin/issues/comments/424242375",
    "html_url": "https://github.com/bitcoin/bitcoin/pull/14281#issuecomment-424242375",
    "issue_url": "https://api.github.com/repos/bitcoin/bitcoin/issues/14281",
    "id": 424242375,
    "node_id": "MDEyOklzc3VlQ29tbWVudDQyNDI0MjM3NQ==",
    "user": {
      "login": "ken2812221",
      "id": 11154118,
      "node_id": "MDQ6VXNlcjExMTU0MTE4",
      "avatar_url": "https://avatars.githubusercontent.com/u/11154118?v=4",
      "gravatar_id": "",
      "url": "https://api.github.com/users/ken2812221",
      "html_url": "https://github.com/ken2812221",
      "followers_url": "https://api.github.com/users/ken2812221/followers",
      "following_url": "https://api.github.com/users/ken2812221/following{/other_user}",
      "gists_url": "https://api.github.com/users/ken2812221/gists{/gist_id}",
      "starred_url": "https://api.github.com/users/ken2812221/starred{/owner}{/repo}",
      "subscriptions_url": "https://api.github.com/users/ken2812221/subscriptions",
      "organizations_url": "https://api.github.com/users/ken2812221/orgs",
      "repos_url": "https://api.github.com/users/ken2812221/repos",
      "events_url": "https://api.github.com/users/ken2812221/events{/privacy}",
      "received_events_url": "https://api.github.com/users/ken2812221/received_events",
      "type": "User",
      "site_admin": false
    },
    "created_at": "2018-09-25T07:51:48Z",
    "updated_at": "2018-09-25T07:51:48Z",
    "author_association": "CONTRIBUTOR",
    "body_html": "<p dir=\"auto\">utACK <a class=\"commit-link\" data-hovercard-type=\"commit\" data-hovercard-url=\"https://github.com/bitcoin/bitcoin/commit/fa6b30c40b84b58f9c5327481a91292e23ed3a7c/hovercard\" href=\"https://github.com/bitcoin/bitcoin/commit/fa6b30c40b84b58f9c5327481a91292e23ed3a7c\"><tt>fa6b30c</tt></a></p>",
    "body_text": "utACK fa6b30c",
    "body": "utACK fa6b30c",
    "reactions": {
      "url": "https://api.github.com/repos/bitcoin/bitcoin/issues/comments/424242375/reactions",
      "total_count": 0,
      "+1": 0,
      "-1": 0,
      "laugh": 0,
      "hooray": 0,
      "confused": 0,
      "heart": 0,
      "rocket": 0,
      "eyes": 0
    },
    "performed_via_github_app": null
  },
  {
    "url": "https://api.github.com/repos/bitcoin/bitcoin/issues/comments/424253354",
    "html_url": "https://github.com/bitcoin/bitcoin/pull/14281#issuecomment-424253354",
    "issue_url": "https://api.github.com/repos/bitcoin/bitcoin/issues/14281",
    "id": 424253354,
    "node_id": "MDEyOklzc3VlQ29tbWVudDQyNDI1MzM1NA==",
    "user": {
      "login": "fanquake",
      "id": 863730,
      "node_id": "MDQ6VXNlcjg2MzczMA==",
      "avatar_url": "https://avatars.githubusercontent.com/u/863730?v=4",
      "gravatar_id": "",
      "url": "https://api.github.com/users/fanquake",
      "html_url": "https://github.com/fanquake",
      "followers_url": "https://api.github.com/users/fanquake/followers",
      "following_url": "https://api.github.com/users/fanquake/following{/other_user}",
      "gists_url": "https://api.github.com/users/fanquake/gists{/gist_id}",
      "starred_url": "https://api.github.com/users/fanquake/starred{/owner}{/repo}",
      "subscriptions_url": "https://api.github.com/users/fanquake/subscriptions",
      "organizations_url": "https://api.github.com/users/fanquake/orgs",
      "repos_url": "https://api.github.com/users/fanquake/repos",
      "events_url": "https://api.github.com/users/fanquake/events{/privacy}",
      "received_events_url": "https://api.github.com/users/fanquake/received_events",
      "type": "User",
      "site_admin": false
    },
    "created_at": "2018-09-25T08:31:46Z",
    "updated_at": "2018-09-25T08:31:46Z",
    "author_association": "MEMBER",
    "body_html": "<p dir=\"auto\">utACK <a class=\"commit-link\" data-hovercard-type=\"commit\" data-hovercard-url=\"https://github.com/bitcoin/bitcoin/commit/fa6b30c40b84b58f9c5327481a91292e23ed3a7c/hovercard\" href=\"https://github.com/bitcoin/bitcoin/commit/fa6b30c40b84b58f9c5327481a91292e23ed3a7c\"><tt>fa6b30c</tt></a></p>",
    "body_text": "utACK fa6b30c",
    "body": "utACK fa6b30c",
    "reactions": {
      "url": "https://api.github.com/repos/bitcoin/bitcoin/issues/comments/424253354/reactions",
      "total_count": 0,
      "+1": 0,
      "-1": 0,
      "laugh": 0,
      "hooray": 0,
      "confused": 0,
      "heart": 0,
      "rocket": 0,
      "eyes": 0
    },
    "performed_via_github_app": null
  },
  {
    "url": "https://api.github.com/repos/bitcoin/bitcoin/issues/comments/424345765",
    "html_url": "https://github.com/bitcoin/bitcoin/pull/14281#issuecomment-424345765",
    "issue_url": "https://api.github.com/repos/bitcoin/bitcoin/issues/14281",
    "id": 424345765,
    "node_id": "MDEyOklzc3VlQ29tbWVudDQyNDM0NTc2NQ==",
    "user": {
      "login": "achow101",
      "id": 3782274,
      "node_id": "MDQ6VXNlcjM3ODIyNzQ=",
      "avatar_url": "https://avatars.githubusercontent.com/u/3782274?v=4",
      "gravatar_id": "",
      "url": "https://api.github.com/users/achow101",
      "html_url": "https://github.com/achow101",
      "followers_url": "https://api.github.com/users/achow101/followers",
      "following_url": "https://api.github.com/users/achow101/following{/other_user}",
      "gists_url": "https://api.github.com/users/achow101/gists{/gist_id}",
      "starred_url": "https://api.github.com/users/achow101/starred{/owner}{/repo}",
      "subscriptions_url": "https://api.github.com/users/achow101/subscriptions",
      "organizations_url": "https://api.github.com/users/achow101/orgs",
      "repos_url": "https://api.github.com/users/achow101/repos",
      "events_url": "https://api.github.com/users/achow101/events{/privacy}",
      "received_events_url": "https://api.github.com/users/achow101/received_events",
      "type": "User",
      "site_admin": false
    },
    "created_at": "2018-09-25T13:35:37Z",
    "updated_at": "2018-09-25T13:35:37Z",
    "author_association": "MEMBER",
    "body_html": "<p dir=\"auto\">utACK <a class=\"commit-link\" data-hovercard-type=\"commit\" data-hovercard-url=\"https://github.com/bitcoin/bitcoin/commit/fa6b30c40b84b58f9c5327481a91292e23ed3a7c/hovercard\" href=\"https://github.com/bitcoin/bitcoin/commit/fa6b30c40b84b58f9c5327481a91292e23ed3a7c\"><tt>fa6b30c</tt></a></p>",
    "body_text": "utACK fa6b30c",
    "body": "utACK fa6b30c40b84b58f9c5327481a91292e23ed3a7c",
    "reactions": {
      "url": "https://api.github.com/repos/bitcoin/bitcoin/issues/comments/424345765/reactions",
      "total_count": 0,
      "+1": 0,
      "-1": 0,
      "laugh": 0,
      "hooray": 0,
      "confused": 0,
      "heart": 0,
      "rocket": 0,
      "eyes": 0
    },
    "performed_via_github_app": null
  }
]
