{
  "url": "https://api.github.com/repos/bitcoin/bitcoin/issues/27296",
  "repository_url": "https://api.github.com/repos/bitcoin/bitcoin",
  "labels_url": "https://api.github.com/repos/bitcoin/bitcoin/issues/27296/labels{/name}",
  "comments_url": "https://api.github.com/repos/bitcoin/bitcoin/issues/27296/comments",
  "events_url": "https://api.github.com/repos/bitcoin/bitcoin/issues/27296/events",
  "html_url": "https://github.com/bitcoin/bitcoin/pull/27296",
  "id": 1635437613,
  "node_id": "PR_kwDOABII585MoDz_",
  "number": 27296,
  "title": "guix: import/sync python-lief (0.12.3) package definition from upstream",
  "user": {
    "login": "fanquake",
    "id": 863730,
    "node_id": "MDQ6VXNlcjg2MzczMA==",
    "avatar_url": "https://avatars.githubusercontent.com/u/863730?v=4",
    "gravatar_id": "",
    "url": "https://api.github.com/users/fanquake",
    "html_url": "https://github.com/fanquake",
    "followers_url": "https://api.github.com/users/fanquake/followers",
    "following_url": "https://api.github.com/users/fanquake/following{/other_user}",
    "gists_url": "https://api.github.com/users/fanquake/gists{/gist_id}",
    "starred_url": "https://api.github.com/users/fanquake/starred{/owner}{/repo}",
    "subscriptions_url": "https://api.github.com/users/fanquake/subscriptions",
    "organizations_url": "https://api.github.com/users/fanquake/orgs",
    "repos_url": "https://api.github.com/users/fanquake/repos",
    "events_url": "https://api.github.com/users/fanquake/events{/privacy}",
    "received_events_url": "https://api.github.com/users/fanquake/received_events",
    "type": "User",
    "site_admin": false
  },
  "labels": [
    {
      "id": 61889416,
      "node_id": "MDU6TGFiZWw2MTg4OTQxNg==",
      "url": "https://api.github.com/repos/bitcoin/bitcoin/labels/Build%20system",
      "name": "Build system",
      "color": "5319e7",
      "default": false,
      "description": null
    }
  ],
  "state": "closed",
  "locked": true,
  "assignee": null,
  "assignees": [

  ],
  "milestone": null,
  "comments": 4,
  "created_at": "2023-03-22T10:02:40Z",
  "updated_at": "2024-03-26T12:40:15Z",
  "closed_at": "2023-03-27T13:39:15Z",
  "author_association": "MEMBER",
  "active_lock_reason": null,
  "draft": false,
  "pull_request": {
    "url": "https://api.github.com/repos/bitcoin/bitcoin/pulls/27296",
    "html_url": "https://github.com/bitcoin/bitcoin/pull/27296",
    "diff_url": "https://github.com/bitcoin/bitcoin/pull/27296.diff",
    "patch_url": "https://github.com/bitcoin/bitcoin/pull/27296.patch",
    "merged_at": "2023-03-27T13:39:15Z"
  },
  "body_html": "<p dir=\"auto\">Update to version 0.12.3.<br>\nRetain our PPC64 patch.<br>\nMention when we can drop our local definition.</p>\n<p dir=\"auto\">Also switch to using cmake-minimal (see <a class=\"issue-link js-issue-link\" data-error-text=\"Failed to load title\" data-id=\"1602752017\" data-permission-text=\"Title is private\" data-url=\"https://github.com/bitcoin/bitcoin/issues/27172\" data-hovercard-type=\"pull_request\" data-hovercard-url=\"/bitcoin/bitcoin/pull/27172/hovercard\" href=\"https://github.com/bitcoin/bitcoin/pull/27172\">#27172</a>), which fixes atleast one build failure I've seen on aarch64, where cmake dependencies fail to build. Fix that by using the cmake without all the dependencies we don't actually need:</p>\n<div class=\"highlight highlight-source-shell notranslate position-relative overflow-auto\" dir=\"auto\" data-snippet-clipboard-copy-content=\"The following derivations will be built:\n  /gnu/store/7qqvqq2g7l5ylrjv0gn6zha565a12kar-python-lief-0.12.1.drv\n  /gnu/store/f9zwh1ldy63ga0i5w6cbbqlj6sfq226j-cmake-3.21.4.drv\n  /gnu/store/3wg6ya847id503m5izhzhn1qqs464lfk-python-sphinx-4.2.0.drv\n\nbuilding /gnu/store/3wg6ya847id503m5izhzhn1qqs464lfk-python-sphinx-4.2.0.drv...\n/ 'check' phasenote: keeping build directory `/tmp/guix-build-python-sphinx-4.2.0.drv-5'\nbuilder for `/gnu/store/3wg6ya847id503m5izhzhn1qqs464lfk-python-sphinx-4.2.0.drv' failed with exit code 1\nbuild of /gnu/store/3wg6ya847id503m5izhzhn1qqs464lfk-python-sphinx-4.2.0.drv failed\nView build log at '/var/log/guix/drvs/3w/g6ya847id503m5izhzhn1qqs464lfk-python-sphinx-4.2.0.drv.gz'.\ncannot build derivation `/gnu/store/f9zwh1ldy63ga0i5w6cbbqlj6sfq226j-cmake-3.21.4.drv': 1 dependencies couldn't be built\ncannot build derivation `/gnu/store/7qqvqq2g7l5ylrjv0gn6zha565a12kar-python-lief-0.12.1.drv': 1 dependencies couldn't be built\nguix environment: error: build of `/gnu/store/7qqvqq2g7l5ylrjv0gn6zha565a12kar-python-lief-0.12.1.drv' failed\"><pre class=\"notranslate\">The following derivations will be built:\n  /gnu/store/7qqvqq2g7l5ylrjv0gn6zha565a12kar-python-lief-0.12.1.drv\n  /gnu/store/f9zwh1ldy63ga0i5w6cbbqlj6sfq226j-cmake-3.21.4.drv\n  /gnu/store/3wg6ya847id503m5izhzhn1qqs464lfk-python-sphinx-4.2.0.drv\n\nbuilding /gnu/store/3wg6ya847id503m5izhzhn1qqs464lfk-python-sphinx-4.2.0.drv...\n/ <span class=\"pl-s\"><span class=\"pl-pds\">'</span>check<span class=\"pl-pds\">'</span></span> phasenote: keeping build directory <span class=\"pl-s\"><span class=\"pl-pds\">`</span>/tmp/guix-build-python-sphinx-4.2.0.drv-5<span class=\"pl-s\"><span class=\"pl-pds\">'</span></span></span>\n<span class=\"pl-s\"><span class=\"pl-s\">builder for `/gnu/store/3wg6ya847id503m5izhzhn1qqs464lfk-python-sphinx-4.2.0.drv<span class=\"pl-pds\">'</span></span> failed with <span class=\"pl-c1\">exit</span> code 1</span>\n<span class=\"pl-s\">build of /gnu/store/3wg6ya847id503m5izhzhn1qqs464lfk-python-sphinx-4.2.0.drv failed</span>\n<span class=\"pl-s\">View build log at <span class=\"pl-s\"><span class=\"pl-pds\">'</span>/var/log/guix/drvs/3w/g6ya847id503m5izhzhn1qqs464lfk-python-sphinx-4.2.0.drv.gz<span class=\"pl-pds\">'</span></span>.</span>\n<span class=\"pl-s\">cannot build derivation <span class=\"pl-pds\">`</span></span>/gnu/store/f9zwh1ldy63ga0i5w6cbbqlj6sfq226j-cmake-3.21.4.drv<span class=\"pl-s\"><span class=\"pl-pds\">'</span>: 1 dependencies couldn<span class=\"pl-pds\">'</span></span>t be built\ncannot build derivation <span class=\"pl-s\"><span class=\"pl-pds\">`</span>/gnu/store/7qqvqq2g7l5ylrjv0gn6zha565a12kar-python-lief-0.12.1.drv<span class=\"pl-s\"><span class=\"pl-pds\">'</span>: 1 dependencies couldn<span class=\"pl-pds\">'</span></span>t be built</span>\n<span class=\"pl-s\">guix environment: error: build of <span class=\"pl-pds\">`</span></span>/gnu/store/7qqvqq2g7l5ylrjv0gn6zha565a12kar-python-lief-0.12.1.drv<span class=\"pl-s\"><span class=\"pl-pds\">'</span> failed</span></pre></div>",
  "body_text": "Update to version 0.12.3.\nRetain our PPC64 patch.\nMention when we can drop our local definition.\nAlso switch to using cmake-minimal (see #27172), which fixes atleast one build failure I've seen on aarch64, where cmake dependencies fail to build. Fix that by using the cmake without all the dependencies we don't actually need:\nThe following derivations will be built:\n  /gnu/store/7qqvqq2g7l5ylrjv0gn6zha565a12kar-python-lief-0.12.1.drv\n  /gnu/store/f9zwh1ldy63ga0i5w6cbbqlj6sfq226j-cmake-3.21.4.drv\n  /gnu/store/3wg6ya847id503m5izhzhn1qqs464lfk-python-sphinx-4.2.0.drv\n\nbuilding /gnu/store/3wg6ya847id503m5izhzhn1qqs464lfk-python-sphinx-4.2.0.drv...\n/ 'check' phasenote: keeping build directory `/tmp/guix-build-python-sphinx-4.2.0.drv-5'\nbuilder for `/gnu/store/3wg6ya847id503m5izhzhn1qqs464lfk-python-sphinx-4.2.0.drv' failed with exit code 1\nbuild of /gnu/store/3wg6ya847id503m5izhzhn1qqs464lfk-python-sphinx-4.2.0.drv failed\nView build log at '/var/log/guix/drvs/3w/g6ya847id503m5izhzhn1qqs464lfk-python-sphinx-4.2.0.drv.gz'.\ncannot build derivation `/gnu/store/f9zwh1ldy63ga0i5w6cbbqlj6sfq226j-cmake-3.21.4.drv': 1 dependencies couldn't be built\ncannot build derivation `/gnu/store/7qqvqq2g7l5ylrjv0gn6zha565a12kar-python-lief-0.12.1.drv': 1 dependencies couldn't be built\nguix environment: error: build of `/gnu/store/7qqvqq2g7l5ylrjv0gn6zha565a12kar-python-lief-0.12.1.drv' failed",
  "body": "Update to version 0.12.3.\r\nRetain our PPC64 patch.\r\nMention when we can drop our local definition.\r\n\r\nAlso switch to using cmake-minimal (see #27172), which fixes atleast one build failure I've seen on aarch64, where cmake dependencies fail to build. Fix that by using the cmake without all the dependencies we don't actually need:\r\n```bash\r\nThe following derivations will be built:\r\n  /gnu/store/7qqvqq2g7l5ylrjv0gn6zha565a12kar-python-lief-0.12.1.drv\r\n  /gnu/store/f9zwh1ldy63ga0i5w6cbbqlj6sfq226j-cmake-3.21.4.drv\r\n  /gnu/store/3wg6ya847id503m5izhzhn1qqs464lfk-python-sphinx-4.2.0.drv\r\n\r\nbuilding /gnu/store/3wg6ya847id503m5izhzhn1qqs464lfk-python-sphinx-4.2.0.drv...\r\n/ 'check' phasenote: keeping build directory `/tmp/guix-build-python-sphinx-4.2.0.drv-5'\r\nbuilder for `/gnu/store/3wg6ya847id503m5izhzhn1qqs464lfk-python-sphinx-4.2.0.drv' failed with exit code 1\r\nbuild of /gnu/store/3wg6ya847id503m5izhzhn1qqs464lfk-python-sphinx-4.2.0.drv failed\r\nView build log at '/var/log/guix/drvs/3w/g6ya847id503m5izhzhn1qqs464lfk-python-sphinx-4.2.0.drv.gz'.\r\ncannot build derivation `/gnu/store/f9zwh1ldy63ga0i5w6cbbqlj6sfq226j-cmake-3.21.4.drv': 1 dependencies couldn't be built\r\ncannot build derivation `/gnu/store/7qqvqq2g7l5ylrjv0gn6zha565a12kar-python-lief-0.12.1.drv': 1 dependencies couldn't be built\r\nguix environment: error: build of `/gnu/store/7qqvqq2g7l5ylrjv0gn6zha565a12kar-python-lief-0.12.1.drv' failed\r\n```",
  "closed_by": {
    "login": "fanquake",
    "id": 863730,
    "node_id": "MDQ6VXNlcjg2MzczMA==",
    "avatar_url": "https://avatars.githubusercontent.com/u/863730?v=4",
    "gravatar_id": "",
    "url": "https://api.github.com/users/fanquake",
    "html_url": "https://github.com/fanquake",
    "followers_url": "https://api.github.com/users/fanquake/followers",
    "following_url": "https://api.github.com/users/fanquake/following{/other_user}",
    "gists_url": "https://api.github.com/users/fanquake/gists{/gist_id}",
    "starred_url": "https://api.github.com/users/fanquake/starred{/owner}{/repo}",
    "subscriptions_url": "https://api.github.com/users/fanquake/subscriptions",
    "organizations_url": "https://api.github.com/users/fanquake/orgs",
    "repos_url": "https://api.github.com/users/fanquake/repos",
    "events_url": "https://api.github.com/users/fanquake/events{/privacy}",
    "received_events_url": "https://api.github.com/users/fanquake/received_events",
    "type": "User",
    "site_admin": false
  },
  "reactions": {
    "url": "https://api.github.com/repos/bitcoin/bitcoin/issues/27296/reactions",
    "total_count": 1,
    "+1": 1,
    "-1": 0,
    "laugh": 0,
    "hooray": 0,
    "confused": 0,
    "heart": 0,
    "rocket": 0,
    "eyes": 0
  },
  "timeline_url": "https://api.github.com/repos/bitcoin/bitcoin/issues/27296/timeline",
  "performed_via_github_app": null,
  "state_reason": null
}
