{
  "url": "https://api.github.com/repos/bitcoin/bitcoin/issues/2920",
  "repository_url": "https://api.github.com/repos/bitcoin/bitcoin",
  "labels_url": "https://api.github.com/repos/bitcoin/bitcoin/issues/2920/labels{/name}",
  "comments_url": "https://api.github.com/repos/bitcoin/bitcoin/issues/2920/comments",
  "events_url": "https://api.github.com/repos/bitcoin/bitcoin/issues/2920/events",
  "html_url": "https://github.com/bitcoin/bitcoin/pull/2920",
  "id": 18335885,
  "node_id": "MDExOlB1bGxSZXF1ZXN0Nzc0ODA1OQ==",
  "number": 2920,
  "title": "Optimization TimingResistantEqual",
  "user": {
    "login": "Enelar",
    "id": 750396,
    "node_id": "MDQ6VXNlcjc1MDM5Ng==",
    "avatar_url": "https://avatars.githubusercontent.com/u/750396?v=4",
    "gravatar_id": "",
    "url": "https://api.github.com/users/Enelar",
    "html_url": "https://github.com/Enelar",
    "followers_url": "https://api.github.com/users/Enelar/followers",
    "following_url": "https://api.github.com/users/Enelar/following{/other_user}",
    "gists_url": "https://api.github.com/users/Enelar/gists{/gist_id}",
    "starred_url": "https://api.github.com/users/Enelar/starred{/owner}{/repo}",
    "subscriptions_url": "https://api.github.com/users/Enelar/subscriptions",
    "organizations_url": "https://api.github.com/users/Enelar/orgs",
    "repos_url": "https://api.github.com/users/Enelar/repos",
    "events_url": "https://api.github.com/users/Enelar/events{/privacy}",
    "received_events_url": "https://api.github.com/users/Enelar/received_events",
    "type": "User",
    "site_admin": false
  },
  "labels": [

  ],
  "state": "closed",
  "locked": true,
  "assignee": null,
  "assignees": [

  ],
  "milestone": null,
  "comments": 2,
  "created_at": "2013-08-21T04:43:48Z",
  "updated_at": "2021-09-08T10:24:12Z",
  "closed_at": "2013-08-21T19:13:17Z",
  "author_association": "NONE",
  "active_lock_reason": "resolved",
  "draft": false,
  "pull_request": {
    "url": "https://api.github.com/repos/bitcoin/bitcoin/pulls/2920",
    "html_url": "https://github.com/bitcoin/bitcoin/pull/2920",
    "diff_url": "https://github.com/bitcoin/bitcoin/pull/2920.diff",
    "patch_url": "https://github.com/bitcoin/bitcoin/pull/2920.patch",
    "merged_at": null
  },
  "body_html": "<p dir=\"auto\">Time of comparison proportional length of shorter argument. Less<br>\noperations on cycle. (Removing weight % operation).</p>\n<p dir=\"auto\">google translate:<br>\nThe comparison is proportional to the shortest argument. Removed an expensive operation \"modulo\" of the cycle.</p>",
  "body_text": "Time of comparison proportional length of shorter argument. Less\noperations on cycle. (Removing weight % operation).\ngoogle translate:\nThe comparison is proportional to the shortest argument. Removed an expensive operation \"modulo\" of the cycle.",
  "body": "Time of comparison proportional length of shorter argument. Less\noperations on cycle. (Removing weight % operation).\n\ngoogle translate:\nThe comparison is proportional to the shortest argument. Removed an expensive operation \"modulo\" of the cycle.\n",
  "closed_by": {
    "login": "gmaxwell",
    "id": 858454,
    "node_id": "MDQ6VXNlcjg1ODQ1NA==",
    "avatar_url": "https://avatars.githubusercontent.com/u/858454?v=4",
    "gravatar_id": "",
    "url": "https://api.github.com/users/gmaxwell",
    "html_url": "https://github.com/gmaxwell",
    "followers_url": "https://api.github.com/users/gmaxwell/followers",
    "following_url": "https://api.github.com/users/gmaxwell/following{/other_user}",
    "gists_url": "https://api.github.com/users/gmaxwell/gists{/gist_id}",
    "starred_url": "https://api.github.com/users/gmaxwell/starred{/owner}{/repo}",
    "subscriptions_url": "https://api.github.com/users/gmaxwell/subscriptions",
    "organizations_url": "https://api.github.com/users/gmaxwell/orgs",
    "repos_url": "https://api.github.com/users/gmaxwell/repos",
    "events_url": "https://api.github.com/users/gmaxwell/events{/privacy}",
    "received_events_url": "https://api.github.com/users/gmaxwell/received_events",
    "type": "User",
    "site_admin": false
  },
  "reactions": {
    "url": "https://api.github.com/repos/bitcoin/bitcoin/issues/2920/reactions",
    "total_count": 0,
    "+1": 0,
    "-1": 0,
    "laugh": 0,
    "hooray": 0,
    "confused": 0,
    "heart": 0,
    "rocket": 0,
    "eyes": 0
  },
  "timeline_url": "https://api.github.com/repos/bitcoin/bitcoin/issues/2920/timeline",
  "performed_via_github_app": null,
  "state_reason": null
}
