[
  {
    "url": "https://api.github.com/repos/bitcoin/bitcoin/issues/comments/1239557631",
    "html_url": "https://github.com/bitcoin/bitcoin/pull/26026#issuecomment-1239557631",
    "issue_url": "https://api.github.com/repos/bitcoin/bitcoin/issues/26026",
    "id": 1239557631,
    "node_id": "IC_kwDOABII585J4iX_",
    "user": {
      "login": "ghost",
      "id": 10137,
      "node_id": "MDQ6VXNlcjEwMTM3",
      "avatar_url": "https://avatars.githubusercontent.com/u/10137?v=4",
      "gravatar_id": "",
      "url": "https://api.github.com/users/ghost",
      "html_url": "https://github.com/ghost",
      "followers_url": "https://api.github.com/users/ghost/followers",
      "following_url": "https://api.github.com/users/ghost/following{/other_user}",
      "gists_url": "https://api.github.com/users/ghost/gists{/gist_id}",
      "starred_url": "https://api.github.com/users/ghost/starred{/owner}{/repo}",
      "subscriptions_url": "https://api.github.com/users/ghost/subscriptions",
      "organizations_url": "https://api.github.com/users/ghost/orgs",
      "repos_url": "https://api.github.com/users/ghost/repos",
      "events_url": "https://api.github.com/users/ghost/events{/privacy}",
      "received_events_url": "https://api.github.com/users/ghost/received_events",
      "type": "User",
      "site_admin": false
    },
    "created_at": "2022-09-07T15:38:14Z",
    "updated_at": "2022-09-07T15:38:14Z",
    "author_association": "NONE",
    "body_html": "<p dir=\"auto\">Concept ACK 🎨</p>",
    "body_text": "Concept ACK 🎨",
    "body": "Concept ACK 🎨",
    "reactions": {
      "url": "https://api.github.com/repos/bitcoin/bitcoin/issues/comments/1239557631/reactions",
      "total_count": 0,
      "+1": 0,
      "-1": 0,
      "laugh": 0,
      "hooray": 0,
      "confused": 0,
      "heart": 0,
      "rocket": 0,
      "eyes": 0
    },
    "performed_via_github_app": null
  },
  {
    "url": "https://api.github.com/repos/bitcoin/bitcoin/issues/comments/1240890751",
    "html_url": "https://github.com/bitcoin/bitcoin/pull/26026#issuecomment-1240890751",
    "issue_url": "https://api.github.com/repos/bitcoin/bitcoin/issues/26026",
    "id": 1240890751,
    "node_id": "IC_kwDOABII585J9n1_",
    "user": {
      "login": "fanquake",
      "id": 863730,
      "node_id": "MDQ6VXNlcjg2MzczMA==",
      "avatar_url": "https://avatars.githubusercontent.com/u/863730?v=4",
      "gravatar_id": "",
      "url": "https://api.github.com/users/fanquake",
      "html_url": "https://github.com/fanquake",
      "followers_url": "https://api.github.com/users/fanquake/followers",
      "following_url": "https://api.github.com/users/fanquake/following{/other_user}",
      "gists_url": "https://api.github.com/users/fanquake/gists{/gist_id}",
      "starred_url": "https://api.github.com/users/fanquake/starred{/owner}{/repo}",
      "subscriptions_url": "https://api.github.com/users/fanquake/subscriptions",
      "organizations_url": "https://api.github.com/users/fanquake/orgs",
      "repos_url": "https://api.github.com/users/fanquake/repos",
      "events_url": "https://api.github.com/users/fanquake/events{/privacy}",
      "received_events_url": "https://api.github.com/users/fanquake/received_events",
      "type": "User",
      "site_admin": false
    },
    "created_at": "2022-09-08T15:39:46Z",
    "updated_at": "2022-09-08T15:39:46Z",
    "author_association": "MEMBER",
    "body_html": "<p dir=\"auto\">Concept NACK - this seems out of scope for Bitcoin Core to maintain, and is never going to work perfectly everywhere, for everyone, leading to endless bikeshedding / \"improvements\".</p>\n<p dir=\"auto\">The Bitcoin Core logging code almost warrants being it's own externally maintained library at this point, and I don't think we should be adding to it/expanding scope by introducing more nice-to-have functionality.</p>",
    "body_text": "Concept NACK - this seems out of scope for Bitcoin Core to maintain, and is never going to work perfectly everywhere, for everyone, leading to endless bikeshedding / \"improvements\".\nThe Bitcoin Core logging code almost warrants being it's own externally maintained library at this point, and I don't think we should be adding to it/expanding scope by introducing more nice-to-have functionality.",
    "body": "Concept NACK - this seems out of scope for Bitcoin Core to maintain, and is never going to work perfectly everywhere, for everyone, leading to endless bikeshedding / \"improvements\".\r\n\r\nThe Bitcoin Core logging code almost warrants being it's own externally maintained library at this point, and I don't think we should be adding to it/expanding scope by introducing more nice-to-have functionality.",
    "reactions": {
      "url": "https://api.github.com/repos/bitcoin/bitcoin/issues/comments/1240890751/reactions",
      "total_count": 0,
      "+1": 0,
      "-1": 0,
      "laugh": 0,
      "hooray": 0,
      "confused": 0,
      "heart": 0,
      "rocket": 0,
      "eyes": 0
    },
    "performed_via_github_app": null
  },
  {
    "url": "https://api.github.com/repos/bitcoin/bitcoin/issues/comments/1241505807",
    "html_url": "https://github.com/bitcoin/bitcoin/pull/26026#issuecomment-1241505807",
    "issue_url": "https://api.github.com/repos/bitcoin/bitcoin/issues/26026",
    "id": 1241505807,
    "node_id": "IC_kwDOABII585J_-AP",
    "user": {
      "login": "hebasto",
      "id": 32963518,
      "node_id": "MDQ6VXNlcjMyOTYzNTE4",
      "avatar_url": "https://avatars.githubusercontent.com/u/32963518?v=4",
      "gravatar_id": "",
      "url": "https://api.github.com/users/hebasto",
      "html_url": "https://github.com/hebasto",
      "followers_url": "https://api.github.com/users/hebasto/followers",
      "following_url": "https://api.github.com/users/hebasto/following{/other_user}",
      "gists_url": "https://api.github.com/users/hebasto/gists{/gist_id}",
      "starred_url": "https://api.github.com/users/hebasto/starred{/owner}{/repo}",
      "subscriptions_url": "https://api.github.com/users/hebasto/subscriptions",
      "organizations_url": "https://api.github.com/users/hebasto/orgs",
      "repos_url": "https://api.github.com/users/hebasto/repos",
      "events_url": "https://api.github.com/users/hebasto/events{/privacy}",
      "received_events_url": "https://api.github.com/users/hebasto/received_events",
      "type": "User",
      "site_admin": false
    },
    "created_at": "2022-09-09T05:11:04Z",
    "updated_at": "2022-09-09T05:11:04Z",
    "author_association": "MEMBER",
    "body_html": "<p dir=\"auto\">NACK for the following reasons:</p>\n<ul dir=\"auto\">\n<li>\"is never going to work perfectly everywhere, for everyone, leading to endless bikeshedding\" as <a class=\"user-mention notranslate\" data-hovercard-type=\"user\" data-hovercard-url=\"/users/fanquake/hovercard\" data-octo-click=\"hovercard-link-click\" data-octo-dimensions=\"link_type:self\" href=\"https://github.com/fanquake\">@fanquake</a> <a href=\"https://github.com/bitcoin/bitcoin/pull/26026#issuecomment-1240890751\" data-hovercard-type=\"pull_request\" data-hovercard-url=\"/bitcoin/bitcoin/pull/26026/hovercard\">pointed</a></li>\n<li>changes into functional tests code</li>\n</ul>\n<blockquote>\n<p dir=\"auto\">The Bitcoin Core logging code almost warrants being it's own externally maintained library at this point</p>\n</blockquote>\n<p dir=\"auto\">Sounds good.</p>",
    "body_text": "NACK for the following reasons:\n\n\"is never going to work perfectly everywhere, for everyone, leading to endless bikeshedding\" as @fanquake pointed\nchanges into functional tests code\n\n\nThe Bitcoin Core logging code almost warrants being it's own externally maintained library at this point\n\nSounds good.",
    "body": "NACK for the following reasons:\r\n- \"is never going to work perfectly everywhere, for everyone, leading to endless bikeshedding\" as @fanquake [pointed](https://github.com/bitcoin/bitcoin/pull/26026#issuecomment-1240890751)\r\n- changes into functional tests code\r\n\r\n> The Bitcoin Core logging code almost warrants being it's own externally maintained library at this point\r\n\r\nSounds good.",
    "reactions": {
      "url": "https://api.github.com/repos/bitcoin/bitcoin/issues/comments/1241505807/reactions",
      "total_count": 0,
      "+1": 0,
      "-1": 0,
      "laugh": 0,
      "hooray": 0,
      "confused": 0,
      "heart": 0,
      "rocket": 0,
      "eyes": 0
    },
    "performed_via_github_app": null
  },
  {
    "url": "https://api.github.com/repos/bitcoin/bitcoin/issues/comments/1241519094",
    "html_url": "https://github.com/bitcoin/bitcoin/pull/26026#issuecomment-1241519094",
    "issue_url": "https://api.github.com/repos/bitcoin/bitcoin/issues/26026",
    "id": 1241519094,
    "node_id": "IC_kwDOABII585KABP2",
    "user": {
      "login": "maflcko",
      "id": 6399679,
      "node_id": "MDQ6VXNlcjYzOTk2Nzk=",
      "avatar_url": "https://avatars.githubusercontent.com/u/6399679?v=4",
      "gravatar_id": "",
      "url": "https://api.github.com/users/maflcko",
      "html_url": "https://github.com/maflcko",
      "followers_url": "https://api.github.com/users/maflcko/followers",
      "following_url": "https://api.github.com/users/maflcko/following{/other_user}",
      "gists_url": "https://api.github.com/users/maflcko/gists{/gist_id}",
      "starred_url": "https://api.github.com/users/maflcko/starred{/owner}{/repo}",
      "subscriptions_url": "https://api.github.com/users/maflcko/subscriptions",
      "organizations_url": "https://api.github.com/users/maflcko/orgs",
      "repos_url": "https://api.github.com/users/maflcko/repos",
      "events_url": "https://api.github.com/users/maflcko/events{/privacy}",
      "received_events_url": "https://api.github.com/users/maflcko/received_events",
      "type": "User",
      "site_admin": false
    },
    "created_at": "2022-09-09T05:38:11Z",
    "updated_at": "2022-09-09T05:38:11Z",
    "author_association": "MEMBER",
    "body_html": "<p dir=\"auto\">What about an external script that colors the logs? Something like <code class=\"notranslate\">./src/bitcoind -printtoconsole=1 | ./color.py</code></p>",
    "body_text": "What about an external script that colors the logs? Something like ./src/bitcoind -printtoconsole=1 | ./color.py",
    "body": "What about an external script that colors the logs? Something like `./src/bitcoind -printtoconsole=1 | ./color.py`",
    "reactions": {
      "url": "https://api.github.com/repos/bitcoin/bitcoin/issues/comments/1241519094/reactions",
      "total_count": 2,
      "+1": 2,
      "-1": 0,
      "laugh": 0,
      "hooray": 0,
      "confused": 0,
      "heart": 0,
      "rocket": 0,
      "eyes": 0
    },
    "performed_via_github_app": null
  },
  {
    "url": "https://api.github.com/repos/bitcoin/bitcoin/issues/comments/1241530269",
    "html_url": "https://github.com/bitcoin/bitcoin/pull/26026#issuecomment-1241530269",
    "issue_url": "https://api.github.com/repos/bitcoin/bitcoin/issues/26026",
    "id": 1241530269,
    "node_id": "IC_kwDOABII585KAD-d",
    "user": {
      "login": "kristapsk",
      "id": 4500994,
      "node_id": "MDQ6VXNlcjQ1MDA5OTQ=",
      "avatar_url": "https://avatars.githubusercontent.com/u/4500994?v=4",
      "gravatar_id": "",
      "url": "https://api.github.com/users/kristapsk",
      "html_url": "https://github.com/kristapsk",
      "followers_url": "https://api.github.com/users/kristapsk/followers",
      "following_url": "https://api.github.com/users/kristapsk/following{/other_user}",
      "gists_url": "https://api.github.com/users/kristapsk/gists{/gist_id}",
      "starred_url": "https://api.github.com/users/kristapsk/starred{/owner}{/repo}",
      "subscriptions_url": "https://api.github.com/users/kristapsk/subscriptions",
      "organizations_url": "https://api.github.com/users/kristapsk/orgs",
      "repos_url": "https://api.github.com/users/kristapsk/repos",
      "events_url": "https://api.github.com/users/kristapsk/events{/privacy}",
      "received_events_url": "https://api.github.com/users/kristapsk/received_events",
      "type": "User",
      "site_admin": false
    },
    "created_at": "2022-09-09T05:56:29Z",
    "updated_at": "2022-09-09T05:56:29Z",
    "author_association": "CONTRIBUTOR",
    "body_html": "<blockquote>\n<p dir=\"auto\">What about an external script that colors the logs? Something like <code class=\"notranslate\">./src/bitcoind -printtoconsole=1 | ./color.py</code></p>\n</blockquote>\n<p dir=\"auto\">Agree this would be better approach.</p>",
    "body_text": "What about an external script that colors the logs? Something like ./src/bitcoind -printtoconsole=1 | ./color.py\n\nAgree this would be better approach.",
    "body": "> What about an external script that colors the logs? Something like `./src/bitcoind -printtoconsole=1 | ./color.py`\r\n\r\nAgree this would be better approach.",
    "reactions": {
      "url": "https://api.github.com/repos/bitcoin/bitcoin/issues/comments/1241530269/reactions",
      "total_count": 0,
      "+1": 0,
      "-1": 0,
      "laugh": 0,
      "hooray": 0,
      "confused": 0,
      "heart": 0,
      "rocket": 0,
      "eyes": 0
    },
    "performed_via_github_app": null
  },
  {
    "url": "https://api.github.com/repos/bitcoin/bitcoin/issues/comments/1241718165",
    "html_url": "https://github.com/bitcoin/bitcoin/pull/26026#issuecomment-1241718165",
    "issue_url": "https://api.github.com/repos/bitcoin/bitcoin/issues/26026",
    "id": 1241718165,
    "node_id": "IC_kwDOABII585KAx2V",
    "user": {
      "login": "aureleoules",
      "id": 22493292,
      "node_id": "MDQ6VXNlcjIyNDkzMjky",
      "avatar_url": "https://avatars.githubusercontent.com/u/22493292?v=4",
      "gravatar_id": "",
      "url": "https://api.github.com/users/aureleoules",
      "html_url": "https://github.com/aureleoules",
      "followers_url": "https://api.github.com/users/aureleoules/followers",
      "following_url": "https://api.github.com/users/aureleoules/following{/other_user}",
      "gists_url": "https://api.github.com/users/aureleoules/gists{/gist_id}",
      "starred_url": "https://api.github.com/users/aureleoules/starred{/owner}{/repo}",
      "subscriptions_url": "https://api.github.com/users/aureleoules/subscriptions",
      "organizations_url": "https://api.github.com/users/aureleoules/orgs",
      "repos_url": "https://api.github.com/users/aureleoules/repos",
      "events_url": "https://api.github.com/users/aureleoules/events{/privacy}",
      "received_events_url": "https://api.github.com/users/aureleoules/received_events",
      "type": "User",
      "site_admin": false
    },
    "created_at": "2022-09-09T09:14:37Z",
    "updated_at": "2022-09-09T09:15:08Z",
    "author_association": "MEMBER",
    "body_html": "<blockquote>\n<p dir=\"auto\">What about an external script that colors the logs? Something like ./src/bitcoind -printtoconsole=1 | ./color.py</p>\n</blockquote>\n<p dir=\"auto\">IMO that might be more difficult to achieve the same result as this PR because this require parsing the logs and identifying each part of the string (date, thread name, file, function, etc.), also they can be enabled/disabled with <code class=\"notranslate\">-logthreadnames</code> <code class=\"notranslate\">-logsourcelocations</code> which imo doesn't help either.</p>\n<p dir=\"auto\">How about an opt-in bitcoind parameter instead?<br>\nAnother solution would be to allow users to define their own colors if the default ones don't work. But this seems like too much work for what it is.</p>",
    "body_text": "What about an external script that colors the logs? Something like ./src/bitcoind -printtoconsole=1 | ./color.py\n\nIMO that might be more difficult to achieve the same result as this PR because this require parsing the logs and identifying each part of the string (date, thread name, file, function, etc.), also they can be enabled/disabled with -logthreadnames -logsourcelocations which imo doesn't help either.\nHow about an opt-in bitcoind parameter instead?\nAnother solution would be to allow users to define their own colors if the default ones don't work. But this seems like too much work for what it is.",
    "body": "> What about an external script that colors the logs? Something like ./src/bitcoind -printtoconsole=1 | ./color.py\r\n\r\nIMO that might be more difficult to achieve the same result as this PR because this require parsing the logs and identifying each part of the string (date, thread name, file, function, etc.), also they can be enabled/disabled with `-logthreadnames` `-logsourcelocations` which imo doesn't help either.\r\n\r\nHow about an opt-in bitcoind parameter instead?\r\nAnother solution would be to allow users to define their own colors if the default ones don't work. But this seems like too much work for what it is.",
    "reactions": {
      "url": "https://api.github.com/repos/bitcoin/bitcoin/issues/comments/1241718165/reactions",
      "total_count": 0,
      "+1": 0,
      "-1": 0,
      "laugh": 0,
      "hooray": 0,
      "confused": 0,
      "heart": 0,
      "rocket": 0,
      "eyes": 0
    },
    "performed_via_github_app": null
  },
  {
    "url": "https://api.github.com/repos/bitcoin/bitcoin/issues/comments/1241733860",
    "html_url": "https://github.com/bitcoin/bitcoin/pull/26026#issuecomment-1241733860",
    "issue_url": "https://api.github.com/repos/bitcoin/bitcoin/issues/26026",
    "id": 1241733860,
    "node_id": "IC_kwDOABII585KA1rk",
    "user": {
      "login": "aureleoules",
      "id": 22493292,
      "node_id": "MDQ6VXNlcjIyNDkzMjky",
      "avatar_url": "https://avatars.githubusercontent.com/u/22493292?v=4",
      "gravatar_id": "",
      "url": "https://api.github.com/users/aureleoules",
      "html_url": "https://github.com/aureleoules",
      "followers_url": "https://api.github.com/users/aureleoules/followers",
      "following_url": "https://api.github.com/users/aureleoules/following{/other_user}",
      "gists_url": "https://api.github.com/users/aureleoules/gists{/gist_id}",
      "starred_url": "https://api.github.com/users/aureleoules/starred{/owner}{/repo}",
      "subscriptions_url": "https://api.github.com/users/aureleoules/subscriptions",
      "organizations_url": "https://api.github.com/users/aureleoules/orgs",
      "repos_url": "https://api.github.com/users/aureleoules/repos",
      "events_url": "https://api.github.com/users/aureleoules/events{/privacy}",
      "received_events_url": "https://api.github.com/users/aureleoules/received_events",
      "type": "User",
      "site_admin": false
    },
    "created_at": "2022-09-09T09:28:07Z",
    "updated_at": "2022-09-09T09:28:07Z",
    "author_association": "MEMBER",
    "body_html": "<blockquote>\n<p dir=\"auto\">The Bitcoin Core logging code almost warrants being it's own externally maintained library at this point, and I don't think we should be adding to it/expanding scope by introducing more nice-to-have functionality.</p>\n</blockquote>\n<p dir=\"auto\">In this case, should we discuss a logging library to use?</p>\n<p dir=\"auto\">If colors are not welcome, it would be nice to have at least indented logs to make logs more readable, such as:</p>\n<div class=\"snippet-clipboard-content notranslate position-relative overflow-auto\" data-snippet-clipboard-copy-content=\"2022-09-09T09:24:18Z [init] [init/common.cpp:149]   [LogPackageVersion]  Bitcoin Core version v23.99.0-19585eeb778a-dirty\n2022-09-09T09:24:18Z [init] [kernel/context.cpp:21] [Context]            Using the 'sse4(1way),sse41(4way),avx2(8way)' SHA256 implementation\n2022-09-09T09:24:18Z [init] [random.cpp:100]        [ReportHardwareRand] Using RdSeed as an additional entropy source\n2022-09-09T09:24:18Z [init] [random.cpp:103]        [ReportHardwareRand] Using RdRand as an additional entropy source\n2022-09-09T09:24:18Z [init] [init/common.cpp:120]   [StartLogging]       Default data directory /home/aureleoules/.bitcoin\n2022-09-09T09:24:18Z [init] [init/common.cpp:121]   [StartLogging]       Using data directory /home/aureleoules/.bitcoin/testnet3\"><pre class=\"notranslate\"><code class=\"notranslate\">2022-09-09T09:24:18Z [init] [init/common.cpp:149]   [LogPackageVersion]  Bitcoin Core version v23.99.0-19585eeb778a-dirty\n2022-09-09T09:24:18Z [init] [kernel/context.cpp:21] [Context]            Using the 'sse4(1way),sse41(4way),avx2(8way)' SHA256 implementation\n2022-09-09T09:24:18Z [init] [random.cpp:100]        [ReportHardwareRand] Using RdSeed as an additional entropy source\n2022-09-09T09:24:18Z [init] [random.cpp:103]        [ReportHardwareRand] Using RdRand as an additional entropy source\n2022-09-09T09:24:18Z [init] [init/common.cpp:120]   [StartLogging]       Default data directory /home/aureleoules/.bitcoin\n2022-09-09T09:24:18Z [init] [init/common.cpp:121]   [StartLogging]       Using data directory /home/aureleoules/.bitcoin/testnet3\n</code></pre></div>\n<p dir=\"auto\">instead of</p>\n<div class=\"snippet-clipboard-content notranslate position-relative overflow-auto\" data-snippet-clipboard-copy-content=\"2022-09-09T09:24:18Z [init] [init/common.cpp:149] [LogPackageVersion] Bitcoin Core version v23.99.0-19585eeb778a-dirty (release build)\n2022-09-09T09:24:18Z [init] [kernel/context.cpp:21] [Context] Using the 'sse4(1way),sse41(4way),avx2(8way)' SHA256 implementation\n2022-09-09T09:24:18Z [init] [random.cpp:100] [ReportHardwareRand] Using RdSeed as an additional entropy source\n2022-09-09T09:24:18Z [init] [random.cpp:103] [ReportHardwareRand] Using RdRand as an additional entropy source\n2022-09-09T09:24:18Z [init] [init/common.cpp:120] [StartLogging] Default data directory /home/aureleoules/.bitcoin\n2022-09-09T09:24:18Z [init] [init/common.cpp:121] [StartLogging] Using data directory /home/aureleoules/.bitcoin/testnet3\"><pre class=\"notranslate\"><code class=\"notranslate\">2022-09-09T09:24:18Z [init] [init/common.cpp:149] [LogPackageVersion] Bitcoin Core version v23.99.0-19585eeb778a-dirty (release build)\n2022-09-09T09:24:18Z [init] [kernel/context.cpp:21] [Context] Using the 'sse4(1way),sse41(4way),avx2(8way)' SHA256 implementation\n2022-09-09T09:24:18Z [init] [random.cpp:100] [ReportHardwareRand] Using RdSeed as an additional entropy source\n2022-09-09T09:24:18Z [init] [random.cpp:103] [ReportHardwareRand] Using RdRand as an additional entropy source\n2022-09-09T09:24:18Z [init] [init/common.cpp:120] [StartLogging] Default data directory /home/aureleoules/.bitcoin\n2022-09-09T09:24:18Z [init] [init/common.cpp:121] [StartLogging] Using data directory /home/aureleoules/.bitcoin/testnet3\n</code></pre></div>",
    "body_text": "The Bitcoin Core logging code almost warrants being it's own externally maintained library at this point, and I don't think we should be adding to it/expanding scope by introducing more nice-to-have functionality.\n\nIn this case, should we discuss a logging library to use?\nIf colors are not welcome, it would be nice to have at least indented logs to make logs more readable, such as:\n2022-09-09T09:24:18Z [init] [init/common.cpp:149]   [LogPackageVersion]  Bitcoin Core version v23.99.0-19585eeb778a-dirty\n2022-09-09T09:24:18Z [init] [kernel/context.cpp:21] [Context]            Using the 'sse4(1way),sse41(4way),avx2(8way)' SHA256 implementation\n2022-09-09T09:24:18Z [init] [random.cpp:100]        [ReportHardwareRand] Using RdSeed as an additional entropy source\n2022-09-09T09:24:18Z [init] [random.cpp:103]        [ReportHardwareRand] Using RdRand as an additional entropy source\n2022-09-09T09:24:18Z [init] [init/common.cpp:120]   [StartLogging]       Default data directory /home/aureleoules/.bitcoin\n2022-09-09T09:24:18Z [init] [init/common.cpp:121]   [StartLogging]       Using data directory /home/aureleoules/.bitcoin/testnet3\n\ninstead of\n2022-09-09T09:24:18Z [init] [init/common.cpp:149] [LogPackageVersion] Bitcoin Core version v23.99.0-19585eeb778a-dirty (release build)\n2022-09-09T09:24:18Z [init] [kernel/context.cpp:21] [Context] Using the 'sse4(1way),sse41(4way),avx2(8way)' SHA256 implementation\n2022-09-09T09:24:18Z [init] [random.cpp:100] [ReportHardwareRand] Using RdSeed as an additional entropy source\n2022-09-09T09:24:18Z [init] [random.cpp:103] [ReportHardwareRand] Using RdRand as an additional entropy source\n2022-09-09T09:24:18Z [init] [init/common.cpp:120] [StartLogging] Default data directory /home/aureleoules/.bitcoin\n2022-09-09T09:24:18Z [init] [init/common.cpp:121] [StartLogging] Using data directory /home/aureleoules/.bitcoin/testnet3",
    "body": "> The Bitcoin Core logging code almost warrants being it's own externally maintained library at this point, and I don't think we should be adding to it/expanding scope by introducing more nice-to-have functionality.\r\n\r\nIn this case, should we discuss a logging library to use?\r\n\r\nIf colors are not welcome, it would be nice to have at least indented logs to make logs more readable, such as:\r\n\r\n```\r\n2022-09-09T09:24:18Z [init] [init/common.cpp:149]   [LogPackageVersion]  Bitcoin Core version v23.99.0-19585eeb778a-dirty\r\n2022-09-09T09:24:18Z [init] [kernel/context.cpp:21] [Context]            Using the 'sse4(1way),sse41(4way),avx2(8way)' SHA256 implementation\r\n2022-09-09T09:24:18Z [init] [random.cpp:100]        [ReportHardwareRand] Using RdSeed as an additional entropy source\r\n2022-09-09T09:24:18Z [init] [random.cpp:103]        [ReportHardwareRand] Using RdRand as an additional entropy source\r\n2022-09-09T09:24:18Z [init] [init/common.cpp:120]   [StartLogging]       Default data directory /home/aureleoules/.bitcoin\r\n2022-09-09T09:24:18Z [init] [init/common.cpp:121]   [StartLogging]       Using data directory /home/aureleoules/.bitcoin/testnet3\r\n```\r\ninstead of\r\n```\r\n2022-09-09T09:24:18Z [init] [init/common.cpp:149] [LogPackageVersion] Bitcoin Core version v23.99.0-19585eeb778a-dirty (release build)\r\n2022-09-09T09:24:18Z [init] [kernel/context.cpp:21] [Context] Using the 'sse4(1way),sse41(4way),avx2(8way)' SHA256 implementation\r\n2022-09-09T09:24:18Z [init] [random.cpp:100] [ReportHardwareRand] Using RdSeed as an additional entropy source\r\n2022-09-09T09:24:18Z [init] [random.cpp:103] [ReportHardwareRand] Using RdRand as an additional entropy source\r\n2022-09-09T09:24:18Z [init] [init/common.cpp:120] [StartLogging] Default data directory /home/aureleoules/.bitcoin\r\n2022-09-09T09:24:18Z [init] [init/common.cpp:121] [StartLogging] Using data directory /home/aureleoules/.bitcoin/testnet3\r\n```",
    "reactions": {
      "url": "https://api.github.com/repos/bitcoin/bitcoin/issues/comments/1241733860/reactions",
      "total_count": 0,
      "+1": 0,
      "-1": 0,
      "laugh": 0,
      "hooray": 0,
      "confused": 0,
      "heart": 0,
      "rocket": 0,
      "eyes": 0
    },
    "performed_via_github_app": null
  },
  {
    "url": "https://api.github.com/repos/bitcoin/bitcoin/issues/comments/1241739165",
    "html_url": "https://github.com/bitcoin/bitcoin/pull/26026#issuecomment-1241739165",
    "issue_url": "https://api.github.com/repos/bitcoin/bitcoin/issues/26026",
    "id": 1241739165,
    "node_id": "IC_kwDOABII585KA2-d",
    "user": {
      "login": "maflcko",
      "id": 6399679,
      "node_id": "MDQ6VXNlcjYzOTk2Nzk=",
      "avatar_url": "https://avatars.githubusercontent.com/u/6399679?v=4",
      "gravatar_id": "",
      "url": "https://api.github.com/users/maflcko",
      "html_url": "https://github.com/maflcko",
      "followers_url": "https://api.github.com/users/maflcko/followers",
      "following_url": "https://api.github.com/users/maflcko/following{/other_user}",
      "gists_url": "https://api.github.com/users/maflcko/gists{/gist_id}",
      "starred_url": "https://api.github.com/users/maflcko/starred{/owner}{/repo}",
      "subscriptions_url": "https://api.github.com/users/maflcko/subscriptions",
      "organizations_url": "https://api.github.com/users/maflcko/orgs",
      "repos_url": "https://api.github.com/users/maflcko/repos",
      "events_url": "https://api.github.com/users/maflcko/events{/privacy}",
      "received_events_url": "https://api.github.com/users/maflcko/received_events",
      "type": "User",
      "site_admin": false
    },
    "created_at": "2022-09-09T09:33:14Z",
    "updated_at": "2022-09-09T09:33:14Z",
    "author_association": "MEMBER",
    "body_html": "<p dir=\"auto\">Is it important that each <code class=\"notranslate\">[...]</code> type is coloured the same? You could just define 5 colors and then color each <code class=\"notranslate\">[...]</code> in order, regardless of their type.</p>\n<p dir=\"auto\">Padding doesn't work because you don't know the pad size.</p>\n<p dir=\"auto\">I wish there was a function to get the color palette from the system (if there is one), so that there would be no need to bikeshed colors, as they are picked by the system user.</p>",
    "body_text": "Is it important that each [...] type is coloured the same? You could just define 5 colors and then color each [...] in order, regardless of their type.\nPadding doesn't work because you don't know the pad size.\nI wish there was a function to get the color palette from the system (if there is one), so that there would be no need to bikeshed colors, as they are picked by the system user.",
    "body": "Is it important that each `[...]` type is coloured the same? You could just define 5 colors and then color each `[...]` in order, regardless of their type.\r\n\r\nPadding doesn't work because you don't know the pad size.\r\n\r\nI wish there was a function to get the color palette from the system (if there is one), so that there would be no need to bikeshed colors, as they are picked by the system user.",
    "reactions": {
      "url": "https://api.github.com/repos/bitcoin/bitcoin/issues/comments/1241739165/reactions",
      "total_count": 0,
      "+1": 0,
      "-1": 0,
      "laugh": 0,
      "hooray": 0,
      "confused": 0,
      "heart": 0,
      "rocket": 0,
      "eyes": 0
    },
    "performed_via_github_app": null
  },
  {
    "url": "https://api.github.com/repos/bitcoin/bitcoin/issues/comments/1241742426",
    "html_url": "https://github.com/bitcoin/bitcoin/pull/26026#issuecomment-1241742426",
    "issue_url": "https://api.github.com/repos/bitcoin/bitcoin/issues/26026",
    "id": 1241742426,
    "node_id": "IC_kwDOABII585KA3xa",
    "user": {
      "login": "fanquake",
      "id": 863730,
      "node_id": "MDQ6VXNlcjg2MzczMA==",
      "avatar_url": "https://avatars.githubusercontent.com/u/863730?v=4",
      "gravatar_id": "",
      "url": "https://api.github.com/users/fanquake",
      "html_url": "https://github.com/fanquake",
      "followers_url": "https://api.github.com/users/fanquake/followers",
      "following_url": "https://api.github.com/users/fanquake/following{/other_user}",
      "gists_url": "https://api.github.com/users/fanquake/gists{/gist_id}",
      "starred_url": "https://api.github.com/users/fanquake/starred{/owner}{/repo}",
      "subscriptions_url": "https://api.github.com/users/fanquake/subscriptions",
      "organizations_url": "https://api.github.com/users/fanquake/orgs",
      "repos_url": "https://api.github.com/users/fanquake/repos",
      "events_url": "https://api.github.com/users/fanquake/events{/privacy}",
      "received_events_url": "https://api.github.com/users/fanquake/received_events",
      "type": "User",
      "site_admin": false
    },
    "created_at": "2022-09-09T09:36:46Z",
    "updated_at": "2022-09-09T09:36:46Z",
    "author_association": "MEMBER",
    "body_html": "<blockquote>\n<p dir=\"auto\">In this case, should we discuss a logging library to use?</p>\n</blockquote>\n<p dir=\"auto\">I'm definitely not suggesting we take on a new (external) dependency for logging. Adding colours to logs is not a problem we need to solve. Especially not when there is already an internal migration happening within our logging code, and finishing that would be a much better allocation of engineering time/resources, as opposed to bikeshedding log colouring / adding options to bitcoind to let people colour logs / starting a migration towards another dependency.</p>",
    "body_text": "In this case, should we discuss a logging library to use?\n\nI'm definitely not suggesting we take on a new (external) dependency for logging. Adding colours to logs is not a problem we need to solve. Especially not when there is already an internal migration happening within our logging code, and finishing that would be a much better allocation of engineering time/resources, as opposed to bikeshedding log colouring / adding options to bitcoind to let people colour logs / starting a migration towards another dependency.",
    "body": "> In this case, should we discuss a logging library to use?\r\n\r\nI'm definitely not suggesting we take on a new (external) dependency for logging. Adding colours to logs is not a problem we need to solve. Especially not when there is already an internal migration happening within our logging code, and finishing that would be a much better allocation of engineering time/resources, as opposed to bikeshedding log colouring / adding options to bitcoind to let people colour logs / starting a migration towards another dependency.",
    "reactions": {
      "url": "https://api.github.com/repos/bitcoin/bitcoin/issues/comments/1241742426/reactions",
      "total_count": 1,
      "+1": 1,
      "-1": 0,
      "laugh": 0,
      "hooray": 0,
      "confused": 0,
      "heart": 0,
      "rocket": 0,
      "eyes": 0
    },
    "performed_via_github_app": null
  },
  {
    "url": "https://api.github.com/repos/bitcoin/bitcoin/issues/comments/1241746209",
    "html_url": "https://github.com/bitcoin/bitcoin/pull/26026#issuecomment-1241746209",
    "issue_url": "https://api.github.com/repos/bitcoin/bitcoin/issues/26026",
    "id": 1241746209,
    "node_id": "IC_kwDOABII585KA4sh",
    "user": {
      "login": "hebasto",
      "id": 32963518,
      "node_id": "MDQ6VXNlcjMyOTYzNTE4",
      "avatar_url": "https://avatars.githubusercontent.com/u/32963518?v=4",
      "gravatar_id": "",
      "url": "https://api.github.com/users/hebasto",
      "html_url": "https://github.com/hebasto",
      "followers_url": "https://api.github.com/users/hebasto/followers",
      "following_url": "https://api.github.com/users/hebasto/following{/other_user}",
      "gists_url": "https://api.github.com/users/hebasto/gists{/gist_id}",
      "starred_url": "https://api.github.com/users/hebasto/starred{/owner}{/repo}",
      "subscriptions_url": "https://api.github.com/users/hebasto/subscriptions",
      "organizations_url": "https://api.github.com/users/hebasto/orgs",
      "repos_url": "https://api.github.com/users/hebasto/repos",
      "events_url": "https://api.github.com/users/hebasto/events{/privacy}",
      "received_events_url": "https://api.github.com/users/hebasto/received_events",
      "type": "User",
      "site_admin": false
    },
    "created_at": "2022-09-09T09:40:17Z",
    "updated_at": "2022-09-09T09:40:17Z",
    "author_association": "MEMBER",
    "body_html": "<blockquote>\n<p dir=\"auto\">If colors are not welcome...</p>\n</blockquote>\n<p dir=\"auto\">Rather maintenance costs they come with.</p>",
    "body_text": "If colors are not welcome...\n\nRather maintenance costs they come with.",
    "body": "> If colors are not welcome...\r\n\r\nRather maintenance costs they come with.",
    "reactions": {
      "url": "https://api.github.com/repos/bitcoin/bitcoin/issues/comments/1241746209/reactions",
      "total_count": 2,
      "+1": 2,
      "-1": 0,
      "laugh": 0,
      "hooray": 0,
      "confused": 0,
      "heart": 0,
      "rocket": 0,
      "eyes": 0
    },
    "performed_via_github_app": null
  },
  {
    "url": "https://api.github.com/repos/bitcoin/bitcoin/issues/comments/1241790283",
    "html_url": "https://github.com/bitcoin/bitcoin/pull/26026#issuecomment-1241790283",
    "issue_url": "https://api.github.com/repos/bitcoin/bitcoin/issues/26026",
    "id": 1241790283,
    "node_id": "IC_kwDOABII585KBDdL",
    "user": {
      "login": "aureleoules",
      "id": 22493292,
      "node_id": "MDQ6VXNlcjIyNDkzMjky",
      "avatar_url": "https://avatars.githubusercontent.com/u/22493292?v=4",
      "gravatar_id": "",
      "url": "https://api.github.com/users/aureleoules",
      "html_url": "https://github.com/aureleoules",
      "followers_url": "https://api.github.com/users/aureleoules/followers",
      "following_url": "https://api.github.com/users/aureleoules/following{/other_user}",
      "gists_url": "https://api.github.com/users/aureleoules/gists{/gist_id}",
      "starred_url": "https://api.github.com/users/aureleoules/starred{/owner}{/repo}",
      "subscriptions_url": "https://api.github.com/users/aureleoules/subscriptions",
      "organizations_url": "https://api.github.com/users/aureleoules/orgs",
      "repos_url": "https://api.github.com/users/aureleoules/repos",
      "events_url": "https://api.github.com/users/aureleoules/events{/privacy}",
      "received_events_url": "https://api.github.com/users/aureleoules/received_events",
      "type": "User",
      "site_admin": false
    },
    "created_at": "2022-09-09T10:23:08Z",
    "updated_at": "2022-09-09T10:23:08Z",
    "author_association": "MEMBER",
    "body_html": "<blockquote>\n<p dir=\"auto\">Is it important that each [...] type is coloured the same? You could just define 5 colors and then color each [...] in order, regardless of their type.</p>\n</blockquote>\n<p dir=\"auto\">I'll try to draft a script.</p>\n<blockquote>\n<p dir=\"auto\">Adding colours to logs is not a problem we need to solve</p>\n</blockquote>\n<p dir=\"auto\">Sure, but it's a means to make the logs more readable.</p>\n<blockquote>\n<p dir=\"auto\">If colors are not welcome...</p>\n<blockquote>\n<p dir=\"auto\">Rather maintenance costs they come with.</p>\n</blockquote>\n</blockquote>\n<p dir=\"auto\">Yes I understand, I meant this as well. (didn't mean it in an aggressive way)</p>",
    "body_text": "Is it important that each [...] type is coloured the same? You could just define 5 colors and then color each [...] in order, regardless of their type.\n\nI'll try to draft a script.\n\nAdding colours to logs is not a problem we need to solve\n\nSure, but it's a means to make the logs more readable.\n\nIf colors are not welcome...\n\nRather maintenance costs they come with.\n\n\nYes I understand, I meant this as well. (didn't mean it in an aggressive way)",
    "body": "> Is it important that each [...] type is coloured the same? You could just define 5 colors and then color each [...] in order, regardless of their type.\r\n\r\nI'll try to draft a script.\r\n\r\n> Adding colours to logs is not a problem we need to solve\r\n\r\nSure, but it's a means to make the logs more readable.\r\n\r\n> If colors are not welcome...\r\n>> Rather maintenance costs they come with.\r\n\r\nYes I understand, I meant this as well. (didn't mean it in an aggressive way)",
    "reactions": {
      "url": "https://api.github.com/repos/bitcoin/bitcoin/issues/comments/1241790283/reactions",
      "total_count": 0,
      "+1": 0,
      "-1": 0,
      "laugh": 0,
      "hooray": 0,
      "confused": 0,
      "heart": 0,
      "rocket": 0,
      "eyes": 0
    },
    "performed_via_github_app": null
  },
  {
    "url": "https://api.github.com/repos/bitcoin/bitcoin/issues/comments/1242138453",
    "html_url": "https://github.com/bitcoin/bitcoin/pull/26026#issuecomment-1242138453",
    "issue_url": "https://api.github.com/repos/bitcoin/bitcoin/issues/26026",
    "id": 1242138453,
    "node_id": "IC_kwDOABII585KCYdV",
    "user": {
      "login": "aureleoules",
      "id": 22493292,
      "node_id": "MDQ6VXNlcjIyNDkzMjky",
      "avatar_url": "https://avatars.githubusercontent.com/u/22493292?v=4",
      "gravatar_id": "",
      "url": "https://api.github.com/users/aureleoules",
      "html_url": "https://github.com/aureleoules",
      "followers_url": "https://api.github.com/users/aureleoules/followers",
      "following_url": "https://api.github.com/users/aureleoules/following{/other_user}",
      "gists_url": "https://api.github.com/users/aureleoules/gists{/gist_id}",
      "starred_url": "https://api.github.com/users/aureleoules/starred{/owner}{/repo}",
      "subscriptions_url": "https://api.github.com/users/aureleoules/subscriptions",
      "organizations_url": "https://api.github.com/users/aureleoules/orgs",
      "repos_url": "https://api.github.com/users/aureleoules/repos",
      "events_url": "https://api.github.com/users/aureleoules/events{/privacy}",
      "received_events_url": "https://api.github.com/users/aureleoules/received_events",
      "type": "User",
      "site_admin": false
    },
    "created_at": "2022-09-09T15:41:14Z",
    "updated_at": "2022-09-09T15:41:47Z",
    "author_association": "MEMBER",
    "body_html": "<p dir=\"auto\">I've drafted an alternative with a python script in <a class=\"issue-link js-issue-link\" data-error-text=\"Failed to load title\" data-id=\"1367972217\" data-permission-text=\"Title is private\" data-url=\"https://github.com/bitcoin/bitcoin/issues/26052\" data-hovercard-type=\"pull_request\" data-hovercard-url=\"/bitcoin/bitcoin/pull/26052/hovercard\" href=\"https://github.com/bitcoin/bitcoin/pull/26052\">#26052</a>.</p>",
    "body_text": "I've drafted an alternative with a python script in #26052.",
    "body": "I've drafted an alternative with a python script in #26052.",
    "reactions": {
      "url": "https://api.github.com/repos/bitcoin/bitcoin/issues/comments/1242138453/reactions",
      "total_count": 1,
      "+1": 1,
      "-1": 0,
      "laugh": 0,
      "hooray": 0,
      "confused": 0,
      "heart": 0,
      "rocket": 0,
      "eyes": 0
    },
    "performed_via_github_app": null
  },
  {
    "url": "https://api.github.com/repos/bitcoin/bitcoin/issues/comments/1242776458",
    "html_url": "https://github.com/bitcoin/bitcoin/pull/26026#issuecomment-1242776458",
    "issue_url": "https://api.github.com/repos/bitcoin/bitcoin/issues/26026",
    "id": 1242776458,
    "node_id": "IC_kwDOABII585KE0OK",
    "user": {
      "login": "amovfx",
      "id": 45839100,
      "node_id": "MDQ6VXNlcjQ1ODM5MTAw",
      "avatar_url": "https://avatars.githubusercontent.com/u/45839100?v=4",
      "gravatar_id": "",
      "url": "https://api.github.com/users/amovfx",
      "html_url": "https://github.com/amovfx",
      "followers_url": "https://api.github.com/users/amovfx/followers",
      "following_url": "https://api.github.com/users/amovfx/following{/other_user}",
      "gists_url": "https://api.github.com/users/amovfx/gists{/gist_id}",
      "starred_url": "https://api.github.com/users/amovfx/starred{/owner}{/repo}",
      "subscriptions_url": "https://api.github.com/users/amovfx/subscriptions",
      "organizations_url": "https://api.github.com/users/amovfx/orgs",
      "repos_url": "https://api.github.com/users/amovfx/repos",
      "events_url": "https://api.github.com/users/amovfx/events{/privacy}",
      "received_events_url": "https://api.github.com/users/amovfx/received_events",
      "type": "User",
      "site_admin": false
    },
    "created_at": "2022-09-10T17:52:17Z",
    "updated_at": "2022-09-10T17:52:17Z",
    "author_association": "NONE",
    "body_html": "<p dir=\"auto\">Maybe close this? The python script is awesome btw, Ill be using that even if it doesn't get merged.</p>",
    "body_text": "Maybe close this? The python script is awesome btw, Ill be using that even if it doesn't get merged.",
    "body": "Maybe close this? The python script is awesome btw, Ill be using that even if it doesn't get merged.",
    "reactions": {
      "url": "https://api.github.com/repos/bitcoin/bitcoin/issues/comments/1242776458/reactions",
      "total_count": 1,
      "+1": 0,
      "-1": 0,
      "laugh": 0,
      "hooray": 0,
      "confused": 0,
      "heart": 1,
      "rocket": 0,
      "eyes": 0
    },
    "performed_via_github_app": null
  },
  {
    "url": "https://api.github.com/repos/bitcoin/bitcoin/issues/comments/1243325374",
    "html_url": "https://github.com/bitcoin/bitcoin/pull/26026#issuecomment-1243325374",
    "issue_url": "https://api.github.com/repos/bitcoin/bitcoin/issues/26026",
    "id": 1243325374,
    "node_id": "IC_kwDOABII585KG6O-",
    "user": {
      "login": "aureleoules",
      "id": 22493292,
      "node_id": "MDQ6VXNlcjIyNDkzMjky",
      "avatar_url": "https://avatars.githubusercontent.com/u/22493292?v=4",
      "gravatar_id": "",
      "url": "https://api.github.com/users/aureleoules",
      "html_url": "https://github.com/aureleoules",
      "followers_url": "https://api.github.com/users/aureleoules/followers",
      "following_url": "https://api.github.com/users/aureleoules/following{/other_user}",
      "gists_url": "https://api.github.com/users/aureleoules/gists{/gist_id}",
      "starred_url": "https://api.github.com/users/aureleoules/starred{/owner}{/repo}",
      "subscriptions_url": "https://api.github.com/users/aureleoules/subscriptions",
      "organizations_url": "https://api.github.com/users/aureleoules/orgs",
      "repos_url": "https://api.github.com/users/aureleoules/repos",
      "events_url": "https://api.github.com/users/aureleoules/events{/privacy}",
      "received_events_url": "https://api.github.com/users/aureleoules/received_events",
      "type": "User",
      "site_admin": false
    },
    "created_at": "2022-09-12T07:27:12Z",
    "updated_at": "2022-09-12T07:27:12Z",
    "author_association": "MEMBER",
    "body_html": "<p dir=\"auto\">Closing in favor of <a class=\"issue-link js-issue-link\" data-error-text=\"Failed to load title\" data-id=\"1367972217\" data-permission-text=\"Title is private\" data-url=\"https://github.com/bitcoin/bitcoin/issues/26052\" data-hovercard-type=\"pull_request\" data-hovercard-url=\"/bitcoin/bitcoin/pull/26052/hovercard\" href=\"https://github.com/bitcoin/bitcoin/pull/26052\">#26052</a>.</p>",
    "body_text": "Closing in favor of #26052.",
    "body": "Closing in favor of #26052.",
    "reactions": {
      "url": "https://api.github.com/repos/bitcoin/bitcoin/issues/comments/1243325374/reactions",
      "total_count": 0,
      "+1": 0,
      "-1": 0,
      "laugh": 0,
      "hooray": 0,
      "confused": 0,
      "heart": 0,
      "rocket": 0,
      "eyes": 0
    },
    "performed_via_github_app": null
  }
]
