{
  "url": "https://api.github.com/repos/bitcoin/bitcoin/issues/7619",
  "repository_url": "https://api.github.com/repos/bitcoin/bitcoin",
  "labels_url": "https://api.github.com/repos/bitcoin/bitcoin/issues/7619/labels{/name}",
  "comments_url": "https://api.github.com/repos/bitcoin/bitcoin/issues/7619/comments",
  "events_url": "https://api.github.com/repos/bitcoin/bitcoin/issues/7619/events",
  "html_url": "https://github.com/bitcoin/bitcoin/pull/7619",
  "id": 136968988,
  "node_id": "MDExOlB1bGxSZXF1ZXN0NjA5NjUyNjE=",
  "number": 7619,
  "title": "Add missing sudo entry in gitian VM setup.",
  "user": {
    "login": "btcdrak",
    "id": 7275704,
    "node_id": "MDQ6VXNlcjcyNzU3MDQ=",
    "avatar_url": "https://avatars.githubusercontent.com/u/7275704?v=4",
    "gravatar_id": "",
    "url": "https://api.github.com/users/btcdrak",
    "html_url": "https://github.com/btcdrak",
    "followers_url": "https://api.github.com/users/btcdrak/followers",
    "following_url": "https://api.github.com/users/btcdrak/following{/other_user}",
    "gists_url": "https://api.github.com/users/btcdrak/gists{/gist_id}",
    "starred_url": "https://api.github.com/users/btcdrak/starred{/owner}{/repo}",
    "subscriptions_url": "https://api.github.com/users/btcdrak/subscriptions",
    "organizations_url": "https://api.github.com/users/btcdrak/orgs",
    "repos_url": "https://api.github.com/users/btcdrak/repos",
    "events_url": "https://api.github.com/users/btcdrak/events{/privacy}",
    "received_events_url": "https://api.github.com/users/btcdrak/received_events",
    "type": "User",
    "site_admin": false
  },
  "labels": [
    {
      "id": 61889416,
      "node_id": "MDU6TGFiZWw2MTg4OTQxNg==",
      "url": "https://api.github.com/repos/bitcoin/bitcoin/labels/Build%20system",
      "name": "Build system",
      "color": "5319e7",
      "default": false,
      "description": null
    }
  ],
  "state": "closed",
  "locked": true,
  "assignee": null,
  "assignees": [

  ],
  "milestone": null,
  "comments": 1,
  "created_at": "2016-02-27T21:14:13Z",
  "updated_at": "2021-09-08T11:06:53Z",
  "closed_at": "2016-02-29T07:58:07Z",
  "author_association": "CONTRIBUTOR",
  "active_lock_reason": "resolved",
  "draft": false,
  "pull_request": {
    "url": "https://api.github.com/repos/bitcoin/bitcoin/pulls/7619",
    "html_url": "https://github.com/bitcoin/bitcoin/pull/7619",
    "diff_url": "https://github.com/bitcoin/bitcoin/pull/7619.diff",
    "patch_url": "https://github.com/bitcoin/bitcoin/pull/7619.patch",
    "merged_at": "2016-02-29T07:58:07Z"
  },
  "body_html": "<p dir=\"auto\">Missing sudo entry in gitian setup results in unwanted password prompt. See the discussion <a href=\"https://botbot.me/freenode/bitcoin-core-dev/2016-02-18/?msg=60419903&amp;page=3\" rel=\"nofollow\">here</a>.</p>\n<p dir=\"auto\">Probably should backport to <code class=\"notranslate\">0.12</code>.</p>\n<p dir=\"auto\">[ci skip]</p>",
  "body_text": "Missing sudo entry in gitian setup results in unwanted password prompt. See the discussion here.\nProbably should backport to 0.12.\n[ci skip]",
  "body": "Missing sudo entry in gitian setup results in unwanted password prompt. See the discussion [here](https://botbot.me/freenode/bitcoin-core-dev/2016-02-18/?msg=60419903&page=3).\n\nProbably should backport to `0.12`.\n\n[ci skip]\n",
  "closed_by": {
    "login": "laanwj",
    "id": 126646,
    "node_id": "MDQ6VXNlcjEyNjY0Ng==",
    "avatar_url": "https://avatars.githubusercontent.com/u/126646?v=4",
    "gravatar_id": "",
    "url": "https://api.github.com/users/laanwj",
    "html_url": "https://github.com/laanwj",
    "followers_url": "https://api.github.com/users/laanwj/followers",
    "following_url": "https://api.github.com/users/laanwj/following{/other_user}",
    "gists_url": "https://api.github.com/users/laanwj/gists{/gist_id}",
    "starred_url": "https://api.github.com/users/laanwj/starred{/owner}{/repo}",
    "subscriptions_url": "https://api.github.com/users/laanwj/subscriptions",
    "organizations_url": "https://api.github.com/users/laanwj/orgs",
    "repos_url": "https://api.github.com/users/laanwj/repos",
    "events_url": "https://api.github.com/users/laanwj/events{/privacy}",
    "received_events_url": "https://api.github.com/users/laanwj/received_events",
    "type": "User",
    "site_admin": false
  },
  "reactions": {
    "url": "https://api.github.com/repos/bitcoin/bitcoin/issues/7619/reactions",
    "total_count": 0,
    "+1": 0,
    "-1": 0,
    "laugh": 0,
    "hooray": 0,
    "confused": 0,
    "heart": 0,
    "rocket": 0,
    "eyes": 0
  },
  "timeline_url": "https://api.github.com/repos/bitcoin/bitcoin/issues/7619/timeline",
  "performed_via_github_app": null,
  "state_reason": null
}
