[
  {
    "url": "https://api.github.com/repos/bitcoin/bitcoin/issues/comments/2046739416",
    "html_url": "https://github.com/bitcoin/bitcoin/pull/29841#issuecomment-2046739416",
    "issue_url": "https://api.github.com/repos/bitcoin/bitcoin/issues/29841",
    "id": 2046739416,
    "node_id": "IC_kwDOABII5855_sPY",
    "user": {
      "login": "DrahtBot",
      "id": 39886733,
      "node_id": "MDQ6VXNlcjM5ODg2NzMz",
      "avatar_url": "https://avatars.githubusercontent.com/u/39886733?v=4",
      "gravatar_id": "",
      "url": "https://api.github.com/users/DrahtBot",
      "html_url": "https://github.com/DrahtBot",
      "followers_url": "https://api.github.com/users/DrahtBot/followers",
      "following_url": "https://api.github.com/users/DrahtBot/following{/other_user}",
      "gists_url": "https://api.github.com/users/DrahtBot/gists{/gist_id}",
      "starred_url": "https://api.github.com/users/DrahtBot/starred{/owner}{/repo}",
      "subscriptions_url": "https://api.github.com/users/DrahtBot/subscriptions",
      "organizations_url": "https://api.github.com/users/DrahtBot/orgs",
      "repos_url": "https://api.github.com/users/DrahtBot/repos",
      "events_url": "https://api.github.com/users/DrahtBot/events{/privacy}",
      "received_events_url": "https://api.github.com/users/DrahtBot/received_events",
      "type": "User",
      "site_admin": false
    },
    "created_at": "2024-04-10T07:34:50Z",
    "updated_at": "2024-04-10T07:34:50Z",
    "author_association": "CONTRIBUTOR",
    "body_html": "\n<p dir=\"auto\">The following sections might be updated with supplementary metadata relevant to reviewers and maintainers.</p>\n\n<h3 dir=\"auto\">Code Coverage</h3>\n<p dir=\"auto\">For detailed information about the code coverage, see the <a href=\"https://corecheck.dev/bitcoin/bitcoin/pulls/29841\" rel=\"nofollow\">test coverage report</a>.</p>\n\n<h3 dir=\"auto\">Reviews</h3>\n<p dir=\"auto\">See <a href=\"https://github.com/bitcoin/bitcoin/blob/master/CONTRIBUTING.md#code-review\">the guideline</a> for information on the review process.<br>\nA summary of reviews will appear here.</p>",
    "body_text": "The following sections might be updated with supplementary metadata relevant to reviewers and maintainers.\n\nCode Coverage\nFor detailed information about the code coverage, see the test coverage report.\n\nReviews\nSee the guideline for information on the review process.\nA summary of reviews will appear here.",
    "body": "<!--e57a25ab6845829454e8d69fc972939a-->\n\nThe following sections might be updated with supplementary metadata relevant to reviewers and maintainers.\n\n<!--006a51241073e994b41acfe9ec718e94-->\n### Code Coverage\nFor detailed information about the code coverage, see the [test coverage report](https://corecheck.dev/bitcoin/bitcoin/pulls/29841).\n<!--021abf342d371248e50ceaed478a90ca-->\n### Reviews\nSee [the guideline](https://github.com/bitcoin/bitcoin/blob/master/CONTRIBUTING.md#code-review) for information on the review process.\nA summary of reviews will appear here.\n",
    "reactions": {
      "url": "https://api.github.com/repos/bitcoin/bitcoin/issues/comments/2046739416/reactions",
      "total_count": 0,
      "+1": 0,
      "-1": 0,
      "laugh": 0,
      "hooray": 0,
      "confused": 0,
      "heart": 0,
      "rocket": 0,
      "eyes": 0
    },
    "performed_via_github_app": null
  },
  {
    "url": "https://api.github.com/repos/bitcoin/bitcoin/issues/comments/2046766022",
    "html_url": "https://github.com/bitcoin/bitcoin/pull/29841#issuecomment-2046766022",
    "issue_url": "https://api.github.com/repos/bitcoin/bitcoin/issues/29841",
    "id": 2046766022,
    "node_id": "IC_kwDOABII5855_yvG",
    "user": {
      "login": "maflcko",
      "id": 6399679,
      "node_id": "MDQ6VXNlcjYzOTk2Nzk=",
      "avatar_url": "https://avatars.githubusercontent.com/u/6399679?v=4",
      "gravatar_id": "",
      "url": "https://api.github.com/users/maflcko",
      "html_url": "https://github.com/maflcko",
      "followers_url": "https://api.github.com/users/maflcko/followers",
      "following_url": "https://api.github.com/users/maflcko/following{/other_user}",
      "gists_url": "https://api.github.com/users/maflcko/gists{/gist_id}",
      "starred_url": "https://api.github.com/users/maflcko/starred{/owner}{/repo}",
      "subscriptions_url": "https://api.github.com/users/maflcko/subscriptions",
      "organizations_url": "https://api.github.com/users/maflcko/orgs",
      "repos_url": "https://api.github.com/users/maflcko/repos",
      "events_url": "https://api.github.com/users/maflcko/events{/privacy}",
      "received_events_url": "https://api.github.com/users/maflcko/received_events",
      "type": "User",
      "site_admin": false
    },
    "created_at": "2024-04-10T07:43:47Z",
    "updated_at": "2024-04-10T07:43:47Z",
    "author_association": "MEMBER",
    "body_html": "<p dir=\"auto\">-0 on this refactor. The existing code seems easier to read and is shorter?</p>\n<p dir=\"auto\">Also, albeit not an issue here, when used as default argument the location is wrong, see <a class=\"issue-link js-issue-link\" data-error-text=\"Failed to load title\" data-id=\"1293979013\" data-permission-text=\"Title is private\" data-url=\"https://github.com/llvm/llvm-project/issues/56379\" data-hovercard-type=\"issue\" data-hovercard-url=\"/llvm/llvm-project/issues/56379/hovercard\" href=\"https://github.com/llvm/llvm-project/issues/56379\">llvm/llvm-project#56379</a>.</p>",
    "body_text": "-0 on this refactor. The existing code seems easier to read and is shorter?\nAlso, albeit not an issue here, when used as default argument the location is wrong, see llvm/llvm-project#56379.",
    "body": "-0 on this refactor. The existing code seems easier to read and is shorter?\r\n\r\nAlso, albeit not an issue here, when used as default argument the location is wrong, see https://github.com/llvm/llvm-project/issues/56379.",
    "reactions": {
      "url": "https://api.github.com/repos/bitcoin/bitcoin/issues/comments/2046766022/reactions",
      "total_count": 0,
      "+1": 0,
      "-1": 0,
      "laugh": 0,
      "hooray": 0,
      "confused": 0,
      "heart": 0,
      "rocket": 0,
      "eyes": 0
    },
    "performed_via_github_app": null
  },
  {
    "url": "https://api.github.com/repos/bitcoin/bitcoin/issues/comments/2046772255",
    "html_url": "https://github.com/bitcoin/bitcoin/pull/29841#issuecomment-2046772255",
    "issue_url": "https://api.github.com/repos/bitcoin/bitcoin/issues/29841",
    "id": 2046772255,
    "node_id": "IC_kwDOABII5855_0Qf",
    "user": {
      "login": "fanquake",
      "id": 863730,
      "node_id": "MDQ6VXNlcjg2MzczMA==",
      "avatar_url": "https://avatars.githubusercontent.com/u/863730?v=4",
      "gravatar_id": "",
      "url": "https://api.github.com/users/fanquake",
      "html_url": "https://github.com/fanquake",
      "followers_url": "https://api.github.com/users/fanquake/followers",
      "following_url": "https://api.github.com/users/fanquake/following{/other_user}",
      "gists_url": "https://api.github.com/users/fanquake/gists{/gist_id}",
      "starred_url": "https://api.github.com/users/fanquake/starred{/owner}{/repo}",
      "subscriptions_url": "https://api.github.com/users/fanquake/subscriptions",
      "organizations_url": "https://api.github.com/users/fanquake/orgs",
      "repos_url": "https://api.github.com/users/fanquake/repos",
      "events_url": "https://api.github.com/users/fanquake/events{/privacy}",
      "received_events_url": "https://api.github.com/users/fanquake/received_events",
      "type": "User",
      "site_admin": false
    },
    "created_at": "2024-04-10T07:45:57Z",
    "updated_at": "2024-04-10T07:45:57Z",
    "author_association": "MEMBER",
    "body_html": "<blockquote>\n<p dir=\"auto\">The existing code seems easier to read and is shorter?</p>\n</blockquote>\n<p dir=\"auto\">Yea, I assumed this might be one pushback. I guess the project can decide if this is actually something we want to use in general. Or, if the tradeoff in verbosity is only worth it when used more globally.</p>",
    "body_text": "The existing code seems easier to read and is shorter?\n\nYea, I assumed this might be one pushback. I guess the project can decide if this is actually something we want to use in general. Or, if the tradeoff in verbosity is only worth it when used more globally.",
    "body": "> The existing code seems easier to read and is shorter?\r\n\r\nYea, I assumed this might be one pushback. I guess the project can decide if this is actually something we want to use in general. Or, if the tradeoff in verbosity is only worth it when used more globally.",
    "reactions": {
      "url": "https://api.github.com/repos/bitcoin/bitcoin/issues/comments/2046772255/reactions",
      "total_count": 0,
      "+1": 0,
      "-1": 0,
      "laugh": 0,
      "hooray": 0,
      "confused": 0,
      "heart": 0,
      "rocket": 0,
      "eyes": 0
    },
    "performed_via_github_app": null
  },
  {
    "url": "https://api.github.com/repos/bitcoin/bitcoin/issues/comments/2046775039",
    "html_url": "https://github.com/bitcoin/bitcoin/pull/29841#issuecomment-2046775039",
    "issue_url": "https://api.github.com/repos/bitcoin/bitcoin/issues/29841",
    "id": 2046775039,
    "node_id": "IC_kwDOABII5855_07_",
    "user": {
      "login": "fanquake",
      "id": 863730,
      "node_id": "MDQ6VXNlcjg2MzczMA==",
      "avatar_url": "https://avatars.githubusercontent.com/u/863730?v=4",
      "gravatar_id": "",
      "url": "https://api.github.com/users/fanquake",
      "html_url": "https://github.com/fanquake",
      "followers_url": "https://api.github.com/users/fanquake/followers",
      "following_url": "https://api.github.com/users/fanquake/following{/other_user}",
      "gists_url": "https://api.github.com/users/fanquake/gists{/gist_id}",
      "starred_url": "https://api.github.com/users/fanquake/starred{/owner}{/repo}",
      "subscriptions_url": "https://api.github.com/users/fanquake/subscriptions",
      "organizations_url": "https://api.github.com/users/fanquake/orgs",
      "repos_url": "https://api.github.com/users/fanquake/repos",
      "events_url": "https://api.github.com/users/fanquake/events{/privacy}",
      "received_events_url": "https://api.github.com/users/fanquake/received_events",
      "type": "User",
      "site_admin": false
    },
    "created_at": "2024-04-10T07:47:01Z",
    "updated_at": "2024-04-10T07:47:01Z",
    "author_association": "MEMBER",
    "body_html": "<p dir=\"auto\">Actually, will just come back to this after Clang 16.</p>",
    "body_text": "Actually, will just come back to this after Clang 16.",
    "body": "Actually, will just come back to this after Clang 16.",
    "reactions": {
      "url": "https://api.github.com/repos/bitcoin/bitcoin/issues/comments/2046775039/reactions",
      "total_count": 0,
      "+1": 0,
      "-1": 0,
      "laugh": 0,
      "hooray": 0,
      "confused": 0,
      "heart": 0,
      "rocket": 0,
      "eyes": 0
    },
    "performed_via_github_app": null
  },
  {
    "url": "https://api.github.com/repos/bitcoin/bitcoin/issues/comments/2046784120",
    "html_url": "https://github.com/bitcoin/bitcoin/pull/29841#issuecomment-2046784120",
    "issue_url": "https://api.github.com/repos/bitcoin/bitcoin/issues/29841",
    "id": 2046784120,
    "node_id": "IC_kwDOABII5855_3J4",
    "user": {
      "login": "maflcko",
      "id": 6399679,
      "node_id": "MDQ6VXNlcjYzOTk2Nzk=",
      "avatar_url": "https://avatars.githubusercontent.com/u/6399679?v=4",
      "gravatar_id": "",
      "url": "https://api.github.com/users/maflcko",
      "html_url": "https://github.com/maflcko",
      "followers_url": "https://api.github.com/users/maflcko/followers",
      "following_url": "https://api.github.com/users/maflcko/following{/other_user}",
      "gists_url": "https://api.github.com/users/maflcko/gists{/gist_id}",
      "starred_url": "https://api.github.com/users/maflcko/starred{/owner}{/repo}",
      "subscriptions_url": "https://api.github.com/users/maflcko/subscriptions",
      "organizations_url": "https://api.github.com/users/maflcko/orgs",
      "repos_url": "https://api.github.com/users/maflcko/repos",
      "events_url": "https://api.github.com/users/maflcko/events{/privacy}",
      "received_events_url": "https://api.github.com/users/maflcko/received_events",
      "type": "User",
      "site_admin": false
    },
    "created_at": "2024-04-10T07:50:02Z",
    "updated_at": "2024-04-10T07:50:02Z",
    "author_association": "MEMBER",
    "body_html": "<p dir=\"auto\">The only reasonable places to use this would be where it is used as a default argument, no? So that'd be:</p>\n<ul dir=\"auto\">\n<li><a class=\"issue-link js-issue-link\" data-error-text=\"Failed to load title\" data-id=\"2026366709\" data-permission-text=\"Title is private\" data-url=\"https://github.com/bitcoin/bitcoin/issues/28999\" data-hovercard-type=\"pull_request\" data-hovercard-url=\"/bitcoin/bitcoin/pull/28999/hovercard?comment_id=1850520824&amp;comment_type=issue_comment\" href=\"https://github.com/bitcoin/bitcoin/pull/28999#issuecomment-1850520824\">#28999 (comment)</a></li>\n<li><a class=\"issue-link js-issue-link\" data-error-text=\"Failed to load title\" data-id=\"1860538885\" data-permission-text=\"Title is private\" data-url=\"https://github.com/bitcoin/bitcoin/issues/28318\" data-hovercard-type=\"pull_request\" data-hovercard-url=\"/bitcoin/bitcoin/pull/28318/hovercard?comment_id=1445230410&amp;comment_type=review_comment\" href=\"https://github.com/bitcoin/bitcoin/pull/28318#discussion_r1445230410\">#28318 (comment)</a></li>\n</ul>\n<p dir=\"auto\">Ref <a class=\"issue-link js-issue-link\" data-error-text=\"Failed to load title\" data-id=\"2041333478\" data-permission-text=\"Title is private\" data-url=\"https://github.com/bitcoin/bitcoin/issues/29077\" data-hovercard-type=\"pull_request\" data-hovercard-url=\"/bitcoin/bitcoin/pull/29077/hovercard\" href=\"https://github.com/bitcoin/bitcoin/pull/29077\">#29077</a> for the fix.</p>",
    "body_text": "The only reasonable places to use this would be where it is used as a default argument, no? So that'd be:\n\n#28999 (comment)\n#28318 (comment)\n\nRef #29077 for the fix.",
    "body": "The only reasonable places to use this would be where it is used as a default argument, no? So that'd be:\r\n\r\n* https://github.com/bitcoin/bitcoin/pull/28999#issuecomment-1850520824\r\n* https://github.com/bitcoin/bitcoin/pull/28318#discussion_r1445230410\r\n\r\nRef #29077 for the fix.",
    "reactions": {
      "url": "https://api.github.com/repos/bitcoin/bitcoin/issues/comments/2046784120/reactions",
      "total_count": 0,
      "+1": 0,
      "-1": 0,
      "laugh": 0,
      "hooray": 0,
      "confused": 0,
      "heart": 0,
      "rocket": 0,
      "eyes": 0
    },
    "performed_via_github_app": null
  }
]
