{
  "url": "https://api.github.com/repos/bitcoin/bitcoin/issues/22331",
  "repository_url": "https://api.github.com/repos/bitcoin/bitcoin",
  "labels_url": "https://api.github.com/repos/bitcoin/bitcoin/issues/22331/labels{/name}",
  "comments_url": "https://api.github.com/repos/bitcoin/bitcoin/issues/22331/comments",
  "events_url": "https://api.github.com/repos/bitcoin/bitcoin/issues/22331/events",
  "html_url": "https://github.com/bitcoin/bitcoin/pull/22331",
  "id": 928459089,
  "node_id": "MDExOlB1bGxSZXF1ZXN0Njc2NDYwMTc4",
  "number": 22331,
  "title": "crypto: Fix K1/K2 use in ChaCha20-Poly1305 AEAD",
  "user": {
    "login": "dhruv",
    "id": 856960,
    "node_id": "MDQ6VXNlcjg1Njk2MA==",
    "avatar_url": "https://avatars.githubusercontent.com/u/856960?v=4",
    "gravatar_id": "",
    "url": "https://api.github.com/users/dhruv",
    "html_url": "https://github.com/dhruv",
    "followers_url": "https://api.github.com/users/dhruv/followers",
    "following_url": "https://api.github.com/users/dhruv/following{/other_user}",
    "gists_url": "https://api.github.com/users/dhruv/gists{/gist_id}",
    "starred_url": "https://api.github.com/users/dhruv/starred{/owner}{/repo}",
    "subscriptions_url": "https://api.github.com/users/dhruv/subscriptions",
    "organizations_url": "https://api.github.com/users/dhruv/orgs",
    "repos_url": "https://api.github.com/users/dhruv/repos",
    "events_url": "https://api.github.com/users/dhruv/events{/privacy}",
    "received_events_url": "https://api.github.com/users/dhruv/received_events",
    "type": "User",
    "site_admin": false
  },
  "labels": [
    {
      "id": 241832923,
      "node_id": "MDU6TGFiZWwyNDE4MzI5MjM=",
      "url": "https://api.github.com/repos/bitcoin/bitcoin/labels/Utils/log/libs",
      "name": "Utils/log/libs",
      "color": "5319e7",
      "default": false,
      "description": ""
    }
  ],
  "state": "closed",
  "locked": true,
  "assignee": null,
  "assignees": [

  ],
  "milestone": null,
  "comments": 4,
  "created_at": "2021-06-23T16:52:25Z",
  "updated_at": "2022-08-19T08:15:53Z",
  "closed_at": "2021-08-19T01:16:44Z",
  "author_association": "CONTRIBUTOR",
  "active_lock_reason": "resolved",
  "draft": false,
  "pull_request": {
    "url": "https://api.github.com/repos/bitcoin/bitcoin/pulls/22331",
    "html_url": "https://github.com/bitcoin/bitcoin/pull/22331",
    "diff_url": "https://github.com/bitcoin/bitcoin/pull/22331.diff",
    "patch_url": "https://github.com/bitcoin/bitcoin/pull/22331.patch",
    "merged_at": "2021-08-19T01:16:44Z"
  },
  "body_html": "<p dir=\"auto\">BIP324 mentions K1 is used for the associated data and K2 is used for the payload. The code does the opposite. This is not a security problem but will be a problem across implementations based on the HKDF key derivations.</p>\n<p dir=\"auto\">BIP324 author Jonas Schnelli thinks a <a href=\"https://github.com/bitcoin/bitcoin/pull/15649#discussion_r440780669\" data-hovercard-type=\"pull_request\" data-hovercard-url=\"/bitcoin/bitcoin/pull/15649/hovercard\">code update will be better</a> than a BIP update.</p>\n<p dir=\"auto\">If this PR is merged:</p>\n<ul class=\"contains-task-list\">\n<li class=\"task-list-item\"><input type=\"checkbox\" id=\"\" disabled=\"\" class=\"task-list-item-checkbox\"> We need to update the test vector 3 in BIP324</li>\n</ul>",
  "body_text": "BIP324 mentions K1 is used for the associated data and K2 is used for the payload. The code does the opposite. This is not a security problem but will be a problem across implementations based on the HKDF key derivations.\nBIP324 author Jonas Schnelli thinks a code update will be better than a BIP update.\nIf this PR is merged:\n\n We need to update the test vector 3 in BIP324",
  "body": "BIP324 mentions K1 is used for the associated data and K2 is used for the payload. The code does the opposite. This is not a security problem but will be a problem across implementations based on the HKDF key derivations.\r\n\r\nBIP324 author Jonas Schnelli thinks a [code update will be better](https://github.com/bitcoin/bitcoin/pull/15649#discussion_r440780669) than a BIP update.\r\n\r\nIf this PR is merged:\r\n\r\n- [ ] We need to update the test vector 3 in BIP324",
  "closed_by": {
    "login": "fanquake",
    "id": 863730,
    "node_id": "MDQ6VXNlcjg2MzczMA==",
    "avatar_url": "https://avatars.githubusercontent.com/u/863730?v=4",
    "gravatar_id": "",
    "url": "https://api.github.com/users/fanquake",
    "html_url": "https://github.com/fanquake",
    "followers_url": "https://api.github.com/users/fanquake/followers",
    "following_url": "https://api.github.com/users/fanquake/following{/other_user}",
    "gists_url": "https://api.github.com/users/fanquake/gists{/gist_id}",
    "starred_url": "https://api.github.com/users/fanquake/starred{/owner}{/repo}",
    "subscriptions_url": "https://api.github.com/users/fanquake/subscriptions",
    "organizations_url": "https://api.github.com/users/fanquake/orgs",
    "repos_url": "https://api.github.com/users/fanquake/repos",
    "events_url": "https://api.github.com/users/fanquake/events{/privacy}",
    "received_events_url": "https://api.github.com/users/fanquake/received_events",
    "type": "User",
    "site_admin": false
  },
  "reactions": {
    "url": "https://api.github.com/repos/bitcoin/bitcoin/issues/22331/reactions",
    "total_count": 0,
    "+1": 0,
    "-1": 0,
    "laugh": 0,
    "hooray": 0,
    "confused": 0,
    "heart": 0,
    "rocket": 0,
    "eyes": 0
  },
  "timeline_url": "https://api.github.com/repos/bitcoin/bitcoin/issues/22331/timeline",
  "performed_via_github_app": null,
  "state_reason": null
}
