[
  {
    "url": "https://api.github.com/repos/bitcoin/bitcoin/issues/comments/107146069",
    "html_url": "https://github.com/bitcoin/bitcoin/pull/6202#issuecomment-107146069",
    "issue_url": "https://api.github.com/repos/bitcoin/bitcoin/issues/6202",
    "id": 107146069,
    "node_id": "MDEyOklzc3VlQ29tbWVudDEwNzE0NjA2OQ==",
    "user": {
      "login": "paveljanik",
      "id": 6848764,
      "node_id": "MDQ6VXNlcjY4NDg3NjQ=",
      "avatar_url": "https://avatars.githubusercontent.com/u/6848764?v=4",
      "gravatar_id": "",
      "url": "https://api.github.com/users/paveljanik",
      "html_url": "https://github.com/paveljanik",
      "followers_url": "https://api.github.com/users/paveljanik/followers",
      "following_url": "https://api.github.com/users/paveljanik/following{/other_user}",
      "gists_url": "https://api.github.com/users/paveljanik/gists{/gist_id}",
      "starred_url": "https://api.github.com/users/paveljanik/starred{/owner}{/repo}",
      "subscriptions_url": "https://api.github.com/users/paveljanik/subscriptions",
      "organizations_url": "https://api.github.com/users/paveljanik/orgs",
      "repos_url": "https://api.github.com/users/paveljanik/repos",
      "events_url": "https://api.github.com/users/paveljanik/events{/privacy}",
      "received_events_url": "https://api.github.com/users/paveljanik/received_events",
      "type": "User",
      "site_admin": false
    },
    "created_at": "2015-05-31T08:43:53Z",
    "updated_at": "2015-05-31T08:43:53Z",
    "author_association": "CONTRIBUTOR",
    "body_html": "<p dir=\"auto\">ACK<br>\nBTW - such changes are better PRed against trivial tree.</p>",
    "body_text": "ACK\nBTW - such changes are better PRed against trivial tree.",
    "body": "ACK\nBTW - such changes are better PRed against trivial tree.\n",
    "reactions": {
      "url": "https://api.github.com/repos/bitcoin/bitcoin/issues/comments/107146069/reactions",
      "total_count": 0,
      "+1": 0,
      "-1": 0,
      "laugh": 0,
      "hooray": 0,
      "confused": 0,
      "heart": 0,
      "rocket": 0,
      "eyes": 0
    },
    "performed_via_github_app": null
  },
  {
    "url": "https://api.github.com/repos/bitcoin/bitcoin/issues/comments/107324433",
    "html_url": "https://github.com/bitcoin/bitcoin/pull/6202#issuecomment-107324433",
    "issue_url": "https://api.github.com/repos/bitcoin/bitcoin/issues/6202",
    "id": 107324433,
    "node_id": "MDEyOklzc3VlQ29tbWVudDEwNzMyNDQzMw==",
    "user": {
      "login": "laanwj",
      "id": 126646,
      "node_id": "MDQ6VXNlcjEyNjY0Ng==",
      "avatar_url": "https://avatars.githubusercontent.com/u/126646?v=4",
      "gravatar_id": "",
      "url": "https://api.github.com/users/laanwj",
      "html_url": "https://github.com/laanwj",
      "followers_url": "https://api.github.com/users/laanwj/followers",
      "following_url": "https://api.github.com/users/laanwj/following{/other_user}",
      "gists_url": "https://api.github.com/users/laanwj/gists{/gist_id}",
      "starred_url": "https://api.github.com/users/laanwj/starred{/owner}{/repo}",
      "subscriptions_url": "https://api.github.com/users/laanwj/subscriptions",
      "organizations_url": "https://api.github.com/users/laanwj/orgs",
      "repos_url": "https://api.github.com/users/laanwj/repos",
      "events_url": "https://api.github.com/users/laanwj/events{/privacy}",
      "received_events_url": "https://api.github.com/users/laanwj/received_events",
      "type": "User",
      "site_admin": false
    },
    "created_at": "2015-06-01T06:45:19Z",
    "updated_at": "2015-06-01T06:45:19Z",
    "author_association": "MEMBER",
    "body_html": "<p dir=\"auto\">ACK for <a class=\"user-mention notranslate\" data-hovercard-type=\"user\" data-hovercard-url=\"/users/theuni/hovercard\" data-octo-click=\"hovercard-link-click\" data-octo-dimensions=\"link_type:self\" href=\"https://github.com/theuni\">@theuni</a>'s trivial-next tree, better to file these at his github directly <a href=\"https://github.com/theuni/bitcoin\">https://github.com/theuni/bitcoin</a></p>",
    "body_text": "ACK for @theuni's trivial-next tree, better to file these at his github directly https://github.com/theuni/bitcoin",
    "body": "ACK for @theuni's trivial-next tree, better to file these at his github directly https://github.com/theuni/bitcoin\n",
    "reactions": {
      "url": "https://api.github.com/repos/bitcoin/bitcoin/issues/comments/107324433/reactions",
      "total_count": 0,
      "+1": 0,
      "-1": 0,
      "laugh": 0,
      "hooray": 0,
      "confused": 0,
      "heart": 0,
      "rocket": 0,
      "eyes": 0
    },
    "performed_via_github_app": null
  },
  {
    "url": "https://api.github.com/repos/bitcoin/bitcoin/issues/comments/108427381",
    "html_url": "https://github.com/bitcoin/bitcoin/pull/6202#issuecomment-108427381",
    "issue_url": "https://api.github.com/repos/bitcoin/bitcoin/issues/6202",
    "id": 108427381,
    "node_id": "MDEyOklzc3VlQ29tbWVudDEwODQyNzM4MQ==",
    "user": {
      "login": "sandakersmann",
      "id": 6118832,
      "node_id": "MDQ6VXNlcjYxMTg4MzI=",
      "avatar_url": "https://avatars.githubusercontent.com/u/6118832?v=4",
      "gravatar_id": "",
      "url": "https://api.github.com/users/sandakersmann",
      "html_url": "https://github.com/sandakersmann",
      "followers_url": "https://api.github.com/users/sandakersmann/followers",
      "following_url": "https://api.github.com/users/sandakersmann/following{/other_user}",
      "gists_url": "https://api.github.com/users/sandakersmann/gists{/gist_id}",
      "starred_url": "https://api.github.com/users/sandakersmann/starred{/owner}{/repo}",
      "subscriptions_url": "https://api.github.com/users/sandakersmann/subscriptions",
      "organizations_url": "https://api.github.com/users/sandakersmann/orgs",
      "repos_url": "https://api.github.com/users/sandakersmann/repos",
      "events_url": "https://api.github.com/users/sandakersmann/events{/privacy}",
      "received_events_url": "https://api.github.com/users/sandakersmann/received_events",
      "type": "User",
      "site_admin": false
    },
    "created_at": "2015-06-03T13:49:35Z",
    "updated_at": "2015-06-03T13:49:35Z",
    "author_association": "CONTRIBUTOR",
    "body_html": "<p dir=\"auto\">ACK</p>",
    "body_text": "ACK",
    "body": "ACK\n",
    "reactions": {
      "url": "https://api.github.com/repos/bitcoin/bitcoin/issues/comments/108427381/reactions",
      "total_count": 0,
      "+1": 0,
      "-1": 0,
      "laugh": 0,
      "hooray": 0,
      "confused": 0,
      "heart": 0,
      "rocket": 0,
      "eyes": 0
    },
    "performed_via_github_app": null
  },
  {
    "url": "https://api.github.com/repos/bitcoin/bitcoin/issues/comments/108447603",
    "html_url": "https://github.com/bitcoin/bitcoin/pull/6202#issuecomment-108447603",
    "issue_url": "https://api.github.com/repos/bitcoin/bitcoin/issues/6202",
    "id": 108447603,
    "node_id": "MDEyOklzc3VlQ29tbWVudDEwODQ0NzYwMw==",
    "user": {
      "login": "fanquake",
      "id": 863730,
      "node_id": "MDQ6VXNlcjg2MzczMA==",
      "avatar_url": "https://avatars.githubusercontent.com/u/863730?v=4",
      "gravatar_id": "",
      "url": "https://api.github.com/users/fanquake",
      "html_url": "https://github.com/fanquake",
      "followers_url": "https://api.github.com/users/fanquake/followers",
      "following_url": "https://api.github.com/users/fanquake/following{/other_user}",
      "gists_url": "https://api.github.com/users/fanquake/gists{/gist_id}",
      "starred_url": "https://api.github.com/users/fanquake/starred{/owner}{/repo}",
      "subscriptions_url": "https://api.github.com/users/fanquake/subscriptions",
      "organizations_url": "https://api.github.com/users/fanquake/orgs",
      "repos_url": "https://api.github.com/users/fanquake/repos",
      "events_url": "https://api.github.com/users/fanquake/events{/privacy}",
      "received_events_url": "https://api.github.com/users/fanquake/received_events",
      "type": "User",
      "site_admin": false
    },
    "created_at": "2015-06-03T14:18:49Z",
    "updated_at": "2015-06-03T14:18:49Z",
    "author_association": "MEMBER",
    "body_html": "<p dir=\"auto\">ACK</p>",
    "body_text": "ACK",
    "body": "ACK\n",
    "reactions": {
      "url": "https://api.github.com/repos/bitcoin/bitcoin/issues/comments/108447603/reactions",
      "total_count": 0,
      "+1": 0,
      "-1": 0,
      "laugh": 0,
      "hooray": 0,
      "confused": 0,
      "heart": 0,
      "rocket": 0,
      "eyes": 0
    },
    "performed_via_github_app": null
  }
]
