[
  {
    "url": "https://api.github.com/repos/bitcoin/bitcoin/issues/comments/1333547822",
    "html_url": "https://github.com/bitcoin/bitcoin/pull/26616#issuecomment-1333547822",
    "issue_url": "https://api.github.com/repos/bitcoin/bitcoin/issues/26616",
    "id": 1333547822,
    "node_id": "IC_kwDOABII585PfFMu",
    "user": {
      "login": "DrahtBot",
      "id": 39886733,
      "node_id": "MDQ6VXNlcjM5ODg2NzMz",
      "avatar_url": "https://avatars.githubusercontent.com/u/39886733?v=4",
      "gravatar_id": "",
      "url": "https://api.github.com/users/DrahtBot",
      "html_url": "https://github.com/DrahtBot",
      "followers_url": "https://api.github.com/users/DrahtBot/followers",
      "following_url": "https://api.github.com/users/DrahtBot/following{/other_user}",
      "gists_url": "https://api.github.com/users/DrahtBot/gists{/gist_id}",
      "starred_url": "https://api.github.com/users/DrahtBot/starred{/owner}{/repo}",
      "subscriptions_url": "https://api.github.com/users/DrahtBot/subscriptions",
      "organizations_url": "https://api.github.com/users/DrahtBot/orgs",
      "repos_url": "https://api.github.com/users/DrahtBot/repos",
      "events_url": "https://api.github.com/users/DrahtBot/events{/privacy}",
      "received_events_url": "https://api.github.com/users/DrahtBot/received_events",
      "type": "User",
      "site_admin": false
    },
    "created_at": "2022-12-01T10:27:47Z",
    "updated_at": "2022-12-06T11:02:23Z",
    "author_association": "CONTRIBUTOR",
    "body_html": "\n<p dir=\"auto\">The following sections might be updated with supplementary metadata relevant to reviewers and maintainers.</p>\n\n<h3 dir=\"auto\">Reviews</h3>\n<p dir=\"auto\">See <a href=\"https://github.com/bitcoin/bitcoin/blob/master/CONTRIBUTING.md#code-review\">the guideline</a> for information on the review process.</p>\n<table role=\"table\">\n<thead>\n<tr>\n<th>Type</th>\n<th>Reviewers</th>\n</tr>\n</thead>\n<tbody>\n<tr>\n<td>ACK</td>\n<td><a href=\"https://github.com/bitcoin/bitcoin/pull/26616#issuecomment-1339149166\" data-hovercard-type=\"pull_request\" data-hovercard-url=\"/bitcoin/bitcoin/pull/26616/hovercard\">josibake</a></td>\n</tr>\n</tbody>\n</table>\n<p dir=\"auto\">If your review is incorrectly listed, please react with 👎 to this comment and the bot will ignore it on the next update.</p>",
    "body_text": "The following sections might be updated with supplementary metadata relevant to reviewers and maintainers.\n\nReviews\nSee the guideline for information on the review process.\n\n\n\nType\nReviewers\n\n\n\n\nACK\njosibake\n\n\n\nIf your review is incorrectly listed, please react with 👎 to this comment and the bot will ignore it on the next update.",
    "body": "<!--e57a25ab6845829454e8d69fc972939a-->\n\nThe following sections might be updated with supplementary metadata relevant to reviewers and maintainers.\n\n<!--021abf342d371248e50ceaed478a90ca-->\n### Reviews\nSee [the guideline](https://github.com/bitcoin/bitcoin/blob/master/CONTRIBUTING.md#code-review) for information on the review process.\n| Type | Reviewers |\n| ---- | --------- |\n| ACK | [josibake](https://github.com/bitcoin/bitcoin/pull/26616#issuecomment-1339149166) |\n\nIf your review is incorrectly listed, please react with 👎 to this comment and the bot will ignore it on the next update.\n",
    "reactions": {
      "url": "https://api.github.com/repos/bitcoin/bitcoin/issues/comments/1333547822/reactions",
      "total_count": 0,
      "+1": 0,
      "-1": 0,
      "laugh": 0,
      "hooray": 0,
      "confused": 0,
      "heart": 0,
      "rocket": 0,
      "eyes": 0
    },
    "performed_via_github_app": null
  },
  {
    "url": "https://api.github.com/repos/bitcoin/bitcoin/issues/comments/1334053467",
    "html_url": "https://github.com/bitcoin/bitcoin/pull/26616#issuecomment-1334053467",
    "issue_url": "https://api.github.com/repos/bitcoin/bitcoin/issues/26616",
    "id": 1334053467,
    "node_id": "IC_kwDOABII585PhApb",
    "user": {
      "login": "maflcko",
      "id": 6399679,
      "node_id": "MDQ6VXNlcjYzOTk2Nzk=",
      "avatar_url": "https://avatars.githubusercontent.com/u/6399679?v=4",
      "gravatar_id": "",
      "url": "https://api.github.com/users/maflcko",
      "html_url": "https://github.com/maflcko",
      "followers_url": "https://api.github.com/users/maflcko/followers",
      "following_url": "https://api.github.com/users/maflcko/following{/other_user}",
      "gists_url": "https://api.github.com/users/maflcko/gists{/gist_id}",
      "starred_url": "https://api.github.com/users/maflcko/starred{/owner}{/repo}",
      "subscriptions_url": "https://api.github.com/users/maflcko/subscriptions",
      "organizations_url": "https://api.github.com/users/maflcko/orgs",
      "repos_url": "https://api.github.com/users/maflcko/repos",
      "events_url": "https://api.github.com/users/maflcko/events{/privacy}",
      "received_events_url": "https://api.github.com/users/maflcko/received_events",
      "type": "User",
      "site_admin": false
    },
    "created_at": "2022-12-01T16:46:09Z",
    "updated_at": "2022-12-01T16:46:09Z",
    "author_association": "MEMBER",
    "body_html": "<p dir=\"auto\">In theory this can be merged cleanly without the need to attach metadata: <a class=\"commit-link\" href=\"https://github.com/bitcoin/bitcoin/compare/24.x...achow101:fix-migratewallet-cleanup-segfault\"><tt>24.x...achow101:fix-migratewallet-cleanup-segfault</tt></a></p>",
    "body_text": "In theory this can be merged cleanly without the need to attach metadata: 24.x...achow101:fix-migratewallet-cleanup-segfault",
    "body": "In theory this can be merged cleanly without the need to attach metadata: https://github.com/bitcoin/bitcoin/compare/24.x...achow101:fix-migratewallet-cleanup-segfault",
    "reactions": {
      "url": "https://api.github.com/repos/bitcoin/bitcoin/issues/comments/1334053467/reactions",
      "total_count": 0,
      "+1": 0,
      "-1": 0,
      "laugh": 0,
      "hooray": 0,
      "confused": 0,
      "heart": 0,
      "rocket": 0,
      "eyes": 0
    },
    "performed_via_github_app": null
  },
  {
    "url": "https://api.github.com/repos/bitcoin/bitcoin/issues/comments/1337913986",
    "html_url": "https://github.com/bitcoin/bitcoin/pull/26616#issuecomment-1337913986",
    "issue_url": "https://api.github.com/repos/bitcoin/bitcoin/issues/26616",
    "id": 1337913986,
    "node_id": "IC_kwDOABII585PvvKC",
    "user": {
      "login": "instagibbs",
      "id": 5767891,
      "node_id": "MDQ6VXNlcjU3Njc4OTE=",
      "avatar_url": "https://avatars.githubusercontent.com/u/5767891?v=4",
      "gravatar_id": "",
      "url": "https://api.github.com/users/instagibbs",
      "html_url": "https://github.com/instagibbs",
      "followers_url": "https://api.github.com/users/instagibbs/followers",
      "following_url": "https://api.github.com/users/instagibbs/following{/other_user}",
      "gists_url": "https://api.github.com/users/instagibbs/gists{/gist_id}",
      "starred_url": "https://api.github.com/users/instagibbs/starred{/owner}{/repo}",
      "subscriptions_url": "https://api.github.com/users/instagibbs/subscriptions",
      "organizations_url": "https://api.github.com/users/instagibbs/orgs",
      "repos_url": "https://api.github.com/users/instagibbs/repos",
      "events_url": "https://api.github.com/users/instagibbs/events{/privacy}",
      "received_events_url": "https://api.github.com/users/instagibbs/received_events",
      "type": "User",
      "site_admin": false
    },
    "created_at": "2022-12-05T18:35:58Z",
    "updated_at": "2022-12-05T18:35:58Z",
    "author_association": "MEMBER",
    "body_html": "<p dir=\"auto\">LGTM <a class=\"commit-link\" data-hovercard-type=\"commit\" data-hovercard-url=\"https://github.com/bitcoin/bitcoin/commit/8b726bf556e05edf02946d4b1c3356df17fd0d57/hovercard\" href=\"https://github.com/bitcoin/bitcoin/commit/8b726bf556e05edf02946d4b1c3356df17fd0d57\"><tt>8b726bf</tt></a></p>\n<p dir=\"auto\">Includes the expected fix commits from <a class=\"issue-link js-issue-link\" data-error-text=\"Failed to load title\" data-id=\"1461939996\" data-permission-text=\"Title is private\" data-url=\"https://github.com/bitcoin/bitcoin/issues/26560\" data-hovercard-type=\"pull_request\" data-hovercard-url=\"/bitcoin/bitcoin/pull/26560/hovercard\" href=\"https://github.com/bitcoin/bitcoin/pull/26560\">#26560</a> and only minor conflicts for the relay piece.</p>",
    "body_text": "LGTM 8b726bf\nIncludes the expected fix commits from #26560 and only minor conflicts for the relay piece.",
    "body": "LGTM https://github.com/bitcoin/bitcoin/pull/26616/commits/8b726bf556e05edf02946d4b1c3356df17fd0d57\r\n\r\nIncludes the expected fix commits from https://github.com/bitcoin/bitcoin/pull/26560 and only minor conflicts for the relay piece. ",
    "reactions": {
      "url": "https://api.github.com/repos/bitcoin/bitcoin/issues/comments/1337913986/reactions",
      "total_count": 0,
      "+1": 0,
      "-1": 0,
      "laugh": 0,
      "hooray": 0,
      "confused": 0,
      "heart": 0,
      "rocket": 0,
      "eyes": 0
    },
    "performed_via_github_app": null
  },
  {
    "url": "https://api.github.com/repos/bitcoin/bitcoin/issues/comments/1338631563",
    "html_url": "https://github.com/bitcoin/bitcoin/pull/26616#issuecomment-1338631563",
    "issue_url": "https://api.github.com/repos/bitcoin/bitcoin/issues/26616",
    "id": 1338631563,
    "node_id": "IC_kwDOABII585PyeWL",
    "user": {
      "login": "luke-jr",
      "id": 1095675,
      "node_id": "MDQ6VXNlcjEwOTU2NzU=",
      "avatar_url": "https://avatars.githubusercontent.com/u/1095675?v=4",
      "gravatar_id": "",
      "url": "https://api.github.com/users/luke-jr",
      "html_url": "https://github.com/luke-jr",
      "followers_url": "https://api.github.com/users/luke-jr/followers",
      "following_url": "https://api.github.com/users/luke-jr/following{/other_user}",
      "gists_url": "https://api.github.com/users/luke-jr/gists{/gist_id}",
      "starred_url": "https://api.github.com/users/luke-jr/starred{/owner}{/repo}",
      "subscriptions_url": "https://api.github.com/users/luke-jr/subscriptions",
      "organizations_url": "https://api.github.com/users/luke-jr/orgs",
      "repos_url": "https://api.github.com/users/luke-jr/repos",
      "events_url": "https://api.github.com/users/luke-jr/events{/privacy}",
      "received_events_url": "https://api.github.com/users/luke-jr/received_events",
      "type": "User",
      "site_admin": false
    },
    "created_at": "2022-12-06T02:13:57Z",
    "updated_at": "2022-12-06T02:13:57Z",
    "author_association": "MEMBER",
    "body_html": "<p dir=\"auto\">Why 24.0.1 instead of 24.1? What was the point of changing the version scheme if we're just going to revert back to the old one?</p>",
    "body_text": "Why 24.0.1 instead of 24.1? What was the point of changing the version scheme if we're just going to revert back to the old one?",
    "body": "Why 24.0.1 instead of 24.1? What was the point of changing the version scheme if we're just going to revert back to the old one?",
    "reactions": {
      "url": "https://api.github.com/repos/bitcoin/bitcoin/issues/comments/1338631563/reactions",
      "total_count": 0,
      "+1": 0,
      "-1": 0,
      "laugh": 0,
      "hooray": 0,
      "confused": 0,
      "heart": 0,
      "rocket": 0,
      "eyes": 0
    },
    "performed_via_github_app": null
  },
  {
    "url": "https://api.github.com/repos/bitcoin/bitcoin/issues/comments/1338944386",
    "html_url": "https://github.com/bitcoin/bitcoin/pull/26616#issuecomment-1338944386",
    "issue_url": "https://api.github.com/repos/bitcoin/bitcoin/issues/26616",
    "id": 1338944386,
    "node_id": "IC_kwDOABII585PzquC",
    "user": {
      "login": "maflcko",
      "id": 6399679,
      "node_id": "MDQ6VXNlcjYzOTk2Nzk=",
      "avatar_url": "https://avatars.githubusercontent.com/u/6399679?v=4",
      "gravatar_id": "",
      "url": "https://api.github.com/users/maflcko",
      "html_url": "https://github.com/maflcko",
      "followers_url": "https://api.github.com/users/maflcko/followers",
      "following_url": "https://api.github.com/users/maflcko/following{/other_user}",
      "gists_url": "https://api.github.com/users/maflcko/gists{/gist_id}",
      "starred_url": "https://api.github.com/users/maflcko/starred{/owner}{/repo}",
      "subscriptions_url": "https://api.github.com/users/maflcko/subscriptions",
      "organizations_url": "https://api.github.com/users/maflcko/orgs",
      "repos_url": "https://api.github.com/users/maflcko/repos",
      "events_url": "https://api.github.com/users/maflcko/events{/privacy}",
      "received_events_url": "https://api.github.com/users/maflcko/received_events",
      "type": "User",
      "site_admin": false
    },
    "created_at": "2022-12-06T08:16:46Z",
    "updated_at": "2022-12-06T08:16:46Z",
    "author_association": "MEMBER",
    "body_html": "<blockquote>\n<p dir=\"auto\">Why 24.0.1 instead of 24.1?</p>\n</blockquote>\n<p dir=\"auto\">It is based on the assumption that 24.0 will be nuked from the bin folder, because of the wallet bug. Or is the wallet bug less severe than thought?</p>",
    "body_text": "Why 24.0.1 instead of 24.1?\n\nIt is based on the assumption that 24.0 will be nuked from the bin folder, because of the wallet bug. Or is the wallet bug less severe than thought?",
    "body": "> Why 24.0.1 instead of 24.1? \r\n\r\nIt is based on the assumption that 24.0 will be nuked from the bin folder, because of the wallet bug. Or is the wallet bug less severe than thought?",
    "reactions": {
      "url": "https://api.github.com/repos/bitcoin/bitcoin/issues/comments/1338944386/reactions",
      "total_count": 0,
      "+1": 0,
      "-1": 0,
      "laugh": 0,
      "hooray": 0,
      "confused": 0,
      "heart": 0,
      "rocket": 0,
      "eyes": 0
    },
    "performed_via_github_app": null
  },
  {
    "url": "https://api.github.com/repos/bitcoin/bitcoin/issues/comments/1339017550",
    "html_url": "https://github.com/bitcoin/bitcoin/pull/26616#issuecomment-1339017550",
    "issue_url": "https://api.github.com/repos/bitcoin/bitcoin/issues/26616",
    "id": 1339017550,
    "node_id": "IC_kwDOABII585Pz8lO",
    "user": {
      "login": "fanquake",
      "id": 863730,
      "node_id": "MDQ6VXNlcjg2MzczMA==",
      "avatar_url": "https://avatars.githubusercontent.com/u/863730?v=4",
      "gravatar_id": "",
      "url": "https://api.github.com/users/fanquake",
      "html_url": "https://github.com/fanquake",
      "followers_url": "https://api.github.com/users/fanquake/followers",
      "following_url": "https://api.github.com/users/fanquake/following{/other_user}",
      "gists_url": "https://api.github.com/users/fanquake/gists{/gist_id}",
      "starred_url": "https://api.github.com/users/fanquake/starred{/owner}{/repo}",
      "subscriptions_url": "https://api.github.com/users/fanquake/subscriptions",
      "organizations_url": "https://api.github.com/users/fanquake/orgs",
      "repos_url": "https://api.github.com/users/fanquake/repos",
      "events_url": "https://api.github.com/users/fanquake/events{/privacy}",
      "received_events_url": "https://api.github.com/users/fanquake/received_events",
      "type": "User",
      "site_admin": false
    },
    "created_at": "2022-12-06T09:21:04Z",
    "updated_at": "2022-12-06T09:21:04Z",
    "author_association": "MEMBER",
    "body_html": "<blockquote>\n<p dir=\"auto\">What was the point of changing the version scheme if we're just going to revert back to the old one?</p>\n</blockquote>\n<p dir=\"auto\">We aren't.</p>\n<blockquote>\n<p dir=\"auto\">Why 24.0.1 instead of 24.1?</p>\n</blockquote>\n<p dir=\"auto\">While 24.0 has been tagged, it hasn't been more widely released (no website post, no mailing list annoucements, a few tweets doesn't count). Rather than tagging a 24.1, which would give the false impression of a more stable point release, containing a number of bug fixes after months of 24.0 running in production, it's more appropritate to incorporate these additional fixes into 24.x, essentially consider 24.0 DOA, and tag a 24.0.1.</p>\n<blockquote>\n<p dir=\"auto\">Or is the wallet bug less severe than thought?</p>\n</blockquote>\n<p dir=\"auto\">Everything I've seen, and been told, is that the wallet issue is significant enough to warrant a 24.0.1.</p>",
    "body_text": "What was the point of changing the version scheme if we're just going to revert back to the old one?\n\nWe aren't.\n\nWhy 24.0.1 instead of 24.1?\n\nWhile 24.0 has been tagged, it hasn't been more widely released (no website post, no mailing list annoucements, a few tweets doesn't count). Rather than tagging a 24.1, which would give the false impression of a more stable point release, containing a number of bug fixes after months of 24.0 running in production, it's more appropritate to incorporate these additional fixes into 24.x, essentially consider 24.0 DOA, and tag a 24.0.1.\n\nOr is the wallet bug less severe than thought?\n\nEverything I've seen, and been told, is that the wallet issue is significant enough to warrant a 24.0.1.",
    "body": "> What was the point of changing the version scheme if we're just going to revert back to the old one?\r\n\r\nWe aren't.\r\n\r\n> Why 24.0.1 instead of 24.1?\r\n\r\nWhile 24.0 has been tagged, it hasn't been more widely released (no website post, no mailing list annoucements, a few tweets doesn't count). Rather than tagging a 24.1, which would give the false impression of a more stable point release, containing a number of bug fixes after months of 24.0 running in production, it's more appropritate to incorporate these additional fixes into 24.x, essentially consider 24.0 DOA, and tag a 24.0.1.\r\n\r\n> Or is the wallet bug less severe than thought?\r\n\r\nEverything I've seen, and been told, is that the wallet issue is significant enough to warrant a 24.0.1.",
    "reactions": {
      "url": "https://api.github.com/repos/bitcoin/bitcoin/issues/comments/1339017550/reactions",
      "total_count": 0,
      "+1": 0,
      "-1": 0,
      "laugh": 0,
      "hooray": 0,
      "confused": 0,
      "heart": 0,
      "rocket": 0,
      "eyes": 0
    },
    "performed_via_github_app": null
  },
  {
    "url": "https://api.github.com/repos/bitcoin/bitcoin/issues/comments/1339017833",
    "html_url": "https://github.com/bitcoin/bitcoin/pull/26616#issuecomment-1339017833",
    "issue_url": "https://api.github.com/repos/bitcoin/bitcoin/issues/26616",
    "id": 1339017833,
    "node_id": "IC_kwDOABII585Pz8pp",
    "user": {
      "login": "luke-jr",
      "id": 1095675,
      "node_id": "MDQ6VXNlcjEwOTU2NzU=",
      "avatar_url": "https://avatars.githubusercontent.com/u/1095675?v=4",
      "gravatar_id": "",
      "url": "https://api.github.com/users/luke-jr",
      "html_url": "https://github.com/luke-jr",
      "followers_url": "https://api.github.com/users/luke-jr/followers",
      "following_url": "https://api.github.com/users/luke-jr/following{/other_user}",
      "gists_url": "https://api.github.com/users/luke-jr/gists{/gist_id}",
      "starred_url": "https://api.github.com/users/luke-jr/starred{/owner}{/repo}",
      "subscriptions_url": "https://api.github.com/users/luke-jr/subscriptions",
      "organizations_url": "https://api.github.com/users/luke-jr/orgs",
      "repos_url": "https://api.github.com/users/luke-jr/repos",
      "events_url": "https://api.github.com/users/luke-jr/events{/privacy}",
      "received_events_url": "https://api.github.com/users/luke-jr/received_events",
      "type": "User",
      "site_admin": false
    },
    "created_at": "2022-12-06T09:21:19Z",
    "updated_at": "2022-12-06T09:21:19Z",
    "author_association": "MEMBER",
    "body_html": "<p dir=\"auto\">I don't see why that would involve going back to X.Y.Z versions. The way things stand, this should be v24.1, while v24.0 gets deleted (or not; irrelevant to the next version number).</p>",
    "body_text": "I don't see why that would involve going back to X.Y.Z versions. The way things stand, this should be v24.1, while v24.0 gets deleted (or not; irrelevant to the next version number).",
    "body": "I don't see why that would involve going back to X.Y.Z versions. The way things stand, this should be v24.1, while v24.0 gets deleted (or not; irrelevant to the next version number).",
    "reactions": {
      "url": "https://api.github.com/repos/bitcoin/bitcoin/issues/comments/1339017833/reactions",
      "total_count": 0,
      "+1": 0,
      "-1": 0,
      "laugh": 0,
      "hooray": 0,
      "confused": 0,
      "heart": 0,
      "rocket": 0,
      "eyes": 0
    },
    "performed_via_github_app": null
  },
  {
    "url": "https://api.github.com/repos/bitcoin/bitcoin/issues/comments/1339022113",
    "html_url": "https://github.com/bitcoin/bitcoin/pull/26616#issuecomment-1339022113",
    "issue_url": "https://api.github.com/repos/bitcoin/bitcoin/issues/26616",
    "id": 1339022113,
    "node_id": "IC_kwDOABII585Pz9sh",
    "user": {
      "login": "josibake",
      "id": 7444140,
      "node_id": "MDQ6VXNlcjc0NDQxNDA=",
      "avatar_url": "https://avatars.githubusercontent.com/u/7444140?v=4",
      "gravatar_id": "",
      "url": "https://api.github.com/users/josibake",
      "html_url": "https://github.com/josibake",
      "followers_url": "https://api.github.com/users/josibake/followers",
      "following_url": "https://api.github.com/users/josibake/following{/other_user}",
      "gists_url": "https://api.github.com/users/josibake/gists{/gist_id}",
      "starred_url": "https://api.github.com/users/josibake/starred{/owner}{/repo}",
      "subscriptions_url": "https://api.github.com/users/josibake/subscriptions",
      "organizations_url": "https://api.github.com/users/josibake/orgs",
      "repos_url": "https://api.github.com/users/josibake/repos",
      "events_url": "https://api.github.com/users/josibake/events{/privacy}",
      "received_events_url": "https://api.github.com/users/josibake/received_events",
      "type": "User",
      "site_admin": false
    },
    "created_at": "2022-12-06T09:24:52Z",
    "updated_at": "2022-12-06T09:24:52Z",
    "author_association": "MEMBER",
    "body_html": "<blockquote>\n<blockquote>\n<p dir=\"auto\">Why 24.0.1 instead of 24.1?</p>\n</blockquote>\n<p dir=\"auto\">It is based on the assumption that 24.0 will be nuked from the bin folder, because of the wallet bug. Or is the wallet bug less severe than thought?</p>\n</blockquote>\n<p dir=\"auto\">it's pretty severe in that it affects users doing manual input selection, either in the GUI via coin control or via the RPC, which I think warrants nuking v24.0.</p>\n<blockquote>\n<p dir=\"auto\">I don't see why that would involve going back to X.Y.Z versions. The way things stand, this should be v24.1, while v24.0 gets deleted (or not; irrelevant to the next version number).</p>\n</blockquote>\n<p dir=\"auto\">I'm not super familiar with semantic versioning, but v24.0.1 feels more appropriate as this isn't really a major update and more just replacing v24.0 with a bugfix</p>",
    "body_text": "Why 24.0.1 instead of 24.1?\n\nIt is based on the assumption that 24.0 will be nuked from the bin folder, because of the wallet bug. Or is the wallet bug less severe than thought?\n\nit's pretty severe in that it affects users doing manual input selection, either in the GUI via coin control or via the RPC, which I think warrants nuking v24.0.\n\nI don't see why that would involve going back to X.Y.Z versions. The way things stand, this should be v24.1, while v24.0 gets deleted (or not; irrelevant to the next version number).\n\nI'm not super familiar with semantic versioning, but v24.0.1 feels more appropriate as this isn't really a major update and more just replacing v24.0 with a bugfix",
    "body": "> > Why 24.0.1 instead of 24.1?\r\n> \r\n> It is based on the assumption that 24.0 will be nuked from the bin folder, because of the wallet bug. Or is the wallet bug less severe than thought?\r\n\r\nit's pretty severe in that it affects users doing manual input selection, either in the GUI via coin control or via the RPC, which I think warrants nuking v24.0. \r\n\r\n> I don't see why that would involve going back to X.Y.Z versions. The way things stand, this should be v24.1, while v24.0 gets deleted (or not; irrelevant to the next version number).\r\n\r\nI'm not super familiar with semantic versioning, but v24.0.1 feels more appropriate as this isn't really a major update and more just replacing v24.0 with a bugfix",
    "reactions": {
      "url": "https://api.github.com/repos/bitcoin/bitcoin/issues/comments/1339022113/reactions",
      "total_count": 2,
      "+1": 2,
      "-1": 0,
      "laugh": 0,
      "hooray": 0,
      "confused": 0,
      "heart": 0,
      "rocket": 0,
      "eyes": 0
    },
    "performed_via_github_app": null
  },
  {
    "url": "https://api.github.com/repos/bitcoin/bitcoin/issues/comments/1339039425",
    "html_url": "https://github.com/bitcoin/bitcoin/pull/26616#issuecomment-1339039425",
    "issue_url": "https://api.github.com/repos/bitcoin/bitcoin/issues/26616",
    "id": 1339039425,
    "node_id": "IC_kwDOABII585P0B7B",
    "user": {
      "login": "luke-jr",
      "id": 1095675,
      "node_id": "MDQ6VXNlcjEwOTU2NzU=",
      "avatar_url": "https://avatars.githubusercontent.com/u/1095675?v=4",
      "gravatar_id": "",
      "url": "https://api.github.com/users/luke-jr",
      "html_url": "https://github.com/luke-jr",
      "followers_url": "https://api.github.com/users/luke-jr/followers",
      "following_url": "https://api.github.com/users/luke-jr/following{/other_user}",
      "gists_url": "https://api.github.com/users/luke-jr/gists{/gist_id}",
      "starred_url": "https://api.github.com/users/luke-jr/starred{/owner}{/repo}",
      "subscriptions_url": "https://api.github.com/users/luke-jr/subscriptions",
      "organizations_url": "https://api.github.com/users/luke-jr/orgs",
      "repos_url": "https://api.github.com/users/luke-jr/repos",
      "events_url": "https://api.github.com/users/luke-jr/events{/privacy}",
      "received_events_url": "https://api.github.com/users/luke-jr/received_events",
      "type": "User",
      "site_admin": false
    },
    "created_at": "2022-12-06T09:39:19Z",
    "updated_at": "2022-12-06T09:39:19Z",
    "author_association": "MEMBER",
    "body_html": "<blockquote>\n<p dir=\"auto\">v24.0.1 feels more appropriate as this isn't really a major update and more just replacing v24.0 with a bugfix</p>\n</blockquote>\n<p dir=\"auto\">With our X.Y, the Y is for minor bugfix-only release, not major ones...</p>",
    "body_text": "v24.0.1 feels more appropriate as this isn't really a major update and more just replacing v24.0 with a bugfix\n\nWith our X.Y, the Y is for minor bugfix-only release, not major ones...",
    "body": ">v24.0.1 feels more appropriate as this isn't really a major update and more just replacing v24.0 with a bugfix\r\n\r\nWith our X.Y, the Y is for minor bugfix-only release, not major ones...",
    "reactions": {
      "url": "https://api.github.com/repos/bitcoin/bitcoin/issues/comments/1339039425/reactions",
      "total_count": 1,
      "+1": 1,
      "-1": 0,
      "laugh": 0,
      "hooray": 0,
      "confused": 0,
      "heart": 0,
      "rocket": 0,
      "eyes": 0
    },
    "performed_via_github_app": null
  },
  {
    "url": "https://api.github.com/repos/bitcoin/bitcoin/issues/comments/1339049033",
    "html_url": "https://github.com/bitcoin/bitcoin/pull/26616#issuecomment-1339049033",
    "issue_url": "https://api.github.com/repos/bitcoin/bitcoin/issues/26616",
    "id": 1339049033,
    "node_id": "IC_kwDOABII585P0ERJ",
    "user": {
      "login": "fanquake",
      "id": 863730,
      "node_id": "MDQ6VXNlcjg2MzczMA==",
      "avatar_url": "https://avatars.githubusercontent.com/u/863730?v=4",
      "gravatar_id": "",
      "url": "https://api.github.com/users/fanquake",
      "html_url": "https://github.com/fanquake",
      "followers_url": "https://api.github.com/users/fanquake/followers",
      "following_url": "https://api.github.com/users/fanquake/following{/other_user}",
      "gists_url": "https://api.github.com/users/fanquake/gists{/gist_id}",
      "starred_url": "https://api.github.com/users/fanquake/starred{/owner}{/repo}",
      "subscriptions_url": "https://api.github.com/users/fanquake/subscriptions",
      "organizations_url": "https://api.github.com/users/fanquake/orgs",
      "repos_url": "https://api.github.com/users/fanquake/repos",
      "events_url": "https://api.github.com/users/fanquake/events{/privacy}",
      "received_events_url": "https://api.github.com/users/fanquake/received_events",
      "type": "User",
      "site_admin": false
    },
    "created_at": "2022-12-06T09:47:47Z",
    "updated_at": "2022-12-06T09:47:47Z",
    "author_association": "MEMBER",
    "body_html": "<blockquote>\n<p dir=\"auto\">With our X.Y, the Y is for minor bugfix-only release, not major ones...</p>\n</blockquote>\n<p dir=\"auto\">That's why Y is going to remain 0, and we're releasing a 24.0.1.</p>\n<p dir=\"auto\">We've done this this before, with 0.19.0 and 0.19.0.1, under the same circumstances. A last minute issue, where a major release was tagged, but never actually widely released, and we shortly after released a X.0.1.</p>",
    "body_text": "With our X.Y, the Y is for minor bugfix-only release, not major ones...\n\nThat's why Y is going to remain 0, and we're releasing a 24.0.1.\nWe've done this this before, with 0.19.0 and 0.19.0.1, under the same circumstances. A last minute issue, where a major release was tagged, but never actually widely released, and we shortly after released a X.0.1.",
    "body": "> With our X.Y, the Y is for minor bugfix-only release, not major ones...\r\n\r\nThat's why Y is going to remain 0, and we're releasing a 24.0.1.\r\n\r\nWe've done this this before, with 0.19.0 and 0.19.0.1, under the same circumstances. A last minute issue, where a major release was tagged, but never actually widely released, and we shortly after released a X.0.1.",
    "reactions": {
      "url": "https://api.github.com/repos/bitcoin/bitcoin/issues/comments/1339049033/reactions",
      "total_count": 3,
      "+1": 1,
      "-1": 0,
      "laugh": 0,
      "hooray": 0,
      "confused": 0,
      "heart": 1,
      "rocket": 0,
      "eyes": 1
    },
    "performed_via_github_app": null
  },
  {
    "url": "https://api.github.com/repos/bitcoin/bitcoin/issues/comments/1339149166",
    "html_url": "https://github.com/bitcoin/bitcoin/pull/26616#issuecomment-1339149166",
    "issue_url": "https://api.github.com/repos/bitcoin/bitcoin/issues/26616",
    "id": 1339149166,
    "node_id": "IC_kwDOABII585P0ctu",
    "user": {
      "login": "josibake",
      "id": 7444140,
      "node_id": "MDQ6VXNlcjc0NDQxNDA=",
      "avatar_url": "https://avatars.githubusercontent.com/u/7444140?v=4",
      "gravatar_id": "",
      "url": "https://api.github.com/users/josibake",
      "html_url": "https://github.com/josibake",
      "followers_url": "https://api.github.com/users/josibake/followers",
      "following_url": "https://api.github.com/users/josibake/following{/other_user}",
      "gists_url": "https://api.github.com/users/josibake/gists{/gist_id}",
      "starred_url": "https://api.github.com/users/josibake/starred{/owner}{/repo}",
      "subscriptions_url": "https://api.github.com/users/josibake/subscriptions",
      "organizations_url": "https://api.github.com/users/josibake/orgs",
      "repos_url": "https://api.github.com/users/josibake/repos",
      "events_url": "https://api.github.com/users/josibake/events{/privacy}",
      "received_events_url": "https://api.github.com/users/josibake/received_events",
      "type": "User",
      "site_admin": false
    },
    "created_at": "2022-12-06T11:02:21Z",
    "updated_at": "2022-12-06T11:04:22Z",
    "author_association": "MEMBER",
    "body_html": "<p dir=\"auto\">ACK <a class=\"commit-link\" data-hovercard-type=\"commit\" data-hovercard-url=\"https://github.com/bitcoin/bitcoin/commit/8b726bf556e05edf02946d4b1c3356df17fd0d57/hovercard\" href=\"https://github.com/bitcoin/bitcoin/commit/8b726bf556e05edf02946d4b1c3356df17fd0d57\"><tt>8b726bf</tt></a></p>\n<p dir=\"auto\">more familiar with commits from <a class=\"issue-link js-issue-link\" data-error-text=\"Failed to load title\" data-id=\"1461939996\" data-permission-text=\"Title is private\" data-url=\"https://github.com/bitcoin/bitcoin/issues/26560\" data-hovercard-type=\"pull_request\" data-hovercard-url=\"/bitcoin/bitcoin/pull/26560/hovercard\" href=\"https://github.com/bitcoin/bitcoin/pull/26560\">#26560</a> , but did a quick code review of the other commits and they look good.</p>\n<p dir=\"auto\">cherry picked <a class=\"commit-link\" data-hovercard-type=\"commit\" data-hovercard-url=\"https://github.com/bitcoin/bitcoin/commit/d464b2af30f2b02be2ce0b5e45dc6c141529dba5/hovercard\" href=\"https://github.com/bitcoin/bitcoin/commit/d464b2af30f2b02be2ce0b5e45dc6c141529dba5\"><tt>d464b2a</tt></a>, <a class=\"commit-link\" data-hovercard-type=\"commit\" data-hovercard-url=\"https://github.com/bitcoin/bitcoin/commit/e5d097b639c7f75b530349b524836804cb753597/hovercard\" href=\"https://github.com/bitcoin/bitcoin/commit/e5d097b639c7f75b530349b524836804cb753597\"><tt>e5d097b</tt></a>, <a class=\"commit-link\" data-hovercard-type=\"commit\" data-hovercard-url=\"https://github.com/bitcoin/bitcoin/commit/9d73176d00a013e1383ae18cb5c0f8cbdd186cba/hovercard\" href=\"https://github.com/bitcoin/bitcoin/commit/9d73176d00a013e1383ae18cb5c0f8cbdd186cba\"><tt>9d73176</tt></a>, and <a class=\"commit-link\" data-hovercard-type=\"commit\" data-hovercard-url=\"https://github.com/bitcoin/bitcoin/commit/8b726bf556e05edf02946d4b1c3356df17fd0d57/hovercard\" href=\"https://github.com/bitcoin/bitcoin/commit/8b726bf556e05edf02946d4b1c3356df17fd0d57\"><tt>8b726bf</tt></a> onto the <code class=\"notranslate\">24.x</code> branch and verified the newly introduced unit and functional tests failed as expected and then verified they all passed on the <code class=\"notranslate\">backports</code> branch 🎉</p>",
    "body_text": "ACK 8b726bf\nmore familiar with commits from #26560 , but did a quick code review of the other commits and they look good.\ncherry picked d464b2a, e5d097b, 9d73176, and 8b726bf onto the 24.x branch and verified the newly introduced unit and functional tests failed as expected and then verified they all passed on the backports branch 🎉",
    "body": "ACK https://github.com/bitcoin/bitcoin/pull/26616/commits/8b726bf556e05edf02946d4b1c3356df17fd0d57\r\n\r\nmore familiar with commits from #26560 , but did a quick code review of the other commits and they look good. \r\n\r\ncherry picked https://github.com/bitcoin/bitcoin/pull/26616/commits/d464b2af30f2b02be2ce0b5e45dc6c141529dba5, https://github.com/bitcoin/bitcoin/pull/26616/commits/e5d097b639c7f75b530349b524836804cb753597, https://github.com/bitcoin/bitcoin/pull/26616/commits/9d73176d00a013e1383ae18cb5c0f8cbdd186cba, and https://github.com/bitcoin/bitcoin/pull/26616/commits/8b726bf556e05edf02946d4b1c3356df17fd0d57 onto the `24.x` branch and verified the newly introduced unit and functional tests failed as expected and then verified they all passed on the `backports` branch :tada: ",
    "reactions": {
      "url": "https://api.github.com/repos/bitcoin/bitcoin/issues/comments/1339149166/reactions",
      "total_count": 0,
      "+1": 0,
      "-1": 0,
      "laugh": 0,
      "hooray": 0,
      "confused": 0,
      "heart": 0,
      "rocket": 0,
      "eyes": 0
    },
    "performed_via_github_app": null
  },
  {
    "url": "https://api.github.com/repos/bitcoin/bitcoin/issues/comments/1340679382",
    "html_url": "https://github.com/bitcoin/bitcoin/pull/26616#issuecomment-1340679382",
    "issue_url": "https://api.github.com/repos/bitcoin/bitcoin/issues/26616",
    "id": 1340679382,
    "node_id": "IC_kwDOABII585P6STW",
    "user": {
      "login": "GregTonoski",
      "id": 111286121,
      "node_id": "U_kgDOBqIXaQ",
      "avatar_url": "https://avatars.githubusercontent.com/u/111286121?v=4",
      "gravatar_id": "",
      "url": "https://api.github.com/users/GregTonoski",
      "html_url": "https://github.com/GregTonoski",
      "followers_url": "https://api.github.com/users/GregTonoski/followers",
      "following_url": "https://api.github.com/users/GregTonoski/following{/other_user}",
      "gists_url": "https://api.github.com/users/GregTonoski/gists{/gist_id}",
      "starred_url": "https://api.github.com/users/GregTonoski/starred{/owner}{/repo}",
      "subscriptions_url": "https://api.github.com/users/GregTonoski/subscriptions",
      "organizations_url": "https://api.github.com/users/GregTonoski/orgs",
      "repos_url": "https://api.github.com/users/GregTonoski/repos",
      "events_url": "https://api.github.com/users/GregTonoski/events{/privacy}",
      "received_events_url": "https://api.github.com/users/GregTonoski/received_events",
      "type": "User",
      "site_admin": false
    },
    "created_at": "2022-12-07T09:54:44Z",
    "updated_at": "2022-12-07T09:57:43Z",
    "author_association": "NONE",
    "body_html": "<blockquote>\n<p dir=\"auto\">While 24.0 has been tagged, it hasn't been more widely released (no website post, no mailing list annoucements, a few tweets doesn't count). Rather than tagging a 24.1, which would give the false impression of a more stable point release, containing a number of bug fixes after months of 24.0 running in production, it's more appropritate to incorporate these additional fixes into 24.x, essentially consider 24.0 DOA, and tag a 24.0.1.</p>\n</blockquote>\n<p dir=\"auto\">Appartently, the Bitcoin Core version 24.0 was released widely and similarily to the previous versions - in the Releases section in the Github repository:<br>\n<a target=\"_blank\" rel=\"noopener noreferrer nofollow\" href=\"https://user-images.githubusercontent.com/111286121/206137907-6b73b2f9-a9df-4f5c-8830-12c75700ed4c.png\"><img src=\"https://user-images.githubusercontent.com/111286121/206137907-6b73b2f9-a9df-4f5c-8830-12c75700ed4c.png\" alt=\"image\" style=\"max-width: 100%;\"></a><br>\nThere is also media covarage.</p>\n<p dir=\"auto\">At least for me, the 24.1 would not give the false impression of a more stable point release (in comparison to 24.0.1).</p>\n<p dir=\"auto\">There are already many instances of 24.0 run by people so I think that it cannot be considered dead on arrival (DOA).</p>\n<p dir=\"auto\">The update to the previous version 24.0 would be clearer to me if its version number is 24.1 instead of 24.0.1. There wouldn't have been many 24.0 versions to confuse them with one another. There isn't the 3rd number expected in the next version of the Bitcoin Core if it is not used in the previous one (24.0).</p>",
    "body_text": "While 24.0 has been tagged, it hasn't been more widely released (no website post, no mailing list annoucements, a few tweets doesn't count). Rather than tagging a 24.1, which would give the false impression of a more stable point release, containing a number of bug fixes after months of 24.0 running in production, it's more appropritate to incorporate these additional fixes into 24.x, essentially consider 24.0 DOA, and tag a 24.0.1.\n\nAppartently, the Bitcoin Core version 24.0 was released widely and similarily to the previous versions - in the Releases section in the Github repository:\n\nThere is also media covarage.\nAt least for me, the 24.1 would not give the false impression of a more stable point release (in comparison to 24.0.1).\nThere are already many instances of 24.0 run by people so I think that it cannot be considered dead on arrival (DOA).\nThe update to the previous version 24.0 would be clearer to me if its version number is 24.1 instead of 24.0.1. There wouldn't have been many 24.0 versions to confuse them with one another. There isn't the 3rd number expected in the next version of the Bitcoin Core if it is not used in the previous one (24.0).",
    "body": "> While 24.0 has been tagged, it hasn't been more widely released (no website post, no mailing list annoucements, a few tweets doesn't count). Rather than tagging a 24.1, which would give the false impression of a more stable point release, containing a number of bug fixes after months of 24.0 running in production, it's more appropritate to incorporate these additional fixes into 24.x, essentially consider 24.0 DOA, and tag a 24.0.1.\r\n\r\nAppartently, the Bitcoin Core version 24.0 was released widely and similarily to the previous versions - in the Releases section in the Github repository:\r\n![image](https://user-images.githubusercontent.com/111286121/206137907-6b73b2f9-a9df-4f5c-8830-12c75700ed4c.png)\r\nThere is also media covarage.\r\n\r\nAt least for me, the 24.1 would not give the false impression of a more stable point release (in comparison to 24.0.1). \r\n\r\nThere are already many instances of 24.0 run by people so I think that it cannot be considered dead on arrival (DOA). \r\n\r\nThe update to the previous version 24.0 would be clearer to me if its version number is 24.1 instead of 24.0.1. There wouldn't have been many 24.0 versions to confuse them with one another. There isn't the 3rd number expected in the next version of the Bitcoin Core if it is not used in the previous one (24.0). ",
    "reactions": {
      "url": "https://api.github.com/repos/bitcoin/bitcoin/issues/comments/1340679382/reactions",
      "total_count": 0,
      "+1": 0,
      "-1": 0,
      "laugh": 0,
      "hooray": 0,
      "confused": 0,
      "heart": 0,
      "rocket": 0,
      "eyes": 0
    },
    "performed_via_github_app": null
  }
]
