{
  "url": "https://api.github.com/repos/bitcoin/bitcoin/issues/19841",
  "repository_url": "https://api.github.com/repos/bitcoin/bitcoin",
  "labels_url": "https://api.github.com/repos/bitcoin/bitcoin/issues/19841/labels{/name}",
  "comments_url": "https://api.github.com/repos/bitcoin/bitcoin/issues/19841/comments",
  "events_url": "https://api.github.com/repos/bitcoin/bitcoin/issues/19841/events",
  "html_url": "https://github.com/bitcoin/bitcoin/pull/19841",
  "id": 688781434,
  "node_id": "MDExOlB1bGxSZXF1ZXN0NDc1OTU2Mjc1",
  "number": 19841,
  "title": "Implement Keccak and SHA3_256",
  "user": {
    "login": "sipa",
    "id": 548488,
    "node_id": "MDQ6VXNlcjU0ODQ4OA==",
    "avatar_url": "https://avatars.githubusercontent.com/u/548488?v=4",
    "gravatar_id": "",
    "url": "https://api.github.com/users/sipa",
    "html_url": "https://github.com/sipa",
    "followers_url": "https://api.github.com/users/sipa/followers",
    "following_url": "https://api.github.com/users/sipa/following{/other_user}",
    "gists_url": "https://api.github.com/users/sipa/gists{/gist_id}",
    "starred_url": "https://api.github.com/users/sipa/starred{/owner}{/repo}",
    "subscriptions_url": "https://api.github.com/users/sipa/subscriptions",
    "organizations_url": "https://api.github.com/users/sipa/orgs",
    "repos_url": "https://api.github.com/users/sipa/repos",
    "events_url": "https://api.github.com/users/sipa/events{/privacy}",
    "received_events_url": "https://api.github.com/users/sipa/received_events",
    "type": "User",
    "site_admin": false
  },
  "labels": [
    {
      "id": 241832923,
      "node_id": "MDU6TGFiZWwyNDE4MzI5MjM=",
      "url": "https://api.github.com/repos/bitcoin/bitcoin/labels/Utils/log/libs",
      "name": "Utils/log/libs",
      "color": "5319e7",
      "default": false,
      "description": ""
    }
  ],
  "state": "closed",
  "locked": true,
  "assignee": null,
  "assignees": [

  ],
  "milestone": null,
  "comments": 22,
  "created_at": "2020-08-30T20:00:23Z",
  "updated_at": "2022-02-15T10:35:53Z",
  "closed_at": "2020-09-10T14:38:44Z",
  "author_association": "MEMBER",
  "active_lock_reason": "resolved",
  "draft": false,
  "pull_request": {
    "url": "https://api.github.com/repos/bitcoin/bitcoin/pulls/19841",
    "html_url": "https://github.com/bitcoin/bitcoin/pull/19841",
    "diff_url": "https://github.com/bitcoin/bitcoin/pull/19841.diff",
    "patch_url": "https://github.com/bitcoin/bitcoin/pull/19841.patch",
    "merged_at": "2020-09-10T14:38:44Z"
  },
  "body_html": "<p dir=\"auto\">Add a simple (and initially unoptimized) Keccak/SHA3 implementation based on <a href=\"https://github.com/mjosaarinen/tiny_sha3/blob/master/sha3.c\">https://github.com/mjosaarinen/tiny_sha3/blob/master/sha3.c</a>, as one will be needed for TORv3 support (the conversion from BIP155 encoding to .onion notation uses a SHA3-based checksum). In follow-up commits, a benchmark is added, and the Keccakf function is unrolled for a (for me) 4.9x speedup.</p>\n<p dir=\"auto\">Test vectors are taken from <a href=\"https://csrc.nist.gov/projects/cryptographic-algorithm-validation-program/secure-hashing#sha3vsha3vss\" rel=\"nofollow\">https://csrc.nist.gov/projects/cryptographic-algorithm-validation-program/secure-hashing#sha3vsha3vss</a>.</p>",
  "body_text": "Add a simple (and initially unoptimized) Keccak/SHA3 implementation based on https://github.com/mjosaarinen/tiny_sha3/blob/master/sha3.c, as one will be needed for TORv3 support (the conversion from BIP155 encoding to .onion notation uses a SHA3-based checksum). In follow-up commits, a benchmark is added, and the Keccakf function is unrolled for a (for me) 4.9x speedup.\nTest vectors are taken from https://csrc.nist.gov/projects/cryptographic-algorithm-validation-program/secure-hashing#sha3vsha3vss.",
  "body": "Add a simple (and initially unoptimized) Keccak/SHA3 implementation based on https://github.com/mjosaarinen/tiny_sha3/blob/master/sha3.c, as one will be needed for TORv3 support (the conversion from BIP155 encoding to .onion notation uses a SHA3-based checksum). In follow-up commits, a benchmark is added, and the Keccakf function is unrolled for a (for me) 4.9x speedup.\r\n\r\nTest vectors are taken from https://csrc.nist.gov/projects/cryptographic-algorithm-validation-program/secure-hashing#sha3vsha3vss.\r\n\r\n",
  "closed_by": {
    "login": "laanwj",
    "id": 126646,
    "node_id": "MDQ6VXNlcjEyNjY0Ng==",
    "avatar_url": "https://avatars.githubusercontent.com/u/126646?v=4",
    "gravatar_id": "",
    "url": "https://api.github.com/users/laanwj",
    "html_url": "https://github.com/laanwj",
    "followers_url": "https://api.github.com/users/laanwj/followers",
    "following_url": "https://api.github.com/users/laanwj/following{/other_user}",
    "gists_url": "https://api.github.com/users/laanwj/gists{/gist_id}",
    "starred_url": "https://api.github.com/users/laanwj/starred{/owner}{/repo}",
    "subscriptions_url": "https://api.github.com/users/laanwj/subscriptions",
    "organizations_url": "https://api.github.com/users/laanwj/orgs",
    "repos_url": "https://api.github.com/users/laanwj/repos",
    "events_url": "https://api.github.com/users/laanwj/events{/privacy}",
    "received_events_url": "https://api.github.com/users/laanwj/received_events",
    "type": "User",
    "site_admin": false
  },
  "reactions": {
    "url": "https://api.github.com/repos/bitcoin/bitcoin/issues/19841/reactions",
    "total_count": 7,
    "+1": 7,
    "-1": 0,
    "laugh": 0,
    "hooray": 0,
    "confused": 0,
    "heart": 0,
    "rocket": 0,
    "eyes": 0
  },
  "timeline_url": "https://api.github.com/repos/bitcoin/bitcoin/issues/19841/timeline",
  "performed_via_github_app": null,
  "state_reason": null
}
