[
  {
    "url": "https://api.github.com/repos/bitcoin/bitcoin/issues/comments/783026889",
    "html_url": "https://github.com/bitcoin/bitcoin/pull/21261#issuecomment-783026889",
    "issue_url": "https://api.github.com/repos/bitcoin/bitcoin/issues/21261",
    "id": 783026889,
    "node_id": "MDEyOklzc3VlQ29tbWVudDc4MzAyNjg4OQ==",
    "user": {
      "login": "DrahtBot",
      "id": 39886733,
      "node_id": "MDQ6VXNlcjM5ODg2NzMz",
      "avatar_url": "https://avatars.githubusercontent.com/u/39886733?v=4",
      "gravatar_id": "",
      "url": "https://api.github.com/users/DrahtBot",
      "html_url": "https://github.com/DrahtBot",
      "followers_url": "https://api.github.com/users/DrahtBot/followers",
      "following_url": "https://api.github.com/users/DrahtBot/following{/other_user}",
      "gists_url": "https://api.github.com/users/DrahtBot/gists{/gist_id}",
      "starred_url": "https://api.github.com/users/DrahtBot/starred{/owner}{/repo}",
      "subscriptions_url": "https://api.github.com/users/DrahtBot/subscriptions",
      "organizations_url": "https://api.github.com/users/DrahtBot/orgs",
      "repos_url": "https://api.github.com/users/DrahtBot/repos",
      "events_url": "https://api.github.com/users/DrahtBot/events{/privacy}",
      "received_events_url": "https://api.github.com/users/DrahtBot/received_events",
      "type": "User",
      "site_admin": false
    },
    "created_at": "2021-02-22T03:17:19Z",
    "updated_at": "2021-06-03T05:25:12Z",
    "author_association": "CONTRIBUTOR",
    "body_html": "\n<p dir=\"auto\">The following sections might be updated with supplementary metadata relevant to reviewers and maintainers.</p>\n\n<h3 dir=\"auto\">Conflicts</h3>\n<p dir=\"auto\">Reviewers, this pull request conflicts with the following ones:</p>\n<ul dir=\"auto\">\n<li><a class=\"issue-link js-issue-link\" data-error-text=\"Failed to load title\" data-id=\"807217968\" data-permission-text=\"Title is private\" data-url=\"https://github.com/bitcoin/bitcoin/issues/21160\" data-hovercard-type=\"pull_request\" data-hovercard-url=\"/bitcoin/bitcoin/pull/21160/hovercard\" href=\"https://github.com/bitcoin/bitcoin/pull/21160\">#21160</a> (net/net processing: Move tx inventory into net_processing by jnewbery)</li>\n</ul>\n<p dir=\"auto\">If you consider this pull request important, please also help to review the conflicting pull requests. Ideally, start with the one that should be merged first.</p>",
    "body_text": "The following sections might be updated with supplementary metadata relevant to reviewers and maintainers.\n\nConflicts\nReviewers, this pull request conflicts with the following ones:\n\n#21160 (net/net processing: Move tx inventory into net_processing by jnewbery)\n\nIf you consider this pull request important, please also help to review the conflicting pull requests. Ideally, start with the one that should be merged first.",
    "body": "<!--e57a25ab6845829454e8d69fc972939a-->\n\nThe following sections might be updated with supplementary metadata relevant to reviewers and maintainers.\n\n<!--174a7506f384e20aa4161008e828411d-->\n### Conflicts\nReviewers, this pull request conflicts with the following ones:\n\n* #21160 (net/net processing: Move tx inventory into net_processing by jnewbery)\n\nIf you consider this pull request important, please also help to review the conflicting pull requests. Ideally, start with the one that should be merged first.",
    "reactions": {
      "url": "https://api.github.com/repos/bitcoin/bitcoin/issues/comments/783026889/reactions",
      "total_count": 0,
      "+1": 0,
      "-1": 0,
      "laugh": 0,
      "hooray": 0,
      "confused": 0,
      "heart": 0,
      "rocket": 0,
      "eyes": 0
    },
    "performed_via_github_app": null
  },
  {
    "url": "https://api.github.com/repos/bitcoin/bitcoin/issues/comments/785710010",
    "html_url": "https://github.com/bitcoin/bitcoin/pull/21261#issuecomment-785710010",
    "issue_url": "https://api.github.com/repos/bitcoin/bitcoin/issues/21261",
    "id": 785710010,
    "node_id": "MDEyOklzc3VlQ29tbWVudDc4NTcxMDAxMA==",
    "user": {
      "login": "vasild",
      "id": 266751,
      "node_id": "MDQ6VXNlcjI2Njc1MQ==",
      "avatar_url": "https://avatars.githubusercontent.com/u/266751?v=4",
      "gravatar_id": "",
      "url": "https://api.github.com/users/vasild",
      "html_url": "https://github.com/vasild",
      "followers_url": "https://api.github.com/users/vasild/followers",
      "following_url": "https://api.github.com/users/vasild/following{/other_user}",
      "gists_url": "https://api.github.com/users/vasild/gists{/gist_id}",
      "starred_url": "https://api.github.com/users/vasild/starred{/owner}{/repo}",
      "subscriptions_url": "https://api.github.com/users/vasild/subscriptions",
      "organizations_url": "https://api.github.com/users/vasild/orgs",
      "repos_url": "https://api.github.com/users/vasild/repos",
      "events_url": "https://api.github.com/users/vasild/events{/privacy}",
      "received_events_url": "https://api.github.com/users/vasild/received_events",
      "type": "User",
      "site_admin": false
    },
    "created_at": "2021-02-25T08:18:37Z",
    "updated_at": "2021-02-25T08:18:37Z",
    "author_association": "CONTRIBUTOR",
    "body_html": "<p dir=\"auto\">Concept ACK</p>",
    "body_text": "Concept ACK",
    "body": "Concept ACK",
    "reactions": {
      "url": "https://api.github.com/repos/bitcoin/bitcoin/issues/comments/785710010/reactions",
      "total_count": 0,
      "+1": 0,
      "-1": 0,
      "laugh": 0,
      "hooray": 0,
      "confused": 0,
      "heart": 0,
      "rocket": 0,
      "eyes": 0
    },
    "performed_via_github_app": null
  },
  {
    "url": "https://api.github.com/repos/bitcoin/bitcoin/issues/comments/829668926",
    "html_url": "https://github.com/bitcoin/bitcoin/pull/21261#issuecomment-829668926",
    "issue_url": "https://api.github.com/repos/bitcoin/bitcoin/issues/21261",
    "id": 829668926,
    "node_id": "MDEyOklzc3VlQ29tbWVudDgyOTY2ODkyNg==",
    "user": {
      "login": "mzumsande",
      "id": 48763452,
      "node_id": "MDQ6VXNlcjQ4NzYzNDUy",
      "avatar_url": "https://avatars.githubusercontent.com/u/48763452?v=4",
      "gravatar_id": "",
      "url": "https://api.github.com/users/mzumsande",
      "html_url": "https://github.com/mzumsande",
      "followers_url": "https://api.github.com/users/mzumsande/followers",
      "following_url": "https://api.github.com/users/mzumsande/following{/other_user}",
      "gists_url": "https://api.github.com/users/mzumsande/gists{/gist_id}",
      "starred_url": "https://api.github.com/users/mzumsande/starred{/owner}{/repo}",
      "subscriptions_url": "https://api.github.com/users/mzumsande/subscriptions",
      "organizations_url": "https://api.github.com/users/mzumsande/orgs",
      "repos_url": "https://api.github.com/users/mzumsande/repos",
      "events_url": "https://api.github.com/users/mzumsande/events{/privacy}",
      "received_events_url": "https://api.github.com/users/mzumsande/received_events",
      "type": "User",
      "site_admin": false
    },
    "created_at": "2021-04-29T23:26:53Z",
    "updated_at": "2021-04-29T23:26:53Z",
    "author_association": "CONTRIBUTOR",
    "body_html": "<p dir=\"auto\">Concept ACK, will review more closely soon.</p>",
    "body_text": "Concept ACK, will review more closely soon.",
    "body": "Concept ACK, will review more closely soon.",
    "reactions": {
      "url": "https://api.github.com/repos/bitcoin/bitcoin/issues/comments/829668926/reactions",
      "total_count": 0,
      "+1": 0,
      "-1": 0,
      "laugh": 0,
      "hooray": 0,
      "confused": 0,
      "heart": 0,
      "rocket": 0,
      "eyes": 0
    },
    "performed_via_github_app": null
  },
  {
    "url": "https://api.github.com/repos/bitcoin/bitcoin/issues/comments/836811768",
    "html_url": "https://github.com/bitcoin/bitcoin/pull/21261#issuecomment-836811768",
    "issue_url": "https://api.github.com/repos/bitcoin/bitcoin/issues/21261",
    "id": 836811768,
    "node_id": "MDEyOklzc3VlQ29tbWVudDgzNjgxMTc2OA==",
    "user": {
      "login": "laanwj",
      "id": 126646,
      "node_id": "MDQ6VXNlcjEyNjY0Ng==",
      "avatar_url": "https://avatars.githubusercontent.com/u/126646?v=4",
      "gravatar_id": "",
      "url": "https://api.github.com/users/laanwj",
      "html_url": "https://github.com/laanwj",
      "followers_url": "https://api.github.com/users/laanwj/followers",
      "following_url": "https://api.github.com/users/laanwj/following{/other_user}",
      "gists_url": "https://api.github.com/users/laanwj/gists{/gist_id}",
      "starred_url": "https://api.github.com/users/laanwj/starred{/owner}{/repo}",
      "subscriptions_url": "https://api.github.com/users/laanwj/subscriptions",
      "organizations_url": "https://api.github.com/users/laanwj/orgs",
      "repos_url": "https://api.github.com/users/laanwj/repos",
      "events_url": "https://api.github.com/users/laanwj/events{/privacy}",
      "received_events_url": "https://api.github.com/users/laanwj/received_events",
      "type": "User",
      "site_admin": false
    },
    "created_at": "2021-05-10T15:04:35Z",
    "updated_at": "2021-05-10T15:04:35Z",
    "author_association": "MEMBER",
    "body_html": "<p dir=\"auto\">Concept ACK</p>",
    "body_text": "Concept ACK",
    "body": "Concept ACK",
    "reactions": {
      "url": "https://api.github.com/repos/bitcoin/bitcoin/issues/comments/836811768/reactions",
      "total_count": 0,
      "+1": 0,
      "-1": 0,
      "laugh": 0,
      "hooray": 0,
      "confused": 0,
      "heart": 0,
      "rocket": 0,
      "eyes": 0
    },
    "performed_via_github_app": null
  },
  {
    "url": "https://api.github.com/repos/bitcoin/bitcoin/issues/comments/842280881",
    "html_url": "https://github.com/bitcoin/bitcoin/pull/21261#issuecomment-842280881",
    "issue_url": "https://api.github.com/repos/bitcoin/bitcoin/issues/21261",
    "id": 842280881,
    "node_id": "MDEyOklzc3VlQ29tbWVudDg0MjI4MDg4MQ==",
    "user": {
      "login": "jonatack",
      "id": 2415484,
      "node_id": "MDQ6VXNlcjI0MTU0ODQ=",
      "avatar_url": "https://avatars.githubusercontent.com/u/2415484?v=4",
      "gravatar_id": "",
      "url": "https://api.github.com/users/jonatack",
      "html_url": "https://github.com/jonatack",
      "followers_url": "https://api.github.com/users/jonatack/followers",
      "following_url": "https://api.github.com/users/jonatack/following{/other_user}",
      "gists_url": "https://api.github.com/users/jonatack/gists{/gist_id}",
      "starred_url": "https://api.github.com/users/jonatack/starred{/owner}{/repo}",
      "subscriptions_url": "https://api.github.com/users/jonatack/subscriptions",
      "organizations_url": "https://api.github.com/users/jonatack/orgs",
      "repos_url": "https://api.github.com/users/jonatack/repos",
      "events_url": "https://api.github.com/users/jonatack/events{/privacy}",
      "received_events_url": "https://api.github.com/users/jonatack/received_events",
      "type": "User",
      "site_admin": false
    },
    "created_at": "2021-05-17T12:22:48Z",
    "updated_at": "2021-05-17T12:22:48Z",
    "author_association": "CONTRIBUTOR",
    "body_html": "<blockquote>\n<p dir=\"auto\">Approach ACK <a href=\"https://github.com/bitcoin/bitcoin/commit/4890e2f2fdefaa18b0e96bcaf3691fb3f0213572\">4890e2f</a></p>\n<p dir=\"auto\">Some squashing is warranted.</p>\n</blockquote>\n<p dir=\"auto\">Thanks! Indeed. Re-arranging.</p>",
    "body_text": "Approach ACK 4890e2f\nSome squashing is warranted.\n\nThanks! Indeed. Re-arranging.",
    "body": "> Approach ACK [4890e2f](https://github.com/bitcoin/bitcoin/commit/4890e2f2fdefaa18b0e96bcaf3691fb3f0213572)\r\n> \r\n> Some squashing is warranted.\r\n\r\nThanks! Indeed. Re-arranging.",
    "reactions": {
      "url": "https://api.github.com/repos/bitcoin/bitcoin/issues/comments/842280881/reactions",
      "total_count": 0,
      "+1": 0,
      "-1": 0,
      "laugh": 0,
      "hooray": 0,
      "confused": 0,
      "heart": 0,
      "rocket": 0,
      "eyes": 0
    },
    "performed_via_github_app": null
  },
  {
    "url": "https://api.github.com/repos/bitcoin/bitcoin/issues/comments/853612805",
    "html_url": "https://github.com/bitcoin/bitcoin/pull/21261#issuecomment-853612805",
    "issue_url": "https://api.github.com/repos/bitcoin/bitcoin/issues/21261",
    "id": 853612805,
    "node_id": "MDEyOklzc3VlQ29tbWVudDg1MzYxMjgwNQ==",
    "user": {
      "login": "dunxen",
      "id": 3072149,
      "node_id": "MDQ6VXNlcjMwNzIxNDk=",
      "avatar_url": "https://avatars.githubusercontent.com/u/3072149?v=4",
      "gravatar_id": "",
      "url": "https://api.github.com/users/dunxen",
      "html_url": "https://github.com/dunxen",
      "followers_url": "https://api.github.com/users/dunxen/followers",
      "following_url": "https://api.github.com/users/dunxen/following{/other_user}",
      "gists_url": "https://api.github.com/users/dunxen/gists{/gist_id}",
      "starred_url": "https://api.github.com/users/dunxen/starred{/owner}{/repo}",
      "subscriptions_url": "https://api.github.com/users/dunxen/subscriptions",
      "organizations_url": "https://api.github.com/users/dunxen/orgs",
      "repos_url": "https://api.github.com/users/dunxen/repos",
      "events_url": "https://api.github.com/users/dunxen/events{/privacy}",
      "received_events_url": "https://api.github.com/users/dunxen/received_events",
      "type": "User",
      "site_admin": false
    },
    "created_at": "2021-06-03T06:40:06Z",
    "updated_at": "2021-06-03T06:40:06Z",
    "author_association": "CONTRIBUTOR",
    "body_html": "<p dir=\"auto\">Concept ACK. Will take a closer look later today :)</p>",
    "body_text": "Concept ACK. Will take a closer look later today :)",
    "body": "Concept ACK. Will take a closer look later today :)",
    "reactions": {
      "url": "https://api.github.com/repos/bitcoin/bitcoin/issues/comments/853612805/reactions",
      "total_count": 1,
      "+1": 1,
      "-1": 0,
      "laugh": 0,
      "hooray": 0,
      "confused": 0,
      "heart": 0,
      "rocket": 0,
      "eyes": 0
    },
    "performed_via_github_app": null
  },
  {
    "url": "https://api.github.com/repos/bitcoin/bitcoin/issues/comments/855652920",
    "html_url": "https://github.com/bitcoin/bitcoin/pull/21261#issuecomment-855652920",
    "issue_url": "https://api.github.com/repos/bitcoin/bitcoin/issues/21261",
    "id": 855652920,
    "node_id": "MDEyOklzc3VlQ29tbWVudDg1NTY1MjkyMA==",
    "user": {
      "login": "jonatack",
      "id": 2415484,
      "node_id": "MDQ6VXNlcjI0MTU0ODQ=",
      "avatar_url": "https://avatars.githubusercontent.com/u/2415484?v=4",
      "gravatar_id": "",
      "url": "https://api.github.com/users/jonatack",
      "html_url": "https://github.com/jonatack",
      "followers_url": "https://api.github.com/users/jonatack/followers",
      "following_url": "https://api.github.com/users/jonatack/following{/other_user}",
      "gists_url": "https://api.github.com/users/jonatack/gists{/gist_id}",
      "starred_url": "https://api.github.com/users/jonatack/starred{/owner}{/repo}",
      "subscriptions_url": "https://api.github.com/users/jonatack/subscriptions",
      "organizations_url": "https://api.github.com/users/jonatack/orgs",
      "repos_url": "https://api.github.com/users/jonatack/repos",
      "events_url": "https://api.github.com/users/jonatack/events{/privacy}",
      "received_events_url": "https://api.github.com/users/jonatack/received_events",
      "type": "User",
      "site_admin": false
    },
    "created_at": "2021-06-07T07:05:11Z",
    "updated_at": "2021-06-07T07:05:11Z",
    "author_association": "CONTRIBUTOR",
    "body_html": "<p dir=\"auto\">Thanks for the concept ACKs <a class=\"user-mention notranslate\" data-hovercard-type=\"user\" data-hovercard-url=\"/users/mzumsande/hovercard\" data-octo-click=\"hovercard-link-click\" data-octo-dimensions=\"link_type:self\" href=\"https://github.com/mzumsande\">@mzumsande</a>, <a class=\"user-mention notranslate\" data-hovercard-type=\"user\" data-hovercard-url=\"/users/duncandean/hovercard\" data-octo-click=\"hovercard-link-click\" data-octo-dimensions=\"link_type:self\" href=\"https://github.com/duncandean\">@duncandean</a> and <a class=\"user-mention notranslate\" data-hovercard-type=\"user\" data-hovercard-url=\"/users/laanwj/hovercard\" data-octo-click=\"hovercard-link-click\" data-octo-dimensions=\"link_type:self\" href=\"https://github.com/laanwj\">@laanwj</a> and the approach ACKs <a class=\"user-mention notranslate\" data-hovercard-type=\"user\" data-hovercard-url=\"/users/vasild/hovercard\" data-octo-click=\"hovercard-link-click\" data-octo-dimensions=\"link_type:self\" href=\"https://github.com/vasild\">@vasild</a> and <a class=\"user-mention notranslate\" data-hovercard-type=\"user\" data-hovercard-url=\"/users/ariard/hovercard\" data-octo-click=\"hovercard-link-click\" data-octo-dimensions=\"link_type:self\" href=\"https://github.com/ariard\">@ariard</a>. Now ready for final review.</p>\n<p dir=\"auto\">This screenshot illustrates the higher latency of I2P peers, which disadvantages them under our inbound eviction criteria even relative to onion peers.</p>\n<p dir=\"auto\"><a target=\"_blank\" rel=\"noopener noreferrer nofollow\" href=\"https://user-images.githubusercontent.com/2415484/120973346-544b3400-c75e-11eb-901e-667f36ebcd54.png\"><img src=\"https://user-images.githubusercontent.com/2415484/120973346-544b3400-c75e-11eb-901e-667f36ebcd54.png\" alt=\"Screenshot from 2021-06-07 08-56-56\" style=\"max-width: 100%;\"></a></p>",
    "body_text": "Thanks for the concept ACKs @mzumsande, @duncandean and @laanwj and the approach ACKs @vasild and @ariard. Now ready for final review.\nThis screenshot illustrates the higher latency of I2P peers, which disadvantages them under our inbound eviction criteria even relative to onion peers.",
    "body": "Thanks for the concept ACKs @mzumsande, @duncandean and @laanwj and the approach ACKs @vasild and @ariard. Now ready for final review. \r\n\r\nThis screenshot illustrates the higher latency of I2P peers, which disadvantages them under our inbound eviction criteria even relative to onion peers.\r\n\r\n![Screenshot from 2021-06-07 08-56-56](https://user-images.githubusercontent.com/2415484/120973346-544b3400-c75e-11eb-901e-667f36ebcd54.png)\r\n",
    "reactions": {
      "url": "https://api.github.com/repos/bitcoin/bitcoin/issues/comments/855652920/reactions",
      "total_count": 0,
      "+1": 0,
      "-1": 0,
      "laugh": 0,
      "hooray": 0,
      "confused": 0,
      "heart": 0,
      "rocket": 0,
      "eyes": 0
    },
    "performed_via_github_app": null
  },
  {
    "url": "https://api.github.com/repos/bitcoin/bitcoin/issues/comments/859579163",
    "html_url": "https://github.com/bitcoin/bitcoin/pull/21261#issuecomment-859579163",
    "issue_url": "https://api.github.com/repos/bitcoin/bitcoin/issues/21261",
    "id": 859579163,
    "node_id": "MDEyOklzc3VlQ29tbWVudDg1OTU3OTE2Mw==",
    "user": {
      "login": "jonatack",
      "id": 2415484,
      "node_id": "MDQ6VXNlcjI0MTU0ODQ=",
      "avatar_url": "https://avatars.githubusercontent.com/u/2415484?v=4",
      "gravatar_id": "",
      "url": "https://api.github.com/users/jonatack",
      "html_url": "https://github.com/jonatack",
      "followers_url": "https://api.github.com/users/jonatack/followers",
      "following_url": "https://api.github.com/users/jonatack/following{/other_user}",
      "gists_url": "https://api.github.com/users/jonatack/gists{/gist_id}",
      "starred_url": "https://api.github.com/users/jonatack/starred{/owner}{/repo}",
      "subscriptions_url": "https://api.github.com/users/jonatack/subscriptions",
      "organizations_url": "https://api.github.com/users/jonatack/orgs",
      "repos_url": "https://api.github.com/users/jonatack/repos",
      "events_url": "https://api.github.com/users/jonatack/events{/privacy}",
      "received_events_url": "https://api.github.com/users/jonatack/received_events",
      "type": "User",
      "site_admin": false
    },
    "created_at": "2021-06-11T13:23:35Z",
    "updated_at": "2021-06-11T15:05:18Z",
    "author_association": "CONTRIBUTOR",
    "body_html": "<p dir=\"auto\">Updated per the discussions above and rebased.  The CI failure seems unrelated.  I'm running a node on this branch with <code class=\"notranslate\">-maxconnections=40</code>.</p>\n<p dir=\"auto\">Edit: repushed to give the unrelated CI issue another chance.</p>",
    "body_text": "Updated per the discussions above and rebased.  The CI failure seems unrelated.  I'm running a node on this branch with -maxconnections=40.\nEdit: repushed to give the unrelated CI issue another chance.",
    "body": "Updated per the discussions above and rebased.  The CI failure seems unrelated.  I'm running a node on this branch with `-maxconnections=40`.\r\n\r\nEdit: repushed to give the unrelated CI issue another chance.",
    "reactions": {
      "url": "https://api.github.com/repos/bitcoin/bitcoin/issues/comments/859579163/reactions",
      "total_count": 0,
      "+1": 0,
      "-1": 0,
      "laugh": 0,
      "hooray": 0,
      "confused": 0,
      "heart": 0,
      "rocket": 0,
      "eyes": 0
    },
    "performed_via_github_app": null
  },
  {
    "url": "https://api.github.com/repos/bitcoin/bitcoin/issues/comments/860083875",
    "html_url": "https://github.com/bitcoin/bitcoin/pull/21261#issuecomment-860083875",
    "issue_url": "https://api.github.com/repos/bitcoin/bitcoin/issues/21261",
    "id": 860083875,
    "node_id": "MDEyOklzc3VlQ29tbWVudDg2MDA4Mzg3NQ==",
    "user": {
      "login": "jonatack",
      "id": 2415484,
      "node_id": "MDQ6VXNlcjI0MTU0ODQ=",
      "avatar_url": "https://avatars.githubusercontent.com/u/2415484?v=4",
      "gravatar_id": "",
      "url": "https://api.github.com/users/jonatack",
      "html_url": "https://github.com/jonatack",
      "followers_url": "https://api.github.com/users/jonatack/followers",
      "following_url": "https://api.github.com/users/jonatack/following{/other_user}",
      "gists_url": "https://api.github.com/users/jonatack/gists{/gist_id}",
      "starred_url": "https://api.github.com/users/jonatack/starred{/owner}{/repo}",
      "subscriptions_url": "https://api.github.com/users/jonatack/subscriptions",
      "organizations_url": "https://api.github.com/users/jonatack/orgs",
      "repos_url": "https://api.github.com/users/jonatack/repos",
      "events_url": "https://api.github.com/users/jonatack/events{/privacy}",
      "received_events_url": "https://api.github.com/users/jonatack/received_events",
      "type": "User",
      "site_admin": false
    },
    "created_at": "2021-06-12T17:27:08Z",
    "updated_at": "2021-06-12T17:27:08Z",
    "author_association": "CONTRIBUTOR",
    "body_html": "<p dir=\"auto\">Thanks for the feedback <a class=\"user-mention notranslate\" data-hovercard-type=\"user\" data-hovercard-url=\"/users/vasild/hovercard\" data-octo-click=\"hovercard-link-click\" data-octo-dimensions=\"link_type:self\" href=\"https://github.com/vasild\">@vasild</a> and <a class=\"user-mention notranslate\" data-hovercard-type=\"user\" data-hovercard-url=\"/users/ariard/hovercard\" data-octo-click=\"hovercard-link-click\" data-octo-dimensions=\"link_type:self\" href=\"https://github.com/ariard\">@ariard</a>. All the feedback taken, will re-push after reworking the tests.</p>",
    "body_text": "Thanks for the feedback @vasild and @ariard. All the feedback taken, will re-push after reworking the tests.",
    "body": "Thanks for the feedback @vasild and @ariard. All the feedback taken, will re-push after reworking the tests. ",
    "reactions": {
      "url": "https://api.github.com/repos/bitcoin/bitcoin/issues/comments/860083875/reactions",
      "total_count": 0,
      "+1": 0,
      "-1": 0,
      "laugh": 0,
      "hooray": 0,
      "confused": 0,
      "heart": 0,
      "rocket": 0,
      "eyes": 0
    },
    "performed_via_github_app": null
  },
  {
    "url": "https://api.github.com/repos/bitcoin/bitcoin/issues/comments/860239666",
    "html_url": "https://github.com/bitcoin/bitcoin/pull/21261#issuecomment-860239666",
    "issue_url": "https://api.github.com/repos/bitcoin/bitcoin/issues/21261",
    "id": 860239666,
    "node_id": "MDEyOklzc3VlQ29tbWVudDg2MDIzOTY2Ng==",
    "user": {
      "login": "jonatack",
      "id": 2415484,
      "node_id": "MDQ6VXNlcjI0MTU0ODQ=",
      "avatar_url": "https://avatars.githubusercontent.com/u/2415484?v=4",
      "gravatar_id": "",
      "url": "https://api.github.com/users/jonatack",
      "html_url": "https://github.com/jonatack",
      "followers_url": "https://api.github.com/users/jonatack/followers",
      "following_url": "https://api.github.com/users/jonatack/following{/other_user}",
      "gists_url": "https://api.github.com/users/jonatack/gists{/gist_id}",
      "starred_url": "https://api.github.com/users/jonatack/starred{/owner}{/repo}",
      "subscriptions_url": "https://api.github.com/users/jonatack/subscriptions",
      "organizations_url": "https://api.github.com/users/jonatack/orgs",
      "repos_url": "https://api.github.com/users/jonatack/repos",
      "events_url": "https://api.github.com/users/jonatack/events{/privacy}",
      "received_events_url": "https://api.github.com/users/jonatack/received_events",
      "type": "User",
      "site_admin": false
    },
    "created_at": "2021-06-13T16:45:51Z",
    "updated_at": "2021-06-13T18:27:14Z",
    "author_association": "CONTRIBUTOR",
    "body_html": "<p dir=\"auto\">Updated, taking all review feedback by <a class=\"user-mention notranslate\" data-hovercard-type=\"user\" data-hovercard-url=\"/users/vasild/hovercard\" data-octo-click=\"hovercard-link-click\" data-octo-dimensions=\"link_type:self\" href=\"https://github.com/vasild\">@vasild</a> and <a class=\"user-mention notranslate\" data-hovercard-type=\"user\" data-hovercard-url=\"/users/ariard/hovercard\" data-octo-click=\"hovercard-link-click\" data-octo-dimensions=\"link_type:self\" href=\"https://github.com/ariard\">@ariard</a>, and also improving readability and updating the tests.</p>\n<p dir=\"auto\"><code class=\"notranslate\">git diff 4253019 a457f34 --color-words</code></p>",
    "body_text": "Updated, taking all review feedback by @vasild and @ariard, and also improving readability and updating the tests.\ngit diff 4253019 a457f34 --color-words",
    "body": "Updated, taking all review feedback by @vasild and @ariard, and also improving readability and updating the tests.\r\n\r\n`git diff 4253019 a457f34 --color-words`",
    "reactions": {
      "url": "https://api.github.com/repos/bitcoin/bitcoin/issues/comments/860239666/reactions",
      "total_count": 0,
      "+1": 0,
      "-1": 0,
      "laugh": 0,
      "hooray": 0,
      "confused": 0,
      "heart": 0,
      "rocket": 0,
      "eyes": 0
    },
    "performed_via_github_app": null
  },
  {
    "url": "https://api.github.com/repos/bitcoin/bitcoin/issues/comments/860624384",
    "html_url": "https://github.com/bitcoin/bitcoin/pull/21261#issuecomment-860624384",
    "issue_url": "https://api.github.com/repos/bitcoin/bitcoin/issues/21261",
    "id": 860624384,
    "node_id": "MDEyOklzc3VlQ29tbWVudDg2MDYyNDM4NA==",
    "user": {
      "login": "laanwj",
      "id": 126646,
      "node_id": "MDQ6VXNlcjEyNjY0Ng==",
      "avatar_url": "https://avatars.githubusercontent.com/u/126646?v=4",
      "gravatar_id": "",
      "url": "https://api.github.com/users/laanwj",
      "html_url": "https://github.com/laanwj",
      "followers_url": "https://api.github.com/users/laanwj/followers",
      "following_url": "https://api.github.com/users/laanwj/following{/other_user}",
      "gists_url": "https://api.github.com/users/laanwj/gists{/gist_id}",
      "starred_url": "https://api.github.com/users/laanwj/starred{/owner}{/repo}",
      "subscriptions_url": "https://api.github.com/users/laanwj/subscriptions",
      "organizations_url": "https://api.github.com/users/laanwj/orgs",
      "repos_url": "https://api.github.com/users/laanwj/repos",
      "events_url": "https://api.github.com/users/laanwj/events{/privacy}",
      "received_events_url": "https://api.github.com/users/laanwj/received_events",
      "type": "User",
      "site_admin": false
    },
    "created_at": "2021-06-14T11:53:32Z",
    "updated_at": "2021-06-14T12:54:51Z",
    "author_association": "MEMBER",
    "body_html": "<p dir=\"auto\">I've been running this PR (various versions) on a busy node for the last weeks. Unfortunately this node has a really high <code class=\"notranslate\">maxconnections</code> (500, while average number of connected peers is 200) so I just realize I haven't been actually testing the eviction behavior 😊</p>\n<p dir=\"auto\">In any case<br>\nCode review (and lightly tested) ACK <a class=\"commit-link\" data-hovercard-type=\"commit\" data-hovercard-url=\"https://github.com/bitcoin/bitcoin/commit/a457f34e5039b75ee015b273028c3ee153656d5c/hovercard\" href=\"https://github.com/bitcoin/bitcoin/commit/a457f34e5039b75ee015b273028c3ee153656d5c\"><tt>a457f34</tt></a><br>\nCode review re-ACK <a class=\"commit-link\" data-hovercard-type=\"commit\" data-hovercard-url=\"https://github.com/bitcoin/bitcoin/commit/1b1088d52fbff8b1c9438d6aa8c6edcbdd471457/hovercard\" href=\"https://github.com/bitcoin/bitcoin/commit/1b1088d52fbff8b1c9438d6aa8c6edcbdd471457\"><tt>1b1088d</tt></a></p>",
    "body_text": "I've been running this PR (various versions) on a busy node for the last weeks. Unfortunately this node has a really high maxconnections (500, while average number of connected peers is 200) so I just realize I haven't been actually testing the eviction behavior 😊\nIn any case\nCode review (and lightly tested) ACK a457f34\nCode review re-ACK 1b1088d",
    "body": "I've been running this PR (various versions) on a busy node for the last weeks. Unfortunately this node has a really high `maxconnections` (500, while average number of connected peers is 200) so I just realize I haven't been actually testing the eviction behavior :blush: \r\n\r\nIn any case\r\nCode review (and lightly tested) ACK a457f34e5039b75ee015b273028c3ee153656d5c\r\nCode review re-ACK 1b1088d52fbff8b1c9438d6aa8c6edcbdd471457",
    "reactions": {
      "url": "https://api.github.com/repos/bitcoin/bitcoin/issues/comments/860624384/reactions",
      "total_count": 1,
      "+1": 0,
      "-1": 0,
      "laugh": 0,
      "hooray": 0,
      "confused": 0,
      "heart": 1,
      "rocket": 0,
      "eyes": 0
    },
    "performed_via_github_app": null
  },
  {
    "url": "https://api.github.com/repos/bitcoin/bitcoin/issues/comments/860648064",
    "html_url": "https://github.com/bitcoin/bitcoin/pull/21261#issuecomment-860648064",
    "issue_url": "https://api.github.com/repos/bitcoin/bitcoin/issues/21261",
    "id": 860648064,
    "node_id": "MDEyOklzc3VlQ29tbWVudDg2MDY0ODA2NA==",
    "user": {
      "login": "jonatack",
      "id": 2415484,
      "node_id": "MDQ6VXNlcjI0MTU0ODQ=",
      "avatar_url": "https://avatars.githubusercontent.com/u/2415484?v=4",
      "gravatar_id": "",
      "url": "https://api.github.com/users/jonatack",
      "html_url": "https://github.com/jonatack",
      "followers_url": "https://api.github.com/users/jonatack/followers",
      "following_url": "https://api.github.com/users/jonatack/following{/other_user}",
      "gists_url": "https://api.github.com/users/jonatack/gists{/gist_id}",
      "starred_url": "https://api.github.com/users/jonatack/starred{/owner}{/repo}",
      "subscriptions_url": "https://api.github.com/users/jonatack/subscriptions",
      "organizations_url": "https://api.github.com/users/jonatack/orgs",
      "repos_url": "https://api.github.com/users/jonatack/repos",
      "events_url": "https://api.github.com/users/jonatack/events{/privacy}",
      "received_events_url": "https://api.github.com/users/jonatack/received_events",
      "type": "User",
      "site_admin": false
    },
    "created_at": "2021-06-14T12:33:53Z",
    "updated_at": "2021-06-14T12:34:21Z",
    "author_association": "CONTRIBUTOR",
    "body_html": "<p dir=\"auto\">Thanks <a class=\"user-mention notranslate\" data-hovercard-type=\"user\" data-hovercard-url=\"/users/vasild/hovercard\" data-octo-click=\"hovercard-link-click\" data-octo-dimensions=\"link_type:self\" href=\"https://github.com/vasild\">@vasild</a> and <a class=\"user-mention notranslate\" data-hovercard-type=\"user\" data-hovercard-url=\"/users/laanwj/hovercard\" data-octo-click=\"hovercard-link-click\" data-octo-dimensions=\"link_type:self\" href=\"https://github.com/laanwj\">@laanwj</a>.  Updated per <code class=\"notranslate\">git diff a457f34 1b1088d --color-words</code> for the review suggestion and to add 4 test cases, and updated the PR description to thank/credit <a class=\"user-mention notranslate\" data-hovercard-type=\"user\" data-hovercard-url=\"/users/vasild/hovercard\" data-octo-click=\"hovercard-link-click\" data-octo-dimensions=\"link_type:self\" href=\"https://github.com/vasild\">@vasild</a> and <a class=\"user-mention notranslate\" data-hovercard-type=\"user\" data-hovercard-url=\"/users/ariard/hovercard\" data-octo-click=\"hovercard-link-click\" data-octo-dimensions=\"link_type:self\" href=\"https://github.com/ariard\">@ariard</a>.</p>",
    "body_text": "Thanks @vasild and @laanwj.  Updated per git diff a457f34 1b1088d --color-words for the review suggestion and to add 4 test cases, and updated the PR description to thank/credit @vasild and @ariard.",
    "body": "Thanks @vasild and @laanwj.  Updated per `git diff a457f34 1b1088d --color-words` for the review suggestion and to add 4 test cases, and updated the PR description to thank/credit @vasild and @ariard.",
    "reactions": {
      "url": "https://api.github.com/repos/bitcoin/bitcoin/issues/comments/860648064/reactions",
      "total_count": 0,
      "+1": 0,
      "-1": 0,
      "laugh": 0,
      "hooray": 0,
      "confused": 0,
      "heart": 0,
      "rocket": 0,
      "eyes": 0
    },
    "performed_via_github_app": null
  },
  {
    "url": "https://api.github.com/repos/bitcoin/bitcoin/issues/comments/860681508",
    "html_url": "https://github.com/bitcoin/bitcoin/pull/21261#issuecomment-860681508",
    "issue_url": "https://api.github.com/repos/bitcoin/bitcoin/issues/21261",
    "id": 860681508,
    "node_id": "MDEyOklzc3VlQ29tbWVudDg2MDY4MTUwOA==",
    "user": {
      "login": "laanwj",
      "id": 126646,
      "node_id": "MDQ6VXNlcjEyNjY0Ng==",
      "avatar_url": "https://avatars.githubusercontent.com/u/126646?v=4",
      "gravatar_id": "",
      "url": "https://api.github.com/users/laanwj",
      "html_url": "https://github.com/laanwj",
      "followers_url": "https://api.github.com/users/laanwj/followers",
      "following_url": "https://api.github.com/users/laanwj/following{/other_user}",
      "gists_url": "https://api.github.com/users/laanwj/gists{/gist_id}",
      "starred_url": "https://api.github.com/users/laanwj/starred{/owner}{/repo}",
      "subscriptions_url": "https://api.github.com/users/laanwj/subscriptions",
      "organizations_url": "https://api.github.com/users/laanwj/orgs",
      "repos_url": "https://api.github.com/users/laanwj/repos",
      "events_url": "https://api.github.com/users/laanwj/events{/privacy}",
      "received_events_url": "https://api.github.com/users/laanwj/received_events",
      "type": "User",
      "site_admin": false
    },
    "created_at": "2021-06-14T13:23:32Z",
    "updated_at": "2021-06-14T13:23:32Z",
    "author_association": "MEMBER",
    "body_html": "<blockquote>\n<p dir=\"auto\">Wow! How long does it take to get up to 200 peers? Mine is restarted a lot but never gets above 35-40.</p>\n</blockquote>\n<p dir=\"auto\">Last restart was last week, it gets connections quite quickly. Then again it is connected to all possible networks and has had a &gt;99% uptime for a few years. Either that helps or maybe it's just all spy nodes 🙂</p>",
    "body_text": "Wow! How long does it take to get up to 200 peers? Mine is restarted a lot but never gets above 35-40.\n\nLast restart was last week, it gets connections quite quickly. Then again it is connected to all possible networks and has had a >99% uptime for a few years. Either that helps or maybe it's just all spy nodes 🙂",
    "body": "> Wow! How long does it take to get up to 200 peers? Mine is restarted a lot but never gets above 35-40.\r\n\r\nLast restart was last week, it gets connections quite quickly. Then again it is connected to all possible networks and has had a >99% uptime for a few years. Either that helps or maybe it's just all spy nodes :slightly_smiling_face: \r\n",
    "reactions": {
      "url": "https://api.github.com/repos/bitcoin/bitcoin/issues/comments/860681508/reactions",
      "total_count": 2,
      "+1": 0,
      "-1": 0,
      "laugh": 0,
      "hooray": 0,
      "confused": 0,
      "heart": 0,
      "rocket": 2,
      "eyes": 0
    },
    "performed_via_github_app": null
  }
]
