[
  {
    "url": "https://api.github.com/repos/bitcoin/bitcoin/issues/comments/553251688",
    "html_url": "https://github.com/bitcoin/bitcoin/pull/17463#issuecomment-553251688",
    "issue_url": "https://api.github.com/repos/bitcoin/bitcoin/issues/17463",
    "id": 553251688,
    "node_id": "MDEyOklzc3VlQ29tbWVudDU1MzI1MTY4OA==",
    "user": {
      "login": "DrahtBot",
      "id": 39886733,
      "node_id": "MDQ6VXNlcjM5ODg2NzMz",
      "avatar_url": "https://avatars.githubusercontent.com/u/39886733?v=4",
      "gravatar_id": "",
      "url": "https://api.github.com/users/DrahtBot",
      "html_url": "https://github.com/DrahtBot",
      "followers_url": "https://api.github.com/users/DrahtBot/followers",
      "following_url": "https://api.github.com/users/DrahtBot/following{/other_user}",
      "gists_url": "https://api.github.com/users/DrahtBot/gists{/gist_id}",
      "starred_url": "https://api.github.com/users/DrahtBot/starred{/owner}{/repo}",
      "subscriptions_url": "https://api.github.com/users/DrahtBot/subscriptions",
      "organizations_url": "https://api.github.com/users/DrahtBot/orgs",
      "repos_url": "https://api.github.com/users/DrahtBot/repos",
      "events_url": "https://api.github.com/users/DrahtBot/events{/privacy}",
      "received_events_url": "https://api.github.com/users/DrahtBot/received_events",
      "type": "User",
      "site_admin": false
    },
    "created_at": "2019-11-13T05:54:43Z",
    "updated_at": "2020-08-21T01:51:14Z",
    "author_association": "CONTRIBUTOR",
    "body_html": "\n<p dir=\"auto\">The following sections might be updated with supplementary metadata relevant to reviewers and maintainers.</p>\n\n<h3 dir=\"auto\">Conflicts</h3>\n<p dir=\"auto\">Reviewers, this pull request conflicts with the following ones:</p>\n<ul dir=\"auto\">\n<li><a class=\"issue-link js-issue-link\" data-error-text=\"Failed to load title\" data-id=\"607851805\" data-permission-text=\"Title is private\" data-url=\"https://github.com/bitcoin/bitcoin/issues/18789\" data-hovercard-type=\"pull_request\" data-hovercard-url=\"/bitcoin/bitcoin/pull/18789/hovercard\" href=\"https://github.com/bitcoin/bitcoin/pull/18789\">#18789</a> (qt: Add Create Unsigned button to SendConfirmationDialog by achow101)</li>\n</ul>\n<p dir=\"auto\">If you consider this pull request important, please also help to review the conflicting pull requests. Ideally, start with the one that should be merged first.</p>",
    "body_text": "The following sections might be updated with supplementary metadata relevant to reviewers and maintainers.\n\nConflicts\nReviewers, this pull request conflicts with the following ones:\n\n#18789 (qt: Add Create Unsigned button to SendConfirmationDialog by achow101)\n\nIf you consider this pull request important, please also help to review the conflicting pull requests. Ideally, start with the one that should be merged first.",
    "body": "<!--e57a25ab6845829454e8d69fc972939a-->\n\nThe following sections might be updated with supplementary metadata relevant to reviewers and maintainers.\n\n<!--174a7506f384e20aa4161008e828411d-->\n### Conflicts\nReviewers, this pull request conflicts with the following ones:\n\n* #18789 (qt: Add Create Unsigned button to SendConfirmationDialog by achow101)\n\nIf you consider this pull request important, please also help to review the conflicting pull requests. Ideally, start with the one that should be merged first.",
    "reactions": {
      "url": "https://api.github.com/repos/bitcoin/bitcoin/issues/comments/553251688/reactions",
      "total_count": 0,
      "+1": 0,
      "-1": 0,
      "laugh": 0,
      "hooray": 0,
      "confused": 0,
      "heart": 0,
      "rocket": 0,
      "eyes": 0
    },
    "performed_via_github_app": null
  },
  {
    "url": "https://api.github.com/repos/bitcoin/bitcoin/issues/comments/553853799",
    "html_url": "https://github.com/bitcoin/bitcoin/pull/17463#issuecomment-553853799",
    "issue_url": "https://api.github.com/repos/bitcoin/bitcoin/issues/17463",
    "id": 553853799,
    "node_id": "MDEyOklzc3VlQ29tbWVudDU1Mzg1Mzc5OQ==",
    "user": {
      "login": "laanwj",
      "id": 126646,
      "node_id": "MDQ6VXNlcjEyNjY0Ng==",
      "avatar_url": "https://avatars.githubusercontent.com/u/126646?v=4",
      "gravatar_id": "",
      "url": "https://api.github.com/users/laanwj",
      "html_url": "https://github.com/laanwj",
      "followers_url": "https://api.github.com/users/laanwj/followers",
      "following_url": "https://api.github.com/users/laanwj/following{/other_user}",
      "gists_url": "https://api.github.com/users/laanwj/gists{/gist_id}",
      "starred_url": "https://api.github.com/users/laanwj/starred{/owner}{/repo}",
      "subscriptions_url": "https://api.github.com/users/laanwj/subscriptions",
      "organizations_url": "https://api.github.com/users/laanwj/orgs",
      "repos_url": "https://api.github.com/users/laanwj/repos",
      "events_url": "https://api.github.com/users/laanwj/events{/privacy}",
      "received_events_url": "https://api.github.com/users/laanwj/received_events",
      "type": "User",
      "site_admin": false
    },
    "created_at": "2019-11-14T11:50:32Z",
    "updated_at": "2019-11-14T11:50:32Z",
    "author_association": "MEMBER",
    "body_html": "<blockquote>\n<p dir=\"auto\">The SendConfirmationDialog is used for bumping the fee, where \"Send\" doesn't really make sense</p>\n</blockquote>\n<p dir=\"auto\">I think it still does make some sense, as in 'send bumped transaction'.<br>\nThis adds a lot of complexity just to set a button text.</p>",
    "body_text": "The SendConfirmationDialog is used for bumping the fee, where \"Send\" doesn't really make sense\n\nI think it still does make some sense, as in 'send bumped transaction'.\nThis adds a lot of complexity just to set a button text.",
    "body": "> The SendConfirmationDialog is used for bumping the fee, where \"Send\" doesn't really make sense\r\n\r\nI think it still does make some sense, as in 'send bumped transaction'. \r\nThis adds a lot of complexity just to set a button text.",
    "reactions": {
      "url": "https://api.github.com/repos/bitcoin/bitcoin/issues/comments/553853799/reactions",
      "total_count": 0,
      "+1": 0,
      "-1": 0,
      "laugh": 0,
      "hooray": 0,
      "confused": 0,
      "heart": 0,
      "rocket": 0,
      "eyes": 0
    },
    "performed_via_github_app": null
  },
  {
    "url": "https://api.github.com/repos/bitcoin/bitcoin/issues/comments/553896269",
    "html_url": "https://github.com/bitcoin/bitcoin/pull/17463#issuecomment-553896269",
    "issue_url": "https://api.github.com/repos/bitcoin/bitcoin/issues/17463",
    "id": 553896269,
    "node_id": "MDEyOklzc3VlQ29tbWVudDU1Mzg5NjI2OQ==",
    "user": {
      "login": "luke-jr",
      "id": 1095675,
      "node_id": "MDQ6VXNlcjEwOTU2NzU=",
      "avatar_url": "https://avatars.githubusercontent.com/u/1095675?v=4",
      "gravatar_id": "",
      "url": "https://api.github.com/users/luke-jr",
      "html_url": "https://github.com/luke-jr",
      "followers_url": "https://api.github.com/users/luke-jr/followers",
      "following_url": "https://api.github.com/users/luke-jr/following{/other_user}",
      "gists_url": "https://api.github.com/users/luke-jr/gists{/gist_id}",
      "starred_url": "https://api.github.com/users/luke-jr/starred{/owner}{/repo}",
      "subscriptions_url": "https://api.github.com/users/luke-jr/subscriptions",
      "organizations_url": "https://api.github.com/users/luke-jr/orgs",
      "repos_url": "https://api.github.com/users/luke-jr/repos",
      "events_url": "https://api.github.com/users/luke-jr/events{/privacy}",
      "received_events_url": "https://api.github.com/users/luke-jr/received_events",
      "type": "User",
      "site_admin": false
    },
    "created_at": "2019-11-14T13:50:50Z",
    "updated_at": "2019-11-14T13:50:50Z",
    "author_association": "MEMBER",
    "body_html": "<p dir=\"auto\">The prompt could be rephrased to make sense with \"Send\", but IMO it currently isn't.</p>\n<p dir=\"auto\">More than just button text is needed for <a class=\"issue-link js-issue-link\" data-error-text=\"Failed to load title\" data-id=\"441944631\" data-permission-text=\"Title is private\" data-url=\"https://github.com/bitcoin/bitcoin/issues/15987\" data-hovercard-type=\"pull_request\" data-hovercard-url=\"/bitcoin/bitcoin/pull/15987/hovercard\" href=\"https://github.com/bitcoin/bitcoin/pull/15987\">#15987</a> so might as well just get the interface change over with all at once.</p>",
    "body_text": "The prompt could be rephrased to make sense with \"Send\", but IMO it currently isn't.\nMore than just button text is needed for #15987 so might as well just get the interface change over with all at once.",
    "body": "The prompt could be rephrased to make sense with \"Send\", but IMO it currently isn't.\r\n\r\nMore than just button text is needed for #15987 so might as well just get the interface change over with all at once.",
    "reactions": {
      "url": "https://api.github.com/repos/bitcoin/bitcoin/issues/comments/553896269/reactions",
      "total_count": 0,
      "+1": 0,
      "-1": 0,
      "laugh": 0,
      "hooray": 0,
      "confused": 0,
      "heart": 0,
      "rocket": 0,
      "eyes": 0
    },
    "performed_via_github_app": null
  },
  {
    "url": "https://api.github.com/repos/bitcoin/bitcoin/issues/comments/554577446",
    "html_url": "https://github.com/bitcoin/bitcoin/pull/17463#issuecomment-554577446",
    "issue_url": "https://api.github.com/repos/bitcoin/bitcoin/issues/17463",
    "id": 554577446,
    "node_id": "MDEyOklzc3VlQ29tbWVudDU1NDU3NzQ0Ng==",
    "user": {
      "login": "jonasschnelli",
      "id": 178464,
      "node_id": "MDQ6VXNlcjE3ODQ2NA==",
      "avatar_url": "https://avatars.githubusercontent.com/u/178464?v=4",
      "gravatar_id": "",
      "url": "https://api.github.com/users/jonasschnelli",
      "html_url": "https://github.com/jonasschnelli",
      "followers_url": "https://api.github.com/users/jonasschnelli/followers",
      "following_url": "https://api.github.com/users/jonasschnelli/following{/other_user}",
      "gists_url": "https://api.github.com/users/jonasschnelli/gists{/gist_id}",
      "starred_url": "https://api.github.com/users/jonasschnelli/starred{/owner}{/repo}",
      "subscriptions_url": "https://api.github.com/users/jonasschnelli/subscriptions",
      "organizations_url": "https://api.github.com/users/jonasschnelli/orgs",
      "repos_url": "https://api.github.com/users/jonasschnelli/repos",
      "events_url": "https://api.github.com/users/jonasschnelli/events{/privacy}",
      "received_events_url": "https://api.github.com/users/jonasschnelli/received_events",
      "type": "User",
      "site_admin": false
    },
    "created_at": "2019-11-16T00:07:01Z",
    "updated_at": "2019-11-16T00:07:18Z",
    "author_association": "CONTRIBUTOR",
    "body_html": "<p dir=\"auto\">Tested ACK <a class=\"commit-link\" data-hovercard-type=\"commit\" data-hovercard-url=\"https://github.com/bitcoin/bitcoin/commit/d6adf3bc2db17ed3a17caa2ac5cf9095d70b53fb/hovercard\" href=\"https://github.com/bitcoin/bitcoin/commit/d6adf3bc2db17ed3a17caa2ac5cf9095d70b53fb\"><tt>d6adf3b</tt></a></p>\n<p dir=\"auto\">Before:<br>\n<a target=\"_blank\" rel=\"noopener noreferrer nofollow\" href=\"https://user-images.githubusercontent.com/178464/68983816-f0929c00-07b0-11ea-84b8-49251b7f5b16.png\"><img width=\"451\" alt=\"Bildschirmfoto 2019-11-15 um 14 04 47\" src=\"https://user-images.githubusercontent.com/178464/68983816-f0929c00-07b0-11ea-84b8-49251b7f5b16.png\" style=\"max-width: 100%;\"></a><br>\n<a target=\"_blank\" rel=\"noopener noreferrer nofollow\" href=\"https://user-images.githubusercontent.com/178464/68983822-f4262300-07b0-11ea-9723-67da2696862b.png\"><img width=\"585\" alt=\"Bildschirmfoto 2019-11-15 um 13 57 28\" src=\"https://user-images.githubusercontent.com/178464/68983822-f4262300-07b0-11ea-9723-67da2696862b.png\" style=\"max-width: 100%;\"></a></p>\n<p dir=\"auto\">With this PR:<br>\n<a target=\"_blank\" rel=\"noopener noreferrer nofollow\" href=\"https://user-images.githubusercontent.com/178464/68983829-01431200-07b1-11ea-8f41-e5679c7bd393.png\"><img width=\"451\" alt=\"Bildschirmfoto 2019-11-15 um 14 04 04\" src=\"https://user-images.githubusercontent.com/178464/68983829-01431200-07b1-11ea-8f41-e5679c7bd393.png\" style=\"max-width: 100%;\"></a></p>\n<p dir=\"auto\"><a target=\"_blank\" rel=\"noopener noreferrer nofollow\" href=\"https://user-images.githubusercontent.com/178464/68983857-29cb0c00-07b1-11ea-99d7-750244effd26.png\"><img width=\"585\" alt=\"Bildschirmfoto 2019-11-15 um 14 00 05\" src=\"https://user-images.githubusercontent.com/178464/68983857-29cb0c00-07b1-11ea-99d7-750244effd26.png\" style=\"max-width: 100%;\"></a></p>",
    "body_text": "Tested ACK d6adf3b\nBefore:\n\n\nWith this PR:",
    "body": "Tested ACK d6adf3bc2db17ed3a17caa2ac5cf9095d70b53fb\r\n\r\nBefore:\r\n<img width=\"451\" alt=\"Bildschirmfoto 2019-11-15 um 14 04 47\" src=\"https://user-images.githubusercontent.com/178464/68983816-f0929c00-07b0-11ea-84b8-49251b7f5b16.png\">\r\n<img width=\"585\" alt=\"Bildschirmfoto 2019-11-15 um 13 57 28\" src=\"https://user-images.githubusercontent.com/178464/68983822-f4262300-07b0-11ea-9723-67da2696862b.png\">\r\n\r\nWith this PR:\r\n<img width=\"451\" alt=\"Bildschirmfoto 2019-11-15 um 14 04 04\" src=\"https://user-images.githubusercontent.com/178464/68983829-01431200-07b1-11ea-8f41-e5679c7bd393.png\">\r\n \r\n<img width=\"585\" alt=\"Bildschirmfoto 2019-11-15 um 14 00 05\" src=\"https://user-images.githubusercontent.com/178464/68983857-29cb0c00-07b1-11ea-99d7-750244effd26.png\">\r\n\r\n\r\n",
    "reactions": {
      "url": "https://api.github.com/repos/bitcoin/bitcoin/issues/comments/554577446/reactions",
      "total_count": 0,
      "+1": 0,
      "-1": 0,
      "laugh": 0,
      "hooray": 0,
      "confused": 0,
      "heart": 0,
      "rocket": 0,
      "eyes": 0
    },
    "performed_via_github_app": null
  },
  {
    "url": "https://api.github.com/repos/bitcoin/bitcoin/issues/comments/557779037",
    "html_url": "https://github.com/bitcoin/bitcoin/pull/17463#issuecomment-557779037",
    "issue_url": "https://api.github.com/repos/bitcoin/bitcoin/issues/17463",
    "id": 557779037,
    "node_id": "MDEyOklzc3VlQ29tbWVudDU1Nzc3OTAzNw==",
    "user": {
      "login": "Sjors",
      "id": 10217,
      "node_id": "MDQ6VXNlcjEwMjE3",
      "avatar_url": "https://avatars.githubusercontent.com/u/10217?v=4",
      "gravatar_id": "",
      "url": "https://api.github.com/users/Sjors",
      "html_url": "https://github.com/Sjors",
      "followers_url": "https://api.github.com/users/Sjors/followers",
      "following_url": "https://api.github.com/users/Sjors/following{/other_user}",
      "gists_url": "https://api.github.com/users/Sjors/gists{/gist_id}",
      "starred_url": "https://api.github.com/users/Sjors/starred{/owner}{/repo}",
      "subscriptions_url": "https://api.github.com/users/Sjors/subscriptions",
      "organizations_url": "https://api.github.com/users/Sjors/orgs",
      "repos_url": "https://api.github.com/users/Sjors/repos",
      "events_url": "https://api.github.com/users/Sjors/events{/privacy}",
      "received_events_url": "https://api.github.com/users/Sjors/received_events",
      "type": "User",
      "site_admin": false
    },
    "created_at": "2019-11-23T08:39:34Z",
    "updated_at": "2019-11-23T08:39:34Z",
    "author_association": "MEMBER",
    "body_html": "<p dir=\"auto\">Needs a small rebase due to <a class=\"issue-link js-issue-link\" data-error-text=\"Failed to load title\" data-id=\"497274060\" data-permission-text=\"Title is private\" data-url=\"https://github.com/bitcoin/bitcoin/issues/16944\" data-hovercard-type=\"pull_request\" data-hovercard-url=\"/bitcoin/bitcoin/pull/16944/hovercard\" href=\"https://github.com/bitcoin/bitcoin/pull/16944\">#16944</a> getting merged.</p>",
    "body_text": "Needs a small rebase due to #16944 getting merged.",
    "body": "Needs a small rebase due to #16944 getting merged.",
    "reactions": {
      "url": "https://api.github.com/repos/bitcoin/bitcoin/issues/comments/557779037/reactions",
      "total_count": 0,
      "+1": 0,
      "-1": 0,
      "laugh": 0,
      "hooray": 0,
      "confused": 0,
      "heart": 0,
      "rocket": 0,
      "eyes": 0
    },
    "performed_via_github_app": null
  },
  {
    "url": "https://api.github.com/repos/bitcoin/bitcoin/issues/comments/565655201",
    "html_url": "https://github.com/bitcoin/bitcoin/pull/17463#issuecomment-565655201",
    "issue_url": "https://api.github.com/repos/bitcoin/bitcoin/issues/17463",
    "id": 565655201,
    "node_id": "MDEyOklzc3VlQ29tbWVudDU2NTY1NTIwMQ==",
    "user": {
      "login": "gwillen",
      "id": 458997,
      "node_id": "MDQ6VXNlcjQ1ODk5Nw==",
      "avatar_url": "https://avatars.githubusercontent.com/u/458997?v=4",
      "gravatar_id": "",
      "url": "https://api.github.com/users/gwillen",
      "html_url": "https://github.com/gwillen",
      "followers_url": "https://api.github.com/users/gwillen/followers",
      "following_url": "https://api.github.com/users/gwillen/following{/other_user}",
      "gists_url": "https://api.github.com/users/gwillen/gists{/gist_id}",
      "starred_url": "https://api.github.com/users/gwillen/starred{/owner}{/repo}",
      "subscriptions_url": "https://api.github.com/users/gwillen/subscriptions",
      "organizations_url": "https://api.github.com/users/gwillen/orgs",
      "repos_url": "https://api.github.com/users/gwillen/repos",
      "events_url": "https://api.github.com/users/gwillen/events{/privacy}",
      "received_events_url": "https://api.github.com/users/gwillen/received_events",
      "type": "User",
      "site_admin": false
    },
    "created_at": "2019-12-14T00:04:05Z",
    "updated_at": "2019-12-14T00:04:05Z",
    "author_association": "CONTRIBUTOR",
    "body_html": "<p dir=\"auto\">utACK; I'm looking to build on <a class=\"issue-link js-issue-link\" data-error-text=\"Failed to load title\" data-id=\"524512473\" data-permission-text=\"Title is private\" data-url=\"https://github.com/bitcoin/bitcoin/issues/17509\" data-hovercard-type=\"pull_request\" data-hovercard-url=\"/bitcoin/bitcoin/pull/17509/hovercard\" href=\"https://github.com/bitcoin/bitcoin/pull/17509\">#17509</a> to which this is mentioned as a prereq, so if this is not too controversial I'd love to see it go in soon. It seems pretty small.</p>",
    "body_text": "utACK; I'm looking to build on #17509 to which this is mentioned as a prereq, so if this is not too controversial I'd love to see it go in soon. It seems pretty small.",
    "body": "utACK; I'm looking to build on #17509 to which this is mentioned as a prereq, so if this is not too controversial I'd love to see it go in soon. It seems pretty small.",
    "reactions": {
      "url": "https://api.github.com/repos/bitcoin/bitcoin/issues/comments/565655201/reactions",
      "total_count": 1,
      "+1": 1,
      "-1": 0,
      "laugh": 0,
      "hooray": 0,
      "confused": 0,
      "heart": 0,
      "rocket": 0,
      "eyes": 0
    },
    "performed_via_github_app": null
  },
  {
    "url": "https://api.github.com/repos/bitcoin/bitcoin/issues/comments/570451179",
    "html_url": "https://github.com/bitcoin/bitcoin/pull/17463#issuecomment-570451179",
    "issue_url": "https://api.github.com/repos/bitcoin/bitcoin/issues/17463",
    "id": 570451179,
    "node_id": "MDEyOklzc3VlQ29tbWVudDU3MDQ1MTE3OQ==",
    "user": {
      "login": "luke-jr",
      "id": 1095675,
      "node_id": "MDQ6VXNlcjEwOTU2NzU=",
      "avatar_url": "https://avatars.githubusercontent.com/u/1095675?v=4",
      "gravatar_id": "",
      "url": "https://api.github.com/users/luke-jr",
      "html_url": "https://github.com/luke-jr",
      "followers_url": "https://api.github.com/users/luke-jr/followers",
      "following_url": "https://api.github.com/users/luke-jr/following{/other_user}",
      "gists_url": "https://api.github.com/users/luke-jr/gists{/gist_id}",
      "starred_url": "https://api.github.com/users/luke-jr/starred{/owner}{/repo}",
      "subscriptions_url": "https://api.github.com/users/luke-jr/subscriptions",
      "organizations_url": "https://api.github.com/users/luke-jr/orgs",
      "repos_url": "https://api.github.com/users/luke-jr/repos",
      "events_url": "https://api.github.com/users/luke-jr/events{/privacy}",
      "received_events_url": "https://api.github.com/users/luke-jr/received_events",
      "type": "User",
      "site_admin": false
    },
    "created_at": "2020-01-03T03:43:04Z",
    "updated_at": "2020-01-03T03:43:04Z",
    "author_association": "MEMBER",
    "body_html": "<p dir=\"auto\">Rebased</p>",
    "body_text": "Rebased",
    "body": "Rebased",
    "reactions": {
      "url": "https://api.github.com/repos/bitcoin/bitcoin/issues/comments/570451179/reactions",
      "total_count": 1,
      "+1": 1,
      "-1": 0,
      "laugh": 0,
      "hooray": 0,
      "confused": 0,
      "heart": 0,
      "rocket": 0,
      "eyes": 0
    },
    "performed_via_github_app": null
  },
  {
    "url": "https://api.github.com/repos/bitcoin/bitcoin/issues/comments/570494813",
    "html_url": "https://github.com/bitcoin/bitcoin/pull/17463#issuecomment-570494813",
    "issue_url": "https://api.github.com/repos/bitcoin/bitcoin/issues/17463",
    "id": 570494813,
    "node_id": "MDEyOklzc3VlQ29tbWVudDU3MDQ5NDgxMw==",
    "user": {
      "login": "Sjors",
      "id": 10217,
      "node_id": "MDQ6VXNlcjEwMjE3",
      "avatar_url": "https://avatars.githubusercontent.com/u/10217?v=4",
      "gravatar_id": "",
      "url": "https://api.github.com/users/Sjors",
      "html_url": "https://github.com/Sjors",
      "followers_url": "https://api.github.com/users/Sjors/followers",
      "following_url": "https://api.github.com/users/Sjors/following{/other_user}",
      "gists_url": "https://api.github.com/users/Sjors/gists{/gist_id}",
      "starred_url": "https://api.github.com/users/Sjors/starred{/owner}{/repo}",
      "subscriptions_url": "https://api.github.com/users/Sjors/subscriptions",
      "organizations_url": "https://api.github.com/users/Sjors/orgs",
      "repos_url": "https://api.github.com/users/Sjors/repos",
      "events_url": "https://api.github.com/users/Sjors/events{/privacy}",
      "received_events_url": "https://api.github.com/users/Sjors/received_events",
      "type": "User",
      "site_admin": false
    },
    "created_at": "2020-01-03T07:57:42Z",
    "updated_at": "2020-01-03T07:57:59Z",
    "author_association": "MEMBER",
    "body_html": "<p dir=\"auto\">As <a class=\"user-mention notranslate\" data-hovercard-type=\"user\" data-hovercard-url=\"/users/gwillen/hovercard\" data-octo-click=\"hovercard-link-click\" data-octo-dimensions=\"link_type:self\" href=\"https://github.com/gwillen\">@gwillen</a> points out inline, I'm able to drop this entire code block with no visible change. At least not on macOS with QT 5.13.2:</p>\n<div class=\"highlight highlight-source-c++ notranslate position-relative overflow-auto\" dir=\"auto\" data-snippet-clipboard-copy-content=\"    // We need to ensure the buttons have Yes/No roles, or they'll get ordered weird\n    QAbstractButton * const cancel_button_obj = button(cancel_button);\n    removeButton(cancel_button_obj);\n    addButton(cancel_button_obj, QMessageBox::NoRole);\n    setEscapeButton(cancel_button_obj);\n    setDefaultButton(cancel_button);\"><pre class=\"notranslate\">    <span class=\"pl-c\"><span class=\"pl-c\">//</span> We need to ensure the buttons have Yes/No roles, or they'll get ordered weird</span>\n    QAbstractButton * <span class=\"pl-k\">const</span> cancel_button_obj = button(cancel_button);\n    <span class=\"pl-en\">removeButton</span>(cancel_button_obj);\n    <span class=\"pl-en\">addButton</span>(cancel_button_obj, QMessageBox::NoRole);\n    <span class=\"pl-en\">setEscapeButton</span>(cancel_button_obj);\n    <span class=\"pl-en\">setDefaultButton</span>(cancel_button);</pre></div>\n<p dir=\"auto\"><a target=\"_blank\" rel=\"noopener noreferrer nofollow\" href=\"https://user-images.githubusercontent.com/10217/71712726-85288a80-2e41-11ea-8347-35286599ed72.png\"><img width=\"345\" alt=\"Schermafbeelding 2020-01-03 om 15 51 27\" src=\"https://user-images.githubusercontent.com/10217/71712726-85288a80-2e41-11ea-8347-35286599ed72.png\" style=\"max-width: 100%;\"></a></p>\n<p dir=\"auto\">Otherwise <a class=\"commit-link\" data-hovercard-type=\"commit\" data-hovercard-url=\"https://github.com/bitcoin/bitcoin/commit/350234028786a139b7faf08655f27d97c9ff66e8/hovercard\" href=\"https://github.com/bitcoin/bitcoin/commit/350234028786a139b7faf08655f27d97c9ff66e8\"><tt>3502340</tt></a> looks good.</p>",
    "body_text": "As @gwillen points out inline, I'm able to drop this entire code block with no visible change. At least not on macOS with QT 5.13.2:\n    // We need to ensure the buttons have Yes/No roles, or they'll get ordered weird\n    QAbstractButton * const cancel_button_obj = button(cancel_button);\n    removeButton(cancel_button_obj);\n    addButton(cancel_button_obj, QMessageBox::NoRole);\n    setEscapeButton(cancel_button_obj);\n    setDefaultButton(cancel_button);\n\nOtherwise 3502340 looks good.",
    "body": "As @gwillen points out inline, I'm able to drop this entire code block with no visible change. At least not on macOS with QT 5.13.2:\r\n\r\n```cpp\r\n    // We need to ensure the buttons have Yes/No roles, or they'll get ordered weird\r\n    QAbstractButton * const cancel_button_obj = button(cancel_button);\r\n    removeButton(cancel_button_obj);\r\n    addButton(cancel_button_obj, QMessageBox::NoRole);\r\n    setEscapeButton(cancel_button_obj);\r\n    setDefaultButton(cancel_button);\r\n```\r\n\r\n<img width=\"345\" alt=\"Schermafbeelding 2020-01-03 om 15 51 27\" src=\"https://user-images.githubusercontent.com/10217/71712726-85288a80-2e41-11ea-8347-35286599ed72.png\">\r\n\r\nOtherwise 350234028786a139b7faf08655f27d97c9ff66e8 looks good.\r\n",
    "reactions": {
      "url": "https://api.github.com/repos/bitcoin/bitcoin/issues/comments/570494813/reactions",
      "total_count": 0,
      "+1": 0,
      "-1": 0,
      "laugh": 0,
      "hooray": 0,
      "confused": 0,
      "heart": 0,
      "rocket": 0,
      "eyes": 0
    },
    "performed_via_github_app": null
  },
  {
    "url": "https://api.github.com/repos/bitcoin/bitcoin/issues/comments/618236587",
    "html_url": "https://github.com/bitcoin/bitcoin/pull/17463#issuecomment-618236587",
    "issue_url": "https://api.github.com/repos/bitcoin/bitcoin/issues/17463",
    "id": 618236587,
    "node_id": "MDEyOklzc3VlQ29tbWVudDYxODIzNjU4Nw==",
    "user": {
      "login": "Sjors",
      "id": 10217,
      "node_id": "MDQ6VXNlcjEwMjE3",
      "avatar_url": "https://avatars.githubusercontent.com/u/10217?v=4",
      "gravatar_id": "",
      "url": "https://api.github.com/users/Sjors",
      "html_url": "https://github.com/Sjors",
      "followers_url": "https://api.github.com/users/Sjors/followers",
      "following_url": "https://api.github.com/users/Sjors/following{/other_user}",
      "gists_url": "https://api.github.com/users/Sjors/gists{/gist_id}",
      "starred_url": "https://api.github.com/users/Sjors/starred{/owner}{/repo}",
      "subscriptions_url": "https://api.github.com/users/Sjors/subscriptions",
      "organizations_url": "https://api.github.com/users/Sjors/orgs",
      "repos_url": "https://api.github.com/users/Sjors/repos",
      "events_url": "https://api.github.com/users/Sjors/events{/privacy}",
      "received_events_url": "https://api.github.com/users/Sjors/received_events",
      "type": "User",
      "site_admin": false
    },
    "created_at": "2020-04-23T07:41:05Z",
    "updated_at": "2020-04-23T07:41:05Z",
    "author_association": "MEMBER",
    "body_html": "<p dir=\"auto\">This needs a rebase now that <a class=\"issue-link js-issue-link\" data-error-text=\"Failed to load title\" data-id=\"524512473\" data-permission-text=\"Title is private\" data-url=\"https://github.com/bitcoin/bitcoin/issues/17509\" data-hovercard-type=\"pull_request\" data-hovercard-url=\"/bitcoin/bitcoin/pull/17509/hovercard\" href=\"https://github.com/bitcoin/bitcoin/pull/17509\">#17509</a> (Save / Load PSBT is merged).</p>",
    "body_text": "This needs a rebase now that #17509 (Save / Load PSBT is merged).",
    "body": "This needs a rebase now that #17509 (Save / Load PSBT is merged).",
    "reactions": {
      "url": "https://api.github.com/repos/bitcoin/bitcoin/issues/comments/618236587/reactions",
      "total_count": 0,
      "+1": 0,
      "-1": 0,
      "laugh": 0,
      "hooray": 0,
      "confused": 0,
      "heart": 0,
      "rocket": 0,
      "eyes": 0
    },
    "performed_via_github_app": null
  },
  {
    "url": "https://api.github.com/repos/bitcoin/bitcoin/issues/comments/651152025",
    "html_url": "https://github.com/bitcoin/bitcoin/pull/17463#issuecomment-651152025",
    "issue_url": "https://api.github.com/repos/bitcoin/bitcoin/issues/17463",
    "id": 651152025,
    "node_id": "MDEyOklzc3VlQ29tbWVudDY1MTE1MjAyNQ==",
    "user": {
      "login": "hebasto",
      "id": 32963518,
      "node_id": "MDQ6VXNlcjMyOTYzNTE4",
      "avatar_url": "https://avatars.githubusercontent.com/u/32963518?v=4",
      "gravatar_id": "",
      "url": "https://api.github.com/users/hebasto",
      "html_url": "https://github.com/hebasto",
      "followers_url": "https://api.github.com/users/hebasto/followers",
      "following_url": "https://api.github.com/users/hebasto/following{/other_user}",
      "gists_url": "https://api.github.com/users/hebasto/gists{/gist_id}",
      "starred_url": "https://api.github.com/users/hebasto/starred{/owner}{/repo}",
      "subscriptions_url": "https://api.github.com/users/hebasto/subscriptions",
      "organizations_url": "https://api.github.com/users/hebasto/orgs",
      "repos_url": "https://api.github.com/users/hebasto/repos",
      "events_url": "https://api.github.com/users/hebasto/events{/privacy}",
      "received_events_url": "https://api.github.com/users/hebasto/received_events",
      "type": "User",
      "site_admin": false
    },
    "created_at": "2020-06-29T14:17:57Z",
    "updated_at": "2020-06-29T14:17:57Z",
    "author_association": "MEMBER",
    "body_html": "<p dir=\"auto\">Approach ACK.</p>",
    "body_text": "Approach ACK.",
    "body": "Approach ACK.",
    "reactions": {
      "url": "https://api.github.com/repos/bitcoin/bitcoin/issues/comments/651152025/reactions",
      "total_count": 0,
      "+1": 0,
      "-1": 0,
      "laugh": 0,
      "hooray": 0,
      "confused": 0,
      "heart": 0,
      "rocket": 0,
      "eyes": 0
    },
    "performed_via_github_app": null
  },
  {
    "url": "https://api.github.com/repos/bitcoin/bitcoin/issues/comments/677825589",
    "html_url": "https://github.com/bitcoin/bitcoin/pull/17463#issuecomment-677825589",
    "issue_url": "https://api.github.com/repos/bitcoin/bitcoin/issues/17463",
    "id": 677825589,
    "node_id": "MDEyOklzc3VlQ29tbWVudDY3NzgyNTU4OQ==",
    "user": {
      "login": "luke-jr",
      "id": 1095675,
      "node_id": "MDQ6VXNlcjEwOTU2NzU=",
      "avatar_url": "https://avatars.githubusercontent.com/u/1095675?v=4",
      "gravatar_id": "",
      "url": "https://api.github.com/users/luke-jr",
      "html_url": "https://github.com/luke-jr",
      "followers_url": "https://api.github.com/users/luke-jr/followers",
      "following_url": "https://api.github.com/users/luke-jr/following{/other_user}",
      "gists_url": "https://api.github.com/users/luke-jr/gists{/gist_id}",
      "starred_url": "https://api.github.com/users/luke-jr/starred{/owner}{/repo}",
      "subscriptions_url": "https://api.github.com/users/luke-jr/subscriptions",
      "organizations_url": "https://api.github.com/users/luke-jr/orgs",
      "repos_url": "https://api.github.com/users/luke-jr/repos",
      "events_url": "https://api.github.com/users/luke-jr/events{/privacy}",
      "received_events_url": "https://api.github.com/users/luke-jr/received_events",
      "type": "User",
      "site_admin": false
    },
    "created_at": "2020-08-20T18:25:27Z",
    "updated_at": "2020-08-20T18:25:27Z",
    "author_association": "MEMBER",
    "body_html": "<p dir=\"auto\">Rebased</p>",
    "body_text": "Rebased",
    "body": "Rebased",
    "reactions": {
      "url": "https://api.github.com/repos/bitcoin/bitcoin/issues/comments/677825589/reactions",
      "total_count": 0,
      "+1": 0,
      "-1": 0,
      "laugh": 0,
      "hooray": 0,
      "confused": 0,
      "heart": 0,
      "rocket": 0,
      "eyes": 0
    },
    "performed_via_github_app": null
  },
  {
    "url": "https://api.github.com/repos/bitcoin/bitcoin/issues/comments/695206074",
    "html_url": "https://github.com/bitcoin/bitcoin/pull/17463#issuecomment-695206074",
    "issue_url": "https://api.github.com/repos/bitcoin/bitcoin/issues/17463",
    "id": 695206074,
    "node_id": "MDEyOklzc3VlQ29tbWVudDY5NTIwNjA3NA==",
    "user": {
      "login": "fanquake",
      "id": 863730,
      "node_id": "MDQ6VXNlcjg2MzczMA==",
      "avatar_url": "https://avatars.githubusercontent.com/u/863730?v=4",
      "gravatar_id": "",
      "url": "https://api.github.com/users/fanquake",
      "html_url": "https://github.com/fanquake",
      "followers_url": "https://api.github.com/users/fanquake/followers",
      "following_url": "https://api.github.com/users/fanquake/following{/other_user}",
      "gists_url": "https://api.github.com/users/fanquake/gists{/gist_id}",
      "starred_url": "https://api.github.com/users/fanquake/starred{/owner}{/repo}",
      "subscriptions_url": "https://api.github.com/users/fanquake/subscriptions",
      "organizations_url": "https://api.github.com/users/fanquake/orgs",
      "repos_url": "https://api.github.com/users/fanquake/repos",
      "events_url": "https://api.github.com/users/fanquake/events{/privacy}",
      "received_events_url": "https://api.github.com/users/fanquake/received_events",
      "type": "User",
      "site_admin": false
    },
    "created_at": "2020-09-19T12:15:45Z",
    "updated_at": "2020-09-19T12:15:45Z",
    "author_association": "MEMBER",
    "body_html": "<p dir=\"auto\">Let move this over to the <a href=\"https://github.com/bitcoin-core/gui\">GUI repo</a>.</p>",
    "body_text": "Let move this over to the GUI repo.",
    "body": "Let move this over to the [GUI repo](https://github.com/bitcoin-core/gui).",
    "reactions": {
      "url": "https://api.github.com/repos/bitcoin/bitcoin/issues/comments/695206074/reactions",
      "total_count": 0,
      "+1": 0,
      "-1": 0,
      "laugh": 0,
      "hooray": 0,
      "confused": 0,
      "heart": 0,
      "rocket": 0,
      "eyes": 0
    },
    "performed_via_github_app": null
  }
]
