{
  "url": "https://api.github.com/repos/bitcoin/bitcoin/issues/18279",
  "repository_url": "https://api.github.com/repos/bitcoin/bitcoin",
  "labels_url": "https://api.github.com/repos/bitcoin/bitcoin/issues/18279/labels{/name}",
  "comments_url": "https://api.github.com/repos/bitcoin/bitcoin/issues/18279/comments",
  "events_url": "https://api.github.com/repos/bitcoin/bitcoin/issues/18279/events",
  "html_url": "https://github.com/bitcoin/bitcoin/pull/18279",
  "id": 576970871,
  "node_id": "MDExOlB1bGxSZXF1ZXN0Mzg0ODUzMTY4",
  "number": 18279,
  "title": "Ensure wallet and chain tip are in sync",
  "user": {
    "login": "bvbfan",
    "id": 8323581,
    "node_id": "MDQ6VXNlcjgzMjM1ODE=",
    "avatar_url": "https://avatars.githubusercontent.com/u/8323581?v=4",
    "gravatar_id": "",
    "url": "https://api.github.com/users/bvbfan",
    "html_url": "https://github.com/bvbfan",
    "followers_url": "https://api.github.com/users/bvbfan/followers",
    "following_url": "https://api.github.com/users/bvbfan/following{/other_user}",
    "gists_url": "https://api.github.com/users/bvbfan/gists{/gist_id}",
    "starred_url": "https://api.github.com/users/bvbfan/starred{/owner}{/repo}",
    "subscriptions_url": "https://api.github.com/users/bvbfan/subscriptions",
    "organizations_url": "https://api.github.com/users/bvbfan/orgs",
    "repos_url": "https://api.github.com/users/bvbfan/repos",
    "events_url": "https://api.github.com/users/bvbfan/events{/privacy}",
    "received_events_url": "https://api.github.com/users/bvbfan/received_events",
    "type": "User",
    "site_admin": false
  },
  "labels": [
    {
      "id": 149424,
      "node_id": "MDU6TGFiZWwxNDk0MjQ=",
      "url": "https://api.github.com/repos/bitcoin/bitcoin/labels/Wallet",
      "name": "Wallet",
      "color": "08a781",
      "default": false,
      "description": null
    }
  ],
  "state": "closed",
  "locked": true,
  "assignee": null,
  "assignees": [

  ],
  "milestone": null,
  "comments": 13,
  "created_at": "2020-03-06T14:34:46Z",
  "updated_at": "2022-08-16T17:12:14Z",
  "closed_at": "2020-03-15T10:55:09Z",
  "author_association": "CONTRIBUTOR",
  "active_lock_reason": "resolved",
  "draft": false,
  "pull_request": {
    "url": "https://api.github.com/repos/bitcoin/bitcoin/pulls/18279",
    "html_url": "https://github.com/bitcoin/bitcoin/pull/18279",
    "diff_url": "https://github.com/bitcoin/bitcoin/pull/18279.diff",
    "patch_url": "https://github.com/bitcoin/bitcoin/pull/18279.patch",
    "merged_at": null
  },
  "body_html": "<p dir=\"auto\"><span class=\"issue-keyword tooltipped tooltipped-se\" aria-label=\"This pull request closes issue #16307.\">Fixes</span> <a class=\"issue-link js-issue-link\" data-error-text=\"Failed to load title\" data-id=\"462266890\" data-permission-text=\"Title is private\" data-url=\"https://github.com/bitcoin/bitcoin/issues/16307\" data-hovercard-type=\"issue\" data-hovercard-url=\"/bitcoin/bitcoin/issues/16307/hovercard\" href=\"https://github.com/bitcoin/bitcoin/issues/16307\">#16307</a></p>\n<p dir=\"auto\">Signed-off-by: Anthony Fieroni <a href=\"mailto:bvbfan@abv.bg\">bvbfan@abv.bg</a></p>\n\n\n",
  "body_text": "Fixes #16307\nSigned-off-by: Anthony Fieroni bvbfan@abv.bg",
  "body": "Fixes #16307\r\n\r\nSigned-off-by: Anthony Fieroni <bvbfan@abv.bg>\r\n\r\n<!--\r\n*** Please remove the following help text before submitting: ***\r\n\r\nPull requests without a rationale and clear improvement may be closed\r\nimmediately.\r\n-->\r\n\r\n<!--\r\nPlease provide clear motivation for your patch and explain how it improves\r\nBitcoin Core user experience or Bitcoin Core developer experience\r\nsignificantly:\r\n\r\n* Any test improvements or new tests that improve coverage are always welcome.\r\n* All other changes should have accompanying unit tests (see `src/test/`) or\r\n  functional tests (see `test/`). Contributors should note which tests cover\r\n  modified code. If no tests exist for a region of modified code, new tests\r\n  should accompany the change.\r\n* Bug fixes are most welcome when they come with steps to reproduce or an\r\n  explanation of the potential issue as well as reasoning for the way the bug\r\n  was fixed.\r\n* Features are welcome, but might be rejected due to design or scope issues.\r\n  If a feature is based on a lot of dependencies, contributors should first\r\n  consider building the system outside of Bitcoin Core, if possible.\r\n* Refactoring changes are only accepted if they are required for a feature or\r\n  bug fix or otherwise improve developer experience significantly. For example,\r\n  most \"code style\" refactoring changes require a thorough explanation why they\r\n  are useful, what downsides they have and why they *significantly* improve\r\n  developer experience or avoid serious programming bugs. Note that code style\r\n  is often a subjective matter. Unless they are explicitly mentioned to be\r\n  preferred in the [developer notes](/doc/developer-notes.md), stylistic code\r\n  changes are usually rejected.\r\n-->\r\n\r\n<!--\r\nBitcoin Core has a thorough review process and even the most trivial change\r\nneeds to pass a lot of eyes and requires non-zero or even substantial time\r\neffort to review. There is a huge lack of active reviewers on the project, so\r\npatches often sit for a long time.\r\n-->\r\n",
  "closed_by": {
    "login": "bvbfan",
    "id": 8323581,
    "node_id": "MDQ6VXNlcjgzMjM1ODE=",
    "avatar_url": "https://avatars.githubusercontent.com/u/8323581?v=4",
    "gravatar_id": "",
    "url": "https://api.github.com/users/bvbfan",
    "html_url": "https://github.com/bvbfan",
    "followers_url": "https://api.github.com/users/bvbfan/followers",
    "following_url": "https://api.github.com/users/bvbfan/following{/other_user}",
    "gists_url": "https://api.github.com/users/bvbfan/gists{/gist_id}",
    "starred_url": "https://api.github.com/users/bvbfan/starred{/owner}{/repo}",
    "subscriptions_url": "https://api.github.com/users/bvbfan/subscriptions",
    "organizations_url": "https://api.github.com/users/bvbfan/orgs",
    "repos_url": "https://api.github.com/users/bvbfan/repos",
    "events_url": "https://api.github.com/users/bvbfan/events{/privacy}",
    "received_events_url": "https://api.github.com/users/bvbfan/received_events",
    "type": "User",
    "site_admin": false
  },
  "reactions": {
    "url": "https://api.github.com/repos/bitcoin/bitcoin/issues/18279/reactions",
    "total_count": 0,
    "+1": 0,
    "-1": 0,
    "laugh": 0,
    "hooray": 0,
    "confused": 0,
    "heart": 0,
    "rocket": 0,
    "eyes": 0
  },
  "timeline_url": "https://api.github.com/repos/bitcoin/bitcoin/issues/18279/timeline",
  "performed_via_github_app": null,
  "state_reason": null
}
