[
  {
    "url": "https://api.github.com/repos/bitcoin/bitcoin/issues/comments/311035949",
    "html_url": "https://github.com/bitcoin/bitcoin/issues/10671#issuecomment-311035949",
    "issue_url": "https://api.github.com/repos/bitcoin/bitcoin/issues/10671",
    "id": 311035949,
    "node_id": "MDEyOklzc3VlQ29tbWVudDMxMTAzNTk0OQ==",
    "user": {
      "login": "ghost",
      "id": 10137,
      "node_id": "MDQ6VXNlcjEwMTM3",
      "avatar_url": "https://avatars.githubusercontent.com/u/10137?v=4",
      "gravatar_id": "",
      "url": "https://api.github.com/users/ghost",
      "html_url": "https://github.com/ghost",
      "followers_url": "https://api.github.com/users/ghost/followers",
      "following_url": "https://api.github.com/users/ghost/following{/other_user}",
      "gists_url": "https://api.github.com/users/ghost/gists{/gist_id}",
      "starred_url": "https://api.github.com/users/ghost/starred{/owner}{/repo}",
      "subscriptions_url": "https://api.github.com/users/ghost/subscriptions",
      "organizations_url": "https://api.github.com/users/ghost/orgs",
      "repos_url": "https://api.github.com/users/ghost/repos",
      "events_url": "https://api.github.com/users/ghost/events{/privacy}",
      "received_events_url": "https://api.github.com/users/ghost/received_events",
      "type": "User",
      "site_admin": false
    },
    "created_at": "2017-06-26T11:43:00Z",
    "updated_at": "2017-06-26T11:43:00Z",
    "author_association": "NONE",
    "body_html": "<p dir=\"auto\">They are at '15qG8zYoGJ5mzGCGuXwUpXc9RpTp8Hd9z5' which is likely to be a change address in your wallet. What seems to be the problem? If you don't see the balance, try doing a rescan.</p>",
    "body_text": "They are at '15qG8zYoGJ5mzGCGuXwUpXc9RpTp8Hd9z5' which is likely to be a change address in your wallet. What seems to be the problem? If you don't see the balance, try doing a rescan.",
    "body": "They are at '15qG8zYoGJ5mzGCGuXwUpXc9RpTp8Hd9z5' which is likely to be a change address in your wallet. What seems to be the problem? If you don't see the balance, try doing a rescan.",
    "reactions": {
      "url": "https://api.github.com/repos/bitcoin/bitcoin/issues/comments/311035949/reactions",
      "total_count": 2,
      "+1": 2,
      "-1": 0,
      "laugh": 0,
      "hooray": 0,
      "confused": 0,
      "heart": 0,
      "rocket": 0,
      "eyes": 0
    },
    "performed_via_github_app": null
  },
  {
    "url": "https://api.github.com/repos/bitcoin/bitcoin/issues/comments/311036660",
    "html_url": "https://github.com/bitcoin/bitcoin/issues/10671#issuecomment-311036660",
    "issue_url": "https://api.github.com/repos/bitcoin/bitcoin/issues/10671",
    "id": 311036660,
    "node_id": "MDEyOklzc3VlQ29tbWVudDMxMTAzNjY2MA==",
    "user": {
      "login": "Stasyanz",
      "id": 6417132,
      "node_id": "MDQ6VXNlcjY0MTcxMzI=",
      "avatar_url": "https://avatars.githubusercontent.com/u/6417132?v=4",
      "gravatar_id": "",
      "url": "https://api.github.com/users/Stasyanz",
      "html_url": "https://github.com/Stasyanz",
      "followers_url": "https://api.github.com/users/Stasyanz/followers",
      "following_url": "https://api.github.com/users/Stasyanz/following{/other_user}",
      "gists_url": "https://api.github.com/users/Stasyanz/gists{/gist_id}",
      "starred_url": "https://api.github.com/users/Stasyanz/starred{/owner}{/repo}",
      "subscriptions_url": "https://api.github.com/users/Stasyanz/subscriptions",
      "organizations_url": "https://api.github.com/users/Stasyanz/orgs",
      "repos_url": "https://api.github.com/users/Stasyanz/repos",
      "events_url": "https://api.github.com/users/Stasyanz/events{/privacy}",
      "received_events_url": "https://api.github.com/users/Stasyanz/received_events",
      "type": "User",
      "site_admin": false
    },
    "created_at": "2017-06-26T11:46:43Z",
    "updated_at": "2017-06-26T11:53:55Z",
    "author_association": "NONE",
    "body_html": "<p dir=\"auto\"><strong><em>what is rescan? I cant see 0.33 in my wallet. Cant see in blockchain.info too</em></strong></p>\n<p dir=\"auto\">trying..</p>",
    "body_text": "what is rescan? I cant see 0.33 in my wallet. Cant see in blockchain.info too\ntrying..",
    "body": "**_what is rescan? I cant see 0.33 in my wallet. Cant see in blockchain.info too_**\r\n\r\ntrying..",
    "reactions": {
      "url": "https://api.github.com/repos/bitcoin/bitcoin/issues/comments/311036660/reactions",
      "total_count": 0,
      "+1": 0,
      "-1": 0,
      "laugh": 0,
      "hooray": 0,
      "confused": 0,
      "heart": 0,
      "rocket": 0,
      "eyes": 0
    },
    "performed_via_github_app": null
  },
  {
    "url": "https://api.github.com/repos/bitcoin/bitcoin/issues/comments/311041011",
    "html_url": "https://github.com/bitcoin/bitcoin/issues/10671#issuecomment-311041011",
    "issue_url": "https://api.github.com/repos/bitcoin/bitcoin/issues/10671",
    "id": 311041011,
    "node_id": "MDEyOklzc3VlQ29tbWVudDMxMTA0MTAxMQ==",
    "user": {
      "login": "Stasyanz",
      "id": 6417132,
      "node_id": "MDQ6VXNlcjY0MTcxMzI=",
      "avatar_url": "https://avatars.githubusercontent.com/u/6417132?v=4",
      "gravatar_id": "",
      "url": "https://api.github.com/users/Stasyanz",
      "html_url": "https://github.com/Stasyanz",
      "followers_url": "https://api.github.com/users/Stasyanz/followers",
      "following_url": "https://api.github.com/users/Stasyanz/following{/other_user}",
      "gists_url": "https://api.github.com/users/Stasyanz/gists{/gist_id}",
      "starred_url": "https://api.github.com/users/Stasyanz/starred{/owner}{/repo}",
      "subscriptions_url": "https://api.github.com/users/Stasyanz/subscriptions",
      "organizations_url": "https://api.github.com/users/Stasyanz/orgs",
      "repos_url": "https://api.github.com/users/Stasyanz/repos",
      "events_url": "https://api.github.com/users/Stasyanz/events{/privacy}",
      "received_events_url": "https://api.github.com/users/Stasyanz/received_events",
      "type": "User",
      "site_admin": false
    },
    "created_at": "2017-06-26T12:09:11Z",
    "updated_at": "2017-06-26T12:09:11Z",
    "author_association": "NONE",
    "body_html": "<blockquote>\n<p dir=\"auto\">try doing a rescan.</p>\n</blockquote>\n<p dir=\"auto\">no result(</p>",
    "body_text": "try doing a rescan.\n\nno result(",
    "body": ">  try doing a rescan.\r\n\r\n\r\nno result(",
    "reactions": {
      "url": "https://api.github.com/repos/bitcoin/bitcoin/issues/comments/311041011/reactions",
      "total_count": 0,
      "+1": 0,
      "-1": 0,
      "laugh": 0,
      "hooray": 0,
      "confused": 0,
      "heart": 0,
      "rocket": 0,
      "eyes": 0
    },
    "performed_via_github_app": null
  },
  {
    "url": "https://api.github.com/repos/bitcoin/bitcoin/issues/comments/311165060",
    "html_url": "https://github.com/bitcoin/bitcoin/issues/10671#issuecomment-311165060",
    "issue_url": "https://api.github.com/repos/bitcoin/bitcoin/issues/10671",
    "id": 311165060,
    "node_id": "MDEyOklzc3VlQ29tbWVudDMxMTE2NTA2MA==",
    "user": {
      "login": "ghost",
      "id": 10137,
      "node_id": "MDQ6VXNlcjEwMTM3",
      "avatar_url": "https://avatars.githubusercontent.com/u/10137?v=4",
      "gravatar_id": "",
      "url": "https://api.github.com/users/ghost",
      "html_url": "https://github.com/ghost",
      "followers_url": "https://api.github.com/users/ghost/followers",
      "following_url": "https://api.github.com/users/ghost/following{/other_user}",
      "gists_url": "https://api.github.com/users/ghost/gists{/gist_id}",
      "starred_url": "https://api.github.com/users/ghost/starred{/owner}{/repo}",
      "subscriptions_url": "https://api.github.com/users/ghost/subscriptions",
      "organizations_url": "https://api.github.com/users/ghost/orgs",
      "repos_url": "https://api.github.com/users/ghost/repos",
      "events_url": "https://api.github.com/users/ghost/events{/privacy}",
      "received_events_url": "https://api.github.com/users/ghost/received_events",
      "type": "User",
      "site_admin": false
    },
    "created_at": "2017-06-26T19:58:15Z",
    "updated_at": "2017-06-26T19:58:15Z",
    "author_association": "NONE",
    "body_html": "<p dir=\"auto\">Are you sure? It seems spent now. <a href=\"https://blockchain.info/tx/3ee4ab1279a14ca62d49110f4c408374e792f9dae4e1668f617ceb9aa8ff027a\" rel=\"nofollow\">https://blockchain.info/tx/3ee4ab1279a14ca62d49110f4c408374e792f9dae4e1668f617ceb9aa8ff027a</a></p>\n<p dir=\"auto\">Rescan: <a href=\"https://bitcoin.stackexchange.com/questions/1249/how-exactly-does-rescan-work\" rel=\"nofollow\">https://bitcoin.stackexchange.com/questions/1249/how-exactly-does-rescan-work</a></p>",
    "body_text": "Are you sure? It seems spent now. https://blockchain.info/tx/3ee4ab1279a14ca62d49110f4c408374e792f9dae4e1668f617ceb9aa8ff027a\nRescan: https://bitcoin.stackexchange.com/questions/1249/how-exactly-does-rescan-work",
    "body": "Are you sure? It seems spent now. https://blockchain.info/tx/3ee4ab1279a14ca62d49110f4c408374e792f9dae4e1668f617ceb9aa8ff027a\r\n\r\nRescan: https://bitcoin.stackexchange.com/questions/1249/how-exactly-does-rescan-work",
    "reactions": {
      "url": "https://api.github.com/repos/bitcoin/bitcoin/issues/comments/311165060/reactions",
      "total_count": 0,
      "+1": 0,
      "-1": 0,
      "laugh": 0,
      "hooray": 0,
      "confused": 0,
      "heart": 0,
      "rocket": 0,
      "eyes": 0
    },
    "performed_via_github_app": null
  },
  {
    "url": "https://api.github.com/repos/bitcoin/bitcoin/issues/comments/311294157",
    "html_url": "https://github.com/bitcoin/bitcoin/issues/10671#issuecomment-311294157",
    "issue_url": "https://api.github.com/repos/bitcoin/bitcoin/issues/10671",
    "id": 311294157,
    "node_id": "MDEyOklzc3VlQ29tbWVudDMxMTI5NDE1Nw==",
    "user": {
      "login": "Stasyanz",
      "id": 6417132,
      "node_id": "MDQ6VXNlcjY0MTcxMzI=",
      "avatar_url": "https://avatars.githubusercontent.com/u/6417132?v=4",
      "gravatar_id": "",
      "url": "https://api.github.com/users/Stasyanz",
      "html_url": "https://github.com/Stasyanz",
      "followers_url": "https://api.github.com/users/Stasyanz/followers",
      "following_url": "https://api.github.com/users/Stasyanz/following{/other_user}",
      "gists_url": "https://api.github.com/users/Stasyanz/gists{/gist_id}",
      "starred_url": "https://api.github.com/users/Stasyanz/starred{/owner}{/repo}",
      "subscriptions_url": "https://api.github.com/users/Stasyanz/subscriptions",
      "organizations_url": "https://api.github.com/users/Stasyanz/orgs",
      "repos_url": "https://api.github.com/users/Stasyanz/repos",
      "events_url": "https://api.github.com/users/Stasyanz/events{/privacy}",
      "received_events_url": "https://api.github.com/users/Stasyanz/received_events",
      "type": "User",
      "site_admin": false
    },
    "created_at": "2017-06-27T08:46:21Z",
    "updated_at": "2017-06-27T08:46:51Z",
    "author_association": "NONE",
    "body_html": "<p dir=\"auto\">I've figured out.<br>\nI've spent from home btc core and couldnt see in my work btc core.<br>\nAs I came home I saw my change in my home wallet</p>\n<p dir=\"auto\">Work btc core is restored from home backup and that looks strange</p>",
    "body_text": "I've figured out.\nI've spent from home btc core and couldnt see in my work btc core.\nAs I came home I saw my change in my home wallet\nWork btc core is restored from home backup and that looks strange",
    "body": "I've figured out.\r\nI've spent from home btc core and couldnt see in my work btc core.\r\nAs I came home I saw my change in my home wallet\r\n\r\nWork btc core is restored from home backup and that looks strange",
    "reactions": {
      "url": "https://api.github.com/repos/bitcoin/bitcoin/issues/comments/311294157/reactions",
      "total_count": 0,
      "+1": 0,
      "-1": 0,
      "laugh": 0,
      "hooray": 0,
      "confused": 0,
      "heart": 0,
      "rocket": 0,
      "eyes": 0
    },
    "performed_via_github_app": null
  },
  {
    "url": "https://api.github.com/repos/bitcoin/bitcoin/issues/comments/311306042",
    "html_url": "https://github.com/bitcoin/bitcoin/issues/10671#issuecomment-311306042",
    "issue_url": "https://api.github.com/repos/bitcoin/bitcoin/issues/10671",
    "id": 311306042,
    "node_id": "MDEyOklzc3VlQ29tbWVudDMxMTMwNjA0Mg==",
    "user": {
      "login": "maflcko",
      "id": 6399679,
      "node_id": "MDQ6VXNlcjYzOTk2Nzk=",
      "avatar_url": "https://avatars.githubusercontent.com/u/6399679?v=4",
      "gravatar_id": "",
      "url": "https://api.github.com/users/maflcko",
      "html_url": "https://github.com/maflcko",
      "followers_url": "https://api.github.com/users/maflcko/followers",
      "following_url": "https://api.github.com/users/maflcko/following{/other_user}",
      "gists_url": "https://api.github.com/users/maflcko/gists{/gist_id}",
      "starred_url": "https://api.github.com/users/maflcko/starred{/owner}{/repo}",
      "subscriptions_url": "https://api.github.com/users/maflcko/subscriptions",
      "organizations_url": "https://api.github.com/users/maflcko/orgs",
      "repos_url": "https://api.github.com/users/maflcko/repos",
      "events_url": "https://api.github.com/users/maflcko/events{/privacy}",
      "received_events_url": "https://api.github.com/users/maflcko/received_events",
      "type": "User",
      "site_admin": false
    },
    "created_at": "2017-06-27T09:34:37Z",
    "updated_at": "2017-06-27T09:34:37Z",
    "author_association": "MEMBER",
    "body_html": "<p dir=\"auto\">Unfortunately, Bitcoin Core does not support sharing the wallet.dat file over multiple machines. This might lead to unexpected results or in rare cases to loss of funds if you don't know exactly what you are doing.</p>\n<p dir=\"auto\">Looks like this can be closed.</p>",
    "body_text": "Unfortunately, Bitcoin Core does not support sharing the wallet.dat file over multiple machines. This might lead to unexpected results or in rare cases to loss of funds if you don't know exactly what you are doing.\nLooks like this can be closed.",
    "body": "Unfortunately, Bitcoin Core does not support sharing the wallet.dat file over multiple machines. This might lead to unexpected results or in rare cases to loss of funds if you don't know exactly what you are doing.\r\n\r\nLooks like this can be closed.",
    "reactions": {
      "url": "https://api.github.com/repos/bitcoin/bitcoin/issues/comments/311306042/reactions",
      "total_count": 0,
      "+1": 0,
      "-1": 0,
      "laugh": 0,
      "hooray": 0,
      "confused": 0,
      "heart": 0,
      "rocket": 0,
      "eyes": 0
    },
    "performed_via_github_app": null
  }
]
