{
  "url": "https://api.github.com/repos/bitcoin/bitcoin/issues/11635",
  "repository_url": "https://api.github.com/repos/bitcoin/bitcoin",
  "labels_url": "https://api.github.com/repos/bitcoin/bitcoin/issues/11635/labels{/name}",
  "comments_url": "https://api.github.com/repos/bitcoin/bitcoin/issues/11635/comments",
  "events_url": "https://api.github.com/repos/bitcoin/bitcoin/issues/11635/events",
  "html_url": "https://github.com/bitcoin/bitcoin/pull/11635",
  "id": 272150443,
  "node_id": "MDExOlB1bGxSZXF1ZXN0MTUxMzQ2NjUz",
  "number": 11635,
  "title": "trivial: Fix typo – alreardy → already",
  "user": {
    "login": "practicalswift",
    "id": 7826565,
    "node_id": "MDQ6VXNlcjc4MjY1NjU=",
    "avatar_url": "https://avatars.githubusercontent.com/u/7826565?v=4",
    "gravatar_id": "",
    "url": "https://api.github.com/users/practicalswift",
    "html_url": "https://github.com/practicalswift",
    "followers_url": "https://api.github.com/users/practicalswift/followers",
    "following_url": "https://api.github.com/users/practicalswift/following{/other_user}",
    "gists_url": "https://api.github.com/users/practicalswift/gists{/gist_id}",
    "starred_url": "https://api.github.com/users/practicalswift/starred{/owner}{/repo}",
    "subscriptions_url": "https://api.github.com/users/practicalswift/subscriptions",
    "organizations_url": "https://api.github.com/users/practicalswift/orgs",
    "repos_url": "https://api.github.com/users/practicalswift/repos",
    "events_url": "https://api.github.com/users/practicalswift/events{/privacy}",
    "received_events_url": "https://api.github.com/users/practicalswift/received_events",
    "type": "User",
    "site_admin": false
  },
  "labels": [
    {
      "id": 148216,
      "node_id": "MDU6TGFiZWwxNDgyMTY=",
      "url": "https://api.github.com/repos/bitcoin/bitcoin/labels/Docs",
      "name": "Docs",
      "color": "02d7e1",
      "default": false,
      "description": null
    }
  ],
  "state": "closed",
  "locked": true,
  "assignee": null,
  "assignees": [

  ],
  "milestone": null,
  "comments": 4,
  "created_at": "2017-11-08T10:37:25Z",
  "updated_at": "2022-08-16T17:15:42Z",
  "closed_at": "2017-11-08T18:07:42Z",
  "author_association": "CONTRIBUTOR",
  "active_lock_reason": "resolved",
  "draft": false,
  "pull_request": {
    "url": "https://api.github.com/repos/bitcoin/bitcoin/pulls/11635",
    "html_url": "https://github.com/bitcoin/bitcoin/pull/11635",
    "diff_url": "https://github.com/bitcoin/bitcoin/pull/11635.diff",
    "patch_url": "https://github.com/bitcoin/bitcoin/pull/11635.patch",
    "merged_at": "2017-11-08T18:07:42Z"
  },
  "body_html": "<p dir=\"auto\">Fix typo: alreardy → already.</p>",
  "body_text": "Fix typo: alreardy → already.",
  "body": "Fix typo: alreardy → already.",
  "closed_by": {
    "login": "maflcko",
    "id": 6399679,
    "node_id": "MDQ6VXNlcjYzOTk2Nzk=",
    "avatar_url": "https://avatars.githubusercontent.com/u/6399679?v=4",
    "gravatar_id": "",
    "url": "https://api.github.com/users/maflcko",
    "html_url": "https://github.com/maflcko",
    "followers_url": "https://api.github.com/users/maflcko/followers",
    "following_url": "https://api.github.com/users/maflcko/following{/other_user}",
    "gists_url": "https://api.github.com/users/maflcko/gists{/gist_id}",
    "starred_url": "https://api.github.com/users/maflcko/starred{/owner}{/repo}",
    "subscriptions_url": "https://api.github.com/users/maflcko/subscriptions",
    "organizations_url": "https://api.github.com/users/maflcko/orgs",
    "repos_url": "https://api.github.com/users/maflcko/repos",
    "events_url": "https://api.github.com/users/maflcko/events{/privacy}",
    "received_events_url": "https://api.github.com/users/maflcko/received_events",
    "type": "User",
    "site_admin": false
  },
  "reactions": {
    "url": "https://api.github.com/repos/bitcoin/bitcoin/issues/11635/reactions",
    "total_count": 0,
    "+1": 0,
    "-1": 0,
    "laugh": 0,
    "hooray": 0,
    "confused": 0,
    "heart": 0,
    "rocket": 0,
    "eyes": 0
  },
  "timeline_url": "https://api.github.com/repos/bitcoin/bitcoin/issues/11635/timeline",
  "performed_via_github_app": null,
  "state_reason": null
}
