[
  {
    "url": "https://api.github.com/repos/bitcoin/bitcoin/issues/comments/6383261",
    "html_url": "https://github.com/bitcoin/bitcoin/pull/1475#issuecomment-6383261",
    "issue_url": "https://api.github.com/repos/bitcoin/bitcoin/issues/1475",
    "id": 6383261,
    "node_id": "MDEyOklzc3VlQ29tbWVudDYzODMyNjE=",
    "user": {
      "login": "burger2",
      "id": 1719626,
      "node_id": "MDQ6VXNlcjE3MTk2MjY=",
      "avatar_url": "https://avatars.githubusercontent.com/u/1719626?v=4",
      "gravatar_id": "",
      "url": "https://api.github.com/users/burger2",
      "html_url": "https://github.com/burger2",
      "followers_url": "https://api.github.com/users/burger2/followers",
      "following_url": "https://api.github.com/users/burger2/following{/other_user}",
      "gists_url": "https://api.github.com/users/burger2/gists{/gist_id}",
      "starred_url": "https://api.github.com/users/burger2/starred{/owner}{/repo}",
      "subscriptions_url": "https://api.github.com/users/burger2/subscriptions",
      "organizations_url": "https://api.github.com/users/burger2/orgs",
      "repos_url": "https://api.github.com/users/burger2/repos",
      "events_url": "https://api.github.com/users/burger2/events{/privacy}",
      "received_events_url": "https://api.github.com/users/burger2/received_events",
      "type": "User",
      "site_admin": false
    },
    "created_at": "2012-06-17T18:07:19Z",
    "updated_at": "2012-06-17T18:07:19Z",
    "author_association": "CONTRIBUTOR",
    "body_html": "<p dir=\"auto\">It's hard to test when testnet isn't working that good on my computer.</p>",
    "body_text": "It's hard to test when testnet isn't working that good on my computer.",
    "body": "It's hard to test when testnet isn't working that good on my computer.\n",
    "reactions": {
      "url": "https://api.github.com/repos/bitcoin/bitcoin/issues/comments/6383261/reactions",
      "total_count": 0,
      "+1": 0,
      "-1": 0,
      "laugh": 0,
      "hooray": 0,
      "confused": 0,
      "heart": 0,
      "rocket": 0,
      "eyes": 0
    },
    "performed_via_github_app": null
  },
  {
    "url": "https://api.github.com/repos/bitcoin/bitcoin/issues/comments/6383517",
    "html_url": "https://github.com/bitcoin/bitcoin/pull/1475#issuecomment-6383517",
    "issue_url": "https://api.github.com/repos/bitcoin/bitcoin/issues/1475",
    "id": 6383517,
    "node_id": "MDEyOklzc3VlQ29tbWVudDYzODM1MTc=",
    "user": {
      "login": "laanwj",
      "id": 126646,
      "node_id": "MDQ6VXNlcjEyNjY0Ng==",
      "avatar_url": "https://avatars.githubusercontent.com/u/126646?v=4",
      "gravatar_id": "",
      "url": "https://api.github.com/users/laanwj",
      "html_url": "https://github.com/laanwj",
      "followers_url": "https://api.github.com/users/laanwj/followers",
      "following_url": "https://api.github.com/users/laanwj/following{/other_user}",
      "gists_url": "https://api.github.com/users/laanwj/gists{/gist_id}",
      "starred_url": "https://api.github.com/users/laanwj/starred{/owner}{/repo}",
      "subscriptions_url": "https://api.github.com/users/laanwj/subscriptions",
      "organizations_url": "https://api.github.com/users/laanwj/orgs",
      "repos_url": "https://api.github.com/users/laanwj/repos",
      "events_url": "https://api.github.com/users/laanwj/events{/privacy}",
      "received_events_url": "https://api.github.com/users/laanwj/received_events",
      "type": "User",
      "site_admin": false
    },
    "created_at": "2012-06-17T18:34:42Z",
    "updated_at": "2012-06-17T18:34:42Z",
    "author_association": "MEMBER",
    "body_html": "<p dir=\"auto\">I don't think this is the right solution. The view classes (Overviewpage, SendCoinsDialog, ...) should not be burdened with implementation details such as new blocks coming in. As I understand, there is a problem with WalletModel not sending the BalanceUpdated signal every time the Balance changes. Hence, this should be fixed in WalletModel.</p>\n<p dir=\"auto\">The problem seems to be that some kind of transactions (the \"mined\" ones) need to be baby-sitted for at least 120 blocks until they mature (normal transactions for 6, but this is correctly handled). However, re-computing the balance and updating the UI every time a block comes in also isn't a good solution as this may go very fast. This needs a timer (invoked only a few times per second) that recomputes the balance and issues a BalanceChanged signal if needed...</p>\n<p dir=\"auto\">Tangential: Can you try to keep 1) changes in which you rename all kinds of stuff and 2) functional changes separate? Mixing these makes it very hard to review code changes. Commits of type 1 can be verbose, whereas commits of type 2 should be as minimal as possible, especially if you make changes to the core as well as the UI.</p>",
    "body_text": "I don't think this is the right solution. The view classes (Overviewpage, SendCoinsDialog, ...) should not be burdened with implementation details such as new blocks coming in. As I understand, there is a problem with WalletModel not sending the BalanceUpdated signal every time the Balance changes. Hence, this should be fixed in WalletModel.\nThe problem seems to be that some kind of transactions (the \"mined\" ones) need to be baby-sitted for at least 120 blocks until they mature (normal transactions for 6, but this is correctly handled). However, re-computing the balance and updating the UI every time a block comes in also isn't a good solution as this may go very fast. This needs a timer (invoked only a few times per second) that recomputes the balance and issues a BalanceChanged signal if needed...\nTangential: Can you try to keep 1) changes in which you rename all kinds of stuff and 2) functional changes separate? Mixing these makes it very hard to review code changes. Commits of type 1 can be verbose, whereas commits of type 2 should be as minimal as possible, especially if you make changes to the core as well as the UI.",
    "body": "I don't think this is the right solution. The view classes (Overviewpage, SendCoinsDialog, ...) should not be burdened with implementation details such as new blocks coming in. As I understand, there is a problem with WalletModel not sending the BalanceUpdated signal every time the Balance changes. Hence, this should be fixed in WalletModel.\n\nThe problem seems to be that some kind of transactions (the \"mined\" ones) need to be baby-sitted for at least 120 blocks until they mature (normal transactions for 6, but this is correctly handled). However, re-computing the balance and updating the UI every time a block comes in also isn't a good solution as this may go very fast. This needs a timer (invoked only a few times per second) that recomputes the balance and issues a BalanceChanged signal if needed...\n\nTangential: Can you try to keep 1) changes in which you rename all kinds of stuff and 2) functional changes separate? Mixing these makes it very hard to review code changes. Commits of type 1 can be verbose, whereas commits of type 2 should be as minimal as possible, especially if you make changes to the core as well as the UI.\n",
    "reactions": {
      "url": "https://api.github.com/repos/bitcoin/bitcoin/issues/comments/6383517/reactions",
      "total_count": 0,
      "+1": 0,
      "-1": 0,
      "laugh": 0,
      "hooray": 0,
      "confused": 0,
      "heart": 0,
      "rocket": 0,
      "eyes": 0
    },
    "performed_via_github_app": null
  },
  {
    "url": "https://api.github.com/repos/bitcoin/bitcoin/issues/comments/6384053",
    "html_url": "https://github.com/bitcoin/bitcoin/pull/1475#issuecomment-6384053",
    "issue_url": "https://api.github.com/repos/bitcoin/bitcoin/issues/1475",
    "id": 6384053,
    "node_id": "MDEyOklzc3VlQ29tbWVudDYzODQwNTM=",
    "user": {
      "login": "Diapolo",
      "id": 1419649,
      "node_id": "MDQ6VXNlcjE0MTk2NDk=",
      "avatar_url": "https://avatars.githubusercontent.com/u/1419649?v=4",
      "gravatar_id": "",
      "url": "https://api.github.com/users/Diapolo",
      "html_url": "https://github.com/Diapolo",
      "followers_url": "https://api.github.com/users/Diapolo/followers",
      "following_url": "https://api.github.com/users/Diapolo/following{/other_user}",
      "gists_url": "https://api.github.com/users/Diapolo/gists{/gist_id}",
      "starred_url": "https://api.github.com/users/Diapolo/starred{/owner}{/repo}",
      "subscriptions_url": "https://api.github.com/users/Diapolo/subscriptions",
      "organizations_url": "https://api.github.com/users/Diapolo/orgs",
      "repos_url": "https://api.github.com/users/Diapolo/repos",
      "events_url": "https://api.github.com/users/Diapolo/events{/privacy}",
      "received_events_url": "https://api.github.com/users/Diapolo/received_events",
      "type": "User",
      "site_admin": false
    },
    "created_at": "2012-06-17T19:41:55Z",
    "updated_at": "2012-06-17T19:41:55Z",
    "author_association": "NONE",
    "body_html": "<p dir=\"auto\"><a class=\"user-mention notranslate\" data-hovercard-type=\"user\" data-hovercard-url=\"/users/burger2/hovercard\" data-octo-click=\"hovercard-link-click\" data-octo-dimensions=\"link_type:self\" href=\"https://github.com/burger2\">@burger2</a> To fix your testnet problems try out <a class=\"issue-link js-issue-link\" data-error-text=\"Failed to load title\" data-id=\"5112952\" data-permission-text=\"Title is private\" data-url=\"https://github.com/bitcoin/bitcoin/issues/1477\" data-hovercard-type=\"pull_request\" data-hovercard-url=\"/bitcoin/bitcoin/pull/1477/hovercard\" href=\"https://github.com/bitcoin/bitcoin/pull/1477\">#1477</a>. Current master has a bug, which gives all testnet nodes on IRC the same NICK, which causes the current testnet3 troubles.</p>\n<p dir=\"auto\"><a class=\"user-mention notranslate\" data-hovercard-type=\"user\" data-hovercard-url=\"/users/laanwj/hovercard\" data-octo-click=\"hovercard-link-click\" data-octo-dimensions=\"link_type:self\" href=\"https://github.com/laanwj\">@laanwj</a> I think the immature balance, which then matures after 120 blocks is not taken correctly into account in terms of the <code class=\"notranslate\">balanceChanged</code> signal. The state change from immature to mature, which also changes the current balance then, is not triggered by a transaction, so the emited <code class=\"notranslate\">balanceChanged</code> signal in <code class=\"notranslate\">WalletModel::updateTransaction()</code> does not help here. That's why I introduced a mechanism, which uses block-changes for this. If you have a cleaner / better idea I'm fine with a simpler patch :). The re-name was a logical thing for me here, because there are now 2 models in overviepage and sendcoinsdialog, so only e.g. <code class=\"notranslate\">setModel</code> is missleading. I guess a timer is not needed if I add a check for <code class=\"notranslate\">IsInitialBlockDownload()</code> in the code, as with a catched-up chain the processing won't happen that often.</p>",
    "body_text": "@burger2 To fix your testnet problems try out #1477. Current master has a bug, which gives all testnet nodes on IRC the same NICK, which causes the current testnet3 troubles.\n@laanwj I think the immature balance, which then matures after 120 blocks is not taken correctly into account in terms of the balanceChanged signal. The state change from immature to mature, which also changes the current balance then, is not triggered by a transaction, so the emited balanceChanged signal in WalletModel::updateTransaction() does not help here. That's why I introduced a mechanism, which uses block-changes for this. If you have a cleaner / better idea I'm fine with a simpler patch :). The re-name was a logical thing for me here, because there are now 2 models in overviepage and sendcoinsdialog, so only e.g. setModel is missleading. I guess a timer is not needed if I add a check for IsInitialBlockDownload() in the code, as with a catched-up chain the processing won't happen that often.",
    "body": "@burger2 To fix your testnet problems try out #1477. Current master has a bug, which gives all testnet nodes on IRC the same NICK, which causes the current testnet3 troubles.\n\n@laanwj I think the immature balance, which then matures after 120 blocks is not taken correctly into account in terms of the `balanceChanged` signal. The state change from immature to mature, which also changes the current balance then, is not triggered by a transaction, so the emited `balanceChanged` signal in `WalletModel::updateTransaction()` does not help here. That's why I introduced a mechanism, which uses block-changes for this. If you have a cleaner / better idea I'm fine with a simpler patch :). The re-name was a logical thing for me here, because there are now 2 models in overviepage and sendcoinsdialog, so only e.g. `setModel` is missleading. I guess a timer is not needed if I add a check for `IsInitialBlockDownload()` in the code, as with a catched-up chain the processing won't happen that often.\n",
    "reactions": {
      "url": "https://api.github.com/repos/bitcoin/bitcoin/issues/comments/6384053/reactions",
      "total_count": 0,
      "+1": 0,
      "-1": 0,
      "laugh": 0,
      "hooray": 0,
      "confused": 0,
      "heart": 0,
      "rocket": 0,
      "eyes": 0
    },
    "performed_via_github_app": null
  },
  {
    "url": "https://api.github.com/repos/bitcoin/bitcoin/issues/comments/6384124",
    "html_url": "https://github.com/bitcoin/bitcoin/pull/1475#issuecomment-6384124",
    "issue_url": "https://api.github.com/repos/bitcoin/bitcoin/issues/1475",
    "id": 6384124,
    "node_id": "MDEyOklzc3VlQ29tbWVudDYzODQxMjQ=",
    "user": {
      "login": "laanwj",
      "id": 126646,
      "node_id": "MDQ6VXNlcjEyNjY0Ng==",
      "avatar_url": "https://avatars.githubusercontent.com/u/126646?v=4",
      "gravatar_id": "",
      "url": "https://api.github.com/users/laanwj",
      "html_url": "https://github.com/laanwj",
      "followers_url": "https://api.github.com/users/laanwj/followers",
      "following_url": "https://api.github.com/users/laanwj/following{/other_user}",
      "gists_url": "https://api.github.com/users/laanwj/gists{/gist_id}",
      "starred_url": "https://api.github.com/users/laanwj/starred{/owner}{/repo}",
      "subscriptions_url": "https://api.github.com/users/laanwj/subscriptions",
      "organizations_url": "https://api.github.com/users/laanwj/orgs",
      "repos_url": "https://api.github.com/users/laanwj/repos",
      "events_url": "https://api.github.com/users/laanwj/events{/privacy}",
      "received_events_url": "https://api.github.com/users/laanwj/received_events",
      "type": "User",
      "site_admin": false
    },
    "created_at": "2012-06-17T19:51:05Z",
    "updated_at": "2012-06-17T19:51:05Z",
    "author_association": "MEMBER",
    "body_html": "<p dir=\"auto\">Yes, I'm going to implement this differently. This should really be restricted to WalletModel. It's indeed true that the balanceChanged signal in updateTransaction does not help here, but it could be emitted from different places as well. Having a non-functional balanceChanged signal and working around that means confusion for future updates, you should simply be able to connect to balanceChanged and have the most recent balance.</p>\n<p dir=\"auto\">Then, OverviewPage and SendcoinsDialog don't need the client model and everything there can be kept the same.</p>",
    "body_text": "Yes, I'm going to implement this differently. This should really be restricted to WalletModel. It's indeed true that the balanceChanged signal in updateTransaction does not help here, but it could be emitted from different places as well. Having a non-functional balanceChanged signal and working around that means confusion for future updates, you should simply be able to connect to balanceChanged and have the most recent balance.\nThen, OverviewPage and SendcoinsDialog don't need the client model and everything there can be kept the same.",
    "body": "Yes, I'm going to implement this differently. This should really be restricted to WalletModel. It's indeed true that the balanceChanged signal in updateTransaction does not help here, but it could be emitted from different places as well. Having a non-functional balanceChanged signal and working around that means confusion for future updates, you should simply be able to connect to balanceChanged and have the most recent balance.\n\nThen, OverviewPage and SendcoinsDialog don't need the client model and everything there can be kept the same. \n",
    "reactions": {
      "url": "https://api.github.com/repos/bitcoin/bitcoin/issues/comments/6384124/reactions",
      "total_count": 0,
      "+1": 0,
      "-1": 0,
      "laugh": 0,
      "hooray": 0,
      "confused": 0,
      "heart": 0,
      "rocket": 0,
      "eyes": 0
    },
    "performed_via_github_app": null
  },
  {
    "url": "https://api.github.com/repos/bitcoin/bitcoin/issues/comments/6384590",
    "html_url": "https://github.com/bitcoin/bitcoin/pull/1475#issuecomment-6384590",
    "issue_url": "https://api.github.com/repos/bitcoin/bitcoin/issues/1475",
    "id": 6384590,
    "node_id": "MDEyOklzc3VlQ29tbWVudDYzODQ1OTA=",
    "user": {
      "login": "Diapolo",
      "id": 1419649,
      "node_id": "MDQ6VXNlcjE0MTk2NDk=",
      "avatar_url": "https://avatars.githubusercontent.com/u/1419649?v=4",
      "gravatar_id": "",
      "url": "https://api.github.com/users/Diapolo",
      "html_url": "https://github.com/Diapolo",
      "followers_url": "https://api.github.com/users/Diapolo/followers",
      "following_url": "https://api.github.com/users/Diapolo/following{/other_user}",
      "gists_url": "https://api.github.com/users/Diapolo/gists{/gist_id}",
      "starred_url": "https://api.github.com/users/Diapolo/starred{/owner}{/repo}",
      "subscriptions_url": "https://api.github.com/users/Diapolo/subscriptions",
      "organizations_url": "https://api.github.com/users/Diapolo/orgs",
      "repos_url": "https://api.github.com/users/Diapolo/repos",
      "events_url": "https://api.github.com/users/Diapolo/events{/privacy}",
      "received_events_url": "https://api.github.com/users/Diapolo/received_events",
      "type": "User",
      "site_admin": false
    },
    "created_at": "2012-06-17T20:50:45Z",
    "updated_at": "2012-06-17T20:50:45Z",
    "author_association": "NONE",
    "body_html": "<p dir=\"auto\">That's fine, if you are currently working on a patch I'm going to stop further progress here. What about the changes to wallet and walletmodel? I'll quote myself:</p>\n<p dir=\"auto\">I'm sure the current call to GetCredit(pcoin) can't be correct, as it does:</p>\n<pre class=\"notranslate\">if (IsCoinBase() &amp;&amp; GetBlocksToMaturity() &gt; 0)\n            return 0;\n</pre>\n<p dir=\"auto\">And this is the opposite of what we need for the immature coins, right?</p>",
    "body_text": "That's fine, if you are currently working on a patch I'm going to stop further progress here. What about the changes to wallet and walletmodel? I'll quote myself:\nI'm sure the current call to GetCredit(pcoin) can't be correct, as it does:\nif (IsCoinBase() && GetBlocksToMaturity() > 0)\n            return 0;\n\nAnd this is the opposite of what we need for the immature coins, right?",
    "body": "That's fine, if you are currently working on a patch I'm going to stop further progress here. What about the changes to wallet and walletmodel? I'll quote myself:\n\nI'm sure the current call to GetCredit(pcoin) can't be correct, as it does:\n\n<pre>\nif (IsCoinBase() && GetBlocksToMaturity() > 0)\n            return 0;\n</pre>\n\n\nAnd this is the opposite of what we need for the immature coins, right?\n",
    "reactions": {
      "url": "https://api.github.com/repos/bitcoin/bitcoin/issues/comments/6384590/reactions",
      "total_count": 0,
      "+1": 0,
      "-1": 0,
      "laugh": 0,
      "hooray": 0,
      "confused": 0,
      "heart": 0,
      "rocket": 0,
      "eyes": 0
    },
    "performed_via_github_app": null
  },
  {
    "url": "https://api.github.com/repos/bitcoin/bitcoin/issues/comments/6384732",
    "html_url": "https://github.com/bitcoin/bitcoin/pull/1475#issuecomment-6384732",
    "issue_url": "https://api.github.com/repos/bitcoin/bitcoin/issues/1475",
    "id": 6384732,
    "node_id": "MDEyOklzc3VlQ29tbWVudDYzODQ3MzI=",
    "user": {
      "login": "laanwj",
      "id": 126646,
      "node_id": "MDQ6VXNlcjEyNjY0Ng==",
      "avatar_url": "https://avatars.githubusercontent.com/u/126646?v=4",
      "gravatar_id": "",
      "url": "https://api.github.com/users/laanwj",
      "html_url": "https://github.com/laanwj",
      "followers_url": "https://api.github.com/users/laanwj/followers",
      "following_url": "https://api.github.com/users/laanwj/following{/other_user}",
      "gists_url": "https://api.github.com/users/laanwj/gists{/gist_id}",
      "starred_url": "https://api.github.com/users/laanwj/starred{/owner}{/repo}",
      "subscriptions_url": "https://api.github.com/users/laanwj/subscriptions",
      "organizations_url": "https://api.github.com/users/laanwj/orgs",
      "repos_url": "https://api.github.com/users/laanwj/repos",
      "events_url": "https://api.github.com/users/laanwj/events{/privacy}",
      "received_events_url": "https://api.github.com/users/laanwj/received_events",
      "type": "User",
      "site_admin": false
    },
    "created_at": "2012-06-17T21:02:30Z",
    "updated_at": "2012-06-17T21:02:30Z",
    "author_association": "MEMBER",
    "body_html": "<p dir=\"auto\">I'm not particularly known with that part of the code, but what do you think is wrong? To me, it reads like<br>\n\"If this is a coin-base (mined), <em>and</em> there are more than 0 blocks left to maturity, the credit is 0\". Which makes sense to me.</p>",
    "body_text": "I'm not particularly known with that part of the code, but what do you think is wrong? To me, it reads like\n\"If this is a coin-base (mined), and there are more than 0 blocks left to maturity, the credit is 0\". Which makes sense to me.",
    "body": "I'm not particularly known with that part of the code, but what do you think is wrong? To me, it reads like\n\"If this is a coin-base (mined), _and_ there are more than 0 blocks left to maturity, the credit is 0\". Which makes sense to me.\n",
    "reactions": {
      "url": "https://api.github.com/repos/bitcoin/bitcoin/issues/comments/6384732/reactions",
      "total_count": 0,
      "+1": 0,
      "-1": 0,
      "laugh": 0,
      "hooray": 0,
      "confused": 0,
      "heart": 0,
      "rocket": 0,
      "eyes": 0
    },
    "performed_via_github_app": null
  },
  {
    "url": "https://api.github.com/repos/bitcoin/bitcoin/issues/comments/6384806",
    "html_url": "https://github.com/bitcoin/bitcoin/pull/1475#issuecomment-6384806",
    "issue_url": "https://api.github.com/repos/bitcoin/bitcoin/issues/1475",
    "id": 6384806,
    "node_id": "MDEyOklzc3VlQ29tbWVudDYzODQ4MDY=",
    "user": {
      "login": "Diapolo",
      "id": 1419649,
      "node_id": "MDQ6VXNlcjE0MTk2NDk=",
      "avatar_url": "https://avatars.githubusercontent.com/u/1419649?v=4",
      "gravatar_id": "",
      "url": "https://api.github.com/users/Diapolo",
      "html_url": "https://github.com/Diapolo",
      "followers_url": "https://api.github.com/users/Diapolo/followers",
      "following_url": "https://api.github.com/users/Diapolo/following{/other_user}",
      "gists_url": "https://api.github.com/users/Diapolo/gists{/gist_id}",
      "starred_url": "https://api.github.com/users/Diapolo/starred{/owner}{/repo}",
      "subscriptions_url": "https://api.github.com/users/Diapolo/subscriptions",
      "organizations_url": "https://api.github.com/users/Diapolo/orgs",
      "repos_url": "https://api.github.com/users/Diapolo/repos",
      "events_url": "https://api.github.com/users/Diapolo/events{/privacy}",
      "received_events_url": "https://api.github.com/users/Diapolo/received_events",
      "type": "User",
      "site_admin": false
    },
    "created_at": "2012-06-17T21:09:19Z",
    "updated_at": "2012-06-17T21:13:12Z",
    "author_association": "NONE",
    "body_html": "<p dir=\"auto\">It does a <code class=\"notranslate\">return 0;</code> for the conditions we want to be true for adding immature coins together. Need to double check...</p>",
    "body_text": "It does a return 0; for the conditions we want to be true for adding immature coins together. Need to double check...",
    "body": "It does a `return 0;` for the conditions we want to be true for adding immature coins together. Need to double check...\n",
    "reactions": {
      "url": "https://api.github.com/repos/bitcoin/bitcoin/issues/comments/6384806/reactions",
      "total_count": 0,
      "+1": 0,
      "-1": 0,
      "laugh": 0,
      "hooray": 0,
      "confused": 0,
      "heart": 0,
      "rocket": 0,
      "eyes": 0
    },
    "performed_via_github_app": null
  },
  {
    "url": "https://api.github.com/repos/bitcoin/bitcoin/issues/comments/6384909",
    "html_url": "https://github.com/bitcoin/bitcoin/pull/1475#issuecomment-6384909",
    "issue_url": "https://api.github.com/repos/bitcoin/bitcoin/issues/1475",
    "id": 6384909,
    "node_id": "MDEyOklzc3VlQ29tbWVudDYzODQ5MDk=",
    "user": {
      "login": "Diapolo",
      "id": 1419649,
      "node_id": "MDQ6VXNlcjE0MTk2NDk=",
      "avatar_url": "https://avatars.githubusercontent.com/u/1419649?v=4",
      "gravatar_id": "",
      "url": "https://api.github.com/users/Diapolo",
      "html_url": "https://github.com/Diapolo",
      "followers_url": "https://api.github.com/users/Diapolo/followers",
      "following_url": "https://api.github.com/users/Diapolo/following{/other_user}",
      "gists_url": "https://api.github.com/users/Diapolo/gists{/gist_id}",
      "starred_url": "https://api.github.com/users/Diapolo/starred{/owner}{/repo}",
      "subscriptions_url": "https://api.github.com/users/Diapolo/subscriptions",
      "organizations_url": "https://api.github.com/users/Diapolo/orgs",
      "repos_url": "https://api.github.com/users/Diapolo/repos",
      "events_url": "https://api.github.com/users/Diapolo/events{/privacy}",
      "received_events_url": "https://api.github.com/users/Diapolo/received_events",
      "type": "User",
      "site_admin": false
    },
    "created_at": "2012-06-17T21:19:40Z",
    "updated_at": "2012-06-17T21:19:40Z",
    "author_association": "NONE",
    "body_html": "<p dir=\"auto\">The current master code uses GetCredit() from CWallet, while I added GetImmatureCredit() into CWalletTx, which I think fit's better in there, as it's similar to CWallet::GetBalance() and CWallet::GetUnconfirmedBalance(). But you are probably right and the current code works.</p>",
    "body_text": "The current master code uses GetCredit() from CWallet, while I added GetImmatureCredit() into CWalletTx, which I think fit's better in there, as it's similar to CWallet::GetBalance() and CWallet::GetUnconfirmedBalance(). But you are probably right and the current code works.",
    "body": "The current master code uses GetCredit() from CWallet, while I added GetImmatureCredit() into CWalletTx, which I think fit's better in there, as it's similar to CWallet::GetBalance() and CWallet::GetUnconfirmedBalance(). But you are probably right and the current code works.\n",
    "reactions": {
      "url": "https://api.github.com/repos/bitcoin/bitcoin/issues/comments/6384909/reactions",
      "total_count": 0,
      "+1": 0,
      "-1": 0,
      "laugh": 0,
      "hooray": 0,
      "confused": 0,
      "heart": 0,
      "rocket": 0,
      "eyes": 0
    },
    "performed_via_github_app": null
  },
  {
    "url": "https://api.github.com/repos/bitcoin/bitcoin/issues/comments/6385060",
    "html_url": "https://github.com/bitcoin/bitcoin/pull/1475#issuecomment-6385060",
    "issue_url": "https://api.github.com/repos/bitcoin/bitcoin/issues/1475",
    "id": 6385060,
    "node_id": "MDEyOklzc3VlQ29tbWVudDYzODUwNjA=",
    "user": {
      "login": "Diapolo",
      "id": 1419649,
      "node_id": "MDQ6VXNlcjE0MTk2NDk=",
      "avatar_url": "https://avatars.githubusercontent.com/u/1419649?v=4",
      "gravatar_id": "",
      "url": "https://api.github.com/users/Diapolo",
      "html_url": "https://github.com/Diapolo",
      "followers_url": "https://api.github.com/users/Diapolo/followers",
      "following_url": "https://api.github.com/users/Diapolo/following{/other_user}",
      "gists_url": "https://api.github.com/users/Diapolo/gists{/gist_id}",
      "starred_url": "https://api.github.com/users/Diapolo/starred{/owner}{/repo}",
      "subscriptions_url": "https://api.github.com/users/Diapolo/subscriptions",
      "organizations_url": "https://api.github.com/users/Diapolo/orgs",
      "repos_url": "https://api.github.com/users/Diapolo/repos",
      "events_url": "https://api.github.com/users/Diapolo/events{/privacy}",
      "received_events_url": "https://api.github.com/users/Diapolo/received_events",
      "type": "User",
      "site_admin": false
    },
    "created_at": "2012-06-17T21:33:45Z",
    "updated_at": "2012-06-17T21:33:45Z",
    "author_association": "NONE",
    "body_html": "<p dir=\"auto\"><a class=\"user-mention notranslate\" data-hovercard-type=\"user\" data-hovercard-url=\"/users/laanwj/hovercard\" data-octo-click=\"hovercard-link-click\" data-octo-dimensions=\"link_type:self\" href=\"https://github.com/laanwj\">@laanwj</a> I showed sipa the code, who also thinks the new function (CWallet::GetUnconfirmedBalance()) is cleaner ... but as this is unrelated to fixing the base-issue, I will create another pull and close this one!</p>",
    "body_text": "@laanwj I showed sipa the code, who also thinks the new function (CWallet::GetUnconfirmedBalance()) is cleaner ... but as this is unrelated to fixing the base-issue, I will create another pull and close this one!",
    "body": "@laanwj I showed sipa the code, who also thinks the new function (CWallet::GetUnconfirmedBalance()) is cleaner ... but as this is unrelated to fixing the base-issue, I will create another pull and close this one!\n",
    "reactions": {
      "url": "https://api.github.com/repos/bitcoin/bitcoin/issues/comments/6385060/reactions",
      "total_count": 0,
      "+1": 0,
      "-1": 0,
      "laugh": 0,
      "hooray": 0,
      "confused": 0,
      "heart": 0,
      "rocket": 0,
      "eyes": 0
    },
    "performed_via_github_app": null
  },
  {
    "url": "https://api.github.com/repos/bitcoin/bitcoin/issues/comments/6388283",
    "html_url": "https://github.com/bitcoin/bitcoin/pull/1475#issuecomment-6388283",
    "issue_url": "https://api.github.com/repos/bitcoin/bitcoin/issues/1475",
    "id": 6388283,
    "node_id": "MDEyOklzc3VlQ29tbWVudDYzODgyODM=",
    "user": {
      "login": "laanwj",
      "id": 126646,
      "node_id": "MDQ6VXNlcjEyNjY0Ng==",
      "avatar_url": "https://avatars.githubusercontent.com/u/126646?v=4",
      "gravatar_id": "",
      "url": "https://api.github.com/users/laanwj",
      "html_url": "https://github.com/laanwj",
      "followers_url": "https://api.github.com/users/laanwj/followers",
      "following_url": "https://api.github.com/users/laanwj/following{/other_user}",
      "gists_url": "https://api.github.com/users/laanwj/gists{/gist_id}",
      "starred_url": "https://api.github.com/users/laanwj/starred{/owner}{/repo}",
      "subscriptions_url": "https://api.github.com/users/laanwj/subscriptions",
      "organizations_url": "https://api.github.com/users/laanwj/orgs",
      "repos_url": "https://api.github.com/users/laanwj/repos",
      "events_url": "https://api.github.com/users/laanwj/events{/privacy}",
      "received_events_url": "https://api.github.com/users/laanwj/received_events",
      "type": "User",
      "site_admin": false
    },
    "created_at": "2012-06-18T05:38:46Z",
    "updated_at": "2012-06-18T05:38:46Z",
    "author_association": "MEMBER",
    "body_html": "<p dir=\"auto\">The change in WalletModel also makes sense (makes it somewhat more readable). The only thing I don't agree with are the changes in the views.</p>",
    "body_text": "The change in WalletModel also makes sense (makes it somewhat more readable). The only thing I don't agree with are the changes in the views.",
    "body": "The change in WalletModel also makes sense (makes it somewhat more readable). The only thing I don't agree with are the changes in the views.\n",
    "reactions": {
      "url": "https://api.github.com/repos/bitcoin/bitcoin/issues/comments/6388283/reactions",
      "total_count": 0,
      "+1": 0,
      "-1": 0,
      "laugh": 0,
      "hooray": 0,
      "confused": 0,
      "heart": 0,
      "rocket": 0,
      "eyes": 0
    },
    "performed_via_github_app": null
  },
  {
    "url": "https://api.github.com/repos/bitcoin/bitcoin/issues/comments/6388610",
    "html_url": "https://github.com/bitcoin/bitcoin/pull/1475#issuecomment-6388610",
    "issue_url": "https://api.github.com/repos/bitcoin/bitcoin/issues/1475",
    "id": 6388610,
    "node_id": "MDEyOklzc3VlQ29tbWVudDYzODg2MTA=",
    "user": {
      "login": "Diapolo",
      "id": 1419649,
      "node_id": "MDQ6VXNlcjE0MTk2NDk=",
      "avatar_url": "https://avatars.githubusercontent.com/u/1419649?v=4",
      "gravatar_id": "",
      "url": "https://api.github.com/users/Diapolo",
      "html_url": "https://github.com/Diapolo",
      "followers_url": "https://api.github.com/users/Diapolo/followers",
      "following_url": "https://api.github.com/users/Diapolo/following{/other_user}",
      "gists_url": "https://api.github.com/users/Diapolo/gists{/gist_id}",
      "starred_url": "https://api.github.com/users/Diapolo/starred{/owner}{/repo}",
      "subscriptions_url": "https://api.github.com/users/Diapolo/subscriptions",
      "organizations_url": "https://api.github.com/users/Diapolo/orgs",
      "repos_url": "https://api.github.com/users/Diapolo/repos",
      "events_url": "https://api.github.com/users/Diapolo/events{/privacy}",
      "received_events_url": "https://api.github.com/users/Diapolo/received_events",
      "type": "User",
      "site_admin": false
    },
    "created_at": "2012-06-18T06:13:56Z",
    "updated_at": "2012-06-18T06:13:56Z",
    "author_association": "NONE",
    "body_html": "<p dir=\"auto\">That's fine, I'll open a new one and you patch the signal thing :).</p>",
    "body_text": "That's fine, I'll open a new one and you patch the signal thing :).",
    "body": "That's fine, I'll open a new one and you patch the signal thing :).\n",
    "reactions": {
      "url": "https://api.github.com/repos/bitcoin/bitcoin/issues/comments/6388610/reactions",
      "total_count": 0,
      "+1": 0,
      "-1": 0,
      "laugh": 0,
      "hooray": 0,
      "confused": 0,
      "heart": 0,
      "rocket": 0,
      "eyes": 0
    },
    "performed_via_github_app": null
  },
  {
    "url": "https://api.github.com/repos/bitcoin/bitcoin/issues/comments/6453511",
    "html_url": "https://github.com/bitcoin/bitcoin/pull/1475#issuecomment-6453511",
    "issue_url": "https://api.github.com/repos/bitcoin/bitcoin/issues/1475",
    "id": 6453511,
    "node_id": "MDEyOklzc3VlQ29tbWVudDY0NTM1MTE=",
    "user": {
      "login": "Diapolo",
      "id": 1419649,
      "node_id": "MDQ6VXNlcjE0MTk2NDk=",
      "avatar_url": "https://avatars.githubusercontent.com/u/1419649?v=4",
      "gravatar_id": "",
      "url": "https://api.github.com/users/Diapolo",
      "html_url": "https://github.com/Diapolo",
      "followers_url": "https://api.github.com/users/Diapolo/followers",
      "following_url": "https://api.github.com/users/Diapolo/following{/other_user}",
      "gists_url": "https://api.github.com/users/Diapolo/gists{/gist_id}",
      "starred_url": "https://api.github.com/users/Diapolo/starred{/owner}{/repo}",
      "subscriptions_url": "https://api.github.com/users/Diapolo/subscriptions",
      "organizations_url": "https://api.github.com/users/Diapolo/orgs",
      "repos_url": "https://api.github.com/users/Diapolo/repos",
      "events_url": "https://api.github.com/users/Diapolo/events{/privacy}",
      "received_events_url": "https://api.github.com/users/Diapolo/received_events",
      "type": "User",
      "site_admin": false
    },
    "created_at": "2012-06-20T13:16:40Z",
    "updated_at": "2012-06-20T13:16:40Z",
    "author_association": "NONE",
    "body_html": "<p dir=\"auto\"><a class=\"user-mention notranslate\" data-hovercard-type=\"user\" data-hovercard-url=\"/users/laanwj/hovercard\" data-octo-click=\"hovercard-link-click\" data-octo-dimensions=\"link_type:self\" href=\"https://github.com/laanwj\">@laanwj</a> Is your fix on track for 0.7, any branch you want me to test?</p>",
    "body_text": "@laanwj Is your fix on track for 0.7, any branch you want me to test?",
    "body": "@laanwj Is your fix on track for 0.7, any branch you want me to test?\n",
    "reactions": {
      "url": "https://api.github.com/repos/bitcoin/bitcoin/issues/comments/6453511/reactions",
      "total_count": 0,
      "+1": 0,
      "-1": 0,
      "laugh": 0,
      "hooray": 0,
      "confused": 0,
      "heart": 0,
      "rocket": 0,
      "eyes": 0
    },
    "performed_via_github_app": null
  }
]
