[
  {
    "url": "https://api.github.com/repos/bitcoin/bitcoin/issues/comments/828737251",
    "html_url": "https://github.com/bitcoin/bitcoin/pull/21799#issuecomment-828737251",
    "issue_url": "https://api.github.com/repos/bitcoin/bitcoin/issues/21799",
    "id": 828737251,
    "node_id": "MDEyOklzc3VlQ29tbWVudDgyODczNzI1MQ==",
    "user": {
      "login": "hebasto",
      "id": 32963518,
      "node_id": "MDQ6VXNlcjMyOTYzNTE4",
      "avatar_url": "https://avatars.githubusercontent.com/u/32963518?v=4",
      "gravatar_id": "",
      "url": "https://api.github.com/users/hebasto",
      "html_url": "https://github.com/hebasto",
      "followers_url": "https://api.github.com/users/hebasto/followers",
      "following_url": "https://api.github.com/users/hebasto/following{/other_user}",
      "gists_url": "https://api.github.com/users/hebasto/gists{/gist_id}",
      "starred_url": "https://api.github.com/users/hebasto/starred{/owner}{/repo}",
      "subscriptions_url": "https://api.github.com/users/hebasto/subscriptions",
      "organizations_url": "https://api.github.com/users/hebasto/orgs",
      "repos_url": "https://api.github.com/users/hebasto/repos",
      "events_url": "https://api.github.com/users/hebasto/events{/privacy}",
      "received_events_url": "https://api.github.com/users/hebasto/received_events",
      "type": "User",
      "site_admin": false
    },
    "created_at": "2021-04-28T19:57:31Z",
    "updated_at": "2021-04-28T19:57:31Z",
    "author_association": "MEMBER",
    "body_html": "<p dir=\"auto\">Concept ACK on keeping the same compiler while migrating from gitian to guix.</p>",
    "body_text": "Concept ACK on keeping the same compiler while migrating from gitian to guix.",
    "body": "Concept ACK on keeping the same compiler while migrating from gitian to guix.",
    "reactions": {
      "url": "https://api.github.com/repos/bitcoin/bitcoin/issues/comments/828737251/reactions",
      "total_count": 0,
      "+1": 0,
      "-1": 0,
      "laugh": 0,
      "hooray": 0,
      "confused": 0,
      "heart": 0,
      "rocket": 0,
      "eyes": 0
    },
    "performed_via_github_app": null
  },
  {
    "url": "https://api.github.com/repos/bitcoin/bitcoin/issues/comments/828741229",
    "html_url": "https://github.com/bitcoin/bitcoin/pull/21799#issuecomment-828741229",
    "issue_url": "https://api.github.com/repos/bitcoin/bitcoin/issues/21799",
    "id": 828741229,
    "node_id": "MDEyOklzc3VlQ29tbWVudDgyODc0MTIyOQ==",
    "user": {
      "login": "dongcarl",
      "id": 3445290,
      "node_id": "MDQ6VXNlcjM0NDUyOTA=",
      "avatar_url": "https://avatars.githubusercontent.com/u/3445290?v=4",
      "gravatar_id": "",
      "url": "https://api.github.com/users/dongcarl",
      "html_url": "https://github.com/dongcarl",
      "followers_url": "https://api.github.com/users/dongcarl/followers",
      "following_url": "https://api.github.com/users/dongcarl/following{/other_user}",
      "gists_url": "https://api.github.com/users/dongcarl/gists{/gist_id}",
      "starred_url": "https://api.github.com/users/dongcarl/starred{/owner}{/repo}",
      "subscriptions_url": "https://api.github.com/users/dongcarl/subscriptions",
      "organizations_url": "https://api.github.com/users/dongcarl/orgs",
      "repos_url": "https://api.github.com/users/dongcarl/repos",
      "events_url": "https://api.github.com/users/dongcarl/events{/privacy}",
      "received_events_url": "https://api.github.com/users/dongcarl/received_events",
      "type": "User",
      "site_admin": false
    },
    "created_at": "2021-04-28T20:04:21Z",
    "updated_at": "2021-04-28T20:04:21Z",
    "author_association": "CONTRIBUTOR",
    "body_html": "<blockquote>\n<p dir=\"auto\">Concept ACK on keeping the same compiler while migrating from gitian to guix.</p>\n</blockquote>\n<p dir=\"auto\">Note that we won't be keeping the same compiler for mingw-w64 (but I think that's okay) :-)</p>",
    "body_text": "Concept ACK on keeping the same compiler while migrating from gitian to guix.\n\nNote that we won't be keeping the same compiler for mingw-w64 (but I think that's okay) :-)",
    "body": "> Concept ACK on keeping the same compiler while migrating from gitian to guix.\r\n\r\nNote that we won't be keeping the same compiler for mingw-w64 (but I think that's okay) :-)",
    "reactions": {
      "url": "https://api.github.com/repos/bitcoin/bitcoin/issues/comments/828741229/reactions",
      "total_count": 0,
      "+1": 0,
      "-1": 0,
      "laugh": 0,
      "hooray": 0,
      "confused": 0,
      "heart": 0,
      "rocket": 0,
      "eyes": 0
    },
    "performed_via_github_app": null
  },
  {
    "url": "https://api.github.com/repos/bitcoin/bitcoin/issues/comments/828949606",
    "html_url": "https://github.com/bitcoin/bitcoin/pull/21799#issuecomment-828949606",
    "issue_url": "https://api.github.com/repos/bitcoin/bitcoin/issues/21799",
    "id": 828949606,
    "node_id": "MDEyOklzc3VlQ29tbWVudDgyODk0OTYwNg==",
    "user": {
      "login": "DrahtBot",
      "id": 39886733,
      "node_id": "MDQ6VXNlcjM5ODg2NzMz",
      "avatar_url": "https://avatars.githubusercontent.com/u/39886733?v=4",
      "gravatar_id": "",
      "url": "https://api.github.com/users/DrahtBot",
      "html_url": "https://github.com/DrahtBot",
      "followers_url": "https://api.github.com/users/DrahtBot/followers",
      "following_url": "https://api.github.com/users/DrahtBot/following{/other_user}",
      "gists_url": "https://api.github.com/users/DrahtBot/gists{/gist_id}",
      "starred_url": "https://api.github.com/users/DrahtBot/starred{/owner}{/repo}",
      "subscriptions_url": "https://api.github.com/users/DrahtBot/subscriptions",
      "organizations_url": "https://api.github.com/users/DrahtBot/orgs",
      "repos_url": "https://api.github.com/users/DrahtBot/repos",
      "events_url": "https://api.github.com/users/DrahtBot/events{/privacy}",
      "received_events_url": "https://api.github.com/users/DrahtBot/received_events",
      "type": "User",
      "site_admin": false
    },
    "created_at": "2021-04-29T05:29:16Z",
    "updated_at": "2021-05-05T01:09:13Z",
    "author_association": "CONTRIBUTOR",
    "body_html": "\n<p dir=\"auto\">The following sections might be updated with supplementary metadata relevant to reviewers and maintainers.</p>\n\n<h3 dir=\"auto\">Conflicts</h3>\n<p dir=\"auto\">No conflicts as of last run.</p>",
    "body_text": "The following sections might be updated with supplementary metadata relevant to reviewers and maintainers.\n\nConflicts\nNo conflicts as of last run.",
    "body": "<!--e57a25ab6845829454e8d69fc972939a-->\n\nThe following sections might be updated with supplementary metadata relevant to reviewers and maintainers.\n\n<!--174a7506f384e20aa4161008e828411d-->\n### Conflicts\nNo conflicts as of last run.",
    "reactions": {
      "url": "https://api.github.com/repos/bitcoin/bitcoin/issues/comments/828949606/reactions",
      "total_count": 0,
      "+1": 0,
      "-1": 0,
      "laugh": 0,
      "hooray": 0,
      "confused": 0,
      "heart": 0,
      "rocket": 0,
      "eyes": 0
    },
    "performed_via_github_app": null
  },
  {
    "url": "https://api.github.com/repos/bitcoin/bitcoin/issues/comments/829014409",
    "html_url": "https://github.com/bitcoin/bitcoin/pull/21799#issuecomment-829014409",
    "issue_url": "https://api.github.com/repos/bitcoin/bitcoin/issues/21799",
    "id": 829014409,
    "node_id": "MDEyOklzc3VlQ29tbWVudDgyOTAxNDQwOQ==",
    "user": {
      "login": "maflcko",
      "id": 6399679,
      "node_id": "MDQ6VXNlcjYzOTk2Nzk=",
      "avatar_url": "https://avatars.githubusercontent.com/u/6399679?v=4",
      "gravatar_id": "",
      "url": "https://api.github.com/users/maflcko",
      "html_url": "https://github.com/maflcko",
      "followers_url": "https://api.github.com/users/maflcko/followers",
      "following_url": "https://api.github.com/users/maflcko/following{/other_user}",
      "gists_url": "https://api.github.com/users/maflcko/gists{/gist_id}",
      "starred_url": "https://api.github.com/users/maflcko/starred{/owner}{/repo}",
      "subscriptions_url": "https://api.github.com/users/maflcko/subscriptions",
      "organizations_url": "https://api.github.com/users/maflcko/orgs",
      "repos_url": "https://api.github.com/users/maflcko/repos",
      "events_url": "https://api.github.com/users/maflcko/events{/privacy}",
      "received_events_url": "https://api.github.com/users/maflcko/received_events",
      "type": "User",
      "site_admin": false
    },
    "created_at": "2021-04-29T07:46:32Z",
    "updated_at": "2021-04-29T07:46:32Z",
    "author_association": "MEMBER",
    "body_html": "<p dir=\"auto\">The switch from gitian-&gt;guix will be a major bump, so I think we don't need to use the exact same versions for all packages. However, looking at Debian (and Ubuntu) to see which packages are well-propagated among users (and thus tested) makes sense. I presume, once Debian/Ubuntu upgrade from gcc-10.2 to gcc-10.3, we could use that.</p>\n<p dir=\"auto\">Concept ACK to prefer 8 over 9 in the meantime.</p>",
    "body_text": "The switch from gitian->guix will be a major bump, so I think we don't need to use the exact same versions for all packages. However, looking at Debian (and Ubuntu) to see which packages are well-propagated among users (and thus tested) makes sense. I presume, once Debian/Ubuntu upgrade from gcc-10.2 to gcc-10.3, we could use that.\nConcept ACK to prefer 8 over 9 in the meantime.",
    "body": "The switch from gitian->guix will be a major bump, so I think we don't need to use the exact same versions for all packages. However, looking at Debian (and Ubuntu) to see which packages are well-propagated among users (and thus tested) makes sense. I presume, once Debian/Ubuntu upgrade from gcc-10.2 to gcc-10.3, we could use that.\r\n\r\nConcept ACK to prefer 8 over 9 in the meantime.",
    "reactions": {
      "url": "https://api.github.com/repos/bitcoin/bitcoin/issues/comments/829014409/reactions",
      "total_count": 1,
      "+1": 0,
      "-1": 0,
      "laugh": 0,
      "hooray": 0,
      "confused": 0,
      "heart": 0,
      "rocket": 0,
      "eyes": 1
    },
    "performed_via_github_app": null
  },
  {
    "url": "https://api.github.com/repos/bitcoin/bitcoin/issues/comments/829015318",
    "html_url": "https://github.com/bitcoin/bitcoin/pull/21799#issuecomment-829015318",
    "issue_url": "https://api.github.com/repos/bitcoin/bitcoin/issues/21799",
    "id": 829015318,
    "node_id": "MDEyOklzc3VlQ29tbWVudDgyOTAxNTMxOA==",
    "user": {
      "login": "sipa",
      "id": 548488,
      "node_id": "MDQ6VXNlcjU0ODQ4OA==",
      "avatar_url": "https://avatars.githubusercontent.com/u/548488?v=4",
      "gravatar_id": "",
      "url": "https://api.github.com/users/sipa",
      "html_url": "https://github.com/sipa",
      "followers_url": "https://api.github.com/users/sipa/followers",
      "following_url": "https://api.github.com/users/sipa/following{/other_user}",
      "gists_url": "https://api.github.com/users/sipa/gists{/gist_id}",
      "starred_url": "https://api.github.com/users/sipa/starred{/owner}{/repo}",
      "subscriptions_url": "https://api.github.com/users/sipa/subscriptions",
      "organizations_url": "https://api.github.com/users/sipa/orgs",
      "repos_url": "https://api.github.com/users/sipa/repos",
      "events_url": "https://api.github.com/users/sipa/events{/privacy}",
      "received_events_url": "https://api.github.com/users/sipa/received_events",
      "type": "User",
      "site_admin": false
    },
    "created_at": "2021-04-29T07:48:05Z",
    "updated_at": "2021-04-29T07:48:05Z",
    "author_association": "MEMBER",
    "body_html": "<p dir=\"auto\">I think using GCC 8 is decent choice.</p>",
    "body_text": "I think using GCC 8 is decent choice.",
    "body": "I think using GCC 8 is decent choice.",
    "reactions": {
      "url": "https://api.github.com/repos/bitcoin/bitcoin/issues/comments/829015318/reactions",
      "total_count": 0,
      "+1": 0,
      "-1": 0,
      "laugh": 0,
      "hooray": 0,
      "confused": 0,
      "heart": 0,
      "rocket": 0,
      "eyes": 0
    },
    "performed_via_github_app": null
  },
  {
    "url": "https://api.github.com/repos/bitcoin/bitcoin/issues/comments/831456480",
    "html_url": "https://github.com/bitcoin/bitcoin/pull/21799#issuecomment-831456480",
    "issue_url": "https://api.github.com/repos/bitcoin/bitcoin/issues/21799",
    "id": 831456480,
    "node_id": "MDEyOklzc3VlQ29tbWVudDgzMTQ1NjQ4MA==",
    "user": {
      "login": "dongcarl",
      "id": 3445290,
      "node_id": "MDQ6VXNlcjM0NDUyOTA=",
      "avatar_url": "https://avatars.githubusercontent.com/u/3445290?v=4",
      "gravatar_id": "",
      "url": "https://api.github.com/users/dongcarl",
      "html_url": "https://github.com/dongcarl",
      "followers_url": "https://api.github.com/users/dongcarl/followers",
      "following_url": "https://api.github.com/users/dongcarl/following{/other_user}",
      "gists_url": "https://api.github.com/users/dongcarl/gists{/gist_id}",
      "starred_url": "https://api.github.com/users/dongcarl/starred{/owner}{/repo}",
      "subscriptions_url": "https://api.github.com/users/dongcarl/subscriptions",
      "organizations_url": "https://api.github.com/users/dongcarl/orgs",
      "repos_url": "https://api.github.com/users/dongcarl/repos",
      "events_url": "https://api.github.com/users/dongcarl/events{/privacy}",
      "received_events_url": "https://api.github.com/users/dongcarl/received_events",
      "type": "User",
      "site_admin": false
    },
    "created_at": "2021-05-03T18:44:31Z",
    "updated_at": "2021-05-03T18:44:31Z",
    "author_association": "CONTRIBUTOR",
    "body_html": "<p dir=\"auto\">Pushed <a class=\"commit-link\" data-hovercard-type=\"commit\" data-hovercard-url=\"https://github.com/bitcoin/bitcoin/commit/b5abb07d0d8051f337df2e7981d42a60e0140ee3/hovercard\" href=\"https://github.com/bitcoin/bitcoin/commit/b5abb07d0d8051f337df2e7981d42a60e0140ee3\"><tt>b5abb07</tt></a> -&gt; <a class=\"commit-link\" data-hovercard-type=\"commit\" data-hovercard-url=\"https://github.com/bitcoin/bitcoin/commit/c90f6e51094a1ba4fb2aab35b78f23b6fda645d0/hovercard\" href=\"https://github.com/bitcoin/bitcoin/commit/c90f6e51094a1ba4fb2aab35b78f23b6fda645d0\"><tt>c90f6e5</tt></a></p>\n<ul dir=\"auto\">\n<li>Updated to be based on <code class=\"notranslate\">master</code> instead of on <a class=\"issue-link js-issue-link\" data-error-text=\"Failed to load title\" data-id=\"834148884\" data-permission-text=\"Title is private\" data-url=\"https://github.com/bitcoin/bitcoin/issues/21462\" data-hovercard-type=\"pull_request\" data-hovercard-url=\"/bitcoin/bitcoin/pull/21462/hovercard\" href=\"https://github.com/bitcoin/bitcoin/pull/21462\">#21462</a></li>\n<li>Updated commit description</li>\n</ul>",
    "body_text": "Pushed b5abb07 -> c90f6e5\n\nUpdated to be based on master instead of on #21462\nUpdated commit description",
    "body": "Pushed b5abb07d0d8051f337df2e7981d42a60e0140ee3 -> c90f6e51094a1ba4fb2aab35b78f23b6fda645d0\r\n- Updated to be based on `master` instead of on #21462\r\n- Updated commit description",
    "reactions": {
      "url": "https://api.github.com/repos/bitcoin/bitcoin/issues/comments/831456480/reactions",
      "total_count": 0,
      "+1": 0,
      "-1": 0,
      "laugh": 0,
      "hooray": 0,
      "confused": 0,
      "heart": 0,
      "rocket": 0,
      "eyes": 0
    },
    "performed_via_github_app": null
  },
  {
    "url": "https://api.github.com/repos/bitcoin/bitcoin/issues/comments/831457729",
    "html_url": "https://github.com/bitcoin/bitcoin/pull/21799#issuecomment-831457729",
    "issue_url": "https://api.github.com/repos/bitcoin/bitcoin/issues/21799",
    "id": 831457729,
    "node_id": "MDEyOklzc3VlQ29tbWVudDgzMTQ1NzcyOQ==",
    "user": {
      "login": "maflcko",
      "id": 6399679,
      "node_id": "MDQ6VXNlcjYzOTk2Nzk=",
      "avatar_url": "https://avatars.githubusercontent.com/u/6399679?v=4",
      "gravatar_id": "",
      "url": "https://api.github.com/users/maflcko",
      "html_url": "https://github.com/maflcko",
      "followers_url": "https://api.github.com/users/maflcko/followers",
      "following_url": "https://api.github.com/users/maflcko/following{/other_user}",
      "gists_url": "https://api.github.com/users/maflcko/gists{/gist_id}",
      "starred_url": "https://api.github.com/users/maflcko/starred{/owner}{/repo}",
      "subscriptions_url": "https://api.github.com/users/maflcko/subscriptions",
      "organizations_url": "https://api.github.com/users/maflcko/orgs",
      "repos_url": "https://api.github.com/users/maflcko/repos",
      "events_url": "https://api.github.com/users/maflcko/events{/privacy}",
      "received_events_url": "https://api.github.com/users/maflcko/received_events",
      "type": "User",
      "site_admin": false
    },
    "created_at": "2021-05-03T18:46:49Z",
    "updated_at": "2021-05-03T18:46:49Z",
    "author_association": "MEMBER",
    "body_html": "<p dir=\"auto\">Approach ACK <a class=\"commit-link\" data-hovercard-type=\"commit\" data-hovercard-url=\"https://github.com/bitcoin/bitcoin/commit/c90f6e51094a1ba4fb2aab35b78f23b6fda645d0/hovercard\" href=\"https://github.com/bitcoin/bitcoin/commit/c90f6e51094a1ba4fb2aab35b78f23b6fda645d0\"><tt>c90f6e5</tt></a>, haven't reviewed</p>",
    "body_text": "Approach ACK c90f6e5, haven't reviewed",
    "body": "Approach ACK c90f6e51094a1ba4fb2aab35b78f23b6fda645d0, haven't reviewed",
    "reactions": {
      "url": "https://api.github.com/repos/bitcoin/bitcoin/issues/comments/831457729/reactions",
      "total_count": 0,
      "+1": 0,
      "-1": 0,
      "laugh": 0,
      "hooray": 0,
      "confused": 0,
      "heart": 0,
      "rocket": 0,
      "eyes": 0
    },
    "performed_via_github_app": null
  },
  {
    "url": "https://api.github.com/repos/bitcoin/bitcoin/issues/comments/832519664",
    "html_url": "https://github.com/bitcoin/bitcoin/pull/21799#issuecomment-832519664",
    "issue_url": "https://api.github.com/repos/bitcoin/bitcoin/issues/21799",
    "id": 832519664,
    "node_id": "MDEyOklzc3VlQ29tbWVudDgzMjUxOTY2NA==",
    "user": {
      "login": "laanwj",
      "id": 126646,
      "node_id": "MDQ6VXNlcjEyNjY0Ng==",
      "avatar_url": "https://avatars.githubusercontent.com/u/126646?v=4",
      "gravatar_id": "",
      "url": "https://api.github.com/users/laanwj",
      "html_url": "https://github.com/laanwj",
      "followers_url": "https://api.github.com/users/laanwj/followers",
      "following_url": "https://api.github.com/users/laanwj/following{/other_user}",
      "gists_url": "https://api.github.com/users/laanwj/gists{/gist_id}",
      "starred_url": "https://api.github.com/users/laanwj/starred{/owner}{/repo}",
      "subscriptions_url": "https://api.github.com/users/laanwj/subscriptions",
      "organizations_url": "https://api.github.com/users/laanwj/orgs",
      "repos_url": "https://api.github.com/users/laanwj/repos",
      "events_url": "https://api.github.com/users/laanwj/events{/privacy}",
      "received_events_url": "https://api.github.com/users/laanwj/received_events",
      "type": "User",
      "site_admin": false
    },
    "created_at": "2021-05-05T08:42:51Z",
    "updated_at": "2021-05-05T08:42:51Z",
    "author_association": "MEMBER",
    "body_html": "<p dir=\"auto\">No strong opinion on what gcc to use, but I think the argument is fair that going with what we know is the safest choice. The change looks consistent, in any case.<br>\nCode review ACK <a class=\"commit-link\" data-hovercard-type=\"commit\" data-hovercard-url=\"https://github.com/bitcoin/bitcoin/commit/c90f6e51094a1ba4fb2aab35b78f23b6fda645d0/hovercard\" href=\"https://github.com/bitcoin/bitcoin/commit/c90f6e51094a1ba4fb2aab35b78f23b6fda645d0\"><tt>c90f6e5</tt></a></p>",
    "body_text": "No strong opinion on what gcc to use, but I think the argument is fair that going with what we know is the safest choice. The change looks consistent, in any case.\nCode review ACK c90f6e5",
    "body": "No strong opinion on what gcc to use, but I think the argument is fair that going with what we know is the safest choice. The change looks consistent, in any case.\r\nCode review ACK c90f6e51094a1ba4fb2aab35b78f23b6fda645d0",
    "reactions": {
      "url": "https://api.github.com/repos/bitcoin/bitcoin/issues/comments/832519664/reactions",
      "total_count": 0,
      "+1": 0,
      "-1": 0,
      "laugh": 0,
      "hooray": 0,
      "confused": 0,
      "heart": 0,
      "rocket": 0,
      "eyes": 0
    },
    "performed_via_github_app": null
  }
]
