{
  "url": "https://api.github.com/repos/bitcoin/bitcoin/issues/16001",
  "repository_url": "https://api.github.com/repos/bitcoin/bitcoin",
  "labels_url": "https://api.github.com/repos/bitcoin/bitcoin/issues/16001/labels{/name}",
  "comments_url": "https://api.github.com/repos/bitcoin/bitcoin/issues/16001/comments",
  "events_url": "https://api.github.com/repos/bitcoin/bitcoin/issues/16001/events",
  "html_url": "https://github.com/bitcoin/bitcoin/pull/16001",
  "id": 442495561,
  "node_id": "MDExOlB1bGxSZXF1ZXN0Mjc3NTk5MDQ2",
  "number": 16001,
  "title": "Give WalletModel::UnlockContext move semantics",
  "user": {
    "login": "sipa",
    "id": 548488,
    "node_id": "MDQ6VXNlcjU0ODQ4OA==",
    "avatar_url": "https://avatars.githubusercontent.com/u/548488?v=4",
    "gravatar_id": "",
    "url": "https://api.github.com/users/sipa",
    "html_url": "https://github.com/sipa",
    "followers_url": "https://api.github.com/users/sipa/followers",
    "following_url": "https://api.github.com/users/sipa/following{/other_user}",
    "gists_url": "https://api.github.com/users/sipa/gists{/gist_id}",
    "starred_url": "https://api.github.com/users/sipa/starred{/owner}{/repo}",
    "subscriptions_url": "https://api.github.com/users/sipa/subscriptions",
    "organizations_url": "https://api.github.com/users/sipa/orgs",
    "repos_url": "https://api.github.com/users/sipa/repos",
    "events_url": "https://api.github.com/users/sipa/events{/privacy}",
    "received_events_url": "https://api.github.com/users/sipa/received_events",
    "type": "User",
    "site_admin": false
  },
  "labels": [
    {
      "id": 135946,
      "node_id": "MDU6TGFiZWwxMzU5NDY=",
      "url": "https://api.github.com/repos/bitcoin/bitcoin/labels/GUI",
      "name": "GUI",
      "color": "02d7e1",
      "default": false,
      "description": null
    },
    {
      "id": 149424,
      "node_id": "MDU6TGFiZWwxNDk0MjQ=",
      "url": "https://api.github.com/repos/bitcoin/bitcoin/labels/Wallet",
      "name": "Wallet",
      "color": "08a781",
      "default": false,
      "description": null
    }
  ],
  "state": "closed",
  "locked": true,
  "assignee": null,
  "assignees": [

  ],
  "milestone": null,
  "comments": 4,
  "created_at": "2019-05-10T01:09:34Z",
  "updated_at": "2019-06-24T03:07:31Z",
  "closed_at": "2019-05-19T12:14:30Z",
  "author_association": "MEMBER",
  "active_lock_reason": null,
  "draft": false,
  "pull_request": {
    "url": "https://api.github.com/repos/bitcoin/bitcoin/pulls/16001",
    "html_url": "https://github.com/bitcoin/bitcoin/pull/16001",
    "diff_url": "https://github.com/bitcoin/bitcoin/pull/16001.diff",
    "patch_url": "https://github.com/bitcoin/bitcoin/pull/16001.patch",
    "merged_at": "2019-05-19T12:14:29Z"
  },
  "body_html": "<p dir=\"auto\">WalletModel::UnlockContext seems to implement \"move upon copy\" semantics; with C++11 this can be done more safely using move semantics (making attempts to actually copy fail instead).</p>\n<p dir=\"auto\">Not a big deal if this isn't worth review time.</p>",
  "body_text": "WalletModel::UnlockContext seems to implement \"move upon copy\" semantics; with C++11 this can be done more safely using move semantics (making attempts to actually copy fail instead).\nNot a big deal if this isn't worth review time.",
  "body": "WalletModel::UnlockContext seems to implement \"move upon copy\" semantics; with C++11 this can be done more safely using move semantics (making attempts to actually copy fail instead).\r\n\r\nNot a big deal if this isn't worth review time.",
  "closed_by": {
    "login": "meshcollider",
    "id": 3211283,
    "node_id": "MDQ6VXNlcjMyMTEyODM=",
    "avatar_url": "https://avatars.githubusercontent.com/u/3211283?v=4",
    "gravatar_id": "",
    "url": "https://api.github.com/users/meshcollider",
    "html_url": "https://github.com/meshcollider",
    "followers_url": "https://api.github.com/users/meshcollider/followers",
    "following_url": "https://api.github.com/users/meshcollider/following{/other_user}",
    "gists_url": "https://api.github.com/users/meshcollider/gists{/gist_id}",
    "starred_url": "https://api.github.com/users/meshcollider/starred{/owner}{/repo}",
    "subscriptions_url": "https://api.github.com/users/meshcollider/subscriptions",
    "organizations_url": "https://api.github.com/users/meshcollider/orgs",
    "repos_url": "https://api.github.com/users/meshcollider/repos",
    "events_url": "https://api.github.com/users/meshcollider/events{/privacy}",
    "received_events_url": "https://api.github.com/users/meshcollider/received_events",
    "type": "User",
    "site_admin": false
  },
  "reactions": {
    "url": "https://api.github.com/repos/bitcoin/bitcoin/issues/16001/reactions",
    "total_count": 0,
    "+1": 0,
    "-1": 0,
    "laugh": 0,
    "hooray": 0,
    "confused": 0,
    "heart": 0,
    "rocket": 0,
    "eyes": 0
  },
  "timeline_url": "https://api.github.com/repos/bitcoin/bitcoin/issues/16001/timeline",
  "performed_via_github_app": null,
  "state_reason": null
}
