{
  "url": "https://api.github.com/repos/bitcoin/bitcoin/issues/2220",
  "repository_url": "https://api.github.com/repos/bitcoin/bitcoin",
  "labels_url": "https://api.github.com/repos/bitcoin/bitcoin/issues/2220/labels{/name}",
  "comments_url": "https://api.github.com/repos/bitcoin/bitcoin/issues/2220/comments",
  "events_url": "https://api.github.com/repos/bitcoin/bitcoin/issues/2220/events",
  "html_url": "https://github.com/bitcoin/bitcoin/pull/2220",
  "id": 10339206,
  "node_id": "MDExOlB1bGxSZXF1ZXN0Mzg1MzAwMw==",
  "number": 2220,
  "title": "Minimal architectural changes necessary to support multiple wallets in bitcoin-qt",
  "user": {
    "login": "CodeShark",
    "id": 894059,
    "node_id": "MDQ6VXNlcjg5NDA1OQ==",
    "avatar_url": "https://avatars.githubusercontent.com/u/894059?v=4",
    "gravatar_id": "",
    "url": "https://api.github.com/users/CodeShark",
    "html_url": "https://github.com/CodeShark",
    "followers_url": "https://api.github.com/users/CodeShark/followers",
    "following_url": "https://api.github.com/users/CodeShark/following{/other_user}",
    "gists_url": "https://api.github.com/users/CodeShark/gists{/gist_id}",
    "starred_url": "https://api.github.com/users/CodeShark/starred{/owner}{/repo}",
    "subscriptions_url": "https://api.github.com/users/CodeShark/subscriptions",
    "organizations_url": "https://api.github.com/users/CodeShark/orgs",
    "repos_url": "https://api.github.com/users/CodeShark/repos",
    "events_url": "https://api.github.com/users/CodeShark/events{/privacy}",
    "received_events_url": "https://api.github.com/users/CodeShark/received_events",
    "type": "User",
    "site_admin": false
  },
  "labels": [

  ],
  "state": "closed",
  "locked": true,
  "assignee": null,
  "assignees": [

  ],
  "milestone": null,
  "comments": 13,
  "created_at": "2013-01-26T15:31:00Z",
  "updated_at": "2021-09-08T10:19:11Z",
  "closed_at": "2013-03-29T08:56:24Z",
  "author_association": "CONTRIBUTOR",
  "active_lock_reason": "resolved",
  "draft": false,
  "pull_request": {
    "url": "https://api.github.com/repos/bitcoin/bitcoin/pulls/2220",
    "html_url": "https://github.com/bitcoin/bitcoin/pull/2220",
    "diff_url": "https://github.com/bitcoin/bitcoin/pull/2220.diff",
    "patch_url": "https://github.com/bitcoin/bitcoin/pull/2220.patch",
    "merged_at": "2013-03-29T08:56:24Z"
  },
  "body_html": "<p dir=\"auto\">This commit is a minimal restructuring necessary to support multiple wallets in the UI going forward. Please read <a href=\"https://github.com/CodeShark/bitcoin/blob/5bf2943a81e0937e4be0e8d2c6b4545b8d320cc4/multiwallet-qt.txt\">https://github.com/CodeShark/bitcoin/blob/5bf2943a81e0937e4be0e8d2c6b4545b8d320cc4/multiwallet-qt.txt</a> for details.</p>",
  "body_text": "This commit is a minimal restructuring necessary to support multiple wallets in the UI going forward. Please read https://github.com/CodeShark/bitcoin/blob/5bf2943a81e0937e4be0e8d2c6b4545b8d320cc4/multiwallet-qt.txt for details.",
  "body": "This commit is a minimal restructuring necessary to support multiple wallets in the UI going forward. Please read https://github.com/CodeShark/bitcoin/blob/5bf2943a81e0937e4be0e8d2c6b4545b8d320cc4/multiwallet-qt.txt for details.\n",
  "closed_by": {
    "login": "laanwj",
    "id": 126646,
    "node_id": "MDQ6VXNlcjEyNjY0Ng==",
    "avatar_url": "https://avatars.githubusercontent.com/u/126646?v=4",
    "gravatar_id": "",
    "url": "https://api.github.com/users/laanwj",
    "html_url": "https://github.com/laanwj",
    "followers_url": "https://api.github.com/users/laanwj/followers",
    "following_url": "https://api.github.com/users/laanwj/following{/other_user}",
    "gists_url": "https://api.github.com/users/laanwj/gists{/gist_id}",
    "starred_url": "https://api.github.com/users/laanwj/starred{/owner}{/repo}",
    "subscriptions_url": "https://api.github.com/users/laanwj/subscriptions",
    "organizations_url": "https://api.github.com/users/laanwj/orgs",
    "repos_url": "https://api.github.com/users/laanwj/repos",
    "events_url": "https://api.github.com/users/laanwj/events{/privacy}",
    "received_events_url": "https://api.github.com/users/laanwj/received_events",
    "type": "User",
    "site_admin": false
  },
  "reactions": {
    "url": "https://api.github.com/repos/bitcoin/bitcoin/issues/2220/reactions",
    "total_count": 0,
    "+1": 0,
    "-1": 0,
    "laugh": 0,
    "hooray": 0,
    "confused": 0,
    "heart": 0,
    "rocket": 0,
    "eyes": 0
  },
  "timeline_url": "https://api.github.com/repos/bitcoin/bitcoin/issues/2220/timeline",
  "performed_via_github_app": null,
  "state_reason": null
}
