{
  "url": "https://api.github.com/repos/bitcoin/bitcoin/issues/29530",
  "repository_url": "https://api.github.com/repos/bitcoin/bitcoin",
  "labels_url": "https://api.github.com/repos/bitcoin/bitcoin/issues/29530/labels{/name}",
  "comments_url": "https://api.github.com/repos/bitcoin/bitcoin/issues/29530/comments",
  "events_url": "https://api.github.com/repos/bitcoin/bitcoin/issues/29530/events",
  "html_url": "https://github.com/bitcoin/bitcoin/pull/29530",
  "id": 2164235683,
  "node_id": "PR_kwDOABII585odEz0",
  "number": 29530,
  "title": "rpc/net: Adds misbehaving_score to getpeerinfo",
  "user": {
    "login": "sr-gi",
    "id": 6665628,
    "node_id": "MDQ6VXNlcjY2NjU2Mjg=",
    "avatar_url": "https://avatars.githubusercontent.com/u/6665628?v=4",
    "gravatar_id": "",
    "url": "https://api.github.com/users/sr-gi",
    "html_url": "https://github.com/sr-gi",
    "followers_url": "https://api.github.com/users/sr-gi/followers",
    "following_url": "https://api.github.com/users/sr-gi/following{/other_user}",
    "gists_url": "https://api.github.com/users/sr-gi/gists{/gist_id}",
    "starred_url": "https://api.github.com/users/sr-gi/starred{/owner}{/repo}",
    "subscriptions_url": "https://api.github.com/users/sr-gi/subscriptions",
    "organizations_url": "https://api.github.com/users/sr-gi/orgs",
    "repos_url": "https://api.github.com/users/sr-gi/repos",
    "events_url": "https://api.github.com/users/sr-gi/events{/privacy}",
    "received_events_url": "https://api.github.com/users/sr-gi/received_events",
    "type": "User",
    "site_admin": false
  },
  "labels": [
    {
      "id": 5334691551,
      "node_id": "LA_kwDOABII588AAAABPfju3w",
      "url": "https://api.github.com/repos/bitcoin/bitcoin/labels/CI%20failed",
      "name": "CI failed",
      "color": "cccccc",
      "default": false,
      "description": ""
    }
  ],
  "state": "closed",
  "locked": false,
  "assignee": null,
  "assignees": [

  ],
  "milestone": null,
  "comments": 19,
  "created_at": "2024-03-01T21:46:22Z",
  "updated_at": "2024-03-12T16:10:30Z",
  "closed_at": "2024-03-12T16:10:30Z",
  "author_association": "MEMBER",
  "active_lock_reason": null,
  "draft": false,
  "pull_request": {
    "url": "https://api.github.com/repos/bitcoin/bitcoin/pulls/29530",
    "html_url": "https://github.com/bitcoin/bitcoin/pull/29530",
    "diff_url": "https://github.com/bitcoin/bitcoin/pull/29530.diff",
    "patch_url": "https://github.com/bitcoin/bitcoin/pull/29530.patch",
    "merged_at": null
  },
  "body_html": "<p dir=\"auto\">This is motivated by the discussions in <a class=\"issue-link js-issue-link\" data-error-text=\"Failed to load title\" data-id=\"2125700617\" data-permission-text=\"Title is private\" data-url=\"https://github.com/bitcoin/bitcoin/issues/29412\" data-hovercard-type=\"pull_request\" data-hovercard-url=\"/bitcoin/bitcoin/pull/29412/hovercard\" href=\"https://github.com/bitcoin/bitcoin/pull/29412\">#29412</a> (<a class=\"issue-link js-issue-link\" data-error-text=\"Failed to load title\" data-id=\"2125700617\" data-permission-text=\"Title is private\" data-url=\"https://github.com/bitcoin/bitcoin/issues/29412\" data-hovercard-type=\"pull_request\" data-hovercard-url=\"/bitcoin/bitcoin/pull/29412/hovercard?comment_id=1484773525&amp;comment_type=review_comment\" href=\"https://github.com/bitcoin/bitcoin/pull/29412#discussion_r1484773525\">#29412 (comment)</a>) and <a class=\"issue-link js-issue-link\" data-error-text=\"Failed to load title\" data-id=\"2163235304\" data-permission-text=\"Title is private\" data-url=\"https://github.com/bitcoin/bitcoin/issues/29524\" data-hovercard-type=\"pull_request\" data-hovercard-url=\"/bitcoin/bitcoin/pull/29524/hovercard\" href=\"https://github.com/bitcoin/bitcoin/pull/29524\">#29524</a>(<a class=\"issue-link js-issue-link\" data-error-text=\"Failed to load title\" data-id=\"2163235304\" data-permission-text=\"Title is private\" data-url=\"https://github.com/bitcoin/bitcoin/issues/29524\" data-hovercard-type=\"pull_request\" data-hovercard-url=\"/bitcoin/bitcoin/pull/29524/hovercard?comment_id=1508895425&amp;comment_type=review_comment\" href=\"https://github.com/bitcoin/bitcoin/pull/29524#discussion_r1508895425\">#29524 (comment)</a>).</p>\n<p dir=\"auto\">Currently, we are asserting logs to check that certain misbehavior has been accounted for, which is far from an ideal interface. Being able to check that the <code class=\"notranslate\">misbehavior_score</code> of a peer has increased as expected seems a better approach.</p>\n<p dir=\"auto\">From an end-user perspective, being able to check whether a peer has been misbehaving also seems useful.</p>\n\n\n",
  "body_text": "This is motivated by the discussions in #29412 (#29412 (comment)) and #29524(#29524 (comment)).\nCurrently, we are asserting logs to check that certain misbehavior has been accounted for, which is far from an ideal interface. Being able to check that the misbehavior_score of a peer has increased as expected seems a better approach.\nFrom an end-user perspective, being able to check whether a peer has been misbehaving also seems useful.",
  "body": "This is motivated by the discussions in #29412 (https://github.com/bitcoin/bitcoin/pull/29412#discussion_r1484773525) and #29524(https://github.com/bitcoin/bitcoin/pull/29524#discussion_r1508895425).\r\n\r\nCurrently, we are asserting logs to check that certain misbehavior has been accounted for, which is far from an ideal interface. Being able to check that the `misbehavior_score` of a peer has increased as expected seems a better approach.\r\n\r\nFrom an end-user perspective, being able to check whether a peer has been misbehaving also seems useful.\r\n\r\n<!--\r\n*** Please remove the following help text before submitting: ***\r\n\r\nPull requests without a rationale and clear improvement may be closed\r\nimmediately.\r\n\r\nGUI-related pull requests should be opened against\r\nhttps://github.com/bitcoin-core/gui\r\nfirst. See CONTRIBUTING.md\r\n-->\r\n\r\n<!--\r\nPlease provide clear motivation for your patch and explain how it improves\r\nBitcoin Core user experience or Bitcoin Core developer experience\r\nsignificantly:\r\n\r\n* Any test improvements or new tests that improve coverage are always welcome.\r\n* All other changes should have accompanying unit tests (see `src/test/`) or\r\n  functional tests (see `test/`). Contributors should note which tests cover\r\n  modified code. If no tests exist for a region of modified code, new tests\r\n  should accompany the change.\r\n* Bug fixes are most welcome when they come with steps to reproduce or an\r\n  explanation of the potential issue as well as reasoning for the way the bug\r\n  was fixed.\r\n* Features are welcome, but might be rejected due to design or scope issues.\r\n  If a feature is based on a lot of dependencies, contributors should first\r\n  consider building the system outside of Bitcoin Core, if possible.\r\n* Refactoring changes are only accepted if they are required for a feature or\r\n  bug fix or otherwise improve developer experience significantly. For example,\r\n  most \"code style\" refactoring changes require a thorough explanation why they\r\n  are useful, what downsides they have and why they *significantly* improve\r\n  developer experience or avoid serious programming bugs. Note that code style\r\n  is often a subjective matter. Unless they are explicitly mentioned to be\r\n  preferred in the [developer notes](/doc/developer-notes.md), stylistic code\r\n  changes are usually rejected.\r\n-->\r\n\r\n<!--\r\nBitcoin Core has a thorough review process and even the most trivial change\r\nneeds to pass a lot of eyes and requires non-zero or even substantial time\r\neffort to review. There is a huge lack of active reviewers on the project, so\r\npatches often sit for a long time.\r\n-->\r\n",
  "closed_by": {
    "login": "achow101",
    "id": 3782274,
    "node_id": "MDQ6VXNlcjM3ODIyNzQ=",
    "avatar_url": "https://avatars.githubusercontent.com/u/3782274?v=4",
    "gravatar_id": "",
    "url": "https://api.github.com/users/achow101",
    "html_url": "https://github.com/achow101",
    "followers_url": "https://api.github.com/users/achow101/followers",
    "following_url": "https://api.github.com/users/achow101/following{/other_user}",
    "gists_url": "https://api.github.com/users/achow101/gists{/gist_id}",
    "starred_url": "https://api.github.com/users/achow101/starred{/owner}{/repo}",
    "subscriptions_url": "https://api.github.com/users/achow101/subscriptions",
    "organizations_url": "https://api.github.com/users/achow101/orgs",
    "repos_url": "https://api.github.com/users/achow101/repos",
    "events_url": "https://api.github.com/users/achow101/events{/privacy}",
    "received_events_url": "https://api.github.com/users/achow101/received_events",
    "type": "User",
    "site_admin": false
  },
  "reactions": {
    "url": "https://api.github.com/repos/bitcoin/bitcoin/issues/29530/reactions",
    "total_count": 0,
    "+1": 0,
    "-1": 0,
    "laugh": 0,
    "hooray": 0,
    "confused": 0,
    "heart": 0,
    "rocket": 0,
    "eyes": 0
  },
  "timeline_url": "https://api.github.com/repos/bitcoin/bitcoin/issues/29530/timeline",
  "performed_via_github_app": null,
  "state_reason": null
}
