[
  {
    "url": "https://api.github.com/repos/bitcoin/bitcoin/issues/comments/239607865",
    "html_url": "https://github.com/bitcoin/bitcoin/pull/8503#issuecomment-239607865",
    "issue_url": "https://api.github.com/repos/bitcoin/bitcoin/issues/8503",
    "id": 239607865,
    "node_id": "MDEyOklzc3VlQ29tbWVudDIzOTYwNzg2NQ==",
    "user": {
      "login": "paveljanik",
      "id": 6848764,
      "node_id": "MDQ6VXNlcjY4NDg3NjQ=",
      "avatar_url": "https://avatars.githubusercontent.com/u/6848764?v=4",
      "gravatar_id": "",
      "url": "https://api.github.com/users/paveljanik",
      "html_url": "https://github.com/paveljanik",
      "followers_url": "https://api.github.com/users/paveljanik/followers",
      "following_url": "https://api.github.com/users/paveljanik/following{/other_user}",
      "gists_url": "https://api.github.com/users/paveljanik/gists{/gist_id}",
      "starred_url": "https://api.github.com/users/paveljanik/starred{/owner}{/repo}",
      "subscriptions_url": "https://api.github.com/users/paveljanik/subscriptions",
      "organizations_url": "https://api.github.com/users/paveljanik/orgs",
      "repos_url": "https://api.github.com/users/paveljanik/repos",
      "events_url": "https://api.github.com/users/paveljanik/events{/privacy}",
      "received_events_url": "https://api.github.com/users/paveljanik/received_events",
      "type": "User",
      "site_admin": false
    },
    "created_at": "2016-08-13T07:34:03Z",
    "updated_at": "2016-08-13T07:34:03Z",
    "author_association": "CONTRIBUTOR",
    "body_html": "<p dir=\"auto\">ACK <a class=\"commit-link\" data-hovercard-type=\"commit\" data-hovercard-url=\"https://github.com/bitcoin/bitcoin/commit/e11f9a2f0244f1d6e34b50293b2ecca61a356bed/hovercard\" href=\"https://github.com/bitcoin/bitcoin/commit/e11f9a2f0244f1d6e34b50293b2ecca61a356bed\"><tt>e11f9a2</tt></a></p>",
    "body_text": "ACK e11f9a2",
    "body": "ACK https://github.com/bitcoin/bitcoin/pull/8503/commits/e11f9a2f0244f1d6e34b50293b2ecca61a356bed\n",
    "reactions": {
      "url": "https://api.github.com/repos/bitcoin/bitcoin/issues/comments/239607865/reactions",
      "total_count": 0,
      "+1": 0,
      "-1": 0,
      "laugh": 0,
      "hooray": 0,
      "confused": 0,
      "heart": 0,
      "rocket": 0,
      "eyes": 0
    },
    "performed_via_github_app": null
  },
  {
    "url": "https://api.github.com/repos/bitcoin/bitcoin/issues/comments/239611839",
    "html_url": "https://github.com/bitcoin/bitcoin/pull/8503#issuecomment-239611839",
    "issue_url": "https://api.github.com/repos/bitcoin/bitcoin/issues/8503",
    "id": 239611839,
    "node_id": "MDEyOklzc3VlQ29tbWVudDIzOTYxMTgzOQ==",
    "user": {
      "login": "maflcko",
      "id": 6399679,
      "node_id": "MDQ6VXNlcjYzOTk2Nzk=",
      "avatar_url": "https://avatars.githubusercontent.com/u/6399679?v=4",
      "gravatar_id": "",
      "url": "https://api.github.com/users/maflcko",
      "html_url": "https://github.com/maflcko",
      "followers_url": "https://api.github.com/users/maflcko/followers",
      "following_url": "https://api.github.com/users/maflcko/following{/other_user}",
      "gists_url": "https://api.github.com/users/maflcko/gists{/gist_id}",
      "starred_url": "https://api.github.com/users/maflcko/starred{/owner}{/repo}",
      "subscriptions_url": "https://api.github.com/users/maflcko/subscriptions",
      "organizations_url": "https://api.github.com/users/maflcko/orgs",
      "repos_url": "https://api.github.com/users/maflcko/repos",
      "events_url": "https://api.github.com/users/maflcko/events{/privacy}",
      "received_events_url": "https://api.github.com/users/maflcko/received_events",
      "type": "User",
      "site_admin": false
    },
    "created_at": "2016-08-13T09:25:11Z",
    "updated_at": "2016-08-13T09:25:11Z",
    "author_association": "MEMBER",
    "body_html": "<p dir=\"auto\">ACK <a class=\"commit-link\" data-hovercard-type=\"commit\" data-hovercard-url=\"https://github.com/bitcoin/bitcoin/commit/e11f9a2f0244f1d6e34b50293b2ecca61a356bed/hovercard\" href=\"https://github.com/bitcoin/bitcoin/commit/e11f9a2f0244f1d6e34b50293b2ecca61a356bed\"><tt>e11f9a2</tt></a></p>",
    "body_text": "ACK e11f9a2",
    "body": "ACK e11f9a2\n",
    "reactions": {
      "url": "https://api.github.com/repos/bitcoin/bitcoin/issues/comments/239611839/reactions",
      "total_count": 0,
      "+1": 0,
      "-1": 0,
      "laugh": 0,
      "hooray": 0,
      "confused": 0,
      "heart": 0,
      "rocket": 0,
      "eyes": 0
    },
    "performed_via_github_app": null
  },
  {
    "url": "https://api.github.com/repos/bitcoin/bitcoin/issues/comments/239614651",
    "html_url": "https://github.com/bitcoin/bitcoin/pull/8503#issuecomment-239614651",
    "issue_url": "https://api.github.com/repos/bitcoin/bitcoin/issues/8503",
    "id": 239614651,
    "node_id": "MDEyOklzc3VlQ29tbWVudDIzOTYxNDY1MQ==",
    "user": {
      "login": "fanquake",
      "id": 863730,
      "node_id": "MDQ6VXNlcjg2MzczMA==",
      "avatar_url": "https://avatars.githubusercontent.com/u/863730?v=4",
      "gravatar_id": "",
      "url": "https://api.github.com/users/fanquake",
      "html_url": "https://github.com/fanquake",
      "followers_url": "https://api.github.com/users/fanquake/followers",
      "following_url": "https://api.github.com/users/fanquake/following{/other_user}",
      "gists_url": "https://api.github.com/users/fanquake/gists{/gist_id}",
      "starred_url": "https://api.github.com/users/fanquake/starred{/owner}{/repo}",
      "subscriptions_url": "https://api.github.com/users/fanquake/subscriptions",
      "organizations_url": "https://api.github.com/users/fanquake/orgs",
      "repos_url": "https://api.github.com/users/fanquake/repos",
      "events_url": "https://api.github.com/users/fanquake/events{/privacy}",
      "received_events_url": "https://api.github.com/users/fanquake/received_events",
      "type": "User",
      "site_admin": false
    },
    "created_at": "2016-08-13T10:39:27Z",
    "updated_at": "2016-08-13T10:39:27Z",
    "author_association": "MEMBER",
    "body_html": "<p dir=\"auto\">ACK <a class=\"commit-link\" data-hovercard-type=\"commit\" data-hovercard-url=\"https://github.com/bitcoin/bitcoin/commit/e11f9a2f0244f1d6e34b50293b2ecca61a356bed/hovercard\" href=\"https://github.com/bitcoin/bitcoin/commit/e11f9a2f0244f1d6e34b50293b2ecca61a356bed\"><tt>e11f9a2</tt></a></p>",
    "body_text": "ACK e11f9a2",
    "body": "ACK e11f9a2\n",
    "reactions": {
      "url": "https://api.github.com/repos/bitcoin/bitcoin/issues/comments/239614651/reactions",
      "total_count": 0,
      "+1": 0,
      "-1": 0,
      "laugh": 0,
      "hooray": 0,
      "confused": 0,
      "heart": 0,
      "rocket": 0,
      "eyes": 0
    },
    "performed_via_github_app": null
  }
]
