{
  "url": "https://api.github.com/repos/bitcoin/bitcoin/issues/5673",
  "repository_url": "https://api.github.com/repos/bitcoin/bitcoin",
  "labels_url": "https://api.github.com/repos/bitcoin/bitcoin/issues/5673/labels{/name}",
  "comments_url": "https://api.github.com/repos/bitcoin/bitcoin/issues/5673/comments",
  "events_url": "https://api.github.com/repos/bitcoin/bitcoin/issues/5673/events",
  "html_url": "https://github.com/bitcoin/bitcoin/pull/5673",
  "id": 54548971,
  "node_id": "MDExOlB1bGxSZXF1ZXN0Mjc0ODkzNDk=",
  "number": 5673,
  "title": "clarify log message for script verification threads",
  "user": {
    "login": "Diapolo",
    "id": 1419649,
    "node_id": "MDQ6VXNlcjE0MTk2NDk=",
    "avatar_url": "https://avatars.githubusercontent.com/u/1419649?v=4",
    "gravatar_id": "",
    "url": "https://api.github.com/users/Diapolo",
    "html_url": "https://github.com/Diapolo",
    "followers_url": "https://api.github.com/users/Diapolo/followers",
    "following_url": "https://api.github.com/users/Diapolo/following{/other_user}",
    "gists_url": "https://api.github.com/users/Diapolo/gists{/gist_id}",
    "starred_url": "https://api.github.com/users/Diapolo/starred{/owner}{/repo}",
    "subscriptions_url": "https://api.github.com/users/Diapolo/subscriptions",
    "organizations_url": "https://api.github.com/users/Diapolo/orgs",
    "repos_url": "https://api.github.com/users/Diapolo/repos",
    "events_url": "https://api.github.com/users/Diapolo/events{/privacy}",
    "received_events_url": "https://api.github.com/users/Diapolo/received_events",
    "type": "User",
    "site_admin": false
  },
  "labels": [

  ],
  "state": "closed",
  "locked": true,
  "assignee": null,
  "assignees": [

  ],
  "milestone": null,
  "comments": 0,
  "created_at": "2015-01-16T07:55:05Z",
  "updated_at": "2021-09-08T11:16:24Z",
  "closed_at": "2015-01-16T09:32:45Z",
  "author_association": "NONE",
  "active_lock_reason": "resolved",
  "draft": false,
  "pull_request": {
    "url": "https://api.github.com/repos/bitcoin/bitcoin/pulls/5673",
    "html_url": "https://github.com/bitcoin/bitcoin/pull/5673",
    "diff_url": "https://github.com/bitcoin/bitcoin/pull/5673.diff",
    "patch_url": "https://github.com/bitcoin/bitcoin/pull/5673.patch",
    "merged_at": null
  },
  "body_html": "<ul dir=\"auto\">\n<li>before this was logged as \"Using 0 threads for script verification\" and<br>\nnow reads \"Using direct script verification (threads disabled)\"</li>\n</ul>\n<p dir=\"auto\">2nd commit (because init related):</p>\n<ul dir=\"auto\">\n<li>minor logging change in init when !ENABLE_WALLET</li>\n</ul>",
  "body_text": "before this was logged as \"Using 0 threads for script verification\" and\nnow reads \"Using direct script verification (threads disabled)\"\n\n2nd commit (because init related):\n\nminor logging change in init when !ENABLE_WALLET",
  "body": "- before this was logged as \"Using 0 threads for script verification\" and\n  now reads \"Using direct script verification (threads disabled)\"\n\n2nd commit (because init related):\n- minor logging change in init when !ENABLE_WALLET\n",
  "closed_by": {
    "login": "laanwj",
    "id": 126646,
    "node_id": "MDQ6VXNlcjEyNjY0Ng==",
    "avatar_url": "https://avatars.githubusercontent.com/u/126646?v=4",
    "gravatar_id": "",
    "url": "https://api.github.com/users/laanwj",
    "html_url": "https://github.com/laanwj",
    "followers_url": "https://api.github.com/users/laanwj/followers",
    "following_url": "https://api.github.com/users/laanwj/following{/other_user}",
    "gists_url": "https://api.github.com/users/laanwj/gists{/gist_id}",
    "starred_url": "https://api.github.com/users/laanwj/starred{/owner}{/repo}",
    "subscriptions_url": "https://api.github.com/users/laanwj/subscriptions",
    "organizations_url": "https://api.github.com/users/laanwj/orgs",
    "repos_url": "https://api.github.com/users/laanwj/repos",
    "events_url": "https://api.github.com/users/laanwj/events{/privacy}",
    "received_events_url": "https://api.github.com/users/laanwj/received_events",
    "type": "User",
    "site_admin": false
  },
  "reactions": {
    "url": "https://api.github.com/repos/bitcoin/bitcoin/issues/5673/reactions",
    "total_count": 0,
    "+1": 0,
    "-1": 0,
    "laugh": 0,
    "hooray": 0,
    "confused": 0,
    "heart": 0,
    "rocket": 0,
    "eyes": 0
  },
  "timeline_url": "https://api.github.com/repos/bitcoin/bitcoin/issues/5673/timeline",
  "performed_via_github_app": null,
  "state_reason": null
}
