[
  {
    "url": "https://api.github.com/repos/bitcoin/bitcoin/issues/comments/556225907",
    "html_url": "https://github.com/bitcoin/bitcoin/pull/17536#issuecomment-556225907",
    "issue_url": "https://api.github.com/repos/bitcoin/bitcoin/issues/17536",
    "id": 556225907,
    "node_id": "MDEyOklzc3VlQ29tbWVudDU1NjIyNTkwNw==",
    "user": {
      "login": "JeremyRubin",
      "id": 886523,
      "node_id": "MDQ6VXNlcjg4NjUyMw==",
      "avatar_url": "https://avatars.githubusercontent.com/u/886523?v=4",
      "gravatar_id": "",
      "url": "https://api.github.com/users/JeremyRubin",
      "html_url": "https://github.com/JeremyRubin",
      "followers_url": "https://api.github.com/users/JeremyRubin/followers",
      "following_url": "https://api.github.com/users/JeremyRubin/following{/other_user}",
      "gists_url": "https://api.github.com/users/JeremyRubin/gists{/gist_id}",
      "starred_url": "https://api.github.com/users/JeremyRubin/starred{/owner}{/repo}",
      "subscriptions_url": "https://api.github.com/users/JeremyRubin/subscriptions",
      "organizations_url": "https://api.github.com/users/JeremyRubin/orgs",
      "repos_url": "https://api.github.com/users/JeremyRubin/repos",
      "events_url": "https://api.github.com/users/JeremyRubin/events{/privacy}",
      "received_events_url": "https://api.github.com/users/JeremyRubin/received_events",
      "type": "User",
      "site_admin": false
    },
    "created_at": "2019-11-20T18:39:45Z",
    "updated_at": "2019-11-20T18:39:45Z",
    "author_association": "CONTRIBUTOR",
    "body_html": "<p dir=\"auto\">The test looks good so far!</p>\n<p dir=\"auto\">Some other conditions to check:</p>\n<div class=\"snippet-clipboard-content notranslate position-relative overflow-auto\" data-snippet-clipboard-copy-content=\"rpcwhitelist=user1:A,B,C\nrpcwhitelist=user1:B\"><pre class=\"notranslate\"><code class=\"notranslate\">rpcwhitelist=user1:A,B,C\nrpcwhitelist=user1:B\n</code></pre></div>\n<p dir=\"auto\">results in only B being available, not A or C.</p>\n<p dir=\"auto\">Test empty rpcwhitelist</p>\n<div class=\"snippet-clipboard-content notranslate position-relative overflow-auto\" data-snippet-clipboard-copy-content=\"rpcwhitelist=user1\nrpcwhitelist=user2:\"><pre class=\"notranslate\"><code class=\"notranslate\">rpcwhitelist=user1\nrpcwhitelist=user2:\n</code></pre></div>\n<p dir=\"auto\">Test trailing comma</p>\n<div class=\"snippet-clipboard-content notranslate position-relative overflow-auto\" data-snippet-clipboard-copy-content=\"rpcwhitelist=user1:A,\"><pre class=\"notranslate\"><code class=\"notranslate\">rpcwhitelist=user1:A,\n</code></pre></div>\n<p dir=\"auto\">Test the above where <code class=\"notranslate\">whitelistrpcdefault=1</code> is set. This case is really difficult to do because the testing framework assumes access to the RPCs for setup. So you can set up setting the args for the test-framework's rpc credential to be sufficient, but then testing the case where there are no credentialed users seems... hard! But maybe we're OK with not covering that case via test.</p>\n<p dir=\"auto\">It also looks like there is a new method (since I wrote the original test sketch?) called \"add_options\", which you could override to add the command line args... but what's written works so if it ain't broke...</p>",
    "body_text": "The test looks good so far!\nSome other conditions to check:\nrpcwhitelist=user1:A,B,C\nrpcwhitelist=user1:B\n\nresults in only B being available, not A or C.\nTest empty rpcwhitelist\nrpcwhitelist=user1\nrpcwhitelist=user2:\n\nTest trailing comma\nrpcwhitelist=user1:A,\n\nTest the above where whitelistrpcdefault=1 is set. This case is really difficult to do because the testing framework assumes access to the RPCs for setup. So you can set up setting the args for the test-framework's rpc credential to be sufficient, but then testing the case where there are no credentialed users seems... hard! But maybe we're OK with not covering that case via test.\nIt also looks like there is a new method (since I wrote the original test sketch?) called \"add_options\", which you could override to add the command line args... but what's written works so if it ain't broke...",
    "body": "The test looks good so far!\r\n\r\nSome other conditions to check:\r\n\r\n```\r\nrpcwhitelist=user1:A,B,C\r\nrpcwhitelist=user1:B\r\n```\r\n\r\nresults in only B being available, not A or C.\r\n\r\n\r\nTest empty rpcwhitelist\r\n```\r\nrpcwhitelist=user1\r\nrpcwhitelist=user2:\r\n```\r\n\r\nTest trailing comma\r\n```\r\nrpcwhitelist=user1:A,\r\n```\r\n\r\n\r\nTest the above where `whitelistrpcdefault=1` is set. This case is really difficult to do because the testing framework assumes access to the RPCs for setup. So you can set up setting the args for the test-framework's rpc credential to be sufficient, but then testing the case where there are no credentialed users seems... hard! But maybe we're OK with not covering that case via test.\r\n\r\nIt also looks like there is a new method (since I wrote the original test sketch?) called \"add_options\", which you could override to add the command line args... but what's written works so if it ain't broke...\r\n\r\n",
    "reactions": {
      "url": "https://api.github.com/repos/bitcoin/bitcoin/issues/comments/556225907/reactions",
      "total_count": 1,
      "+1": 1,
      "-1": 0,
      "laugh": 0,
      "hooray": 0,
      "confused": 0,
      "heart": 0,
      "rocket": 0,
      "eyes": 0
    },
    "performed_via_github_app": null
  },
  {
    "url": "https://api.github.com/repos/bitcoin/bitcoin/issues/comments/556271906",
    "html_url": "https://github.com/bitcoin/bitcoin/pull/17536#issuecomment-556271906",
    "issue_url": "https://api.github.com/repos/bitcoin/bitcoin/issues/17536",
    "id": 556271906,
    "node_id": "MDEyOklzc3VlQ29tbWVudDU1NjI3MTkwNg==",
    "user": {
      "login": "DrahtBot",
      "id": 39886733,
      "node_id": "MDQ6VXNlcjM5ODg2NzMz",
      "avatar_url": "https://avatars.githubusercontent.com/u/39886733?v=4",
      "gravatar_id": "",
      "url": "https://api.github.com/users/DrahtBot",
      "html_url": "https://github.com/DrahtBot",
      "followers_url": "https://api.github.com/users/DrahtBot/followers",
      "following_url": "https://api.github.com/users/DrahtBot/following{/other_user}",
      "gists_url": "https://api.github.com/users/DrahtBot/gists{/gist_id}",
      "starred_url": "https://api.github.com/users/DrahtBot/starred{/owner}{/repo}",
      "subscriptions_url": "https://api.github.com/users/DrahtBot/subscriptions",
      "organizations_url": "https://api.github.com/users/DrahtBot/orgs",
      "repos_url": "https://api.github.com/users/DrahtBot/repos",
      "events_url": "https://api.github.com/users/DrahtBot/events{/privacy}",
      "received_events_url": "https://api.github.com/users/DrahtBot/received_events",
      "type": "User",
      "site_admin": false
    },
    "created_at": "2019-11-20T19:18:51Z",
    "updated_at": "2019-12-12T20:59:56Z",
    "author_association": "CONTRIBUTOR",
    "body_html": "\n<p dir=\"auto\">The following sections might be updated with supplementary metadata relevant to reviewers and maintainers.</p>\n\n<h3 dir=\"auto\">Conflicts</h3>\n<p dir=\"auto\">Reviewers, this pull request conflicts with the following ones:</p>\n<ul dir=\"auto\">\n<li><a href=\"https://drahtbot.github.io/bitcoin_core_issue_redirect/r/16698.html\" rel=\"nofollow\">#16698</a> (Mempool: rework rebroadcast logic to improve privacy by amitiuttarwar)</li>\n<li><a href=\"https://drahtbot.github.io/bitcoin_core_issue_redirect/r/16673.html\" rel=\"nofollow\">#16673</a> (Relog configuration args on debug.log rotation by LarryRuane)</li>\n<li><a href=\"https://drahtbot.github.io/bitcoin_core_issue_redirect/r/16115.html\" rel=\"nofollow\">#16115</a> (On bitcoind startup, write config args to debug.log by LarryRuane)</li>\n</ul>\n<p dir=\"auto\">If you consider this pull request important, please also help to review the conflicting pull requests. Ideally, start with the one that should be merged first.</p>",
    "body_text": "The following sections might be updated with supplementary metadata relevant to reviewers and maintainers.\n\nConflicts\nReviewers, this pull request conflicts with the following ones:\n\n#16698 (Mempool: rework rebroadcast logic to improve privacy by amitiuttarwar)\n#16673 (Relog configuration args on debug.log rotation by LarryRuane)\n#16115 (On bitcoind startup, write config args to debug.log by LarryRuane)\n\nIf you consider this pull request important, please also help to review the conflicting pull requests. Ideally, start with the one that should be merged first.",
    "body": "<!--e57a25ab6845829454e8d69fc972939a-->\n\nThe following sections might be updated with supplementary metadata relevant to reviewers and maintainers.\n\n<!--174a7506f384e20aa4161008e828411d-->\n### Conflicts\nReviewers, this pull request conflicts with the following ones:\n\n* [#16698](https://drahtbot.github.io/bitcoin_core_issue_redirect/r/16698.html) (Mempool: rework rebroadcast logic to improve privacy by amitiuttarwar)\n* [#16673](https://drahtbot.github.io/bitcoin_core_issue_redirect/r/16673.html) (Relog configuration args on debug.log rotation by LarryRuane)\n* [#16115](https://drahtbot.github.io/bitcoin_core_issue_redirect/r/16115.html) (On bitcoind startup, write config args to debug.log by LarryRuane)\n\nIf you consider this pull request important, please also help to review the conflicting pull requests. Ideally, start with the one that should be merged first.",
    "reactions": {
      "url": "https://api.github.com/repos/bitcoin/bitcoin/issues/comments/556271906/reactions",
      "total_count": 1,
      "+1": 1,
      "-1": 0,
      "laugh": 0,
      "hooray": 0,
      "confused": 0,
      "heart": 0,
      "rocket": 0,
      "eyes": 0
    },
    "performed_via_github_app": null
  },
  {
    "url": "https://api.github.com/repos/bitcoin/bitcoin/issues/comments/556305394",
    "html_url": "https://github.com/bitcoin/bitcoin/pull/17536#issuecomment-556305394",
    "issue_url": "https://api.github.com/repos/bitcoin/bitcoin/issues/17536",
    "id": 556305394,
    "node_id": "MDEyOklzc3VlQ29tbWVudDU1NjMwNTM5NA==",
    "user": {
      "login": "emilengler",
      "id": 12272949,
      "node_id": "MDQ6VXNlcjEyMjcyOTQ5",
      "avatar_url": "https://avatars.githubusercontent.com/u/12272949?v=4",
      "gravatar_id": "",
      "url": "https://api.github.com/users/emilengler",
      "html_url": "https://github.com/emilengler",
      "followers_url": "https://api.github.com/users/emilengler/followers",
      "following_url": "https://api.github.com/users/emilengler/following{/other_user}",
      "gists_url": "https://api.github.com/users/emilengler/gists{/gist_id}",
      "starred_url": "https://api.github.com/users/emilengler/starred{/owner}{/repo}",
      "subscriptions_url": "https://api.github.com/users/emilengler/subscriptions",
      "organizations_url": "https://api.github.com/users/emilengler/orgs",
      "repos_url": "https://api.github.com/users/emilengler/repos",
      "events_url": "https://api.github.com/users/emilengler/events{/privacy}",
      "received_events_url": "https://api.github.com/users/emilengler/received_events",
      "type": "User",
      "site_admin": false
    },
    "created_at": "2019-11-20T19:47:52Z",
    "updated_at": "2019-11-20T19:47:52Z",
    "author_association": "CONTRIBUTOR",
    "body_html": "<p dir=\"auto\"><a class=\"user-mention notranslate\" data-hovercard-type=\"user\" data-hovercard-url=\"/users/JeremyRubin/hovercard\" data-octo-click=\"hovercard-link-click\" data-octo-dimensions=\"link_type:self\" href=\"https://github.com/JeremyRubin\">@JeremyRubin</a><br>\nThe test was written from scratch with a method taken from <code class=\"notranslate\">rpc_users.py</code><br>\nI will add your suggestions now</p>",
    "body_text": "@JeremyRubin\nThe test was written from scratch with a method taken from rpc_users.py\nI will add your suggestions now",
    "body": "@JeremyRubin \r\nThe test was written from scratch with a method taken from `rpc_users.py`\r\nI will add your suggestions now",
    "reactions": {
      "url": "https://api.github.com/repos/bitcoin/bitcoin/issues/comments/556305394/reactions",
      "total_count": 1,
      "+1": 1,
      "-1": 0,
      "laugh": 0,
      "hooray": 0,
      "confused": 0,
      "heart": 0,
      "rocket": 0,
      "eyes": 0
    },
    "performed_via_github_app": null
  },
  {
    "url": "https://api.github.com/repos/bitcoin/bitcoin/issues/comments/556355916",
    "html_url": "https://github.com/bitcoin/bitcoin/pull/17536#issuecomment-556355916",
    "issue_url": "https://api.github.com/repos/bitcoin/bitcoin/issues/17536",
    "id": 556355916,
    "node_id": "MDEyOklzc3VlQ29tbWVudDU1NjM1NTkxNg==",
    "user": {
      "login": "JeremyRubin",
      "id": 886523,
      "node_id": "MDQ6VXNlcjg4NjUyMw==",
      "avatar_url": "https://avatars.githubusercontent.com/u/886523?v=4",
      "gravatar_id": "",
      "url": "https://api.github.com/users/JeremyRubin",
      "html_url": "https://github.com/JeremyRubin",
      "followers_url": "https://api.github.com/users/JeremyRubin/followers",
      "following_url": "https://api.github.com/users/JeremyRubin/following{/other_user}",
      "gists_url": "https://api.github.com/users/JeremyRubin/gists{/gist_id}",
      "starred_url": "https://api.github.com/users/JeremyRubin/starred{/owner}{/repo}",
      "subscriptions_url": "https://api.github.com/users/JeremyRubin/subscriptions",
      "organizations_url": "https://api.github.com/users/JeremyRubin/orgs",
      "repos_url": "https://api.github.com/users/JeremyRubin/repos",
      "events_url": "https://api.github.com/users/JeremyRubin/events{/privacy}",
      "received_events_url": "https://api.github.com/users/JeremyRubin/received_events",
      "type": "User",
      "site_admin": false
    },
    "created_at": "2019-11-20T20:31:22Z",
    "updated_at": "2019-11-20T20:31:22Z",
    "author_association": "CONTRIBUTOR",
    "body_html": "<p dir=\"auto\">Ah yeah -- I just mean that I think the add_options method appears to be new -- newer than rpc_users too I guess? Not sure!</p>",
    "body_text": "Ah yeah -- I just mean that I think the add_options method appears to be new -- newer than rpc_users too I guess? Not sure!",
    "body": "Ah yeah -- I just mean that I think the add_options method appears to be new -- newer than rpc_users too I guess? Not sure!",
    "reactions": {
      "url": "https://api.github.com/repos/bitcoin/bitcoin/issues/comments/556355916/reactions",
      "total_count": 1,
      "+1": 1,
      "-1": 0,
      "laugh": 0,
      "hooray": 0,
      "confused": 0,
      "heart": 0,
      "rocket": 0,
      "eyes": 0
    },
    "performed_via_github_app": null
  },
  {
    "url": "https://api.github.com/repos/bitcoin/bitcoin/issues/comments/556370904",
    "html_url": "https://github.com/bitcoin/bitcoin/pull/17536#issuecomment-556370904",
    "issue_url": "https://api.github.com/repos/bitcoin/bitcoin/issues/17536",
    "id": 556370904,
    "node_id": "MDEyOklzc3VlQ29tbWVudDU1NjM3MDkwNA==",
    "user": {
      "login": "JeremyRubin",
      "id": 886523,
      "node_id": "MDQ6VXNlcjg4NjUyMw==",
      "avatar_url": "https://avatars.githubusercontent.com/u/886523?v=4",
      "gravatar_id": "",
      "url": "https://api.github.com/users/JeremyRubin",
      "html_url": "https://github.com/JeremyRubin",
      "followers_url": "https://api.github.com/users/JeremyRubin/followers",
      "following_url": "https://api.github.com/users/JeremyRubin/following{/other_user}",
      "gists_url": "https://api.github.com/users/JeremyRubin/gists{/gist_id}",
      "starred_url": "https://api.github.com/users/JeremyRubin/starred{/owner}{/repo}",
      "subscriptions_url": "https://api.github.com/users/JeremyRubin/subscriptions",
      "organizations_url": "https://api.github.com/users/JeremyRubin/orgs",
      "repos_url": "https://api.github.com/users/JeremyRubin/repos",
      "events_url": "https://api.github.com/users/JeremyRubin/events{/privacy}",
      "received_events_url": "https://api.github.com/users/JeremyRubin/received_events",
      "type": "User",
      "site_admin": false
    },
    "created_at": "2019-11-20T20:44:38Z",
    "updated_at": "2019-11-20T20:44:38Z",
    "author_association": "CONTRIBUTOR",
    "body_html": "<p dir=\"auto\">BTW (maybe a minority opinion here) but those linters are <em>super</em> pesky.</p>\n<p dir=\"auto\">You need to fix the typos on \"permissions\" in order for the tests to run.</p>",
    "body_text": "BTW (maybe a minority opinion here) but those linters are super pesky.\nYou need to fix the typos on \"permissions\" in order for the tests to run.",
    "body": "BTW (maybe a minority opinion here) but those linters are *super* pesky.\r\n\r\nYou need to fix the typos on \"permissions\" in order for the tests to run.",
    "reactions": {
      "url": "https://api.github.com/repos/bitcoin/bitcoin/issues/comments/556370904/reactions",
      "total_count": 1,
      "+1": 1,
      "-1": 0,
      "laugh": 0,
      "hooray": 0,
      "confused": 0,
      "heart": 0,
      "rocket": 0,
      "eyes": 0
    },
    "performed_via_github_app": null
  },
  {
    "url": "https://api.github.com/repos/bitcoin/bitcoin/issues/comments/556376093",
    "html_url": "https://github.com/bitcoin/bitcoin/pull/17536#issuecomment-556376093",
    "issue_url": "https://api.github.com/repos/bitcoin/bitcoin/issues/17536",
    "id": 556376093,
    "node_id": "MDEyOklzc3VlQ29tbWVudDU1NjM3NjA5Mw==",
    "user": {
      "login": "emilengler",
      "id": 12272949,
      "node_id": "MDQ6VXNlcjEyMjcyOTQ5",
      "avatar_url": "https://avatars.githubusercontent.com/u/12272949?v=4",
      "gravatar_id": "",
      "url": "https://api.github.com/users/emilengler",
      "html_url": "https://github.com/emilengler",
      "followers_url": "https://api.github.com/users/emilengler/followers",
      "following_url": "https://api.github.com/users/emilengler/following{/other_user}",
      "gists_url": "https://api.github.com/users/emilengler/gists{/gist_id}",
      "starred_url": "https://api.github.com/users/emilengler/starred{/owner}{/repo}",
      "subscriptions_url": "https://api.github.com/users/emilengler/subscriptions",
      "organizations_url": "https://api.github.com/users/emilengler/orgs",
      "repos_url": "https://api.github.com/users/emilengler/repos",
      "events_url": "https://api.github.com/users/emilengler/events{/privacy}",
      "received_events_url": "https://api.github.com/users/emilengler/received_events",
      "type": "User",
      "site_admin": false
    },
    "created_at": "2019-11-20T20:49:12Z",
    "updated_at": "2019-11-20T20:50:24Z",
    "author_association": "CONTRIBUTOR",
    "body_html": "<p dir=\"auto\"><a class=\"user-mention notranslate\" data-hovercard-type=\"user\" data-hovercard-url=\"/users/JeremyRubin/hovercard\" data-octo-click=\"hovercard-link-click\" data-octo-dimensions=\"link_type:self\" href=\"https://github.com/JeremyRubin\">@JeremyRubin</a> Ok, will change that.<br>\nI also added the exceptions mentioned in your first comment. See <a class=\"commit-link\" data-hovercard-type=\"commit\" data-hovercard-url=\"https://github.com/bitcoin/bitcoin/commit/f012f128c7c68a4f743cb06f7616997653943352/hovercard\" href=\"https://github.com/bitcoin/bitcoin/commit/f012f128c7c68a4f743cb06f7616997653943352\"><tt>f012f12</tt></a></p>",
    "body_text": "@JeremyRubin Ok, will change that.\nI also added the exceptions mentioned in your first comment. See f012f12",
    "body": "@JeremyRubin Ok, will change that.\r\nI also added the exceptions mentioned in your first comment. See f012f12",
    "reactions": {
      "url": "https://api.github.com/repos/bitcoin/bitcoin/issues/comments/556376093/reactions",
      "total_count": 1,
      "+1": 1,
      "-1": 0,
      "laugh": 0,
      "hooray": 0,
      "confused": 0,
      "heart": 0,
      "rocket": 0,
      "eyes": 0
    },
    "performed_via_github_app": null
  },
  {
    "url": "https://api.github.com/repos/bitcoin/bitcoin/issues/comments/556379660",
    "html_url": "https://github.com/bitcoin/bitcoin/pull/17536#issuecomment-556379660",
    "issue_url": "https://api.github.com/repos/bitcoin/bitcoin/issues/17536",
    "id": 556379660,
    "node_id": "MDEyOklzc3VlQ29tbWVudDU1NjM3OTY2MA==",
    "user": {
      "login": "emilengler",
      "id": 12272949,
      "node_id": "MDQ6VXNlcjEyMjcyOTQ5",
      "avatar_url": "https://avatars.githubusercontent.com/u/12272949?v=4",
      "gravatar_id": "",
      "url": "https://api.github.com/users/emilengler",
      "html_url": "https://github.com/emilengler",
      "followers_url": "https://api.github.com/users/emilengler/followers",
      "following_url": "https://api.github.com/users/emilengler/following{/other_user}",
      "gists_url": "https://api.github.com/users/emilengler/gists{/gist_id}",
      "starred_url": "https://api.github.com/users/emilengler/starred{/owner}{/repo}",
      "subscriptions_url": "https://api.github.com/users/emilengler/subscriptions",
      "organizations_url": "https://api.github.com/users/emilengler/orgs",
      "repos_url": "https://api.github.com/users/emilengler/repos",
      "events_url": "https://api.github.com/users/emilengler/events{/privacy}",
      "received_events_url": "https://api.github.com/users/emilengler/received_events",
      "type": "User",
      "site_admin": false
    },
    "created_at": "2019-11-20T20:52:21Z",
    "updated_at": "2019-11-20T20:52:21Z",
    "author_association": "CONTRIBUTOR",
    "body_html": "<p dir=\"auto\">BTW where you've found the type you meant in the comment? Any line number please?</p>",
    "body_text": "BTW where you've found the type you meant in the comment? Any line number please?",
    "body": "BTW where you've found the type you meant in the comment? Any line number please?",
    "reactions": {
      "url": "https://api.github.com/repos/bitcoin/bitcoin/issues/comments/556379660/reactions",
      "total_count": 1,
      "+1": 1,
      "-1": 0,
      "laugh": 0,
      "hooray": 0,
      "confused": 0,
      "heart": 0,
      "rocket": 0,
      "eyes": 0
    },
    "performed_via_github_app": null
  },
  {
    "url": "https://api.github.com/repos/bitcoin/bitcoin/issues/comments/556390404",
    "html_url": "https://github.com/bitcoin/bitcoin/pull/17536#issuecomment-556390404",
    "issue_url": "https://api.github.com/repos/bitcoin/bitcoin/issues/17536",
    "id": 556390404,
    "node_id": "MDEyOklzc3VlQ29tbWVudDU1NjM5MDQwNA==",
    "user": {
      "login": "maflcko",
      "id": 6399679,
      "node_id": "MDQ6VXNlcjYzOTk2Nzk=",
      "avatar_url": "https://avatars.githubusercontent.com/u/6399679?v=4",
      "gravatar_id": "",
      "url": "https://api.github.com/users/maflcko",
      "html_url": "https://github.com/maflcko",
      "followers_url": "https://api.github.com/users/maflcko/followers",
      "following_url": "https://api.github.com/users/maflcko/following{/other_user}",
      "gists_url": "https://api.github.com/users/maflcko/gists{/gist_id}",
      "starred_url": "https://api.github.com/users/maflcko/starred{/owner}{/repo}",
      "subscriptions_url": "https://api.github.com/users/maflcko/subscriptions",
      "organizations_url": "https://api.github.com/users/maflcko/orgs",
      "repos_url": "https://api.github.com/users/maflcko/repos",
      "events_url": "https://api.github.com/users/maflcko/events{/privacy}",
      "received_events_url": "https://api.github.com/users/maflcko/received_events",
      "type": "User",
      "site_admin": false
    },
    "created_at": "2019-11-20T21:01:44Z",
    "updated_at": "2019-11-20T21:01:44Z",
    "author_association": "MEMBER",
    "body_html": "<p dir=\"auto\">The linters fail because trailing white space was added. Trailing white space is causing issues with <code class=\"notranslate\">git</code> and many editors. The type can be left as is if you want to.</p>",
    "body_text": "The linters fail because trailing white space was added. Trailing white space is causing issues with git and many editors. The type can be left as is if you want to.",
    "body": "The linters fail because trailing white space was added. Trailing white space is causing issues with `git` and many editors. The type can be left as is if you want to.",
    "reactions": {
      "url": "https://api.github.com/repos/bitcoin/bitcoin/issues/comments/556390404/reactions",
      "total_count": 1,
      "+1": 1,
      "-1": 0,
      "laugh": 0,
      "hooray": 0,
      "confused": 0,
      "heart": 0,
      "rocket": 0,
      "eyes": 0
    },
    "performed_via_github_app": null
  },
  {
    "url": "https://api.github.com/repos/bitcoin/bitcoin/issues/comments/556396050",
    "html_url": "https://github.com/bitcoin/bitcoin/pull/17536#issuecomment-556396050",
    "issue_url": "https://api.github.com/repos/bitcoin/bitcoin/issues/17536",
    "id": 556396050,
    "node_id": "MDEyOklzc3VlQ29tbWVudDU1NjM5NjA1MA==",
    "user": {
      "login": "emilengler",
      "id": 12272949,
      "node_id": "MDQ6VXNlcjEyMjcyOTQ5",
      "avatar_url": "https://avatars.githubusercontent.com/u/12272949?v=4",
      "gravatar_id": "",
      "url": "https://api.github.com/users/emilengler",
      "html_url": "https://github.com/emilengler",
      "followers_url": "https://api.github.com/users/emilengler/followers",
      "following_url": "https://api.github.com/users/emilengler/following{/other_user}",
      "gists_url": "https://api.github.com/users/emilengler/gists{/gist_id}",
      "starred_url": "https://api.github.com/users/emilengler/starred{/owner}{/repo}",
      "subscriptions_url": "https://api.github.com/users/emilengler/subscriptions",
      "organizations_url": "https://api.github.com/users/emilengler/orgs",
      "repos_url": "https://api.github.com/users/emilengler/repos",
      "events_url": "https://api.github.com/users/emilengler/events{/privacy}",
      "received_events_url": "https://api.github.com/users/emilengler/received_events",
      "type": "User",
      "site_admin": false
    },
    "created_at": "2019-11-20T21:06:39Z",
    "updated_at": "2019-11-20T21:06:39Z",
    "author_association": "CONTRIBUTOR",
    "body_html": "<p dir=\"auto\">Oh now I understand what you mean :D<br>\nShould be fixed now</p>",
    "body_text": "Oh now I understand what you mean :D\nShould be fixed now",
    "body": "Oh now I understand what you mean :D\r\nShould be fixed now",
    "reactions": {
      "url": "https://api.github.com/repos/bitcoin/bitcoin/issues/comments/556396050/reactions",
      "total_count": 1,
      "+1": 1,
      "-1": 0,
      "laugh": 0,
      "hooray": 0,
      "confused": 0,
      "heart": 0,
      "rocket": 0,
      "eyes": 0
    },
    "performed_via_github_app": null
  },
  {
    "url": "https://api.github.com/repos/bitcoin/bitcoin/issues/comments/556411304",
    "html_url": "https://github.com/bitcoin/bitcoin/pull/17536#issuecomment-556411304",
    "issue_url": "https://api.github.com/repos/bitcoin/bitcoin/issues/17536",
    "id": 556411304,
    "node_id": "MDEyOklzc3VlQ29tbWVudDU1NjQxMTMwNA==",
    "user": {
      "login": "fanquake",
      "id": 863730,
      "node_id": "MDQ6VXNlcjg2MzczMA==",
      "avatar_url": "https://avatars.githubusercontent.com/u/863730?v=4",
      "gravatar_id": "",
      "url": "https://api.github.com/users/fanquake",
      "html_url": "https://github.com/fanquake",
      "followers_url": "https://api.github.com/users/fanquake/followers",
      "following_url": "https://api.github.com/users/fanquake/following{/other_user}",
      "gists_url": "https://api.github.com/users/fanquake/gists{/gist_id}",
      "starred_url": "https://api.github.com/users/fanquake/starred{/owner}{/repo}",
      "subscriptions_url": "https://api.github.com/users/fanquake/subscriptions",
      "organizations_url": "https://api.github.com/users/fanquake/orgs",
      "repos_url": "https://api.github.com/users/fanquake/repos",
      "events_url": "https://api.github.com/users/fanquake/events{/privacy}",
      "received_events_url": "https://api.github.com/users/fanquake/received_events",
      "type": "User",
      "site_admin": false
    },
    "created_at": "2019-11-20T21:19:55Z",
    "updated_at": "2019-11-20T21:19:55Z",
    "author_association": "MEMBER",
    "body_html": "<p dir=\"auto\"><a class=\"user-mention notranslate\" data-hovercard-type=\"user\" data-hovercard-url=\"/users/emilengler/hovercard\" data-octo-click=\"hovercard-link-click\" data-octo-dimensions=\"link_type:self\" href=\"https://github.com/emilengler\">@emilengler</a> You need need to <a href=\"https://github.com/bitcoin/bitcoin/blob/master/CONTRIBUTING.md#squashing-commits\">squash your commits</a>. If you're fixing things like typos and whitespace, you'll always need to squash, so it's best to just do it before pushing to GitHub.</p>",
    "body_text": "@emilengler You need need to squash your commits. If you're fixing things like typos and whitespace, you'll always need to squash, so it's best to just do it before pushing to GitHub.",
    "body": "@emilengler You need need to [squash your commits](https://github.com/bitcoin/bitcoin/blob/master/CONTRIBUTING.md#squashing-commits). If you're fixing things like typos and whitespace, you'll always need to squash, so it's best to just do it before pushing to GitHub.",
    "reactions": {
      "url": "https://api.github.com/repos/bitcoin/bitcoin/issues/comments/556411304/reactions",
      "total_count": 0,
      "+1": 0,
      "-1": 0,
      "laugh": 0,
      "hooray": 0,
      "confused": 0,
      "heart": 0,
      "rocket": 0,
      "eyes": 0
    },
    "performed_via_github_app": null
  },
  {
    "url": "https://api.github.com/repos/bitcoin/bitcoin/issues/comments/556413353",
    "html_url": "https://github.com/bitcoin/bitcoin/pull/17536#issuecomment-556413353",
    "issue_url": "https://api.github.com/repos/bitcoin/bitcoin/issues/17536",
    "id": 556413353,
    "node_id": "MDEyOklzc3VlQ29tbWVudDU1NjQxMzM1Mw==",
    "user": {
      "login": "emilengler",
      "id": 12272949,
      "node_id": "MDQ6VXNlcjEyMjcyOTQ5",
      "avatar_url": "https://avatars.githubusercontent.com/u/12272949?v=4",
      "gravatar_id": "",
      "url": "https://api.github.com/users/emilengler",
      "html_url": "https://github.com/emilengler",
      "followers_url": "https://api.github.com/users/emilengler/followers",
      "following_url": "https://api.github.com/users/emilengler/following{/other_user}",
      "gists_url": "https://api.github.com/users/emilengler/gists{/gist_id}",
      "starred_url": "https://api.github.com/users/emilengler/starred{/owner}{/repo}",
      "subscriptions_url": "https://api.github.com/users/emilengler/subscriptions",
      "organizations_url": "https://api.github.com/users/emilengler/orgs",
      "repos_url": "https://api.github.com/users/emilengler/repos",
      "events_url": "https://api.github.com/users/emilengler/events{/privacy}",
      "received_events_url": "https://api.github.com/users/emilengler/received_events",
      "type": "User",
      "site_admin": false
    },
    "created_at": "2019-11-20T21:21:45Z",
    "updated_at": "2019-11-20T21:21:45Z",
    "author_association": "CONTRIBUTOR",
    "body_html": "<p dir=\"auto\"><a class=\"user-mention notranslate\" data-hovercard-type=\"user\" data-hovercard-url=\"/users/fanquake/hovercard\" data-octo-click=\"hovercard-link-click\" data-octo-dimensions=\"link_type:self\" href=\"https://github.com/fanquake\">@fanquake</a> Done</p>",
    "body_text": "@fanquake Done",
    "body": "@fanquake Done",
    "reactions": {
      "url": "https://api.github.com/repos/bitcoin/bitcoin/issues/comments/556413353/reactions",
      "total_count": 0,
      "+1": 0,
      "-1": 0,
      "laugh": 0,
      "hooray": 0,
      "confused": 0,
      "heart": 0,
      "rocket": 0,
      "eyes": 0
    },
    "performed_via_github_app": null
  },
  {
    "url": "https://api.github.com/repos/bitcoin/bitcoin/issues/comments/556453378",
    "html_url": "https://github.com/bitcoin/bitcoin/pull/17536#issuecomment-556453378",
    "issue_url": "https://api.github.com/repos/bitcoin/bitcoin/issues/17536",
    "id": 556453378,
    "node_id": "MDEyOklzc3VlQ29tbWVudDU1NjQ1MzM3OA==",
    "user": {
      "login": "maflcko",
      "id": 6399679,
      "node_id": "MDQ6VXNlcjYzOTk2Nzk=",
      "avatar_url": "https://avatars.githubusercontent.com/u/6399679?v=4",
      "gravatar_id": "",
      "url": "https://api.github.com/users/maflcko",
      "html_url": "https://github.com/maflcko",
      "followers_url": "https://api.github.com/users/maflcko/followers",
      "following_url": "https://api.github.com/users/maflcko/following{/other_user}",
      "gists_url": "https://api.github.com/users/maflcko/gists{/gist_id}",
      "starred_url": "https://api.github.com/users/maflcko/starred{/owner}{/repo}",
      "subscriptions_url": "https://api.github.com/users/maflcko/subscriptions",
      "organizations_url": "https://api.github.com/users/maflcko/orgs",
      "repos_url": "https://api.github.com/users/maflcko/repos",
      "events_url": "https://api.github.com/users/maflcko/events{/privacy}",
      "received_events_url": "https://api.github.com/users/maflcko/received_events",
      "type": "User",
      "site_admin": false
    },
    "created_at": "2019-11-20T21:58:19Z",
    "updated_at": "2019-11-20T21:58:19Z",
    "author_association": "MEMBER",
    "body_html": "<p dir=\"auto\">It might be possible to adjust <code class=\"notranslate\">def wait_for_rpc_connection</code> to accept the 403 error code as acceptable signal that indicates the rpc thread is running.</p>",
    "body_text": "It might be possible to adjust def wait_for_rpc_connection to accept the 403 error code as acceptable signal that indicates the rpc thread is running.",
    "body": "It might be possible to adjust `def wait_for_rpc_connection` to accept the 403 error code as acceptable signal that indicates the rpc thread is running.",
    "reactions": {
      "url": "https://api.github.com/repos/bitcoin/bitcoin/issues/comments/556453378/reactions",
      "total_count": 1,
      "+1": 1,
      "-1": 0,
      "laugh": 0,
      "hooray": 0,
      "confused": 0,
      "heart": 0,
      "rocket": 0,
      "eyes": 0
    },
    "performed_via_github_app": null
  },
  {
    "url": "https://api.github.com/repos/bitcoin/bitcoin/issues/comments/557649038",
    "html_url": "https://github.com/bitcoin/bitcoin/pull/17536#issuecomment-557649038",
    "issue_url": "https://api.github.com/repos/bitcoin/bitcoin/issues/17536",
    "id": 557649038,
    "node_id": "MDEyOklzc3VlQ29tbWVudDU1NzY0OTAzOA==",
    "user": {
      "login": "emilengler",
      "id": 12272949,
      "node_id": "MDQ6VXNlcjEyMjcyOTQ5",
      "avatar_url": "https://avatars.githubusercontent.com/u/12272949?v=4",
      "gravatar_id": "",
      "url": "https://api.github.com/users/emilengler",
      "html_url": "https://github.com/emilengler",
      "followers_url": "https://api.github.com/users/emilengler/followers",
      "following_url": "https://api.github.com/users/emilengler/following{/other_user}",
      "gists_url": "https://api.github.com/users/emilengler/gists{/gist_id}",
      "starred_url": "https://api.github.com/users/emilengler/starred{/owner}{/repo}",
      "subscriptions_url": "https://api.github.com/users/emilengler/subscriptions",
      "organizations_url": "https://api.github.com/users/emilengler/orgs",
      "repos_url": "https://api.github.com/users/emilengler/repos",
      "events_url": "https://api.github.com/users/emilengler/events{/privacy}",
      "received_events_url": "https://api.github.com/users/emilengler/received_events",
      "type": "User",
      "site_admin": false
    },
    "created_at": "2019-11-22T18:50:23Z",
    "updated_at": "2019-11-22T18:50:36Z",
    "author_association": "CONTRIBUTOR",
    "body_html": "<p dir=\"auto\">The test is done.<br>\nThe only problem is to test <code class=\"notranslate\">rpcwhitelistdefault=1</code><br>\nThere are two possible ways:</p>\n<ul dir=\"auto\">\n<li>The easy way: Just add another test (file)</li>\n<li>The hard way: Restart bitcoind with other args during the test. Any ideas on how to do this <a class=\"user-mention notranslate\" data-hovercard-type=\"user\" data-hovercard-url=\"/users/MarcoFalke/hovercard\" data-octo-click=\"hovercard-link-click\" data-octo-dimensions=\"link_type:self\" href=\"https://github.com/MarcoFalke\">@MarcoFalke</a>?</li>\n</ul>",
    "body_text": "The test is done.\nThe only problem is to test rpcwhitelistdefault=1\nThere are two possible ways:\n\nThe easy way: Just add another test (file)\nThe hard way: Restart bitcoind with other args during the test. Any ideas on how to do this @MarcoFalke?",
    "body": "The test is done.\r\nThe only problem is to test `rpcwhitelistdefault=1`\r\nThere are two possible ways:\r\n\r\n- The easy way: Just add another test (file)\r\n- The hard way: Restart bitcoind with other args during the test. Any ideas on how to do this @MarcoFalke?",
    "reactions": {
      "url": "https://api.github.com/repos/bitcoin/bitcoin/issues/comments/557649038/reactions",
      "total_count": 0,
      "+1": 0,
      "-1": 0,
      "laugh": 0,
      "hooray": 0,
      "confused": 0,
      "heart": 0,
      "rocket": 0,
      "eyes": 0
    },
    "performed_via_github_app": null
  },
  {
    "url": "https://api.github.com/repos/bitcoin/bitcoin/issues/comments/557715275",
    "html_url": "https://github.com/bitcoin/bitcoin/pull/17536#issuecomment-557715275",
    "issue_url": "https://api.github.com/repos/bitcoin/bitcoin/issues/17536",
    "id": 557715275,
    "node_id": "MDEyOklzc3VlQ29tbWVudDU1NzcxNTI3NQ==",
    "user": {
      "login": "JeremyRubin",
      "id": 886523,
      "node_id": "MDQ6VXNlcjg4NjUyMw==",
      "avatar_url": "https://avatars.githubusercontent.com/u/886523?v=4",
      "gravatar_id": "",
      "url": "https://api.github.com/users/JeremyRubin",
      "html_url": "https://github.com/JeremyRubin",
      "followers_url": "https://api.github.com/users/JeremyRubin/followers",
      "following_url": "https://api.github.com/users/JeremyRubin/following{/other_user}",
      "gists_url": "https://api.github.com/users/JeremyRubin/gists{/gist_id}",
      "starred_url": "https://api.github.com/users/JeremyRubin/starred{/owner}{/repo}",
      "subscriptions_url": "https://api.github.com/users/JeremyRubin/subscriptions",
      "organizations_url": "https://api.github.com/users/JeremyRubin/orgs",
      "repos_url": "https://api.github.com/users/JeremyRubin/repos",
      "events_url": "https://api.github.com/users/JeremyRubin/events{/privacy}",
      "received_events_url": "https://api.github.com/users/JeremyRubin/received_events",
      "type": "User",
      "site_admin": false
    },
    "created_at": "2019-11-22T22:18:06Z",
    "updated_at": "2019-11-22T22:18:06Z",
    "author_association": "CONTRIBUTOR",
    "body_html": "<p dir=\"auto\">You don't need a new file, you can just do a new subclass of the test framework in that file and call one after the other in Main.</p>\n<p dir=\"auto\">It will be a bit tough because you can't actually stop a node using RPC with rpcwhitelistdefault=1 and no auth with stop permitted. So you'd need to write a bit of code to kill by PID.</p>",
    "body_text": "You don't need a new file, you can just do a new subclass of the test framework in that file and call one after the other in Main.\nIt will be a bit tough because you can't actually stop a node using RPC with rpcwhitelistdefault=1 and no auth with stop permitted. So you'd need to write a bit of code to kill by PID.",
    "body": "You don't need a new file, you can just do a new subclass of the test framework in that file and call one after the other in Main.\r\n\r\nIt will be a bit tough because you can't actually stop a node using RPC with rpcwhitelistdefault=1 and no auth with stop permitted. So you'd need to write a bit of code to kill by PID.\r\n\r\n\r\n",
    "reactions": {
      "url": "https://api.github.com/repos/bitcoin/bitcoin/issues/comments/557715275/reactions",
      "total_count": 0,
      "+1": 0,
      "-1": 0,
      "laugh": 0,
      "hooray": 0,
      "confused": 0,
      "heart": 0,
      "rocket": 0,
      "eyes": 0
    },
    "performed_via_github_app": null
  },
  {
    "url": "https://api.github.com/repos/bitcoin/bitcoin/issues/comments/557755338",
    "html_url": "https://github.com/bitcoin/bitcoin/pull/17536#issuecomment-557755338",
    "issue_url": "https://api.github.com/repos/bitcoin/bitcoin/issues/17536",
    "id": 557755338,
    "node_id": "MDEyOklzc3VlQ29tbWVudDU1Nzc1NTMzOA==",
    "user": {
      "login": "emilengler",
      "id": 12272949,
      "node_id": "MDQ6VXNlcjEyMjcyOTQ5",
      "avatar_url": "https://avatars.githubusercontent.com/u/12272949?v=4",
      "gravatar_id": "",
      "url": "https://api.github.com/users/emilengler",
      "html_url": "https://github.com/emilengler",
      "followers_url": "https://api.github.com/users/emilengler/followers",
      "following_url": "https://api.github.com/users/emilengler/following{/other_user}",
      "gists_url": "https://api.github.com/users/emilengler/gists{/gist_id}",
      "starred_url": "https://api.github.com/users/emilengler/starred{/owner}{/repo}",
      "subscriptions_url": "https://api.github.com/users/emilengler/subscriptions",
      "organizations_url": "https://api.github.com/users/emilengler/orgs",
      "repos_url": "https://api.github.com/users/emilengler/repos",
      "events_url": "https://api.github.com/users/emilengler/events{/privacy}",
      "received_events_url": "https://api.github.com/users/emilengler/received_events",
      "type": "User",
      "site_admin": false
    },
    "created_at": "2019-11-23T02:05:26Z",
    "updated_at": "2019-11-23T02:05:26Z",
    "author_association": "CONTRIBUTOR",
    "body_html": "<blockquote>\n<p dir=\"auto\">You don't need a new file, you can just do a new subclass of the test framework in that file and call one after the other in Main.</p>\n</blockquote>\n<p dir=\"auto\">Tried that and failed, will try it again tomorrow</p>",
    "body_text": "You don't need a new file, you can just do a new subclass of the test framework in that file and call one after the other in Main.\n\nTried that and failed, will try it again tomorrow",
    "body": "> You don't need a new file, you can just do a new subclass of the test framework in that file and call one after the other in Main.\r\n\r\nTried that and failed, will try it again tomorrow",
    "reactions": {
      "url": "https://api.github.com/repos/bitcoin/bitcoin/issues/comments/557755338/reactions",
      "total_count": 0,
      "+1": 0,
      "-1": 0,
      "laugh": 0,
      "hooray": 0,
      "confused": 0,
      "heart": 0,
      "rocket": 0,
      "eyes": 0
    },
    "performed_via_github_app": null
  },
  {
    "url": "https://api.github.com/repos/bitcoin/bitcoin/issues/comments/562435360",
    "html_url": "https://github.com/bitcoin/bitcoin/pull/17536#issuecomment-562435360",
    "issue_url": "https://api.github.com/repos/bitcoin/bitcoin/issues/17536",
    "id": 562435360,
    "node_id": "MDEyOklzc3VlQ29tbWVudDU2MjQzNTM2MA==",
    "user": {
      "login": "JeremyRubin",
      "id": 886523,
      "node_id": "MDQ6VXNlcjg4NjUyMw==",
      "avatar_url": "https://avatars.githubusercontent.com/u/886523?v=4",
      "gravatar_id": "",
      "url": "https://api.github.com/users/JeremyRubin",
      "html_url": "https://github.com/JeremyRubin",
      "followers_url": "https://api.github.com/users/JeremyRubin/followers",
      "following_url": "https://api.github.com/users/JeremyRubin/following{/other_user}",
      "gists_url": "https://api.github.com/users/JeremyRubin/gists{/gist_id}",
      "starred_url": "https://api.github.com/users/JeremyRubin/starred{/owner}{/repo}",
      "subscriptions_url": "https://api.github.com/users/JeremyRubin/subscriptions",
      "organizations_url": "https://api.github.com/users/JeremyRubin/orgs",
      "repos_url": "https://api.github.com/users/JeremyRubin/repos",
      "events_url": "https://api.github.com/users/JeremyRubin/events{/privacy}",
      "received_events_url": "https://api.github.com/users/JeremyRubin/received_events",
      "type": "User",
      "site_admin": false
    },
    "created_at": "2019-12-06T05:13:56Z",
    "updated_at": "2019-12-06T05:13:56Z",
    "author_association": "CONTRIBUTOR",
    "body_html": "<p dir=\"auto\"><a class=\"user-mention notranslate\" data-hovercard-type=\"user\" data-hovercard-url=\"/users/emilengler/hovercard\" data-octo-click=\"hovercard-link-click\" data-octo-dimensions=\"link_type:self\" href=\"https://github.com/emilengler\">@emilengler</a> checking in here -- stuck?</p>",
    "body_text": "@emilengler checking in here -- stuck?",
    "body": "@emilengler checking in here -- stuck?",
    "reactions": {
      "url": "https://api.github.com/repos/bitcoin/bitcoin/issues/comments/562435360/reactions",
      "total_count": 0,
      "+1": 0,
      "-1": 0,
      "laugh": 0,
      "hooray": 0,
      "confused": 0,
      "heart": 0,
      "rocket": 0,
      "eyes": 0
    },
    "performed_via_github_app": null
  },
  {
    "url": "https://api.github.com/repos/bitcoin/bitcoin/issues/comments/562595291",
    "html_url": "https://github.com/bitcoin/bitcoin/pull/17536#issuecomment-562595291",
    "issue_url": "https://api.github.com/repos/bitcoin/bitcoin/issues/17536",
    "id": 562595291,
    "node_id": "MDEyOklzc3VlQ29tbWVudDU2MjU5NTI5MQ==",
    "user": {
      "login": "emilengler",
      "id": 12272949,
      "node_id": "MDQ6VXNlcjEyMjcyOTQ5",
      "avatar_url": "https://avatars.githubusercontent.com/u/12272949?v=4",
      "gravatar_id": "",
      "url": "https://api.github.com/users/emilengler",
      "html_url": "https://github.com/emilengler",
      "followers_url": "https://api.github.com/users/emilengler/followers",
      "following_url": "https://api.github.com/users/emilengler/following{/other_user}",
      "gists_url": "https://api.github.com/users/emilengler/gists{/gist_id}",
      "starred_url": "https://api.github.com/users/emilengler/starred{/owner}{/repo}",
      "subscriptions_url": "https://api.github.com/users/emilengler/subscriptions",
      "organizations_url": "https://api.github.com/users/emilengler/orgs",
      "repos_url": "https://api.github.com/users/emilengler/repos",
      "events_url": "https://api.github.com/users/emilengler/events{/privacy}",
      "received_events_url": "https://api.github.com/users/emilengler/received_events",
      "type": "User",
      "site_admin": false
    },
    "created_at": "2019-12-06T14:37:03Z",
    "updated_at": "2019-12-06T14:37:03Z",
    "author_association": "CONTRIBUTOR",
    "body_html": "<p dir=\"auto\"><a class=\"user-mention notranslate\" data-hovercard-type=\"user\" data-hovercard-url=\"/users/JeremyRubin/hovercard\" data-octo-click=\"hovercard-link-click\" data-octo-dimensions=\"link_type:self\" href=\"https://github.com/JeremyRubin\">@JeremyRubin</a> The test works fine. The only problem is testing <code class=\"notranslate\">rpcwhitelistenable=1</code>. The problem is that I haven't found a way to restart bitcoind. It would need to be separate test.</p>",
    "body_text": "@JeremyRubin The test works fine. The only problem is testing rpcwhitelistenable=1. The problem is that I haven't found a way to restart bitcoind. It would need to be separate test.",
    "body": "@JeremyRubin The test works fine. The only problem is testing `rpcwhitelistenable=1`. The problem is that I haven't found a way to restart bitcoind. It would need to be separate test.",
    "reactions": {
      "url": "https://api.github.com/repos/bitcoin/bitcoin/issues/comments/562595291/reactions",
      "total_count": 0,
      "+1": 0,
      "-1": 0,
      "laugh": 0,
      "hooray": 0,
      "confused": 0,
      "heart": 0,
      "rocket": 0,
      "eyes": 0
    },
    "performed_via_github_app": null
  },
  {
    "url": "https://api.github.com/repos/bitcoin/bitcoin/issues/comments/562629388",
    "html_url": "https://github.com/bitcoin/bitcoin/pull/17536#issuecomment-562629388",
    "issue_url": "https://api.github.com/repos/bitcoin/bitcoin/issues/17536",
    "id": 562629388,
    "node_id": "MDEyOklzc3VlQ29tbWVudDU2MjYyOTM4OA==",
    "user": {
      "login": "JeremyRubin",
      "id": 886523,
      "node_id": "MDQ6VXNlcjg4NjUyMw==",
      "avatar_url": "https://avatars.githubusercontent.com/u/886523?v=4",
      "gravatar_id": "",
      "url": "https://api.github.com/users/JeremyRubin",
      "html_url": "https://github.com/JeremyRubin",
      "followers_url": "https://api.github.com/users/JeremyRubin/followers",
      "following_url": "https://api.github.com/users/JeremyRubin/following{/other_user}",
      "gists_url": "https://api.github.com/users/JeremyRubin/gists{/gist_id}",
      "starred_url": "https://api.github.com/users/JeremyRubin/starred{/owner}{/repo}",
      "subscriptions_url": "https://api.github.com/users/JeremyRubin/subscriptions",
      "organizations_url": "https://api.github.com/users/JeremyRubin/orgs",
      "repos_url": "https://api.github.com/users/JeremyRubin/repos",
      "events_url": "https://api.github.com/users/JeremyRubin/events{/privacy}",
      "received_events_url": "https://api.github.com/users/JeremyRubin/received_events",
      "type": "User",
      "site_admin": false
    },
    "created_at": "2019-12-06T15:56:20Z",
    "updated_at": "2019-12-06T15:56:20Z",
    "author_association": "CONTRIBUTOR",
    "body_html": "<p dir=\"auto\">I'm OK with that; great work preparing these tests.</p>\n<p dir=\"auto\"><a class=\"user-mention notranslate\" data-hovercard-type=\"user\" data-hovercard-url=\"/users/MarcoFalke/hovercard\" data-octo-click=\"hovercard-link-click\" data-octo-dimensions=\"link_type:self\" href=\"https://github.com/MarcoFalke\">@MarcoFalke</a> given the strong concept ACKs+utacks/lgtms on the original PR, now with <a class=\"user-mention notranslate\" data-hovercard-type=\"user\" data-hovercard-url=\"/users/emilengler/hovercard\" data-octo-click=\"hovercard-link-click\" data-octo-dimensions=\"link_type:self\" href=\"https://github.com/emilengler\">@emilengler</a>'s work on tests I think this is in a mergeable state. Do you prefer for me to squash the existing branch (I don't want to make people have to re-ack the squash needlessly)?</p>",
    "body_text": "I'm OK with that; great work preparing these tests.\n@MarcoFalke given the strong concept ACKs+utacks/lgtms on the original PR, now with @emilengler's work on tests I think this is in a mergeable state. Do you prefer for me to squash the existing branch (I don't want to make people have to re-ack the squash needlessly)?",
    "body": "I'm OK with that; great work preparing these tests.\r\n\r\n@MarcoFalke given the strong concept ACKs+utacks/lgtms on the original PR, now with @emilengler's work on tests I think this is in a mergeable state. Do you prefer for me to squash the existing branch (I don't want to make people have to re-ack the squash needlessly)?",
    "reactions": {
      "url": "https://api.github.com/repos/bitcoin/bitcoin/issues/comments/562629388/reactions",
      "total_count": 0,
      "+1": 0,
      "-1": 0,
      "laugh": 0,
      "hooray": 0,
      "confused": 0,
      "heart": 0,
      "rocket": 0,
      "eyes": 0
    },
    "performed_via_github_app": null
  },
  {
    "url": "https://api.github.com/repos/bitcoin/bitcoin/issues/comments/562794200",
    "html_url": "https://github.com/bitcoin/bitcoin/pull/17536#issuecomment-562794200",
    "issue_url": "https://api.github.com/repos/bitcoin/bitcoin/issues/17536",
    "id": 562794200,
    "node_id": "MDEyOklzc3VlQ29tbWVudDU2Mjc5NDIwMA==",
    "user": {
      "login": "emilengler",
      "id": 12272949,
      "node_id": "MDQ6VXNlcjEyMjcyOTQ5",
      "avatar_url": "https://avatars.githubusercontent.com/u/12272949?v=4",
      "gravatar_id": "",
      "url": "https://api.github.com/users/emilengler",
      "html_url": "https://github.com/emilengler",
      "followers_url": "https://api.github.com/users/emilengler/followers",
      "following_url": "https://api.github.com/users/emilengler/following{/other_user}",
      "gists_url": "https://api.github.com/users/emilengler/gists{/gist_id}",
      "starred_url": "https://api.github.com/users/emilengler/starred{/owner}{/repo}",
      "subscriptions_url": "https://api.github.com/users/emilengler/subscriptions",
      "organizations_url": "https://api.github.com/users/emilengler/orgs",
      "repos_url": "https://api.github.com/users/emilengler/repos",
      "events_url": "https://api.github.com/users/emilengler/events{/privacy}",
      "received_events_url": "https://api.github.com/users/emilengler/received_events",
      "type": "User",
      "site_admin": false
    },
    "created_at": "2019-12-07T00:43:44Z",
    "updated_at": "2019-12-07T00:43:44Z",
    "author_association": "CONTRIBUTOR",
    "body_html": "<blockquote>\n<p dir=\"auto\"><a class=\"user-mention notranslate\" data-hovercard-type=\"user\" data-hovercard-url=\"/users/emilengler/hovercard\" data-octo-click=\"hovercard-link-click\" data-octo-dimensions=\"link_type:self\" href=\"https://github.com/emilengler\">@emilengler</a>'s work on tests I think this is in a mergeable state. Do you prefer for me to squash the existing branch (I don't want to make people have to re-ack the squash needlessly)?</p>\n</blockquote>\n<p dir=\"auto\">I'm a bit afraid that mine will cause merge issues then. Otherwise I will rebase it from your updated branch.</p>",
    "body_text": "@emilengler's work on tests I think this is in a mergeable state. Do you prefer for me to squash the existing branch (I don't want to make people have to re-ack the squash needlessly)?\n\nI'm a bit afraid that mine will cause merge issues then. Otherwise I will rebase it from your updated branch.",
    "body": "> @emilengler's work on tests I think this is in a mergeable state. Do you prefer for me to squash the existing branch (I don't want to make people have to re-ack the squash needlessly)?\r\n\r\nI'm a bit afraid that mine will cause merge issues then. Otherwise I will rebase it from your updated branch.",
    "reactions": {
      "url": "https://api.github.com/repos/bitcoin/bitcoin/issues/comments/562794200/reactions",
      "total_count": 0,
      "+1": 0,
      "-1": 0,
      "laugh": 0,
      "hooray": 0,
      "confused": 0,
      "heart": 0,
      "rocket": 0,
      "eyes": 0
    },
    "performed_via_github_app": null
  },
  {
    "url": "https://api.github.com/repos/bitcoin/bitcoin/issues/comments/564736696",
    "html_url": "https://github.com/bitcoin/bitcoin/pull/17536#issuecomment-564736696",
    "issue_url": "https://api.github.com/repos/bitcoin/bitcoin/issues/17536",
    "id": 564736696,
    "node_id": "MDEyOklzc3VlQ29tbWVudDU2NDczNjY5Ng==",
    "user": {
      "login": "JeremyRubin",
      "id": 886523,
      "node_id": "MDQ6VXNlcjg4NjUyMw==",
      "avatar_url": "https://avatars.githubusercontent.com/u/886523?v=4",
      "gravatar_id": "",
      "url": "https://api.github.com/users/JeremyRubin",
      "html_url": "https://github.com/JeremyRubin",
      "followers_url": "https://api.github.com/users/JeremyRubin/followers",
      "following_url": "https://api.github.com/users/JeremyRubin/following{/other_user}",
      "gists_url": "https://api.github.com/users/JeremyRubin/gists{/gist_id}",
      "starred_url": "https://api.github.com/users/JeremyRubin/starred{/owner}{/repo}",
      "subscriptions_url": "https://api.github.com/users/JeremyRubin/subscriptions",
      "organizations_url": "https://api.github.com/users/JeremyRubin/orgs",
      "repos_url": "https://api.github.com/users/JeremyRubin/repos",
      "events_url": "https://api.github.com/users/JeremyRubin/events{/privacy}",
      "received_events_url": "https://api.github.com/users/JeremyRubin/received_events",
      "type": "User",
      "site_admin": false
    },
    "created_at": "2019-12-11T21:17:13Z",
    "updated_at": "2019-12-11T21:17:13Z",
    "author_association": "CONTRIBUTOR",
    "body_html": "<p dir=\"auto\"><a class=\"user-mention notranslate\" data-hovercard-type=\"user\" data-hovercard-url=\"/users/emilengler/hovercard\" data-octo-click=\"hovercard-link-click\" data-octo-dimensions=\"link_type:self\" href=\"https://github.com/emilengler\">@emilengler</a> you can rebase</p>",
    "body_text": "@emilengler you can rebase",
    "body": "@emilengler you can rebase",
    "reactions": {
      "url": "https://api.github.com/repos/bitcoin/bitcoin/issues/comments/564736696/reactions",
      "total_count": 0,
      "+1": 0,
      "-1": 0,
      "laugh": 0,
      "hooray": 0,
      "confused": 0,
      "heart": 0,
      "rocket": 0,
      "eyes": 0
    },
    "performed_via_github_app": null
  },
  {
    "url": "https://api.github.com/repos/bitcoin/bitcoin/issues/comments/565147543",
    "html_url": "https://github.com/bitcoin/bitcoin/pull/17536#issuecomment-565147543",
    "issue_url": "https://api.github.com/repos/bitcoin/bitcoin/issues/17536",
    "id": 565147543,
    "node_id": "MDEyOklzc3VlQ29tbWVudDU2NTE0NzU0Mw==",
    "user": {
      "login": "emilengler",
      "id": 12272949,
      "node_id": "MDQ6VXNlcjEyMjcyOTQ5",
      "avatar_url": "https://avatars.githubusercontent.com/u/12272949?v=4",
      "gravatar_id": "",
      "url": "https://api.github.com/users/emilengler",
      "html_url": "https://github.com/emilengler",
      "followers_url": "https://api.github.com/users/emilengler/followers",
      "following_url": "https://api.github.com/users/emilengler/following{/other_user}",
      "gists_url": "https://api.github.com/users/emilengler/gists{/gist_id}",
      "starred_url": "https://api.github.com/users/emilengler/starred{/owner}{/repo}",
      "subscriptions_url": "https://api.github.com/users/emilengler/subscriptions",
      "organizations_url": "https://api.github.com/users/emilengler/orgs",
      "repos_url": "https://api.github.com/users/emilengler/repos",
      "events_url": "https://api.github.com/users/emilengler/events{/privacy}",
      "received_events_url": "https://api.github.com/users/emilengler/received_events",
      "type": "User",
      "site_admin": false
    },
    "created_at": "2019-12-12T19:22:54Z",
    "updated_at": "2019-12-12T19:22:54Z",
    "author_association": "CONTRIBUTOR",
    "body_html": "<p dir=\"auto\"><a class=\"user-mention notranslate\" data-hovercard-type=\"user\" data-hovercard-url=\"/users/JeremyRubin/hovercard\" data-octo-click=\"hovercard-link-click\" data-octo-dimensions=\"link_type:self\" href=\"https://github.com/JeremyRubin\">@JeremyRubin</a> Should be done now</p>",
    "body_text": "@JeremyRubin Should be done now",
    "body": "@JeremyRubin Should be done now",
    "reactions": {
      "url": "https://api.github.com/repos/bitcoin/bitcoin/issues/comments/565147543/reactions",
      "total_count": 0,
      "+1": 0,
      "-1": 0,
      "laugh": 0,
      "hooray": 0,
      "confused": 0,
      "heart": 0,
      "rocket": 0,
      "eyes": 0
    },
    "performed_via_github_app": null
  },
  {
    "url": "https://api.github.com/repos/bitcoin/bitcoin/issues/comments/565438145",
    "html_url": "https://github.com/bitcoin/bitcoin/pull/17536#issuecomment-565438145",
    "issue_url": "https://api.github.com/repos/bitcoin/bitcoin/issues/17536",
    "id": 565438145,
    "node_id": "MDEyOklzc3VlQ29tbWVudDU2NTQzODE0NQ==",
    "user": {
      "login": "emilengler",
      "id": 12272949,
      "node_id": "MDQ6VXNlcjEyMjcyOTQ5",
      "avatar_url": "https://avatars.githubusercontent.com/u/12272949?v=4",
      "gravatar_id": "",
      "url": "https://api.github.com/users/emilengler",
      "html_url": "https://github.com/emilengler",
      "followers_url": "https://api.github.com/users/emilengler/followers",
      "following_url": "https://api.github.com/users/emilengler/following{/other_user}",
      "gists_url": "https://api.github.com/users/emilengler/gists{/gist_id}",
      "starred_url": "https://api.github.com/users/emilengler/starred{/owner}{/repo}",
      "subscriptions_url": "https://api.github.com/users/emilengler/subscriptions",
      "organizations_url": "https://api.github.com/users/emilengler/orgs",
      "repos_url": "https://api.github.com/users/emilengler/repos",
      "events_url": "https://api.github.com/users/emilengler/events{/privacy}",
      "received_events_url": "https://api.github.com/users/emilengler/received_events",
      "type": "User",
      "site_admin": false
    },
    "created_at": "2019-12-13T13:18:36Z",
    "updated_at": "2019-12-13T13:18:36Z",
    "author_association": "CONTRIBUTOR",
    "body_html": "<p dir=\"auto\">Got merged into master by <code class=\"notranslate\">2081442c421cc4376e5d7839f68fbe7630e89103</code></p>",
    "body_text": "Got merged into master by 2081442c421cc4376e5d7839f68fbe7630e89103",
    "body": "Got merged into master by `2081442c421cc4376e5d7839f68fbe7630e89103`",
    "reactions": {
      "url": "https://api.github.com/repos/bitcoin/bitcoin/issues/comments/565438145/reactions",
      "total_count": 1,
      "+1": 0,
      "-1": 0,
      "laugh": 0,
      "hooray": 1,
      "confused": 0,
      "heart": 0,
      "rocket": 0,
      "eyes": 0
    },
    "performed_via_github_app": null
  }
]
