{
  "url": "https://api.github.com/repos/bitcoin/bitcoin/issues/9158",
  "repository_url": "https://api.github.com/repos/bitcoin/bitcoin",
  "labels_url": "https://api.github.com/repos/bitcoin/bitcoin/issues/9158/labels{/name}",
  "comments_url": "https://api.github.com/repos/bitcoin/bitcoin/issues/9158/comments",
  "events_url": "https://api.github.com/repos/bitcoin/bitcoin/issues/9158/events",
  "html_url": "https://github.com/bitcoin/bitcoin/pull/9158",
  "id": 189178549,
  "node_id": "MDExOlB1bGxSZXF1ZXN0OTM2MTM3ODM=",
  "number": 9158,
  "title": "Removal of \"free transaction\" logic from codebase",
  "user": {
    "login": "Leviathn",
    "id": 14876936,
    "node_id": "MDQ6VXNlcjE0ODc2OTM2",
    "avatar_url": "https://avatars.githubusercontent.com/u/14876936?v=4",
    "gravatar_id": "",
    "url": "https://api.github.com/users/Leviathn",
    "html_url": "https://github.com/Leviathn",
    "followers_url": "https://api.github.com/users/Leviathn/followers",
    "following_url": "https://api.github.com/users/Leviathn/following{/other_user}",
    "gists_url": "https://api.github.com/users/Leviathn/gists{/gist_id}",
    "starred_url": "https://api.github.com/users/Leviathn/starred{/owner}{/repo}",
    "subscriptions_url": "https://api.github.com/users/Leviathn/subscriptions",
    "organizations_url": "https://api.github.com/users/Leviathn/orgs",
    "repos_url": "https://api.github.com/users/Leviathn/repos",
    "events_url": "https://api.github.com/users/Leviathn/events{/privacy}",
    "received_events_url": "https://api.github.com/users/Leviathn/received_events",
    "type": "User",
    "site_admin": false
  },
  "labels": [

  ],
  "state": "closed",
  "locked": true,
  "assignee": null,
  "assignees": [

  ],
  "milestone": null,
  "comments": 9,
  "created_at": "2016-11-14T17:46:53Z",
  "updated_at": "2021-09-08T11:06:17Z",
  "closed_at": "2016-11-14T18:16:54Z",
  "author_association": "NONE",
  "active_lock_reason": "resolved",
  "draft": false,
  "pull_request": {
    "url": "https://api.github.com/repos/bitcoin/bitcoin/pulls/9158",
    "html_url": "https://github.com/bitcoin/bitcoin/pull/9158",
    "diff_url": "https://github.com/bitcoin/bitcoin/pull/9158.diff",
    "patch_url": "https://github.com/bitcoin/bitcoin/pull/9158.patch",
    "merged_at": null
  },
  "body_html": "<p dir=\"auto\">This is the first of a series of pull requests to remove all \"free transaction\" logic from the codebase</p>",
  "body_text": "This is the first of a series of pull requests to remove all \"free transaction\" logic from the codebase",
  "body": "This is the first of a series of pull requests to remove all \"free transaction\" logic from the codebase",
  "closed_by": {
    "login": "Leviathn",
    "id": 14876936,
    "node_id": "MDQ6VXNlcjE0ODc2OTM2",
    "avatar_url": "https://avatars.githubusercontent.com/u/14876936?v=4",
    "gravatar_id": "",
    "url": "https://api.github.com/users/Leviathn",
    "html_url": "https://github.com/Leviathn",
    "followers_url": "https://api.github.com/users/Leviathn/followers",
    "following_url": "https://api.github.com/users/Leviathn/following{/other_user}",
    "gists_url": "https://api.github.com/users/Leviathn/gists{/gist_id}",
    "starred_url": "https://api.github.com/users/Leviathn/starred{/owner}{/repo}",
    "subscriptions_url": "https://api.github.com/users/Leviathn/subscriptions",
    "organizations_url": "https://api.github.com/users/Leviathn/orgs",
    "repos_url": "https://api.github.com/users/Leviathn/repos",
    "events_url": "https://api.github.com/users/Leviathn/events{/privacy}",
    "received_events_url": "https://api.github.com/users/Leviathn/received_events",
    "type": "User",
    "site_admin": false
  },
  "reactions": {
    "url": "https://api.github.com/repos/bitcoin/bitcoin/issues/9158/reactions",
    "total_count": 0,
    "+1": 0,
    "-1": 0,
    "laugh": 0,
    "hooray": 0,
    "confused": 0,
    "heart": 0,
    "rocket": 0,
    "eyes": 0
  },
  "timeline_url": "https://api.github.com/repos/bitcoin/bitcoin/issues/9158/timeline",
  "performed_via_github_app": null,
  "state_reason": null
}
