[
  {
    "url": "https://api.github.com/repos/bitcoin/bitcoin/issues/comments/43404090",
    "html_url": "https://github.com/bitcoin/bitcoin/issues/4192#issuecomment-43404090",
    "issue_url": "https://api.github.com/repos/bitcoin/bitcoin/issues/4192",
    "id": 43404090,
    "node_id": "MDEyOklzc3VlQ29tbWVudDQzNDA0MDkw",
    "user": {
      "login": "rebroad",
      "id": 1530283,
      "node_id": "MDQ6VXNlcjE1MzAyODM=",
      "avatar_url": "https://avatars.githubusercontent.com/u/1530283?v=4",
      "gravatar_id": "",
      "url": "https://api.github.com/users/rebroad",
      "html_url": "https://github.com/rebroad",
      "followers_url": "https://api.github.com/users/rebroad/followers",
      "following_url": "https://api.github.com/users/rebroad/following{/other_user}",
      "gists_url": "https://api.github.com/users/rebroad/gists{/gist_id}",
      "starred_url": "https://api.github.com/users/rebroad/starred{/owner}{/repo}",
      "subscriptions_url": "https://api.github.com/users/rebroad/subscriptions",
      "organizations_url": "https://api.github.com/users/rebroad/orgs",
      "repos_url": "https://api.github.com/users/rebroad/repos",
      "events_url": "https://api.github.com/users/rebroad/events{/privacy}",
      "received_events_url": "https://api.github.com/users/rebroad/received_events",
      "type": "User",
      "site_admin": false
    },
    "created_at": "2014-05-17T11:07:41Z",
    "updated_at": "2014-07-21T00:58:23Z",
    "author_association": "CONTRIBUTOR",
    "body_html": "<p dir=\"auto\"><a class=\"issue-link js-issue-link\" data-error-text=\"Failed to load title\" data-id=\"28668216\" data-permission-text=\"Title is private\" data-url=\"https://github.com/bitcoin/bitcoin/issues/3791\" data-hovercard-type=\"issue\" data-hovercard-url=\"/bitcoin/bitcoin/issues/3791/hovercard\" href=\"https://github.com/bitcoin/bitcoin/issues/3791\">#3791</a> already raised for this...</p>",
    "body_text": "#3791 already raised for this...",
    "body": "#3791 already raised for this... \n",
    "reactions": {
      "url": "https://api.github.com/repos/bitcoin/bitcoin/issues/comments/43404090/reactions",
      "total_count": 0,
      "+1": 0,
      "-1": 0,
      "laugh": 0,
      "hooray": 0,
      "confused": 0,
      "heart": 0,
      "rocket": 0,
      "eyes": 0
    },
    "performed_via_github_app": null
  },
  {
    "url": "https://api.github.com/repos/bitcoin/bitcoin/issues/comments/43544892",
    "html_url": "https://github.com/bitcoin/bitcoin/issues/4192#issuecomment-43544892",
    "issue_url": "https://api.github.com/repos/bitcoin/bitcoin/issues/4192",
    "id": 43544892,
    "node_id": "MDEyOklzc3VlQ29tbWVudDQzNTQ0ODky",
    "user": {
      "login": "gavinandresen",
      "id": 331997,
      "node_id": "MDQ6VXNlcjMzMTk5Nw==",
      "avatar_url": "https://avatars.githubusercontent.com/u/331997?v=4",
      "gravatar_id": "",
      "url": "https://api.github.com/users/gavinandresen",
      "html_url": "https://github.com/gavinandresen",
      "followers_url": "https://api.github.com/users/gavinandresen/followers",
      "following_url": "https://api.github.com/users/gavinandresen/following{/other_user}",
      "gists_url": "https://api.github.com/users/gavinandresen/gists{/gist_id}",
      "starred_url": "https://api.github.com/users/gavinandresen/starred{/owner}{/repo}",
      "subscriptions_url": "https://api.github.com/users/gavinandresen/subscriptions",
      "organizations_url": "https://api.github.com/users/gavinandresen/orgs",
      "repos_url": "https://api.github.com/users/gavinandresen/repos",
      "events_url": "https://api.github.com/users/gavinandresen/events{/privacy}",
      "received_events_url": "https://api.github.com/users/gavinandresen/received_events",
      "type": "User",
      "site_admin": false
    },
    "created_at": "2014-05-19T19:21:34Z",
    "updated_at": "2014-05-19T19:21:34Z",
    "author_association": "CONTRIBUTOR",
    "body_html": "<p dir=\"auto\">Closing as duplicate.</p>",
    "body_text": "Closing as duplicate.",
    "body": "Closing as duplicate.\n",
    "reactions": {
      "url": "https://api.github.com/repos/bitcoin/bitcoin/issues/comments/43544892/reactions",
      "total_count": 0,
      "+1": 0,
      "-1": 0,
      "laugh": 0,
      "hooray": 0,
      "confused": 0,
      "heart": 0,
      "rocket": 0,
      "eyes": 0
    },
    "performed_via_github_app": null
  }
]
