{
  "url": "https://api.github.com/repos/bitcoin/bitcoin/issues/21710",
  "repository_url": "https://api.github.com/repos/bitcoin/bitcoin",
  "labels_url": "https://api.github.com/repos/bitcoin/bitcoin/issues/21710/labels{/name}",
  "comments_url": "https://api.github.com/repos/bitcoin/bitcoin/issues/21710/comments",
  "events_url": "https://api.github.com/repos/bitcoin/bitcoin/issues/21710/events",
  "html_url": "https://github.com/bitcoin/bitcoin/pull/21710",
  "id": 860095071,
  "node_id": "MDExOlB1bGxSZXF1ZXN0NjE3MDU4NDg0",
  "number": 21710,
  "title": "doc: update helps for addnode rpc and -addnode/-maxconnections config options",
  "user": {
    "login": "jonatack",
    "id": 2415484,
    "node_id": "MDQ6VXNlcjI0MTU0ODQ=",
    "avatar_url": "https://avatars.githubusercontent.com/u/2415484?v=4",
    "gravatar_id": "",
    "url": "https://api.github.com/users/jonatack",
    "html_url": "https://github.com/jonatack",
    "followers_url": "https://api.github.com/users/jonatack/followers",
    "following_url": "https://api.github.com/users/jonatack/following{/other_user}",
    "gists_url": "https://api.github.com/users/jonatack/gists{/gist_id}",
    "starred_url": "https://api.github.com/users/jonatack/starred{/owner}{/repo}",
    "subscriptions_url": "https://api.github.com/users/jonatack/subscriptions",
    "organizations_url": "https://api.github.com/users/jonatack/orgs",
    "repos_url": "https://api.github.com/users/jonatack/repos",
    "events_url": "https://api.github.com/users/jonatack/events{/privacy}",
    "received_events_url": "https://api.github.com/users/jonatack/received_events",
    "type": "User",
    "site_admin": false
  },
  "labels": [
    {
      "id": 98279177,
      "node_id": "MDU6TGFiZWw5ODI3OTE3Nw==",
      "url": "https://api.github.com/repos/bitcoin/bitcoin/labels/RPC/REST/ZMQ",
      "name": "RPC/REST/ZMQ",
      "color": "0052cc",
      "default": false,
      "description": null
    }
  ],
  "state": "closed",
  "locked": true,
  "assignee": null,
  "assignees": [

  ],
  "milestone": null,
  "comments": 9,
  "created_at": "2021-04-16T19:09:15Z",
  "updated_at": "2022-08-16T17:21:39Z",
  "closed_at": "2021-05-05T14:58:37Z",
  "author_association": "CONTRIBUTOR",
  "active_lock_reason": "resolved",
  "draft": false,
  "pull_request": {
    "url": "https://api.github.com/repos/bitcoin/bitcoin/pulls/21710",
    "html_url": "https://github.com/bitcoin/bitcoin/pull/21710",
    "diff_url": "https://github.com/bitcoin/bitcoin/pull/21710.diff",
    "patch_url": "https://github.com/bitcoin/bitcoin/pull/21710.patch",
    "merged_at": "2021-05-05T14:58:37Z"
  },
  "body_html": "<p dir=\"auto\">Since <a class=\"issue-link js-issue-link\" data-error-text=\"Failed to load title\" data-id=\"194813256\" data-permission-text=\"Title is private\" data-url=\"https://github.com/bitcoin/bitcoin/issues/9319\" data-hovercard-type=\"pull_request\" data-hovercard-url=\"/bitcoin/bitcoin/pull/9319/hovercard\" href=\"https://github.com/bitcoin/bitcoin/pull/9319\">#9319</a> proposed by Gregory Maxwell and released in v0.14, peers manually added through the <code class=\"notranslate\">-addnode</code> config option or using the <code class=\"notranslate\">addnode</code> RPC have their own separate limit of 8 connections that does not compete with other inbound or outbound connection usage and is not subject to the limitation imposed by the <code class=\"notranslate\">-maxconnections</code> option.</p>\n<p dir=\"auto\">This PR updates the <code class=\"notranslate\">-addnode</code> and <code class=\"notranslate\">-maxconnections</code> config options and the <code class=\"notranslate\">addnode</code> RPC help docs with this information.</p>\n<p dir=\"auto\"><code class=\"notranslate\">-addnode</code> config option help</p>\n<div class=\"snippet-clipboard-content notranslate position-relative overflow-auto\" data-snippet-clipboard-copy-content=\"$ bitcoind -h | grep -A5 addnode=\n  -addnode=&lt;ip&gt;\n       Add a node to connect to and attempt to keep the connection open (see\n       the addnode RPC help for more info). This option can be specified\n       multiple times to add multiple nodes; connections are limited to\n       8 at a time and are counted separately from the -maxconnections\n       limit.\n\n$ bitcoind -h | grep -A3 maxconnections=\n  -maxconnections=&lt;n&gt;\n       Maintain at most &lt;n&gt; connections to peers (default: 125). This limit\n       does not apply to connections manually added via -addnode or the\n       addnode RPC, which have a separate limit of 8.\"><pre class=\"notranslate\"><code class=\"notranslate\">$ bitcoind -h | grep -A5 addnode=\n  -addnode=&lt;ip&gt;\n       Add a node to connect to and attempt to keep the connection open (see\n       the addnode RPC help for more info). This option can be specified\n       multiple times to add multiple nodes; connections are limited to\n       8 at a time and are counted separately from the -maxconnections\n       limit.\n\n$ bitcoind -h | grep -A3 maxconnections=\n  -maxconnections=&lt;n&gt;\n       Maintain at most &lt;n&gt; connections to peers (default: 125). This limit\n       does not apply to connections manually added via -addnode or the\n       addnode RPC, which have a separate limit of 8.\n</code></pre></div>\n<p dir=\"auto\"><code class=\"notranslate\">addnode</code> rpc help</p>\n<div class=\"snippet-clipboard-content notranslate position-relative overflow-auto\" data-snippet-clipboard-copy-content=\"$ bitcoin-cli help addnode\naddnode &quot;node&quot; &quot;command&quot;\n\nAttempts to add or remove a node from the addnode list.\nOr try a connection to a node once.\nNodes added using addnode (or -connect) are protected from DoS disconnection and are not required to be\nfull nodes/support SegWit as other outbound peers are (though such peers will not be synced from).\nAddnode connections are limited to 8 at a time and are counted separately from the -maxconnections limit.\"><pre class=\"notranslate\"><code class=\"notranslate\">$ bitcoin-cli help addnode\naddnode \"node\" \"command\"\n\nAttempts to add or remove a node from the addnode list.\nOr try a connection to a node once.\nNodes added using addnode (or -connect) are protected from DoS disconnection and are not required to be\nfull nodes/support SegWit as other outbound peers are (though such peers will not be synced from).\nAddnode connections are limited to 8 at a time and are counted separately from the -maxconnections limit.\n</code></pre></div>",
  "body_text": "Since #9319 proposed by Gregory Maxwell and released in v0.14, peers manually added through the -addnode config option or using the addnode RPC have their own separate limit of 8 connections that does not compete with other inbound or outbound connection usage and is not subject to the limitation imposed by the -maxconnections option.\nThis PR updates the -addnode and -maxconnections config options and the addnode RPC help docs with this information.\n-addnode config option help\n$ bitcoind -h | grep -A5 addnode=\n  -addnode=<ip>\n       Add a node to connect to and attempt to keep the connection open (see\n       the addnode RPC help for more info). This option can be specified\n       multiple times to add multiple nodes; connections are limited to\n       8 at a time and are counted separately from the -maxconnections\n       limit.\n\n$ bitcoind -h | grep -A3 maxconnections=\n  -maxconnections=<n>\n       Maintain at most <n> connections to peers (default: 125). This limit\n       does not apply to connections manually added via -addnode or the\n       addnode RPC, which have a separate limit of 8.\n\naddnode rpc help\n$ bitcoin-cli help addnode\naddnode \"node\" \"command\"\n\nAttempts to add or remove a node from the addnode list.\nOr try a connection to a node once.\nNodes added using addnode (or -connect) are protected from DoS disconnection and are not required to be\nfull nodes/support SegWit as other outbound peers are (though such peers will not be synced from).\nAddnode connections are limited to 8 at a time and are counted separately from the -maxconnections limit.",
  "body": "Since #9319 proposed by Gregory Maxwell and released in v0.14, peers manually added through the `-addnode` config option or using the `addnode` RPC have their own separate limit of 8 connections that does not compete with other inbound or outbound connection usage and is not subject to the limitation imposed by the `-maxconnections` option.\r\n\r\nThis PR updates the `-addnode` and `-maxconnections` config options and the `addnode` RPC help docs with this information.\r\n\r\n`-addnode` config option help\r\n```\r\n$ bitcoind -h | grep -A5 addnode=\r\n  -addnode=<ip>\r\n       Add a node to connect to and attempt to keep the connection open (see\r\n       the addnode RPC help for more info). This option can be specified\r\n       multiple times to add multiple nodes; connections are limited to\r\n       8 at a time and are counted separately from the -maxconnections\r\n       limit.\r\n\r\n$ bitcoind -h | grep -A3 maxconnections=\r\n  -maxconnections=<n>\r\n       Maintain at most <n> connections to peers (default: 125). This limit\r\n       does not apply to connections manually added via -addnode or the\r\n       addnode RPC, which have a separate limit of 8.\r\n```\r\n\r\n`addnode` rpc help\r\n```\r\n$ bitcoin-cli help addnode\r\naddnode \"node\" \"command\"\r\n\r\nAttempts to add or remove a node from the addnode list.\r\nOr try a connection to a node once.\r\nNodes added using addnode (or -connect) are protected from DoS disconnection and are not required to be\r\nfull nodes/support SegWit as other outbound peers are (though such peers will not be synced from).\r\nAddnode connections are limited to 8 at a time and are counted separately from the -maxconnections limit.\r\n```\r\n",
  "closed_by": {
    "login": "laanwj",
    "id": 126646,
    "node_id": "MDQ6VXNlcjEyNjY0Ng==",
    "avatar_url": "https://avatars.githubusercontent.com/u/126646?v=4",
    "gravatar_id": "",
    "url": "https://api.github.com/users/laanwj",
    "html_url": "https://github.com/laanwj",
    "followers_url": "https://api.github.com/users/laanwj/followers",
    "following_url": "https://api.github.com/users/laanwj/following{/other_user}",
    "gists_url": "https://api.github.com/users/laanwj/gists{/gist_id}",
    "starred_url": "https://api.github.com/users/laanwj/starred{/owner}{/repo}",
    "subscriptions_url": "https://api.github.com/users/laanwj/subscriptions",
    "organizations_url": "https://api.github.com/users/laanwj/orgs",
    "repos_url": "https://api.github.com/users/laanwj/repos",
    "events_url": "https://api.github.com/users/laanwj/events{/privacy}",
    "received_events_url": "https://api.github.com/users/laanwj/received_events",
    "type": "User",
    "site_admin": false
  },
  "reactions": {
    "url": "https://api.github.com/repos/bitcoin/bitcoin/issues/21710/reactions",
    "total_count": 0,
    "+1": 0,
    "-1": 0,
    "laugh": 0,
    "hooray": 0,
    "confused": 0,
    "heart": 0,
    "rocket": 0,
    "eyes": 0
  },
  "timeline_url": "https://api.github.com/repos/bitcoin/bitcoin/issues/21710/timeline",
  "performed_via_github_app": null,
  "state_reason": null
}
