[
  {
    "url": "https://api.github.com/repos/bitcoin/bitcoin/issues/comments/42085652",
    "html_url": "https://github.com/bitcoin/bitcoin/pull/4122#issuecomment-42085652",
    "issue_url": "https://api.github.com/repos/bitcoin/bitcoin/issues/4122",
    "id": 42085652,
    "node_id": "MDEyOklzc3VlQ29tbWVudDQyMDg1NjUy",
    "user": {
      "login": "aalness",
      "id": 4391003,
      "node_id": "MDQ6VXNlcjQzOTEwMDM=",
      "avatar_url": "https://avatars.githubusercontent.com/u/4391003?v=4",
      "gravatar_id": "",
      "url": "https://api.github.com/users/aalness",
      "html_url": "https://github.com/aalness",
      "followers_url": "https://api.github.com/users/aalness/followers",
      "following_url": "https://api.github.com/users/aalness/following{/other_user}",
      "gists_url": "https://api.github.com/users/aalness/gists{/gist_id}",
      "starred_url": "https://api.github.com/users/aalness/starred{/owner}{/repo}",
      "subscriptions_url": "https://api.github.com/users/aalness/subscriptions",
      "organizations_url": "https://api.github.com/users/aalness/orgs",
      "repos_url": "https://api.github.com/users/aalness/repos",
      "events_url": "https://api.github.com/users/aalness/events{/privacy}",
      "received_events_url": "https://api.github.com/users/aalness/received_events",
      "type": "User",
      "site_admin": false
    },
    "created_at": "2014-05-02T22:31:18Z",
    "updated_at": "2014-05-02T22:31:18Z",
    "author_association": "CONTRIBUTOR",
    "body_html": "<p dir=\"auto\">Related: <a class=\"issue-link js-issue-link\" data-error-text=\"Failed to load title\" data-id=\"32731248\" data-permission-text=\"Title is private\" data-url=\"https://github.com/bitcoin/bips/issues/60\" data-hovercard-type=\"pull_request\" data-hovercard-url=\"/bitcoin/bips/pull/60/hovercard\" href=\"https://github.com/bitcoin/bips/pull/60\">bitcoin/bips#60</a></p>",
    "body_text": "Related: bitcoin/bips#60",
    "body": "Related: https://github.com/bitcoin/bips/pull/60\n",
    "reactions": {
      "url": "https://api.github.com/repos/bitcoin/bitcoin/issues/comments/42085652/reactions",
      "total_count": 0,
      "+1": 0,
      "-1": 0,
      "laugh": 0,
      "hooray": 0,
      "confused": 0,
      "heart": 0,
      "rocket": 0,
      "eyes": 0
    },
    "performed_via_github_app": null
  },
  {
    "url": "https://api.github.com/repos/bitcoin/bitcoin/issues/comments/46825409",
    "html_url": "https://github.com/bitcoin/bitcoin/pull/4122#issuecomment-46825409",
    "issue_url": "https://api.github.com/repos/bitcoin/bitcoin/issues/4122",
    "id": 46825409,
    "node_id": "MDEyOklzc3VlQ29tbWVudDQ2ODI1NDA5",
    "user": {
      "login": "BitcoinPullTester",
      "id": 2110907,
      "node_id": "MDQ6VXNlcjIxMTA5MDc=",
      "avatar_url": "https://avatars.githubusercontent.com/u/2110907?v=4",
      "gravatar_id": "",
      "url": "https://api.github.com/users/BitcoinPullTester",
      "html_url": "https://github.com/BitcoinPullTester",
      "followers_url": "https://api.github.com/users/BitcoinPullTester/followers",
      "following_url": "https://api.github.com/users/BitcoinPullTester/following{/other_user}",
      "gists_url": "https://api.github.com/users/BitcoinPullTester/gists{/gist_id}",
      "starred_url": "https://api.github.com/users/BitcoinPullTester/starred{/owner}{/repo}",
      "subscriptions_url": "https://api.github.com/users/BitcoinPullTester/subscriptions",
      "organizations_url": "https://api.github.com/users/BitcoinPullTester/orgs",
      "repos_url": "https://api.github.com/users/BitcoinPullTester/repos",
      "events_url": "https://api.github.com/users/BitcoinPullTester/events{/privacy}",
      "received_events_url": "https://api.github.com/users/BitcoinPullTester/received_events",
      "type": "User",
      "site_admin": false
    },
    "created_at": "2014-06-23T09:56:21Z",
    "updated_at": "2014-06-23T09:56:21Z",
    "author_association": "NONE",
    "body_html": "<p dir=\"auto\">Automatic sanity-testing: PASSED, see <a href=\"http://jenkins.bluematt.me/pull-tester/p4122_5f5c4b5f92ddfc528b97901da1fdff0334a8ed27/\" rel=\"nofollow\">http://jenkins.bluematt.me/pull-tester/p4122_5f5c4b5f92ddfc528b97901da1fdff0334a8ed27/</a> for binaries and test log.<br>\nThis test script verifies pulls every time they are updated. It, however, dies sometimes and fails to test properly.  If you are waiting on a test, please check timestamps to verify that the test.log is moving at <a href=\"http://jenkins.bluematt.me/pull-tester/current/\" rel=\"nofollow\">http://jenkins.bluematt.me/pull-tester/current/</a><br>\nContact BlueMatt on freenode if something looks broken.</p>",
    "body_text": "Automatic sanity-testing: PASSED, see http://jenkins.bluematt.me/pull-tester/p4122_5f5c4b5f92ddfc528b97901da1fdff0334a8ed27/ for binaries and test log.\nThis test script verifies pulls every time they are updated. It, however, dies sometimes and fails to test properly.  If you are waiting on a test, please check timestamps to verify that the test.log is moving at http://jenkins.bluematt.me/pull-tester/current/\nContact BlueMatt on freenode if something looks broken.",
    "body": "Automatic sanity-testing: PASSED, see http://jenkins.bluematt.me/pull-tester/p4122_5f5c4b5f92ddfc528b97901da1fdff0334a8ed27/ for binaries and test log.\nThis test script verifies pulls every time they are updated. It, however, dies sometimes and fails to test properly.  If you are waiting on a test, please check timestamps to verify that the test.log is moving at http://jenkins.bluematt.me/pull-tester/current/\nContact BlueMatt on freenode if something looks broken.\n",
    "reactions": {
      "url": "https://api.github.com/repos/bitcoin/bitcoin/issues/comments/46825409/reactions",
      "total_count": 0,
      "+1": 0,
      "-1": 0,
      "laugh": 0,
      "hooray": 0,
      "confused": 0,
      "heart": 0,
      "rocket": 0,
      "eyes": 0
    },
    "performed_via_github_app": null
  },
  {
    "url": "https://api.github.com/repos/bitcoin/bitcoin/issues/comments/46827003",
    "html_url": "https://github.com/bitcoin/bitcoin/pull/4122#issuecomment-46827003",
    "issue_url": "https://api.github.com/repos/bitcoin/bitcoin/issues/4122",
    "id": 46827003,
    "node_id": "MDEyOklzc3VlQ29tbWVudDQ2ODI3MDAz",
    "user": {
      "login": "laanwj",
      "id": 126646,
      "node_id": "MDQ6VXNlcjEyNjY0Ng==",
      "avatar_url": "https://avatars.githubusercontent.com/u/126646?v=4",
      "gravatar_id": "",
      "url": "https://api.github.com/users/laanwj",
      "html_url": "https://github.com/laanwj",
      "followers_url": "https://api.github.com/users/laanwj/followers",
      "following_url": "https://api.github.com/users/laanwj/following{/other_user}",
      "gists_url": "https://api.github.com/users/laanwj/gists{/gist_id}",
      "starred_url": "https://api.github.com/users/laanwj/starred{/owner}{/repo}",
      "subscriptions_url": "https://api.github.com/users/laanwj/subscriptions",
      "organizations_url": "https://api.github.com/users/laanwj/orgs",
      "repos_url": "https://api.github.com/users/laanwj/repos",
      "events_url": "https://api.github.com/users/laanwj/events{/privacy}",
      "received_events_url": "https://api.github.com/users/laanwj/received_events",
      "type": "User",
      "site_admin": false
    },
    "created_at": "2014-06-23T10:16:33Z",
    "updated_at": "2014-06-23T10:16:33Z",
    "author_association": "MEMBER",
    "body_html": "<p dir=\"auto\">The check looks sane; but ideally this validation logic should be in the wallet model, not the click event handler.</p>",
    "body_text": "The check looks sane; but ideally this validation logic should be in the wallet model, not the click event handler.",
    "body": "The check looks sane; but ideally this validation logic should be in the wallet model, not the click event handler.\n",
    "reactions": {
      "url": "https://api.github.com/repos/bitcoin/bitcoin/issues/comments/46827003/reactions",
      "total_count": 0,
      "+1": 0,
      "-1": 0,
      "laugh": 0,
      "hooray": 0,
      "confused": 0,
      "heart": 0,
      "rocket": 0,
      "eyes": 0
    },
    "performed_via_github_app": null
  },
  {
    "url": "https://api.github.com/repos/bitcoin/bitcoin/issues/comments/50868201",
    "html_url": "https://github.com/bitcoin/bitcoin/pull/4122#issuecomment-50868201",
    "issue_url": "https://api.github.com/repos/bitcoin/bitcoin/issues/4122",
    "id": 50868201,
    "node_id": "MDEyOklzc3VlQ29tbWVudDUwODY4MjAx",
    "user": {
      "login": "laanwj",
      "id": 126646,
      "node_id": "MDQ6VXNlcjEyNjY0Ng==",
      "avatar_url": "https://avatars.githubusercontent.com/u/126646?v=4",
      "gravatar_id": "",
      "url": "https://api.github.com/users/laanwj",
      "html_url": "https://github.com/laanwj",
      "followers_url": "https://api.github.com/users/laanwj/followers",
      "following_url": "https://api.github.com/users/laanwj/following{/other_user}",
      "gists_url": "https://api.github.com/users/laanwj/gists{/gist_id}",
      "starred_url": "https://api.github.com/users/laanwj/starred{/owner}{/repo}",
      "subscriptions_url": "https://api.github.com/users/laanwj/subscriptions",
      "organizations_url": "https://api.github.com/users/laanwj/orgs",
      "repos_url": "https://api.github.com/users/laanwj/repos",
      "events_url": "https://api.github.com/users/laanwj/events{/privacy}",
      "received_events_url": "https://api.github.com/users/laanwj/received_events",
      "type": "User",
      "site_admin": false
    },
    "created_at": "2014-08-01T10:00:10Z",
    "updated_at": "2014-08-01T10:00:10Z",
    "author_association": "MEMBER",
    "body_html": "<p dir=\"auto\"><a class=\"user-mention notranslate\" data-hovercard-type=\"user\" data-hovercard-url=\"/users/aalness/hovercard\" data-octo-click=\"hovercard-link-click\" data-octo-dimensions=\"link_type:self\" href=\"https://github.com/aalness\">@aalness</a>, can you move the check to <code class=\"notranslate\">model-&gt;sendCoins</code>?</p>",
    "body_text": "@aalness, can you move the check to model->sendCoins?",
    "body": "@aalness, can you move the check to `model->sendCoins`?\n",
    "reactions": {
      "url": "https://api.github.com/repos/bitcoin/bitcoin/issues/comments/50868201/reactions",
      "total_count": 0,
      "+1": 0,
      "-1": 0,
      "laugh": 0,
      "hooray": 0,
      "confused": 0,
      "heart": 0,
      "rocket": 0,
      "eyes": 0
    },
    "performed_via_github_app": null
  },
  {
    "url": "https://api.github.com/repos/bitcoin/bitcoin/issues/comments/63995132",
    "html_url": "https://github.com/bitcoin/bitcoin/pull/4122#issuecomment-63995132",
    "issue_url": "https://api.github.com/repos/bitcoin/bitcoin/issues/4122",
    "id": 63995132,
    "node_id": "MDEyOklzc3VlQ29tbWVudDYzOTk1MTMy",
    "user": {
      "login": "Diapolo",
      "id": 1419649,
      "node_id": "MDQ6VXNlcjE0MTk2NDk=",
      "avatar_url": "https://avatars.githubusercontent.com/u/1419649?v=4",
      "gravatar_id": "",
      "url": "https://api.github.com/users/Diapolo",
      "html_url": "https://github.com/Diapolo",
      "followers_url": "https://api.github.com/users/Diapolo/followers",
      "following_url": "https://api.github.com/users/Diapolo/following{/other_user}",
      "gists_url": "https://api.github.com/users/Diapolo/gists{/gist_id}",
      "starred_url": "https://api.github.com/users/Diapolo/starred{/owner}{/repo}",
      "subscriptions_url": "https://api.github.com/users/Diapolo/subscriptions",
      "organizations_url": "https://api.github.com/users/Diapolo/orgs",
      "repos_url": "https://api.github.com/users/Diapolo/repos",
      "events_url": "https://api.github.com/users/Diapolo/events{/privacy}",
      "received_events_url": "https://api.github.com/users/Diapolo/received_events",
      "type": "User",
      "site_admin": false
    },
    "created_at": "2014-11-21T16:26:30Z",
    "updated_at": "2014-11-21T16:26:30Z",
    "author_association": "NONE",
    "body_html": "<p dir=\"auto\">This needs some love :), as it's rather important IMHO.</p>",
    "body_text": "This needs some love :), as it's rather important IMHO.",
    "body": "This needs some love :), as it's rather important IMHO.\n",
    "reactions": {
      "url": "https://api.github.com/repos/bitcoin/bitcoin/issues/comments/63995132/reactions",
      "total_count": 0,
      "+1": 0,
      "-1": 0,
      "laugh": 0,
      "hooray": 0,
      "confused": 0,
      "heart": 0,
      "rocket": 0,
      "eyes": 0
    },
    "performed_via_github_app": null
  },
  {
    "url": "https://api.github.com/repos/bitcoin/bitcoin/issues/comments/69164399",
    "html_url": "https://github.com/bitcoin/bitcoin/pull/4122#issuecomment-69164399",
    "issue_url": "https://api.github.com/repos/bitcoin/bitcoin/issues/4122",
    "id": 69164399,
    "node_id": "MDEyOklzc3VlQ29tbWVudDY5MTY0Mzk5",
    "user": {
      "login": "laanwj",
      "id": 126646,
      "node_id": "MDQ6VXNlcjEyNjY0Ng==",
      "avatar_url": "https://avatars.githubusercontent.com/u/126646?v=4",
      "gravatar_id": "",
      "url": "https://api.github.com/users/laanwj",
      "html_url": "https://github.com/laanwj",
      "followers_url": "https://api.github.com/users/laanwj/followers",
      "following_url": "https://api.github.com/users/laanwj/following{/other_user}",
      "gists_url": "https://api.github.com/users/laanwj/gists{/gist_id}",
      "starred_url": "https://api.github.com/users/laanwj/starred{/owner}{/repo}",
      "subscriptions_url": "https://api.github.com/users/laanwj/subscriptions",
      "organizations_url": "https://api.github.com/users/laanwj/orgs",
      "repos_url": "https://api.github.com/users/laanwj/repos",
      "events_url": "https://api.github.com/users/laanwj/events{/privacy}",
      "received_events_url": "https://api.github.com/users/laanwj/received_events",
      "type": "User",
      "site_admin": false
    },
    "created_at": "2015-01-08T10:55:27Z",
    "updated_at": "2015-01-08T10:55:27Z",
    "author_association": "MEMBER",
    "body_html": "<p dir=\"auto\">Looks like the original submitter went AWOL.<br>\n<a class=\"user-mention notranslate\" data-hovercard-type=\"user\" data-hovercard-url=\"/users/Diapolo/hovercard\" data-octo-click=\"hovercard-link-click\" data-octo-dimensions=\"link_type:self\" href=\"https://github.com/Diapolo\">@Diapolo</a> Care to rebase this and address the remark?</p>",
    "body_text": "Looks like the original submitter went AWOL.\n@Diapolo Care to rebase this and address the remark?",
    "body": "Looks like the original submitter went AWOL.\n@diapolo Care to rebase this and address the remark?\n",
    "reactions": {
      "url": "https://api.github.com/repos/bitcoin/bitcoin/issues/comments/69164399/reactions",
      "total_count": 0,
      "+1": 0,
      "-1": 0,
      "laugh": 0,
      "hooray": 0,
      "confused": 0,
      "heart": 0,
      "rocket": 0,
      "eyes": 0
    },
    "performed_via_github_app": null
  },
  {
    "url": "https://api.github.com/repos/bitcoin/bitcoin/issues/comments/69174798",
    "html_url": "https://github.com/bitcoin/bitcoin/pull/4122#issuecomment-69174798",
    "issue_url": "https://api.github.com/repos/bitcoin/bitcoin/issues/4122",
    "id": 69174798,
    "node_id": "MDEyOklzc3VlQ29tbWVudDY5MTc0Nzk4",
    "user": {
      "login": "Diapolo",
      "id": 1419649,
      "node_id": "MDQ6VXNlcjE0MTk2NDk=",
      "avatar_url": "https://avatars.githubusercontent.com/u/1419649?v=4",
      "gravatar_id": "",
      "url": "https://api.github.com/users/Diapolo",
      "html_url": "https://github.com/Diapolo",
      "followers_url": "https://api.github.com/users/Diapolo/followers",
      "following_url": "https://api.github.com/users/Diapolo/following{/other_user}",
      "gists_url": "https://api.github.com/users/Diapolo/gists{/gist_id}",
      "starred_url": "https://api.github.com/users/Diapolo/starred{/owner}{/repo}",
      "subscriptions_url": "https://api.github.com/users/Diapolo/subscriptions",
      "organizations_url": "https://api.github.com/users/Diapolo/orgs",
      "repos_url": "https://api.github.com/users/Diapolo/repos",
      "events_url": "https://api.github.com/users/Diapolo/events{/privacy}",
      "received_events_url": "https://api.github.com/users/Diapolo/received_events",
      "type": "User",
      "site_admin": false
    },
    "created_at": "2015-01-08T12:48:32Z",
    "updated_at": "2015-01-08T12:48:32Z",
    "author_association": "NONE",
    "body_html": "<p dir=\"auto\"><a class=\"user-mention notranslate\" data-hovercard-type=\"user\" data-hovercard-url=\"/users/laanwj/hovercard\" data-octo-click=\"hovercard-link-click\" data-octo-dimensions=\"link_type:self\" href=\"https://github.com/laanwj\">@laanwj</a> Will do...</p>",
    "body_text": "@laanwj Will do...",
    "body": "@laanwj Will do...\n",
    "reactions": {
      "url": "https://api.github.com/repos/bitcoin/bitcoin/issues/comments/69174798/reactions",
      "total_count": 0,
      "+1": 0,
      "-1": 0,
      "laugh": 0,
      "hooray": 0,
      "confused": 0,
      "heart": 0,
      "rocket": 0,
      "eyes": 0
    },
    "performed_via_github_app": null
  },
  {
    "url": "https://api.github.com/repos/bitcoin/bitcoin/issues/comments/69188386",
    "html_url": "https://github.com/bitcoin/bitcoin/pull/4122#issuecomment-69188386",
    "issue_url": "https://api.github.com/repos/bitcoin/bitcoin/issues/4122",
    "id": 69188386,
    "node_id": "MDEyOklzc3VlQ29tbWVudDY5MTg4Mzg2",
    "user": {
      "login": "laanwj",
      "id": 126646,
      "node_id": "MDQ6VXNlcjEyNjY0Ng==",
      "avatar_url": "https://avatars.githubusercontent.com/u/126646?v=4",
      "gravatar_id": "",
      "url": "https://api.github.com/users/laanwj",
      "html_url": "https://github.com/laanwj",
      "followers_url": "https://api.github.com/users/laanwj/followers",
      "following_url": "https://api.github.com/users/laanwj/following{/other_user}",
      "gists_url": "https://api.github.com/users/laanwj/gists{/gist_id}",
      "starred_url": "https://api.github.com/users/laanwj/starred{/owner}{/repo}",
      "subscriptions_url": "https://api.github.com/users/laanwj/subscriptions",
      "organizations_url": "https://api.github.com/users/laanwj/orgs",
      "repos_url": "https://api.github.com/users/laanwj/repos",
      "events_url": "https://api.github.com/users/laanwj/events{/privacy}",
      "received_events_url": "https://api.github.com/users/laanwj/received_events",
      "type": "User",
      "site_admin": false
    },
    "created_at": "2015-01-08T14:46:52Z",
    "updated_at": "2015-01-08T14:46:52Z",
    "author_association": "MEMBER",
    "body_html": "<p dir=\"auto\">Closing in favor of <a class=\"issue-link js-issue-link\" data-error-text=\"Failed to load title\" data-id=\"53751814\" data-permission-text=\"Title is private\" data-url=\"https://github.com/bitcoin/bitcoin/issues/5620\" data-hovercard-type=\"pull_request\" data-hovercard-url=\"/bitcoin/bitcoin/pull/5620/hovercard\" href=\"https://github.com/bitcoin/bitcoin/pull/5620\">#5620</a></p>",
    "body_text": "Closing in favor of #5620",
    "body": "Closing in favor of #5620\n",
    "reactions": {
      "url": "https://api.github.com/repos/bitcoin/bitcoin/issues/comments/69188386/reactions",
      "total_count": 0,
      "+1": 0,
      "-1": 0,
      "laugh": 0,
      "hooray": 0,
      "confused": 0,
      "heart": 0,
      "rocket": 0,
      "eyes": 0
    },
    "performed_via_github_app": null
  }
]
