[
  {
    "url": "https://api.github.com/repos/bitcoin/bitcoin/issues/comments/409507719",
    "html_url": "https://github.com/bitcoin/bitcoin/issues/13817#issuecomment-409507719",
    "issue_url": "https://api.github.com/repos/bitcoin/bitcoin/issues/13817",
    "id": 409507719,
    "node_id": "MDEyOklzc3VlQ29tbWVudDQwOTUwNzcxOQ==",
    "user": {
      "login": "fanquake",
      "id": 863730,
      "node_id": "MDQ6VXNlcjg2MzczMA==",
      "avatar_url": "https://avatars.githubusercontent.com/u/863730?v=4",
      "gravatar_id": "",
      "url": "https://api.github.com/users/fanquake",
      "html_url": "https://github.com/fanquake",
      "followers_url": "https://api.github.com/users/fanquake/followers",
      "following_url": "https://api.github.com/users/fanquake/following{/other_user}",
      "gists_url": "https://api.github.com/users/fanquake/gists{/gist_id}",
      "starred_url": "https://api.github.com/users/fanquake/starred{/owner}{/repo}",
      "subscriptions_url": "https://api.github.com/users/fanquake/subscriptions",
      "organizations_url": "https://api.github.com/users/fanquake/orgs",
      "repos_url": "https://api.github.com/users/fanquake/repos",
      "events_url": "https://api.github.com/users/fanquake/events{/privacy}",
      "received_events_url": "https://api.github.com/users/fanquake/received_events",
      "type": "User",
      "site_admin": false
    },
    "created_at": "2018-08-01T09:11:19Z",
    "updated_at": "2018-08-01T09:11:19Z",
    "author_association": "MEMBER",
    "body_html": "<p dir=\"auto\">I've started looking into some of these issues. Using a binary compiled on WSL, launching for the first time (Windows 10) we can't create the data directory:<br>\n<a target=\"_blank\" rel=\"noopener noreferrer nofollow\" href=\"https://user-images.githubusercontent.com/863730/43512479-c7c4f7f8-95ad-11e8-9fd7-5b758f8cc606.png\"><img width=\"492\" alt=\"wsl\" src=\"https://user-images.githubusercontent.com/863730/43512479-c7c4f7f8-95ad-11e8-9fd7-5b758f8cc606.png\" style=\"max-width: 100%;\"></a></p>",
    "body_text": "I've started looking into some of these issues. Using a binary compiled on WSL, launching for the first time (Windows 10) we can't create the data directory:",
    "body": "I've started looking into some of these issues. Using a binary compiled on WSL, launching for the first time (Windows 10) we can't create the data directory:\r\n<img width=\"492\" alt=\"wsl\" src=\"https://user-images.githubusercontent.com/863730/43512479-c7c4f7f8-95ad-11e8-9fd7-5b758f8cc606.png\">\r\n",
    "reactions": {
      "url": "https://api.github.com/repos/bitcoin/bitcoin/issues/comments/409507719/reactions",
      "total_count": 0,
      "+1": 0,
      "-1": 0,
      "laugh": 0,
      "hooray": 0,
      "confused": 0,
      "heart": 0,
      "rocket": 0,
      "eyes": 0
    },
    "performed_via_github_app": null
  },
  {
    "url": "https://api.github.com/repos/bitcoin/bitcoin/issues/comments/409530057",
    "html_url": "https://github.com/bitcoin/bitcoin/issues/13817#issuecomment-409530057",
    "issue_url": "https://api.github.com/repos/bitcoin/bitcoin/issues/13817",
    "id": 409530057,
    "node_id": "MDEyOklzc3VlQ29tbWVudDQwOTUzMDA1Nw==",
    "user": {
      "login": "ken2812221",
      "id": 11154118,
      "node_id": "MDQ6VXNlcjExMTU0MTE4",
      "avatar_url": "https://avatars.githubusercontent.com/u/11154118?v=4",
      "gravatar_id": "",
      "url": "https://api.github.com/users/ken2812221",
      "html_url": "https://github.com/ken2812221",
      "followers_url": "https://api.github.com/users/ken2812221/followers",
      "following_url": "https://api.github.com/users/ken2812221/following{/other_user}",
      "gists_url": "https://api.github.com/users/ken2812221/gists{/gist_id}",
      "starred_url": "https://api.github.com/users/ken2812221/starred{/owner}{/repo}",
      "subscriptions_url": "https://api.github.com/users/ken2812221/subscriptions",
      "organizations_url": "https://api.github.com/users/ken2812221/orgs",
      "repos_url": "https://api.github.com/users/ken2812221/repos",
      "events_url": "https://api.github.com/users/ken2812221/events{/privacy}",
      "received_events_url": "https://api.github.com/users/ken2812221/received_events",
      "type": "User",
      "site_admin": false
    },
    "created_at": "2018-08-01T10:32:36Z",
    "updated_at": "2018-08-01T10:32:36Z",
    "author_association": "CONTRIBUTOR",
    "body_html": "<p dir=\"auto\"><a class=\"user-mention notranslate\" data-hovercard-type=\"user\" data-hovercard-url=\"/users/fanquake/hovercard\" data-octo-click=\"hovercard-link-click\" data-octo-dimensions=\"link_type:self\" href=\"https://github.com/fanquake\">@fanquake</a> I believe that issue can be fixed by <a class=\"issue-link js-issue-link\" data-error-text=\"Failed to load title\" data-id=\"345467748\" data-permission-text=\"Title is private\" data-url=\"https://github.com/bitcoin/bitcoin/issues/13787\" data-hovercard-type=\"pull_request\" data-hovercard-url=\"/bitcoin/bitcoin/pull/13787/hovercard\" href=\"https://github.com/bitcoin/bitcoin/pull/13787\">#13787</a>.(with leveldb change)</p>",
    "body_text": "@fanquake I believe that issue can be fixed by #13787.(with leveldb change)",
    "body": "@fanquake I believe that issue can be fixed by #13787.(with leveldb change)",
    "reactions": {
      "url": "https://api.github.com/repos/bitcoin/bitcoin/issues/comments/409530057/reactions",
      "total_count": 0,
      "+1": 0,
      "-1": 0,
      "laugh": 0,
      "hooray": 0,
      "confused": 0,
      "heart": 0,
      "rocket": 0,
      "eyes": 0
    },
    "performed_via_github_app": null
  },
  {
    "url": "https://api.github.com/repos/bitcoin/bitcoin/issues/comments/463289062",
    "html_url": "https://github.com/bitcoin/bitcoin/issues/13817#issuecomment-463289062",
    "issue_url": "https://api.github.com/repos/bitcoin/bitcoin/issues/13817",
    "id": 463289062,
    "node_id": "MDEyOklzc3VlQ29tbWVudDQ2MzI4OTA2Mg==",
    "user": {
      "login": "maflcko",
      "id": 6399679,
      "node_id": "MDQ6VXNlcjYzOTk2Nzk=",
      "avatar_url": "https://avatars.githubusercontent.com/u/6399679?v=4",
      "gravatar_id": "",
      "url": "https://api.github.com/users/maflcko",
      "html_url": "https://github.com/maflcko",
      "followers_url": "https://api.github.com/users/maflcko/followers",
      "following_url": "https://api.github.com/users/maflcko/following{/other_user}",
      "gists_url": "https://api.github.com/users/maflcko/gists{/gist_id}",
      "starred_url": "https://api.github.com/users/maflcko/starred{/owner}{/repo}",
      "subscriptions_url": "https://api.github.com/users/maflcko/subscriptions",
      "organizations_url": "https://api.github.com/users/maflcko/orgs",
      "repos_url": "https://api.github.com/users/maflcko/repos",
      "events_url": "https://api.github.com/users/maflcko/events{/privacy}",
      "received_events_url": "https://api.github.com/users/maflcko/received_events",
      "type": "User",
      "site_admin": false
    },
    "created_at": "2019-02-13T17:25:04Z",
    "updated_at": "2019-02-13T17:25:04Z",
    "author_association": "MEMBER",
    "body_html": "<p dir=\"auto\">Potentially fixed by <a class=\"issue-link js-issue-link\" data-error-text=\"Failed to load title\" data-id=\"346603007\" data-permission-text=\"Title is private\" data-url=\"https://github.com/bitcoin/bitcoin/issues/13827\" data-hovercard-type=\"pull_request\" data-hovercard-url=\"/bitcoin/bitcoin/pull/13827/hovercard\" href=\"https://github.com/bitcoin/bitcoin/pull/13827\">#13827</a></p>",
    "body_text": "Potentially fixed by #13827",
    "body": "Potentially fixed by #13827",
    "reactions": {
      "url": "https://api.github.com/repos/bitcoin/bitcoin/issues/comments/463289062/reactions",
      "total_count": 0,
      "+1": 0,
      "-1": 0,
      "laugh": 0,
      "hooray": 0,
      "confused": 0,
      "heart": 0,
      "rocket": 0,
      "eyes": 0
    },
    "performed_via_github_app": null
  },
  {
    "url": "https://api.github.com/repos/bitcoin/bitcoin/issues/comments/570267468",
    "html_url": "https://github.com/bitcoin/bitcoin/issues/13817#issuecomment-570267468",
    "issue_url": "https://api.github.com/repos/bitcoin/bitcoin/issues/13817",
    "id": 570267468,
    "node_id": "MDEyOklzc3VlQ29tbWVudDU3MDI2NzQ2OA==",
    "user": {
      "login": "maflcko",
      "id": 6399679,
      "node_id": "MDQ6VXNlcjYzOTk2Nzk=",
      "avatar_url": "https://avatars.githubusercontent.com/u/6399679?v=4",
      "gravatar_id": "",
      "url": "https://api.github.com/users/maflcko",
      "html_url": "https://github.com/maflcko",
      "followers_url": "https://api.github.com/users/maflcko/followers",
      "following_url": "https://api.github.com/users/maflcko/following{/other_user}",
      "gists_url": "https://api.github.com/users/maflcko/gists{/gist_id}",
      "starred_url": "https://api.github.com/users/maflcko/starred{/owner}{/repo}",
      "subscriptions_url": "https://api.github.com/users/maflcko/subscriptions",
      "organizations_url": "https://api.github.com/users/maflcko/orgs",
      "repos_url": "https://api.github.com/users/maflcko/repos",
      "events_url": "https://api.github.com/users/maflcko/events{/privacy}",
      "received_events_url": "https://api.github.com/users/maflcko/received_events",
      "type": "User",
      "site_admin": false
    },
    "created_at": "2020-01-02T16:51:56Z",
    "updated_at": "2020-01-02T16:51:56Z",
    "author_association": "MEMBER",
    "body_html": "<p dir=\"auto\">An alternative to fix this would be to bump to Ubuntu Focal in gitian. This is fixed in nsis3. <a href=\"https://packages.ubuntu.com/focal/nsis\" rel=\"nofollow\">https://packages.ubuntu.com/focal/nsis</a></p>",
    "body_text": "An alternative to fix this would be to bump to Ubuntu Focal in gitian. This is fixed in nsis3. https://packages.ubuntu.com/focal/nsis",
    "body": "An alternative to fix this would be to bump to Ubuntu Focal in gitian. This is fixed in nsis3. https://packages.ubuntu.com/focal/nsis",
    "reactions": {
      "url": "https://api.github.com/repos/bitcoin/bitcoin/issues/comments/570267468/reactions",
      "total_count": 0,
      "+1": 0,
      "-1": 0,
      "laugh": 0,
      "hooray": 0,
      "confused": 0,
      "heart": 0,
      "rocket": 0,
      "eyes": 0
    },
    "performed_via_github_app": null
  },
  {
    "url": "https://api.github.com/repos/bitcoin/bitcoin/issues/comments/777234636",
    "html_url": "https://github.com/bitcoin/bitcoin/issues/13817#issuecomment-777234636",
    "issue_url": "https://api.github.com/repos/bitcoin/bitcoin/issues/13817",
    "id": 777234636,
    "node_id": "MDEyOklzc3VlQ29tbWVudDc3NzIzNDYzNg==",
    "user": {
      "login": "maflcko",
      "id": 6399679,
      "node_id": "MDQ6VXNlcjYzOTk2Nzk=",
      "avatar_url": "https://avatars.githubusercontent.com/u/6399679?v=4",
      "gravatar_id": "",
      "url": "https://api.github.com/users/maflcko",
      "html_url": "https://github.com/maflcko",
      "followers_url": "https://api.github.com/users/maflcko/followers",
      "following_url": "https://api.github.com/users/maflcko/following{/other_user}",
      "gists_url": "https://api.github.com/users/maflcko/gists{/gist_id}",
      "starred_url": "https://api.github.com/users/maflcko/starred{/owner}{/repo}",
      "subscriptions_url": "https://api.github.com/users/maflcko/subscriptions",
      "organizations_url": "https://api.github.com/users/maflcko/orgs",
      "repos_url": "https://api.github.com/users/maflcko/repos",
      "events_url": "https://api.github.com/users/maflcko/events{/privacy}",
      "received_events_url": "https://api.github.com/users/maflcko/received_events",
      "type": "User",
      "site_admin": false
    },
    "created_at": "2021-02-11T06:43:09Z",
    "updated_at": "2021-02-11T06:43:09Z",
    "author_association": "MEMBER",
    "body_html": "<p dir=\"auto\">This is probably fixed by <a class=\"issue-link js-issue-link\" data-error-text=\"Failed to load title\" data-id=\"797363688\" data-permission-text=\"Title is private\" data-url=\"https://github.com/bitcoin/bitcoin/issues/21036\" data-hovercard-type=\"pull_request\" data-hovercard-url=\"/bitcoin/bitcoin/pull/21036/hovercard\" href=\"https://github.com/bitcoin/bitcoin/pull/21036\">#21036</a></p>",
    "body_text": "This is probably fixed by #21036",
    "body": "This is probably fixed by #21036 ",
    "reactions": {
      "url": "https://api.github.com/repos/bitcoin/bitcoin/issues/comments/777234636/reactions",
      "total_count": 0,
      "+1": 0,
      "-1": 0,
      "laugh": 0,
      "hooray": 0,
      "confused": 0,
      "heart": 0,
      "rocket": 0,
      "eyes": 0
    },
    "performed_via_github_app": null
  },
  {
    "url": "https://api.github.com/repos/bitcoin/bitcoin/issues/comments/788847718",
    "html_url": "https://github.com/bitcoin/bitcoin/issues/13817#issuecomment-788847718",
    "issue_url": "https://api.github.com/repos/bitcoin/bitcoin/issues/13817",
    "id": 788847718,
    "node_id": "MDEyOklzc3VlQ29tbWVudDc4ODg0NzcxOA==",
    "user": {
      "login": "hebasto",
      "id": 32963518,
      "node_id": "MDQ6VXNlcjMyOTYzNTE4",
      "avatar_url": "https://avatars.githubusercontent.com/u/32963518?v=4",
      "gravatar_id": "",
      "url": "https://api.github.com/users/hebasto",
      "html_url": "https://github.com/hebasto",
      "followers_url": "https://api.github.com/users/hebasto/followers",
      "following_url": "https://api.github.com/users/hebasto/following{/other_user}",
      "gists_url": "https://api.github.com/users/hebasto/gists{/gist_id}",
      "starred_url": "https://api.github.com/users/hebasto/starred{/owner}{/repo}",
      "subscriptions_url": "https://api.github.com/users/hebasto/subscriptions",
      "organizations_url": "https://api.github.com/users/hebasto/orgs",
      "repos_url": "https://api.github.com/users/hebasto/repos",
      "events_url": "https://api.github.com/users/hebasto/events{/privacy}",
      "received_events_url": "https://api.github.com/users/hebasto/received_events",
      "type": "User",
      "site_admin": false
    },
    "created_at": "2021-03-02T11:44:01Z",
    "updated_at": "2021-03-02T11:44:01Z",
    "author_association": "MEMBER",
    "body_html": "<p dir=\"auto\">I can confirm this bug on Windows 10 Pro (20H2, build 19042.804):</p>\n<p dir=\"auto\"><a target=\"_blank\" rel=\"noopener noreferrer nofollow\" href=\"https://user-images.githubusercontent.com/32963518/109643716-4b463780-7b5d-11eb-99ee-44cae3de54df.png\"><img src=\"https://user-images.githubusercontent.com/32963518/109643716-4b463780-7b5d-11eb-99ee-44cae3de54df.png\" alt=\"Windows 10_02_03_2021_13_43_16\" style=\"max-width: 100%;\"></a></p>",
    "body_text": "I can confirm this bug on Windows 10 Pro (20H2, build 19042.804):",
    "body": "I can confirm this bug on Windows 10 Pro (20H2, build 19042.804):\r\n\r\n![Windows 10_02_03_2021_13_43_16](https://user-images.githubusercontent.com/32963518/109643716-4b463780-7b5d-11eb-99ee-44cae3de54df.png)",
    "reactions": {
      "url": "https://api.github.com/repos/bitcoin/bitcoin/issues/comments/788847718/reactions",
      "total_count": 0,
      "+1": 0,
      "-1": 0,
      "laugh": 0,
      "hooray": 0,
      "confused": 0,
      "heart": 0,
      "rocket": 0,
      "eyes": 0
    },
    "performed_via_github_app": null
  }
]
