{
  "url": "https://api.github.com/repos/bitcoin/bitcoin/issues/2695",
  "repository_url": "https://api.github.com/repos/bitcoin/bitcoin",
  "labels_url": "https://api.github.com/repos/bitcoin/bitcoin/issues/2695/labels{/name}",
  "comments_url": "https://api.github.com/repos/bitcoin/bitcoin/issues/2695/comments",
  "events_url": "https://api.github.com/repos/bitcoin/bitcoin/issues/2695/events",
  "html_url": "https://github.com/bitcoin/bitcoin/pull/2695",
  "id": 14757413,
  "node_id": "MDExOlB1bGxSZXF1ZXN0NTkzMDg0OQ==",
  "number": 2695,
  "title": "Explictly cast calculation to int, to allow std::min to work.",
  "user": {
    "login": "robbak",
    "id": 1581858,
    "node_id": "MDQ6VXNlcjE1ODE4NTg=",
    "avatar_url": "https://avatars.githubusercontent.com/u/1581858?v=4",
    "gravatar_id": "",
    "url": "https://api.github.com/users/robbak",
    "html_url": "https://github.com/robbak",
    "followers_url": "https://api.github.com/users/robbak/followers",
    "following_url": "https://api.github.com/users/robbak/following{/other_user}",
    "gists_url": "https://api.github.com/users/robbak/gists{/gist_id}",
    "starred_url": "https://api.github.com/users/robbak/starred{/owner}{/repo}",
    "subscriptions_url": "https://api.github.com/users/robbak/subscriptions",
    "organizations_url": "https://api.github.com/users/robbak/orgs",
    "repos_url": "https://api.github.com/users/robbak/repos",
    "events_url": "https://api.github.com/users/robbak/events{/privacy}",
    "received_events_url": "https://api.github.com/users/robbak/received_events",
    "type": "User",
    "site_admin": false
  },
  "labels": [

  ],
  "state": "closed",
  "locked": true,
  "assignee": null,
  "assignees": [

  ],
  "milestone": null,
  "comments": 3,
  "created_at": "2013-05-25T12:44:10Z",
  "updated_at": "2021-09-08T10:22:23Z",
  "closed_at": "2013-05-30T02:41:51Z",
  "author_association": "CONTRIBUTOR",
  "active_lock_reason": "resolved",
  "draft": false,
  "pull_request": {
    "url": "https://api.github.com/repos/bitcoin/bitcoin/pulls/2695",
    "html_url": "https://github.com/bitcoin/bitcoin/pull/2695",
    "diff_url": "https://github.com/bitcoin/bitcoin/pull/2695.diff",
    "patch_url": "https://github.com/bitcoin/bitcoin/pull/2695.patch",
    "merged_at": "2013-05-30T02:41:51Z"
  },
  "body_html": "<p dir=\"auto\">When compiling on FreeBSD, the calculation here returns an unsigned int. This causes a compile-time error with std::min, which cannot compare signed with unsigned integers.</p>\n<p dir=\"auto\">This pull inserts an explicit cast, treating the calculated value as signed, keeping the compiler happy.</p>",
  "body_text": "When compiling on FreeBSD, the calculation here returns an unsigned int. This causes a compile-time error with std::min, which cannot compare signed with unsigned integers.\nThis pull inserts an explicit cast, treating the calculated value as signed, keeping the compiler happy.",
  "body": "When compiling on FreeBSD, the calculation here returns an unsigned int. This causes a compile-time error with std::min, which cannot compare signed with unsigned integers.\n\nThis pull inserts an explicit cast, treating the calculated value as signed, keeping the compiler happy.\n",
  "closed_by": {
    "login": "sipa",
    "id": 548488,
    "node_id": "MDQ6VXNlcjU0ODQ4OA==",
    "avatar_url": "https://avatars.githubusercontent.com/u/548488?v=4",
    "gravatar_id": "",
    "url": "https://api.github.com/users/sipa",
    "html_url": "https://github.com/sipa",
    "followers_url": "https://api.github.com/users/sipa/followers",
    "following_url": "https://api.github.com/users/sipa/following{/other_user}",
    "gists_url": "https://api.github.com/users/sipa/gists{/gist_id}",
    "starred_url": "https://api.github.com/users/sipa/starred{/owner}{/repo}",
    "subscriptions_url": "https://api.github.com/users/sipa/subscriptions",
    "organizations_url": "https://api.github.com/users/sipa/orgs",
    "repos_url": "https://api.github.com/users/sipa/repos",
    "events_url": "https://api.github.com/users/sipa/events{/privacy}",
    "received_events_url": "https://api.github.com/users/sipa/received_events",
    "type": "User",
    "site_admin": false
  },
  "reactions": {
    "url": "https://api.github.com/repos/bitcoin/bitcoin/issues/2695/reactions",
    "total_count": 0,
    "+1": 0,
    "-1": 0,
    "laugh": 0,
    "hooray": 0,
    "confused": 0,
    "heart": 0,
    "rocket": 0,
    "eyes": 0
  },
  "timeline_url": "https://api.github.com/repos/bitcoin/bitcoin/issues/2695/timeline",
  "performed_via_github_app": null,
  "state_reason": null
}
