[
  {
    "url": "https://api.github.com/repos/bitcoin/bitcoin/issues/comments/410268122",
    "html_url": "https://github.com/bitcoin/bitcoin/pull/13863#issuecomment-410268122",
    "issue_url": "https://api.github.com/repos/bitcoin/bitcoin/issues/13863",
    "id": 410268122,
    "node_id": "MDEyOklzc3VlQ29tbWVudDQxMDI2ODEyMg==",
    "user": {
      "login": "Empact",
      "id": 5470,
      "node_id": "MDQ6VXNlcjU0NzA=",
      "avatar_url": "https://avatars.githubusercontent.com/u/5470?v=4",
      "gravatar_id": "",
      "url": "https://api.github.com/users/Empact",
      "html_url": "https://github.com/Empact",
      "followers_url": "https://api.github.com/users/Empact/followers",
      "following_url": "https://api.github.com/users/Empact/following{/other_user}",
      "gists_url": "https://api.github.com/users/Empact/gists{/gist_id}",
      "starred_url": "https://api.github.com/users/Empact/starred{/owner}{/repo}",
      "subscriptions_url": "https://api.github.com/users/Empact/subscriptions",
      "organizations_url": "https://api.github.com/users/Empact/orgs",
      "repos_url": "https://api.github.com/users/Empact/repos",
      "events_url": "https://api.github.com/users/Empact/events{/privacy}",
      "received_events_url": "https://api.github.com/users/Empact/received_events",
      "type": "User",
      "site_admin": false
    },
    "created_at": "2018-08-03T14:19:04Z",
    "updated_at": "2018-08-03T14:19:04Z",
    "author_association": "MEMBER",
    "body_html": "<p dir=\"auto\">Concept ACK</p>",
    "body_text": "Concept ACK",
    "body": "Concept ACK",
    "reactions": {
      "url": "https://api.github.com/repos/bitcoin/bitcoin/issues/comments/410268122/reactions",
      "total_count": 0,
      "+1": 0,
      "-1": 0,
      "laugh": 0,
      "hooray": 0,
      "confused": 0,
      "heart": 0,
      "rocket": 0,
      "eyes": 0
    },
    "performed_via_github_app": null
  },
  {
    "url": "https://api.github.com/repos/bitcoin/bitcoin/issues/comments/410271068",
    "html_url": "https://github.com/bitcoin/bitcoin/pull/13863#issuecomment-410271068",
    "issue_url": "https://api.github.com/repos/bitcoin/bitcoin/issues/13863",
    "id": 410271068,
    "node_id": "MDEyOklzc3VlQ29tbWVudDQxMDI3MTA2OA==",
    "user": {
      "login": "practicalswift",
      "id": 7826565,
      "node_id": "MDQ6VXNlcjc4MjY1NjU=",
      "avatar_url": "https://avatars.githubusercontent.com/u/7826565?v=4",
      "gravatar_id": "",
      "url": "https://api.github.com/users/practicalswift",
      "html_url": "https://github.com/practicalswift",
      "followers_url": "https://api.github.com/users/practicalswift/followers",
      "following_url": "https://api.github.com/users/practicalswift/following{/other_user}",
      "gists_url": "https://api.github.com/users/practicalswift/gists{/gist_id}",
      "starred_url": "https://api.github.com/users/practicalswift/starred{/owner}{/repo}",
      "subscriptions_url": "https://api.github.com/users/practicalswift/subscriptions",
      "organizations_url": "https://api.github.com/users/practicalswift/orgs",
      "repos_url": "https://api.github.com/users/practicalswift/repos",
      "events_url": "https://api.github.com/users/practicalswift/events{/privacy}",
      "received_events_url": "https://api.github.com/users/practicalswift/received_events",
      "type": "User",
      "site_admin": false
    },
    "created_at": "2018-08-03T14:28:46Z",
    "updated_at": "2018-08-03T14:28:46Z",
    "author_association": "CONTRIBUTOR",
    "body_html": "<p dir=\"auto\">Concept ACK</p>\n<p dir=\"auto\">Very good idea!</p>",
    "body_text": "Concept ACK\nVery good idea!",
    "body": "Concept ACK\r\n\r\nVery good idea!",
    "reactions": {
      "url": "https://api.github.com/repos/bitcoin/bitcoin/issues/comments/410271068/reactions",
      "total_count": 0,
      "+1": 0,
      "-1": 0,
      "laugh": 0,
      "hooray": 0,
      "confused": 0,
      "heart": 0,
      "rocket": 0,
      "eyes": 0
    },
    "performed_via_github_app": null
  },
  {
    "url": "https://api.github.com/repos/bitcoin/bitcoin/issues/comments/410273655",
    "html_url": "https://github.com/bitcoin/bitcoin/pull/13863#issuecomment-410273655",
    "issue_url": "https://api.github.com/repos/bitcoin/bitcoin/issues/13863",
    "id": 410273655,
    "node_id": "MDEyOklzc3VlQ29tbWVudDQxMDI3MzY1NQ==",
    "user": {
      "login": "maflcko",
      "id": 6399679,
      "node_id": "MDQ6VXNlcjYzOTk2Nzk=",
      "avatar_url": "https://avatars.githubusercontent.com/u/6399679?v=4",
      "gravatar_id": "",
      "url": "https://api.github.com/users/maflcko",
      "html_url": "https://github.com/maflcko",
      "followers_url": "https://api.github.com/users/maflcko/followers",
      "following_url": "https://api.github.com/users/maflcko/following{/other_user}",
      "gists_url": "https://api.github.com/users/maflcko/gists{/gist_id}",
      "starred_url": "https://api.github.com/users/maflcko/starred{/owner}{/repo}",
      "subscriptions_url": "https://api.github.com/users/maflcko/subscriptions",
      "organizations_url": "https://api.github.com/users/maflcko/orgs",
      "repos_url": "https://api.github.com/users/maflcko/repos",
      "events_url": "https://api.github.com/users/maflcko/events{/privacy}",
      "received_events_url": "https://api.github.com/users/maflcko/received_events",
      "type": "User",
      "site_admin": false
    },
    "created_at": "2018-08-03T14:37:21Z",
    "updated_at": "2018-08-03T14:37:21Z",
    "author_association": "MEMBER",
    "body_html": "<p dir=\"auto\">ACK, this way we could also reset old travis pull request runs, since it is less likely that the travis.yml changed in the meantime.</p>",
    "body_text": "ACK, this way we could also reset old travis pull request runs, since it is less likely that the travis.yml changed in the meantime.",
    "body": "ACK, this way we could also reset old travis pull request runs, since it is less likely that the travis.yml changed in the meantime.",
    "reactions": {
      "url": "https://api.github.com/repos/bitcoin/bitcoin/issues/comments/410273655/reactions",
      "total_count": 1,
      "+1": 0,
      "-1": 0,
      "laugh": 0,
      "hooray": 1,
      "confused": 0,
      "heart": 0,
      "rocket": 0,
      "eyes": 0
    },
    "performed_via_github_app": null
  },
  {
    "url": "https://api.github.com/repos/bitcoin/bitcoin/issues/comments/410278264",
    "html_url": "https://github.com/bitcoin/bitcoin/pull/13863#issuecomment-410278264",
    "issue_url": "https://api.github.com/repos/bitcoin/bitcoin/issues/13863",
    "id": 410278264,
    "node_id": "MDEyOklzc3VlQ29tbWVudDQxMDI3ODI2NA==",
    "user": {
      "login": "Empact",
      "id": 5470,
      "node_id": "MDQ6VXNlcjU0NzA=",
      "avatar_url": "https://avatars.githubusercontent.com/u/5470?v=4",
      "gravatar_id": "",
      "url": "https://api.github.com/users/Empact",
      "html_url": "https://github.com/Empact",
      "followers_url": "https://api.github.com/users/Empact/followers",
      "following_url": "https://api.github.com/users/Empact/following{/other_user}",
      "gists_url": "https://api.github.com/users/Empact/gists{/gist_id}",
      "starred_url": "https://api.github.com/users/Empact/starred{/owner}{/repo}",
      "subscriptions_url": "https://api.github.com/users/Empact/subscriptions",
      "organizations_url": "https://api.github.com/users/Empact/orgs",
      "repos_url": "https://api.github.com/users/Empact/repos",
      "events_url": "https://api.github.com/users/Empact/events{/privacy}",
      "received_events_url": "https://api.github.com/users/Empact/received_events",
      "type": "User",
      "site_admin": false
    },
    "created_at": "2018-08-03T14:52:27Z",
    "updated_at": "2018-08-03T14:52:27Z",
    "author_association": "MEMBER",
    "body_html": "<p dir=\"auto\">Could squash d3d19e39111f5a2b7318b8e80a1fbf61f3bb4f99 and d913a4b into 67eee3cc56e6b8014b73c07d8a064b5731a8239e</p>",
    "body_text": "Could squash d3d19e39111f5a2b7318b8e80a1fbf61f3bb4f99 and d913a4b into 67eee3cc56e6b8014b73c07d8a064b5731a8239e",
    "body": "Could squash d3d19e39111f5a2b7318b8e80a1fbf61f3bb4f99 and d913a4b into 67eee3cc56e6b8014b73c07d8a064b5731a8239e ",
    "reactions": {
      "url": "https://api.github.com/repos/bitcoin/bitcoin/issues/comments/410278264/reactions",
      "total_count": 0,
      "+1": 0,
      "-1": 0,
      "laugh": 0,
      "hooray": 0,
      "confused": 0,
      "heart": 0,
      "rocket": 0,
      "eyes": 0
    },
    "performed_via_github_app": null
  },
  {
    "url": "https://api.github.com/repos/bitcoin/bitcoin/issues/comments/410283692",
    "html_url": "https://github.com/bitcoin/bitcoin/pull/13863#issuecomment-410283692",
    "issue_url": "https://api.github.com/repos/bitcoin/bitcoin/issues/13863",
    "id": 410283692,
    "node_id": "MDEyOklzc3VlQ29tbWVudDQxMDI4MzY5Mg==",
    "user": {
      "login": "maflcko",
      "id": 6399679,
      "node_id": "MDQ6VXNlcjYzOTk2Nzk=",
      "avatar_url": "https://avatars.githubusercontent.com/u/6399679?v=4",
      "gravatar_id": "",
      "url": "https://api.github.com/users/maflcko",
      "html_url": "https://github.com/maflcko",
      "followers_url": "https://api.github.com/users/maflcko/followers",
      "following_url": "https://api.github.com/users/maflcko/following{/other_user}",
      "gists_url": "https://api.github.com/users/maflcko/gists{/gist_id}",
      "starred_url": "https://api.github.com/users/maflcko/starred{/owner}{/repo}",
      "subscriptions_url": "https://api.github.com/users/maflcko/subscriptions",
      "organizations_url": "https://api.github.com/users/maflcko/orgs",
      "repos_url": "https://api.github.com/users/maflcko/repos",
      "events_url": "https://api.github.com/users/maflcko/events{/privacy}",
      "received_events_url": "https://api.github.com/users/maflcko/received_events",
      "type": "User",
      "site_admin": false
    },
    "created_at": "2018-08-03T15:09:47Z",
    "updated_at": "2018-08-03T15:09:47Z",
    "author_association": "MEMBER",
    "body_html": "<p dir=\"auto\">I wonder if it helps to prefix the scripts with two digits to clarify the order in which they are run (03_before_install, 04_...) <a href=\"https://docs.travis-ci.com/user/customizing-the-build/#the-build-lifecycle\" rel=\"nofollow\">https://docs.travis-ci.com/user/customizing-the-build/#the-build-lifecycle</a></p>",
    "body_text": "I wonder if it helps to prefix the scripts with two digits to clarify the order in which they are run (03_before_install, 04_...) https://docs.travis-ci.com/user/customizing-the-build/#the-build-lifecycle",
    "body": "I wonder if it helps to prefix the scripts with two digits to clarify the order in which they are run (03_before_install, 04_...) https://docs.travis-ci.com/user/customizing-the-build/#the-build-lifecycle",
    "reactions": {
      "url": "https://api.github.com/repos/bitcoin/bitcoin/issues/comments/410283692/reactions",
      "total_count": 0,
      "+1": 0,
      "-1": 0,
      "laugh": 0,
      "hooray": 0,
      "confused": 0,
      "heart": 0,
      "rocket": 0,
      "eyes": 0
    },
    "performed_via_github_app": null
  },
  {
    "url": "https://api.github.com/repos/bitcoin/bitcoin/issues/comments/410286215",
    "html_url": "https://github.com/bitcoin/bitcoin/pull/13863#issuecomment-410286215",
    "issue_url": "https://api.github.com/repos/bitcoin/bitcoin/issues/13863",
    "id": 410286215,
    "node_id": "MDEyOklzc3VlQ29tbWVudDQxMDI4NjIxNQ==",
    "user": {
      "login": "scravy",
      "id": 295504,
      "node_id": "MDQ6VXNlcjI5NTUwNA==",
      "avatar_url": "https://avatars.githubusercontent.com/u/295504?v=4",
      "gravatar_id": "",
      "url": "https://api.github.com/users/scravy",
      "html_url": "https://github.com/scravy",
      "followers_url": "https://api.github.com/users/scravy/followers",
      "following_url": "https://api.github.com/users/scravy/following{/other_user}",
      "gists_url": "https://api.github.com/users/scravy/gists{/gist_id}",
      "starred_url": "https://api.github.com/users/scravy/starred{/owner}{/repo}",
      "subscriptions_url": "https://api.github.com/users/scravy/subscriptions",
      "organizations_url": "https://api.github.com/users/scravy/orgs",
      "repos_url": "https://api.github.com/users/scravy/repos",
      "events_url": "https://api.github.com/users/scravy/events{/privacy}",
      "received_events_url": "https://api.github.com/users/scravy/received_events",
      "type": "User",
      "site_admin": false
    },
    "created_at": "2018-08-03T15:18:19Z",
    "updated_at": "2018-08-03T15:18:19Z",
    "author_association": "CONTRIBUTOR",
    "body_html": "<p dir=\"auto\"><a class=\"user-mention notranslate\" data-hovercard-type=\"user\" data-hovercard-url=\"/users/Empact/hovercard\" data-octo-click=\"hovercard-link-click\" data-octo-dimensions=\"link_type:self\" href=\"https://github.com/Empact\">@Empact</a> squashed and reordered the commits a bit</p>",
    "body_text": "@Empact squashed and reordered the commits a bit",
    "body": "@Empact squashed and reordered the commits a bit",
    "reactions": {
      "url": "https://api.github.com/repos/bitcoin/bitcoin/issues/comments/410286215/reactions",
      "total_count": 0,
      "+1": 0,
      "-1": 0,
      "laugh": 0,
      "hooray": 0,
      "confused": 0,
      "heart": 0,
      "rocket": 0,
      "eyes": 0
    },
    "performed_via_github_app": null
  },
  {
    "url": "https://api.github.com/repos/bitcoin/bitcoin/issues/comments/410289566",
    "html_url": "https://github.com/bitcoin/bitcoin/pull/13863#issuecomment-410289566",
    "issue_url": "https://api.github.com/repos/bitcoin/bitcoin/issues/13863",
    "id": 410289566,
    "node_id": "MDEyOklzc3VlQ29tbWVudDQxMDI4OTU2Ng==",
    "user": {
      "login": "scravy",
      "id": 295504,
      "node_id": "MDQ6VXNlcjI5NTUwNA==",
      "avatar_url": "https://avatars.githubusercontent.com/u/295504?v=4",
      "gravatar_id": "",
      "url": "https://api.github.com/users/scravy",
      "html_url": "https://github.com/scravy",
      "followers_url": "https://api.github.com/users/scravy/followers",
      "following_url": "https://api.github.com/users/scravy/following{/other_user}",
      "gists_url": "https://api.github.com/users/scravy/gists{/gist_id}",
      "starred_url": "https://api.github.com/users/scravy/starred{/owner}{/repo}",
      "subscriptions_url": "https://api.github.com/users/scravy/subscriptions",
      "organizations_url": "https://api.github.com/users/scravy/orgs",
      "repos_url": "https://api.github.com/users/scravy/repos",
      "events_url": "https://api.github.com/users/scravy/events{/privacy}",
      "received_events_url": "https://api.github.com/users/scravy/received_events",
      "type": "User",
      "site_admin": false
    },
    "created_at": "2018-08-03T15:29:22Z",
    "updated_at": "2018-08-03T15:29:51Z",
    "author_association": "CONTRIBUTOR",
    "body_html": "<p dir=\"auto\"><a class=\"user-mention notranslate\" data-hovercard-type=\"user\" data-hovercard-url=\"/users/MarcoFalke/hovercard\" data-octo-click=\"hovercard-link-click\" data-octo-dimensions=\"link_type:self\" href=\"https://github.com/MarcoFalke\">@MarcoFalke</a> I've changed the names of the files according to your suggestion and added a README with the rationale/link to the travis documentation in <a class=\"commit-link\" data-hovercard-type=\"commit\" data-hovercard-url=\"https://github.com/bitcoin/bitcoin/commit/d55d49c0f9c672327c4eea87aaa7b0f03381eebb/hovercard\" href=\"https://github.com/bitcoin/bitcoin/commit/d55d49c0f9c672327c4eea87aaa7b0f03381eebb\"><tt>d55d49c</tt></a></p>",
    "body_text": "@MarcoFalke I've changed the names of the files according to your suggestion and added a README with the rationale/link to the travis documentation in d55d49c",
    "body": "@MarcoFalke I've changed the names of the files according to your suggestion and added a README with the rationale/link to the travis documentation in d55d49c0f9c672327c4eea87aaa7b0f03381eebb",
    "reactions": {
      "url": "https://api.github.com/repos/bitcoin/bitcoin/issues/comments/410289566/reactions",
      "total_count": 0,
      "+1": 0,
      "-1": 0,
      "laugh": 0,
      "hooray": 0,
      "confused": 0,
      "heart": 0,
      "rocket": 0,
      "eyes": 0
    },
    "performed_via_github_app": null
  },
  {
    "url": "https://api.github.com/repos/bitcoin/bitcoin/issues/comments/410291816",
    "html_url": "https://github.com/bitcoin/bitcoin/pull/13863#issuecomment-410291816",
    "issue_url": "https://api.github.com/repos/bitcoin/bitcoin/issues/13863",
    "id": 410291816,
    "node_id": "MDEyOklzc3VlQ29tbWVudDQxMDI5MTgxNg==",
    "user": {
      "login": "scravy",
      "id": 295504,
      "node_id": "MDQ6VXNlcjI5NTUwNA==",
      "avatar_url": "https://avatars.githubusercontent.com/u/295504?v=4",
      "gravatar_id": "",
      "url": "https://api.github.com/users/scravy",
      "html_url": "https://github.com/scravy",
      "followers_url": "https://api.github.com/users/scravy/followers",
      "following_url": "https://api.github.com/users/scravy/following{/other_user}",
      "gists_url": "https://api.github.com/users/scravy/gists{/gist_id}",
      "starred_url": "https://api.github.com/users/scravy/starred{/owner}{/repo}",
      "subscriptions_url": "https://api.github.com/users/scravy/subscriptions",
      "organizations_url": "https://api.github.com/users/scravy/orgs",
      "repos_url": "https://api.github.com/users/scravy/repos",
      "events_url": "https://api.github.com/users/scravy/events{/privacy}",
      "received_events_url": "https://api.github.com/users/scravy/received_events",
      "type": "User",
      "site_admin": false
    },
    "created_at": "2018-08-03T15:36:54Z",
    "updated_at": "2018-08-03T15:36:54Z",
    "author_association": "CONTRIBUTOR",
    "body_html": "<p dir=\"auto\">Now with the build steps numbered I moved the remaining steps too in a8803bd9e64e6416e6012c22eee849a20a64f633</p>",
    "body_text": "Now with the build steps numbered I moved the remaining steps too in a8803bd9e64e6416e6012c22eee849a20a64f633",
    "body": "Now with the build steps numbered I moved the remaining steps too in a8803bd9e64e6416e6012c22eee849a20a64f633",
    "reactions": {
      "url": "https://api.github.com/repos/bitcoin/bitcoin/issues/comments/410291816/reactions",
      "total_count": 0,
      "+1": 0,
      "-1": 0,
      "laugh": 0,
      "hooray": 0,
      "confused": 0,
      "heart": 0,
      "rocket": 0,
      "eyes": 0
    },
    "performed_via_github_app": null
  },
  {
    "url": "https://api.github.com/repos/bitcoin/bitcoin/issues/comments/410292765",
    "html_url": "https://github.com/bitcoin/bitcoin/pull/13863#issuecomment-410292765",
    "issue_url": "https://api.github.com/repos/bitcoin/bitcoin/issues/13863",
    "id": 410292765,
    "node_id": "MDEyOklzc3VlQ29tbWVudDQxMDI5Mjc2NQ==",
    "user": {
      "login": "Empact",
      "id": 5470,
      "node_id": "MDQ6VXNlcjU0NzA=",
      "avatar_url": "https://avatars.githubusercontent.com/u/5470?v=4",
      "gravatar_id": "",
      "url": "https://api.github.com/users/Empact",
      "html_url": "https://github.com/Empact",
      "followers_url": "https://api.github.com/users/Empact/followers",
      "following_url": "https://api.github.com/users/Empact/following{/other_user}",
      "gists_url": "https://api.github.com/users/Empact/gists{/gist_id}",
      "starred_url": "https://api.github.com/users/Empact/starred{/owner}{/repo}",
      "subscriptions_url": "https://api.github.com/users/Empact/subscriptions",
      "organizations_url": "https://api.github.com/users/Empact/orgs",
      "repos_url": "https://api.github.com/users/Empact/repos",
      "events_url": "https://api.github.com/users/Empact/events{/privacy}",
      "received_events_url": "https://api.github.com/users/Empact/received_events",
      "type": "User",
      "site_admin": false
    },
    "created_at": "2018-08-03T15:40:07Z",
    "updated_at": "2018-08-03T15:40:07Z",
    "author_association": "MEMBER",
    "body_html": "<p dir=\"auto\">Big issue with this PR: Travis <code class=\"notranslate\">-</code> sections check the return code on a per-command basis. The newly sourced files do not, so failures are not detected unless you detect them in the script and propagate them to Travis.</p>\n<p dir=\"auto\">E.g. see <a href=\"https://travis-ci.org/Empact/bitcoin/jobs/411794591\" rel=\"nofollow\">https://travis-ci.org/Empact/bitcoin/jobs/411794591</a> where I deleted a file to force the <code class=\"notranslate\">test/lint/git-subtree-check.sh src/secp256k1</code> lint to fail</p>",
    "body_text": "Big issue with this PR: Travis - sections check the return code on a per-command basis. The newly sourced files do not, so failures are not detected unless you detect them in the script and propagate them to Travis.\nE.g. see https://travis-ci.org/Empact/bitcoin/jobs/411794591 where I deleted a file to force the test/lint/git-subtree-check.sh src/secp256k1 lint to fail",
    "body": "Big issue with this PR: Travis `-` sections check the return code on a per-command basis. The newly sourced files do not, so failures are not detected unless you detect them in the script and propagate them to Travis.\r\n\r\nE.g. see https://travis-ci.org/Empact/bitcoin/jobs/411794591 where I deleted a file to force the `test/lint/git-subtree-check.sh src/secp256k1` lint to fail",
    "reactions": {
      "url": "https://api.github.com/repos/bitcoin/bitcoin/issues/comments/410292765/reactions",
      "total_count": 0,
      "+1": 0,
      "-1": 0,
      "laugh": 0,
      "hooray": 0,
      "confused": 0,
      "heart": 0,
      "rocket": 0,
      "eyes": 0
    },
    "performed_via_github_app": null
  },
  {
    "url": "https://api.github.com/repos/bitcoin/bitcoin/issues/comments/410300488",
    "html_url": "https://github.com/bitcoin/bitcoin/pull/13863#issuecomment-410300488",
    "issue_url": "https://api.github.com/repos/bitcoin/bitcoin/issues/13863",
    "id": 410300488,
    "node_id": "MDEyOklzc3VlQ29tbWVudDQxMDMwMDQ4OA==",
    "user": {
      "login": "scravy",
      "id": 295504,
      "node_id": "MDQ6VXNlcjI5NTUwNA==",
      "avatar_url": "https://avatars.githubusercontent.com/u/295504?v=4",
      "gravatar_id": "",
      "url": "https://api.github.com/users/scravy",
      "html_url": "https://github.com/scravy",
      "followers_url": "https://api.github.com/users/scravy/followers",
      "following_url": "https://api.github.com/users/scravy/following{/other_user}",
      "gists_url": "https://api.github.com/users/scravy/gists{/gist_id}",
      "starred_url": "https://api.github.com/users/scravy/starred{/owner}{/repo}",
      "subscriptions_url": "https://api.github.com/users/scravy/subscriptions",
      "organizations_url": "https://api.github.com/users/scravy/orgs",
      "repos_url": "https://api.github.com/users/scravy/repos",
      "events_url": "https://api.github.com/users/scravy/events{/privacy}",
      "received_events_url": "https://api.github.com/users/scravy/received_events",
      "type": "User",
      "site_admin": false
    },
    "created_at": "2018-08-03T16:06:50Z",
    "updated_at": "2018-08-03T16:06:50Z",
    "author_association": "CONTRIBUTOR",
    "body_html": "<p dir=\"auto\"><a class=\"user-mention notranslate\" data-hovercard-type=\"user\" data-hovercard-url=\"/users/Empact/hovercard\" data-octo-click=\"hovercard-link-click\" data-octo-dimensions=\"link_type:self\" href=\"https://github.com/Empact\">@Empact</a> great catch, I added <code class=\"notranslate\">set -e</code> before the <code class=\"notranslate\">source</code> step. WDYT?</p>",
    "body_text": "@Empact great catch, I added set -e before the source step. WDYT?",
    "body": "@Empact great catch, I added `set -e` before the `source` step. WDYT?",
    "reactions": {
      "url": "https://api.github.com/repos/bitcoin/bitcoin/issues/comments/410300488/reactions",
      "total_count": 1,
      "+1": 1,
      "-1": 0,
      "laugh": 0,
      "hooray": 0,
      "confused": 0,
      "heart": 0,
      "rocket": 0,
      "eyes": 0
    },
    "performed_via_github_app": null
  },
  {
    "url": "https://api.github.com/repos/bitcoin/bitcoin/issues/comments/410309357",
    "html_url": "https://github.com/bitcoin/bitcoin/pull/13863#issuecomment-410309357",
    "issue_url": "https://api.github.com/repos/bitcoin/bitcoin/issues/13863",
    "id": 410309357,
    "node_id": "MDEyOklzc3VlQ29tbWVudDQxMDMwOTM1Nw==",
    "user": {
      "login": "DrahtBot",
      "id": 39886733,
      "node_id": "MDQ6VXNlcjM5ODg2NzMz",
      "avatar_url": "https://avatars.githubusercontent.com/u/39886733?v=4",
      "gravatar_id": "",
      "url": "https://api.github.com/users/DrahtBot",
      "html_url": "https://github.com/DrahtBot",
      "followers_url": "https://api.github.com/users/DrahtBot/followers",
      "following_url": "https://api.github.com/users/DrahtBot/following{/other_user}",
      "gists_url": "https://api.github.com/users/DrahtBot/gists{/gist_id}",
      "starred_url": "https://api.github.com/users/DrahtBot/starred{/owner}{/repo}",
      "subscriptions_url": "https://api.github.com/users/DrahtBot/subscriptions",
      "organizations_url": "https://api.github.com/users/DrahtBot/orgs",
      "repos_url": "https://api.github.com/users/DrahtBot/repos",
      "events_url": "https://api.github.com/users/DrahtBot/events{/privacy}",
      "received_events_url": "https://api.github.com/users/DrahtBot/received_events",
      "type": "User",
      "site_admin": false
    },
    "created_at": "2018-08-03T16:39:08Z",
    "updated_at": "2018-08-27T11:26:30Z",
    "author_association": "CONTRIBUTOR",
    "body_html": "Note to reviewers: This pull request conflicts with the following ones:\n<ul dir=\"auto\">\n<li><a class=\"issue-link js-issue-link\" data-error-text=\"Failed to load title\" data-id=\"350034472\" data-permission-text=\"Title is private\" data-url=\"https://github.com/bitcoin/bitcoin/issues/13954\" data-hovercard-type=\"pull_request\" data-hovercard-url=\"/bitcoin/bitcoin/pull/13954/hovercard\" href=\"https://github.com/bitcoin/bitcoin/pull/13954\">#13954</a> (lint: Check for common misspellings using codespell. Fix typos reported by codespell. by practicalswift)</li>\n<li><a class=\"issue-link js-issue-link\" data-error-text=\"Failed to load title\" data-id=\"346851304\" data-permission-text=\"Title is private\" data-url=\"https://github.com/bitcoin/bitcoin/issues/13845\" data-hovercard-type=\"pull_request\" data-hovercard-url=\"/bitcoin/bitcoin/pull/13845/hovercard\" href=\"https://github.com/bitcoin/bitcoin/pull/13845\">#13845</a> (Include tinyformat as a subtree by Empact)</li>\n<li><a class=\"issue-link js-issue-link\" data-error-text=\"Failed to load title\" data-id=\"343266331\" data-permission-text=\"Title is private\" data-url=\"https://github.com/bitcoin/bitcoin/issues/13728\" data-hovercard-type=\"pull_request\" data-hovercard-url=\"/bitcoin/bitcoin/pull/13728/hovercard\" href=\"https://github.com/bitcoin/bitcoin/pull/13728\">#13728</a> (Scripts and tools: Run the CI lint stage on mac and linux both by Empact)</li>\n</ul>\n<p dir=\"auto\">If you consider this pull request important, please also help to review the conflicting pull requests. Ideally, start with the one that should be merged first.</p>",
    "body_text": "Note to reviewers: This pull request conflicts with the following ones:\n\n#13954 (lint: Check for common misspellings using codespell. Fix typos reported by codespell. by practicalswift)\n#13845 (Include tinyformat as a subtree by Empact)\n#13728 (Scripts and tools: Run the CI lint stage on mac and linux both by Empact)\n\nIf you consider this pull request important, please also help to review the conflicting pull requests. Ideally, start with the one that should be merged first.",
    "body": "<!--e57a25ab6845829454e8d69fc972939a-->Note to reviewers: This pull request conflicts with the following ones:\n\n* #13954 (lint: Check for common misspellings using codespell. Fix typos reported by codespell. by practicalswift)\n* #13845 (Include tinyformat as a subtree by Empact)\n* #13728 (Scripts and tools: Run the CI lint stage on mac and linux both by Empact)\n\nIf you consider this pull request important, please also help to review the conflicting pull requests. Ideally, start with the one that should be merged first.",
    "reactions": {
      "url": "https://api.github.com/repos/bitcoin/bitcoin/issues/comments/410309357/reactions",
      "total_count": 0,
      "+1": 0,
      "-1": 0,
      "laugh": 0,
      "hooray": 0,
      "confused": 0,
      "heart": 0,
      "rocket": 0,
      "eyes": 0
    },
    "performed_via_github_app": null
  },
  {
    "url": "https://api.github.com/repos/bitcoin/bitcoin/issues/comments/410812217",
    "html_url": "https://github.com/bitcoin/bitcoin/pull/13863#issuecomment-410812217",
    "issue_url": "https://api.github.com/repos/bitcoin/bitcoin/issues/13863",
    "id": 410812217,
    "node_id": "MDEyOklzc3VlQ29tbWVudDQxMDgxMjIxNw==",
    "user": {
      "login": "scravy",
      "id": 295504,
      "node_id": "MDQ6VXNlcjI5NTUwNA==",
      "avatar_url": "https://avatars.githubusercontent.com/u/295504?v=4",
      "gravatar_id": "",
      "url": "https://api.github.com/users/scravy",
      "html_url": "https://github.com/scravy",
      "followers_url": "https://api.github.com/users/scravy/followers",
      "following_url": "https://api.github.com/users/scravy/following{/other_user}",
      "gists_url": "https://api.github.com/users/scravy/gists{/gist_id}",
      "starred_url": "https://api.github.com/users/scravy/starred{/owner}{/repo}",
      "subscriptions_url": "https://api.github.com/users/scravy/subscriptions",
      "organizations_url": "https://api.github.com/users/scravy/orgs",
      "repos_url": "https://api.github.com/users/scravy/repos",
      "events_url": "https://api.github.com/users/scravy/events{/privacy}",
      "received_events_url": "https://api.github.com/users/scravy/received_events",
      "type": "User",
      "site_admin": false
    },
    "created_at": "2018-08-06T18:46:22Z",
    "updated_at": "2018-08-06T18:46:22Z",
    "author_association": "CONTRIBUTOR",
    "body_html": "<p dir=\"auto\">rebased.</p>\n<p dir=\"auto\">in between <a class=\"issue-link js-issue-link\" data-error-text=\"Failed to load title\" data-id=\"347222100\" data-permission-text=\"Title is private\" data-url=\"https://github.com/bitcoin/bitcoin/issues/13859\" data-hovercard-type=\"pull_request\" data-hovercard-url=\"/bitcoin/bitcoin/pull/13859/hovercard\" href=\"https://github.com/bitcoin/bitcoin/pull/13859\">#13859</a> was merged, I'm now invoking python with LC_ALL=C.UTF_8 in a31bdfcb918469c9d0400a2bd8433fbfddcc411b as it requires that to interpret the emoji correctly. or parse the source file in the first place. Otherwise nothing changed.</p>",
    "body_text": "rebased.\nin between #13859 was merged, I'm now invoking python with LC_ALL=C.UTF_8 in a31bdfcb918469c9d0400a2bd8433fbfddcc411b as it requires that to interpret the emoji correctly. or parse the source file in the first place. Otherwise nothing changed.",
    "body": "rebased.\r\n\r\nin between https://github.com/bitcoin/bitcoin/pull/13859 was merged, I'm now invoking python with LC_ALL=C.UTF_8 in a31bdfcb918469c9d0400a2bd8433fbfddcc411b as it requires that to interpret the emoji correctly. or parse the source file in the first place. Otherwise nothing changed.",
    "reactions": {
      "url": "https://api.github.com/repos/bitcoin/bitcoin/issues/comments/410812217/reactions",
      "total_count": 0,
      "+1": 0,
      "-1": 0,
      "laugh": 0,
      "hooray": 0,
      "confused": 0,
      "heart": 0,
      "rocket": 0,
      "eyes": 0
    },
    "performed_via_github_app": null
  },
  {
    "url": "https://api.github.com/repos/bitcoin/bitcoin/issues/comments/410841917",
    "html_url": "https://github.com/bitcoin/bitcoin/pull/13863#issuecomment-410841917",
    "issue_url": "https://api.github.com/repos/bitcoin/bitcoin/issues/13863",
    "id": 410841917,
    "node_id": "MDEyOklzc3VlQ29tbWVudDQxMDg0MTkxNw==",
    "user": {
      "login": "scravy",
      "id": 295504,
      "node_id": "MDQ6VXNlcjI5NTUwNA==",
      "avatar_url": "https://avatars.githubusercontent.com/u/295504?v=4",
      "gravatar_id": "",
      "url": "https://api.github.com/users/scravy",
      "html_url": "https://github.com/scravy",
      "followers_url": "https://api.github.com/users/scravy/followers",
      "following_url": "https://api.github.com/users/scravy/following{/other_user}",
      "gists_url": "https://api.github.com/users/scravy/gists{/gist_id}",
      "starred_url": "https://api.github.com/users/scravy/starred{/owner}{/repo}",
      "subscriptions_url": "https://api.github.com/users/scravy/subscriptions",
      "organizations_url": "https://api.github.com/users/scravy/orgs",
      "repos_url": "https://api.github.com/users/scravy/repos",
      "events_url": "https://api.github.com/users/scravy/events{/privacy}",
      "received_events_url": "https://api.github.com/users/scravy/received_events",
      "type": "User",
      "site_admin": false
    },
    "created_at": "2018-08-06T20:25:37Z",
    "updated_at": "2018-08-07T11:26:17Z",
    "author_association": "CONTRIBUTOR",
    "body_html": "<p dir=\"auto\"><a class=\"user-mention notranslate\" data-hovercard-type=\"user\" data-hovercard-url=\"/users/MarcoFalke/hovercard\" data-octo-click=\"hovercard-link-click\" data-octo-dimensions=\"link_type:self\" href=\"https://github.com/MarcoFalke\">@MarcoFalke</a> I've changed the scripts to <code class=\"notranslate\">export LC_ALL=C.UTF-8</code> and allowed that in <code class=\"notranslate\">lint-shell-locale</code> in 50a51061fd04549625dedeed02bdf890548e3506 (rebased, now 54949499c1fdb860a6019d0b213b187e51a0a1b6)</p>",
    "body_text": "@MarcoFalke I've changed the scripts to export LC_ALL=C.UTF-8 and allowed that in lint-shell-locale in 50a51061fd04549625dedeed02bdf890548e3506 (rebased, now 54949499c1fdb860a6019d0b213b187e51a0a1b6)",
    "body": "@MarcoFalke I've changed the scripts to `export LC_ALL=C.UTF-8` and allowed that in `lint-shell-locale` in 50a51061fd04549625dedeed02bdf890548e3506 (rebased, now 54949499c1fdb860a6019d0b213b187e51a0a1b6)",
    "reactions": {
      "url": "https://api.github.com/repos/bitcoin/bitcoin/issues/comments/410841917/reactions",
      "total_count": 0,
      "+1": 0,
      "-1": 0,
      "laugh": 0,
      "hooray": 0,
      "confused": 0,
      "heart": 0,
      "rocket": 0,
      "eyes": 0
    },
    "performed_via_github_app": null
  },
  {
    "url": "https://api.github.com/repos/bitcoin/bitcoin/issues/comments/411050228",
    "html_url": "https://github.com/bitcoin/bitcoin/pull/13863#issuecomment-411050228",
    "issue_url": "https://api.github.com/repos/bitcoin/bitcoin/issues/13863",
    "id": 411050228,
    "node_id": "MDEyOklzc3VlQ29tbWVudDQxMTA1MDIyOA==",
    "user": {
      "login": "Gnappuraz",
      "id": 756391,
      "node_id": "MDQ6VXNlcjc1NjM5MQ==",
      "avatar_url": "https://avatars.githubusercontent.com/u/756391?v=4",
      "gravatar_id": "",
      "url": "https://api.github.com/users/Gnappuraz",
      "html_url": "https://github.com/Gnappuraz",
      "followers_url": "https://api.github.com/users/Gnappuraz/followers",
      "following_url": "https://api.github.com/users/Gnappuraz/following{/other_user}",
      "gists_url": "https://api.github.com/users/Gnappuraz/gists{/gist_id}",
      "starred_url": "https://api.github.com/users/Gnappuraz/starred{/owner}{/repo}",
      "subscriptions_url": "https://api.github.com/users/Gnappuraz/subscriptions",
      "organizations_url": "https://api.github.com/users/Gnappuraz/orgs",
      "repos_url": "https://api.github.com/users/Gnappuraz/repos",
      "events_url": "https://api.github.com/users/Gnappuraz/events{/privacy}",
      "received_events_url": "https://api.github.com/users/Gnappuraz/received_events",
      "type": "User",
      "site_admin": false
    },
    "created_at": "2018-08-07T13:10:33Z",
    "updated_at": "2018-08-07T13:10:33Z",
    "author_association": "CONTRIBUTOR",
    "body_html": "<p dir=\"auto\">utACK</p>",
    "body_text": "utACK",
    "body": "utACK",
    "reactions": {
      "url": "https://api.github.com/repos/bitcoin/bitcoin/issues/comments/411050228/reactions",
      "total_count": 0,
      "+1": 0,
      "-1": 0,
      "laugh": 0,
      "hooray": 0,
      "confused": 0,
      "heart": 0,
      "rocket": 0,
      "eyes": 0
    },
    "performed_via_github_app": null
  },
  {
    "url": "https://api.github.com/repos/bitcoin/bitcoin/issues/comments/412023631",
    "html_url": "https://github.com/bitcoin/bitcoin/pull/13863#issuecomment-412023631",
    "issue_url": "https://api.github.com/repos/bitcoin/bitcoin/issues/13863",
    "id": 412023631,
    "node_id": "MDEyOklzc3VlQ29tbWVudDQxMjAyMzYzMQ==",
    "user": {
      "login": "scravy",
      "id": 295504,
      "node_id": "MDQ6VXNlcjI5NTUwNA==",
      "avatar_url": "https://avatars.githubusercontent.com/u/295504?v=4",
      "gravatar_id": "",
      "url": "https://api.github.com/users/scravy",
      "html_url": "https://github.com/scravy",
      "followers_url": "https://api.github.com/users/scravy/followers",
      "following_url": "https://api.github.com/users/scravy/following{/other_user}",
      "gists_url": "https://api.github.com/users/scravy/gists{/gist_id}",
      "starred_url": "https://api.github.com/users/scravy/starred{/owner}{/repo}",
      "subscriptions_url": "https://api.github.com/users/scravy/subscriptions",
      "organizations_url": "https://api.github.com/users/scravy/orgs",
      "repos_url": "https://api.github.com/users/scravy/repos",
      "events_url": "https://api.github.com/users/scravy/events{/privacy}",
      "received_events_url": "https://api.github.com/users/scravy/received_events",
      "type": "User",
      "site_admin": false
    },
    "created_at": "2018-08-10T09:04:01Z",
    "updated_at": "2018-08-10T09:04:01Z",
    "author_association": "CONTRIBUTOR",
    "body_html": "<p dir=\"auto\">About conflicting pull requests:</p>\n<ul dir=\"auto\">\n<li><a class=\"issue-link js-issue-link\" data-error-text=\"Failed to load title\" data-id=\"346851304\" data-permission-text=\"Title is private\" data-url=\"https://github.com/bitcoin/bitcoin/issues/13845\" data-hovercard-type=\"pull_request\" data-hovercard-url=\"/bitcoin/bitcoin/pull/13845/hovercard\" href=\"https://github.com/bitcoin/bitcoin/pull/13845\">#13845</a> will be part of 0.18 and won't be merged soon</li>\n<li><a class=\"issue-link js-issue-link\" data-error-text=\"Failed to load title\" data-id=\"343266331\" data-permission-text=\"Title is private\" data-url=\"https://github.com/bitcoin/bitcoin/issues/13728\" data-hovercard-type=\"pull_request\" data-hovercard-url=\"/bitcoin/bitcoin/pull/13728/hovercard\" href=\"https://github.com/bitcoin/bitcoin/pull/13728\">#13728</a> is fine and AFAICS ready to go and is perfectly reconcilable with this one (in deed this PR has it's origin in <a class=\"issue-link js-issue-link\" data-error-text=\"Failed to load title\" data-id=\"346182220\" data-permission-text=\"Title is private\" data-url=\"https://github.com/bitcoin/bitcoin/issues/13816\" data-hovercard-type=\"pull_request\" data-hovercard-url=\"/bitcoin/bitcoin/pull/13816/hovercard\" href=\"https://github.com/bitcoin/bitcoin/pull/13816\">#13816</a> which has very much the same spirit - running tests on os x natively)</li>\n<li><a class=\"issue-link js-issue-link\" data-error-text=\"Failed to load title\" data-id=\"334330893\" data-permission-text=\"Title is private\" data-url=\"https://github.com/bitcoin/bitcoin/issues/13515\" data-hovercard-type=\"pull_request\" data-hovercard-url=\"/bitcoin/bitcoin/pull/13515/hovercard\" href=\"https://github.com/bitcoin/bitcoin/pull/13515\">#13515</a> has untackled review comments and an outstanding requested review</li>\n</ul>\n<p dir=\"auto\">This one I just rebased.</p>",
    "body_text": "About conflicting pull requests:\n\n#13845 will be part of 0.18 and won't be merged soon\n#13728 is fine and AFAICS ready to go and is perfectly reconcilable with this one (in deed this PR has it's origin in #13816 which has very much the same spirit - running tests on os x natively)\n#13515 has untackled review comments and an outstanding requested review\n\nThis one I just rebased.",
    "body": "About conflicting pull requests:\r\n\r\n- #13845 will be part of 0.18 and won't be merged soon\r\n- #13728 is fine and AFAICS ready to go and is perfectly reconcilable with this one (in deed this PR has it's origin in #13816 which has very much the same spirit - running tests on os x natively)\r\n- #13515 has untackled review comments and an outstanding requested review\r\n\r\nThis one I just rebased.",
    "reactions": {
      "url": "https://api.github.com/repos/bitcoin/bitcoin/issues/comments/412023631/reactions",
      "total_count": 0,
      "+1": 0,
      "-1": 0,
      "laugh": 0,
      "hooray": 0,
      "confused": 0,
      "heart": 0,
      "rocket": 0,
      "eyes": 0
    },
    "performed_via_github_app": null
  },
  {
    "url": "https://api.github.com/repos/bitcoin/bitcoin/issues/comments/413189040",
    "html_url": "https://github.com/bitcoin/bitcoin/pull/13863#issuecomment-413189040",
    "issue_url": "https://api.github.com/repos/bitcoin/bitcoin/issues/13863",
    "id": 413189040,
    "node_id": "MDEyOklzc3VlQ29tbWVudDQxMzE4OTA0MA==",
    "user": {
      "login": "scravy",
      "id": 295504,
      "node_id": "MDQ6VXNlcjI5NTUwNA==",
      "avatar_url": "https://avatars.githubusercontent.com/u/295504?v=4",
      "gravatar_id": "",
      "url": "https://api.github.com/users/scravy",
      "html_url": "https://github.com/scravy",
      "followers_url": "https://api.github.com/users/scravy/followers",
      "following_url": "https://api.github.com/users/scravy/following{/other_user}",
      "gists_url": "https://api.github.com/users/scravy/gists{/gist_id}",
      "starred_url": "https://api.github.com/users/scravy/starred{/owner}{/repo}",
      "subscriptions_url": "https://api.github.com/users/scravy/subscriptions",
      "organizations_url": "https://api.github.com/users/scravy/orgs",
      "repos_url": "https://api.github.com/users/scravy/repos",
      "events_url": "https://api.github.com/users/scravy/events{/privacy}",
      "received_events_url": "https://api.github.com/users/scravy/received_events",
      "type": "User",
      "site_admin": false
    },
    "created_at": "2018-08-15T12:56:21Z",
    "updated_at": "2018-08-15T12:56:21Z",
    "author_association": "CONTRIBUTOR",
    "body_html": "<p dir=\"auto\">Can this be merged or are there any more remarks/suggestions?</p>",
    "body_text": "Can this be merged or are there any more remarks/suggestions?",
    "body": "Can this be merged or are there any more remarks/suggestions?",
    "reactions": {
      "url": "https://api.github.com/repos/bitcoin/bitcoin/issues/comments/413189040/reactions",
      "total_count": 0,
      "+1": 0,
      "-1": 0,
      "laugh": 0,
      "hooray": 0,
      "confused": 0,
      "heart": 0,
      "rocket": 0,
      "eyes": 0
    },
    "performed_via_github_app": null
  },
  {
    "url": "https://api.github.com/repos/bitcoin/bitcoin/issues/comments/413191636",
    "html_url": "https://github.com/bitcoin/bitcoin/pull/13863#issuecomment-413191636",
    "issue_url": "https://api.github.com/repos/bitcoin/bitcoin/issues/13863",
    "id": 413191636,
    "node_id": "MDEyOklzc3VlQ29tbWVudDQxMzE5MTYzNg==",
    "user": {
      "login": "maflcko",
      "id": 6399679,
      "node_id": "MDQ6VXNlcjYzOTk2Nzk=",
      "avatar_url": "https://avatars.githubusercontent.com/u/6399679?v=4",
      "gravatar_id": "",
      "url": "https://api.github.com/users/maflcko",
      "html_url": "https://github.com/maflcko",
      "followers_url": "https://api.github.com/users/maflcko/followers",
      "following_url": "https://api.github.com/users/maflcko/following{/other_user}",
      "gists_url": "https://api.github.com/users/maflcko/gists{/gist_id}",
      "starred_url": "https://api.github.com/users/maflcko/starred{/owner}{/repo}",
      "subscriptions_url": "https://api.github.com/users/maflcko/subscriptions",
      "organizations_url": "https://api.github.com/users/maflcko/orgs",
      "repos_url": "https://api.github.com/users/maflcko/repos",
      "events_url": "https://api.github.com/users/maflcko/events{/privacy}",
      "received_events_url": "https://api.github.com/users/maflcko/received_events",
      "type": "User",
      "site_admin": false
    },
    "created_at": "2018-08-15T13:06:27Z",
    "updated_at": "2018-08-15T13:06:27Z",
    "author_association": "MEMBER",
    "body_html": "<p dir=\"auto\"><a class=\"user-mention notranslate\" data-hovercard-type=\"user\" data-hovercard-url=\"/users/scravy/hovercard\" data-octo-click=\"hovercard-link-click\" data-octo-dimensions=\"link_type:self\" href=\"https://github.com/scravy\">@scravy</a> It needs review and testing</p>",
    "body_text": "@scravy It needs review and testing",
    "body": "@scravy It needs review and testing",
    "reactions": {
      "url": "https://api.github.com/repos/bitcoin/bitcoin/issues/comments/413191636/reactions",
      "total_count": 0,
      "+1": 0,
      "-1": 0,
      "laugh": 0,
      "hooray": 0,
      "confused": 0,
      "heart": 0,
      "rocket": 0,
      "eyes": 0
    },
    "performed_via_github_app": null
  },
  {
    "url": "https://api.github.com/repos/bitcoin/bitcoin/issues/comments/413198006",
    "html_url": "https://github.com/bitcoin/bitcoin/pull/13863#issuecomment-413198006",
    "issue_url": "https://api.github.com/repos/bitcoin/bitcoin/issues/13863",
    "id": 413198006,
    "node_id": "MDEyOklzc3VlQ29tbWVudDQxMzE5ODAwNg==",
    "user": {
      "login": "scravy",
      "id": 295504,
      "node_id": "MDQ6VXNlcjI5NTUwNA==",
      "avatar_url": "https://avatars.githubusercontent.com/u/295504?v=4",
      "gravatar_id": "",
      "url": "https://api.github.com/users/scravy",
      "html_url": "https://github.com/scravy",
      "followers_url": "https://api.github.com/users/scravy/followers",
      "following_url": "https://api.github.com/users/scravy/following{/other_user}",
      "gists_url": "https://api.github.com/users/scravy/gists{/gist_id}",
      "starred_url": "https://api.github.com/users/scravy/starred{/owner}{/repo}",
      "subscriptions_url": "https://api.github.com/users/scravy/subscriptions",
      "organizations_url": "https://api.github.com/users/scravy/orgs",
      "repos_url": "https://api.github.com/users/scravy/repos",
      "events_url": "https://api.github.com/users/scravy/events{/privacy}",
      "received_events_url": "https://api.github.com/users/scravy/received_events",
      "type": "User",
      "site_admin": false
    },
    "created_at": "2018-08-15T13:30:58Z",
    "updated_at": "2018-08-15T13:30:58Z",
    "author_association": "CONTRIBUTOR",
    "body_html": "<p dir=\"auto\"><a class=\"user-mention notranslate\" data-hovercard-type=\"user\" data-hovercard-url=\"/users/MarcoFalke/hovercard\" data-octo-click=\"hovercard-link-click\" data-octo-dimensions=\"link_type:self\" href=\"https://github.com/MarcoFalke\">@MarcoFalke</a></p>\n<p dir=\"auto\">So I was wondering about that. If something touches the travis-definitions only – what is the difference between ACK and utACK here, what could I do to <em>test</em> it? I am rebasing this PR every day and the travis build works splendidly every time (except for this one time where everything in travis failed as it did not at all have any network connectivity).</p>\n<p dir=\"auto\">Because I do not see what more I could do (as a reviewer) but look at travis whether it worked or not. Possibly I could imagine forking and pushing it in my own github-space and looking at travis for my repo, seeing if I can make it fail in the way it should fail (again, as a reviewer; obviously I did that but I'm the author).</p>\n<p dir=\"auto\">I'm mostly asking out of curiosity.</p>",
    "body_text": "@MarcoFalke\nSo I was wondering about that. If something touches the travis-definitions only – what is the difference between ACK and utACK here, what could I do to test it? I am rebasing this PR every day and the travis build works splendidly every time (except for this one time where everything in travis failed as it did not at all have any network connectivity).\nBecause I do not see what more I could do (as a reviewer) but look at travis whether it worked or not. Possibly I could imagine forking and pushing it in my own github-space and looking at travis for my repo, seeing if I can make it fail in the way it should fail (again, as a reviewer; obviously I did that but I'm the author).\nI'm mostly asking out of curiosity.",
    "body": "@MarcoFalke \r\n\r\nSo I was wondering about that. If something touches the travis-definitions only – what is the difference between ACK and utACK here, what could I do to _test_ it? I am rebasing this PR every day and the travis build works splendidly every time (except for this one time where everything in travis failed as it did not at all have any network connectivity).\r\n\r\nBecause I do not see what more I could do (as a reviewer) but look at travis whether it worked or not. Possibly I could imagine forking and pushing it in my own github-space and looking at travis for my repo, seeing if I can make it fail in the way it should fail (again, as a reviewer; obviously I did that but I'm the author).\r\n\r\nI'm mostly asking out of curiosity.",
    "reactions": {
      "url": "https://api.github.com/repos/bitcoin/bitcoin/issues/comments/413198006/reactions",
      "total_count": 0,
      "+1": 0,
      "-1": 0,
      "laugh": 0,
      "hooray": 0,
      "confused": 0,
      "heart": 0,
      "rocket": 0,
      "eyes": 0
    },
    "performed_via_github_app": null
  },
  {
    "url": "https://api.github.com/repos/bitcoin/bitcoin/issues/comments/413228411",
    "html_url": "https://github.com/bitcoin/bitcoin/pull/13863#issuecomment-413228411",
    "issue_url": "https://api.github.com/repos/bitcoin/bitcoin/issues/13863",
    "id": 413228411,
    "node_id": "MDEyOklzc3VlQ29tbWVudDQxMzIyODQxMQ==",
    "user": {
      "login": "maflcko",
      "id": 6399679,
      "node_id": "MDQ6VXNlcjYzOTk2Nzk=",
      "avatar_url": "https://avatars.githubusercontent.com/u/6399679?v=4",
      "gravatar_id": "",
      "url": "https://api.github.com/users/maflcko",
      "html_url": "https://github.com/maflcko",
      "followers_url": "https://api.github.com/users/maflcko/followers",
      "following_url": "https://api.github.com/users/maflcko/following{/other_user}",
      "gists_url": "https://api.github.com/users/maflcko/gists{/gist_id}",
      "starred_url": "https://api.github.com/users/maflcko/starred{/owner}{/repo}",
      "subscriptions_url": "https://api.github.com/users/maflcko/subscriptions",
      "organizations_url": "https://api.github.com/users/maflcko/orgs",
      "repos_url": "https://api.github.com/users/maflcko/repos",
      "events_url": "https://api.github.com/users/maflcko/events{/privacy}",
      "received_events_url": "https://api.github.com/users/maflcko/received_events",
      "type": "User",
      "site_admin": false
    },
    "created_at": "2018-08-15T15:09:32Z",
    "updated_at": "2018-08-15T15:09:32Z",
    "author_association": "MEMBER",
    "body_html": "<p dir=\"auto\">Travis is completely useless when it passes every time. It must also detect any issues that are present and report them correctly.</p>",
    "body_text": "Travis is completely useless when it passes every time. It must also detect any issues that are present and report them correctly.",
    "body": "Travis is completely useless when it passes every time. It must also detect any issues that are present and report them correctly.",
    "reactions": {
      "url": "https://api.github.com/repos/bitcoin/bitcoin/issues/comments/413228411/reactions",
      "total_count": 0,
      "+1": 0,
      "-1": 0,
      "laugh": 0,
      "hooray": 0,
      "confused": 0,
      "heart": 0,
      "rocket": 0,
      "eyes": 0
    },
    "performed_via_github_app": null
  },
  {
    "url": "https://api.github.com/repos/bitcoin/bitcoin/issues/comments/413234970",
    "html_url": "https://github.com/bitcoin/bitcoin/pull/13863#issuecomment-413234970",
    "issue_url": "https://api.github.com/repos/bitcoin/bitcoin/issues/13863",
    "id": 413234970,
    "node_id": "MDEyOklzc3VlQ29tbWVudDQxMzIzNDk3MA==",
    "user": {
      "login": "scravy",
      "id": 295504,
      "node_id": "MDQ6VXNlcjI5NTUwNA==",
      "avatar_url": "https://avatars.githubusercontent.com/u/295504?v=4",
      "gravatar_id": "",
      "url": "https://api.github.com/users/scravy",
      "html_url": "https://github.com/scravy",
      "followers_url": "https://api.github.com/users/scravy/followers",
      "following_url": "https://api.github.com/users/scravy/following{/other_user}",
      "gists_url": "https://api.github.com/users/scravy/gists{/gist_id}",
      "starred_url": "https://api.github.com/users/scravy/starred{/owner}{/repo}",
      "subscriptions_url": "https://api.github.com/users/scravy/subscriptions",
      "organizations_url": "https://api.github.com/users/scravy/orgs",
      "repos_url": "https://api.github.com/users/scravy/repos",
      "events_url": "https://api.github.com/users/scravy/events{/privacy}",
      "received_events_url": "https://api.github.com/users/scravy/received_events",
      "type": "User",
      "site_admin": false
    },
    "created_at": "2018-08-15T15:30:05Z",
    "updated_at": "2018-08-15T15:30:05Z",
    "author_association": "CONTRIBUTOR",
    "body_html": "<p dir=\"auto\">Obviously it passes every time because there is no other development happening on this branch, and I'm rebasing against things which passed the CI check before. While reacting to change requests in the discussion in here it very well failed a few times.</p>\n<p dir=\"auto\">For easier verification would it make sense to link these failing builds?</p>\n<p dir=\"auto\">Again though, what is a reviewer supposed to do in order to <em>test</em> this? The only thing I can imagine is push it from your own repository to trigger a travis build for that and try to make it break there, right?</p>",
    "body_text": "Obviously it passes every time because there is no other development happening on this branch, and I'm rebasing against things which passed the CI check before. While reacting to change requests in the discussion in here it very well failed a few times.\nFor easier verification would it make sense to link these failing builds?\nAgain though, what is a reviewer supposed to do in order to test this? The only thing I can imagine is push it from your own repository to trigger a travis build for that and try to make it break there, right?",
    "body": "Obviously it passes every time because there is no other development happening on this branch, and I'm rebasing against things which passed the CI check before. While reacting to change requests in the discussion in here it very well failed a few times.\r\n\r\nFor easier verification would it make sense to link these failing builds?\r\n\r\nAgain though, what is a reviewer supposed to do in order to _test_ this? The only thing I can imagine is push it from your own repository to trigger a travis build for that and try to make it break there, right?",
    "reactions": {
      "url": "https://api.github.com/repos/bitcoin/bitcoin/issues/comments/413234970/reactions",
      "total_count": 0,
      "+1": 0,
      "-1": 0,
      "laugh": 0,
      "hooray": 0,
      "confused": 0,
      "heart": 0,
      "rocket": 0,
      "eyes": 0
    },
    "performed_via_github_app": null
  },
  {
    "url": "https://api.github.com/repos/bitcoin/bitcoin/issues/comments/413241607",
    "html_url": "https://github.com/bitcoin/bitcoin/pull/13863#issuecomment-413241607",
    "issue_url": "https://api.github.com/repos/bitcoin/bitcoin/issues/13863",
    "id": 413241607,
    "node_id": "MDEyOklzc3VlQ29tbWVudDQxMzI0MTYwNw==",
    "user": {
      "login": "practicalswift",
      "id": 7826565,
      "node_id": "MDQ6VXNlcjc4MjY1NjU=",
      "avatar_url": "https://avatars.githubusercontent.com/u/7826565?v=4",
      "gravatar_id": "",
      "url": "https://api.github.com/users/practicalswift",
      "html_url": "https://github.com/practicalswift",
      "followers_url": "https://api.github.com/users/practicalswift/followers",
      "following_url": "https://api.github.com/users/practicalswift/following{/other_user}",
      "gists_url": "https://api.github.com/users/practicalswift/gists{/gist_id}",
      "starred_url": "https://api.github.com/users/practicalswift/starred{/owner}{/repo}",
      "subscriptions_url": "https://api.github.com/users/practicalswift/subscriptions",
      "organizations_url": "https://api.github.com/users/practicalswift/orgs",
      "repos_url": "https://api.github.com/users/practicalswift/repos",
      "events_url": "https://api.github.com/users/practicalswift/events{/privacy}",
      "received_events_url": "https://api.github.com/users/practicalswift/received_events",
      "type": "User",
      "site_admin": false
    },
    "created_at": "2018-08-15T15:50:07Z",
    "updated_at": "2018-08-15T15:50:07Z",
    "author_association": "CONTRIBUTOR",
    "body_html": "<p dir=\"auto\"><a class=\"user-mention notranslate\" data-hovercard-type=\"user\" data-hovercard-url=\"/users/scravy/hovercard\" data-octo-click=\"hovercard-link-click\" data-octo-dimensions=\"link_type:self\" href=\"https://github.com/scravy\">@scravy</a> Yes, a good start would be your idea to try to cause each script to fail individually and verify that the build fails as expected. For the linting script - introduce a linting violation that should make it fail, etc :-)</p>",
    "body_text": "@scravy Yes, a good start would be your idea to try to cause each script to fail individually and verify that the build fails as expected. For the linting script - introduce a linting violation that should make it fail, etc :-)",
    "body": "@scravy Yes, a good start would be your idea to try to cause each script to fail individually and verify that the build fails as expected. For the linting script - introduce a linting violation that should make it fail, etc :-)",
    "reactions": {
      "url": "https://api.github.com/repos/bitcoin/bitcoin/issues/comments/413241607/reactions",
      "total_count": 0,
      "+1": 0,
      "-1": 0,
      "laugh": 0,
      "hooray": 0,
      "confused": 0,
      "heart": 0,
      "rocket": 0,
      "eyes": 0
    },
    "performed_via_github_app": null
  },
  {
    "url": "https://api.github.com/repos/bitcoin/bitcoin/issues/comments/416199477",
    "html_url": "https://github.com/bitcoin/bitcoin/pull/13863#issuecomment-416199477",
    "issue_url": "https://api.github.com/repos/bitcoin/bitcoin/issues/13863",
    "id": 416199477,
    "node_id": "MDEyOklzc3VlQ29tbWVudDQxNjE5OTQ3Nw==",
    "user": {
      "login": "scravy",
      "id": 295504,
      "node_id": "MDQ6VXNlcjI5NTUwNA==",
      "avatar_url": "https://avatars.githubusercontent.com/u/295504?v=4",
      "gravatar_id": "",
      "url": "https://api.github.com/users/scravy",
      "html_url": "https://github.com/scravy",
      "followers_url": "https://api.github.com/users/scravy/followers",
      "following_url": "https://api.github.com/users/scravy/following{/other_user}",
      "gists_url": "https://api.github.com/users/scravy/gists{/gist_id}",
      "starred_url": "https://api.github.com/users/scravy/starred{/owner}{/repo}",
      "subscriptions_url": "https://api.github.com/users/scravy/subscriptions",
      "organizations_url": "https://api.github.com/users/scravy/orgs",
      "repos_url": "https://api.github.com/users/scravy/repos",
      "events_url": "https://api.github.com/users/scravy/events{/privacy}",
      "received_events_url": "https://api.github.com/users/scravy/received_events",
      "type": "User",
      "site_admin": false
    },
    "created_at": "2018-08-27T11:41:44Z",
    "updated_at": "2018-08-27T11:41:44Z",
    "author_association": "CONTRIBUTOR",
    "body_html": "<p dir=\"auto\">Rebased.</p>",
    "body_text": "Rebased.",
    "body": "Rebased.",
    "reactions": {
      "url": "https://api.github.com/repos/bitcoin/bitcoin/issues/comments/416199477/reactions",
      "total_count": 0,
      "+1": 0,
      "-1": 0,
      "laugh": 0,
      "hooray": 0,
      "confused": 0,
      "heart": 0,
      "rocket": 0,
      "eyes": 0
    },
    "performed_via_github_app": null
  },
  {
    "url": "https://api.github.com/repos/bitcoin/bitcoin/issues/comments/416209960",
    "html_url": "https://github.com/bitcoin/bitcoin/pull/13863#issuecomment-416209960",
    "issue_url": "https://api.github.com/repos/bitcoin/bitcoin/issues/13863",
    "id": 416209960,
    "node_id": "MDEyOklzc3VlQ29tbWVudDQxNjIwOTk2MA==",
    "user": {
      "login": "scravy",
      "id": 295504,
      "node_id": "MDQ6VXNlcjI5NTUwNA==",
      "avatar_url": "https://avatars.githubusercontent.com/u/295504?v=4",
      "gravatar_id": "",
      "url": "https://api.github.com/users/scravy",
      "html_url": "https://github.com/scravy",
      "followers_url": "https://api.github.com/users/scravy/followers",
      "following_url": "https://api.github.com/users/scravy/following{/other_user}",
      "gists_url": "https://api.github.com/users/scravy/gists{/gist_id}",
      "starred_url": "https://api.github.com/users/scravy/starred{/owner}{/repo}",
      "subscriptions_url": "https://api.github.com/users/scravy/subscriptions",
      "organizations_url": "https://api.github.com/users/scravy/orgs",
      "repos_url": "https://api.github.com/users/scravy/repos",
      "events_url": "https://api.github.com/users/scravy/events{/privacy}",
      "received_events_url": "https://api.github.com/users/scravy/received_events",
      "type": "User",
      "site_admin": false
    },
    "created_at": "2018-08-27T12:27:39Z",
    "updated_at": "2018-08-27T12:34:44Z",
    "author_association": "CONTRIBUTOR",
    "body_html": "<p dir=\"auto\">In <a class=\"commit-link\" data-hovercard-type=\"commit\" data-hovercard-url=\"https://github.com/bitcoin/bitcoin/commit/8ad042b4bebbfd2e38bb4cc7ed36bc047aaf09cd/hovercard\" href=\"https://github.com/bitcoin/bitcoin/commit/8ad042b4bebbfd2e38bb4cc7ed36bc047aaf09cd\"><tt>8ad042b</tt></a> I am explicitly breaking the build by introducing an undocumented argument, which is supposed to fail the lint stage.</p>\n<p dir=\"auto\">Here's the build failing in the lint stage in my repository:<br>\n<a href=\"https://travis-ci.org/scravy/bitcoin/jobs/421068804#L575\" rel=\"nofollow\">https://travis-ci.org/scravy/bitcoin/jobs/421068804#L575</a></p>\n<p dir=\"auto\">Here's the build failing in the lint stage as a pull request:<br>\n<a href=\"https://travis-ci.org/bitcoin/bitcoin/jobs/421068842#L580\" rel=\"nofollow\">https://travis-ci.org/bitcoin/bitcoin/jobs/421068842#L580</a></p>\n<p dir=\"auto\">Screenshots of the failing build:<br>\n<a target=\"_blank\" rel=\"noopener noreferrer nofollow\" href=\"https://user-images.githubusercontent.com/295504/44659955-493c1480-aa06-11e8-9bbd-bcd0c7ab499f.png\"><img width=\"1570\" alt=\"screen shot 2018-08-27 at 14 32 16\" src=\"https://user-images.githubusercontent.com/295504/44659955-493c1480-aa06-11e8-9bbd-bcd0c7ab499f.png\" style=\"max-width: 100%;\"></a><br>\n<a target=\"_blank\" rel=\"noopener noreferrer nofollow\" href=\"https://user-images.githubusercontent.com/295504/44659959-4c370500-aa06-11e8-8730-a27035ba4c4a.png\"><img width=\"1557\" alt=\"screen shot 2018-08-27 at 14 31 57\" src=\"https://user-images.githubusercontent.com/295504/44659959-4c370500-aa06-11e8-8730-a27035ba4c4a.png\" style=\"max-width: 100%;\"></a></p>",
    "body_text": "In 8ad042b I am explicitly breaking the build by introducing an undocumented argument, which is supposed to fail the lint stage.\nHere's the build failing in the lint stage in my repository:\nhttps://travis-ci.org/scravy/bitcoin/jobs/421068804#L575\nHere's the build failing in the lint stage as a pull request:\nhttps://travis-ci.org/bitcoin/bitcoin/jobs/421068842#L580\nScreenshots of the failing build:",
    "body": "In https://github.com/bitcoin/bitcoin/pull/13863/commits/8ad042b4bebbfd2e38bb4cc7ed36bc047aaf09cd I am explicitly breaking the build by introducing an undocumented argument, which is supposed to fail the lint stage.\r\n\r\nHere's the build failing in the lint stage in my repository:\r\nhttps://travis-ci.org/scravy/bitcoin/jobs/421068804#L575\r\n\r\nHere's the build failing in the lint stage as a pull request:\r\nhttps://travis-ci.org/bitcoin/bitcoin/jobs/421068842#L580\r\n\r\nScreenshots of the failing build:\r\n<img width=\"1570\" alt=\"screen shot 2018-08-27 at 14 32 16\" src=\"https://user-images.githubusercontent.com/295504/44659955-493c1480-aa06-11e8-9bbd-bcd0c7ab499f.png\">\r\n<img width=\"1557\" alt=\"screen shot 2018-08-27 at 14 31 57\" src=\"https://user-images.githubusercontent.com/295504/44659959-4c370500-aa06-11e8-8730-a27035ba4c4a.png\">\r\n",
    "reactions": {
      "url": "https://api.github.com/repos/bitcoin/bitcoin/issues/comments/416209960/reactions",
      "total_count": 0,
      "+1": 0,
      "-1": 0,
      "laugh": 0,
      "hooray": 0,
      "confused": 0,
      "heart": 0,
      "rocket": 0,
      "eyes": 0
    },
    "performed_via_github_app": null
  },
  {
    "url": "https://api.github.com/repos/bitcoin/bitcoin/issues/comments/416215037",
    "html_url": "https://github.com/bitcoin/bitcoin/pull/13863#issuecomment-416215037",
    "issue_url": "https://api.github.com/repos/bitcoin/bitcoin/issues/13863",
    "id": 416215037,
    "node_id": "MDEyOklzc3VlQ29tbWVudDQxNjIxNTAzNw==",
    "user": {
      "login": "scravy",
      "id": 295504,
      "node_id": "MDQ6VXNlcjI5NTUwNA==",
      "avatar_url": "https://avatars.githubusercontent.com/u/295504?v=4",
      "gravatar_id": "",
      "url": "https://api.github.com/users/scravy",
      "html_url": "https://github.com/scravy",
      "followers_url": "https://api.github.com/users/scravy/followers",
      "following_url": "https://api.github.com/users/scravy/following{/other_user}",
      "gists_url": "https://api.github.com/users/scravy/gists{/gist_id}",
      "starred_url": "https://api.github.com/users/scravy/starred{/owner}{/repo}",
      "subscriptions_url": "https://api.github.com/users/scravy/subscriptions",
      "organizations_url": "https://api.github.com/users/scravy/orgs",
      "repos_url": "https://api.github.com/users/scravy/repos",
      "events_url": "https://api.github.com/users/scravy/events{/privacy}",
      "received_events_url": "https://api.github.com/users/scravy/received_events",
      "type": "User",
      "site_admin": false
    },
    "created_at": "2018-08-27T12:47:13Z",
    "updated_at": "2018-08-27T12:47:13Z",
    "author_association": "CONTRIBUTOR",
    "body_html": "<p dir=\"auto\">In <a class=\"commit-link\" data-hovercard-type=\"commit\" data-hovercard-url=\"https://github.com/bitcoin/bitcoin/commit/236091eebfa9fb0234b0ff7549ec730e87d5a589/hovercard\" href=\"https://github.com/bitcoin/bitcoin/commit/236091eebfa9fb0234b0ff7549ec730e87d5a589\"><tt>236091e</tt></a> I'm undoing the lint-error such that the lint stage passes again and introduce a compilation error in <code class=\"notranslate\">src/init.cpp</code> to fail the build in the test stage.</p>\n<p dir=\"auto\">Here's the build failing in the test stage in my repository:<br>\n<a href=\"https://travis-ci.org/scravy/bitcoin/builds/421075688\" rel=\"nofollow\">https://travis-ci.org/scravy/bitcoin/builds/421075688</a> (exact failure: <a href=\"https://travis-ci.org/scravy/bitcoin/jobs/421075692#L2865\" rel=\"nofollow\">https://travis-ci.org/scravy/bitcoin/jobs/421075692#L2865</a> )</p>\n<p dir=\"auto\"><a target=\"_blank\" rel=\"noopener noreferrer nofollow\" href=\"https://user-images.githubusercontent.com/295504/44660343-9cfb2d80-aa07-11e8-955a-f12e5ec6cda6.png\"><img width=\"1583\" alt=\"screen shot 2018-08-27 at 14 43 39\" src=\"https://user-images.githubusercontent.com/295504/44660343-9cfb2d80-aa07-11e8-955a-f12e5ec6cda6.png\" style=\"max-width: 100%;\"></a></p>\n<p dir=\"auto\"><a target=\"_blank\" rel=\"noopener noreferrer nofollow\" href=\"https://user-images.githubusercontent.com/295504/44660304-7fc65f00-aa07-11e8-8646-a3ccb3f7f379.png\"><img width=\"1543\" alt=\"screen shot 2018-08-27 at 14 42 38\" src=\"https://user-images.githubusercontent.com/295504/44660304-7fc65f00-aa07-11e8-8646-a3ccb3f7f379.png\" style=\"max-width: 100%;\"></a></p>\n<p dir=\"auto\">Here's the build failing in the test stage as a pull request:<br>\n<a href=\"https://travis-ci.org/bitcoin/bitcoin/builds/421075705\" rel=\"nofollow\">https://travis-ci.org/bitcoin/bitcoin/builds/421075705</a> (exact failure: <a href=\"https://travis-ci.org/bitcoin/bitcoin/jobs/421075707#L3120\" rel=\"nofollow\">https://travis-ci.org/bitcoin/bitcoin/jobs/421075707#L3120</a> )</p>\n<p dir=\"auto\"><a target=\"_blank\" rel=\"noopener noreferrer nofollow\" href=\"https://user-images.githubusercontent.com/295504/44660445-ddf34200-aa07-11e8-8c92-8eda08dcde86.png\"><img width=\"1551\" alt=\"screen shot 2018-08-27 at 14 44 47\" src=\"https://user-images.githubusercontent.com/295504/44660445-ddf34200-aa07-11e8-8c92-8eda08dcde86.png\" style=\"max-width: 100%;\"></a></p>\n<p dir=\"auto\"><a target=\"_blank\" rel=\"noopener noreferrer nofollow\" href=\"https://user-images.githubusercontent.com/295504/44660501-0c711d00-aa08-11e8-8984-e4c052d70694.png\"><img width=\"1548\" alt=\"screen shot 2018-08-27 at 14 46 46\" src=\"https://user-images.githubusercontent.com/295504/44660501-0c711d00-aa08-11e8-8984-e4c052d70694.png\" style=\"max-width: 100%;\"></a></p>",
    "body_text": "In 236091e I'm undoing the lint-error such that the lint stage passes again and introduce a compilation error in src/init.cpp to fail the build in the test stage.\nHere's the build failing in the test stage in my repository:\nhttps://travis-ci.org/scravy/bitcoin/builds/421075688 (exact failure: https://travis-ci.org/scravy/bitcoin/jobs/421075692#L2865 )\n\n\nHere's the build failing in the test stage as a pull request:\nhttps://travis-ci.org/bitcoin/bitcoin/builds/421075705 (exact failure: https://travis-ci.org/bitcoin/bitcoin/jobs/421075707#L3120 )",
    "body": "In https://github.com/bitcoin/bitcoin/pull/13863/commits/236091eebfa9fb0234b0ff7549ec730e87d5a589 I'm undoing the lint-error such that the lint stage passes again and introduce a compilation error in `src/init.cpp` to fail the build in the test stage.\r\n\r\nHere's the build failing in the test stage in my repository:\r\nhttps://travis-ci.org/scravy/bitcoin/builds/421075688 (exact failure: https://travis-ci.org/scravy/bitcoin/jobs/421075692#L2865 )\r\n\r\n<img width=\"1583\" alt=\"screen shot 2018-08-27 at 14 43 39\" src=\"https://user-images.githubusercontent.com/295504/44660343-9cfb2d80-aa07-11e8-955a-f12e5ec6cda6.png\">\r\n<img width=\"1543\" alt=\"screen shot 2018-08-27 at 14 42 38\" src=\"https://user-images.githubusercontent.com/295504/44660304-7fc65f00-aa07-11e8-8646-a3ccb3f7f379.png\">\r\n\r\nHere's the build failing in the test stage as a pull request:\r\nhttps://travis-ci.org/bitcoin/bitcoin/builds/421075705 (exact failure: https://travis-ci.org/bitcoin/bitcoin/jobs/421075707#L3120 )\r\n\r\n<img width=\"1551\" alt=\"screen shot 2018-08-27 at 14 44 47\" src=\"https://user-images.githubusercontent.com/295504/44660445-ddf34200-aa07-11e8-8c92-8eda08dcde86.png\">\r\n<img width=\"1548\" alt=\"screen shot 2018-08-27 at 14 46 46\" src=\"https://user-images.githubusercontent.com/295504/44660501-0c711d00-aa08-11e8-8984-e4c052d70694.png\">\r\n\r\n\r\n",
    "reactions": {
      "url": "https://api.github.com/repos/bitcoin/bitcoin/issues/comments/416215037/reactions",
      "total_count": 0,
      "+1": 0,
      "-1": 0,
      "laugh": 0,
      "hooray": 0,
      "confused": 0,
      "heart": 0,
      "rocket": 0,
      "eyes": 0
    },
    "performed_via_github_app": null
  },
  {
    "url": "https://api.github.com/repos/bitcoin/bitcoin/issues/comments/416217536",
    "html_url": "https://github.com/bitcoin/bitcoin/pull/13863#issuecomment-416217536",
    "issue_url": "https://api.github.com/repos/bitcoin/bitcoin/issues/13863",
    "id": 416217536,
    "node_id": "MDEyOklzc3VlQ29tbWVudDQxNjIxNzUzNg==",
    "user": {
      "login": "scravy",
      "id": 295504,
      "node_id": "MDQ6VXNlcjI5NTUwNA==",
      "avatar_url": "https://avatars.githubusercontent.com/u/295504?v=4",
      "gravatar_id": "",
      "url": "https://api.github.com/users/scravy",
      "html_url": "https://github.com/scravy",
      "followers_url": "https://api.github.com/users/scravy/followers",
      "following_url": "https://api.github.com/users/scravy/following{/other_user}",
      "gists_url": "https://api.github.com/users/scravy/gists{/gist_id}",
      "starred_url": "https://api.github.com/users/scravy/starred{/owner}{/repo}",
      "subscriptions_url": "https://api.github.com/users/scravy/subscriptions",
      "organizations_url": "https://api.github.com/users/scravy/orgs",
      "repos_url": "https://api.github.com/users/scravy/repos",
      "events_url": "https://api.github.com/users/scravy/events{/privacy}",
      "received_events_url": "https://api.github.com/users/scravy/received_events",
      "type": "User",
      "site_admin": false
    },
    "created_at": "2018-08-27T12:57:32Z",
    "updated_at": "2018-08-27T12:57:32Z",
    "author_association": "CONTRIBUTOR",
    "body_html": "<p dir=\"auto\">In <a class=\"commit-link\" data-hovercard-type=\"commit\" data-hovercard-url=\"https://github.com/bitcoin/bitcoin/commit/b1ab0435ad245161c3a4906b0fe4a68bd211927a/hovercard\" href=\"https://github.com/bitcoin/bitcoin/commit/b1ab0435ad245161c3a4906b0fe4a68bd211927a\"><tt>b1ab043</tt></a> I undo the compile error and introduce a lint violation insisde on of the travis script files (not using LC_ALL=c, violating <code class=\"notranslate\">lint-shell-locale</code>).</p>\n<p dir=\"auto\">This is how it's failing in my repository:<br>\n<a href=\"https://travis-ci.org/scravy/bitcoin/jobs/421082198#L579\" rel=\"nofollow\">https://travis-ci.org/scravy/bitcoin/jobs/421082198#L579</a></p>\n<p dir=\"auto\">This is how it's failing as a pull request:<br>\n<a href=\"https://travis-ci.org/bitcoin/bitcoin/jobs/421082215#L585\" rel=\"nofollow\">https://travis-ci.org/bitcoin/bitcoin/jobs/421082215#L585</a></p>\n<p dir=\"auto\"><a target=\"_blank\" rel=\"noopener noreferrer nofollow\" href=\"https://user-images.githubusercontent.com/295504/44660888-4f7fc000-aa09-11e8-9323-c3981a2faacc.png\"><img width=\"1553\" alt=\"screen shot 2018-08-27 at 14 55 42\" src=\"https://user-images.githubusercontent.com/295504/44660888-4f7fc000-aa09-11e8-9323-c3981a2faacc.png\" style=\"max-width: 100%;\"></a></p>\n<p dir=\"auto\"><a target=\"_blank\" rel=\"noopener noreferrer nofollow\" href=\"https://user-images.githubusercontent.com/295504/44660889-4f7fc000-aa09-11e8-8eb3-78b43cceb22d.png\"><img width=\"1545\" alt=\"screen shot 2018-08-27 at 14 55 33\" src=\"https://user-images.githubusercontent.com/295504/44660889-4f7fc000-aa09-11e8-8eb3-78b43cceb22d.png\" style=\"max-width: 100%;\"></a></p>\n<p dir=\"auto\"><a target=\"_blank\" rel=\"noopener noreferrer nofollow\" href=\"https://user-images.githubusercontent.com/295504/44660891-4f7fc000-aa09-11e8-9622-51236f9adf51.png\"><img width=\"1548\" alt=\"screen shot 2018-08-27 at 14 54 20\" src=\"https://user-images.githubusercontent.com/295504/44660891-4f7fc000-aa09-11e8-9622-51236f9adf51.png\" style=\"max-width: 100%;\"></a></p>\n<p dir=\"auto\"><a target=\"_blank\" rel=\"noopener noreferrer nofollow\" href=\"https://user-images.githubusercontent.com/295504/44660893-4f7fc000-aa09-11e8-93e0-90ccd1430bec.png\"><img width=\"1554\" alt=\"screen shot 2018-08-27 at 14 54 10\" src=\"https://user-images.githubusercontent.com/295504/44660893-4f7fc000-aa09-11e8-93e0-90ccd1430bec.png\" style=\"max-width: 100%;\"></a></p>",
    "body_text": "In b1ab043 I undo the compile error and introduce a lint violation insisde on of the travis script files (not using LC_ALL=c, violating lint-shell-locale).\nThis is how it's failing in my repository:\nhttps://travis-ci.org/scravy/bitcoin/jobs/421082198#L579\nThis is how it's failing as a pull request:\nhttps://travis-ci.org/bitcoin/bitcoin/jobs/421082215#L585",
    "body": "In https://github.com/bitcoin/bitcoin/pull/13863/commits/b1ab0435ad245161c3a4906b0fe4a68bd211927a I undo the compile error and introduce a lint violation insisde on of the travis script files (not using LC_ALL=c, violating `lint-shell-locale`).\r\n\r\nThis is how it's failing in my repository:\r\nhttps://travis-ci.org/scravy/bitcoin/jobs/421082198#L579\r\n\r\nThis is how it's failing as a pull request:\r\nhttps://travis-ci.org/bitcoin/bitcoin/jobs/421082215#L585\r\n\r\n<img width=\"1553\" alt=\"screen shot 2018-08-27 at 14 55 42\" src=\"https://user-images.githubusercontent.com/295504/44660888-4f7fc000-aa09-11e8-9323-c3981a2faacc.png\">\r\n<img width=\"1545\" alt=\"screen shot 2018-08-27 at 14 55 33\" src=\"https://user-images.githubusercontent.com/295504/44660889-4f7fc000-aa09-11e8-8eb3-78b43cceb22d.png\">\r\n<img width=\"1548\" alt=\"screen shot 2018-08-27 at 14 54 20\" src=\"https://user-images.githubusercontent.com/295504/44660891-4f7fc000-aa09-11e8-9622-51236f9adf51.png\">\r\n<img width=\"1554\" alt=\"screen shot 2018-08-27 at 14 54 10\" src=\"https://user-images.githubusercontent.com/295504/44660893-4f7fc000-aa09-11e8-93e0-90ccd1430bec.png\">\r\n\r\n",
    "reactions": {
      "url": "https://api.github.com/repos/bitcoin/bitcoin/issues/comments/416217536/reactions",
      "total_count": 0,
      "+1": 0,
      "-1": 0,
      "laugh": 0,
      "hooray": 0,
      "confused": 0,
      "heart": 0,
      "rocket": 0,
      "eyes": 0
    },
    "performed_via_github_app": null
  },
  {
    "url": "https://api.github.com/repos/bitcoin/bitcoin/issues/comments/416239875",
    "html_url": "https://github.com/bitcoin/bitcoin/pull/13863#issuecomment-416239875",
    "issue_url": "https://api.github.com/repos/bitcoin/bitcoin/issues/13863",
    "id": 416239875,
    "node_id": "MDEyOklzc3VlQ29tbWVudDQxNjIzOTg3NQ==",
    "user": {
      "login": "scravy",
      "id": 295504,
      "node_id": "MDQ6VXNlcjI5NTUwNA==",
      "avatar_url": "https://avatars.githubusercontent.com/u/295504?v=4",
      "gravatar_id": "",
      "url": "https://api.github.com/users/scravy",
      "html_url": "https://github.com/scravy",
      "followers_url": "https://api.github.com/users/scravy/followers",
      "following_url": "https://api.github.com/users/scravy/following{/other_user}",
      "gists_url": "https://api.github.com/users/scravy/gists{/gist_id}",
      "starred_url": "https://api.github.com/users/scravy/starred{/owner}{/repo}",
      "subscriptions_url": "https://api.github.com/users/scravy/subscriptions",
      "organizations_url": "https://api.github.com/users/scravy/orgs",
      "repos_url": "https://api.github.com/users/scravy/repos",
      "events_url": "https://api.github.com/users/scravy/events{/privacy}",
      "received_events_url": "https://api.github.com/users/scravy/received_events",
      "type": "User",
      "site_admin": false
    },
    "created_at": "2018-08-27T14:11:34Z",
    "updated_at": "2018-08-27T14:11:34Z",
    "author_association": "CONTRIBUTOR",
    "body_html": "<p dir=\"auto\"><a class=\"user-mention notranslate\" data-hovercard-type=\"user\" data-hovercard-url=\"/users/MarcoFalke/hovercard\" data-octo-click=\"hovercard-link-click\" data-octo-dimensions=\"link_type:self\" href=\"https://github.com/MarcoFalke\">@MarcoFalke</a> I see two review comments of yours, yet the PR was merged. You say <code class=\"notranslate\">RUN_TESTS</code> is not exported? Will send a follow-up PR then.</p>",
    "body_text": "@MarcoFalke I see two review comments of yours, yet the PR was merged. You say RUN_TESTS is not exported? Will send a follow-up PR then.",
    "body": "@MarcoFalke I see two review comments of yours, yet the PR was merged. You say `RUN_TESTS` is not exported? Will send a follow-up PR then.",
    "reactions": {
      "url": "https://api.github.com/repos/bitcoin/bitcoin/issues/comments/416239875/reactions",
      "total_count": 0,
      "+1": 0,
      "-1": 0,
      "laugh": 0,
      "hooray": 0,
      "confused": 0,
      "heart": 0,
      "rocket": 0,
      "eyes": 0
    },
    "performed_via_github_app": null
  },
  {
    "url": "https://api.github.com/repos/bitcoin/bitcoin/issues/comments/416241516",
    "html_url": "https://github.com/bitcoin/bitcoin/pull/13863#issuecomment-416241516",
    "issue_url": "https://api.github.com/repos/bitcoin/bitcoin/issues/13863",
    "id": 416241516,
    "node_id": "MDEyOklzc3VlQ29tbWVudDQxNjI0MTUxNg==",
    "user": {
      "login": "scravy",
      "id": 295504,
      "node_id": "MDQ6VXNlcjI5NTUwNA==",
      "avatar_url": "https://avatars.githubusercontent.com/u/295504?v=4",
      "gravatar_id": "",
      "url": "https://api.github.com/users/scravy",
      "html_url": "https://github.com/scravy",
      "followers_url": "https://api.github.com/users/scravy/followers",
      "following_url": "https://api.github.com/users/scravy/following{/other_user}",
      "gists_url": "https://api.github.com/users/scravy/gists{/gist_id}",
      "starred_url": "https://api.github.com/users/scravy/starred{/owner}{/repo}",
      "subscriptions_url": "https://api.github.com/users/scravy/subscriptions",
      "organizations_url": "https://api.github.com/users/scravy/orgs",
      "repos_url": "https://api.github.com/users/scravy/repos",
      "events_url": "https://api.github.com/users/scravy/events{/privacy}",
      "received_events_url": "https://api.github.com/users/scravy/received_events",
      "type": "User",
      "site_admin": false
    },
    "created_at": "2018-08-27T14:16:43Z",
    "updated_at": "2018-08-27T14:16:43Z",
    "author_association": "CONTRIBUTOR",
    "body_html": "<p dir=\"auto\">Fixed in <a class=\"issue-link js-issue-link\" data-error-text=\"Failed to load title\" data-id=\"354337685\" data-permission-text=\"Title is private\" data-url=\"https://github.com/bitcoin/bitcoin/issues/14081\" data-hovercard-type=\"pull_request\" data-hovercard-url=\"/bitcoin/bitcoin/pull/14081/hovercard\" href=\"https://github.com/bitcoin/bitcoin/pull/14081\">#14081</a></p>",
    "body_text": "Fixed in #14081",
    "body": "Fixed in https://github.com/bitcoin/bitcoin/pull/14081",
    "reactions": {
      "url": "https://api.github.com/repos/bitcoin/bitcoin/issues/comments/416241516/reactions",
      "total_count": 0,
      "+1": 0,
      "-1": 0,
      "laugh": 0,
      "hooray": 0,
      "confused": 0,
      "heart": 0,
      "rocket": 0,
      "eyes": 0
    },
    "performed_via_github_app": null
  }
]
