{
  "url": "https://api.github.com/repos/bitcoin/bitcoin/issues/26766",
  "repository_url": "https://api.github.com/repos/bitcoin/bitcoin",
  "labels_url": "https://api.github.com/repos/bitcoin/bitcoin/issues/26766/labels{/name}",
  "comments_url": "https://api.github.com/repos/bitcoin/bitcoin/issues/26766/comments",
  "events_url": "https://api.github.com/repos/bitcoin/bitcoin/issues/26766/events",
  "html_url": "https://github.com/bitcoin/bitcoin/pull/26766",
  "id": 1513180907,
  "node_id": "PR_kwDOABII585GUcIE",
  "number": 26766,
  "title": "ci: Use clang-15 and IWYU v0.19 in \"tidy\" task",
  "user": {
    "login": "hebasto",
    "id": 32963518,
    "node_id": "MDQ6VXNlcjMyOTYzNTE4",
    "avatar_url": "https://avatars.githubusercontent.com/u/32963518?v=4",
    "gravatar_id": "",
    "url": "https://api.github.com/users/hebasto",
    "html_url": "https://github.com/hebasto",
    "followers_url": "https://api.github.com/users/hebasto/followers",
    "following_url": "https://api.github.com/users/hebasto/following{/other_user}",
    "gists_url": "https://api.github.com/users/hebasto/gists{/gist_id}",
    "starred_url": "https://api.github.com/users/hebasto/starred{/owner}{/repo}",
    "subscriptions_url": "https://api.github.com/users/hebasto/subscriptions",
    "organizations_url": "https://api.github.com/users/hebasto/orgs",
    "repos_url": "https://api.github.com/users/hebasto/repos",
    "events_url": "https://api.github.com/users/hebasto/events{/privacy}",
    "received_events_url": "https://api.github.com/users/hebasto/received_events",
    "type": "User",
    "site_admin": false
  },
  "labels": [
    {
      "id": 62963516,
      "node_id": "MDU6TGFiZWw2Mjk2MzUxNg==",
      "url": "https://api.github.com/repos/bitcoin/bitcoin/labels/Tests",
      "name": "Tests",
      "color": "d4c5f9",
      "default": false,
      "description": null
    }
  ],
  "state": "closed",
  "locked": true,
  "assignee": null,
  "assignees": [

  ],
  "milestone": null,
  "comments": 5,
  "created_at": "2022-12-28T21:27:47Z",
  "updated_at": "2024-04-13T12:42:35Z",
  "closed_at": "2023-02-02T20:12:07Z",
  "author_association": "MEMBER",
  "active_lock_reason": null,
  "draft": true,
  "pull_request": {
    "url": "https://api.github.com/repos/bitcoin/bitcoin/pulls/26766",
    "html_url": "https://github.com/bitcoin/bitcoin/pull/26766",
    "diff_url": "https://github.com/bitcoin/bitcoin/pull/26766.diff",
    "patch_url": "https://github.com/bitcoin/bitcoin/pull/26766.patch",
    "merged_at": null
  },
  "body_html": "<p dir=\"auto\">There was a hope that the new IWYU <a href=\"https://github.com/include-what-you-use/include-what-you-use/releases/tag/0.19\">v0.19</a> gets rid of the entire <code class=\"notranslate\">contrib/devtools/iwyu/bitcoin.core.imp</code>. Alas...</p>\n<p dir=\"auto\">Based on <a class=\"issue-link js-issue-link\" data-error-text=\"Failed to load title\" data-id=\"1513046367\" data-permission-text=\"Title is private\" data-url=\"https://github.com/bitcoin/bitcoin/issues/26763\" data-hovercard-type=\"pull_request\" data-hovercard-url=\"/bitcoin/bitcoin/pull/26763/hovercard\" href=\"https://github.com/bitcoin/bitcoin/pull/26763\">#26763</a>.</p>",
  "body_text": "There was a hope that the new IWYU v0.19 gets rid of the entire contrib/devtools/iwyu/bitcoin.core.imp. Alas...\nBased on #26763.",
  "body": "There was a hope that the new IWYU [v0.19](https://github.com/include-what-you-use/include-what-you-use/releases/tag/0.19) gets rid of the entire `contrib/devtools/iwyu/bitcoin.core.imp`. Alas...\r\n\r\nBased on https://github.com/bitcoin/bitcoin/pull/26763.",
  "closed_by": {
    "login": "hebasto",
    "id": 32963518,
    "node_id": "MDQ6VXNlcjMyOTYzNTE4",
    "avatar_url": "https://avatars.githubusercontent.com/u/32963518?v=4",
    "gravatar_id": "",
    "url": "https://api.github.com/users/hebasto",
    "html_url": "https://github.com/hebasto",
    "followers_url": "https://api.github.com/users/hebasto/followers",
    "following_url": "https://api.github.com/users/hebasto/following{/other_user}",
    "gists_url": "https://api.github.com/users/hebasto/gists{/gist_id}",
    "starred_url": "https://api.github.com/users/hebasto/starred{/owner}{/repo}",
    "subscriptions_url": "https://api.github.com/users/hebasto/subscriptions",
    "organizations_url": "https://api.github.com/users/hebasto/orgs",
    "repos_url": "https://api.github.com/users/hebasto/repos",
    "events_url": "https://api.github.com/users/hebasto/events{/privacy}",
    "received_events_url": "https://api.github.com/users/hebasto/received_events",
    "type": "User",
    "site_admin": false
  },
  "reactions": {
    "url": "https://api.github.com/repos/bitcoin/bitcoin/issues/26766/reactions",
    "total_count": 0,
    "+1": 0,
    "-1": 0,
    "laugh": 0,
    "hooray": 0,
    "confused": 0,
    "heart": 0,
    "rocket": 0,
    "eyes": 0
  },
  "timeline_url": "https://api.github.com/repos/bitcoin/bitcoin/issues/26766/timeline",
  "performed_via_github_app": null,
  "state_reason": null
}
