[
  {
    "url": "https://api.github.com/repos/bitcoin/bitcoin/issues/comments/665743887",
    "html_url": "https://github.com/bitcoin/bitcoin/pull/19620#issuecomment-665743887",
    "issue_url": "https://api.github.com/repos/bitcoin/bitcoin/issues/19620",
    "id": 665743887,
    "node_id": "MDEyOklzc3VlQ29tbWVudDY2NTc0Mzg4Nw==",
    "user": {
      "login": "sdaftuar",
      "id": 7463573,
      "node_id": "MDQ6VXNlcjc0NjM1NzM=",
      "avatar_url": "https://avatars.githubusercontent.com/u/7463573?v=4",
      "gravatar_id": "",
      "url": "https://api.github.com/users/sdaftuar",
      "html_url": "https://github.com/sdaftuar",
      "followers_url": "https://api.github.com/users/sdaftuar/followers",
      "following_url": "https://api.github.com/users/sdaftuar/following{/other_user}",
      "gists_url": "https://api.github.com/users/sdaftuar/gists{/gist_id}",
      "starred_url": "https://api.github.com/users/sdaftuar/starred{/owner}{/repo}",
      "subscriptions_url": "https://api.github.com/users/sdaftuar/subscriptions",
      "organizations_url": "https://api.github.com/users/sdaftuar/orgs",
      "repos_url": "https://api.github.com/users/sdaftuar/repos",
      "events_url": "https://api.github.com/users/sdaftuar/events{/privacy}",
      "received_events_url": "https://api.github.com/users/sdaftuar/received_events",
      "type": "User",
      "site_admin": false
    },
    "created_at": "2020-07-29T15:46:40Z",
    "updated_at": "2020-07-29T15:46:40Z",
    "author_association": "MEMBER",
    "body_html": "<p dir=\"auto\">I need to test this still myself, but I wanted to open this as a potential alternative to feeling the need to backport <a class=\"issue-link js-issue-link\" data-error-text=\"Failed to load title\" data-id=\"558241135\" data-permission-text=\"Title is private\" data-url=\"https://github.com/bitcoin/bitcoin/issues/18044\" data-hovercard-type=\"pull_request\" data-hovercard-url=\"/bitcoin/bitcoin/pull/18044/hovercard\" href=\"https://github.com/bitcoin/bitcoin/pull/18044\">#18044</a> (as <a class=\"user-mention notranslate\" data-hovercard-type=\"user\" data-hovercard-url=\"/users/jnewbery/hovercard\" data-octo-click=\"hovercard-link-click\" data-octo-dimensions=\"link_type:self\" href=\"https://github.com/jnewbery\">@jnewbery</a> has proposed in <a class=\"issue-link js-issue-link\" data-error-text=\"Failed to load title\" data-id=\"666885979\" data-permission-text=\"Title is private\" data-url=\"https://github.com/bitcoin/bitcoin/issues/19606\" data-hovercard-type=\"pull_request\" data-hovercard-url=\"/bitcoin/bitcoin/pull/19606/hovercard\" href=\"https://github.com/bitcoin/bitcoin/pull/19606\">#19606</a>) in order to protect older software from wasting bandwidth in the event of taproot activation in the future.</p>\n<p dir=\"auto\">I have a branch where I backported this patch to 0.20 here: <a href=\"https://github.com/sdaftuar/bitcoin/tree/2020-07-reject-unknown-wit-0.20\">https://github.com/sdaftuar/bitcoin/tree/2020-07-reject-unknown-wit-0.20</a>.</p>\n<p dir=\"auto\">Note that this PR should be independently useful to mitigate an issue <a class=\"user-mention notranslate\" data-hovercard-type=\"user\" data-hovercard-url=\"/users/ariard/hovercard\" data-octo-click=\"hovercard-link-click\" data-octo-dimensions=\"link_type:self\" href=\"https://github.com/ariard\">@ariard</a> brought up here: <a class=\"issue-link js-issue-link\" data-error-text=\"Failed to load title\" data-id=\"558241135\" data-permission-text=\"Title is private\" data-url=\"https://github.com/bitcoin/bitcoin/issues/18044\" data-hovercard-type=\"pull_request\" data-hovercard-url=\"/bitcoin/bitcoin/pull/18044/hovercard?comment_id=457768442&amp;comment_type=review_comment\" href=\"https://github.com/bitcoin/bitcoin/pull/18044#discussion_r457768442\">#18044 (comment)</a></p>",
    "body_text": "I need to test this still myself, but I wanted to open this as a potential alternative to feeling the need to backport #18044 (as @jnewbery has proposed in #19606) in order to protect older software from wasting bandwidth in the event of taproot activation in the future.\nI have a branch where I backported this patch to 0.20 here: https://github.com/sdaftuar/bitcoin/tree/2020-07-reject-unknown-wit-0.20.\nNote that this PR should be independently useful to mitigate an issue @ariard brought up here: #18044 (comment)",
    "body": "I need to test this still myself, but I wanted to open this as a potential alternative to feeling the need to backport #18044 (as @jnewbery has proposed in #19606) in order to protect older software from wasting bandwidth in the event of taproot activation in the future.\r\n\r\nI have a branch where I backported this patch to 0.20 here: https://github.com/sdaftuar/bitcoin/tree/2020-07-reject-unknown-wit-0.20.  \r\n\r\nNote that this PR should be independently useful to mitigate an issue @ariard brought up here: https://github.com/bitcoin/bitcoin/pull/18044#discussion_r457768442",
    "reactions": {
      "url": "https://api.github.com/repos/bitcoin/bitcoin/issues/comments/665743887/reactions",
      "total_count": 0,
      "+1": 0,
      "-1": 0,
      "laugh": 0,
      "hooray": 0,
      "confused": 0,
      "heart": 0,
      "rocket": 0,
      "eyes": 0
    },
    "performed_via_github_app": null
  },
  {
    "url": "https://api.github.com/repos/bitcoin/bitcoin/issues/comments/665805640",
    "html_url": "https://github.com/bitcoin/bitcoin/pull/19620#issuecomment-665805640",
    "issue_url": "https://api.github.com/repos/bitcoin/bitcoin/issues/19620",
    "id": 665805640,
    "node_id": "MDEyOklzc3VlQ29tbWVudDY2NTgwNTY0MA==",
    "user": {
      "login": "JeremyRubin",
      "id": 886523,
      "node_id": "MDQ6VXNlcjg4NjUyMw==",
      "avatar_url": "https://avatars.githubusercontent.com/u/886523?v=4",
      "gravatar_id": "",
      "url": "https://api.github.com/users/JeremyRubin",
      "html_url": "https://github.com/JeremyRubin",
      "followers_url": "https://api.github.com/users/JeremyRubin/followers",
      "following_url": "https://api.github.com/users/JeremyRubin/following{/other_user}",
      "gists_url": "https://api.github.com/users/JeremyRubin/gists{/gist_id}",
      "starred_url": "https://api.github.com/users/JeremyRubin/starred{/owner}{/repo}",
      "subscriptions_url": "https://api.github.com/users/JeremyRubin/subscriptions",
      "organizations_url": "https://api.github.com/users/JeremyRubin/orgs",
      "repos_url": "https://api.github.com/users/JeremyRubin/repos",
      "events_url": "https://api.github.com/users/JeremyRubin/events{/privacy}",
      "received_events_url": "https://api.github.com/users/JeremyRubin/received_events",
      "type": "User",
      "site_admin": false
    },
    "created_at": "2020-07-29T17:44:03Z",
    "updated_at": "2020-07-29T17:44:03Z",
    "author_association": "CONTRIBUTOR",
    "body_html": "<p dir=\"auto\">Concept ACK and lite code review ACK.</p>\n<p dir=\"auto\">It seems to me that this change won't help that much in the future upgrade case because even though this fixes witness versions things like leaf versions in taproot (which may be upgraded more often) will require a witness dependent check, and can't be txid reject filtered, unless we made it a policy that transactions spending taproots that mix and match leaf versions are non-standard (but only detectable in the case where an previous attempted witness is nonstandard).</p>",
    "body_text": "Concept ACK and lite code review ACK.\nIt seems to me that this change won't help that much in the future upgrade case because even though this fixes witness versions things like leaf versions in taproot (which may be upgraded more often) will require a witness dependent check, and can't be txid reject filtered, unless we made it a policy that transactions spending taproots that mix and match leaf versions are non-standard (but only detectable in the case where an previous attempted witness is nonstandard).",
    "body": "Concept ACK and lite code review ACK.\r\n\r\nIt seems to me that this change won't help that much in the future upgrade case because even though this fixes witness versions things like leaf versions in taproot (which may be upgraded more often) will require a witness dependent check, and can't be txid reject filtered, unless we made it a policy that transactions spending taproots that mix and match leaf versions are non-standard (but only detectable in the case where an previous attempted witness is nonstandard).",
    "reactions": {
      "url": "https://api.github.com/repos/bitcoin/bitcoin/issues/comments/665805640/reactions",
      "total_count": 0,
      "+1": 0,
      "-1": 0,
      "laugh": 0,
      "hooray": 0,
      "confused": 0,
      "heart": 0,
      "rocket": 0,
      "eyes": 0
    },
    "performed_via_github_app": null
  },
  {
    "url": "https://api.github.com/repos/bitcoin/bitcoin/issues/comments/665867016",
    "html_url": "https://github.com/bitcoin/bitcoin/pull/19620#issuecomment-665867016",
    "issue_url": "https://api.github.com/repos/bitcoin/bitcoin/issues/19620",
    "id": 665867016,
    "node_id": "MDEyOklzc3VlQ29tbWVudDY2NTg2NzAxNg==",
    "user": {
      "login": "sdaftuar",
      "id": 7463573,
      "node_id": "MDQ6VXNlcjc0NjM1NzM=",
      "avatar_url": "https://avatars.githubusercontent.com/u/7463573?v=4",
      "gravatar_id": "",
      "url": "https://api.github.com/users/sdaftuar",
      "html_url": "https://github.com/sdaftuar",
      "followers_url": "https://api.github.com/users/sdaftuar/followers",
      "following_url": "https://api.github.com/users/sdaftuar/following{/other_user}",
      "gists_url": "https://api.github.com/users/sdaftuar/gists{/gist_id}",
      "starred_url": "https://api.github.com/users/sdaftuar/starred{/owner}{/repo}",
      "subscriptions_url": "https://api.github.com/users/sdaftuar/subscriptions",
      "organizations_url": "https://api.github.com/users/sdaftuar/orgs",
      "repos_url": "https://api.github.com/users/sdaftuar/repos",
      "events_url": "https://api.github.com/users/sdaftuar/events{/privacy}",
      "received_events_url": "https://api.github.com/users/sdaftuar/received_events",
      "type": "User",
      "site_admin": false
    },
    "created_at": "2020-07-29T19:48:33Z",
    "updated_at": "2020-07-29T19:48:55Z",
    "author_association": "MEMBER",
    "body_html": "<blockquote>\n<p dir=\"auto\">It seems to me that this change won't help that much in the future upgrade case [...]</p>\n</blockquote>\n<p dir=\"auto\"><a class=\"user-mention notranslate\" data-hovercard-type=\"user\" data-hovercard-url=\"/users/JeremyRubin/hovercard\" data-octo-click=\"hovercard-link-click\" data-octo-dimensions=\"link_type:self\" href=\"https://github.com/JeremyRubin\">@JeremyRubin</a> I agree, this is a bandaid to help this particular scenario.  Going forward, wtxid-relay + a change to the p2p protocol for announcing/requesting unconfirmed ancestors of a transaction by wtxid seems like the right way to solve this type of problem more generally.</p>",
    "body_text": "It seems to me that this change won't help that much in the future upgrade case [...]\n\n@JeremyRubin I agree, this is a bandaid to help this particular scenario.  Going forward, wtxid-relay + a change to the p2p protocol for announcing/requesting unconfirmed ancestors of a transaction by wtxid seems like the right way to solve this type of problem more generally.",
    "body": "> It seems to me that this change won't help that much in the future upgrade case [...]\r\n\r\n@JeremyRubin I agree, this is a bandaid to help this particular scenario.  Going forward, wtxid-relay + a change to the p2p protocol for announcing/requesting unconfirmed ancestors of a transaction by wtxid seems like the right way to solve this type of problem more generally.",
    "reactions": {
      "url": "https://api.github.com/repos/bitcoin/bitcoin/issues/comments/665867016/reactions",
      "total_count": 0,
      "+1": 0,
      "-1": 0,
      "laugh": 0,
      "hooray": 0,
      "confused": 0,
      "heart": 0,
      "rocket": 0,
      "eyes": 0
    },
    "performed_via_github_app": null
  },
  {
    "url": "https://api.github.com/repos/bitcoin/bitcoin/issues/comments/665874178",
    "html_url": "https://github.com/bitcoin/bitcoin/pull/19620#issuecomment-665874178",
    "issue_url": "https://api.github.com/repos/bitcoin/bitcoin/issues/19620",
    "id": 665874178,
    "node_id": "MDEyOklzc3VlQ29tbWVudDY2NTg3NDE3OA==",
    "user": {
      "login": "sipa",
      "id": 548488,
      "node_id": "MDQ6VXNlcjU0ODQ4OA==",
      "avatar_url": "https://avatars.githubusercontent.com/u/548488?v=4",
      "gravatar_id": "",
      "url": "https://api.github.com/users/sipa",
      "html_url": "https://github.com/sipa",
      "followers_url": "https://api.github.com/users/sipa/followers",
      "following_url": "https://api.github.com/users/sipa/following{/other_user}",
      "gists_url": "https://api.github.com/users/sipa/gists{/gist_id}",
      "starred_url": "https://api.github.com/users/sipa/starred{/owner}{/repo}",
      "subscriptions_url": "https://api.github.com/users/sipa/subscriptions",
      "organizations_url": "https://api.github.com/users/sipa/orgs",
      "repos_url": "https://api.github.com/users/sipa/repos",
      "events_url": "https://api.github.com/users/sipa/events{/privacy}",
      "received_events_url": "https://api.github.com/users/sipa/received_events",
      "type": "User",
      "site_admin": false
    },
    "created_at": "2020-07-29T19:55:03Z",
    "updated_at": "2020-07-30T17:24:14Z",
    "author_association": "MEMBER",
    "body_html": "<p dir=\"auto\"><a class=\"user-mention notranslate\" data-hovercard-type=\"user\" data-hovercard-url=\"/users/sdaftuar/hovercard\" data-octo-click=\"hovercard-link-click\" data-octo-dimensions=\"link_type:self\" href=\"https://github.com/sdaftuar\">@sdaftuar</a> <a class=\"user-mention notranslate\" data-hovercard-type=\"user\" data-hovercard-url=\"/users/naumenkogs/hovercard\" data-octo-click=\"hovercard-link-click\" data-octo-dimensions=\"link_type:self\" href=\"https://github.com/naumenkogs\">@naumenkogs</a> Random idea about this: post-Erlay it may make sense to have a message \"i do not have have dependencies of txid <code class=\"notranslate\">txid</code>\", at which point both sides add all known direct and indirect unconfirmed parents of txid they know of to their to-be-broadcast set; if erlay is in effect, the overlap will get cancelled out automatically.</p>",
    "body_text": "@sdaftuar @naumenkogs Random idea about this: post-Erlay it may make sense to have a message \"i do not have have dependencies of txid txid\", at which point both sides add all known direct and indirect unconfirmed parents of txid they know of to their to-be-broadcast set; if erlay is in effect, the overlap will get cancelled out automatically.",
    "body": "@sdaftuar @naumenkogs Random idea about this: post-Erlay it may make sense to have a message \"i do not have have dependencies of txid `txid`\", at which point both sides add all known direct and indirect unconfirmed parents of txid they know of to their to-be-broadcast set; if erlay is in effect, the overlap will get cancelled out automatically.",
    "reactions": {
      "url": "https://api.github.com/repos/bitcoin/bitcoin/issues/comments/665874178/reactions",
      "total_count": 0,
      "+1": 0,
      "-1": 0,
      "laugh": 0,
      "hooray": 0,
      "confused": 0,
      "heart": 0,
      "rocket": 0,
      "eyes": 0
    },
    "performed_via_github_app": null
  },
  {
    "url": "https://api.github.com/repos/bitcoin/bitcoin/issues/comments/666717871",
    "html_url": "https://github.com/bitcoin/bitcoin/pull/19620#issuecomment-666717871",
    "issue_url": "https://api.github.com/repos/bitcoin/bitcoin/issues/19620",
    "id": 666717871,
    "node_id": "MDEyOklzc3VlQ29tbWVudDY2NjcxNzg3MQ==",
    "user": {
      "login": "sdaftuar",
      "id": 7463573,
      "node_id": "MDQ6VXNlcjc0NjM1NzM=",
      "avatar_url": "https://avatars.githubusercontent.com/u/7463573?v=4",
      "gravatar_id": "",
      "url": "https://api.github.com/users/sdaftuar",
      "html_url": "https://github.com/sdaftuar",
      "followers_url": "https://api.github.com/users/sdaftuar/followers",
      "following_url": "https://api.github.com/users/sdaftuar/following{/other_user}",
      "gists_url": "https://api.github.com/users/sdaftuar/gists{/gist_id}",
      "starred_url": "https://api.github.com/users/sdaftuar/starred{/owner}{/repo}",
      "subscriptions_url": "https://api.github.com/users/sdaftuar/subscriptions",
      "organizations_url": "https://api.github.com/users/sdaftuar/orgs",
      "repos_url": "https://api.github.com/users/sdaftuar/repos",
      "events_url": "https://api.github.com/users/sdaftuar/events{/privacy}",
      "received_events_url": "https://api.github.com/users/sdaftuar/received_events",
      "type": "User",
      "site_admin": false
    },
    "created_at": "2020-07-30T21:33:44Z",
    "updated_at": "2020-07-30T21:33:44Z",
    "author_association": "MEMBER",
    "body_html": "<p dir=\"auto\">Updated some comments and also used this same logic when processing orphans.</p>",
    "body_text": "Updated some comments and also used this same logic when processing orphans.",
    "body": "Updated some comments and also used this same logic when processing orphans. ",
    "reactions": {
      "url": "https://api.github.com/repos/bitcoin/bitcoin/issues/comments/666717871/reactions",
      "total_count": 0,
      "+1": 0,
      "-1": 0,
      "laugh": 0,
      "hooray": 0,
      "confused": 0,
      "heart": 0,
      "rocket": 0,
      "eyes": 0
    },
    "performed_via_github_app": null
  },
  {
    "url": "https://api.github.com/repos/bitcoin/bitcoin/issues/comments/666904390",
    "html_url": "https://github.com/bitcoin/bitcoin/pull/19620#issuecomment-666904390",
    "issue_url": "https://api.github.com/repos/bitcoin/bitcoin/issues/19620",
    "id": 666904390,
    "node_id": "MDEyOklzc3VlQ29tbWVudDY2NjkwNDM5MA==",
    "user": {
      "login": "DrahtBot",
      "id": 39886733,
      "node_id": "MDQ6VXNlcjM5ODg2NzMz",
      "avatar_url": "https://avatars.githubusercontent.com/u/39886733?v=4",
      "gravatar_id": "",
      "url": "https://api.github.com/users/DrahtBot",
      "html_url": "https://github.com/DrahtBot",
      "followers_url": "https://api.github.com/users/DrahtBot/followers",
      "following_url": "https://api.github.com/users/DrahtBot/following{/other_user}",
      "gists_url": "https://api.github.com/users/DrahtBot/gists{/gist_id}",
      "starred_url": "https://api.github.com/users/DrahtBot/starred{/owner}{/repo}",
      "subscriptions_url": "https://api.github.com/users/DrahtBot/subscriptions",
      "organizations_url": "https://api.github.com/users/DrahtBot/orgs",
      "repos_url": "https://api.github.com/users/DrahtBot/repos",
      "events_url": "https://api.github.com/users/DrahtBot/events{/privacy}",
      "received_events_url": "https://api.github.com/users/DrahtBot/received_events",
      "type": "User",
      "site_admin": false
    },
    "created_at": "2020-07-31T04:06:21Z",
    "updated_at": "2020-07-31T04:06:21Z",
    "author_association": "CONTRIBUTOR",
    "body_html": "\n<p dir=\"auto\">The following sections might be updated with supplementary metadata relevant to reviewers and maintainers.</p>\n\n<h3 dir=\"auto\">Conflicts</h3>\n<p dir=\"auto\">Reviewers, this pull request conflicts with the following ones:</p>\n<ul dir=\"auto\">\n<li><a class=\"issue-link js-issue-link\" data-error-text=\"Failed to load title\" data-id=\"655373466\" data-permission-text=\"Title is private\" data-url=\"https://github.com/bitcoin/bitcoin/issues/19498\" data-hovercard-type=\"pull_request\" data-hovercard-url=\"/bitcoin/bitcoin/pull/19498/hovercard\" href=\"https://github.com/bitcoin/bitcoin/pull/19498\">#19498</a> (Tidy up ProcessOrphanTx by jnewbery)</li>\n</ul>\n<p dir=\"auto\">If you consider this pull request important, please also help to review the conflicting pull requests. Ideally, start with the one that should be merged first.</p>",
    "body_text": "The following sections might be updated with supplementary metadata relevant to reviewers and maintainers.\n\nConflicts\nReviewers, this pull request conflicts with the following ones:\n\n#19498 (Tidy up ProcessOrphanTx by jnewbery)\n\nIf you consider this pull request important, please also help to review the conflicting pull requests. Ideally, start with the one that should be merged first.",
    "body": "<!--e57a25ab6845829454e8d69fc972939a-->\n\nThe following sections might be updated with supplementary metadata relevant to reviewers and maintainers.\n\n<!--174a7506f384e20aa4161008e828411d-->\n### Conflicts\nReviewers, this pull request conflicts with the following ones:\n\n* #19498 (Tidy up ProcessOrphanTx by jnewbery)\n\nIf you consider this pull request important, please also help to review the conflicting pull requests. Ideally, start with the one that should be merged first.",
    "reactions": {
      "url": "https://api.github.com/repos/bitcoin/bitcoin/issues/comments/666904390/reactions",
      "total_count": 0,
      "+1": 0,
      "-1": 0,
      "laugh": 0,
      "hooray": 0,
      "confused": 0,
      "heart": 0,
      "rocket": 0,
      "eyes": 0
    },
    "performed_via_github_app": null
  },
  {
    "url": "https://api.github.com/repos/bitcoin/bitcoin/issues/comments/667292616",
    "html_url": "https://github.com/bitcoin/bitcoin/pull/19620#issuecomment-667292616",
    "issue_url": "https://api.github.com/repos/bitcoin/bitcoin/issues/19620",
    "id": 667292616,
    "node_id": "MDEyOklzc3VlQ29tbWVudDY2NzI5MjYxNg==",
    "user": {
      "login": "sdaftuar",
      "id": 7463573,
      "node_id": "MDQ6VXNlcjc0NjM1NzM=",
      "avatar_url": "https://avatars.githubusercontent.com/u/7463573?v=4",
      "gravatar_id": "",
      "url": "https://api.github.com/users/sdaftuar",
      "html_url": "https://github.com/sdaftuar",
      "followers_url": "https://api.github.com/users/sdaftuar/followers",
      "following_url": "https://api.github.com/users/sdaftuar/following{/other_user}",
      "gists_url": "https://api.github.com/users/sdaftuar/gists{/gist_id}",
      "starred_url": "https://api.github.com/users/sdaftuar/starred{/owner}{/repo}",
      "subscriptions_url": "https://api.github.com/users/sdaftuar/subscriptions",
      "organizations_url": "https://api.github.com/users/sdaftuar/orgs",
      "repos_url": "https://api.github.com/users/sdaftuar/repos",
      "events_url": "https://api.github.com/users/sdaftuar/events{/privacy}",
      "received_events_url": "https://api.github.com/users/sdaftuar/received_events",
      "type": "User",
      "site_admin": false
    },
    "created_at": "2020-07-31T18:37:48Z",
    "updated_at": "2020-07-31T18:37:48Z",
    "author_association": "MEMBER",
    "body_html": "<p dir=\"auto\">Happy to include a functional test if anyone is able to put one together for this.</p>",
    "body_text": "Happy to include a functional test if anyone is able to put one together for this.",
    "body": "Happy to include a functional test if anyone is able to put one together for this.",
    "reactions": {
      "url": "https://api.github.com/repos/bitcoin/bitcoin/issues/comments/667292616/reactions",
      "total_count": 0,
      "+1": 0,
      "-1": 0,
      "laugh": 0,
      "hooray": 0,
      "confused": 0,
      "heart": 0,
      "rocket": 0,
      "eyes": 0
    },
    "performed_via_github_app": null
  },
  {
    "url": "https://api.github.com/repos/bitcoin/bitcoin/issues/comments/667296340",
    "html_url": "https://github.com/bitcoin/bitcoin/pull/19620#issuecomment-667296340",
    "issue_url": "https://api.github.com/repos/bitcoin/bitcoin/issues/19620",
    "id": 667296340,
    "node_id": "MDEyOklzc3VlQ29tbWVudDY2NzI5NjM0MA==",
    "user": {
      "login": "JeremyRubin",
      "id": 886523,
      "node_id": "MDQ6VXNlcjg4NjUyMw==",
      "avatar_url": "https://avatars.githubusercontent.com/u/886523?v=4",
      "gravatar_id": "",
      "url": "https://api.github.com/users/JeremyRubin",
      "html_url": "https://github.com/JeremyRubin",
      "followers_url": "https://api.github.com/users/JeremyRubin/followers",
      "following_url": "https://api.github.com/users/JeremyRubin/following{/other_user}",
      "gists_url": "https://api.github.com/users/JeremyRubin/gists{/gist_id}",
      "starred_url": "https://api.github.com/users/JeremyRubin/starred{/owner}{/repo}",
      "subscriptions_url": "https://api.github.com/users/JeremyRubin/subscriptions",
      "organizations_url": "https://api.github.com/users/JeremyRubin/orgs",
      "repos_url": "https://api.github.com/users/JeremyRubin/repos",
      "events_url": "https://api.github.com/users/JeremyRubin/events{/privacy}",
      "received_events_url": "https://api.github.com/users/JeremyRubin/received_events",
      "type": "User",
      "site_admin": false
    },
    "created_at": "2020-07-31T18:47:01Z",
    "updated_at": "2020-07-31T18:47:01Z",
    "author_association": "CONTRIBUTOR",
    "body_html": "<p dir=\"auto\"><a class=\"user-mention notranslate\" data-hovercard-type=\"user\" data-hovercard-url=\"/users/instagibbs/hovercard\" data-octo-click=\"hovercard-link-click\" data-octo-dimensions=\"link_type:self\" href=\"https://github.com/instagibbs\">@instagibbs</a> might?</p>",
    "body_text": "@instagibbs might?",
    "body": "@instagibbs might?",
    "reactions": {
      "url": "https://api.github.com/repos/bitcoin/bitcoin/issues/comments/667296340/reactions",
      "total_count": 0,
      "+1": 0,
      "-1": 0,
      "laugh": 0,
      "hooray": 0,
      "confused": 0,
      "heart": 0,
      "rocket": 0,
      "eyes": 0
    },
    "performed_via_github_app": null
  },
  {
    "url": "https://api.github.com/repos/bitcoin/bitcoin/issues/comments/667298234",
    "html_url": "https://github.com/bitcoin/bitcoin/pull/19620#issuecomment-667298234",
    "issue_url": "https://api.github.com/repos/bitcoin/bitcoin/issues/19620",
    "id": 667298234,
    "node_id": "MDEyOklzc3VlQ29tbWVudDY2NzI5ODIzNA==",
    "user": {
      "login": "instagibbs",
      "id": 5767891,
      "node_id": "MDQ6VXNlcjU3Njc4OTE=",
      "avatar_url": "https://avatars.githubusercontent.com/u/5767891?v=4",
      "gravatar_id": "",
      "url": "https://api.github.com/users/instagibbs",
      "html_url": "https://github.com/instagibbs",
      "followers_url": "https://api.github.com/users/instagibbs/followers",
      "following_url": "https://api.github.com/users/instagibbs/following{/other_user}",
      "gists_url": "https://api.github.com/users/instagibbs/gists{/gist_id}",
      "starred_url": "https://api.github.com/users/instagibbs/starred{/owner}{/repo}",
      "subscriptions_url": "https://api.github.com/users/instagibbs/subscriptions",
      "organizations_url": "https://api.github.com/users/instagibbs/orgs",
      "repos_url": "https://api.github.com/users/instagibbs/repos",
      "events_url": "https://api.github.com/users/instagibbs/events{/privacy}",
      "received_events_url": "https://api.github.com/users/instagibbs/received_events",
      "type": "User",
      "site_admin": false
    },
    "created_at": "2020-07-31T18:51:36Z",
    "updated_at": "2020-07-31T18:51:36Z",
    "author_association": "MEMBER",
    "body_html": "<p dir=\"auto\">I think this deserves a test and shouldn't be too bad. I'll take a crack at it this weekend.</p>",
    "body_text": "I think this deserves a test and shouldn't be too bad. I'll take a crack at it this weekend.",
    "body": "I think this deserves a test and shouldn't be too bad. I'll take a crack at it this weekend.",
    "reactions": {
      "url": "https://api.github.com/repos/bitcoin/bitcoin/issues/comments/667298234/reactions",
      "total_count": 0,
      "+1": 0,
      "-1": 0,
      "laugh": 0,
      "hooray": 0,
      "confused": 0,
      "heart": 0,
      "rocket": 0,
      "eyes": 0
    },
    "performed_via_github_app": null
  },
  {
    "url": "https://api.github.com/repos/bitcoin/bitcoin/issues/comments/667343723",
    "html_url": "https://github.com/bitcoin/bitcoin/pull/19620#issuecomment-667343723",
    "issue_url": "https://api.github.com/repos/bitcoin/bitcoin/issues/19620",
    "id": 667343723,
    "node_id": "MDEyOklzc3VlQ29tbWVudDY2NzM0MzcyMw==",
    "user": {
      "login": "sipa",
      "id": 548488,
      "node_id": "MDQ6VXNlcjU0ODQ4OA==",
      "avatar_url": "https://avatars.githubusercontent.com/u/548488?v=4",
      "gravatar_id": "",
      "url": "https://api.github.com/users/sipa",
      "html_url": "https://github.com/sipa",
      "followers_url": "https://api.github.com/users/sipa/followers",
      "following_url": "https://api.github.com/users/sipa/following{/other_user}",
      "gists_url": "https://api.github.com/users/sipa/gists{/gist_id}",
      "starred_url": "https://api.github.com/users/sipa/starred{/owner}{/repo}",
      "subscriptions_url": "https://api.github.com/users/sipa/subscriptions",
      "organizations_url": "https://api.github.com/users/sipa/orgs",
      "repos_url": "https://api.github.com/users/sipa/repos",
      "events_url": "https://api.github.com/users/sipa/events{/privacy}",
      "received_events_url": "https://api.github.com/users/sipa/received_events",
      "type": "User",
      "site_admin": false
    },
    "created_at": "2020-07-31T20:30:36Z",
    "updated_at": "2020-07-31T20:30:36Z",
    "author_association": "MEMBER",
    "body_html": "<p dir=\"auto\">Code review ACK <a class=\"commit-link\" data-hovercard-type=\"commit\" data-hovercard-url=\"https://github.com/bitcoin/bitcoin/commit/acdd7f3dda6d6c89e6f91c781bf941bfc66d8ba3/hovercard\" href=\"https://github.com/bitcoin/bitcoin/commit/acdd7f3dda6d6c89e6f91c781bf941bfc66d8ba3\"><tt>acdd7f3</tt></a>. A test would be nice.</p>",
    "body_text": "Code review ACK acdd7f3. A test would be nice.",
    "body": "Code review ACK acdd7f3dda6d6c89e6f91c781bf941bfc66d8ba3. A test would be nice.",
    "reactions": {
      "url": "https://api.github.com/repos/bitcoin/bitcoin/issues/comments/667343723/reactions",
      "total_count": 0,
      "+1": 0,
      "-1": 0,
      "laugh": 0,
      "hooray": 0,
      "confused": 0,
      "heart": 0,
      "rocket": 0,
      "eyes": 0
    },
    "performed_via_github_app": null
  },
  {
    "url": "https://api.github.com/repos/bitcoin/bitcoin/issues/comments/667360468",
    "html_url": "https://github.com/bitcoin/bitcoin/pull/19620#issuecomment-667360468",
    "issue_url": "https://api.github.com/repos/bitcoin/bitcoin/issues/19620",
    "id": 667360468,
    "node_id": "MDEyOklzc3VlQ29tbWVudDY2NzM2MDQ2OA==",
    "user": {
      "login": "instagibbs",
      "id": 5767891,
      "node_id": "MDQ6VXNlcjU3Njc4OTE=",
      "avatar_url": "https://avatars.githubusercontent.com/u/5767891?v=4",
      "gravatar_id": "",
      "url": "https://api.github.com/users/instagibbs",
      "html_url": "https://github.com/instagibbs",
      "followers_url": "https://api.github.com/users/instagibbs/followers",
      "following_url": "https://api.github.com/users/instagibbs/following{/other_user}",
      "gists_url": "https://api.github.com/users/instagibbs/gists{/gist_id}",
      "starred_url": "https://api.github.com/users/instagibbs/starred{/owner}{/repo}",
      "subscriptions_url": "https://api.github.com/users/instagibbs/subscriptions",
      "organizations_url": "https://api.github.com/users/instagibbs/orgs",
      "repos_url": "https://api.github.com/users/instagibbs/repos",
      "events_url": "https://api.github.com/users/instagibbs/events{/privacy}",
      "received_events_url": "https://api.github.com/users/instagibbs/received_events",
      "type": "User",
      "site_admin": false
    },
    "created_at": "2020-07-31T21:17:29Z",
    "updated_at": "2020-07-31T21:17:29Z",
    "author_association": "MEMBER",
    "body_html": "<div class=\"email-fragment\">Yeah might be worth noting that's what it's for. Took me a bit of work.</div>\n<span class=\"email-hidden-toggle\"><a href=\"#\">…</a></span><div class=\"email-hidden-reply\">\n<div class=\"email-quoted-reply\">On Fri, Jul 31, 2020, 5:16 PM Luke Dashjr ***@***.***&gt; wrote:\n ***@***.**** commented on this pull request.\n ------------------------------\n\n In src/net_processing.cpp\n &lt;<a class=\"issue-link js-issue-link\" data-error-text=\"Failed to load title\" data-id=\"667941548\" data-permission-text=\"Title is private\" data-url=\"https://github.com/bitcoin/bitcoin/issues/19620\" href=\"https://github.com/bitcoin/bitcoin/pull/19620#discussion_r463848628\">#19620 (comment)</a>&gt;:\n\n &gt; @@ -2053,6 +2060,17 @@ void static ProcessOrphanTx(CConnman&amp; connman, CTxMemPool&amp; mempool, std::set&lt;uin\n                  // if we start doing this too early.\n                  assert(recentRejects);\n                  recentRejects-&gt;insert(orphanTx.GetWitnessHash());\n +                // If the transaction failed for TX_INPUTS_NOT_STANDARD,\n +                // then we know that the witness was irrelevant to the policy\n +                // failure, since this check depends only on the txid\n +                // (the scriptPubKey being spent is covered by the txid).\n +                // Add the txid to the reject filter to prevent repeated\n +                // processing of this transaction in the event that child\n +                // transactions are later received (resulting in\n +                // parent-fetching by txid via the orphan-handling logic).\n +                if (orphan_state.GetResult() == TxValidationResult::TX_INPUTS_NOT_STANDARD &amp;&amp; orphanTx.GetWitnessHash() != orphanTx.GetHash()) {\n\n Yes, inserting the same hash twice degrades the filter IIRC\n\n —\n You are receiving this because you were mentioned.\n Reply to this email directly, view it on GitHub\n &lt;<a class=\"issue-link js-issue-link\" data-error-text=\"Failed to load title\" data-id=\"667941548\" data-permission-text=\"Title is private\" data-url=\"https://github.com/bitcoin/bitcoin/issues/19620\" href=\"https://github.com/bitcoin/bitcoin/pull/19620#discussion_r463848628\">#19620 (comment)</a>&gt;, or\n unsubscribe\n &lt;<a href=\"https://github.com/notifications/unsubscribe-auth/ABMAFUZZCX3AQ6GZCIXYOX3R6MYCNANCNFSM4PLXHWJQ\">https://github.com/notifications/unsubscribe-auth/ABMAFUZZCX3AQ6GZCIXYOX3R6MYCNANCNFSM4PLXHWJQ</a>&gt;\n .\n</div>\n<div class=\"email-fragment\"></div>\n</div>",
    "body_text": "Yeah might be worth noting that's what it's for. Took me a bit of work.\n…\nOn Fri, Jul 31, 2020, 5:16 PM Luke Dashjr ***@***.***> wrote:\n ***@***.**** commented on this pull request.\n ------------------------------\n\n In src/net_processing.cpp\n <#19620 (comment)>:\n\n > @@ -2053,6 +2060,17 @@ void static ProcessOrphanTx(CConnman& connman, CTxMemPool& mempool, std::set<uin\n                  // if we start doing this too early.\n                  assert(recentRejects);\n                  recentRejects->insert(orphanTx.GetWitnessHash());\n +                // If the transaction failed for TX_INPUTS_NOT_STANDARD,\n +                // then we know that the witness was irrelevant to the policy\n +                // failure, since this check depends only on the txid\n +                // (the scriptPubKey being spent is covered by the txid).\n +                // Add the txid to the reject filter to prevent repeated\n +                // processing of this transaction in the event that child\n +                // transactions are later received (resulting in\n +                // parent-fetching by txid via the orphan-handling logic).\n +                if (orphan_state.GetResult() == TxValidationResult::TX_INPUTS_NOT_STANDARD && orphanTx.GetWitnessHash() != orphanTx.GetHash()) {\n\n Yes, inserting the same hash twice degrades the filter IIRC\n\n —\n You are receiving this because you were mentioned.\n Reply to this email directly, view it on GitHub\n <#19620 (comment)>, or\n unsubscribe\n <https://github.com/notifications/unsubscribe-auth/ABMAFUZZCX3AQ6GZCIXYOX3R6MYCNANCNFSM4PLXHWJQ>\n .",
    "body": "Yeah might be worth noting that's what it's for. Took me a bit of work.\n\nOn Fri, Jul 31, 2020, 5:16 PM Luke Dashjr <notifications@github.com> wrote:\n\n> *@luke-jr* commented on this pull request.\n> ------------------------------\n>\n> In src/net_processing.cpp\n> <https://github.com/bitcoin/bitcoin/pull/19620#discussion_r463848628>:\n>\n> > @@ -2053,6 +2060,17 @@ void static ProcessOrphanTx(CConnman& connman, CTxMemPool& mempool, std::set<uin\n>                  // if we start doing this too early.\n>                  assert(recentRejects);\n>                  recentRejects->insert(orphanTx.GetWitnessHash());\n> +                // If the transaction failed for TX_INPUTS_NOT_STANDARD,\n> +                // then we know that the witness was irrelevant to the policy\n> +                // failure, since this check depends only on the txid\n> +                // (the scriptPubKey being spent is covered by the txid).\n> +                // Add the txid to the reject filter to prevent repeated\n> +                // processing of this transaction in the event that child\n> +                // transactions are later received (resulting in\n> +                // parent-fetching by txid via the orphan-handling logic).\n> +                if (orphan_state.GetResult() == TxValidationResult::TX_INPUTS_NOT_STANDARD && orphanTx.GetWitnessHash() != orphanTx.GetHash()) {\n>\n> Yes, inserting the same hash twice degrades the filter IIRC\n>\n> —\n> You are receiving this because you were mentioned.\n> Reply to this email directly, view it on GitHub\n> <https://github.com/bitcoin/bitcoin/pull/19620#discussion_r463848628>, or\n> unsubscribe\n> <https://github.com/notifications/unsubscribe-auth/ABMAFUZZCX3AQ6GZCIXYOX3R6MYCNANCNFSM4PLXHWJQ>\n> .\n>\n",
    "reactions": {
      "url": "https://api.github.com/repos/bitcoin/bitcoin/issues/comments/667360468/reactions",
      "total_count": 0,
      "+1": 0,
      "-1": 0,
      "laugh": 0,
      "hooray": 0,
      "confused": 0,
      "heart": 0,
      "rocket": 0,
      "eyes": 0
    },
    "performed_via_github_app": null
  },
  {
    "url": "https://api.github.com/repos/bitcoin/bitcoin/issues/comments/668180158",
    "html_url": "https://github.com/bitcoin/bitcoin/pull/19620#issuecomment-668180158",
    "issue_url": "https://api.github.com/repos/bitcoin/bitcoin/issues/19620",
    "id": 668180158,
    "node_id": "MDEyOklzc3VlQ29tbWVudDY2ODE4MDE1OA==",
    "user": {
      "login": "instagibbs",
      "id": 5767891,
      "node_id": "MDQ6VXNlcjU3Njc4OTE=",
      "avatar_url": "https://avatars.githubusercontent.com/u/5767891?v=4",
      "gravatar_id": "",
      "url": "https://api.github.com/users/instagibbs",
      "html_url": "https://github.com/instagibbs",
      "followers_url": "https://api.github.com/users/instagibbs/followers",
      "following_url": "https://api.github.com/users/instagibbs/following{/other_user}",
      "gists_url": "https://api.github.com/users/instagibbs/gists{/gist_id}",
      "starred_url": "https://api.github.com/users/instagibbs/starred{/owner}{/repo}",
      "subscriptions_url": "https://api.github.com/users/instagibbs/subscriptions",
      "organizations_url": "https://api.github.com/users/instagibbs/orgs",
      "repos_url": "https://api.github.com/users/instagibbs/repos",
      "events_url": "https://api.github.com/users/instagibbs/events{/privacy}",
      "received_events_url": "https://api.github.com/users/instagibbs/received_events",
      "type": "User",
      "site_admin": false
    },
    "created_at": "2020-08-03T18:40:41Z",
    "updated_at": "2020-08-03T18:40:41Z",
    "author_association": "MEMBER",
    "body_html": "<p dir=\"auto\">Turns out there's already a nice natural spot for the test, feel free to snipe: <a class=\"commit-link\" data-hovercard-type=\"commit\" data-hovercard-url=\"https://github.com/instagibbs/bitcoin/commit/57f782d29e1a2d2f315bf99762e0aa6ce4e0f1c0/hovercard\" href=\"https://github.com/instagibbs/bitcoin/commit/57f782d29e1a2d2f315bf99762e0aa6ce4e0f1c0\">instagibbs@<tt>57f782d</tt></a></p>",
    "body_text": "Turns out there's already a nice natural spot for the test, feel free to snipe: instagibbs@57f782d",
    "body": "Turns out there's already a nice natural spot for the test, feel free to snipe: https://github.com/instagibbs/bitcoin/commit/57f782d29e1a2d2f315bf99762e0aa6ce4e0f1c0",
    "reactions": {
      "url": "https://api.github.com/repos/bitcoin/bitcoin/issues/comments/668180158/reactions",
      "total_count": 0,
      "+1": 0,
      "-1": 0,
      "laugh": 0,
      "hooray": 0,
      "confused": 0,
      "heart": 0,
      "rocket": 0,
      "eyes": 0
    },
    "performed_via_github_app": null
  },
  {
    "url": "https://api.github.com/repos/bitcoin/bitcoin/issues/comments/668180600",
    "html_url": "https://github.com/bitcoin/bitcoin/pull/19620#issuecomment-668180600",
    "issue_url": "https://api.github.com/repos/bitcoin/bitcoin/issues/19620",
    "id": 668180600,
    "node_id": "MDEyOklzc3VlQ29tbWVudDY2ODE4MDYwMA==",
    "user": {
      "login": "instagibbs",
      "id": 5767891,
      "node_id": "MDQ6VXNlcjU3Njc4OTE=",
      "avatar_url": "https://avatars.githubusercontent.com/u/5767891?v=4",
      "gravatar_id": "",
      "url": "https://api.github.com/users/instagibbs",
      "html_url": "https://github.com/instagibbs",
      "followers_url": "https://api.github.com/users/instagibbs/followers",
      "following_url": "https://api.github.com/users/instagibbs/following{/other_user}",
      "gists_url": "https://api.github.com/users/instagibbs/gists{/gist_id}",
      "starred_url": "https://api.github.com/users/instagibbs/starred{/owner}{/repo}",
      "subscriptions_url": "https://api.github.com/users/instagibbs/subscriptions",
      "organizations_url": "https://api.github.com/users/instagibbs/orgs",
      "repos_url": "https://api.github.com/users/instagibbs/repos",
      "events_url": "https://api.github.com/users/instagibbs/events{/privacy}",
      "received_events_url": "https://api.github.com/users/instagibbs/received_events",
      "type": "User",
      "site_admin": false
    },
    "created_at": "2020-08-03T18:41:37Z",
    "updated_at": "2020-08-03T18:41:37Z",
    "author_association": "MEMBER",
    "body_html": "<p dir=\"auto\">ACK <a class=\"commit-link\" data-hovercard-type=\"commit\" data-hovercard-url=\"https://github.com/bitcoin/bitcoin/commit/ada658f7d668b9bb721383af991e0e8bec476d36/hovercard\" href=\"https://github.com/bitcoin/bitcoin/commit/ada658f7d668b9bb721383af991e0e8bec476d36\"><tt>ada658f</tt></a></p>",
    "body_text": "ACK ada658f",
    "body": "ACK https://github.com/bitcoin/bitcoin/pull/19620/commits/ada658f7d668b9bb721383af991e0e8bec476d36",
    "reactions": {
      "url": "https://api.github.com/repos/bitcoin/bitcoin/issues/comments/668180600/reactions",
      "total_count": 0,
      "+1": 0,
      "-1": 0,
      "laugh": 0,
      "hooray": 0,
      "confused": 0,
      "heart": 0,
      "rocket": 0,
      "eyes": 0
    },
    "performed_via_github_app": null
  },
  {
    "url": "https://api.github.com/repos/bitcoin/bitcoin/issues/comments/668192153",
    "html_url": "https://github.com/bitcoin/bitcoin/pull/19620#issuecomment-668192153",
    "issue_url": "https://api.github.com/repos/bitcoin/bitcoin/issues/19620",
    "id": 668192153,
    "node_id": "MDEyOklzc3VlQ29tbWVudDY2ODE5MjE1Mw==",
    "user": {
      "login": "sdaftuar",
      "id": 7463573,
      "node_id": "MDQ6VXNlcjc0NjM1NzM=",
      "avatar_url": "https://avatars.githubusercontent.com/u/7463573?v=4",
      "gravatar_id": "",
      "url": "https://api.github.com/users/sdaftuar",
      "html_url": "https://github.com/sdaftuar",
      "followers_url": "https://api.github.com/users/sdaftuar/followers",
      "following_url": "https://api.github.com/users/sdaftuar/following{/other_user}",
      "gists_url": "https://api.github.com/users/sdaftuar/gists{/gist_id}",
      "starred_url": "https://api.github.com/users/sdaftuar/starred{/owner}{/repo}",
      "subscriptions_url": "https://api.github.com/users/sdaftuar/subscriptions",
      "organizations_url": "https://api.github.com/users/sdaftuar/orgs",
      "repos_url": "https://api.github.com/users/sdaftuar/repos",
      "events_url": "https://api.github.com/users/sdaftuar/events{/privacy}",
      "received_events_url": "https://api.github.com/users/sdaftuar/received_events",
      "type": "User",
      "site_admin": false
    },
    "created_at": "2020-08-03T19:07:11Z",
    "updated_at": "2020-08-03T19:07:11Z",
    "author_association": "MEMBER",
    "body_html": "<p dir=\"auto\">Thanks <a class=\"user-mention notranslate\" data-hovercard-type=\"user\" data-hovercard-url=\"/users/instagibbs/hovercard\" data-octo-click=\"hovercard-link-click\" data-octo-dimensions=\"link_type:self\" href=\"https://github.com/instagibbs\">@instagibbs</a>!  I added your test change here.</p>",
    "body_text": "Thanks @instagibbs!  I added your test change here.",
    "body": "Thanks @instagibbs!  I added your test change here.",
    "reactions": {
      "url": "https://api.github.com/repos/bitcoin/bitcoin/issues/comments/668192153/reactions",
      "total_count": 0,
      "+1": 0,
      "-1": 0,
      "laugh": 0,
      "hooray": 0,
      "confused": 0,
      "heart": 0,
      "rocket": 0,
      "eyes": 0
    },
    "performed_via_github_app": null
  },
  {
    "url": "https://api.github.com/repos/bitcoin/bitcoin/issues/comments/668731977",
    "html_url": "https://github.com/bitcoin/bitcoin/pull/19620#issuecomment-668731977",
    "issue_url": "https://api.github.com/repos/bitcoin/bitcoin/issues/19620",
    "id": 668731977,
    "node_id": "MDEyOklzc3VlQ29tbWVudDY2ODczMTk3Nw==",
    "user": {
      "login": "sdaftuar",
      "id": 7463573,
      "node_id": "MDQ6VXNlcjc0NjM1NzM=",
      "avatar_url": "https://avatars.githubusercontent.com/u/7463573?v=4",
      "gravatar_id": "",
      "url": "https://api.github.com/users/sdaftuar",
      "html_url": "https://github.com/sdaftuar",
      "followers_url": "https://api.github.com/users/sdaftuar/followers",
      "following_url": "https://api.github.com/users/sdaftuar/following{/other_user}",
      "gists_url": "https://api.github.com/users/sdaftuar/gists{/gist_id}",
      "starred_url": "https://api.github.com/users/sdaftuar/starred{/owner}{/repo}",
      "subscriptions_url": "https://api.github.com/users/sdaftuar/subscriptions",
      "organizations_url": "https://api.github.com/users/sdaftuar/orgs",
      "repos_url": "https://api.github.com/users/sdaftuar/repos",
      "events_url": "https://api.github.com/users/sdaftuar/events{/privacy}",
      "received_events_url": "https://api.github.com/users/sdaftuar/received_events",
      "type": "User",
      "site_admin": false
    },
    "created_at": "2020-08-04T17:39:07Z",
    "updated_at": "2020-08-04T17:39:07Z",
    "author_association": "MEMBER",
    "body_html": "<p dir=\"auto\">Updated with a comment to address <a class=\"user-mention notranslate\" data-hovercard-type=\"user\" data-hovercard-url=\"/users/ariard/hovercard\" data-octo-click=\"hovercard-link-click\" data-octo-dimensions=\"link_type:self\" href=\"https://github.com/ariard\">@ariard</a>'s feedback and tried to fix the test by bumping the timeout to 5 seconds.</p>",
    "body_text": "Updated with a comment to address @ariard's feedback and tried to fix the test by bumping the timeout to 5 seconds.",
    "body": "Updated with a comment to address @ariard's feedback and tried to fix the test by bumping the timeout to 5 seconds.",
    "reactions": {
      "url": "https://api.github.com/repos/bitcoin/bitcoin/issues/comments/668731977/reactions",
      "total_count": 0,
      "+1": 0,
      "-1": 0,
      "laugh": 0,
      "hooray": 0,
      "confused": 0,
      "heart": 0,
      "rocket": 0,
      "eyes": 0
    },
    "performed_via_github_app": null
  },
  {
    "url": "https://api.github.com/repos/bitcoin/bitcoin/issues/comments/669018816",
    "html_url": "https://github.com/bitcoin/bitcoin/pull/19620#issuecomment-669018816",
    "issue_url": "https://api.github.com/repos/bitcoin/bitcoin/issues/19620",
    "id": 669018816,
    "node_id": "MDEyOklzc3VlQ29tbWVudDY2OTAxODgxNg==",
    "user": {
      "login": "naumenkogs",
      "id": 7975071,
      "node_id": "MDQ6VXNlcjc5NzUwNzE=",
      "avatar_url": "https://avatars.githubusercontent.com/u/7975071?v=4",
      "gravatar_id": "",
      "url": "https://api.github.com/users/naumenkogs",
      "html_url": "https://github.com/naumenkogs",
      "followers_url": "https://api.github.com/users/naumenkogs/followers",
      "following_url": "https://api.github.com/users/naumenkogs/following{/other_user}",
      "gists_url": "https://api.github.com/users/naumenkogs/gists{/gist_id}",
      "starred_url": "https://api.github.com/users/naumenkogs/starred{/owner}{/repo}",
      "subscriptions_url": "https://api.github.com/users/naumenkogs/subscriptions",
      "organizations_url": "https://api.github.com/users/naumenkogs/orgs",
      "repos_url": "https://api.github.com/users/naumenkogs/repos",
      "events_url": "https://api.github.com/users/naumenkogs/events{/privacy}",
      "received_events_url": "https://api.github.com/users/naumenkogs/received_events",
      "type": "User",
      "site_admin": false
    },
    "created_at": "2020-08-05T07:00:21Z",
    "updated_at": "2020-08-05T07:00:21Z",
    "author_association": "MEMBER",
    "body_html": "<p dir=\"auto\">utACK <a class=\"commit-link\" data-hovercard-type=\"commit\" data-hovercard-url=\"https://github.com/bitcoin/bitcoin/commit/9f88ded82b2898ca63d44c08072f1ba52f0e18d7/hovercard\" href=\"https://github.com/bitcoin/bitcoin/commit/9f88ded82b2898ca63d44c08072f1ba52f0e18d7\"><tt>9f88ded</tt></a></p>",
    "body_text": "utACK 9f88ded",
    "body": "utACK 9f88ded82b2898ca63d44c08072f1ba52f0e18d7",
    "reactions": {
      "url": "https://api.github.com/repos/bitcoin/bitcoin/issues/comments/669018816/reactions",
      "total_count": 0,
      "+1": 0,
      "-1": 0,
      "laugh": 0,
      "hooray": 0,
      "confused": 0,
      "heart": 0,
      "rocket": 0,
      "eyes": 0
    },
    "performed_via_github_app": null
  },
  {
    "url": "https://api.github.com/repos/bitcoin/bitcoin/issues/comments/669467144",
    "html_url": "https://github.com/bitcoin/bitcoin/pull/19620#issuecomment-669467144",
    "issue_url": "https://api.github.com/repos/bitcoin/bitcoin/issues/19620",
    "id": 669467144,
    "node_id": "MDEyOklzc3VlQ29tbWVudDY2OTQ2NzE0NA==",
    "user": {
      "login": "sdaftuar",
      "id": 7463573,
      "node_id": "MDQ6VXNlcjc0NjM1NzM=",
      "avatar_url": "https://avatars.githubusercontent.com/u/7463573?v=4",
      "gravatar_id": "",
      "url": "https://api.github.com/users/sdaftuar",
      "html_url": "https://github.com/sdaftuar",
      "followers_url": "https://api.github.com/users/sdaftuar/followers",
      "following_url": "https://api.github.com/users/sdaftuar/following{/other_user}",
      "gists_url": "https://api.github.com/users/sdaftuar/gists{/gist_id}",
      "starred_url": "https://api.github.com/users/sdaftuar/starred{/owner}{/repo}",
      "subscriptions_url": "https://api.github.com/users/sdaftuar/subscriptions",
      "organizations_url": "https://api.github.com/users/sdaftuar/orgs",
      "repos_url": "https://api.github.com/users/sdaftuar/repos",
      "events_url": "https://api.github.com/users/sdaftuar/events{/privacy}",
      "received_events_url": "https://api.github.com/users/sdaftuar/received_events",
      "type": "User",
      "site_admin": false
    },
    "created_at": "2020-08-05T20:01:28Z",
    "updated_at": "2020-08-05T20:01:28Z",
    "author_association": "MEMBER",
    "body_html": "<p dir=\"auto\"><a class=\"user-mention notranslate\" data-hovercard-type=\"user\" data-hovercard-url=\"/users/jonatack/hovercard\" data-octo-click=\"hovercard-link-click\" data-octo-dimensions=\"link_type:self\" href=\"https://github.com/jonatack\">@jonatack</a> Thanks for taking a look -- if I end up re-pushing I'll address the nits.</p>",
    "body_text": "@jonatack Thanks for taking a look -- if I end up re-pushing I'll address the nits.",
    "body": "@jonatack Thanks for taking a look -- if I end up re-pushing I'll address the nits.",
    "reactions": {
      "url": "https://api.github.com/repos/bitcoin/bitcoin/issues/comments/669467144/reactions",
      "total_count": 0,
      "+1": 0,
      "-1": 0,
      "laugh": 0,
      "hooray": 0,
      "confused": 0,
      "heart": 0,
      "rocket": 0,
      "eyes": 0
    },
    "performed_via_github_app": null
  },
  {
    "url": "https://api.github.com/repos/bitcoin/bitcoin/issues/comments/669807357",
    "html_url": "https://github.com/bitcoin/bitcoin/pull/19620#issuecomment-669807357",
    "issue_url": "https://api.github.com/repos/bitcoin/bitcoin/issues/19620",
    "id": 669807357,
    "node_id": "MDEyOklzc3VlQ29tbWVudDY2OTgwNzM1Nw==",
    "user": {
      "login": "ariard",
      "id": 23310655,
      "node_id": "MDQ6VXNlcjIzMzEwNjU1",
      "avatar_url": "https://avatars.githubusercontent.com/u/23310655?v=4",
      "gravatar_id": "",
      "url": "https://api.github.com/users/ariard",
      "html_url": "https://github.com/ariard",
      "followers_url": "https://api.github.com/users/ariard/followers",
      "following_url": "https://api.github.com/users/ariard/following{/other_user}",
      "gists_url": "https://api.github.com/users/ariard/gists{/gist_id}",
      "starred_url": "https://api.github.com/users/ariard/starred{/owner}{/repo}",
      "subscriptions_url": "https://api.github.com/users/ariard/subscriptions",
      "organizations_url": "https://api.github.com/users/ariard/orgs",
      "repos_url": "https://api.github.com/users/ariard/repos",
      "events_url": "https://api.github.com/users/ariard/events{/privacy}",
      "received_events_url": "https://api.github.com/users/ariard/received_events",
      "type": "User",
      "site_admin": false
    },
    "created_at": "2020-08-06T09:04:14Z",
    "updated_at": "2020-08-06T09:04:14Z",
    "author_association": "MEMBER",
    "body_html": "<p dir=\"auto\">Code Review/Tested ACK 9f88ded</p>\n<p dir=\"auto\">Thanks for the comment on duplicative checks under some flags combination, I agree that alternatives aren't worthy the burden review.</p>",
    "body_text": "Code Review/Tested ACK 9f88ded\nThanks for the comment on duplicative checks under some flags combination, I agree that alternatives aren't worthy the burden review.",
    "body": "Code Review/Tested ACK 9f88ded\r\n\r\nThanks for the comment on duplicative checks under some flags combination, I agree that alternatives aren't worthy the burden review.",
    "reactions": {
      "url": "https://api.github.com/repos/bitcoin/bitcoin/issues/comments/669807357/reactions",
      "total_count": 0,
      "+1": 0,
      "-1": 0,
      "laugh": 0,
      "hooray": 0,
      "confused": 0,
      "heart": 0,
      "rocket": 0,
      "eyes": 0
    },
    "performed_via_github_app": null
  },
  {
    "url": "https://api.github.com/repos/bitcoin/bitcoin/issues/comments/669862121",
    "html_url": "https://github.com/bitcoin/bitcoin/pull/19620#issuecomment-669862121",
    "issue_url": "https://api.github.com/repos/bitcoin/bitcoin/issues/19620",
    "id": 669862121,
    "node_id": "MDEyOklzc3VlQ29tbWVudDY2OTg2MjEyMQ==",
    "user": {
      "login": "jnewbery",
      "id": 1063656,
      "node_id": "MDQ6VXNlcjEwNjM2NTY=",
      "avatar_url": "https://avatars.githubusercontent.com/u/1063656?v=4",
      "gravatar_id": "",
      "url": "https://api.github.com/users/jnewbery",
      "html_url": "https://github.com/jnewbery",
      "followers_url": "https://api.github.com/users/jnewbery/followers",
      "following_url": "https://api.github.com/users/jnewbery/following{/other_user}",
      "gists_url": "https://api.github.com/users/jnewbery/gists{/gist_id}",
      "starred_url": "https://api.github.com/users/jnewbery/starred{/owner}{/repo}",
      "subscriptions_url": "https://api.github.com/users/jnewbery/subscriptions",
      "organizations_url": "https://api.github.com/users/jnewbery/orgs",
      "repos_url": "https://api.github.com/users/jnewbery/repos",
      "events_url": "https://api.github.com/users/jnewbery/events{/privacy}",
      "received_events_url": "https://api.github.com/users/jnewbery/received_events",
      "type": "User",
      "site_admin": false
    },
    "created_at": "2020-08-06T11:04:34Z",
    "updated_at": "2020-08-06T11:04:34Z",
    "author_association": "CONTRIBUTOR",
    "body_html": "<p dir=\"auto\">Code review ACK <a class=\"commit-link\" data-hovercard-type=\"commit\" data-hovercard-url=\"https://github.com/bitcoin/bitcoin/commit/9f88ded82b2898ca63d44c08072f1ba52f0e18d7/hovercard\" href=\"https://github.com/bitcoin/bitcoin/commit/9f88ded82b2898ca63d44c08072f1ba52f0e18d7\"><tt>9f88ded</tt></a></p>",
    "body_text": "Code review ACK 9f88ded",
    "body": "Code review ACK 9f88ded82b2898ca63d44c08072f1ba52f0e18d7",
    "reactions": {
      "url": "https://api.github.com/repos/bitcoin/bitcoin/issues/comments/669862121/reactions",
      "total_count": 0,
      "+1": 0,
      "-1": 0,
      "laugh": 0,
      "hooray": 0,
      "confused": 0,
      "heart": 0,
      "rocket": 0,
      "eyes": 0
    },
    "performed_via_github_app": null
  },
  {
    "url": "https://api.github.com/repos/bitcoin/bitcoin/issues/comments/670102686",
    "html_url": "https://github.com/bitcoin/bitcoin/pull/19620#issuecomment-670102686",
    "issue_url": "https://api.github.com/repos/bitcoin/bitcoin/issues/19620",
    "id": 670102686,
    "node_id": "MDEyOklzc3VlQ29tbWVudDY3MDEwMjY4Ng==",
    "user": {
      "login": "ajtowns",
      "id": 127186,
      "node_id": "MDQ6VXNlcjEyNzE4Ng==",
      "avatar_url": "https://avatars.githubusercontent.com/u/127186?v=4",
      "gravatar_id": "",
      "url": "https://api.github.com/users/ajtowns",
      "html_url": "https://github.com/ajtowns",
      "followers_url": "https://api.github.com/users/ajtowns/followers",
      "following_url": "https://api.github.com/users/ajtowns/following{/other_user}",
      "gists_url": "https://api.github.com/users/ajtowns/gists{/gist_id}",
      "starred_url": "https://api.github.com/users/ajtowns/starred{/owner}{/repo}",
      "subscriptions_url": "https://api.github.com/users/ajtowns/subscriptions",
      "organizations_url": "https://api.github.com/users/ajtowns/orgs",
      "repos_url": "https://api.github.com/users/ajtowns/repos",
      "events_url": "https://api.github.com/users/ajtowns/events{/privacy}",
      "received_events_url": "https://api.github.com/users/ajtowns/received_events",
      "type": "User",
      "site_admin": false
    },
    "created_at": "2020-08-06T18:31:37Z",
    "updated_at": "2020-08-06T18:31:37Z",
    "author_association": "CONTRIBUTOR",
    "body_html": "<p dir=\"auto\">ACK <a class=\"commit-link\" data-hovercard-type=\"commit\" data-hovercard-url=\"https://github.com/bitcoin/bitcoin/commit/9f88ded82b2898ca63d44c08072f1ba52f0e18d7/hovercard\" href=\"https://github.com/bitcoin/bitcoin/commit/9f88ded82b2898ca63d44c08072f1ba52f0e18d7\"><tt>9f88ded</tt></a> - code review</p>",
    "body_text": "ACK 9f88ded - code review",
    "body": "ACK 9f88ded82b2898ca63d44c08072f1ba52f0e18d7 - code review",
    "reactions": {
      "url": "https://api.github.com/repos/bitcoin/bitcoin/issues/comments/670102686/reactions",
      "total_count": 0,
      "+1": 0,
      "-1": 0,
      "laugh": 0,
      "hooray": 0,
      "confused": 0,
      "heart": 0,
      "rocket": 0,
      "eyes": 0
    },
    "performed_via_github_app": null
  }
]
