[
  {
    "url": "https://api.github.com/repos/bitcoin/bitcoin/issues/comments/1931758957",
    "html_url": "https://github.com/bitcoin/bitcoin/issues/29398#issuecomment-1931758957",
    "issue_url": "https://api.github.com/repos/bitcoin/bitcoin/issues/29398",
    "id": 1931758957,
    "node_id": "IC_kwDOABII585zJE1t",
    "user": {
      "login": "maflcko",
      "id": 6399679,
      "node_id": "MDQ6VXNlcjYzOTk2Nzk=",
      "avatar_url": "https://avatars.githubusercontent.com/u/6399679?v=4",
      "gravatar_id": "",
      "url": "https://api.github.com/users/maflcko",
      "html_url": "https://github.com/maflcko",
      "followers_url": "https://api.github.com/users/maflcko/followers",
      "following_url": "https://api.github.com/users/maflcko/following{/other_user}",
      "gists_url": "https://api.github.com/users/maflcko/gists{/gist_id}",
      "starred_url": "https://api.github.com/users/maflcko/starred{/owner}{/repo}",
      "subscriptions_url": "https://api.github.com/users/maflcko/subscriptions",
      "organizations_url": "https://api.github.com/users/maflcko/orgs",
      "repos_url": "https://api.github.com/users/maflcko/repos",
      "events_url": "https://api.github.com/users/maflcko/events{/privacy}",
      "received_events_url": "https://api.github.com/users/maflcko/received_events",
      "type": "User",
      "site_admin": false
    },
    "created_at": "2024-02-07T10:37:55Z",
    "updated_at": "2024-02-07T10:37:55Z",
    "author_association": "MEMBER",
    "body_html": "<p dir=\"auto\">Ref: <a href=\"https://github.com/bitcoin/bitcoin/blame/v26.0/src/wallet/spend.cpp#L1223-L1227\">https://github.com/bitcoin/bitcoin/blame/v26.0/src/wallet/spend.cpp#L1223-L1227</a></p>",
    "body_text": "Ref: https://github.com/bitcoin/bitcoin/blame/v26.0/src/wallet/spend.cpp#L1223-L1227",
    "body": "Ref: https://github.com/bitcoin/bitcoin/blame/v26.0/src/wallet/spend.cpp#L1223-L1227",
    "reactions": {
      "url": "https://api.github.com/repos/bitcoin/bitcoin/issues/comments/1931758957/reactions",
      "total_count": 0,
      "+1": 0,
      "-1": 0,
      "laugh": 0,
      "hooray": 0,
      "confused": 0,
      "heart": 0,
      "rocket": 0,
      "eyes": 0
    },
    "performed_via_github_app": null
  },
  {
    "url": "https://api.github.com/repos/bitcoin/bitcoin/issues/comments/1931938143",
    "html_url": "https://github.com/bitcoin/bitcoin/issues/29398#issuecomment-1931938143",
    "issue_url": "https://api.github.com/repos/bitcoin/bitcoin/issues/29398",
    "id": 1931938143,
    "node_id": "IC_kwDOABII585zJwlf",
    "user": {
      "login": "maflcko",
      "id": 6399679,
      "node_id": "MDQ6VXNlcjYzOTk2Nzk=",
      "avatar_url": "https://avatars.githubusercontent.com/u/6399679?v=4",
      "gravatar_id": "",
      "url": "https://api.github.com/users/maflcko",
      "html_url": "https://github.com/maflcko",
      "followers_url": "https://api.github.com/users/maflcko/followers",
      "following_url": "https://api.github.com/users/maflcko/following{/other_user}",
      "gists_url": "https://api.github.com/users/maflcko/gists{/gist_id}",
      "starred_url": "https://api.github.com/users/maflcko/starred{/owner}{/repo}",
      "subscriptions_url": "https://api.github.com/users/maflcko/subscriptions",
      "organizations_url": "https://api.github.com/users/maflcko/orgs",
      "repos_url": "https://api.github.com/users/maflcko/repos",
      "events_url": "https://api.github.com/users/maflcko/events{/privacy}",
      "received_events_url": "https://api.github.com/users/maflcko/received_events",
      "type": "User",
      "site_admin": false
    },
    "created_at": "2024-02-07T12:24:08Z",
    "updated_at": "2024-02-07T12:24:08Z",
    "author_association": "MEMBER",
    "body_html": "<p dir=\"auto\">I presume the following may be interesting for someone to debug this, if you don't mind to share:</p>\n<p dir=\"auto\">Which wallet settings are you using? (Feerate, etc)<br>\nWhich RPCs are you using?<br>\nWhich amounts and settings are you passing to the RPCs? SFFO?<br>\nHow many wallet coins do you have?<br>\nMaybe an exact list with amounts ?</p>",
    "body_text": "I presume the following may be interesting for someone to debug this, if you don't mind to share:\nWhich wallet settings are you using? (Feerate, etc)\nWhich RPCs are you using?\nWhich amounts and settings are you passing to the RPCs? SFFO?\nHow many wallet coins do you have?\nMaybe an exact list with amounts ?",
    "body": "I presume the following may be interesting for someone to debug this, if you don't mind to share:\r\n\r\nWhich wallet settings are you using? (Feerate, etc)\r\nWhich RPCs are you using?\r\nWhich amounts and settings are you passing to the RPCs? SFFO?\r\nHow many wallet coins do you have?\r\nMaybe an exact list with amounts ?",
    "reactions": {
      "url": "https://api.github.com/repos/bitcoin/bitcoin/issues/comments/1931938143/reactions",
      "total_count": 0,
      "+1": 0,
      "-1": 0,
      "laugh": 0,
      "hooray": 0,
      "confused": 0,
      "heart": 0,
      "rocket": 0,
      "eyes": 0
    },
    "performed_via_github_app": null
  },
  {
    "url": "https://api.github.com/repos/bitcoin/bitcoin/issues/comments/1931949888",
    "html_url": "https://github.com/bitcoin/bitcoin/issues/29398#issuecomment-1931949888",
    "issue_url": "https://api.github.com/repos/bitcoin/bitcoin/issues/29398",
    "id": 1931949888,
    "node_id": "IC_kwDOABII585zJzdA",
    "user": {
      "login": "azazar",
      "id": 2816075,
      "node_id": "MDQ6VXNlcjI4MTYwNzU=",
      "avatar_url": "https://avatars.githubusercontent.com/u/2816075?v=4",
      "gravatar_id": "",
      "url": "https://api.github.com/users/azazar",
      "html_url": "https://github.com/azazar",
      "followers_url": "https://api.github.com/users/azazar/followers",
      "following_url": "https://api.github.com/users/azazar/following{/other_user}",
      "gists_url": "https://api.github.com/users/azazar/gists{/gist_id}",
      "starred_url": "https://api.github.com/users/azazar/starred{/owner}{/repo}",
      "subscriptions_url": "https://api.github.com/users/azazar/subscriptions",
      "organizations_url": "https://api.github.com/users/azazar/orgs",
      "repos_url": "https://api.github.com/users/azazar/repos",
      "events_url": "https://api.github.com/users/azazar/events{/privacy}",
      "received_events_url": "https://api.github.com/users/azazar/received_events",
      "type": "User",
      "site_admin": false
    },
    "created_at": "2024-02-07T12:31:08Z",
    "updated_at": "2024-02-07T12:34:15Z",
    "author_association": "NONE",
    "body_html": "<p dir=\"auto\">bitcoind settings: -limitancestorcount=1000 -txindex=1 -testnet -server</p>\n<p dir=\"auto\">RPCs:</p>\n<ul dir=\"auto\">\n<li>sendmany('', $amounts, 0, '', [], true, 1)</li>\n<li>getbalance('*', 1)</li>\n<li>getbalance('*', 0)</li>\n</ul>\n<p dir=\"auto\">Amounts vary, but quite small always. You can examine some of the last transactions:</p>\n<p dir=\"auto\"><a href=\"https://live.blockcypher.com/btc-testnet/tx/980f2c14c3930d31485b94ae449177dfa8dadeeaba838d5a0a171e039d955dd2\" rel=\"nofollow\">https://live.blockcypher.com/btc-testnet/tx/980f2c14c3930d31485b94ae449177dfa8dadeeaba838d5a0a171e039d955dd2</a><br>\n<a href=\"https://live.blockcypher.com/btc-testnet/tx/298d311345c671b6cac8ca58d683789f736de106d69b67fb49cb261dc2b351c1\" rel=\"nofollow\">https://live.blockcypher.com/btc-testnet/tx/298d311345c671b6cac8ca58d683789f736de106d69b67fb49cb261dc2b351c1</a><br>\n<a href=\"https://live.blockcypher.com/btc-testnet/tx/0ec27c2a1f510ba458b3eb7b28aff68a977e1a2c93a262b2c37a8a4b471aa989\" rel=\"nofollow\">https://live.blockcypher.com/btc-testnet/tx/0ec27c2a1f510ba458b3eb7b28aff68a977e1a2c93a262b2c37a8a4b471aa989</a><br>\n<a href=\"https://live.blockcypher.com/btc-testnet/tx/0d6e3141c0bd2d84bed1ec3a460743f11582c691f8c6b7ee898a1e080d46a5f6\" rel=\"nofollow\">https://live.blockcypher.com/btc-testnet/tx/0d6e3141c0bd2d84bed1ec3a460743f11582c691f8c6b7ee898a1e080d46a5f6</a></p>\n<p dir=\"auto\">Current balance is just a little below 400.</p>\n<p dir=\"auto\">I don't log the exact amounts, so it's not available.</p>",
    "body_text": "bitcoind settings: -limitancestorcount=1000 -txindex=1 -testnet -server\nRPCs:\n\nsendmany('', $amounts, 0, '', [], true, 1)\ngetbalance('*', 1)\ngetbalance('*', 0)\n\nAmounts vary, but quite small always. You can examine some of the last transactions:\nhttps://live.blockcypher.com/btc-testnet/tx/980f2c14c3930d31485b94ae449177dfa8dadeeaba838d5a0a171e039d955dd2\nhttps://live.blockcypher.com/btc-testnet/tx/298d311345c671b6cac8ca58d683789f736de106d69b67fb49cb261dc2b351c1\nhttps://live.blockcypher.com/btc-testnet/tx/0ec27c2a1f510ba458b3eb7b28aff68a977e1a2c93a262b2c37a8a4b471aa989\nhttps://live.blockcypher.com/btc-testnet/tx/0d6e3141c0bd2d84bed1ec3a460743f11582c691f8c6b7ee898a1e080d46a5f6\nCurrent balance is just a little below 400.\nI don't log the exact amounts, so it's not available.",
    "body": "bitcoind settings: -limitancestorcount=1000 -txindex=1 -testnet -server\r\n\r\nRPCs:\r\n- sendmany('', $amounts, 0, '', [], true, 1)\r\n- getbalance('*', 1)\r\n- getbalance('*', 0)\r\n\r\nAmounts vary, but quite small always. You can examine some of the last transactions:\r\n\r\nhttps://live.blockcypher.com/btc-testnet/tx/980f2c14c3930d31485b94ae449177dfa8dadeeaba838d5a0a171e039d955dd2\r\nhttps://live.blockcypher.com/btc-testnet/tx/298d311345c671b6cac8ca58d683789f736de106d69b67fb49cb261dc2b351c1\r\nhttps://live.blockcypher.com/btc-testnet/tx/0ec27c2a1f510ba458b3eb7b28aff68a977e1a2c93a262b2c37a8a4b471aa989\r\nhttps://live.blockcypher.com/btc-testnet/tx/0d6e3141c0bd2d84bed1ec3a460743f11582c691f8c6b7ee898a1e080d46a5f6\r\n\r\nCurrent balance is just a little below 400.\r\n\r\nI don't log the exact amounts, so it's not available.",
    "reactions": {
      "url": "https://api.github.com/repos/bitcoin/bitcoin/issues/comments/1931949888/reactions",
      "total_count": 0,
      "+1": 0,
      "-1": 0,
      "laugh": 0,
      "hooray": 0,
      "confused": 0,
      "heart": 0,
      "rocket": 0,
      "eyes": 0
    },
    "performed_via_github_app": null
  },
  {
    "url": "https://api.github.com/repos/bitcoin/bitcoin/issues/comments/1937408907",
    "html_url": "https://github.com/bitcoin/bitcoin/issues/29398#issuecomment-1937408907",
    "issue_url": "https://api.github.com/repos/bitcoin/bitcoin/issues/29398",
    "id": 1937408907,
    "node_id": "IC_kwDOABII585zeoOL",
    "user": {
      "login": "epiccurious",
      "id": 109078515,
      "node_id": "U_kgDOBoBn8w",
      "avatar_url": "https://avatars.githubusercontent.com/u/109078515?v=4",
      "gravatar_id": "",
      "url": "https://api.github.com/users/epiccurious",
      "html_url": "https://github.com/epiccurious",
      "followers_url": "https://api.github.com/users/epiccurious/followers",
      "following_url": "https://api.github.com/users/epiccurious/following{/other_user}",
      "gists_url": "https://api.github.com/users/epiccurious/gists{/gist_id}",
      "starred_url": "https://api.github.com/users/epiccurious/starred{/owner}{/repo}",
      "subscriptions_url": "https://api.github.com/users/epiccurious/subscriptions",
      "organizations_url": "https://api.github.com/users/epiccurious/orgs",
      "repos_url": "https://api.github.com/users/epiccurious/repos",
      "events_url": "https://api.github.com/users/epiccurious/events{/privacy}",
      "received_events_url": "https://api.github.com/users/epiccurious/received_events",
      "type": "User",
      "site_admin": false
    },
    "created_at": "2024-02-11T03:27:21Z",
    "updated_at": "2024-02-11T03:27:21Z",
    "author_association": "NONE",
    "body_html": "<p dir=\"auto\">I'd like to reproduce your issue on my local environment.</p>\n<p dir=\"auto\">Can you please provide steps to reproduce this issue?</p>\n<p dir=\"auto\">Also, does this issue happen every time, or is it intermittent?</p>",
    "body_text": "I'd like to reproduce your issue on my local environment.\nCan you please provide steps to reproduce this issue?\nAlso, does this issue happen every time, or is it intermittent?",
    "body": "I'd like to reproduce your issue on my local environment.\n\nCan you please provide steps to reproduce this issue?\n\nAlso, does this issue happen every time, or is it intermittent?\n",
    "reactions": {
      "url": "https://api.github.com/repos/bitcoin/bitcoin/issues/comments/1937408907/reactions",
      "total_count": 0,
      "+1": 0,
      "-1": 0,
      "laugh": 0,
      "hooray": 0,
      "confused": 0,
      "heart": 0,
      "rocket": 0,
      "eyes": 0
    },
    "performed_via_github_app": null
  },
  {
    "url": "https://api.github.com/repos/bitcoin/bitcoin/issues/comments/1937653514",
    "html_url": "https://github.com/bitcoin/bitcoin/issues/29398#issuecomment-1937653514",
    "issue_url": "https://api.github.com/repos/bitcoin/bitcoin/issues/29398",
    "id": 1937653514,
    "node_id": "IC_kwDOABII585zfj8K",
    "user": {
      "login": "maflcko",
      "id": 6399679,
      "node_id": "MDQ6VXNlcjYzOTk2Nzk=",
      "avatar_url": "https://avatars.githubusercontent.com/u/6399679?v=4",
      "gravatar_id": "",
      "url": "https://api.github.com/users/maflcko",
      "html_url": "https://github.com/maflcko",
      "followers_url": "https://api.github.com/users/maflcko/followers",
      "following_url": "https://api.github.com/users/maflcko/following{/other_user}",
      "gists_url": "https://api.github.com/users/maflcko/gists{/gist_id}",
      "starred_url": "https://api.github.com/users/maflcko/starred{/owner}{/repo}",
      "subscriptions_url": "https://api.github.com/users/maflcko/subscriptions",
      "organizations_url": "https://api.github.com/users/maflcko/orgs",
      "repos_url": "https://api.github.com/users/maflcko/repos",
      "events_url": "https://api.github.com/users/maflcko/events{/privacy}",
      "received_events_url": "https://api.github.com/users/maflcko/received_events",
      "type": "User",
      "site_admin": false
    },
    "created_at": "2024-02-11T12:05:49Z",
    "updated_at": "2024-02-11T12:05:49Z",
    "author_association": "MEMBER",
    "body_html": "<p dir=\"auto\"><a class=\"user-mention notranslate\" data-hovercard-type=\"user\" data-hovercard-url=\"/users/epiccurious/hovercard\" data-octo-click=\"hovercard-link-click\" data-octo-dimensions=\"link_type:self\" href=\"https://github.com/epiccurious\">@epiccurious</a> The issue is intermittent, because \"Restarting node helped.\" (see the report)</p>",
    "body_text": "@epiccurious The issue is intermittent, because \"Restarting node helped.\" (see the report)",
    "body": "@epiccurious The issue is intermittent, because \"Restarting node helped.\" (see the report)",
    "reactions": {
      "url": "https://api.github.com/repos/bitcoin/bitcoin/issues/comments/1937653514/reactions",
      "total_count": 1,
      "+1": 1,
      "-1": 0,
      "laugh": 0,
      "hooray": 0,
      "confused": 0,
      "heart": 0,
      "rocket": 0,
      "eyes": 0
    },
    "performed_via_github_app": null
  },
  {
    "url": "https://api.github.com/repos/bitcoin/bitcoin/issues/comments/1972170009",
    "html_url": "https://github.com/bitcoin/bitcoin/issues/29398#issuecomment-1972170009",
    "issue_url": "https://api.github.com/repos/bitcoin/bitcoin/issues/29398",
    "id": 1972170009,
    "node_id": "IC_kwDOABII5851jO0Z",
    "user": {
      "login": "mahmoodfateh",
      "id": 161361783,
      "node_id": "U_kgDOCZ4vdw",
      "avatar_url": "https://avatars.githubusercontent.com/u/161361783?v=4",
      "gravatar_id": "",
      "url": "https://api.github.com/users/mahmoodfateh",
      "html_url": "https://github.com/mahmoodfateh",
      "followers_url": "https://api.github.com/users/mahmoodfateh/followers",
      "following_url": "https://api.github.com/users/mahmoodfateh/following{/other_user}",
      "gists_url": "https://api.github.com/users/mahmoodfateh/gists{/gist_id}",
      "starred_url": "https://api.github.com/users/mahmoodfateh/starred{/owner}{/repo}",
      "subscriptions_url": "https://api.github.com/users/mahmoodfateh/subscriptions",
      "organizations_url": "https://api.github.com/users/mahmoodfateh/orgs",
      "repos_url": "https://api.github.com/users/mahmoodfateh/repos",
      "events_url": "https://api.github.com/users/mahmoodfateh/events{/privacy}",
      "received_events_url": "https://api.github.com/users/mahmoodfateh/received_events",
      "type": "User",
      "site_admin": false
    },
    "created_at": "2024-02-29T23:55:43Z",
    "updated_at": "2024-02-29T23:55:43Z",
    "author_association": "NONE",
    "body_html": "<blockquote>\n<p dir=\"auto\">Ref: <a href=\"https://github.com/bitcoin/bitcoin/blame/v26.0/src/wallet/spend.cpp#L1223-L1227\">https://github.com/bitcoin/bitcoin/blame/v26.0/src/wallet/spend.cpp#L1223-L1227</a><br>\nNm</p>\n</blockquote>",
    "body_text": "Ref: https://github.com/bitcoin/bitcoin/blame/v26.0/src/wallet/spend.cpp#L1223-L1227\nNm",
    "body": "> Ref: https://github.com/bitcoin/bitcoin/blame/v26.0/src/wallet/spend.cpp#L1223-L1227\r\nNm",
    "reactions": {
      "url": "https://api.github.com/repos/bitcoin/bitcoin/issues/comments/1972170009/reactions",
      "total_count": 0,
      "+1": 0,
      "-1": 0,
      "laugh": 0,
      "hooray": 0,
      "confused": 0,
      "heart": 0,
      "rocket": 0,
      "eyes": 0
    },
    "performed_via_github_app": null
  }
]
