{
  "url": "https://api.github.com/repos/bitcoin/bitcoin/issues/11426",
  "repository_url": "https://api.github.com/repos/bitcoin/bitcoin",
  "labels_url": "https://api.github.com/repos/bitcoin/bitcoin/issues/11426/labels{/name}",
  "comments_url": "https://api.github.com/repos/bitcoin/bitcoin/issues/11426/comments",
  "events_url": "https://api.github.com/repos/bitcoin/bitcoin/issues/11426/events",
  "html_url": "https://github.com/bitcoin/bitcoin/pull/11426",
  "id": 261840360,
  "node_id": "MDExOlB1bGxSZXF1ZXN0MTQ0MDI2NTQw",
  "number": 11426,
  "title": "BIP90: Make buried deployments slightly more easily extensible",
  "user": {
    "login": "jtimon",
    "id": 1008458,
    "node_id": "MDQ6VXNlcjEwMDg0NTg=",
    "avatar_url": "https://avatars.githubusercontent.com/u/1008458?v=4",
    "gravatar_id": "",
    "url": "https://api.github.com/users/jtimon",
    "html_url": "https://github.com/jtimon",
    "followers_url": "https://api.github.com/users/jtimon/followers",
    "following_url": "https://api.github.com/users/jtimon/following{/other_user}",
    "gists_url": "https://api.github.com/users/jtimon/gists{/gist_id}",
    "starred_url": "https://api.github.com/users/jtimon/starred{/owner}{/repo}",
    "subscriptions_url": "https://api.github.com/users/jtimon/subscriptions",
    "organizations_url": "https://api.github.com/users/jtimon/orgs",
    "repos_url": "https://api.github.com/users/jtimon/repos",
    "events_url": "https://api.github.com/users/jtimon/events{/privacy}",
    "received_events_url": "https://api.github.com/users/jtimon/received_events",
    "type": "User",
    "site_admin": false
  },
  "labels": [
    {
      "id": 192202000,
      "node_id": "MDU6TGFiZWwxOTIyMDIwMDA=",
      "url": "https://api.github.com/repos/bitcoin/bitcoin/labels/Consensus",
      "name": "Consensus",
      "color": "009800",
      "default": false,
      "description": null
    }
  ],
  "state": "closed",
  "locked": true,
  "assignee": null,
  "assignees": [

  ],
  "milestone": null,
  "comments": 14,
  "created_at": "2017-09-30T12:17:38Z",
  "updated_at": "2021-09-08T11:52:27Z",
  "closed_at": "2018-03-29T04:53:38Z",
  "author_association": "CONTRIBUTOR",
  "active_lock_reason": "resolved",
  "draft": false,
  "pull_request": {
    "url": "https://api.github.com/repos/bitcoin/bitcoin/pulls/11426",
    "html_url": "https://github.com/bitcoin/bitcoin/pull/11426",
    "diff_url": "https://github.com/bitcoin/bitcoin/pull/11426.diff",
    "patch_url": "https://github.com/bitcoin/bitcoin/pull/11426.patch",
    "merged_at": null
  },
  "body_html": "<p dir=\"auto\">Also make it more similar to BIP9's implementation.</p>",
  "body_text": "Also make it more similar to BIP9's implementation.",
  "body": "Also make it more similar to BIP9's implementation.",
  "closed_by": {
    "login": "jtimon",
    "id": 1008458,
    "node_id": "MDQ6VXNlcjEwMDg0NTg=",
    "avatar_url": "https://avatars.githubusercontent.com/u/1008458?v=4",
    "gravatar_id": "",
    "url": "https://api.github.com/users/jtimon",
    "html_url": "https://github.com/jtimon",
    "followers_url": "https://api.github.com/users/jtimon/followers",
    "following_url": "https://api.github.com/users/jtimon/following{/other_user}",
    "gists_url": "https://api.github.com/users/jtimon/gists{/gist_id}",
    "starred_url": "https://api.github.com/users/jtimon/starred{/owner}{/repo}",
    "subscriptions_url": "https://api.github.com/users/jtimon/subscriptions",
    "organizations_url": "https://api.github.com/users/jtimon/orgs",
    "repos_url": "https://api.github.com/users/jtimon/repos",
    "events_url": "https://api.github.com/users/jtimon/events{/privacy}",
    "received_events_url": "https://api.github.com/users/jtimon/received_events",
    "type": "User",
    "site_admin": false
  },
  "reactions": {
    "url": "https://api.github.com/repos/bitcoin/bitcoin/issues/11426/reactions",
    "total_count": 0,
    "+1": 0,
    "-1": 0,
    "laugh": 0,
    "hooray": 0,
    "confused": 0,
    "heart": 0,
    "rocket": 0,
    "eyes": 0
  },
  "timeline_url": "https://api.github.com/repos/bitcoin/bitcoin/issues/11426/timeline",
  "performed_via_github_app": null,
  "state_reason": null
}
