[
  {
    "url": "https://api.github.com/repos/bitcoin/bitcoin/issues/comments/33468207",
    "html_url": "https://github.com/bitcoin/bitcoin/pull/3595#issuecomment-33468207",
    "issue_url": "https://api.github.com/repos/bitcoin/bitcoin/issues/3595",
    "id": 33468207,
    "node_id": "MDEyOklzc3VlQ29tbWVudDMzNDY4MjA3",
    "user": {
      "login": "laanwj",
      "id": 126646,
      "node_id": "MDQ6VXNlcjEyNjY0Ng==",
      "avatar_url": "https://avatars.githubusercontent.com/u/126646?v=4",
      "gravatar_id": "",
      "url": "https://api.github.com/users/laanwj",
      "html_url": "https://github.com/laanwj",
      "followers_url": "https://api.github.com/users/laanwj/followers",
      "following_url": "https://api.github.com/users/laanwj/following{/other_user}",
      "gists_url": "https://api.github.com/users/laanwj/gists{/gist_id}",
      "starred_url": "https://api.github.com/users/laanwj/starred{/owner}{/repo}",
      "subscriptions_url": "https://api.github.com/users/laanwj/subscriptions",
      "organizations_url": "https://api.github.com/users/laanwj/orgs",
      "repos_url": "https://api.github.com/users/laanwj/repos",
      "events_url": "https://api.github.com/users/laanwj/events{/privacy}",
      "received_events_url": "https://api.github.com/users/laanwj/received_events",
      "type": "User",
      "site_admin": false
    },
    "created_at": "2014-01-28T10:52:54Z",
    "updated_at": "2014-01-28T10:54:04Z",
    "author_association": "MEMBER",
    "body_html": "<p dir=\"auto\">This is not the right direction. You're combining network, wallet, blockchain database, verification constants all into one header file, where we plan to modularize stuff.</p>\n<p dir=\"auto\">I'm all for eliminating magic numbers, but please put the constants in their own localized header files (that already exist, no need to make a new one).</p>",
    "body_text": "This is not the right direction. You're combining network, wallet, blockchain database, verification constants all into one header file, where we plan to modularize stuff.\nI'm all for eliminating magic numbers, but please put the constants in their own localized header files (that already exist, no need to make a new one).",
    "body": "This is not the right direction. You're combining network, wallet, blockchain database, verification constants all into one header file, where we plan to modularize stuff.\n\nI'm all for eliminating magic numbers, but please put the constants in their own localized header files (that already exist, no need to make a new one).\n",
    "reactions": {
      "url": "https://api.github.com/repos/bitcoin/bitcoin/issues/comments/33468207/reactions",
      "total_count": 0,
      "+1": 0,
      "-1": 0,
      "laugh": 0,
      "hooray": 0,
      "confused": 0,
      "heart": 0,
      "rocket": 0,
      "eyes": 0
    },
    "performed_via_github_app": null
  },
  {
    "url": "https://api.github.com/repos/bitcoin/bitcoin/issues/comments/33468866",
    "html_url": "https://github.com/bitcoin/bitcoin/pull/3595#issuecomment-33468866",
    "issue_url": "https://api.github.com/repos/bitcoin/bitcoin/issues/3595",
    "id": 33468866,
    "node_id": "MDEyOklzc3VlQ29tbWVudDMzNDY4ODY2",
    "user": {
      "login": "BitcoinPullTester",
      "id": 2110907,
      "node_id": "MDQ6VXNlcjIxMTA5MDc=",
      "avatar_url": "https://avatars.githubusercontent.com/u/2110907?v=4",
      "gravatar_id": "",
      "url": "https://api.github.com/users/BitcoinPullTester",
      "html_url": "https://github.com/BitcoinPullTester",
      "followers_url": "https://api.github.com/users/BitcoinPullTester/followers",
      "following_url": "https://api.github.com/users/BitcoinPullTester/following{/other_user}",
      "gists_url": "https://api.github.com/users/BitcoinPullTester/gists{/gist_id}",
      "starred_url": "https://api.github.com/users/BitcoinPullTester/starred{/owner}{/repo}",
      "subscriptions_url": "https://api.github.com/users/BitcoinPullTester/subscriptions",
      "organizations_url": "https://api.github.com/users/BitcoinPullTester/orgs",
      "repos_url": "https://api.github.com/users/BitcoinPullTester/repos",
      "events_url": "https://api.github.com/users/BitcoinPullTester/events{/privacy}",
      "received_events_url": "https://api.github.com/users/BitcoinPullTester/received_events",
      "type": "User",
      "site_admin": false
    },
    "created_at": "2014-01-28T11:02:55Z",
    "updated_at": "2014-01-28T11:02:55Z",
    "author_association": "NONE",
    "body_html": "<p dir=\"auto\">Automatic sanity-testing: PASSED, see <a href=\"http://jenkins.bluematt.me/pull-tester/4c8212802c5900158d03c749667dc6adef48a618\" rel=\"nofollow\">http://jenkins.bluematt.me/pull-tester/4c8212802c5900158d03c749667dc6adef48a618</a> for binaries and test log.<br>\nThis test script verifies pulls every time they are updated. It, however, dies sometimes and fails to test properly.  If you are waiting on a test, please check timestamps to verify that the test.log is moving at <a href=\"http://jenkins.bluematt.me/pull-tester/current/\" rel=\"nofollow\">http://jenkins.bluematt.me/pull-tester/current/</a><br>\nContact BlueMatt on freenode if something looks broken.</p>",
    "body_text": "Automatic sanity-testing: PASSED, see http://jenkins.bluematt.me/pull-tester/4c8212802c5900158d03c749667dc6adef48a618 for binaries and test log.\nThis test script verifies pulls every time they are updated. It, however, dies sometimes and fails to test properly.  If you are waiting on a test, please check timestamps to verify that the test.log is moving at http://jenkins.bluematt.me/pull-tester/current/\nContact BlueMatt on freenode if something looks broken.",
    "body": "Automatic sanity-testing: PASSED, see http://jenkins.bluematt.me/pull-tester/4c8212802c5900158d03c749667dc6adef48a618 for binaries and test log.\nThis test script verifies pulls every time they are updated. It, however, dies sometimes and fails to test properly.  If you are waiting on a test, please check timestamps to verify that the test.log is moving at http://jenkins.bluematt.me/pull-tester/current/\nContact BlueMatt on freenode if something looks broken.\n",
    "reactions": {
      "url": "https://api.github.com/repos/bitcoin/bitcoin/issues/comments/33468866/reactions",
      "total_count": 0,
      "+1": 0,
      "-1": 0,
      "laugh": 0,
      "hooray": 0,
      "confused": 0,
      "heart": 0,
      "rocket": 0,
      "eyes": 0
    },
    "performed_via_github_app": null
  },
  {
    "url": "https://api.github.com/repos/bitcoin/bitcoin/issues/comments/33586460",
    "html_url": "https://github.com/bitcoin/bitcoin/pull/3595#issuecomment-33586460",
    "issue_url": "https://api.github.com/repos/bitcoin/bitcoin/issues/3595",
    "id": 33586460,
    "node_id": "MDEyOklzc3VlQ29tbWVudDMzNTg2NDYw",
    "user": {
      "login": "Diapolo",
      "id": 1419649,
      "node_id": "MDQ6VXNlcjE0MTk2NDk=",
      "avatar_url": "https://avatars.githubusercontent.com/u/1419649?v=4",
      "gravatar_id": "",
      "url": "https://api.github.com/users/Diapolo",
      "html_url": "https://github.com/Diapolo",
      "followers_url": "https://api.github.com/users/Diapolo/followers",
      "following_url": "https://api.github.com/users/Diapolo/following{/other_user}",
      "gists_url": "https://api.github.com/users/Diapolo/gists{/gist_id}",
      "starred_url": "https://api.github.com/users/Diapolo/starred{/owner}{/repo}",
      "subscriptions_url": "https://api.github.com/users/Diapolo/subscriptions",
      "organizations_url": "https://api.github.com/users/Diapolo/orgs",
      "repos_url": "https://api.github.com/users/Diapolo/repos",
      "events_url": "https://api.github.com/users/Diapolo/events{/privacy}",
      "received_events_url": "https://api.github.com/users/Diapolo/received_events",
      "type": "User",
      "site_admin": false
    },
    "created_at": "2014-01-29T14:03:27Z",
    "updated_at": "2014-01-29T14:03:27Z",
    "author_association": "NONE",
    "body_html": "<p dir=\"auto\"><a class=\"user-mention notranslate\" data-hovercard-type=\"user\" data-hovercard-url=\"/users/laanwj/hovercard\" data-octo-click=\"hovercard-link-click\" data-octo-dimensions=\"link_type:self\" href=\"https://github.com/laanwj\">@laanwj</a> Well, I for sure can put the constants in the corresponding header files, but then optionsmodel.cpp for example will include all these to access the constants, right?</p>",
    "body_text": "@laanwj Well, I for sure can put the constants in the corresponding header files, but then optionsmodel.cpp for example will include all these to access the constants, right?",
    "body": "@laanwj Well, I for sure can put the constants in the corresponding header files, but then optionsmodel.cpp for example will include all these to access the constants, right?\n",
    "reactions": {
      "url": "https://api.github.com/repos/bitcoin/bitcoin/issues/comments/33586460/reactions",
      "total_count": 0,
      "+1": 0,
      "-1": 0,
      "laugh": 0,
      "hooray": 0,
      "confused": 0,
      "heart": 0,
      "rocket": 0,
      "eyes": 0
    },
    "performed_via_github_app": null
  },
  {
    "url": "https://api.github.com/repos/bitcoin/bitcoin/issues/comments/33668975",
    "html_url": "https://github.com/bitcoin/bitcoin/pull/3595#issuecomment-33668975",
    "issue_url": "https://api.github.com/repos/bitcoin/bitcoin/issues/3595",
    "id": 33668975,
    "node_id": "MDEyOklzc3VlQ29tbWVudDMzNjY4OTc1",
    "user": {
      "login": "laanwj",
      "id": 126646,
      "node_id": "MDQ6VXNlcjEyNjY0Ng==",
      "avatar_url": "https://avatars.githubusercontent.com/u/126646?v=4",
      "gravatar_id": "",
      "url": "https://api.github.com/users/laanwj",
      "html_url": "https://github.com/laanwj",
      "followers_url": "https://api.github.com/users/laanwj/followers",
      "following_url": "https://api.github.com/users/laanwj/following{/other_user}",
      "gists_url": "https://api.github.com/users/laanwj/gists{/gist_id}",
      "starred_url": "https://api.github.com/users/laanwj/starred{/owner}{/repo}",
      "subscriptions_url": "https://api.github.com/users/laanwj/subscriptions",
      "organizations_url": "https://api.github.com/users/laanwj/orgs",
      "repos_url": "https://api.github.com/users/laanwj/repos",
      "events_url": "https://api.github.com/users/laanwj/events{/privacy}",
      "received_events_url": "https://api.github.com/users/laanwj/received_events",
      "type": "User",
      "site_admin": false
    },
    "created_at": "2014-01-30T08:40:09Z",
    "updated_at": "2014-01-30T08:40:09Z",
    "author_association": "MEMBER",
    "body_html": "<p dir=\"auto\">Of course</p>",
    "body_text": "Of course",
    "body": "Of course\n",
    "reactions": {
      "url": "https://api.github.com/repos/bitcoin/bitcoin/issues/comments/33668975/reactions",
      "total_count": 0,
      "+1": 0,
      "-1": 0,
      "laugh": 0,
      "hooray": 0,
      "confused": 0,
      "heart": 0,
      "rocket": 0,
      "eyes": 0
    },
    "performed_via_github_app": null
  },
  {
    "url": "https://api.github.com/repos/bitcoin/bitcoin/issues/comments/34575336",
    "html_url": "https://github.com/bitcoin/bitcoin/pull/3595#issuecomment-34575336",
    "issue_url": "https://api.github.com/repos/bitcoin/bitcoin/issues/3595",
    "id": 34575336,
    "node_id": "MDEyOklzc3VlQ29tbWVudDM0NTc1MzM2",
    "user": {
      "login": "laanwj",
      "id": 126646,
      "node_id": "MDQ6VXNlcjEyNjY0Ng==",
      "avatar_url": "https://avatars.githubusercontent.com/u/126646?v=4",
      "gravatar_id": "",
      "url": "https://api.github.com/users/laanwj",
      "html_url": "https://github.com/laanwj",
      "followers_url": "https://api.github.com/users/laanwj/followers",
      "following_url": "https://api.github.com/users/laanwj/following{/other_user}",
      "gists_url": "https://api.github.com/users/laanwj/gists{/gist_id}",
      "starred_url": "https://api.github.com/users/laanwj/starred{/owner}{/repo}",
      "subscriptions_url": "https://api.github.com/users/laanwj/subscriptions",
      "organizations_url": "https://api.github.com/users/laanwj/orgs",
      "repos_url": "https://api.github.com/users/laanwj/repos",
      "events_url": "https://api.github.com/users/laanwj/events{/privacy}",
      "received_events_url": "https://api.github.com/users/laanwj/received_events",
      "type": "User",
      "site_admin": false
    },
    "created_at": "2014-02-09T14:33:31Z",
    "updated_at": "2014-02-09T14:33:31Z",
    "author_association": "MEMBER",
    "body_html": "<p dir=\"auto\">Closing this for now as I don't like the idea of centralization into a single header. If you want to clean up magic values in some other way, please open a new pull.</p>",
    "body_text": "Closing this for now as I don't like the idea of centralization into a single header. If you want to clean up magic values in some other way, please open a new pull.",
    "body": "Closing this for now as I don't like the idea of centralization into a single header. If you want to clean up magic values in some other way, please open a new pull.\n",
    "reactions": {
      "url": "https://api.github.com/repos/bitcoin/bitcoin/issues/comments/34575336/reactions",
      "total_count": 0,
      "+1": 0,
      "-1": 0,
      "laugh": 0,
      "hooray": 0,
      "confused": 0,
      "heart": 0,
      "rocket": 0,
      "eyes": 0
    },
    "performed_via_github_app": null
  }
]
