{
  "url": "https://api.github.com/repos/bitcoin/bitcoin/issues/2977",
  "repository_url": "https://api.github.com/repos/bitcoin/bitcoin",
  "labels_url": "https://api.github.com/repos/bitcoin/bitcoin/issues/2977/labels{/name}",
  "comments_url": "https://api.github.com/repos/bitcoin/bitcoin/issues/2977/comments",
  "events_url": "https://api.github.com/repos/bitcoin/bitcoin/issues/2977/events",
  "html_url": "https://github.com/bitcoin/bitcoin/pull/2977",
  "id": 19038068,
  "node_id": "MDExOlB1bGxSZXF1ZXN0ODEwMjEwNQ==",
  "number": 2977,
  "title": "Add protobuf 2.5.0 download to gitian release process",
  "user": {
    "login": "laanwj",
    "id": 126646,
    "node_id": "MDQ6VXNlcjEyNjY0Ng==",
    "avatar_url": "https://avatars.githubusercontent.com/u/126646?v=4",
    "gravatar_id": "",
    "url": "https://api.github.com/users/laanwj",
    "html_url": "https://github.com/laanwj",
    "followers_url": "https://api.github.com/users/laanwj/followers",
    "following_url": "https://api.github.com/users/laanwj/following{/other_user}",
    "gists_url": "https://api.github.com/users/laanwj/gists{/gist_id}",
    "starred_url": "https://api.github.com/users/laanwj/starred{/owner}{/repo}",
    "subscriptions_url": "https://api.github.com/users/laanwj/subscriptions",
    "organizations_url": "https://api.github.com/users/laanwj/orgs",
    "repos_url": "https://api.github.com/users/laanwj/repos",
    "events_url": "https://api.github.com/users/laanwj/events{/privacy}",
    "received_events_url": "https://api.github.com/users/laanwj/received_events",
    "type": "User",
    "site_admin": false
  },
  "labels": [

  ],
  "state": "closed",
  "locked": true,
  "assignee": null,
  "assignees": [

  ],
  "milestone": null,
  "comments": 5,
  "created_at": "2013-09-05T11:23:40Z",
  "updated_at": "2021-09-08T10:24:44Z",
  "closed_at": "2013-09-09T00:31:04Z",
  "author_association": "MEMBER",
  "active_lock_reason": "resolved",
  "draft": false,
  "pull_request": {
    "url": "https://api.github.com/repos/bitcoin/bitcoin/pulls/2977",
    "html_url": "https://github.com/bitcoin/bitcoin/pull/2977",
    "diff_url": "https://github.com/bitcoin/bitcoin/pull/2977.diff",
    "patch_url": "https://github.com/bitcoin/bitcoin/pull/2977.patch",
    "merged_at": "2013-09-09T00:31:04Z"
  },
  "body_html": "<p dir=\"auto\">Add protobuf 2.5.0 download for inputs. Seems to be missing.</p>\n<p dir=\"auto\">Edit: also fixed Qt gitian build and updated process for that</p>",
  "body_text": "Add protobuf 2.5.0 download for inputs. Seems to be missing.\nEdit: also fixed Qt gitian build and updated process for that",
  "body": "Add protobuf 2.5.0 download for inputs. Seems to be missing.\n\nEdit: also fixed Qt gitian build and updated process for that\n",
  "closed_by": {
    "login": "gavinandresen",
    "id": 331997,
    "node_id": "MDQ6VXNlcjMzMTk5Nw==",
    "avatar_url": "https://avatars.githubusercontent.com/u/331997?v=4",
    "gravatar_id": "",
    "url": "https://api.github.com/users/gavinandresen",
    "html_url": "https://github.com/gavinandresen",
    "followers_url": "https://api.github.com/users/gavinandresen/followers",
    "following_url": "https://api.github.com/users/gavinandresen/following{/other_user}",
    "gists_url": "https://api.github.com/users/gavinandresen/gists{/gist_id}",
    "starred_url": "https://api.github.com/users/gavinandresen/starred{/owner}{/repo}",
    "subscriptions_url": "https://api.github.com/users/gavinandresen/subscriptions",
    "organizations_url": "https://api.github.com/users/gavinandresen/orgs",
    "repos_url": "https://api.github.com/users/gavinandresen/repos",
    "events_url": "https://api.github.com/users/gavinandresen/events{/privacy}",
    "received_events_url": "https://api.github.com/users/gavinandresen/received_events",
    "type": "User",
    "site_admin": false
  },
  "reactions": {
    "url": "https://api.github.com/repos/bitcoin/bitcoin/issues/2977/reactions",
    "total_count": 0,
    "+1": 0,
    "-1": 0,
    "laugh": 0,
    "hooray": 0,
    "confused": 0,
    "heart": 0,
    "rocket": 0,
    "eyes": 0
  },
  "timeline_url": "https://api.github.com/repos/bitcoin/bitcoin/issues/2977/timeline",
  "performed_via_github_app": null,
  "state_reason": null
}
