[
  {
    "url": "https://api.github.com/repos/bitcoin/bitcoin/issues/comments/908927933",
    "html_url": "https://github.com/bitcoin/bitcoin/pull/22840#issuecomment-908927933",
    "issue_url": "https://api.github.com/repos/bitcoin/bitcoin/issues/22840",
    "id": 908927933,
    "node_id": "IC_kwDOABII5842LSO9",
    "user": {
      "login": "fanquake",
      "id": 863730,
      "node_id": "MDQ6VXNlcjg2MzczMA==",
      "avatar_url": "https://avatars.githubusercontent.com/u/863730?v=4",
      "gravatar_id": "",
      "url": "https://api.github.com/users/fanquake",
      "html_url": "https://github.com/fanquake",
      "followers_url": "https://api.github.com/users/fanquake/followers",
      "following_url": "https://api.github.com/users/fanquake/following{/other_user}",
      "gists_url": "https://api.github.com/users/fanquake/gists{/gist_id}",
      "starred_url": "https://api.github.com/users/fanquake/starred{/owner}{/repo}",
      "subscriptions_url": "https://api.github.com/users/fanquake/subscriptions",
      "organizations_url": "https://api.github.com/users/fanquake/orgs",
      "repos_url": "https://api.github.com/users/fanquake/repos",
      "events_url": "https://api.github.com/users/fanquake/events{/privacy}",
      "received_events_url": "https://api.github.com/users/fanquake/received_events",
      "type": "User",
      "site_admin": false
    },
    "created_at": "2021-08-31T06:06:19Z",
    "updated_at": "2021-08-31T06:06:19Z",
    "author_association": "MEMBER",
    "body_html": "<p dir=\"auto\">Guix builds:</p>\n<div class=\"highlight highlight-source-shell notranslate position-relative overflow-auto\" dir=\"auto\" data-snippet-clipboard-copy-content=\"4e2d5ef3213127ffa65a18c96fa081ce6904acad338a1e65af3bd6923ca01717  guix-build-76f031b050a4/output/aarch64-linux-gnu/SHA256SUMS.part\n7a0c9a153b48004802b326f4c3dc4b756d20c3aa406312e4270edcd1bfd0b1c9  guix-build-76f031b050a4/output/aarch64-linux-gnu/bitcoin-76f031b050a4-aarch64-linux-gnu-debug.tar.gz\nbfc951c3428380cf04b80a2d922b60ae65f5b613cff58ca97849e430a3f10157  guix-build-76f031b050a4/output/aarch64-linux-gnu/bitcoin-76f031b050a4-aarch64-linux-gnu.tar.gz\nbbbc78b77567306e5e4c77c87282f87a83f00fa8564c850995b7c9dabbe1fbc2  guix-build-76f031b050a4/output/arm-linux-gnueabihf/SHA256SUMS.part\n1a46ab64e62d4930df6be17c7756dfeb0cc86a2a34396fa2c705606cf3fa85e6  guix-build-76f031b050a4/output/arm-linux-gnueabihf/bitcoin-76f031b050a4-arm-linux-gnueabihf-debug.tar.gz\n910a1e25524c552e25ad3a3ea4d4bfa900c9bdfca749cf45637d61aae9267dd4  guix-build-76f031b050a4/output/arm-linux-gnueabihf/bitcoin-76f031b050a4-arm-linux-gnueabihf.tar.gz\nb52343d96909560f3060d111d68ac0907e30d79925de8c685f96267fb6243848  guix-build-76f031b050a4/output/dist-archive/bitcoin-76f031b050a4.tar.gz\n7596dd80249c2d27e5e3bae115fe064f3fbcc81d0d25b71dbe11674ed9f68aa4  guix-build-76f031b050a4/output/powerpc64-linux-gnu/SHA256SUMS.part\nf62c4e5b06590c5e749c305ff2f1b3d287cf8adcea16a4f3a9183f5889543fe0  guix-build-76f031b050a4/output/powerpc64-linux-gnu/bitcoin-76f031b050a4-powerpc64-linux-gnu-debug.tar.gz\n879447958aeb5c25e474cc063aa843af1ca4970599659ea2ffeedf303f4f9c0b  guix-build-76f031b050a4/output/powerpc64-linux-gnu/bitcoin-76f031b050a4-powerpc64-linux-gnu.tar.gz\nb90d31cd9fe889cb71581a74b4c5de07b72ae114f9b7f329796bf50bd82648de  guix-build-76f031b050a4/output/powerpc64le-linux-gnu/SHA256SUMS.part\n882019d801776b128ee13e6f8fcbcb76473e0d931314aaf4be2f4d57fdbe686b  guix-build-76f031b050a4/output/powerpc64le-linux-gnu/bitcoin-76f031b050a4-powerpc64le-linux-gnu-debug.tar.gz\n581d38d938d79ba0e3781bf83b567c0f49c2ed4fa7fa89f8eecfec231e6d9b16  guix-build-76f031b050a4/output/powerpc64le-linux-gnu/bitcoin-76f031b050a4-powerpc64le-linux-gnu.tar.gz\n419291c599f7b4213c6fa9382b853e60cc2220d5414335ff92a516600fc45a06  guix-build-76f031b050a4/output/riscv64-linux-gnu/SHA256SUMS.part\n148e6947c7bee695b9c57987818897ca98d169b8a14779ca170301468a0abe4b  guix-build-76f031b050a4/output/riscv64-linux-gnu/bitcoin-76f031b050a4-riscv64-linux-gnu-debug.tar.gz\n04d50318bea6af3cc73d7af8ddd91ebc8335046ce237fd0f7b23937ccc1f2ec6  guix-build-76f031b050a4/output/riscv64-linux-gnu/bitcoin-76f031b050a4-riscv64-linux-gnu.tar.gz\nb75aa2133bf4c031474cbd716025a51416e6d2efe8bf8d8f5fed9a7c65918e43  guix-build-76f031b050a4/output/x86_64-apple-darwin18/SHA256SUMS.part\n7a09ff585858a350153b0998186e58feb7439edb0804e18f6e54fac9f220d43b  guix-build-76f031b050a4/output/x86_64-apple-darwin18/bitcoin-76f031b050a4-osx-unsigned.dmg\nd22259825baaa07674f8471132c4f79a8328d31a1c12ae07fb0ba0d272ea9648  guix-build-76f031b050a4/output/x86_64-apple-darwin18/bitcoin-76f031b050a4-osx-unsigned.tar.gz\n7121e7f426269f3a5807cf14e357eed970fbe9c39ebcfcf01f9fc89589f7cdba  guix-build-76f031b050a4/output/x86_64-apple-darwin18/bitcoin-76f031b050a4-osx64.tar.gz\n74d0673f95ac924c02e4f18694ee456c49cc3fec016a895f14b87d3ecd792951  guix-build-76f031b050a4/output/x86_64-linux-gnu/SHA256SUMS.part\ne1d020b0db00815dba278be0b3bd52d99202c8ad54437380c71121e9a4c772a8  guix-build-76f031b050a4/output/x86_64-linux-gnu/bitcoin-76f031b050a4-x86_64-linux-gnu-debug.tar.gz\n78f81196c3dfd5ea030abe505daa02e84f660c159b7d701c2606474f4725e046  guix-build-76f031b050a4/output/x86_64-linux-gnu/bitcoin-76f031b050a4-x86_64-linux-gnu.tar.gz\n2fc42b5dc3aafe68980123c1f74958120ae9f2988aae11e5586c871a02d12498  guix-build-76f031b050a4/output/x86_64-w64-mingw32/SHA256SUMS.part\nea1207c00963937eab4f85495c3a16cf648f2da0df659791cf181ed688bee344  guix-build-76f031b050a4/output/x86_64-w64-mingw32/bitcoin-76f031b050a4-win-unsigned.tar.gz\nfa31a979e4bc2a9c17ce03c1971f491ec8704ffb8e71a4757b80ce704ef33fe1  guix-build-76f031b050a4/output/x86_64-w64-mingw32/bitcoin-76f031b050a4-win64-debug.zip\nf4b205e54894baba976a89b5fe6264f238ee532fbcda41daac06887a85cc2c0d  guix-build-76f031b050a4/output/x86_64-w64-mingw32/bitcoin-76f031b050a4-win64-setup-unsigned.exe\n30e7bdac48084b696ab6fabd5c5212b3fde2ce0c71983d4983e44da252b0508a  guix-build-76f031b050a4/output/x86_64-w64-mingw32/bitcoin-76f031b050a4-win64.zip\"><pre class=\"notranslate\">4e2d5ef3213127ffa65a18c96fa081ce6904acad338a1e65af3bd6923ca01717  guix-build-76f031b050a4/output/aarch64-linux-gnu/SHA256SUMS.part\n7a0c9a153b48004802b326f4c3dc4b756d20c3aa406312e4270edcd1bfd0b1c9  guix-build-76f031b050a4/output/aarch64-linux-gnu/bitcoin-76f031b050a4-aarch64-linux-gnu-debug.tar.gz\nbfc951c3428380cf04b80a2d922b60ae65f5b613cff58ca97849e430a3f10157  guix-build-76f031b050a4/output/aarch64-linux-gnu/bitcoin-76f031b050a4-aarch64-linux-gnu.tar.gz\nbbbc78b77567306e5e4c77c87282f87a83f00fa8564c850995b7c9dabbe1fbc2  guix-build-76f031b050a4/output/arm-linux-gnueabihf/SHA256SUMS.part\n1a46ab64e62d4930df6be17c7756dfeb0cc86a2a34396fa2c705606cf3fa85e6  guix-build-76f031b050a4/output/arm-linux-gnueabihf/bitcoin-76f031b050a4-arm-linux-gnueabihf-debug.tar.gz\n910a1e25524c552e25ad3a3ea4d4bfa900c9bdfca749cf45637d61aae9267dd4  guix-build-76f031b050a4/output/arm-linux-gnueabihf/bitcoin-76f031b050a4-arm-linux-gnueabihf.tar.gz\nb52343d96909560f3060d111d68ac0907e30d79925de8c685f96267fb6243848  guix-build-76f031b050a4/output/dist-archive/bitcoin-76f031b050a4.tar.gz\n7596dd80249c2d27e5e3bae115fe064f3fbcc81d0d25b71dbe11674ed9f68aa4  guix-build-76f031b050a4/output/powerpc64-linux-gnu/SHA256SUMS.part\nf62c4e5b06590c5e749c305ff2f1b3d287cf8adcea16a4f3a9183f5889543fe0  guix-build-76f031b050a4/output/powerpc64-linux-gnu/bitcoin-76f031b050a4-powerpc64-linux-gnu-debug.tar.gz\n879447958aeb5c25e474cc063aa843af1ca4970599659ea2ffeedf303f4f9c0b  guix-build-76f031b050a4/output/powerpc64-linux-gnu/bitcoin-76f031b050a4-powerpc64-linux-gnu.tar.gz\nb90d31cd9fe889cb71581a74b4c5de07b72ae114f9b7f329796bf50bd82648de  guix-build-76f031b050a4/output/powerpc64le-linux-gnu/SHA256SUMS.part\n882019d801776b128ee13e6f8fcbcb76473e0d931314aaf4be2f4d57fdbe686b  guix-build-76f031b050a4/output/powerpc64le-linux-gnu/bitcoin-76f031b050a4-powerpc64le-linux-gnu-debug.tar.gz\n581d38d938d79ba0e3781bf83b567c0f49c2ed4fa7fa89f8eecfec231e6d9b16  guix-build-76f031b050a4/output/powerpc64le-linux-gnu/bitcoin-76f031b050a4-powerpc64le-linux-gnu.tar.gz\n419291c599f7b4213c6fa9382b853e60cc2220d5414335ff92a516600fc45a06  guix-build-76f031b050a4/output/riscv64-linux-gnu/SHA256SUMS.part\n148e6947c7bee695b9c57987818897ca98d169b8a14779ca170301468a0abe4b  guix-build-76f031b050a4/output/riscv64-linux-gnu/bitcoin-76f031b050a4-riscv64-linux-gnu-debug.tar.gz\n04d50318bea6af3cc73d7af8ddd91ebc8335046ce237fd0f7b23937ccc1f2ec6  guix-build-76f031b050a4/output/riscv64-linux-gnu/bitcoin-76f031b050a4-riscv64-linux-gnu.tar.gz\nb75aa2133bf4c031474cbd716025a51416e6d2efe8bf8d8f5fed9a7c65918e43  guix-build-76f031b050a4/output/x86_64-apple-darwin18/SHA256SUMS.part\n7a09ff585858a350153b0998186e58feb7439edb0804e18f6e54fac9f220d43b  guix-build-76f031b050a4/output/x86_64-apple-darwin18/bitcoin-76f031b050a4-osx-unsigned.dmg\nd22259825baaa07674f8471132c4f79a8328d31a1c12ae07fb0ba0d272ea9648  guix-build-76f031b050a4/output/x86_64-apple-darwin18/bitcoin-76f031b050a4-osx-unsigned.tar.gz\n7121e7f426269f3a5807cf14e357eed970fbe9c39ebcfcf01f9fc89589f7cdba  guix-build-76f031b050a4/output/x86_64-apple-darwin18/bitcoin-76f031b050a4-osx64.tar.gz\n74d0673f95ac924c02e4f18694ee456c49cc3fec016a895f14b87d3ecd792951  guix-build-76f031b050a4/output/x86_64-linux-gnu/SHA256SUMS.part\ne1d020b0db00815dba278be0b3bd52d99202c8ad54437380c71121e9a4c772a8  guix-build-76f031b050a4/output/x86_64-linux-gnu/bitcoin-76f031b050a4-x86_64-linux-gnu-debug.tar.gz\n78f81196c3dfd5ea030abe505daa02e84f660c159b7d701c2606474f4725e046  guix-build-76f031b050a4/output/x86_64-linux-gnu/bitcoin-76f031b050a4-x86_64-linux-gnu.tar.gz\n2fc42b5dc3aafe68980123c1f74958120ae9f2988aae11e5586c871a02d12498  guix-build-76f031b050a4/output/x86_64-w64-mingw32/SHA256SUMS.part\nea1207c00963937eab4f85495c3a16cf648f2da0df659791cf181ed688bee344  guix-build-76f031b050a4/output/x86_64-w64-mingw32/bitcoin-76f031b050a4-win-unsigned.tar.gz\nfa31a979e4bc2a9c17ce03c1971f491ec8704ffb8e71a4757b80ce704ef33fe1  guix-build-76f031b050a4/output/x86_64-w64-mingw32/bitcoin-76f031b050a4-win64-debug.zip\nf4b205e54894baba976a89b5fe6264f238ee532fbcda41daac06887a85cc2c0d  guix-build-76f031b050a4/output/x86_64-w64-mingw32/bitcoin-76f031b050a4-win64-setup-unsigned.exe\n30e7bdac48084b696ab6fabd5c5212b3fde2ce0c71983d4983e44da252b0508a  guix-build-76f031b050a4/output/x86_64-w64-mingw32/bitcoin-76f031b050a4-win64.zip</pre></div>",
    "body_text": "Guix builds:\n4e2d5ef3213127ffa65a18c96fa081ce6904acad338a1e65af3bd6923ca01717  guix-build-76f031b050a4/output/aarch64-linux-gnu/SHA256SUMS.part\n7a0c9a153b48004802b326f4c3dc4b756d20c3aa406312e4270edcd1bfd0b1c9  guix-build-76f031b050a4/output/aarch64-linux-gnu/bitcoin-76f031b050a4-aarch64-linux-gnu-debug.tar.gz\nbfc951c3428380cf04b80a2d922b60ae65f5b613cff58ca97849e430a3f10157  guix-build-76f031b050a4/output/aarch64-linux-gnu/bitcoin-76f031b050a4-aarch64-linux-gnu.tar.gz\nbbbc78b77567306e5e4c77c87282f87a83f00fa8564c850995b7c9dabbe1fbc2  guix-build-76f031b050a4/output/arm-linux-gnueabihf/SHA256SUMS.part\n1a46ab64e62d4930df6be17c7756dfeb0cc86a2a34396fa2c705606cf3fa85e6  guix-build-76f031b050a4/output/arm-linux-gnueabihf/bitcoin-76f031b050a4-arm-linux-gnueabihf-debug.tar.gz\n910a1e25524c552e25ad3a3ea4d4bfa900c9bdfca749cf45637d61aae9267dd4  guix-build-76f031b050a4/output/arm-linux-gnueabihf/bitcoin-76f031b050a4-arm-linux-gnueabihf.tar.gz\nb52343d96909560f3060d111d68ac0907e30d79925de8c685f96267fb6243848  guix-build-76f031b050a4/output/dist-archive/bitcoin-76f031b050a4.tar.gz\n7596dd80249c2d27e5e3bae115fe064f3fbcc81d0d25b71dbe11674ed9f68aa4  guix-build-76f031b050a4/output/powerpc64-linux-gnu/SHA256SUMS.part\nf62c4e5b06590c5e749c305ff2f1b3d287cf8adcea16a4f3a9183f5889543fe0  guix-build-76f031b050a4/output/powerpc64-linux-gnu/bitcoin-76f031b050a4-powerpc64-linux-gnu-debug.tar.gz\n879447958aeb5c25e474cc063aa843af1ca4970599659ea2ffeedf303f4f9c0b  guix-build-76f031b050a4/output/powerpc64-linux-gnu/bitcoin-76f031b050a4-powerpc64-linux-gnu.tar.gz\nb90d31cd9fe889cb71581a74b4c5de07b72ae114f9b7f329796bf50bd82648de  guix-build-76f031b050a4/output/powerpc64le-linux-gnu/SHA256SUMS.part\n882019d801776b128ee13e6f8fcbcb76473e0d931314aaf4be2f4d57fdbe686b  guix-build-76f031b050a4/output/powerpc64le-linux-gnu/bitcoin-76f031b050a4-powerpc64le-linux-gnu-debug.tar.gz\n581d38d938d79ba0e3781bf83b567c0f49c2ed4fa7fa89f8eecfec231e6d9b16  guix-build-76f031b050a4/output/powerpc64le-linux-gnu/bitcoin-76f031b050a4-powerpc64le-linux-gnu.tar.gz\n419291c599f7b4213c6fa9382b853e60cc2220d5414335ff92a516600fc45a06  guix-build-76f031b050a4/output/riscv64-linux-gnu/SHA256SUMS.part\n148e6947c7bee695b9c57987818897ca98d169b8a14779ca170301468a0abe4b  guix-build-76f031b050a4/output/riscv64-linux-gnu/bitcoin-76f031b050a4-riscv64-linux-gnu-debug.tar.gz\n04d50318bea6af3cc73d7af8ddd91ebc8335046ce237fd0f7b23937ccc1f2ec6  guix-build-76f031b050a4/output/riscv64-linux-gnu/bitcoin-76f031b050a4-riscv64-linux-gnu.tar.gz\nb75aa2133bf4c031474cbd716025a51416e6d2efe8bf8d8f5fed9a7c65918e43  guix-build-76f031b050a4/output/x86_64-apple-darwin18/SHA256SUMS.part\n7a09ff585858a350153b0998186e58feb7439edb0804e18f6e54fac9f220d43b  guix-build-76f031b050a4/output/x86_64-apple-darwin18/bitcoin-76f031b050a4-osx-unsigned.dmg\nd22259825baaa07674f8471132c4f79a8328d31a1c12ae07fb0ba0d272ea9648  guix-build-76f031b050a4/output/x86_64-apple-darwin18/bitcoin-76f031b050a4-osx-unsigned.tar.gz\n7121e7f426269f3a5807cf14e357eed970fbe9c39ebcfcf01f9fc89589f7cdba  guix-build-76f031b050a4/output/x86_64-apple-darwin18/bitcoin-76f031b050a4-osx64.tar.gz\n74d0673f95ac924c02e4f18694ee456c49cc3fec016a895f14b87d3ecd792951  guix-build-76f031b050a4/output/x86_64-linux-gnu/SHA256SUMS.part\ne1d020b0db00815dba278be0b3bd52d99202c8ad54437380c71121e9a4c772a8  guix-build-76f031b050a4/output/x86_64-linux-gnu/bitcoin-76f031b050a4-x86_64-linux-gnu-debug.tar.gz\n78f81196c3dfd5ea030abe505daa02e84f660c159b7d701c2606474f4725e046  guix-build-76f031b050a4/output/x86_64-linux-gnu/bitcoin-76f031b050a4-x86_64-linux-gnu.tar.gz\n2fc42b5dc3aafe68980123c1f74958120ae9f2988aae11e5586c871a02d12498  guix-build-76f031b050a4/output/x86_64-w64-mingw32/SHA256SUMS.part\nea1207c00963937eab4f85495c3a16cf648f2da0df659791cf181ed688bee344  guix-build-76f031b050a4/output/x86_64-w64-mingw32/bitcoin-76f031b050a4-win-unsigned.tar.gz\nfa31a979e4bc2a9c17ce03c1971f491ec8704ffb8e71a4757b80ce704ef33fe1  guix-build-76f031b050a4/output/x86_64-w64-mingw32/bitcoin-76f031b050a4-win64-debug.zip\nf4b205e54894baba976a89b5fe6264f238ee532fbcda41daac06887a85cc2c0d  guix-build-76f031b050a4/output/x86_64-w64-mingw32/bitcoin-76f031b050a4-win64-setup-unsigned.exe\n30e7bdac48084b696ab6fabd5c5212b3fde2ce0c71983d4983e44da252b0508a  guix-build-76f031b050a4/output/x86_64-w64-mingw32/bitcoin-76f031b050a4-win64.zip",
    "body": "Guix builds:\r\n```bash\r\n4e2d5ef3213127ffa65a18c96fa081ce6904acad338a1e65af3bd6923ca01717  guix-build-76f031b050a4/output/aarch64-linux-gnu/SHA256SUMS.part\r\n7a0c9a153b48004802b326f4c3dc4b756d20c3aa406312e4270edcd1bfd0b1c9  guix-build-76f031b050a4/output/aarch64-linux-gnu/bitcoin-76f031b050a4-aarch64-linux-gnu-debug.tar.gz\r\nbfc951c3428380cf04b80a2d922b60ae65f5b613cff58ca97849e430a3f10157  guix-build-76f031b050a4/output/aarch64-linux-gnu/bitcoin-76f031b050a4-aarch64-linux-gnu.tar.gz\r\nbbbc78b77567306e5e4c77c87282f87a83f00fa8564c850995b7c9dabbe1fbc2  guix-build-76f031b050a4/output/arm-linux-gnueabihf/SHA256SUMS.part\r\n1a46ab64e62d4930df6be17c7756dfeb0cc86a2a34396fa2c705606cf3fa85e6  guix-build-76f031b050a4/output/arm-linux-gnueabihf/bitcoin-76f031b050a4-arm-linux-gnueabihf-debug.tar.gz\r\n910a1e25524c552e25ad3a3ea4d4bfa900c9bdfca749cf45637d61aae9267dd4  guix-build-76f031b050a4/output/arm-linux-gnueabihf/bitcoin-76f031b050a4-arm-linux-gnueabihf.tar.gz\r\nb52343d96909560f3060d111d68ac0907e30d79925de8c685f96267fb6243848  guix-build-76f031b050a4/output/dist-archive/bitcoin-76f031b050a4.tar.gz\r\n7596dd80249c2d27e5e3bae115fe064f3fbcc81d0d25b71dbe11674ed9f68aa4  guix-build-76f031b050a4/output/powerpc64-linux-gnu/SHA256SUMS.part\r\nf62c4e5b06590c5e749c305ff2f1b3d287cf8adcea16a4f3a9183f5889543fe0  guix-build-76f031b050a4/output/powerpc64-linux-gnu/bitcoin-76f031b050a4-powerpc64-linux-gnu-debug.tar.gz\r\n879447958aeb5c25e474cc063aa843af1ca4970599659ea2ffeedf303f4f9c0b  guix-build-76f031b050a4/output/powerpc64-linux-gnu/bitcoin-76f031b050a4-powerpc64-linux-gnu.tar.gz\r\nb90d31cd9fe889cb71581a74b4c5de07b72ae114f9b7f329796bf50bd82648de  guix-build-76f031b050a4/output/powerpc64le-linux-gnu/SHA256SUMS.part\r\n882019d801776b128ee13e6f8fcbcb76473e0d931314aaf4be2f4d57fdbe686b  guix-build-76f031b050a4/output/powerpc64le-linux-gnu/bitcoin-76f031b050a4-powerpc64le-linux-gnu-debug.tar.gz\r\n581d38d938d79ba0e3781bf83b567c0f49c2ed4fa7fa89f8eecfec231e6d9b16  guix-build-76f031b050a4/output/powerpc64le-linux-gnu/bitcoin-76f031b050a4-powerpc64le-linux-gnu.tar.gz\r\n419291c599f7b4213c6fa9382b853e60cc2220d5414335ff92a516600fc45a06  guix-build-76f031b050a4/output/riscv64-linux-gnu/SHA256SUMS.part\r\n148e6947c7bee695b9c57987818897ca98d169b8a14779ca170301468a0abe4b  guix-build-76f031b050a4/output/riscv64-linux-gnu/bitcoin-76f031b050a4-riscv64-linux-gnu-debug.tar.gz\r\n04d50318bea6af3cc73d7af8ddd91ebc8335046ce237fd0f7b23937ccc1f2ec6  guix-build-76f031b050a4/output/riscv64-linux-gnu/bitcoin-76f031b050a4-riscv64-linux-gnu.tar.gz\r\nb75aa2133bf4c031474cbd716025a51416e6d2efe8bf8d8f5fed9a7c65918e43  guix-build-76f031b050a4/output/x86_64-apple-darwin18/SHA256SUMS.part\r\n7a09ff585858a350153b0998186e58feb7439edb0804e18f6e54fac9f220d43b  guix-build-76f031b050a4/output/x86_64-apple-darwin18/bitcoin-76f031b050a4-osx-unsigned.dmg\r\nd22259825baaa07674f8471132c4f79a8328d31a1c12ae07fb0ba0d272ea9648  guix-build-76f031b050a4/output/x86_64-apple-darwin18/bitcoin-76f031b050a4-osx-unsigned.tar.gz\r\n7121e7f426269f3a5807cf14e357eed970fbe9c39ebcfcf01f9fc89589f7cdba  guix-build-76f031b050a4/output/x86_64-apple-darwin18/bitcoin-76f031b050a4-osx64.tar.gz\r\n74d0673f95ac924c02e4f18694ee456c49cc3fec016a895f14b87d3ecd792951  guix-build-76f031b050a4/output/x86_64-linux-gnu/SHA256SUMS.part\r\ne1d020b0db00815dba278be0b3bd52d99202c8ad54437380c71121e9a4c772a8  guix-build-76f031b050a4/output/x86_64-linux-gnu/bitcoin-76f031b050a4-x86_64-linux-gnu-debug.tar.gz\r\n78f81196c3dfd5ea030abe505daa02e84f660c159b7d701c2606474f4725e046  guix-build-76f031b050a4/output/x86_64-linux-gnu/bitcoin-76f031b050a4-x86_64-linux-gnu.tar.gz\r\n2fc42b5dc3aafe68980123c1f74958120ae9f2988aae11e5586c871a02d12498  guix-build-76f031b050a4/output/x86_64-w64-mingw32/SHA256SUMS.part\r\nea1207c00963937eab4f85495c3a16cf648f2da0df659791cf181ed688bee344  guix-build-76f031b050a4/output/x86_64-w64-mingw32/bitcoin-76f031b050a4-win-unsigned.tar.gz\r\nfa31a979e4bc2a9c17ce03c1971f491ec8704ffb8e71a4757b80ce704ef33fe1  guix-build-76f031b050a4/output/x86_64-w64-mingw32/bitcoin-76f031b050a4-win64-debug.zip\r\nf4b205e54894baba976a89b5fe6264f238ee532fbcda41daac06887a85cc2c0d  guix-build-76f031b050a4/output/x86_64-w64-mingw32/bitcoin-76f031b050a4-win64-setup-unsigned.exe\r\n30e7bdac48084b696ab6fabd5c5212b3fde2ce0c71983d4983e44da252b0508a  guix-build-76f031b050a4/output/x86_64-w64-mingw32/bitcoin-76f031b050a4-win64.zip\r\n```",
    "reactions": {
      "url": "https://api.github.com/repos/bitcoin/bitcoin/issues/comments/908927933/reactions",
      "total_count": 0,
      "+1": 0,
      "-1": 0,
      "laugh": 0,
      "hooray": 0,
      "confused": 0,
      "heart": 0,
      "rocket": 0,
      "eyes": 0
    },
    "performed_via_github_app": null
  },
  {
    "url": "https://api.github.com/repos/bitcoin/bitcoin/issues/comments/908931881",
    "html_url": "https://github.com/bitcoin/bitcoin/pull/22840#issuecomment-908931881",
    "issue_url": "https://api.github.com/repos/bitcoin/bitcoin/issues/22840",
    "id": 908931881,
    "node_id": "IC_kwDOABII5842LTMp",
    "user": {
      "login": "laanwj",
      "id": 126646,
      "node_id": "MDQ6VXNlcjEyNjY0Ng==",
      "avatar_url": "https://avatars.githubusercontent.com/u/126646?v=4",
      "gravatar_id": "",
      "url": "https://api.github.com/users/laanwj",
      "html_url": "https://github.com/laanwj",
      "followers_url": "https://api.github.com/users/laanwj/followers",
      "following_url": "https://api.github.com/users/laanwj/following{/other_user}",
      "gists_url": "https://api.github.com/users/laanwj/gists{/gist_id}",
      "starred_url": "https://api.github.com/users/laanwj/starred{/owner}{/repo}",
      "subscriptions_url": "https://api.github.com/users/laanwj/subscriptions",
      "organizations_url": "https://api.github.com/users/laanwj/orgs",
      "repos_url": "https://api.github.com/users/laanwj/repos",
      "events_url": "https://api.github.com/users/laanwj/events{/privacy}",
      "received_events_url": "https://api.github.com/users/laanwj/received_events",
      "type": "User",
      "site_admin": false
    },
    "created_at": "2021-08-31T06:13:47Z",
    "updated_at": "2021-08-31T06:14:46Z",
    "author_association": "MEMBER",
    "body_html": "<p dir=\"auto\">Good catch!</p>\n<p dir=\"auto\">Any idea if Qt is affected? I guess not, as it has its own build system like boost. But it would have the most performance consequences of all our dependencies.</p>",
    "body_text": "Good catch!\nAny idea if Qt is affected? I guess not, as it has its own build system like boost. But it would have the most performance consequences of all our dependencies.",
    "body": "Good catch!\r\n\r\nAny idea if Qt is affected? I guess not, as it has its own build system like boost. But it would have the most performance consequences of all our dependencies.",
    "reactions": {
      "url": "https://api.github.com/repos/bitcoin/bitcoin/issues/comments/908931881/reactions",
      "total_count": 0,
      "+1": 0,
      "-1": 0,
      "laugh": 0,
      "hooray": 0,
      "confused": 0,
      "heart": 0,
      "rocket": 0,
      "eyes": 0
    },
    "performed_via_github_app": null
  },
  {
    "url": "https://api.github.com/repos/bitcoin/bitcoin/issues/comments/909071211",
    "html_url": "https://github.com/bitcoin/bitcoin/pull/22840#issuecomment-909071211",
    "issue_url": "https://api.github.com/repos/bitcoin/bitcoin/issues/22840",
    "id": 909071211,
    "node_id": "IC_kwDOABII5842L1Nr",
    "user": {
      "login": "DrahtBot",
      "id": 39886733,
      "node_id": "MDQ6VXNlcjM5ODg2NzMz",
      "avatar_url": "https://avatars.githubusercontent.com/u/39886733?v=4",
      "gravatar_id": "",
      "url": "https://api.github.com/users/DrahtBot",
      "html_url": "https://github.com/DrahtBot",
      "followers_url": "https://api.github.com/users/DrahtBot/followers",
      "following_url": "https://api.github.com/users/DrahtBot/following{/other_user}",
      "gists_url": "https://api.github.com/users/DrahtBot/gists{/gist_id}",
      "starred_url": "https://api.github.com/users/DrahtBot/starred{/owner}{/repo}",
      "subscriptions_url": "https://api.github.com/users/DrahtBot/subscriptions",
      "organizations_url": "https://api.github.com/users/DrahtBot/orgs",
      "repos_url": "https://api.github.com/users/DrahtBot/repos",
      "events_url": "https://api.github.com/users/DrahtBot/events{/privacy}",
      "received_events_url": "https://api.github.com/users/DrahtBot/received_events",
      "type": "User",
      "site_admin": false
    },
    "created_at": "2021-08-31T09:37:47Z",
    "updated_at": "2021-08-31T09:37:47Z",
    "author_association": "CONTRIBUTOR",
    "body_html": "\n<p dir=\"auto\">The following sections might be updated with supplementary metadata relevant to reviewers and maintainers.</p>\n\n<h3 dir=\"auto\">Conflicts</h3>\n<p dir=\"auto\">Reviewers, this pull request conflicts with the following ones:</p>\n<ul dir=\"auto\">\n<li><a href=\"https://github.com/bitcoin/bitcoin/pull/22555\" data-hovercard-type=\"pull_request\" data-hovercard-url=\"/bitcoin/bitcoin/pull/22555/hovercard\">#22555</a> (build: Fix <code class=\"notranslate\">make apk</code> for Android w/ non-default SOURCES_PATH in depends by hebasto)</li>\n<li><a href=\"https://github.com/bitcoin/bitcoin/pull/22552\" data-hovercard-type=\"pull_request\" data-hovercard-url=\"/bitcoin/bitcoin/pull/22552/hovercard\">#22552</a> (build: Improve depends build system robustness by hebasto)</li>\n<li><a href=\"https://github.com/bitcoin/bitcoin/pull/20744\" data-hovercard-type=\"pull_request\" data-hovercard-url=\"/bitcoin/bitcoin/pull/20744/hovercard\">#20744</a> (Use std::filesystem. Remove Boost Filesystem &amp; System by fanquake)</li>\n</ul>\n<p dir=\"auto\">If you consider this pull request important, please also help to review the conflicting pull requests. Ideally, start with the one that should be merged first.</p>",
    "body_text": "The following sections might be updated with supplementary metadata relevant to reviewers and maintainers.\n\nConflicts\nReviewers, this pull request conflicts with the following ones:\n\n#22555 (build: Fix make apk for Android w/ non-default SOURCES_PATH in depends by hebasto)\n#22552 (build: Improve depends build system robustness by hebasto)\n#20744 (Use std::filesystem. Remove Boost Filesystem & System by fanquake)\n\nIf you consider this pull request important, please also help to review the conflicting pull requests. Ideally, start with the one that should be merged first.",
    "body": "<!--e57a25ab6845829454e8d69fc972939a-->\n\nThe following sections might be updated with supplementary metadata relevant to reviewers and maintainers.\n\n<!--174a7506f384e20aa4161008e828411d-->\n### Conflicts\nReviewers, this pull request conflicts with the following ones:\n\n* [#22555](https://github.com/bitcoin/bitcoin/pull/22555) (build: Fix `make apk` for Android w/ non-default SOURCES_PATH in depends by hebasto)\n* [#22552](https://github.com/bitcoin/bitcoin/pull/22552) (build: Improve depends build system robustness by hebasto)\n* [#20744](https://github.com/bitcoin/bitcoin/pull/20744) (Use std::filesystem. Remove Boost Filesystem & System by fanquake)\n\nIf you consider this pull request important, please also help to review the conflicting pull requests. Ideally, start with the one that should be merged first.",
    "reactions": {
      "url": "https://api.github.com/repos/bitcoin/bitcoin/issues/comments/909071211/reactions",
      "total_count": 0,
      "+1": 0,
      "-1": 0,
      "laugh": 0,
      "hooray": 0,
      "confused": 0,
      "heart": 0,
      "rocket": 0,
      "eyes": 0
    },
    "performed_via_github_app": null
  },
  {
    "url": "https://api.github.com/repos/bitcoin/bitcoin/issues/comments/909099125",
    "html_url": "https://github.com/bitcoin/bitcoin/pull/22840#issuecomment-909099125",
    "issue_url": "https://api.github.com/repos/bitcoin/bitcoin/issues/22840",
    "id": 909099125,
    "node_id": "IC_kwDOABII5842L8B1",
    "user": {
      "login": "hebasto",
      "id": 32963518,
      "node_id": "MDQ6VXNlcjMyOTYzNTE4",
      "avatar_url": "https://avatars.githubusercontent.com/u/32963518?v=4",
      "gravatar_id": "",
      "url": "https://api.github.com/users/hebasto",
      "html_url": "https://github.com/hebasto",
      "followers_url": "https://api.github.com/users/hebasto/followers",
      "following_url": "https://api.github.com/users/hebasto/following{/other_user}",
      "gists_url": "https://api.github.com/users/hebasto/gists{/gist_id}",
      "starred_url": "https://api.github.com/users/hebasto/starred{/owner}{/repo}",
      "subscriptions_url": "https://api.github.com/users/hebasto/subscriptions",
      "organizations_url": "https://api.github.com/users/hebasto/orgs",
      "repos_url": "https://api.github.com/users/hebasto/repos",
      "events_url": "https://api.github.com/users/hebasto/events{/privacy}",
      "received_events_url": "https://api.github.com/users/hebasto/received_events",
      "type": "User",
      "site_admin": false
    },
    "created_at": "2021-08-31T10:15:40Z",
    "updated_at": "2021-08-31T10:16:11Z",
    "author_association": "MEMBER",
    "body_html": "<h4 dir=\"auto\">Guix builds:</h4>\n<div class=\"snippet-clipboard-content notranslate position-relative overflow-auto\" data-snippet-clipboard-copy-content=\"$ find guix-build-$(git rev-parse --short=12 HEAD)/output/ -type f -print0 | env LC_ALL=C sort -z | xargs -r0 sha256sum\n4e2d5ef3213127ffa65a18c96fa081ce6904acad338a1e65af3bd6923ca01717  guix-build-76f031b050a4/output/aarch64-linux-gnu/SHA256SUMS.part\n7a0c9a153b48004802b326f4c3dc4b756d20c3aa406312e4270edcd1bfd0b1c9  guix-build-76f031b050a4/output/aarch64-linux-gnu/bitcoin-76f031b050a4-aarch64-linux-gnu-debug.tar.gz\nbfc951c3428380cf04b80a2d922b60ae65f5b613cff58ca97849e430a3f10157  guix-build-76f031b050a4/output/aarch64-linux-gnu/bitcoin-76f031b050a4-aarch64-linux-gnu.tar.gz\nbbbc78b77567306e5e4c77c87282f87a83f00fa8564c850995b7c9dabbe1fbc2  guix-build-76f031b050a4/output/arm-linux-gnueabihf/SHA256SUMS.part\n1a46ab64e62d4930df6be17c7756dfeb0cc86a2a34396fa2c705606cf3fa85e6  guix-build-76f031b050a4/output/arm-linux-gnueabihf/bitcoin-76f031b050a4-arm-linux-gnueabihf-debug.tar.gz\n910a1e25524c552e25ad3a3ea4d4bfa900c9bdfca749cf45637d61aae9267dd4  guix-build-76f031b050a4/output/arm-linux-gnueabihf/bitcoin-76f031b050a4-arm-linux-gnueabihf.tar.gz\nb52343d96909560f3060d111d68ac0907e30d79925de8c685f96267fb6243848  guix-build-76f031b050a4/output/dist-archive/bitcoin-76f031b050a4.tar.gz\n7596dd80249c2d27e5e3bae115fe064f3fbcc81d0d25b71dbe11674ed9f68aa4  guix-build-76f031b050a4/output/powerpc64-linux-gnu/SHA256SUMS.part\nf62c4e5b06590c5e749c305ff2f1b3d287cf8adcea16a4f3a9183f5889543fe0  guix-build-76f031b050a4/output/powerpc64-linux-gnu/bitcoin-76f031b050a4-powerpc64-linux-gnu-debug.tar.gz\n879447958aeb5c25e474cc063aa843af1ca4970599659ea2ffeedf303f4f9c0b  guix-build-76f031b050a4/output/powerpc64-linux-gnu/bitcoin-76f031b050a4-powerpc64-linux-gnu.tar.gz\nb90d31cd9fe889cb71581a74b4c5de07b72ae114f9b7f329796bf50bd82648de  guix-build-76f031b050a4/output/powerpc64le-linux-gnu/SHA256SUMS.part\n882019d801776b128ee13e6f8fcbcb76473e0d931314aaf4be2f4d57fdbe686b  guix-build-76f031b050a4/output/powerpc64le-linux-gnu/bitcoin-76f031b050a4-powerpc64le-linux-gnu-debug.tar.gz\n581d38d938d79ba0e3781bf83b567c0f49c2ed4fa7fa89f8eecfec231e6d9b16  guix-build-76f031b050a4/output/powerpc64le-linux-gnu/bitcoin-76f031b050a4-powerpc64le-linux-gnu.tar.gz\n419291c599f7b4213c6fa9382b853e60cc2220d5414335ff92a516600fc45a06  guix-build-76f031b050a4/output/riscv64-linux-gnu/SHA256SUMS.part\n148e6947c7bee695b9c57987818897ca98d169b8a14779ca170301468a0abe4b  guix-build-76f031b050a4/output/riscv64-linux-gnu/bitcoin-76f031b050a4-riscv64-linux-gnu-debug.tar.gz\n04d50318bea6af3cc73d7af8ddd91ebc8335046ce237fd0f7b23937ccc1f2ec6  guix-build-76f031b050a4/output/riscv64-linux-gnu/bitcoin-76f031b050a4-riscv64-linux-gnu.tar.gz\nb75aa2133bf4c031474cbd716025a51416e6d2efe8bf8d8f5fed9a7c65918e43  guix-build-76f031b050a4/output/x86_64-apple-darwin18/SHA256SUMS.part\n7a09ff585858a350153b0998186e58feb7439edb0804e18f6e54fac9f220d43b  guix-build-76f031b050a4/output/x86_64-apple-darwin18/bitcoin-76f031b050a4-osx-unsigned.dmg\nd22259825baaa07674f8471132c4f79a8328d31a1c12ae07fb0ba0d272ea9648  guix-build-76f031b050a4/output/x86_64-apple-darwin18/bitcoin-76f031b050a4-osx-unsigned.tar.gz\n7121e7f426269f3a5807cf14e357eed970fbe9c39ebcfcf01f9fc89589f7cdba  guix-build-76f031b050a4/output/x86_64-apple-darwin18/bitcoin-76f031b050a4-osx64.tar.gz\n74d0673f95ac924c02e4f18694ee456c49cc3fec016a895f14b87d3ecd792951  guix-build-76f031b050a4/output/x86_64-linux-gnu/SHA256SUMS.part\ne1d020b0db00815dba278be0b3bd52d99202c8ad54437380c71121e9a4c772a8  guix-build-76f031b050a4/output/x86_64-linux-gnu/bitcoin-76f031b050a4-x86_64-linux-gnu-debug.tar.gz\n78f81196c3dfd5ea030abe505daa02e84f660c159b7d701c2606474f4725e046  guix-build-76f031b050a4/output/x86_64-linux-gnu/bitcoin-76f031b050a4-x86_64-linux-gnu.tar.gz\n2fc42b5dc3aafe68980123c1f74958120ae9f2988aae11e5586c871a02d12498  guix-build-76f031b050a4/output/x86_64-w64-mingw32/SHA256SUMS.part\nea1207c00963937eab4f85495c3a16cf648f2da0df659791cf181ed688bee344  guix-build-76f031b050a4/output/x86_64-w64-mingw32/bitcoin-76f031b050a4-win-unsigned.tar.gz\nfa31a979e4bc2a9c17ce03c1971f491ec8704ffb8e71a4757b80ce704ef33fe1  guix-build-76f031b050a4/output/x86_64-w64-mingw32/bitcoin-76f031b050a4-win64-debug.zip\nf4b205e54894baba976a89b5fe6264f238ee532fbcda41daac06887a85cc2c0d  guix-build-76f031b050a4/output/x86_64-w64-mingw32/bitcoin-76f031b050a4-win64-setup-unsigned.exe\n30e7bdac48084b696ab6fabd5c5212b3fde2ce0c71983d4983e44da252b0508a  guix-build-76f031b050a4/output/x86_64-w64-mingw32/bitcoin-76f031b050a4-win64.zip\"><pre class=\"notranslate\"><code class=\"notranslate\">$ find guix-build-$(git rev-parse --short=12 HEAD)/output/ -type f -print0 | env LC_ALL=C sort -z | xargs -r0 sha256sum\n4e2d5ef3213127ffa65a18c96fa081ce6904acad338a1e65af3bd6923ca01717  guix-build-76f031b050a4/output/aarch64-linux-gnu/SHA256SUMS.part\n7a0c9a153b48004802b326f4c3dc4b756d20c3aa406312e4270edcd1bfd0b1c9  guix-build-76f031b050a4/output/aarch64-linux-gnu/bitcoin-76f031b050a4-aarch64-linux-gnu-debug.tar.gz\nbfc951c3428380cf04b80a2d922b60ae65f5b613cff58ca97849e430a3f10157  guix-build-76f031b050a4/output/aarch64-linux-gnu/bitcoin-76f031b050a4-aarch64-linux-gnu.tar.gz\nbbbc78b77567306e5e4c77c87282f87a83f00fa8564c850995b7c9dabbe1fbc2  guix-build-76f031b050a4/output/arm-linux-gnueabihf/SHA256SUMS.part\n1a46ab64e62d4930df6be17c7756dfeb0cc86a2a34396fa2c705606cf3fa85e6  guix-build-76f031b050a4/output/arm-linux-gnueabihf/bitcoin-76f031b050a4-arm-linux-gnueabihf-debug.tar.gz\n910a1e25524c552e25ad3a3ea4d4bfa900c9bdfca749cf45637d61aae9267dd4  guix-build-76f031b050a4/output/arm-linux-gnueabihf/bitcoin-76f031b050a4-arm-linux-gnueabihf.tar.gz\nb52343d96909560f3060d111d68ac0907e30d79925de8c685f96267fb6243848  guix-build-76f031b050a4/output/dist-archive/bitcoin-76f031b050a4.tar.gz\n7596dd80249c2d27e5e3bae115fe064f3fbcc81d0d25b71dbe11674ed9f68aa4  guix-build-76f031b050a4/output/powerpc64-linux-gnu/SHA256SUMS.part\nf62c4e5b06590c5e749c305ff2f1b3d287cf8adcea16a4f3a9183f5889543fe0  guix-build-76f031b050a4/output/powerpc64-linux-gnu/bitcoin-76f031b050a4-powerpc64-linux-gnu-debug.tar.gz\n879447958aeb5c25e474cc063aa843af1ca4970599659ea2ffeedf303f4f9c0b  guix-build-76f031b050a4/output/powerpc64-linux-gnu/bitcoin-76f031b050a4-powerpc64-linux-gnu.tar.gz\nb90d31cd9fe889cb71581a74b4c5de07b72ae114f9b7f329796bf50bd82648de  guix-build-76f031b050a4/output/powerpc64le-linux-gnu/SHA256SUMS.part\n882019d801776b128ee13e6f8fcbcb76473e0d931314aaf4be2f4d57fdbe686b  guix-build-76f031b050a4/output/powerpc64le-linux-gnu/bitcoin-76f031b050a4-powerpc64le-linux-gnu-debug.tar.gz\n581d38d938d79ba0e3781bf83b567c0f49c2ed4fa7fa89f8eecfec231e6d9b16  guix-build-76f031b050a4/output/powerpc64le-linux-gnu/bitcoin-76f031b050a4-powerpc64le-linux-gnu.tar.gz\n419291c599f7b4213c6fa9382b853e60cc2220d5414335ff92a516600fc45a06  guix-build-76f031b050a4/output/riscv64-linux-gnu/SHA256SUMS.part\n148e6947c7bee695b9c57987818897ca98d169b8a14779ca170301468a0abe4b  guix-build-76f031b050a4/output/riscv64-linux-gnu/bitcoin-76f031b050a4-riscv64-linux-gnu-debug.tar.gz\n04d50318bea6af3cc73d7af8ddd91ebc8335046ce237fd0f7b23937ccc1f2ec6  guix-build-76f031b050a4/output/riscv64-linux-gnu/bitcoin-76f031b050a4-riscv64-linux-gnu.tar.gz\nb75aa2133bf4c031474cbd716025a51416e6d2efe8bf8d8f5fed9a7c65918e43  guix-build-76f031b050a4/output/x86_64-apple-darwin18/SHA256SUMS.part\n7a09ff585858a350153b0998186e58feb7439edb0804e18f6e54fac9f220d43b  guix-build-76f031b050a4/output/x86_64-apple-darwin18/bitcoin-76f031b050a4-osx-unsigned.dmg\nd22259825baaa07674f8471132c4f79a8328d31a1c12ae07fb0ba0d272ea9648  guix-build-76f031b050a4/output/x86_64-apple-darwin18/bitcoin-76f031b050a4-osx-unsigned.tar.gz\n7121e7f426269f3a5807cf14e357eed970fbe9c39ebcfcf01f9fc89589f7cdba  guix-build-76f031b050a4/output/x86_64-apple-darwin18/bitcoin-76f031b050a4-osx64.tar.gz\n74d0673f95ac924c02e4f18694ee456c49cc3fec016a895f14b87d3ecd792951  guix-build-76f031b050a4/output/x86_64-linux-gnu/SHA256SUMS.part\ne1d020b0db00815dba278be0b3bd52d99202c8ad54437380c71121e9a4c772a8  guix-build-76f031b050a4/output/x86_64-linux-gnu/bitcoin-76f031b050a4-x86_64-linux-gnu-debug.tar.gz\n78f81196c3dfd5ea030abe505daa02e84f660c159b7d701c2606474f4725e046  guix-build-76f031b050a4/output/x86_64-linux-gnu/bitcoin-76f031b050a4-x86_64-linux-gnu.tar.gz\n2fc42b5dc3aafe68980123c1f74958120ae9f2988aae11e5586c871a02d12498  guix-build-76f031b050a4/output/x86_64-w64-mingw32/SHA256SUMS.part\nea1207c00963937eab4f85495c3a16cf648f2da0df659791cf181ed688bee344  guix-build-76f031b050a4/output/x86_64-w64-mingw32/bitcoin-76f031b050a4-win-unsigned.tar.gz\nfa31a979e4bc2a9c17ce03c1971f491ec8704ffb8e71a4757b80ce704ef33fe1  guix-build-76f031b050a4/output/x86_64-w64-mingw32/bitcoin-76f031b050a4-win64-debug.zip\nf4b205e54894baba976a89b5fe6264f238ee532fbcda41daac06887a85cc2c0d  guix-build-76f031b050a4/output/x86_64-w64-mingw32/bitcoin-76f031b050a4-win64-setup-unsigned.exe\n30e7bdac48084b696ab6fabd5c5212b3fde2ce0c71983d4983e44da252b0508a  guix-build-76f031b050a4/output/x86_64-w64-mingw32/bitcoin-76f031b050a4-win64.zip\n</code></pre></div>",
    "body_text": "Guix builds:\n$ find guix-build-$(git rev-parse --short=12 HEAD)/output/ -type f -print0 | env LC_ALL=C sort -z | xargs -r0 sha256sum\n4e2d5ef3213127ffa65a18c96fa081ce6904acad338a1e65af3bd6923ca01717  guix-build-76f031b050a4/output/aarch64-linux-gnu/SHA256SUMS.part\n7a0c9a153b48004802b326f4c3dc4b756d20c3aa406312e4270edcd1bfd0b1c9  guix-build-76f031b050a4/output/aarch64-linux-gnu/bitcoin-76f031b050a4-aarch64-linux-gnu-debug.tar.gz\nbfc951c3428380cf04b80a2d922b60ae65f5b613cff58ca97849e430a3f10157  guix-build-76f031b050a4/output/aarch64-linux-gnu/bitcoin-76f031b050a4-aarch64-linux-gnu.tar.gz\nbbbc78b77567306e5e4c77c87282f87a83f00fa8564c850995b7c9dabbe1fbc2  guix-build-76f031b050a4/output/arm-linux-gnueabihf/SHA256SUMS.part\n1a46ab64e62d4930df6be17c7756dfeb0cc86a2a34396fa2c705606cf3fa85e6  guix-build-76f031b050a4/output/arm-linux-gnueabihf/bitcoin-76f031b050a4-arm-linux-gnueabihf-debug.tar.gz\n910a1e25524c552e25ad3a3ea4d4bfa900c9bdfca749cf45637d61aae9267dd4  guix-build-76f031b050a4/output/arm-linux-gnueabihf/bitcoin-76f031b050a4-arm-linux-gnueabihf.tar.gz\nb52343d96909560f3060d111d68ac0907e30d79925de8c685f96267fb6243848  guix-build-76f031b050a4/output/dist-archive/bitcoin-76f031b050a4.tar.gz\n7596dd80249c2d27e5e3bae115fe064f3fbcc81d0d25b71dbe11674ed9f68aa4  guix-build-76f031b050a4/output/powerpc64-linux-gnu/SHA256SUMS.part\nf62c4e5b06590c5e749c305ff2f1b3d287cf8adcea16a4f3a9183f5889543fe0  guix-build-76f031b050a4/output/powerpc64-linux-gnu/bitcoin-76f031b050a4-powerpc64-linux-gnu-debug.tar.gz\n879447958aeb5c25e474cc063aa843af1ca4970599659ea2ffeedf303f4f9c0b  guix-build-76f031b050a4/output/powerpc64-linux-gnu/bitcoin-76f031b050a4-powerpc64-linux-gnu.tar.gz\nb90d31cd9fe889cb71581a74b4c5de07b72ae114f9b7f329796bf50bd82648de  guix-build-76f031b050a4/output/powerpc64le-linux-gnu/SHA256SUMS.part\n882019d801776b128ee13e6f8fcbcb76473e0d931314aaf4be2f4d57fdbe686b  guix-build-76f031b050a4/output/powerpc64le-linux-gnu/bitcoin-76f031b050a4-powerpc64le-linux-gnu-debug.tar.gz\n581d38d938d79ba0e3781bf83b567c0f49c2ed4fa7fa89f8eecfec231e6d9b16  guix-build-76f031b050a4/output/powerpc64le-linux-gnu/bitcoin-76f031b050a4-powerpc64le-linux-gnu.tar.gz\n419291c599f7b4213c6fa9382b853e60cc2220d5414335ff92a516600fc45a06  guix-build-76f031b050a4/output/riscv64-linux-gnu/SHA256SUMS.part\n148e6947c7bee695b9c57987818897ca98d169b8a14779ca170301468a0abe4b  guix-build-76f031b050a4/output/riscv64-linux-gnu/bitcoin-76f031b050a4-riscv64-linux-gnu-debug.tar.gz\n04d50318bea6af3cc73d7af8ddd91ebc8335046ce237fd0f7b23937ccc1f2ec6  guix-build-76f031b050a4/output/riscv64-linux-gnu/bitcoin-76f031b050a4-riscv64-linux-gnu.tar.gz\nb75aa2133bf4c031474cbd716025a51416e6d2efe8bf8d8f5fed9a7c65918e43  guix-build-76f031b050a4/output/x86_64-apple-darwin18/SHA256SUMS.part\n7a09ff585858a350153b0998186e58feb7439edb0804e18f6e54fac9f220d43b  guix-build-76f031b050a4/output/x86_64-apple-darwin18/bitcoin-76f031b050a4-osx-unsigned.dmg\nd22259825baaa07674f8471132c4f79a8328d31a1c12ae07fb0ba0d272ea9648  guix-build-76f031b050a4/output/x86_64-apple-darwin18/bitcoin-76f031b050a4-osx-unsigned.tar.gz\n7121e7f426269f3a5807cf14e357eed970fbe9c39ebcfcf01f9fc89589f7cdba  guix-build-76f031b050a4/output/x86_64-apple-darwin18/bitcoin-76f031b050a4-osx64.tar.gz\n74d0673f95ac924c02e4f18694ee456c49cc3fec016a895f14b87d3ecd792951  guix-build-76f031b050a4/output/x86_64-linux-gnu/SHA256SUMS.part\ne1d020b0db00815dba278be0b3bd52d99202c8ad54437380c71121e9a4c772a8  guix-build-76f031b050a4/output/x86_64-linux-gnu/bitcoin-76f031b050a4-x86_64-linux-gnu-debug.tar.gz\n78f81196c3dfd5ea030abe505daa02e84f660c159b7d701c2606474f4725e046  guix-build-76f031b050a4/output/x86_64-linux-gnu/bitcoin-76f031b050a4-x86_64-linux-gnu.tar.gz\n2fc42b5dc3aafe68980123c1f74958120ae9f2988aae11e5586c871a02d12498  guix-build-76f031b050a4/output/x86_64-w64-mingw32/SHA256SUMS.part\nea1207c00963937eab4f85495c3a16cf648f2da0df659791cf181ed688bee344  guix-build-76f031b050a4/output/x86_64-w64-mingw32/bitcoin-76f031b050a4-win-unsigned.tar.gz\nfa31a979e4bc2a9c17ce03c1971f491ec8704ffb8e71a4757b80ce704ef33fe1  guix-build-76f031b050a4/output/x86_64-w64-mingw32/bitcoin-76f031b050a4-win64-debug.zip\nf4b205e54894baba976a89b5fe6264f238ee532fbcda41daac06887a85cc2c0d  guix-build-76f031b050a4/output/x86_64-w64-mingw32/bitcoin-76f031b050a4-win64-setup-unsigned.exe\n30e7bdac48084b696ab6fabd5c5212b3fde2ce0c71983d4983e44da252b0508a  guix-build-76f031b050a4/output/x86_64-w64-mingw32/bitcoin-76f031b050a4-win64.zip",
    "body": "#### Guix builds:\r\n```\r\n$ find guix-build-$(git rev-parse --short=12 HEAD)/output/ -type f -print0 | env LC_ALL=C sort -z | xargs -r0 sha256sum\r\n4e2d5ef3213127ffa65a18c96fa081ce6904acad338a1e65af3bd6923ca01717  guix-build-76f031b050a4/output/aarch64-linux-gnu/SHA256SUMS.part\r\n7a0c9a153b48004802b326f4c3dc4b756d20c3aa406312e4270edcd1bfd0b1c9  guix-build-76f031b050a4/output/aarch64-linux-gnu/bitcoin-76f031b050a4-aarch64-linux-gnu-debug.tar.gz\r\nbfc951c3428380cf04b80a2d922b60ae65f5b613cff58ca97849e430a3f10157  guix-build-76f031b050a4/output/aarch64-linux-gnu/bitcoin-76f031b050a4-aarch64-linux-gnu.tar.gz\r\nbbbc78b77567306e5e4c77c87282f87a83f00fa8564c850995b7c9dabbe1fbc2  guix-build-76f031b050a4/output/arm-linux-gnueabihf/SHA256SUMS.part\r\n1a46ab64e62d4930df6be17c7756dfeb0cc86a2a34396fa2c705606cf3fa85e6  guix-build-76f031b050a4/output/arm-linux-gnueabihf/bitcoin-76f031b050a4-arm-linux-gnueabihf-debug.tar.gz\r\n910a1e25524c552e25ad3a3ea4d4bfa900c9bdfca749cf45637d61aae9267dd4  guix-build-76f031b050a4/output/arm-linux-gnueabihf/bitcoin-76f031b050a4-arm-linux-gnueabihf.tar.gz\r\nb52343d96909560f3060d111d68ac0907e30d79925de8c685f96267fb6243848  guix-build-76f031b050a4/output/dist-archive/bitcoin-76f031b050a4.tar.gz\r\n7596dd80249c2d27e5e3bae115fe064f3fbcc81d0d25b71dbe11674ed9f68aa4  guix-build-76f031b050a4/output/powerpc64-linux-gnu/SHA256SUMS.part\r\nf62c4e5b06590c5e749c305ff2f1b3d287cf8adcea16a4f3a9183f5889543fe0  guix-build-76f031b050a4/output/powerpc64-linux-gnu/bitcoin-76f031b050a4-powerpc64-linux-gnu-debug.tar.gz\r\n879447958aeb5c25e474cc063aa843af1ca4970599659ea2ffeedf303f4f9c0b  guix-build-76f031b050a4/output/powerpc64-linux-gnu/bitcoin-76f031b050a4-powerpc64-linux-gnu.tar.gz\r\nb90d31cd9fe889cb71581a74b4c5de07b72ae114f9b7f329796bf50bd82648de  guix-build-76f031b050a4/output/powerpc64le-linux-gnu/SHA256SUMS.part\r\n882019d801776b128ee13e6f8fcbcb76473e0d931314aaf4be2f4d57fdbe686b  guix-build-76f031b050a4/output/powerpc64le-linux-gnu/bitcoin-76f031b050a4-powerpc64le-linux-gnu-debug.tar.gz\r\n581d38d938d79ba0e3781bf83b567c0f49c2ed4fa7fa89f8eecfec231e6d9b16  guix-build-76f031b050a4/output/powerpc64le-linux-gnu/bitcoin-76f031b050a4-powerpc64le-linux-gnu.tar.gz\r\n419291c599f7b4213c6fa9382b853e60cc2220d5414335ff92a516600fc45a06  guix-build-76f031b050a4/output/riscv64-linux-gnu/SHA256SUMS.part\r\n148e6947c7bee695b9c57987818897ca98d169b8a14779ca170301468a0abe4b  guix-build-76f031b050a4/output/riscv64-linux-gnu/bitcoin-76f031b050a4-riscv64-linux-gnu-debug.tar.gz\r\n04d50318bea6af3cc73d7af8ddd91ebc8335046ce237fd0f7b23937ccc1f2ec6  guix-build-76f031b050a4/output/riscv64-linux-gnu/bitcoin-76f031b050a4-riscv64-linux-gnu.tar.gz\r\nb75aa2133bf4c031474cbd716025a51416e6d2efe8bf8d8f5fed9a7c65918e43  guix-build-76f031b050a4/output/x86_64-apple-darwin18/SHA256SUMS.part\r\n7a09ff585858a350153b0998186e58feb7439edb0804e18f6e54fac9f220d43b  guix-build-76f031b050a4/output/x86_64-apple-darwin18/bitcoin-76f031b050a4-osx-unsigned.dmg\r\nd22259825baaa07674f8471132c4f79a8328d31a1c12ae07fb0ba0d272ea9648  guix-build-76f031b050a4/output/x86_64-apple-darwin18/bitcoin-76f031b050a4-osx-unsigned.tar.gz\r\n7121e7f426269f3a5807cf14e357eed970fbe9c39ebcfcf01f9fc89589f7cdba  guix-build-76f031b050a4/output/x86_64-apple-darwin18/bitcoin-76f031b050a4-osx64.tar.gz\r\n74d0673f95ac924c02e4f18694ee456c49cc3fec016a895f14b87d3ecd792951  guix-build-76f031b050a4/output/x86_64-linux-gnu/SHA256SUMS.part\r\ne1d020b0db00815dba278be0b3bd52d99202c8ad54437380c71121e9a4c772a8  guix-build-76f031b050a4/output/x86_64-linux-gnu/bitcoin-76f031b050a4-x86_64-linux-gnu-debug.tar.gz\r\n78f81196c3dfd5ea030abe505daa02e84f660c159b7d701c2606474f4725e046  guix-build-76f031b050a4/output/x86_64-linux-gnu/bitcoin-76f031b050a4-x86_64-linux-gnu.tar.gz\r\n2fc42b5dc3aafe68980123c1f74958120ae9f2988aae11e5586c871a02d12498  guix-build-76f031b050a4/output/x86_64-w64-mingw32/SHA256SUMS.part\r\nea1207c00963937eab4f85495c3a16cf648f2da0df659791cf181ed688bee344  guix-build-76f031b050a4/output/x86_64-w64-mingw32/bitcoin-76f031b050a4-win-unsigned.tar.gz\r\nfa31a979e4bc2a9c17ce03c1971f491ec8704ffb8e71a4757b80ce704ef33fe1  guix-build-76f031b050a4/output/x86_64-w64-mingw32/bitcoin-76f031b050a4-win64-debug.zip\r\nf4b205e54894baba976a89b5fe6264f238ee532fbcda41daac06887a85cc2c0d  guix-build-76f031b050a4/output/x86_64-w64-mingw32/bitcoin-76f031b050a4-win64-setup-unsigned.exe\r\n30e7bdac48084b696ab6fabd5c5212b3fde2ce0c71983d4983e44da252b0508a  guix-build-76f031b050a4/output/x86_64-w64-mingw32/bitcoin-76f031b050a4-win64.zip\r\n```",
    "reactions": {
      "url": "https://api.github.com/repos/bitcoin/bitcoin/issues/comments/909099125/reactions",
      "total_count": 0,
      "+1": 0,
      "-1": 0,
      "laugh": 0,
      "hooray": 0,
      "confused": 0,
      "heart": 0,
      "rocket": 0,
      "eyes": 0
    },
    "performed_via_github_app": null
  },
  {
    "url": "https://api.github.com/repos/bitcoin/bitcoin/issues/comments/909376483",
    "html_url": "https://github.com/bitcoin/bitcoin/pull/22840#issuecomment-909376483",
    "issue_url": "https://api.github.com/repos/bitcoin/bitcoin/issues/22840",
    "id": 909376483,
    "node_id": "IC_kwDOABII5842M_vj",
    "user": {
      "login": "theuni",
      "id": 417043,
      "node_id": "MDQ6VXNlcjQxNzA0Mw==",
      "avatar_url": "https://avatars.githubusercontent.com/u/417043?v=4",
      "gravatar_id": "",
      "url": "https://api.github.com/users/theuni",
      "html_url": "https://github.com/theuni",
      "followers_url": "https://api.github.com/users/theuni/followers",
      "following_url": "https://api.github.com/users/theuni/following{/other_user}",
      "gists_url": "https://api.github.com/users/theuni/gists{/gist_id}",
      "starred_url": "https://api.github.com/users/theuni/starred{/owner}{/repo}",
      "subscriptions_url": "https://api.github.com/users/theuni/subscriptions",
      "organizations_url": "https://api.github.com/users/theuni/orgs",
      "repos_url": "https://api.github.com/users/theuni/repos",
      "events_url": "https://api.github.com/users/theuni/events{/privacy}",
      "received_events_url": "https://api.github.com/users/theuni/received_events",
      "type": "User",
      "site_admin": false
    },
    "created_at": "2021-08-31T16:09:12Z",
    "updated_at": "2021-08-31T16:09:12Z",
    "author_association": "MEMBER",
    "body_html": "<p dir=\"auto\">Sigh, sorry about that :(</p>\n<p dir=\"auto\">Looks like it's been this way for ages. Great catch indeed!</p>\n<p dir=\"auto\">ACK <a class=\"commit-link\" data-hovercard-type=\"commit\" data-hovercard-url=\"https://github.com/bitcoin/bitcoin/commit/76f031b050a4bca093845d45e0d05f56d7242ae1/hovercard\" href=\"https://github.com/bitcoin/bitcoin/commit/76f031b050a4bca093845d45e0d05f56d7242ae1\"><tt>76f031b</tt></a>.</p>",
    "body_text": "Sigh, sorry about that :(\nLooks like it's been this way for ages. Great catch indeed!\nACK 76f031b.",
    "body": "Sigh, sorry about that :(\r\n\r\nLooks like it's been this way for ages. Great catch indeed!\r\n\r\nACK 76f031b050a4bca093845d45e0d05f56d7242ae1.",
    "reactions": {
      "url": "https://api.github.com/repos/bitcoin/bitcoin/issues/comments/909376483/reactions",
      "total_count": 0,
      "+1": 0,
      "-1": 0,
      "laugh": 0,
      "hooray": 0,
      "confused": 0,
      "heart": 0,
      "rocket": 0,
      "eyes": 0
    },
    "performed_via_github_app": null
  },
  {
    "url": "https://api.github.com/repos/bitcoin/bitcoin/issues/comments/910491400",
    "html_url": "https://github.com/bitcoin/bitcoin/pull/22840#issuecomment-910491400",
    "issue_url": "https://api.github.com/repos/bitcoin/bitcoin/issues/22840",
    "id": 910491400,
    "node_id": "IC_kwDOABII5842RP8I",
    "user": {
      "login": "DrahtBot",
      "id": 39886733,
      "node_id": "MDQ6VXNlcjM5ODg2NzMz",
      "avatar_url": "https://avatars.githubusercontent.com/u/39886733?v=4",
      "gravatar_id": "",
      "url": "https://api.github.com/users/DrahtBot",
      "html_url": "https://github.com/DrahtBot",
      "followers_url": "https://api.github.com/users/DrahtBot/followers",
      "following_url": "https://api.github.com/users/DrahtBot/following{/other_user}",
      "gists_url": "https://api.github.com/users/DrahtBot/gists{/gist_id}",
      "starred_url": "https://api.github.com/users/DrahtBot/starred{/owner}{/repo}",
      "subscriptions_url": "https://api.github.com/users/DrahtBot/subscriptions",
      "organizations_url": "https://api.github.com/users/DrahtBot/orgs",
      "repos_url": "https://api.github.com/users/DrahtBot/repos",
      "events_url": "https://api.github.com/users/DrahtBot/events{/privacy}",
      "received_events_url": "https://api.github.com/users/DrahtBot/received_events",
      "type": "User",
      "site_admin": false
    },
    "created_at": "2021-09-01T17:19:46Z",
    "updated_at": "2021-09-01T17:19:46Z",
    "author_association": "CONTRIBUTOR",
    "body_html": "\n<h3 dir=\"auto\">Guix builds</h3>\n<table role=\"table\">\n<thead>\n<tr>\n<th>File</th>\n<th>commit <a class=\"commit-link\" data-hovercard-type=\"commit\" data-hovercard-url=\"https://github.com/bitcoin/bitcoin/commit/7be143a960e2bb9ac81144f55c45731c1bb209c5/hovercard\" href=\"https://github.com/bitcoin/bitcoin/commit/7be143a960e2bb9ac81144f55c45731c1bb209c5\"><tt>7be143a</tt></a><br>(master)</th>\n<th>commit <a class=\"commit-link\" data-hovercard-type=\"commit\" data-hovercard-url=\"https://github.com/bitcoin/bitcoin/commit/95882a14cd7f3520d2091c12e5b7c878403f3f2c/hovercard\" href=\"https://github.com/bitcoin/bitcoin/commit/95882a14cd7f3520d2091c12e5b7c878403f3f2c\"><tt>95882a1</tt></a><br>(master and this pull)</th>\n</tr>\n</thead>\n<tbody>\n<tr>\n<td>SHA256SUMS.part</td>\n<td><a href=\"https://drahtbot.space/guix/bitcoin/bitcoin/7be143a960e2bb9ac81144f55c45731c1bb209c5/SHA256SUMS.part\" rel=\"nofollow\"><code class=\"notranslate\">830ce48dbf1a9561...</code></a></td>\n<td><a href=\"https://drahtbot.space/guix/bitcoin/bitcoin/95882a14cd7f3520d2091c12e5b7c878403f3f2c/SHA256SUMS.part\" rel=\"nofollow\"><code class=\"notranslate\">ebe92402ee1871dd...</code></a></td>\n</tr>\n<tr>\n<td>*-aarch64-linux-gnu-debug.tar.gz</td>\n<td><a href=\"https://drahtbot.space/guix/bitcoin/bitcoin/7be143a960e2bb9ac81144f55c45731c1bb209c5/bitcoin-7be143a960e2-aarch64-linux-gnu-debug.tar.gz\" rel=\"nofollow\"><code class=\"notranslate\">f72764c015553fde...</code></a></td>\n<td><a href=\"https://drahtbot.space/guix/bitcoin/bitcoin/95882a14cd7f3520d2091c12e5b7c878403f3f2c/bitcoin-95882a14cd7f-aarch64-linux-gnu-debug.tar.gz\" rel=\"nofollow\"><code class=\"notranslate\">b9fd227357174ab5...</code></a></td>\n</tr>\n<tr>\n<td>*-aarch64-linux-gnu.tar.gz</td>\n<td><a href=\"https://drahtbot.space/guix/bitcoin/bitcoin/7be143a960e2bb9ac81144f55c45731c1bb209c5/bitcoin-7be143a960e2-aarch64-linux-gnu.tar.gz\" rel=\"nofollow\"><code class=\"notranslate\">a5aae613f1516dcc...</code></a></td>\n<td><a href=\"https://drahtbot.space/guix/bitcoin/bitcoin/95882a14cd7f3520d2091c12e5b7c878403f3f2c/bitcoin-95882a14cd7f-aarch64-linux-gnu.tar.gz\" rel=\"nofollow\"><code class=\"notranslate\">32b67fb21ac7bb83...</code></a></td>\n</tr>\n<tr>\n<td>*-arm-linux-gnueabihf-debug.tar.gz</td>\n<td><a href=\"https://drahtbot.space/guix/bitcoin/bitcoin/7be143a960e2bb9ac81144f55c45731c1bb209c5/bitcoin-7be143a960e2-arm-linux-gnueabihf-debug.tar.gz\" rel=\"nofollow\"><code class=\"notranslate\">0765bd9535b06177...</code></a></td>\n<td><a href=\"https://drahtbot.space/guix/bitcoin/bitcoin/95882a14cd7f3520d2091c12e5b7c878403f3f2c/bitcoin-95882a14cd7f-arm-linux-gnueabihf-debug.tar.gz\" rel=\"nofollow\"><code class=\"notranslate\">dd3eb6d6ece31fa0...</code></a></td>\n</tr>\n<tr>\n<td>*-arm-linux-gnueabihf.tar.gz</td>\n<td><a href=\"https://drahtbot.space/guix/bitcoin/bitcoin/7be143a960e2bb9ac81144f55c45731c1bb209c5/bitcoin-7be143a960e2-arm-linux-gnueabihf.tar.gz\" rel=\"nofollow\"><code class=\"notranslate\">6bc0c1920d0592cd...</code></a></td>\n<td><a href=\"https://drahtbot.space/guix/bitcoin/bitcoin/95882a14cd7f3520d2091c12e5b7c878403f3f2c/bitcoin-95882a14cd7f-arm-linux-gnueabihf.tar.gz\" rel=\"nofollow\"><code class=\"notranslate\">5a8c8c930dae50c1...</code></a></td>\n</tr>\n<tr>\n<td>*-osx-unsigned.dmg</td>\n<td><a href=\"https://drahtbot.space/guix/bitcoin/bitcoin/7be143a960e2bb9ac81144f55c45731c1bb209c5/bitcoin-7be143a960e2-osx-unsigned.dmg\" rel=\"nofollow\"><code class=\"notranslate\">2221009ab06bbbbb...</code></a></td>\n<td><a href=\"https://drahtbot.space/guix/bitcoin/bitcoin/95882a14cd7f3520d2091c12e5b7c878403f3f2c/bitcoin-95882a14cd7f-osx-unsigned.dmg\" rel=\"nofollow\"><code class=\"notranslate\">823da99b47834bee...</code></a></td>\n</tr>\n<tr>\n<td>*-osx-unsigned.tar.gz</td>\n<td><a href=\"https://drahtbot.space/guix/bitcoin/bitcoin/7be143a960e2bb9ac81144f55c45731c1bb209c5/bitcoin-7be143a960e2-osx-unsigned.tar.gz\" rel=\"nofollow\"><code class=\"notranslate\">8fc1ac9af7aa6dba...</code></a></td>\n<td><a href=\"https://drahtbot.space/guix/bitcoin/bitcoin/95882a14cd7f3520d2091c12e5b7c878403f3f2c/bitcoin-95882a14cd7f-osx-unsigned.tar.gz\" rel=\"nofollow\"><code class=\"notranslate\">40297fe3d9754701...</code></a></td>\n</tr>\n<tr>\n<td>*-osx64.tar.gz</td>\n<td><a href=\"https://drahtbot.space/guix/bitcoin/bitcoin/7be143a960e2bb9ac81144f55c45731c1bb209c5/bitcoin-7be143a960e2-osx64.tar.gz\" rel=\"nofollow\"><code class=\"notranslate\">7a0edb80028a143c...</code></a></td>\n<td><a href=\"https://drahtbot.space/guix/bitcoin/bitcoin/95882a14cd7f3520d2091c12e5b7c878403f3f2c/bitcoin-95882a14cd7f-osx64.tar.gz\" rel=\"nofollow\"><code class=\"notranslate\">9baba9774f4a2169...</code></a></td>\n</tr>\n<tr>\n<td>*-powerpc64-linux-gnu-debug.tar.gz</td>\n<td><a href=\"https://drahtbot.space/guix/bitcoin/bitcoin/7be143a960e2bb9ac81144f55c45731c1bb209c5/bitcoin-7be143a960e2-powerpc64-linux-gnu-debug.tar.gz\" rel=\"nofollow\"><code class=\"notranslate\">263994d0010d9895...</code></a></td>\n<td><a href=\"https://drahtbot.space/guix/bitcoin/bitcoin/95882a14cd7f3520d2091c12e5b7c878403f3f2c/bitcoin-95882a14cd7f-powerpc64-linux-gnu-debug.tar.gz\" rel=\"nofollow\"><code class=\"notranslate\">ce0a46788aa6d7a0...</code></a></td>\n</tr>\n<tr>\n<td>*-powerpc64-linux-gnu.tar.gz</td>\n<td><a href=\"https://drahtbot.space/guix/bitcoin/bitcoin/7be143a960e2bb9ac81144f55c45731c1bb209c5/bitcoin-7be143a960e2-powerpc64-linux-gnu.tar.gz\" rel=\"nofollow\"><code class=\"notranslate\">f90b7536cfe9424b...</code></a></td>\n<td><a href=\"https://drahtbot.space/guix/bitcoin/bitcoin/95882a14cd7f3520d2091c12e5b7c878403f3f2c/bitcoin-95882a14cd7f-powerpc64-linux-gnu.tar.gz\" rel=\"nofollow\"><code class=\"notranslate\">23cbce691b5c43ca...</code></a></td>\n</tr>\n<tr>\n<td>*-powerpc64le-linux-gnu-debug.tar.gz</td>\n<td><a href=\"https://drahtbot.space/guix/bitcoin/bitcoin/7be143a960e2bb9ac81144f55c45731c1bb209c5/bitcoin-7be143a960e2-powerpc64le-linux-gnu-debug.tar.gz\" rel=\"nofollow\"><code class=\"notranslate\">0375d5f8b30648c2...</code></a></td>\n<td><a href=\"https://drahtbot.space/guix/bitcoin/bitcoin/95882a14cd7f3520d2091c12e5b7c878403f3f2c/bitcoin-95882a14cd7f-powerpc64le-linux-gnu-debug.tar.gz\" rel=\"nofollow\"><code class=\"notranslate\">2aff056c10347dbe...</code></a></td>\n</tr>\n<tr>\n<td>*-powerpc64le-linux-gnu.tar.gz</td>\n<td><a href=\"https://drahtbot.space/guix/bitcoin/bitcoin/7be143a960e2bb9ac81144f55c45731c1bb209c5/bitcoin-7be143a960e2-powerpc64le-linux-gnu.tar.gz\" rel=\"nofollow\"><code class=\"notranslate\">9bbd7b3bb54ee34b...</code></a></td>\n<td><a href=\"https://drahtbot.space/guix/bitcoin/bitcoin/95882a14cd7f3520d2091c12e5b7c878403f3f2c/bitcoin-95882a14cd7f-powerpc64le-linux-gnu.tar.gz\" rel=\"nofollow\"><code class=\"notranslate\">82f1bd6760830678...</code></a></td>\n</tr>\n<tr>\n<td>*-riscv64-linux-gnu-debug.tar.gz</td>\n<td><a href=\"https://drahtbot.space/guix/bitcoin/bitcoin/7be143a960e2bb9ac81144f55c45731c1bb209c5/bitcoin-7be143a960e2-riscv64-linux-gnu-debug.tar.gz\" rel=\"nofollow\"><code class=\"notranslate\">d9b174f633c80084...</code></a></td>\n<td><a href=\"https://drahtbot.space/guix/bitcoin/bitcoin/95882a14cd7f3520d2091c12e5b7c878403f3f2c/bitcoin-95882a14cd7f-riscv64-linux-gnu-debug.tar.gz\" rel=\"nofollow\"><code class=\"notranslate\">8b03706ed7815d6f...</code></a></td>\n</tr>\n<tr>\n<td>*-riscv64-linux-gnu.tar.gz</td>\n<td><a href=\"https://drahtbot.space/guix/bitcoin/bitcoin/7be143a960e2bb9ac81144f55c45731c1bb209c5/bitcoin-7be143a960e2-riscv64-linux-gnu.tar.gz\" rel=\"nofollow\"><code class=\"notranslate\">0ed649188804a4a1...</code></a></td>\n<td><a href=\"https://drahtbot.space/guix/bitcoin/bitcoin/95882a14cd7f3520d2091c12e5b7c878403f3f2c/bitcoin-95882a14cd7f-riscv64-linux-gnu.tar.gz\" rel=\"nofollow\"><code class=\"notranslate\">e802aeaf0b80ba13...</code></a></td>\n</tr>\n<tr>\n<td>*-win-unsigned.tar.gz</td>\n<td><a href=\"https://drahtbot.space/guix/bitcoin/bitcoin/7be143a960e2bb9ac81144f55c45731c1bb209c5/bitcoin-7be143a960e2-win-unsigned.tar.gz\" rel=\"nofollow\"><code class=\"notranslate\">ef1f26cc53bef15b...</code></a></td>\n<td><a href=\"https://drahtbot.space/guix/bitcoin/bitcoin/95882a14cd7f3520d2091c12e5b7c878403f3f2c/bitcoin-95882a14cd7f-win-unsigned.tar.gz\" rel=\"nofollow\"><code class=\"notranslate\">e169cc2c6db24795...</code></a></td>\n</tr>\n<tr>\n<td>*-win64-debug.zip</td>\n<td><a href=\"https://drahtbot.space/guix/bitcoin/bitcoin/7be143a960e2bb9ac81144f55c45731c1bb209c5/bitcoin-7be143a960e2-win64-debug.zip\" rel=\"nofollow\"><code class=\"notranslate\">3b59d46a298a3a2c...</code></a></td>\n<td><a href=\"https://drahtbot.space/guix/bitcoin/bitcoin/95882a14cd7f3520d2091c12e5b7c878403f3f2c/bitcoin-95882a14cd7f-win64-debug.zip\" rel=\"nofollow\"><code class=\"notranslate\">386b0817f211afd9...</code></a></td>\n</tr>\n<tr>\n<td>*-win64-setup-unsigned.exe</td>\n<td><a href=\"https://drahtbot.space/guix/bitcoin/bitcoin/7be143a960e2bb9ac81144f55c45731c1bb209c5/bitcoin-7be143a960e2-win64-setup-unsigned.exe\" rel=\"nofollow\"><code class=\"notranslate\">67e33ff1b6a7bf61...</code></a></td>\n<td><a href=\"https://drahtbot.space/guix/bitcoin/bitcoin/95882a14cd7f3520d2091c12e5b7c878403f3f2c/bitcoin-95882a14cd7f-win64-setup-unsigned.exe\" rel=\"nofollow\"><code class=\"notranslate\">611432558d11405e...</code></a></td>\n</tr>\n<tr>\n<td>*-win64.zip</td>\n<td><a href=\"https://drahtbot.space/guix/bitcoin/bitcoin/7be143a960e2bb9ac81144f55c45731c1bb209c5/bitcoin-7be143a960e2-win64.zip\" rel=\"nofollow\"><code class=\"notranslate\">33a2f981daacd1e4...</code></a></td>\n<td><a href=\"https://drahtbot.space/guix/bitcoin/bitcoin/95882a14cd7f3520d2091c12e5b7c878403f3f2c/bitcoin-95882a14cd7f-win64.zip\" rel=\"nofollow\"><code class=\"notranslate\">d64c49f56c6b085d...</code></a></td>\n</tr>\n<tr>\n<td>*-x86_64-linux-gnu-debug.tar.gz</td>\n<td><a href=\"https://drahtbot.space/guix/bitcoin/bitcoin/7be143a960e2bb9ac81144f55c45731c1bb209c5/bitcoin-7be143a960e2-x86_64-linux-gnu-debug.tar.gz\" rel=\"nofollow\"><code class=\"notranslate\">6f170c4fd7b80626...</code></a></td>\n<td><a href=\"https://drahtbot.space/guix/bitcoin/bitcoin/95882a14cd7f3520d2091c12e5b7c878403f3f2c/bitcoin-95882a14cd7f-x86_64-linux-gnu-debug.tar.gz\" rel=\"nofollow\"><code class=\"notranslate\">ca5e9055904c3915...</code></a></td>\n</tr>\n<tr>\n<td>*-x86_64-linux-gnu.tar.gz</td>\n<td><a href=\"https://drahtbot.space/guix/bitcoin/bitcoin/7be143a960e2bb9ac81144f55c45731c1bb209c5/bitcoin-7be143a960e2-x86_64-linux-gnu.tar.gz\" rel=\"nofollow\"><code class=\"notranslate\">828530590b831bd3...</code></a></td>\n<td><a href=\"https://drahtbot.space/guix/bitcoin/bitcoin/95882a14cd7f3520d2091c12e5b7c878403f3f2c/bitcoin-95882a14cd7f-x86_64-linux-gnu.tar.gz\" rel=\"nofollow\"><code class=\"notranslate\">b0e598bb86cdfdb8...</code></a></td>\n</tr>\n<tr>\n<td>*.tar.gz</td>\n<td><a href=\"https://drahtbot.space/guix/bitcoin/bitcoin/7be143a960e2bb9ac81144f55c45731c1bb209c5/bitcoin-7be143a960e2.tar.gz\" rel=\"nofollow\"><code class=\"notranslate\">6848457fec93774f...</code></a></td>\n<td><a href=\"https://drahtbot.space/guix/bitcoin/bitcoin/95882a14cd7f3520d2091c12e5b7c878403f3f2c/bitcoin-95882a14cd7f.tar.gz\" rel=\"nofollow\"><code class=\"notranslate\">014684a8be8d5bb2...</code></a></td>\n</tr>\n<tr>\n<td>guix_build.log</td>\n<td><a href=\"https://drahtbot.space/guix/bitcoin/bitcoin/7be143a960e2bb9ac81144f55c45731c1bb209c5/guix_build.log\" rel=\"nofollow\"><code class=\"notranslate\">7419572c7e471938...</code></a></td>\n<td><a href=\"https://drahtbot.space/guix/bitcoin/bitcoin/95882a14cd7f3520d2091c12e5b7c878403f3f2c/guix_build.log\" rel=\"nofollow\"><code class=\"notranslate\">7aee6495b1c68e8b...</code></a></td>\n</tr>\n<tr>\n<td>guix_build.log.diff</td>\n<td></td>\n<td><a href=\"https://drahtbot.space/guix/bitcoin/bitcoin/95882a14cd7f3520d2091c12e5b7c878403f3f2c/guix_build.log.diff\" rel=\"nofollow\"><code class=\"notranslate\">42614e209da393a2...</code></a></td>\n</tr>\n</tbody>\n</table>",
    "body_text": "Guix builds\n\n\n\nFile\ncommit 7be143a(master)\ncommit 95882a1(master and this pull)\n\n\n\n\nSHA256SUMS.part\n830ce48dbf1a9561...\nebe92402ee1871dd...\n\n\n*-aarch64-linux-gnu-debug.tar.gz\nf72764c015553fde...\nb9fd227357174ab5...\n\n\n*-aarch64-linux-gnu.tar.gz\na5aae613f1516dcc...\n32b67fb21ac7bb83...\n\n\n*-arm-linux-gnueabihf-debug.tar.gz\n0765bd9535b06177...\ndd3eb6d6ece31fa0...\n\n\n*-arm-linux-gnueabihf.tar.gz\n6bc0c1920d0592cd...\n5a8c8c930dae50c1...\n\n\n*-osx-unsigned.dmg\n2221009ab06bbbbb...\n823da99b47834bee...\n\n\n*-osx-unsigned.tar.gz\n8fc1ac9af7aa6dba...\n40297fe3d9754701...\n\n\n*-osx64.tar.gz\n7a0edb80028a143c...\n9baba9774f4a2169...\n\n\n*-powerpc64-linux-gnu-debug.tar.gz\n263994d0010d9895...\nce0a46788aa6d7a0...\n\n\n*-powerpc64-linux-gnu.tar.gz\nf90b7536cfe9424b...\n23cbce691b5c43ca...\n\n\n*-powerpc64le-linux-gnu-debug.tar.gz\n0375d5f8b30648c2...\n2aff056c10347dbe...\n\n\n*-powerpc64le-linux-gnu.tar.gz\n9bbd7b3bb54ee34b...\n82f1bd6760830678...\n\n\n*-riscv64-linux-gnu-debug.tar.gz\nd9b174f633c80084...\n8b03706ed7815d6f...\n\n\n*-riscv64-linux-gnu.tar.gz\n0ed649188804a4a1...\ne802aeaf0b80ba13...\n\n\n*-win-unsigned.tar.gz\nef1f26cc53bef15b...\ne169cc2c6db24795...\n\n\n*-win64-debug.zip\n3b59d46a298a3a2c...\n386b0817f211afd9...\n\n\n*-win64-setup-unsigned.exe\n67e33ff1b6a7bf61...\n611432558d11405e...\n\n\n*-win64.zip\n33a2f981daacd1e4...\nd64c49f56c6b085d...\n\n\n*-x86_64-linux-gnu-debug.tar.gz\n6f170c4fd7b80626...\nca5e9055904c3915...\n\n\n*-x86_64-linux-gnu.tar.gz\n828530590b831bd3...\nb0e598bb86cdfdb8...\n\n\n*.tar.gz\n6848457fec93774f...\n014684a8be8d5bb2...\n\n\nguix_build.log\n7419572c7e471938...\n7aee6495b1c68e8b...\n\n\nguix_build.log.diff\n\n42614e209da393a2...",
    "body": "<!--9cd9c72976c961c55c7acef8f6ba82cd-->\n### Guix builds\n\n| File | commit 7be143a960e2bb9ac81144f55c45731c1bb209c5<br>(master) | commit 95882a14cd7f3520d2091c12e5b7c878403f3f2c<br>(master and this pull) |\n|--|--|--|\n| SHA256SUMS.part | [`830ce48dbf1a9561...`](https://drahtbot.space/guix/bitcoin/bitcoin/7be143a960e2bb9ac81144f55c45731c1bb209c5/SHA256SUMS.part) | [`ebe92402ee1871dd...`](https://drahtbot.space/guix/bitcoin/bitcoin/95882a14cd7f3520d2091c12e5b7c878403f3f2c/SHA256SUMS.part) |\n| *-aarch64-linux-gnu-debug.tar.gz | [`f72764c015553fde...`](https://drahtbot.space/guix/bitcoin/bitcoin/7be143a960e2bb9ac81144f55c45731c1bb209c5/bitcoin-7be143a960e2-aarch64-linux-gnu-debug.tar.gz) | [`b9fd227357174ab5...`](https://drahtbot.space/guix/bitcoin/bitcoin/95882a14cd7f3520d2091c12e5b7c878403f3f2c/bitcoin-95882a14cd7f-aarch64-linux-gnu-debug.tar.gz) |\n| *-aarch64-linux-gnu.tar.gz | [`a5aae613f1516dcc...`](https://drahtbot.space/guix/bitcoin/bitcoin/7be143a960e2bb9ac81144f55c45731c1bb209c5/bitcoin-7be143a960e2-aarch64-linux-gnu.tar.gz) | [`32b67fb21ac7bb83...`](https://drahtbot.space/guix/bitcoin/bitcoin/95882a14cd7f3520d2091c12e5b7c878403f3f2c/bitcoin-95882a14cd7f-aarch64-linux-gnu.tar.gz) |\n| *-arm-linux-gnueabihf-debug.tar.gz | [`0765bd9535b06177...`](https://drahtbot.space/guix/bitcoin/bitcoin/7be143a960e2bb9ac81144f55c45731c1bb209c5/bitcoin-7be143a960e2-arm-linux-gnueabihf-debug.tar.gz) | [`dd3eb6d6ece31fa0...`](https://drahtbot.space/guix/bitcoin/bitcoin/95882a14cd7f3520d2091c12e5b7c878403f3f2c/bitcoin-95882a14cd7f-arm-linux-gnueabihf-debug.tar.gz) |\n| *-arm-linux-gnueabihf.tar.gz | [`6bc0c1920d0592cd...`](https://drahtbot.space/guix/bitcoin/bitcoin/7be143a960e2bb9ac81144f55c45731c1bb209c5/bitcoin-7be143a960e2-arm-linux-gnueabihf.tar.gz) | [`5a8c8c930dae50c1...`](https://drahtbot.space/guix/bitcoin/bitcoin/95882a14cd7f3520d2091c12e5b7c878403f3f2c/bitcoin-95882a14cd7f-arm-linux-gnueabihf.tar.gz) |\n| *-osx-unsigned.dmg | [`2221009ab06bbbbb...`](https://drahtbot.space/guix/bitcoin/bitcoin/7be143a960e2bb9ac81144f55c45731c1bb209c5/bitcoin-7be143a960e2-osx-unsigned.dmg) | [`823da99b47834bee...`](https://drahtbot.space/guix/bitcoin/bitcoin/95882a14cd7f3520d2091c12e5b7c878403f3f2c/bitcoin-95882a14cd7f-osx-unsigned.dmg) |\n| *-osx-unsigned.tar.gz | [`8fc1ac9af7aa6dba...`](https://drahtbot.space/guix/bitcoin/bitcoin/7be143a960e2bb9ac81144f55c45731c1bb209c5/bitcoin-7be143a960e2-osx-unsigned.tar.gz) | [`40297fe3d9754701...`](https://drahtbot.space/guix/bitcoin/bitcoin/95882a14cd7f3520d2091c12e5b7c878403f3f2c/bitcoin-95882a14cd7f-osx-unsigned.tar.gz) |\n| *-osx64.tar.gz | [`7a0edb80028a143c...`](https://drahtbot.space/guix/bitcoin/bitcoin/7be143a960e2bb9ac81144f55c45731c1bb209c5/bitcoin-7be143a960e2-osx64.tar.gz) | [`9baba9774f4a2169...`](https://drahtbot.space/guix/bitcoin/bitcoin/95882a14cd7f3520d2091c12e5b7c878403f3f2c/bitcoin-95882a14cd7f-osx64.tar.gz) |\n| *-powerpc64-linux-gnu-debug.tar.gz | [`263994d0010d9895...`](https://drahtbot.space/guix/bitcoin/bitcoin/7be143a960e2bb9ac81144f55c45731c1bb209c5/bitcoin-7be143a960e2-powerpc64-linux-gnu-debug.tar.gz) | [`ce0a46788aa6d7a0...`](https://drahtbot.space/guix/bitcoin/bitcoin/95882a14cd7f3520d2091c12e5b7c878403f3f2c/bitcoin-95882a14cd7f-powerpc64-linux-gnu-debug.tar.gz) |\n| *-powerpc64-linux-gnu.tar.gz | [`f90b7536cfe9424b...`](https://drahtbot.space/guix/bitcoin/bitcoin/7be143a960e2bb9ac81144f55c45731c1bb209c5/bitcoin-7be143a960e2-powerpc64-linux-gnu.tar.gz) | [`23cbce691b5c43ca...`](https://drahtbot.space/guix/bitcoin/bitcoin/95882a14cd7f3520d2091c12e5b7c878403f3f2c/bitcoin-95882a14cd7f-powerpc64-linux-gnu.tar.gz) |\n| *-powerpc64le-linux-gnu-debug.tar.gz | [`0375d5f8b30648c2...`](https://drahtbot.space/guix/bitcoin/bitcoin/7be143a960e2bb9ac81144f55c45731c1bb209c5/bitcoin-7be143a960e2-powerpc64le-linux-gnu-debug.tar.gz) | [`2aff056c10347dbe...`](https://drahtbot.space/guix/bitcoin/bitcoin/95882a14cd7f3520d2091c12e5b7c878403f3f2c/bitcoin-95882a14cd7f-powerpc64le-linux-gnu-debug.tar.gz) |\n| *-powerpc64le-linux-gnu.tar.gz | [`9bbd7b3bb54ee34b...`](https://drahtbot.space/guix/bitcoin/bitcoin/7be143a960e2bb9ac81144f55c45731c1bb209c5/bitcoin-7be143a960e2-powerpc64le-linux-gnu.tar.gz) | [`82f1bd6760830678...`](https://drahtbot.space/guix/bitcoin/bitcoin/95882a14cd7f3520d2091c12e5b7c878403f3f2c/bitcoin-95882a14cd7f-powerpc64le-linux-gnu.tar.gz) |\n| *-riscv64-linux-gnu-debug.tar.gz | [`d9b174f633c80084...`](https://drahtbot.space/guix/bitcoin/bitcoin/7be143a960e2bb9ac81144f55c45731c1bb209c5/bitcoin-7be143a960e2-riscv64-linux-gnu-debug.tar.gz) | [`8b03706ed7815d6f...`](https://drahtbot.space/guix/bitcoin/bitcoin/95882a14cd7f3520d2091c12e5b7c878403f3f2c/bitcoin-95882a14cd7f-riscv64-linux-gnu-debug.tar.gz) |\n| *-riscv64-linux-gnu.tar.gz | [`0ed649188804a4a1...`](https://drahtbot.space/guix/bitcoin/bitcoin/7be143a960e2bb9ac81144f55c45731c1bb209c5/bitcoin-7be143a960e2-riscv64-linux-gnu.tar.gz) | [`e802aeaf0b80ba13...`](https://drahtbot.space/guix/bitcoin/bitcoin/95882a14cd7f3520d2091c12e5b7c878403f3f2c/bitcoin-95882a14cd7f-riscv64-linux-gnu.tar.gz) |\n| *-win-unsigned.tar.gz | [`ef1f26cc53bef15b...`](https://drahtbot.space/guix/bitcoin/bitcoin/7be143a960e2bb9ac81144f55c45731c1bb209c5/bitcoin-7be143a960e2-win-unsigned.tar.gz) | [`e169cc2c6db24795...`](https://drahtbot.space/guix/bitcoin/bitcoin/95882a14cd7f3520d2091c12e5b7c878403f3f2c/bitcoin-95882a14cd7f-win-unsigned.tar.gz) |\n| *-win64-debug.zip | [`3b59d46a298a3a2c...`](https://drahtbot.space/guix/bitcoin/bitcoin/7be143a960e2bb9ac81144f55c45731c1bb209c5/bitcoin-7be143a960e2-win64-debug.zip) | [`386b0817f211afd9...`](https://drahtbot.space/guix/bitcoin/bitcoin/95882a14cd7f3520d2091c12e5b7c878403f3f2c/bitcoin-95882a14cd7f-win64-debug.zip) |\n| *-win64-setup-unsigned.exe | [`67e33ff1b6a7bf61...`](https://drahtbot.space/guix/bitcoin/bitcoin/7be143a960e2bb9ac81144f55c45731c1bb209c5/bitcoin-7be143a960e2-win64-setup-unsigned.exe) | [`611432558d11405e...`](https://drahtbot.space/guix/bitcoin/bitcoin/95882a14cd7f3520d2091c12e5b7c878403f3f2c/bitcoin-95882a14cd7f-win64-setup-unsigned.exe) |\n| *-win64.zip | [`33a2f981daacd1e4...`](https://drahtbot.space/guix/bitcoin/bitcoin/7be143a960e2bb9ac81144f55c45731c1bb209c5/bitcoin-7be143a960e2-win64.zip) | [`d64c49f56c6b085d...`](https://drahtbot.space/guix/bitcoin/bitcoin/95882a14cd7f3520d2091c12e5b7c878403f3f2c/bitcoin-95882a14cd7f-win64.zip) |\n| *-x86_64-linux-gnu-debug.tar.gz | [`6f170c4fd7b80626...`](https://drahtbot.space/guix/bitcoin/bitcoin/7be143a960e2bb9ac81144f55c45731c1bb209c5/bitcoin-7be143a960e2-x86_64-linux-gnu-debug.tar.gz) | [`ca5e9055904c3915...`](https://drahtbot.space/guix/bitcoin/bitcoin/95882a14cd7f3520d2091c12e5b7c878403f3f2c/bitcoin-95882a14cd7f-x86_64-linux-gnu-debug.tar.gz) |\n| *-x86_64-linux-gnu.tar.gz | [`828530590b831bd3...`](https://drahtbot.space/guix/bitcoin/bitcoin/7be143a960e2bb9ac81144f55c45731c1bb209c5/bitcoin-7be143a960e2-x86_64-linux-gnu.tar.gz) | [`b0e598bb86cdfdb8...`](https://drahtbot.space/guix/bitcoin/bitcoin/95882a14cd7f3520d2091c12e5b7c878403f3f2c/bitcoin-95882a14cd7f-x86_64-linux-gnu.tar.gz) |\n| *.tar.gz | [`6848457fec93774f...`](https://drahtbot.space/guix/bitcoin/bitcoin/7be143a960e2bb9ac81144f55c45731c1bb209c5/bitcoin-7be143a960e2.tar.gz) | [`014684a8be8d5bb2...`](https://drahtbot.space/guix/bitcoin/bitcoin/95882a14cd7f3520d2091c12e5b7c878403f3f2c/bitcoin-95882a14cd7f.tar.gz) |\n| guix_build.log | [`7419572c7e471938...`](https://drahtbot.space/guix/bitcoin/bitcoin/7be143a960e2bb9ac81144f55c45731c1bb209c5/guix_build.log) | [`7aee6495b1c68e8b...`](https://drahtbot.space/guix/bitcoin/bitcoin/95882a14cd7f3520d2091c12e5b7c878403f3f2c/guix_build.log) |\n| guix_build.log.diff |  | [`42614e209da393a2...`](https://drahtbot.space/guix/bitcoin/bitcoin/95882a14cd7f3520d2091c12e5b7c878403f3f2c/guix_build.log.diff) |\n\n",
    "reactions": {
      "url": "https://api.github.com/repos/bitcoin/bitcoin/issues/comments/910491400/reactions",
      "total_count": 0,
      "+1": 0,
      "-1": 0,
      "laugh": 0,
      "hooray": 0,
      "confused": 0,
      "heart": 0,
      "rocket": 0,
      "eyes": 0
    },
    "performed_via_github_app": null
  },
  {
    "url": "https://api.github.com/repos/bitcoin/bitcoin/issues/comments/911050239",
    "html_url": "https://github.com/bitcoin/bitcoin/pull/22840#issuecomment-911050239",
    "issue_url": "https://api.github.com/repos/bitcoin/bitcoin/issues/22840",
    "id": 911050239,
    "node_id": "IC_kwDOABII5842TYX_",
    "user": {
      "login": "fanquake",
      "id": 863730,
      "node_id": "MDQ6VXNlcjg2MzczMA==",
      "avatar_url": "https://avatars.githubusercontent.com/u/863730?v=4",
      "gravatar_id": "",
      "url": "https://api.github.com/users/fanquake",
      "html_url": "https://github.com/fanquake",
      "followers_url": "https://api.github.com/users/fanquake/followers",
      "following_url": "https://api.github.com/users/fanquake/following{/other_user}",
      "gists_url": "https://api.github.com/users/fanquake/gists{/gist_id}",
      "starred_url": "https://api.github.com/users/fanquake/starred{/owner}{/repo}",
      "subscriptions_url": "https://api.github.com/users/fanquake/subscriptions",
      "organizations_url": "https://api.github.com/users/fanquake/orgs",
      "repos_url": "https://api.github.com/users/fanquake/repos",
      "events_url": "https://api.github.com/users/fanquake/events{/privacy}",
      "received_events_url": "https://api.github.com/users/fanquake/received_events",
      "type": "User",
      "site_admin": false
    },
    "created_at": "2021-09-02T02:22:20Z",
    "updated_at": "2021-09-02T02:22:20Z",
    "author_association": "MEMBER",
    "body_html": "<blockquote>\n<p dir=\"auto\">Any idea if Qt is affected?</p>\n</blockquote>\n<p dir=\"auto\">Yes Qt is also unaffected, as we inject our flags into it's build.</p>",
    "body_text": "Any idea if Qt is affected?\n\nYes Qt is also unaffected, as we inject our flags into it's build.",
    "body": "> Any idea if Qt is affected?\r\n\r\nYes Qt is also unaffected, as we inject our flags into it's build.",
    "reactions": {
      "url": "https://api.github.com/repos/bitcoin/bitcoin/issues/comments/911050239/reactions",
      "total_count": 0,
      "+1": 0,
      "-1": 0,
      "laugh": 0,
      "hooray": 0,
      "confused": 0,
      "heart": 0,
      "rocket": 0,
      "eyes": 0
    },
    "performed_via_github_app": null
  }
]
