{
  "url": "https://api.github.com/repos/bitcoin/bitcoin/issues/28464",
  "repository_url": "https://api.github.com/repos/bitcoin/bitcoin",
  "labels_url": "https://api.github.com/repos/bitcoin/bitcoin/issues/28464/labels{/name}",
  "comments_url": "https://api.github.com/repos/bitcoin/bitcoin/issues/28464/comments",
  "events_url": "https://api.github.com/repos/bitcoin/bitcoin/issues/28464/events",
  "html_url": "https://github.com/bitcoin/bitcoin/pull/28464",
  "id": 1893239371,
  "node_id": "PR_kwDOABII585aKyNb",
  "number": 28464,
  "title": "net: improve max-connection limits code",
  "user": {
    "login": "mzumsande",
    "id": 48763452,
    "node_id": "MDQ6VXNlcjQ4NzYzNDUy",
    "avatar_url": "https://avatars.githubusercontent.com/u/48763452?v=4",
    "gravatar_id": "",
    "url": "https://api.github.com/users/mzumsande",
    "html_url": "https://github.com/mzumsande",
    "followers_url": "https://api.github.com/users/mzumsande/followers",
    "following_url": "https://api.github.com/users/mzumsande/following{/other_user}",
    "gists_url": "https://api.github.com/users/mzumsande/gists{/gist_id}",
    "starred_url": "https://api.github.com/users/mzumsande/starred{/owner}{/repo}",
    "subscriptions_url": "https://api.github.com/users/mzumsande/subscriptions",
    "organizations_url": "https://api.github.com/users/mzumsande/orgs",
    "repos_url": "https://api.github.com/users/mzumsande/repos",
    "events_url": "https://api.github.com/users/mzumsande/events{/privacy}",
    "received_events_url": "https://api.github.com/users/mzumsande/received_events",
    "type": "User",
    "site_admin": false
  },
  "labels": [
    {
      "id": 98298007,
      "node_id": "MDU6TGFiZWw5ODI5ODAwNw==",
      "url": "https://api.github.com/repos/bitcoin/bitcoin/labels/P2P",
      "name": "P2P",
      "color": "006b75",
      "default": false,
      "description": null
    }
  ],
  "state": "closed",
  "locked": false,
  "assignee": null,
  "assignees": [

  ],
  "milestone": null,
  "comments": 6,
  "created_at": "2023-09-12T20:47:19Z",
  "updated_at": "2024-03-20T19:59:48Z",
  "closed_at": "2023-11-07T22:01:15Z",
  "author_association": "CONTRIBUTOR",
  "active_lock_reason": null,
  "draft": false,
  "pull_request": {
    "url": "https://api.github.com/repos/bitcoin/bitcoin/pulls/28464",
    "html_url": "https://github.com/bitcoin/bitcoin/pull/28464",
    "diff_url": "https://github.com/bitcoin/bitcoin/pull/28464.diff",
    "patch_url": "https://github.com/bitcoin/bitcoin/pull/28464.patch",
    "merged_at": "2023-11-07T22:01:15Z"
  },
  "body_html": "<p dir=\"auto\">This is joint work with amitiuttarwar.</p>\n<p dir=\"auto\">This has the first few commits of <a class=\"issue-link js-issue-link\" data-error-text=\"Failed to load title\" data-id=\"1893223976\" data-permission-text=\"Title is private\" data-url=\"https://github.com/bitcoin/bitcoin/issues/28463\" data-hovercard-type=\"pull_request\" data-hovercard-url=\"/bitcoin/bitcoin/pull/28463/hovercard\" href=\"https://github.com/bitcoin/bitcoin/pull/28463\">#28463</a>. It is not strictly a prerequisite for that, but has changes that in our opinion make sense on their own.<br>\nIt improves the handling of maximum numbers for different connection types (that are set during init and don’t change after) by:</p>\n<ul dir=\"auto\">\n<li>moving all calculations into one place, <code class=\"notranslate\">CConnMan::Init()</code>. Before, they were dispersed between <code class=\"notranslate\">Init</code>, <code class=\"notranslate\">CConnman::Init</code> and other parts of <code class=\"notranslate\">CConnman</code>, resulting in some duplicated test code.</li>\n<li>removing the possibility of having a negative maximum of inbound connections, which is hard to argue about</li>\n<li>renaming of variables and doc improvements</li>\n</ul>",
  "body_text": "This is joint work with amitiuttarwar.\nThis has the first few commits of #28463. It is not strictly a prerequisite for that, but has changes that in our opinion make sense on their own.\nIt improves the handling of maximum numbers for different connection types (that are set during init and don’t change after) by:\n\nmoving all calculations into one place, CConnMan::Init(). Before, they were dispersed between Init, CConnman::Init and other parts of CConnman, resulting in some duplicated test code.\nremoving the possibility of having a negative maximum of inbound connections, which is hard to argue about\nrenaming of variables and doc improvements",
  "body": "This is joint work with amitiuttarwar.\r\n\r\nThis has the first few commits of #28463. It is not strictly a prerequisite for that, but has changes that in our opinion make sense on their own.\r\nIt improves the handling of maximum numbers for different connection types (that are set during init and don’t change after) by:\r\n* moving all calculations into one place, `CConnMan::Init()`. Before, they were dispersed between `Init`, `CConnman::Init` and other parts of `CConnman`, resulting in some duplicated test code.\r\n* removing the possibility of having a negative maximum of inbound connections, which is hard to argue about\r\n* renaming of variables and doc improvements \r\n",
  "closed_by": {
    "login": "achow101",
    "id": 3782274,
    "node_id": "MDQ6VXNlcjM3ODIyNzQ=",
    "avatar_url": "https://avatars.githubusercontent.com/u/3782274?v=4",
    "gravatar_id": "",
    "url": "https://api.github.com/users/achow101",
    "html_url": "https://github.com/achow101",
    "followers_url": "https://api.github.com/users/achow101/followers",
    "following_url": "https://api.github.com/users/achow101/following{/other_user}",
    "gists_url": "https://api.github.com/users/achow101/gists{/gist_id}",
    "starred_url": "https://api.github.com/users/achow101/starred{/owner}{/repo}",
    "subscriptions_url": "https://api.github.com/users/achow101/subscriptions",
    "organizations_url": "https://api.github.com/users/achow101/orgs",
    "repos_url": "https://api.github.com/users/achow101/repos",
    "events_url": "https://api.github.com/users/achow101/events{/privacy}",
    "received_events_url": "https://api.github.com/users/achow101/received_events",
    "type": "User",
    "site_admin": false
  },
  "reactions": {
    "url": "https://api.github.com/repos/bitcoin/bitcoin/issues/28464/reactions",
    "total_count": 0,
    "+1": 0,
    "-1": 0,
    "laugh": 0,
    "hooray": 0,
    "confused": 0,
    "heart": 0,
    "rocket": 0,
    "eyes": 0
  },
  "timeline_url": "https://api.github.com/repos/bitcoin/bitcoin/issues/28464/timeline",
  "performed_via_github_app": null,
  "state_reason": null
}
