{
  "url": "https://api.github.com/repos/bitcoin/bitcoin/issues/6103",
  "repository_url": "https://api.github.com/repos/bitcoin/bitcoin",
  "labels_url": "https://api.github.com/repos/bitcoin/bitcoin/issues/6103/labels{/name}",
  "comments_url": "https://api.github.com/repos/bitcoin/bitcoin/issues/6103/comments",
  "events_url": "https://api.github.com/repos/bitcoin/bitcoin/issues/6103/events",
  "html_url": "https://github.com/bitcoin/bitcoin/pull/6103",
  "id": 73025891,
  "node_id": "MDExOlB1bGxSZXF1ZXN0MzQ2MzkzMDE=",
  "number": 6103,
  "title": "Add ZeroMQ notifications",
  "user": {
    "login": "promag",
    "id": 3534524,
    "node_id": "MDQ6VXNlcjM1MzQ1MjQ=",
    "avatar_url": "https://avatars.githubusercontent.com/u/3534524?v=4",
    "gravatar_id": "",
    "url": "https://api.github.com/users/promag",
    "html_url": "https://github.com/promag",
    "followers_url": "https://api.github.com/users/promag/followers",
    "following_url": "https://api.github.com/users/promag/following{/other_user}",
    "gists_url": "https://api.github.com/users/promag/gists{/gist_id}",
    "starred_url": "https://api.github.com/users/promag/starred{/owner}{/repo}",
    "subscriptions_url": "https://api.github.com/users/promag/subscriptions",
    "organizations_url": "https://api.github.com/users/promag/orgs",
    "repos_url": "https://api.github.com/users/promag/repos",
    "events_url": "https://api.github.com/users/promag/events{/privacy}",
    "received_events_url": "https://api.github.com/users/promag/received_events",
    "type": "User",
    "site_admin": false
  },
  "labels": [
    {
      "id": 64583,
      "node_id": "MDU6TGFiZWw2NDU4Mw==",
      "url": "https://api.github.com/repos/bitcoin/bitcoin/labels/Feature",
      "name": "Feature",
      "color": "7cf575",
      "default": false,
      "description": null
    }
  ],
  "state": "closed",
  "locked": true,
  "assignee": null,
  "assignees": [

  ],
  "milestone": null,
  "comments": 137,
  "created_at": "2015-05-04T13:58:31Z",
  "updated_at": "2021-09-08T11:17:36Z",
  "closed_at": "2015-09-16T13:14:19Z",
  "author_association": "MEMBER",
  "active_lock_reason": "resolved",
  "draft": false,
  "pull_request": {
    "url": "https://api.github.com/repos/bitcoin/bitcoin/pulls/6103",
    "html_url": "https://github.com/bitcoin/bitcoin/pull/6103",
    "diff_url": "https://github.com/bitcoin/bitcoin/pull/6103.diff",
    "patch_url": "https://github.com/bitcoin/bitcoin/pull/6103.patch",
    "merged_at": "2015-09-16T13:14:19Z"
  },
  "body_html": "<p dir=\"auto\">Continues Johnathan Corgan and Jeff Garzik's work. Supercedes <a class=\"issue-link js-issue-link\" data-error-text=\"Failed to load title\" data-id=\"38850605\" data-permission-text=\"Title is private\" data-url=\"https://github.com/bitcoin/bitcoin/issues/4594\" data-hovercard-type=\"pull_request\" data-hovercard-url=\"/bitcoin/bitcoin/pull/4594/hovercard\" href=\"https://github.com/bitcoin/bitcoin/pull/4594\">#4594</a> and <a class=\"issue-link js-issue-link\" data-error-text=\"Failed to load title\" data-id=\"49262264\" data-permission-text=\"Title is private\" data-url=\"https://github.com/bitcoin/bitcoin/issues/5303\" data-hovercard-type=\"pull_request\" data-hovercard-url=\"/bitcoin/bitcoin/pull/5303/hovercard\" href=\"https://github.com/bitcoin/bitcoin/pull/5303\">#5303</a>.<br>\nAs discussed in <a class=\"issue-link js-issue-link\" data-error-text=\"Failed to load title\" data-id=\"71329572\" data-permission-text=\"Title is private\" data-url=\"https://github.com/bitcoin/bitcoin/issues/6072\" data-hovercard-type=\"pull_request\" data-hovercard-url=\"/bitcoin/bitcoin/pull/6072/hovercard\" href=\"https://github.com/bitcoin/bitcoin/pull/6072\">#6072</a> and <a class=\"issue-link js-issue-link\" data-error-text=\"Failed to load title\" data-id=\"49563887\" data-permission-text=\"Title is private\" data-url=\"https://github.com/bitcoin/bitcoin/issues/5328\" data-hovercard-type=\"pull_request\" data-hovercard-url=\"/bitcoin/bitcoin/pull/5328/hovercard\" href=\"https://github.com/bitcoin/bitcoin/pull/5328\">#5328</a>.</p>",
  "body_text": "Continues Johnathan Corgan and Jeff Garzik's work. Supercedes #4594 and #5303.\nAs discussed in #6072 and #5328.",
  "body": "Continues Johnathan Corgan and Jeff Garzik's work. Supercedes #4594 and #5303.\nAs discussed in #6072 and #5328.\n",
  "closed_by": {
    "login": "jgarzik",
    "id": 494411,
    "node_id": "MDQ6VXNlcjQ5NDQxMQ==",
    "avatar_url": "https://avatars.githubusercontent.com/u/494411?v=4",
    "gravatar_id": "",
    "url": "https://api.github.com/users/jgarzik",
    "html_url": "https://github.com/jgarzik",
    "followers_url": "https://api.github.com/users/jgarzik/followers",
    "following_url": "https://api.github.com/users/jgarzik/following{/other_user}",
    "gists_url": "https://api.github.com/users/jgarzik/gists{/gist_id}",
    "starred_url": "https://api.github.com/users/jgarzik/starred{/owner}{/repo}",
    "subscriptions_url": "https://api.github.com/users/jgarzik/subscriptions",
    "organizations_url": "https://api.github.com/users/jgarzik/orgs",
    "repos_url": "https://api.github.com/users/jgarzik/repos",
    "events_url": "https://api.github.com/users/jgarzik/events{/privacy}",
    "received_events_url": "https://api.github.com/users/jgarzik/received_events",
    "type": "User",
    "site_admin": false
  },
  "reactions": {
    "url": "https://api.github.com/repos/bitcoin/bitcoin/issues/6103/reactions",
    "total_count": 0,
    "+1": 0,
    "-1": 0,
    "laugh": 0,
    "hooray": 0,
    "confused": 0,
    "heart": 0,
    "rocket": 0,
    "eyes": 0
  },
  "timeline_url": "https://api.github.com/repos/bitcoin/bitcoin/issues/6103/timeline",
  "performed_via_github_app": null,
  "state_reason": null
}
