[
  {
    "url": "https://api.github.com/repos/bitcoin/bitcoin/issues/comments/220515470",
    "html_url": "https://github.com/bitcoin/bitcoin/pull/8075#issuecomment-220515470",
    "issue_url": "https://api.github.com/repos/bitcoin/bitcoin/issues/8075",
    "id": 220515470,
    "node_id": "MDEyOklzc3VlQ29tbWVudDIyMDUxNTQ3MA==",
    "user": {
      "login": "sipa",
      "id": 548488,
      "node_id": "MDQ6VXNlcjU0ODQ4OA==",
      "avatar_url": "https://avatars.githubusercontent.com/u/548488?v=4",
      "gravatar_id": "",
      "url": "https://api.github.com/users/sipa",
      "html_url": "https://github.com/sipa",
      "followers_url": "https://api.github.com/users/sipa/followers",
      "following_url": "https://api.github.com/users/sipa/following{/other_user}",
      "gists_url": "https://api.github.com/users/sipa/gists{/gist_id}",
      "starred_url": "https://api.github.com/users/sipa/starred{/owner}{/repo}",
      "subscriptions_url": "https://api.github.com/users/sipa/subscriptions",
      "organizations_url": "https://api.github.com/users/sipa/orgs",
      "repos_url": "https://api.github.com/users/sipa/repos",
      "events_url": "https://api.github.com/users/sipa/events{/privacy}",
      "received_events_url": "https://api.github.com/users/sipa/received_events",
      "type": "User",
      "site_admin": false
    },
    "created_at": "2016-05-20T04:37:53Z",
    "updated_at": "2016-05-20T04:37:53Z",
    "author_association": "MEMBER",
    "body_html": "<p dir=\"auto\">No idea what you're trying to do.</p>",
    "body_text": "No idea what you're trying to do.",
    "body": "No idea what you're trying to do.\n",
    "reactions": {
      "url": "https://api.github.com/repos/bitcoin/bitcoin/issues/comments/220515470/reactions",
      "total_count": 0,
      "+1": 0,
      "-1": 0,
      "laugh": 0,
      "hooray": 0,
      "confused": 0,
      "heart": 0,
      "rocket": 0,
      "eyes": 0
    },
    "performed_via_github_app": null
  }
]
