{
  "url": "https://api.github.com/repos/bitcoin/bitcoin/issues/8467",
  "repository_url": "https://api.github.com/repos/bitcoin/bitcoin",
  "labels_url": "https://api.github.com/repos/bitcoin/bitcoin/issues/8467/labels{/name}",
  "comments_url": "https://api.github.com/repos/bitcoin/bitcoin/issues/8467/comments",
  "events_url": "https://api.github.com/repos/bitcoin/bitcoin/issues/8467/events",
  "html_url": "https://github.com/bitcoin/bitcoin/pull/8467",
  "id": 169678156,
  "node_id": "MDExOlB1bGxSZXF1ZXN0ODAyOTM5MTc=",
  "number": 8467,
  "title": "[Trivial] Do not shadow members in dbwrapper",
  "user": {
    "login": "paveljanik",
    "id": 6848764,
    "node_id": "MDQ6VXNlcjY4NDg3NjQ=",
    "avatar_url": "https://avatars.githubusercontent.com/u/6848764?v=4",
    "gravatar_id": "",
    "url": "https://api.github.com/users/paveljanik",
    "html_url": "https://github.com/paveljanik",
    "followers_url": "https://api.github.com/users/paveljanik/followers",
    "following_url": "https://api.github.com/users/paveljanik/following{/other_user}",
    "gists_url": "https://api.github.com/users/paveljanik/gists{/gist_id}",
    "starred_url": "https://api.github.com/users/paveljanik/starred{/owner}{/repo}",
    "subscriptions_url": "https://api.github.com/users/paveljanik/subscriptions",
    "organizations_url": "https://api.github.com/users/paveljanik/orgs",
    "repos_url": "https://api.github.com/users/paveljanik/repos",
    "events_url": "https://api.github.com/users/paveljanik/events{/privacy}",
    "received_events_url": "https://api.github.com/users/paveljanik/received_events",
    "type": "User",
    "site_admin": false
  },
  "labels": [
    {
      "id": 135961,
      "node_id": "MDU6TGFiZWwxMzU5NjE=",
      "url": "https://api.github.com/repos/bitcoin/bitcoin/labels/Refactoring",
      "name": "Refactoring",
      "color": "E6F6D6",
      "default": false,
      "description": null
    }
  ],
  "state": "closed",
  "locked": true,
  "assignee": null,
  "assignees": [

  ],
  "milestone": null,
  "comments": 5,
  "created_at": "2016-08-05T19:21:45Z",
  "updated_at": "2021-09-08T11:03:18Z",
  "closed_at": "2016-08-10T05:49:33Z",
  "author_association": "CONTRIBUTOR",
  "active_lock_reason": "resolved",
  "draft": false,
  "pull_request": {
    "url": "https://api.github.com/repos/bitcoin/bitcoin/pulls/8467",
    "html_url": "https://github.com/bitcoin/bitcoin/pull/8467",
    "diff_url": "https://github.com/bitcoin/bitcoin/pull/8467.diff",
    "patch_url": "https://github.com/bitcoin/bitcoin/pull/8467.patch",
    "merged_at": "2016-08-10T05:49:33Z"
  },
  "body_html": "<p dir=\"auto\">This is a followup to <a class=\"issue-link js-issue-link\" data-error-text=\"Failed to load title\" data-id=\"157051648\" data-permission-text=\"Title is private\" data-url=\"https://github.com/bitcoin/bitcoin/issues/8105\" data-hovercard-type=\"issue\" data-hovercard-url=\"/bitcoin/bitcoin/issues/8105/hovercard\" href=\"https://github.com/bitcoin/bitcoin/issues/8105\">#8105</a>.</p>\n<p dir=\"auto\"><code class=\"notranslate\">dbwrapper.h</code> code shadows some members. Fixes use underscore prefix (I also migrated <code class=\"notranslate\">piterIn</code> into <code class=\"notranslate\">_piter</code> to follow this style).</p>\n<p dir=\"auto\">For review, compare binaries or compile with <code class=\"notranslate\">-Wshadow</code> and compare complete logs.</p>",
  "body_text": "This is a followup to #8105.\ndbwrapper.h code shadows some members. Fixes use underscore prefix (I also migrated piterIn into _piter to follow this style).\nFor review, compare binaries or compile with -Wshadow and compare complete logs.",
  "body": "This is a followup to #8105.\n\n`dbwrapper.h` code shadows some members. Fixes use underscore prefix (I also migrated `piterIn` into `_piter` to follow this style).\n\nFor review, compare binaries or compile with `-Wshadow` and compare complete logs.\n",
  "closed_by": {
    "login": "sipa",
    "id": 548488,
    "node_id": "MDQ6VXNlcjU0ODQ4OA==",
    "avatar_url": "https://avatars.githubusercontent.com/u/548488?v=4",
    "gravatar_id": "",
    "url": "https://api.github.com/users/sipa",
    "html_url": "https://github.com/sipa",
    "followers_url": "https://api.github.com/users/sipa/followers",
    "following_url": "https://api.github.com/users/sipa/following{/other_user}",
    "gists_url": "https://api.github.com/users/sipa/gists{/gist_id}",
    "starred_url": "https://api.github.com/users/sipa/starred{/owner}{/repo}",
    "subscriptions_url": "https://api.github.com/users/sipa/subscriptions",
    "organizations_url": "https://api.github.com/users/sipa/orgs",
    "repos_url": "https://api.github.com/users/sipa/repos",
    "events_url": "https://api.github.com/users/sipa/events{/privacy}",
    "received_events_url": "https://api.github.com/users/sipa/received_events",
    "type": "User",
    "site_admin": false
  },
  "reactions": {
    "url": "https://api.github.com/repos/bitcoin/bitcoin/issues/8467/reactions",
    "total_count": 0,
    "+1": 0,
    "-1": 0,
    "laugh": 0,
    "hooray": 0,
    "confused": 0,
    "heart": 0,
    "rocket": 0,
    "eyes": 0
  },
  "timeline_url": "https://api.github.com/repos/bitcoin/bitcoin/issues/8467/timeline",
  "performed_via_github_app": null,
  "state_reason": null
}
