[
  {
    "url": "https://api.github.com/repos/bitcoin/bitcoin/issues/comments/168095975",
    "html_url": "https://github.com/bitcoin/bitcoin/pull/7267#issuecomment-168095975",
    "issue_url": "https://api.github.com/repos/bitcoin/bitcoin/issues/7267",
    "id": 168095975,
    "node_id": "MDEyOklzc3VlQ29tbWVudDE2ODA5NTk3NQ==",
    "user": {
      "login": "maflcko",
      "id": 6399679,
      "node_id": "MDQ6VXNlcjYzOTk2Nzk=",
      "avatar_url": "https://avatars.githubusercontent.com/u/6399679?v=4",
      "gravatar_id": "",
      "url": "https://api.github.com/users/maflcko",
      "html_url": "https://github.com/maflcko",
      "followers_url": "https://api.github.com/users/maflcko/followers",
      "following_url": "https://api.github.com/users/maflcko/following{/other_user}",
      "gists_url": "https://api.github.com/users/maflcko/gists{/gist_id}",
      "starred_url": "https://api.github.com/users/maflcko/starred{/owner}{/repo}",
      "subscriptions_url": "https://api.github.com/users/maflcko/subscriptions",
      "organizations_url": "https://api.github.com/users/maflcko/orgs",
      "repos_url": "https://api.github.com/users/maflcko/repos",
      "events_url": "https://api.github.com/users/maflcko/events{/privacy}",
      "received_events_url": "https://api.github.com/users/maflcko/received_events",
      "type": "User",
      "site_admin": false
    },
    "created_at": "2015-12-30T23:40:44Z",
    "updated_at": "2015-12-30T23:40:44Z",
    "author_association": "MEMBER",
    "body_html": "<p dir=\"auto\">Please point this PR @ <a href=\"https://github.com/bitcoin/secp256k1\">https://github.com/bitcoin/secp256k1</a></p>",
    "body_text": "Please point this PR @ https://github.com/bitcoin/secp256k1",
    "body": "Please point this PR @ https://github.com/bitcoin/secp256k1\n",
    "reactions": {
      "url": "https://api.github.com/repos/bitcoin/bitcoin/issues/comments/168095975/reactions",
      "total_count": 0,
      "+1": 0,
      "-1": 0,
      "laugh": 0,
      "hooray": 0,
      "confused": 0,
      "heart": 0,
      "rocket": 0,
      "eyes": 0
    },
    "performed_via_github_app": null
  },
  {
    "url": "https://api.github.com/repos/bitcoin/bitcoin/issues/comments/168096427",
    "html_url": "https://github.com/bitcoin/bitcoin/pull/7267#issuecomment-168096427",
    "issue_url": "https://api.github.com/repos/bitcoin/bitcoin/issues/7267",
    "id": 168096427,
    "node_id": "MDEyOklzc3VlQ29tbWVudDE2ODA5NjQyNw==",
    "user": {
      "login": "doged",
      "id": 9091991,
      "node_id": "MDQ6VXNlcjkwOTE5OTE=",
      "avatar_url": "https://avatars.githubusercontent.com/u/9091991?v=4",
      "gravatar_id": "",
      "url": "https://api.github.com/users/doged",
      "html_url": "https://github.com/doged",
      "followers_url": "https://api.github.com/users/doged/followers",
      "following_url": "https://api.github.com/users/doged/following{/other_user}",
      "gists_url": "https://api.github.com/users/doged/gists{/gist_id}",
      "starred_url": "https://api.github.com/users/doged/starred{/owner}{/repo}",
      "subscriptions_url": "https://api.github.com/users/doged/subscriptions",
      "organizations_url": "https://api.github.com/users/doged/orgs",
      "repos_url": "https://api.github.com/users/doged/repos",
      "events_url": "https://api.github.com/users/doged/events{/privacy}",
      "received_events_url": "https://api.github.com/users/doged/received_events",
      "type": "User",
      "site_admin": false
    },
    "created_at": "2015-12-30T23:45:49Z",
    "updated_at": "2015-12-30T23:45:49Z",
    "author_association": "NONE",
    "body_html": "<p dir=\"auto\">thanks <a class=\"user-mention notranslate\" data-hovercard-type=\"user\" data-hovercard-url=\"/users/MarcoFalke/hovercard\" data-octo-click=\"hovercard-link-click\" data-octo-dimensions=\"link_type:self\" href=\"https://github.com/MarcoFalke\">@MarcoFalke</a></p>",
    "body_text": "thanks @MarcoFalke",
    "body": "thanks @MarcoFalke \n",
    "reactions": {
      "url": "https://api.github.com/repos/bitcoin/bitcoin/issues/comments/168096427/reactions",
      "total_count": 0,
      "+1": 0,
      "-1": 0,
      "laugh": 0,
      "hooray": 0,
      "confused": 0,
      "heart": 0,
      "rocket": 0,
      "eyes": 0
    },
    "performed_via_github_app": null
  }
]
