[
  {
    "url": "https://api.github.com/repos/bitcoin/bitcoin/issues/comments/247104872",
    "html_url": "https://github.com/bitcoin/bitcoin/pull/8731#issuecomment-247104872",
    "issue_url": "https://api.github.com/repos/bitcoin/bitcoin/issues/8731",
    "id": 247104872,
    "node_id": "MDEyOklzc3VlQ29tbWVudDI0NzEwNDg3Mg==",
    "user": {
      "login": "laanwj",
      "id": 126646,
      "node_id": "MDQ6VXNlcjEyNjY0Ng==",
      "avatar_url": "https://avatars.githubusercontent.com/u/126646?v=4",
      "gravatar_id": "",
      "url": "https://api.github.com/users/laanwj",
      "html_url": "https://github.com/laanwj",
      "followers_url": "https://api.github.com/users/laanwj/followers",
      "following_url": "https://api.github.com/users/laanwj/following{/other_user}",
      "gists_url": "https://api.github.com/users/laanwj/gists{/gist_id}",
      "starred_url": "https://api.github.com/users/laanwj/starred{/owner}{/repo}",
      "subscriptions_url": "https://api.github.com/users/laanwj/subscriptions",
      "organizations_url": "https://api.github.com/users/laanwj/orgs",
      "repos_url": "https://api.github.com/users/laanwj/repos",
      "events_url": "https://api.github.com/users/laanwj/events{/privacy}",
      "received_events_url": "https://api.github.com/users/laanwj/received_events",
      "type": "User",
      "site_admin": false
    },
    "created_at": "2016-09-14T18:10:16Z",
    "updated_at": "2016-09-14T18:10:16Z",
    "author_association": "MEMBER",
    "body_html": "<p dir=\"auto\">Can you please stop opening so many debug-related pull requests at once? This is spammy and annoying for the maintainers.</p>\n<p dir=\"auto\">Please first consider if they are interesting for other people or just for your personal debugging session, and if the former (do explain why!), lump them as multiple commits one pull.</p>",
    "body_text": "Can you please stop opening so many debug-related pull requests at once? This is spammy and annoying for the maintainers.\nPlease first consider if they are interesting for other people or just for your personal debugging session, and if the former (do explain why!), lump them as multiple commits one pull.",
    "body": "Can you please stop opening so many debug-related pull requests at once? This is spammy and annoying for the maintainers.\n\nPlease first consider if they are interesting for other people or just for your personal debugging session, and if the former (do explain why!), lump them as multiple commits one pull.\n",
    "reactions": {
      "url": "https://api.github.com/repos/bitcoin/bitcoin/issues/comments/247104872/reactions",
      "total_count": 0,
      "+1": 0,
      "-1": 0,
      "laugh": 0,
      "hooray": 0,
      "confused": 0,
      "heart": 0,
      "rocket": 0,
      "eyes": 0
    },
    "performed_via_github_app": null
  },
  {
    "url": "https://api.github.com/repos/bitcoin/bitcoin/issues/comments/247122625",
    "html_url": "https://github.com/bitcoin/bitcoin/pull/8731#issuecomment-247122625",
    "issue_url": "https://api.github.com/repos/bitcoin/bitcoin/issues/8731",
    "id": 247122625,
    "node_id": "MDEyOklzc3VlQ29tbWVudDI0NzEyMjYyNQ==",
    "user": {
      "login": "maflcko",
      "id": 6399679,
      "node_id": "MDQ6VXNlcjYzOTk2Nzk=",
      "avatar_url": "https://avatars.githubusercontent.com/u/6399679?v=4",
      "gravatar_id": "",
      "url": "https://api.github.com/users/maflcko",
      "html_url": "https://github.com/maflcko",
      "followers_url": "https://api.github.com/users/maflcko/followers",
      "following_url": "https://api.github.com/users/maflcko/following{/other_user}",
      "gists_url": "https://api.github.com/users/maflcko/gists{/gist_id}",
      "starred_url": "https://api.github.com/users/maflcko/starred{/owner}{/repo}",
      "subscriptions_url": "https://api.github.com/users/maflcko/subscriptions",
      "organizations_url": "https://api.github.com/users/maflcko/orgs",
      "repos_url": "https://api.github.com/users/maflcko/repos",
      "events_url": "https://api.github.com/users/maflcko/events{/privacy}",
      "received_events_url": "https://api.github.com/users/maflcko/received_events",
      "type": "User",
      "site_admin": false
    },
    "created_at": "2016-09-14T19:12:55Z",
    "updated_at": "2016-09-14T19:12:55Z",
    "author_association": "MEMBER",
    "body_html": "<p dir=\"auto\"><a class=\"issue-link js-issue-link\" data-error-text=\"Failed to load title\" data-id=\"176991412\" data-permission-text=\"Title is private\" data-url=\"https://github.com/bitcoin/bitcoin/issues/8733\" data-hovercard-type=\"pull_request\" data-hovercard-url=\"/bitcoin/bitcoin/pull/8733/hovercard\" href=\"https://github.com/bitcoin/bitcoin/pull/8733\">#8733</a></p>",
    "body_text": "#8733",
    "body": "#8733\n",
    "reactions": {
      "url": "https://api.github.com/repos/bitcoin/bitcoin/issues/comments/247122625/reactions",
      "total_count": 0,
      "+1": 0,
      "-1": 0,
      "laugh": 0,
      "hooray": 0,
      "confused": 0,
      "heart": 0,
      "rocket": 0,
      "eyes": 0
    },
    "performed_via_github_app": null
  },
  {
    "url": "https://api.github.com/repos/bitcoin/bitcoin/issues/comments/247126235",
    "html_url": "https://github.com/bitcoin/bitcoin/pull/8731#issuecomment-247126235",
    "issue_url": "https://api.github.com/repos/bitcoin/bitcoin/issues/8731",
    "id": 247126235,
    "node_id": "MDEyOklzc3VlQ29tbWVudDI0NzEyNjIzNQ==",
    "user": {
      "login": "rebroad",
      "id": 1530283,
      "node_id": "MDQ6VXNlcjE1MzAyODM=",
      "avatar_url": "https://avatars.githubusercontent.com/u/1530283?v=4",
      "gravatar_id": "",
      "url": "https://api.github.com/users/rebroad",
      "html_url": "https://github.com/rebroad",
      "followers_url": "https://api.github.com/users/rebroad/followers",
      "following_url": "https://api.github.com/users/rebroad/following{/other_user}",
      "gists_url": "https://api.github.com/users/rebroad/gists{/gist_id}",
      "starred_url": "https://api.github.com/users/rebroad/starred{/owner}{/repo}",
      "subscriptions_url": "https://api.github.com/users/rebroad/subscriptions",
      "organizations_url": "https://api.github.com/users/rebroad/orgs",
      "repos_url": "https://api.github.com/users/rebroad/repos",
      "events_url": "https://api.github.com/users/rebroad/events{/privacy}",
      "received_events_url": "https://api.github.com/users/rebroad/received_events",
      "type": "User",
      "site_admin": false
    },
    "created_at": "2016-09-14T19:26:18Z",
    "updated_at": "2016-09-14T19:26:18Z",
    "author_association": "CONTRIBUTOR",
    "body_html": "<p dir=\"auto\"><a class=\"user-mention notranslate\" data-hovercard-type=\"user\" data-hovercard-url=\"/users/MarcoFalke/hovercard\" data-octo-click=\"hovercard-link-click\" data-octo-dimensions=\"link_type:self\" href=\"https://github.com/MarcoFalke\">@MarcoFalke</a> not sure why this has been closed. <a class=\"issue-link js-issue-link\" data-error-text=\"Failed to load title\" data-id=\"176991412\" data-permission-text=\"Title is private\" data-url=\"https://github.com/bitcoin/bitcoin/issues/8733\" data-hovercard-type=\"pull_request\" data-hovercard-url=\"/bitcoin/bitcoin/pull/8733/hovercard\" href=\"https://github.com/bitcoin/bitcoin/pull/8733\">#8733</a> was opened as people on the IRC channel had requested a better understanding of the overall scope of the pull requests which that pull attempted to answer. I was not expecting <a class=\"issue-link js-issue-link\" data-error-text=\"Failed to load title\" data-id=\"176991412\" data-permission-text=\"Title is private\" data-url=\"https://github.com/bitcoin/bitcoin/issues/8733\" data-hovercard-type=\"pull_request\" data-hovercard-url=\"/bitcoin/bitcoin/pull/8733/hovercard\" href=\"https://github.com/bitcoin/bitcoin/pull/8733\">#8733</a> to be merged given the number of commits it contains and therefore was expecting that it was the smaller pull requests which would have been preferred to be merged.</p>\n<p dir=\"auto\">Some guidance on how to get these changes merged would be appreciated as I did just spend about 3 days rebasing them all after a recent merge broke most of them. <a class=\"issue-link js-issue-link\" data-error-text=\"Failed to load title\" data-id=\"176991412\" data-permission-text=\"Title is private\" data-url=\"https://github.com/bitcoin/bitcoin/issues/8733\" data-hovercard-type=\"pull_request\" data-hovercard-url=\"/bitcoin/bitcoin/pull/8733/hovercard\" href=\"https://github.com/bitcoin/bitcoin/pull/8733\">#8733</a> explains the thinking behind them hopefully and the value I see them as having.</p>",
    "body_text": "@MarcoFalke not sure why this has been closed. #8733 was opened as people on the IRC channel had requested a better understanding of the overall scope of the pull requests which that pull attempted to answer. I was not expecting #8733 to be merged given the number of commits it contains and therefore was expecting that it was the smaller pull requests which would have been preferred to be merged.\nSome guidance on how to get these changes merged would be appreciated as I did just spend about 3 days rebasing them all after a recent merge broke most of them. #8733 explains the thinking behind them hopefully and the value I see them as having.",
    "body": "@MarcoFalke not sure why this has been closed. #8733 was opened as people on the IRC channel had requested a better understanding of the overall scope of the pull requests which that pull attempted to answer. I was not expecting #8733 to be merged given the number of commits it contains and therefore was expecting that it was the smaller pull requests which would have been preferred to be merged.\n\nSome guidance on how to get these changes merged would be appreciated as I did just spend about 3 days rebasing them all after a recent merge broke most of them. #8733 explains the thinking behind them hopefully and the value I see them as having.\n",
    "reactions": {
      "url": "https://api.github.com/repos/bitcoin/bitcoin/issues/comments/247126235/reactions",
      "total_count": 0,
      "+1": 0,
      "-1": 0,
      "laugh": 0,
      "hooray": 0,
      "confused": 0,
      "heart": 0,
      "rocket": 0,
      "eyes": 0
    },
    "performed_via_github_app": null
  },
  {
    "url": "https://api.github.com/repos/bitcoin/bitcoin/issues/comments/247127319",
    "html_url": "https://github.com/bitcoin/bitcoin/pull/8731#issuecomment-247127319",
    "issue_url": "https://api.github.com/repos/bitcoin/bitcoin/issues/8731",
    "id": 247127319,
    "node_id": "MDEyOklzc3VlQ29tbWVudDI0NzEyNzMxOQ==",
    "user": {
      "login": "rebroad",
      "id": 1530283,
      "node_id": "MDQ6VXNlcjE1MzAyODM=",
      "avatar_url": "https://avatars.githubusercontent.com/u/1530283?v=4",
      "gravatar_id": "",
      "url": "https://api.github.com/users/rebroad",
      "html_url": "https://github.com/rebroad",
      "followers_url": "https://api.github.com/users/rebroad/followers",
      "following_url": "https://api.github.com/users/rebroad/following{/other_user}",
      "gists_url": "https://api.github.com/users/rebroad/gists{/gist_id}",
      "starred_url": "https://api.github.com/users/rebroad/starred{/owner}{/repo}",
      "subscriptions_url": "https://api.github.com/users/rebroad/subscriptions",
      "organizations_url": "https://api.github.com/users/rebroad/orgs",
      "repos_url": "https://api.github.com/users/rebroad/repos",
      "events_url": "https://api.github.com/users/rebroad/events{/privacy}",
      "received_events_url": "https://api.github.com/users/rebroad/received_events",
      "type": "User",
      "site_admin": false
    },
    "created_at": "2016-09-14T19:30:10Z",
    "updated_at": "2016-09-14T19:30:10Z",
    "author_association": "CONTRIBUTOR",
    "body_html": "<p dir=\"auto\"><a class=\"user-mention notranslate\" data-hovercard-type=\"user\" data-hovercard-url=\"/users/laanwj/hovercard\" data-octo-click=\"hovercard-link-click\" data-octo-dimensions=\"link_type:self\" href=\"https://github.com/laanwj\">@laanwj</a> Apologies. I was not sure how best to proceed and originally thought that a pull request with 20 commits would be more overwhelming than having a number of smaller pull requests. I will re-read the contribution guidelines as perhaps I overlooked this recommendation.</p>",
    "body_text": "@laanwj Apologies. I was not sure how best to proceed and originally thought that a pull request with 20 commits would be more overwhelming than having a number of smaller pull requests. I will re-read the contribution guidelines as perhaps I overlooked this recommendation.",
    "body": "@laanwj Apologies. I was not sure how best to proceed and originally thought that a pull request with 20 commits would be more overwhelming than having a number of smaller pull requests. I will re-read the contribution guidelines as perhaps I overlooked this recommendation.\n",
    "reactions": {
      "url": "https://api.github.com/repos/bitcoin/bitcoin/issues/comments/247127319/reactions",
      "total_count": 0,
      "+1": 0,
      "-1": 0,
      "laugh": 0,
      "hooray": 0,
      "confused": 0,
      "heart": 0,
      "rocket": 0,
      "eyes": 0
    },
    "performed_via_github_app": null
  },
  {
    "url": "https://api.github.com/repos/bitcoin/bitcoin/issues/comments/247128971",
    "html_url": "https://github.com/bitcoin/bitcoin/pull/8731#issuecomment-247128971",
    "issue_url": "https://api.github.com/repos/bitcoin/bitcoin/issues/8731",
    "id": 247128971,
    "node_id": "MDEyOklzc3VlQ29tbWVudDI0NzEyODk3MQ==",
    "user": {
      "login": "rebroad",
      "id": 1530283,
      "node_id": "MDQ6VXNlcjE1MzAyODM=",
      "avatar_url": "https://avatars.githubusercontent.com/u/1530283?v=4",
      "gravatar_id": "",
      "url": "https://api.github.com/users/rebroad",
      "html_url": "https://github.com/rebroad",
      "followers_url": "https://api.github.com/users/rebroad/followers",
      "following_url": "https://api.github.com/users/rebroad/following{/other_user}",
      "gists_url": "https://api.github.com/users/rebroad/gists{/gist_id}",
      "starred_url": "https://api.github.com/users/rebroad/starred{/owner}{/repo}",
      "subscriptions_url": "https://api.github.com/users/rebroad/subscriptions",
      "organizations_url": "https://api.github.com/users/rebroad/orgs",
      "repos_url": "https://api.github.com/users/rebroad/repos",
      "events_url": "https://api.github.com/users/rebroad/events{/privacy}",
      "received_events_url": "https://api.github.com/users/rebroad/received_events",
      "type": "User",
      "site_admin": false
    },
    "created_at": "2016-09-14T19:36:24Z",
    "updated_at": "2016-09-14T19:36:24Z",
    "author_association": "CONTRIBUTOR",
    "body_html": "<p dir=\"auto\"><a class=\"user-mention notranslate\" data-hovercard-type=\"user\" data-hovercard-url=\"/users/laanwj/hovercard\" data-octo-click=\"hovercard-link-click\" data-octo-dimensions=\"link_type:self\" href=\"https://github.com/laanwj\">@laanwj</a> I have just re-read the contribution guidelines. They say \"Please also avoid super pull requests which attempt to do too much, are overly large, or overly complex as this makes review difficult.\" - wihich is what I was trying to avoid until I was advised otherwise. Is the contribution still correct? I am unsure without clarification of this apparent contradiction how to proceed in the future, or indeed what is considered \"too much\" since this is a subjective term</p>",
    "body_text": "@laanwj I have just re-read the contribution guidelines. They say \"Please also avoid super pull requests which attempt to do too much, are overly large, or overly complex as this makes review difficult.\" - wihich is what I was trying to avoid until I was advised otherwise. Is the contribution still correct? I am unsure without clarification of this apparent contradiction how to proceed in the future, or indeed what is considered \"too much\" since this is a subjective term",
    "body": "@laanwj I have just re-read the contribution guidelines. They say \"Please also avoid super pull requests which attempt to do too much, are overly large, or overly complex as this makes review difficult.\" - wihich is what I was trying to avoid until I was advised otherwise. Is the contribution still correct? I am unsure without clarification of this apparent contradiction how to proceed in the future, or indeed what is considered \"too much\" since this is a subjective term\n",
    "reactions": {
      "url": "https://api.github.com/repos/bitcoin/bitcoin/issues/comments/247128971/reactions",
      "total_count": 0,
      "+1": 0,
      "-1": 0,
      "laugh": 0,
      "hooray": 0,
      "confused": 0,
      "heart": 0,
      "rocket": 0,
      "eyes": 0
    },
    "performed_via_github_app": null
  },
  {
    "url": "https://api.github.com/repos/bitcoin/bitcoin/issues/comments/247134417",
    "html_url": "https://github.com/bitcoin/bitcoin/pull/8731#issuecomment-247134417",
    "issue_url": "https://api.github.com/repos/bitcoin/bitcoin/issues/8731",
    "id": 247134417,
    "node_id": "MDEyOklzc3VlQ29tbWVudDI0NzEzNDQxNw==",
    "user": {
      "login": "maflcko",
      "id": 6399679,
      "node_id": "MDQ6VXNlcjYzOTk2Nzk=",
      "avatar_url": "https://avatars.githubusercontent.com/u/6399679?v=4",
      "gravatar_id": "",
      "url": "https://api.github.com/users/maflcko",
      "html_url": "https://github.com/maflcko",
      "followers_url": "https://api.github.com/users/maflcko/followers",
      "following_url": "https://api.github.com/users/maflcko/following{/other_user}",
      "gists_url": "https://api.github.com/users/maflcko/gists{/gist_id}",
      "starred_url": "https://api.github.com/users/maflcko/starred{/owner}{/repo}",
      "subscriptions_url": "https://api.github.com/users/maflcko/subscriptions",
      "organizations_url": "https://api.github.com/users/maflcko/orgs",
      "repos_url": "https://api.github.com/users/maflcko/repos",
      "events_url": "https://api.github.com/users/maflcko/events{/privacy}",
      "received_events_url": "https://api.github.com/users/maflcko/received_events",
      "type": "User",
      "site_admin": false
    },
    "created_at": "2016-09-14T19:57:02Z",
    "updated_at": "2016-09-14T19:57:02Z",
    "author_association": "MEMBER",
    "body_html": "<p dir=\"auto\"><a class=\"user-mention notranslate\" data-hovercard-type=\"user\" data-hovercard-url=\"/users/rebroad/hovercard\" data-octo-click=\"hovercard-link-click\" data-octo-dimensions=\"link_type:self\" href=\"https://github.com/rebroad\">@rebroad</a> On the topic of \"super pull requests\": Take a look at <a class=\"issue-link js-issue-link\" data-error-text=\"Failed to load title\" data-id=\"86929341\" data-permission-text=\"Title is private\" data-url=\"https://github.com/bitcoin/bitcoin/issues/6265\" data-hovercard-type=\"pull_request\" data-hovercard-url=\"/bitcoin/bitcoin/pull/6265/hovercard\" href=\"https://github.com/bitcoin/bitcoin/pull/6265\">#6265</a>, which is without doubt useful and should have been merged. However, there was too much code and it was impossible to review and make sure that our quality standards are met. Keep in mind that more code increases the likelihood of merge conflicts, which need to be solved and thus invalidate any review that was done up to this point.</p>\n<p dir=\"auto\">Usually it makes sense to split pull requests into topics (we use labels to indicate different modules, etc) and then make clear what the motivation for the pull is and include it in the pull request. E.g. 8501 introduces a new module and exposes some data on the rpc interface. 8550 builds on top of that and introduces new functionality to the gui.</p>\n<p dir=\"auto\">For your \"granular debug\" pull request(s), often, the motivation for individual commits is not clear and it could be argued (by some) that the exact opposite of what the commit tries to achieve should be done. Trivial commits which will result in a lot of discussion but do not solve an open issue (<a href=\"https://github.com/bitcoin/bitcoin/issues\">https://github.com/bitcoin/bitcoin/issues</a>) are usually considered waste of review time and the pulls will be closed.</p>\n<p dir=\"auto\">Also, seeing a bunch of \"debug \" pulls being opened and then some of them fail the travis compile step (which indicates you most likely didn't try to compile them on your own)  does not help to attract reviewers.</p>",
    "body_text": "@rebroad On the topic of \"super pull requests\": Take a look at #6265, which is without doubt useful and should have been merged. However, there was too much code and it was impossible to review and make sure that our quality standards are met. Keep in mind that more code increases the likelihood of merge conflicts, which need to be solved and thus invalidate any review that was done up to this point.\nUsually it makes sense to split pull requests into topics (we use labels to indicate different modules, etc) and then make clear what the motivation for the pull is and include it in the pull request. E.g. 8501 introduces a new module and exposes some data on the rpc interface. 8550 builds on top of that and introduces new functionality to the gui.\nFor your \"granular debug\" pull request(s), often, the motivation for individual commits is not clear and it could be argued (by some) that the exact opposite of what the commit tries to achieve should be done. Trivial commits which will result in a lot of discussion but do not solve an open issue (https://github.com/bitcoin/bitcoin/issues) are usually considered waste of review time and the pulls will be closed.\nAlso, seeing a bunch of \"debug \" pulls being opened and then some of them fail the travis compile step (which indicates you most likely didn't try to compile them on your own)  does not help to attract reviewers.",
    "body": "@rebroad On the topic of \"super pull requests\": Take a look at #6265, which is without doubt useful and should have been merged. However, there was too much code and it was impossible to review and make sure that our quality standards are met. Keep in mind that more code increases the likelihood of merge conflicts, which need to be solved and thus invalidate any review that was done up to this point.\n\nUsually it makes sense to split pull requests into topics (we use labels to indicate different modules, etc) and then make clear what the motivation for the pull is and include it in the pull request. E.g. 8501 introduces a new module and exposes some data on the rpc interface. 8550 builds on top of that and introduces new functionality to the gui.\n\nFor your \"granular debug\" pull request(s), often, the motivation for individual commits is not clear and it could be argued (by some) that the exact opposite of what the commit tries to achieve should be done. Trivial commits which will result in a lot of discussion but do not solve an open issue (https://github.com/bitcoin/bitcoin/issues) are usually considered waste of review time and the pulls will be closed.\n\nAlso, seeing a bunch of \"debug <some number>\" pulls being opened and then some of them fail the travis compile step (which indicates you most likely didn't try to compile them on your own)  does not help to attract reviewers.\n",
    "reactions": {
      "url": "https://api.github.com/repos/bitcoin/bitcoin/issues/comments/247134417/reactions",
      "total_count": 2,
      "+1": 2,
      "-1": 0,
      "laugh": 0,
      "hooray": 0,
      "confused": 0,
      "heart": 0,
      "rocket": 0,
      "eyes": 0
    },
    "performed_via_github_app": null
  },
  {
    "url": "https://api.github.com/repos/bitcoin/bitcoin/issues/comments/247250527",
    "html_url": "https://github.com/bitcoin/bitcoin/pull/8731#issuecomment-247250527",
    "issue_url": "https://api.github.com/repos/bitcoin/bitcoin/issues/8731",
    "id": 247250527,
    "node_id": "MDEyOklzc3VlQ29tbWVudDI0NzI1MDUyNw==",
    "user": {
      "login": "rebroad",
      "id": 1530283,
      "node_id": "MDQ6VXNlcjE1MzAyODM=",
      "avatar_url": "https://avatars.githubusercontent.com/u/1530283?v=4",
      "gravatar_id": "",
      "url": "https://api.github.com/users/rebroad",
      "html_url": "https://github.com/rebroad",
      "followers_url": "https://api.github.com/users/rebroad/followers",
      "following_url": "https://api.github.com/users/rebroad/following{/other_user}",
      "gists_url": "https://api.github.com/users/rebroad/gists{/gist_id}",
      "starred_url": "https://api.github.com/users/rebroad/starred{/owner}{/repo}",
      "subscriptions_url": "https://api.github.com/users/rebroad/subscriptions",
      "organizations_url": "https://api.github.com/users/rebroad/orgs",
      "repos_url": "https://api.github.com/users/rebroad/repos",
      "events_url": "https://api.github.com/users/rebroad/events{/privacy}",
      "received_events_url": "https://api.github.com/users/rebroad/received_events",
      "type": "User",
      "site_admin": false
    },
    "created_at": "2016-09-15T06:54:15Z",
    "updated_at": "2016-09-15T06:54:28Z",
    "author_association": "CONTRIBUTOR",
    "body_html": "<p dir=\"auto\"><a class=\"user-mention notranslate\" data-hovercard-type=\"user\" data-hovercard-url=\"/users/MarcoFalke/hovercard\" data-octo-click=\"hovercard-link-click\" data-octo-dimensions=\"link_type:self\" href=\"https://github.com/MarcoFalke\">@MarcoFalke</a> Thanks for the useful feedback. Much appreciated. I will make a note to look at the open issues more often, although I could easily create an issue prior to creating the pull request if this would help. I know I've submitted pulls in the past that didn't compile, and I've revised my procedure to reduce this likelihood. All the commits were tested before I raised them in the last 24 hours, and although travis reported failures, it was only on certain architectures - I have yet to understand why this happens!</p>",
    "body_text": "@MarcoFalke Thanks for the useful feedback. Much appreciated. I will make a note to look at the open issues more often, although I could easily create an issue prior to creating the pull request if this would help. I know I've submitted pulls in the past that didn't compile, and I've revised my procedure to reduce this likelihood. All the commits were tested before I raised them in the last 24 hours, and although travis reported failures, it was only on certain architectures - I have yet to understand why this happens!",
    "body": "@MarcoFalke Thanks for the useful feedback. Much appreciated. I will make a note to look at the open issues more often, although I could easily create an issue prior to creating the pull request if this would help. I know I've submitted pulls in the past that didn't compile, and I've revised my procedure to reduce this likelihood. All the commits were tested before I raised them in the last 24 hours, and although travis reported failures, it was only on certain architectures - I have yet to understand why this happens!\n",
    "reactions": {
      "url": "https://api.github.com/repos/bitcoin/bitcoin/issues/comments/247250527/reactions",
      "total_count": 0,
      "+1": 0,
      "-1": 0,
      "laugh": 0,
      "hooray": 0,
      "confused": 0,
      "heart": 0,
      "rocket": 0,
      "eyes": 0
    },
    "performed_via_github_app": null
  }
]
