{
  "url": "https://api.github.com/repos/bitcoin/bitcoin/issues/2306",
  "repository_url": "https://api.github.com/repos/bitcoin/bitcoin",
  "labels_url": "https://api.github.com/repos/bitcoin/bitcoin/issues/2306/labels{/name}",
  "comments_url": "https://api.github.com/repos/bitcoin/bitcoin/issues/2306/comments",
  "events_url": "https://api.github.com/repos/bitcoin/bitcoin/issues/2306/events",
  "html_url": "https://github.com/bitcoin/bitcoin/issues/2306",
  "id": 10978299,
  "node_id": "MDU6SXNzdWUxMDk3ODI5OQ==",
  "number": 2306,
  "title": " ShrinkDebugFile has a file descriptor leak",
  "user": {
    "login": "dajohi",
    "id": 3308193,
    "node_id": "MDQ6VXNlcjMzMDgxOTM=",
    "avatar_url": "https://avatars.githubusercontent.com/u/3308193?v=4",
    "gravatar_id": "",
    "url": "https://api.github.com/users/dajohi",
    "html_url": "https://github.com/dajohi",
    "followers_url": "https://api.github.com/users/dajohi/followers",
    "following_url": "https://api.github.com/users/dajohi/following{/other_user}",
    "gists_url": "https://api.github.com/users/dajohi/gists{/gist_id}",
    "starred_url": "https://api.github.com/users/dajohi/starred{/owner}{/repo}",
    "subscriptions_url": "https://api.github.com/users/dajohi/subscriptions",
    "organizations_url": "https://api.github.com/users/dajohi/orgs",
    "repos_url": "https://api.github.com/users/dajohi/repos",
    "events_url": "https://api.github.com/users/dajohi/events{/privacy}",
    "received_events_url": "https://api.github.com/users/dajohi/received_events",
    "type": "User",
    "site_admin": false
  },
  "labels": [
    {
      "id": 64585,
      "node_id": "MDU6TGFiZWw2NDU4NQ==",
      "url": "https://api.github.com/repos/bitcoin/bitcoin/labels/Bug",
      "name": "Bug",
      "color": "FBBAAB",
      "default": false,
      "description": null
    }
  ],
  "state": "closed",
  "locked": true,
  "assignee": null,
  "assignees": [

  ],
  "milestone": null,
  "comments": 3,
  "created_at": "2013-02-13T23:46:35Z",
  "updated_at": "2021-09-08T12:41:47Z",
  "closed_at": "2013-04-29T22:08:44Z",
  "author_association": "CONTRIBUTOR",
  "active_lock_reason": "resolved",
  "body_html": "<p dir=\"auto\">if (file &amp;&amp; GetFilesize(file) &gt; 10 * 1000000)</p>\n<p dir=\"auto\">if the latter is false, file is never fclose'd</p>",
  "body_text": "if (file && GetFilesize(file) > 10 * 1000000)\nif the latter is false, file is never fclose'd",
  "body": "if (file && GetFilesize(file) > 10 \\* 1000000)\n\n if the latter is false, file is never fclose'd\n",
  "closed_by": {
    "login": "sipa",
    "id": 548488,
    "node_id": "MDQ6VXNlcjU0ODQ4OA==",
    "avatar_url": "https://avatars.githubusercontent.com/u/548488?v=4",
    "gravatar_id": "",
    "url": "https://api.github.com/users/sipa",
    "html_url": "https://github.com/sipa",
    "followers_url": "https://api.github.com/users/sipa/followers",
    "following_url": "https://api.github.com/users/sipa/following{/other_user}",
    "gists_url": "https://api.github.com/users/sipa/gists{/gist_id}",
    "starred_url": "https://api.github.com/users/sipa/starred{/owner}{/repo}",
    "subscriptions_url": "https://api.github.com/users/sipa/subscriptions",
    "organizations_url": "https://api.github.com/users/sipa/orgs",
    "repos_url": "https://api.github.com/users/sipa/repos",
    "events_url": "https://api.github.com/users/sipa/events{/privacy}",
    "received_events_url": "https://api.github.com/users/sipa/received_events",
    "type": "User",
    "site_admin": false
  },
  "reactions": {
    "url": "https://api.github.com/repos/bitcoin/bitcoin/issues/2306/reactions",
    "total_count": 0,
    "+1": 0,
    "-1": 0,
    "laugh": 0,
    "hooray": 0,
    "confused": 0,
    "heart": 0,
    "rocket": 0,
    "eyes": 0
  },
  "timeline_url": "https://api.github.com/repos/bitcoin/bitcoin/issues/2306/timeline",
  "performed_via_github_app": null,
  "state_reason": "completed"
}
