[
  {
    "url": "https://api.github.com/repos/bitcoin/bitcoin/issues/comments/196324378",
    "html_url": "https://github.com/bitcoin/bitcoin/pull/7682#issuecomment-196324378",
    "issue_url": "https://api.github.com/repos/bitcoin/bitcoin/issues/7682",
    "id": 196324378,
    "node_id": "MDEyOklzc3VlQ29tbWVudDE5NjMyNDM3OA==",
    "user": {
      "login": "laanwj",
      "id": 126646,
      "node_id": "MDQ6VXNlcjEyNjY0Ng==",
      "avatar_url": "https://avatars.githubusercontent.com/u/126646?v=4",
      "gravatar_id": "",
      "url": "https://api.github.com/users/laanwj",
      "html_url": "https://github.com/laanwj",
      "followers_url": "https://api.github.com/users/laanwj/followers",
      "following_url": "https://api.github.com/users/laanwj/following{/other_user}",
      "gists_url": "https://api.github.com/users/laanwj/gists{/gist_id}",
      "starred_url": "https://api.github.com/users/laanwj/starred{/owner}{/repo}",
      "subscriptions_url": "https://api.github.com/users/laanwj/subscriptions",
      "organizations_url": "https://api.github.com/users/laanwj/orgs",
      "repos_url": "https://api.github.com/users/laanwj/repos",
      "events_url": "https://api.github.com/users/laanwj/events{/privacy}",
      "received_events_url": "https://api.github.com/users/laanwj/received_events",
      "type": "User",
      "site_admin": false
    },
    "created_at": "2016-03-14T14:12:40Z",
    "updated_at": "2016-03-14T14:12:40Z",
    "author_association": "MEMBER",
    "body_html": "<p dir=\"auto\">Maybe this can be part of <a class=\"issue-link js-issue-link\" data-error-text=\"Failed to load title\" data-id=\"117485017\" data-permission-text=\"Title is private\" data-url=\"https://github.com/bitcoin/bitcoin/issues/7047\" data-hovercard-type=\"pull_request\" data-hovercard-url=\"/bitcoin/bitcoin/pull/7047/hovercard\" href=\"https://github.com/bitcoin/bitcoin/pull/7047\">#7047</a>?</p>",
    "body_text": "Maybe this can be part of #7047?",
    "body": "Maybe this can be part of #7047?\n",
    "reactions": {
      "url": "https://api.github.com/repos/bitcoin/bitcoin/issues/comments/196324378/reactions",
      "total_count": 0,
      "+1": 0,
      "-1": 0,
      "laugh": 0,
      "hooray": 0,
      "confused": 0,
      "heart": 0,
      "rocket": 0,
      "eyes": 0
    },
    "performed_via_github_app": null
  },
  {
    "url": "https://api.github.com/repos/bitcoin/bitcoin/issues/comments/196326844",
    "html_url": "https://github.com/bitcoin/bitcoin/pull/7682#issuecomment-196326844",
    "issue_url": "https://api.github.com/repos/bitcoin/bitcoin/issues/7682",
    "id": 196326844,
    "node_id": "MDEyOklzc3VlQ29tbWVudDE5NjMyNjg0NA==",
    "user": {
      "login": "maflcko",
      "id": 6399679,
      "node_id": "MDQ6VXNlcjYzOTk2Nzk=",
      "avatar_url": "https://avatars.githubusercontent.com/u/6399679?v=4",
      "gravatar_id": "",
      "url": "https://api.github.com/users/maflcko",
      "html_url": "https://github.com/maflcko",
      "followers_url": "https://api.github.com/users/maflcko/followers",
      "following_url": "https://api.github.com/users/maflcko/following{/other_user}",
      "gists_url": "https://api.github.com/users/maflcko/gists{/gist_id}",
      "starred_url": "https://api.github.com/users/maflcko/starred{/owner}{/repo}",
      "subscriptions_url": "https://api.github.com/users/maflcko/subscriptions",
      "organizations_url": "https://api.github.com/users/maflcko/orgs",
      "repos_url": "https://api.github.com/users/maflcko/repos",
      "events_url": "https://api.github.com/users/maflcko/events{/privacy}",
      "received_events_url": "https://api.github.com/users/maflcko/received_events",
      "type": "User",
      "site_admin": false
    },
    "created_at": "2016-03-14T14:18:24Z",
    "updated_at": "2016-03-14T14:18:24Z",
    "author_association": "MEMBER",
    "body_html": "<blockquote>\n<p dir=\"auto\">Maybe this can be part of <a class=\"issue-link js-issue-link\" data-error-text=\"Failed to load title\" data-id=\"117485017\" data-permission-text=\"Title is private\" data-url=\"https://github.com/bitcoin/bitcoin/issues/7047\" data-hovercard-type=\"pull_request\" data-hovercard-url=\"/bitcoin/bitcoin/pull/7047/hovercard\" href=\"https://github.com/bitcoin/bitcoin/pull/7047\">#7047</a>?</p>\n</blockquote>\n<p dir=\"auto\">The other pull has quite a lot of code which is not tested nor reviewed for correct backport...</p>",
    "body_text": "Maybe this can be part of #7047?\n\nThe other pull has quite a lot of code which is not tested nor reviewed for correct backport...",
    "body": "> Maybe this can be part of #7047?\n\nThe other pull has quite a lot of code which is not tested nor reviewed for correct backport...\n",
    "reactions": {
      "url": "https://api.github.com/repos/bitcoin/bitcoin/issues/comments/196326844/reactions",
      "total_count": 0,
      "+1": 0,
      "-1": 0,
      "laugh": 0,
      "hooray": 0,
      "confused": 0,
      "heart": 0,
      "rocket": 0,
      "eyes": 0
    },
    "performed_via_github_app": null
  },
  {
    "url": "https://api.github.com/repos/bitcoin/bitcoin/issues/comments/196712267",
    "html_url": "https://github.com/bitcoin/bitcoin/pull/7682#issuecomment-196712267",
    "issue_url": "https://api.github.com/repos/bitcoin/bitcoin/issues/7682",
    "id": 196712267,
    "node_id": "MDEyOklzc3VlQ29tbWVudDE5NjcxMjI2Nw==",
    "user": {
      "login": "laanwj",
      "id": 126646,
      "node_id": "MDQ6VXNlcjEyNjY0Ng==",
      "avatar_url": "https://avatars.githubusercontent.com/u/126646?v=4",
      "gravatar_id": "",
      "url": "https://api.github.com/users/laanwj",
      "html_url": "https://github.com/laanwj",
      "followers_url": "https://api.github.com/users/laanwj/followers",
      "following_url": "https://api.github.com/users/laanwj/following{/other_user}",
      "gists_url": "https://api.github.com/users/laanwj/gists{/gist_id}",
      "starred_url": "https://api.github.com/users/laanwj/starred{/owner}{/repo}",
      "subscriptions_url": "https://api.github.com/users/laanwj/subscriptions",
      "organizations_url": "https://api.github.com/users/laanwj/orgs",
      "repos_url": "https://api.github.com/users/laanwj/repos",
      "events_url": "https://api.github.com/users/laanwj/events{/privacy}",
      "received_events_url": "https://api.github.com/users/laanwj/received_events",
      "type": "User",
      "site_admin": false
    },
    "created_at": "2016-03-15T08:19:20Z",
    "updated_at": "2016-03-15T08:19:20Z",
    "author_association": "MEMBER",
    "body_html": "<p dir=\"auto\">utACK <a class=\"commit-link\" data-hovercard-type=\"commit\" data-hovercard-url=\"https://github.com/bitcoin/bitcoin/commit/7e1f9750b6d5c66eaa95feb433a75f6d008d2920/hovercard\" href=\"https://github.com/bitcoin/bitcoin/commit/7e1f9750b6d5c66eaa95feb433a75f6d008d2920\"><tt>7e1f975</tt></a></p>",
    "body_text": "utACK 7e1f975",
    "body": "utACK 7e1f975\n",
    "reactions": {
      "url": "https://api.github.com/repos/bitcoin/bitcoin/issues/comments/196712267/reactions",
      "total_count": 0,
      "+1": 0,
      "-1": 0,
      "laugh": 0,
      "hooray": 0,
      "confused": 0,
      "heart": 0,
      "rocket": 0,
      "eyes": 0
    },
    "performed_via_github_app": null
  }
]
