[
  {
    "url": "https://api.github.com/repos/bitcoin/bitcoin/issues/comments/4988386",
    "html_url": "https://github.com/bitcoin/bitcoin/issues/1048#issuecomment-4988386",
    "issue_url": "https://api.github.com/repos/bitcoin/bitcoin/issues/1048",
    "id": 4988386,
    "node_id": "MDEyOklzc3VlQ29tbWVudDQ5ODgzODY=",
    "user": {
      "login": "luke-jr",
      "id": 1095675,
      "node_id": "MDQ6VXNlcjEwOTU2NzU=",
      "avatar_url": "https://avatars.githubusercontent.com/u/1095675?v=4",
      "gravatar_id": "",
      "url": "https://api.github.com/users/luke-jr",
      "html_url": "https://github.com/luke-jr",
      "followers_url": "https://api.github.com/users/luke-jr/followers",
      "following_url": "https://api.github.com/users/luke-jr/following{/other_user}",
      "gists_url": "https://api.github.com/users/luke-jr/gists{/gist_id}",
      "starred_url": "https://api.github.com/users/luke-jr/starred{/owner}{/repo}",
      "subscriptions_url": "https://api.github.com/users/luke-jr/subscriptions",
      "organizations_url": "https://api.github.com/users/luke-jr/orgs",
      "repos_url": "https://api.github.com/users/luke-jr/repos",
      "events_url": "https://api.github.com/users/luke-jr/events{/privacy}",
      "received_events_url": "https://api.github.com/users/luke-jr/received_events",
      "type": "User",
      "site_admin": false
    },
    "created_at": "2012-04-05T23:56:45Z",
    "updated_at": "2012-04-05T23:56:45Z",
    "author_association": "MEMBER",
    "body_html": "<p dir=\"auto\">Can you bisect it?</p>",
    "body_text": "Can you bisect it?",
    "body": "Can you bisect it?\n",
    "reactions": {
      "url": "https://api.github.com/repos/bitcoin/bitcoin/issues/comments/4988386/reactions",
      "total_count": 0,
      "+1": 0,
      "-1": 0,
      "laugh": 0,
      "hooray": 0,
      "confused": 0,
      "heart": 0,
      "rocket": 0,
      "eyes": 0
    },
    "performed_via_github_app": null
  },
  {
    "url": "https://api.github.com/repos/bitcoin/bitcoin/issues/comments/4988550",
    "html_url": "https://github.com/bitcoin/bitcoin/issues/1048#issuecomment-4988550",
    "issue_url": "https://api.github.com/repos/bitcoin/bitcoin/issues/1048",
    "id": 4988550,
    "node_id": "MDEyOklzc3VlQ29tbWVudDQ5ODg1NTA=",
    "user": {
      "login": "sipa",
      "id": 548488,
      "node_id": "MDQ6VXNlcjU0ODQ4OA==",
      "avatar_url": "https://avatars.githubusercontent.com/u/548488?v=4",
      "gravatar_id": "",
      "url": "https://api.github.com/users/sipa",
      "html_url": "https://github.com/sipa",
      "followers_url": "https://api.github.com/users/sipa/followers",
      "following_url": "https://api.github.com/users/sipa/following{/other_user}",
      "gists_url": "https://api.github.com/users/sipa/gists{/gist_id}",
      "starred_url": "https://api.github.com/users/sipa/starred{/owner}{/repo}",
      "subscriptions_url": "https://api.github.com/users/sipa/subscriptions",
      "organizations_url": "https://api.github.com/users/sipa/orgs",
      "repos_url": "https://api.github.com/users/sipa/repos",
      "events_url": "https://api.github.com/users/sipa/events{/privacy}",
      "received_events_url": "https://api.github.com/users/sipa/received_events",
      "type": "User",
      "site_admin": false
    },
    "created_at": "2012-04-06T00:12:15Z",
    "updated_at": "2012-04-06T00:12:15Z",
    "author_association": "MEMBER",
    "body_html": "<p dir=\"auto\">This happens without anything in the bitcoin data directory?</p>",
    "body_text": "This happens without anything in the bitcoin data directory?",
    "body": "This happens without anything in the bitcoin data directory?\n",
    "reactions": {
      "url": "https://api.github.com/repos/bitcoin/bitcoin/issues/comments/4988550/reactions",
      "total_count": 0,
      "+1": 0,
      "-1": 0,
      "laugh": 0,
      "hooray": 0,
      "confused": 0,
      "heart": 0,
      "rocket": 0,
      "eyes": 0
    },
    "performed_via_github_app": null
  },
  {
    "url": "https://api.github.com/repos/bitcoin/bitcoin/issues/comments/4988772",
    "html_url": "https://github.com/bitcoin/bitcoin/issues/1048#issuecomment-4988772",
    "issue_url": "https://api.github.com/repos/bitcoin/bitcoin/issues/1048",
    "id": 4988772,
    "node_id": "MDEyOklzc3VlQ29tbWVudDQ5ODg3NzI=",
    "user": {
      "login": "drak01",
      "id": 1617090,
      "node_id": "MDQ6VXNlcjE2MTcwOTA=",
      "avatar_url": "https://avatars.githubusercontent.com/u/1617090?v=4",
      "gravatar_id": "",
      "url": "https://api.github.com/users/drak01",
      "html_url": "https://github.com/drak01",
      "followers_url": "https://api.github.com/users/drak01/followers",
      "following_url": "https://api.github.com/users/drak01/following{/other_user}",
      "gists_url": "https://api.github.com/users/drak01/gists{/gist_id}",
      "starred_url": "https://api.github.com/users/drak01/starred{/owner}{/repo}",
      "subscriptions_url": "https://api.github.com/users/drak01/subscriptions",
      "organizations_url": "https://api.github.com/users/drak01/orgs",
      "repos_url": "https://api.github.com/users/drak01/repos",
      "events_url": "https://api.github.com/users/drak01/events{/privacy}",
      "received_events_url": "https://api.github.com/users/drak01/received_events",
      "type": "User",
      "site_admin": false
    },
    "created_at": "2012-04-06T00:35:41Z",
    "updated_at": "2012-04-06T00:35:41Z",
    "author_association": "NONE",
    "body_html": "<div class=\"snippet-clipboard-content notranslate position-relative overflow-auto\" data-snippet-clipboard-copy-content=\"This happens without anything in the bitcoin data directory?\"><pre class=\"notranslate\"><code class=\"notranslate\">This happens without anything in the bitcoin data directory?\n</code></pre></div>\n<p dir=\"auto\">Everything except the .wallet file.</p>\n<div class=\"snippet-clipboard-content notranslate position-relative overflow-auto\" data-snippet-clipboard-copy-content=\"Can you bisect it?\"><pre class=\"notranslate\"><code class=\"notranslate\">Can you bisect it?\n</code></pre></div>\n<p dir=\"auto\">I'm bisecting it now.  I should have the culprit soon.</p>",
    "body_text": "This happens without anything in the bitcoin data directory?\n\nEverything except the .wallet file.\nCan you bisect it?\n\nI'm bisecting it now.  I should have the culprit soon.",
    "body": "```\nThis happens without anything in the bitcoin data directory?\n```\n\nEverything except the .wallet file.  \n\n```\nCan you bisect it?\n```\n\nI'm bisecting it now.  I should have the culprit soon.\n",
    "reactions": {
      "url": "https://api.github.com/repos/bitcoin/bitcoin/issues/comments/4988772/reactions",
      "total_count": 0,
      "+1": 0,
      "-1": 0,
      "laugh": 0,
      "hooray": 0,
      "confused": 0,
      "heart": 0,
      "rocket": 0,
      "eyes": 0
    },
    "performed_via_github_app": null
  },
  {
    "url": "https://api.github.com/repos/bitcoin/bitcoin/issues/comments/4989245",
    "html_url": "https://github.com/bitcoin/bitcoin/issues/1048#issuecomment-4989245",
    "issue_url": "https://api.github.com/repos/bitcoin/bitcoin/issues/1048",
    "id": 4989245,
    "node_id": "MDEyOklzc3VlQ29tbWVudDQ5ODkyNDU=",
    "user": {
      "login": "drak01",
      "id": 1617090,
      "node_id": "MDQ6VXNlcjE2MTcwOTA=",
      "avatar_url": "https://avatars.githubusercontent.com/u/1617090?v=4",
      "gravatar_id": "",
      "url": "https://api.github.com/users/drak01",
      "html_url": "https://github.com/drak01",
      "followers_url": "https://api.github.com/users/drak01/followers",
      "following_url": "https://api.github.com/users/drak01/following{/other_user}",
      "gists_url": "https://api.github.com/users/drak01/gists{/gist_id}",
      "starred_url": "https://api.github.com/users/drak01/starred{/owner}{/repo}",
      "subscriptions_url": "https://api.github.com/users/drak01/subscriptions",
      "organizations_url": "https://api.github.com/users/drak01/orgs",
      "repos_url": "https://api.github.com/users/drak01/repos",
      "events_url": "https://api.github.com/users/drak01/events{/privacy}",
      "received_events_url": "https://api.github.com/users/drak01/received_events",
      "type": "User",
      "site_admin": false
    },
    "created_at": "2012-04-06T01:29:41Z",
    "updated_at": "2012-04-06T01:29:41Z",
    "author_association": "NONE",
    "body_html": "<p dir=\"auto\">xxx@TOWERLIN:~/workspace/bitcoin$ git bisect good<br>\nBisecting: 0 revisions left to test after this (roughly 0 steps)<br>\n[<a class=\"commit-link\" data-hovercard-type=\"commit\" data-hovercard-url=\"https://github.com/bitcoin/bitcoin/commit/7993454a927f3c4cf5ac935c613afeeb68f35f0a/hovercard\" href=\"https://github.com/bitcoin/bitcoin/commit/7993454a927f3c4cf5ac935c613afeeb68f35f0a\"><tt>7993454</tt></a>] Document strlcpy.h in assets-attribution.txt since it isn't MIT-licensed</p>\n<p dir=\"auto\">xxx@TOWERLIN:~/workspace/bitcoin$ git show<br>\ncommit <a class=\"commit-link\" data-hovercard-type=\"commit\" data-hovercard-url=\"https://github.com/bitcoin/bitcoin/commit/7993454a927f3c4cf5ac935c613afeeb68f35f0a/hovercard\" href=\"https://github.com/bitcoin/bitcoin/commit/7993454a927f3c4cf5ac935c613afeeb68f35f0a\"><tt>7993454</tt></a><br>\nAuthor: Luke Dashjr <a href=\"mailto:luke-jr+git@utopios.org\">luke-jr+git@utopios.org</a><br>\nDate:   Thu Apr 5 18:58:20 2012 -0400</p>\n<div class=\"snippet-clipboard-content notranslate position-relative overflow-auto\" data-snippet-clipboard-copy-content=\"Document strlcpy.h in assets-attribution.txt since it isn't MIT-licensed\"><pre class=\"notranslate\"><code class=\"notranslate\">Document strlcpy.h in assets-attribution.txt since it isn't MIT-licensed\n</code></pre></div>\n<p dir=\"auto\">diff --git a/doc/assets-attribution.txt b/doc/assets-attribution.txt<br>\nindex 8d23f7e..ffaec44 100644<br>\n--- a/doc/assets-attribution.txt<br>\n+++ b/doc/assets-attribution.txt<br>\n@@ -1,3 +1,7 @@<br>\n+Code: src/strlcpy.h<br>\n+Author: Todd C. Miller <a href=\"mailto:Todd.Miller@courtesan.com\">Todd.Miller@courtesan.com</a><br>\n+License: ISC<br>\n+<br>\nIcon: src/qt/res/icons/clock_.png, src/qt/res/icons/tx_.png,<br>\nsrc/qt/res/src/*.svg<br>\nDesigner: Wladimir van der Laan</p>",
    "body_text": "xxx@TOWERLIN:~/workspace/bitcoin$ git bisect good\nBisecting: 0 revisions left to test after this (roughly 0 steps)\n[7993454] Document strlcpy.h in assets-attribution.txt since it isn't MIT-licensed\nxxx@TOWERLIN:~/workspace/bitcoin$ git show\ncommit 7993454\nAuthor: Luke Dashjr luke-jr+git@utopios.org\nDate:   Thu Apr 5 18:58:20 2012 -0400\nDocument strlcpy.h in assets-attribution.txt since it isn't MIT-licensed\n\ndiff --git a/doc/assets-attribution.txt b/doc/assets-attribution.txt\nindex 8d23f7e..ffaec44 100644\n--- a/doc/assets-attribution.txt\n+++ b/doc/assets-attribution.txt\n@@ -1,3 +1,7 @@\n+Code: src/strlcpy.h\n+Author: Todd C. Miller Todd.Miller@courtesan.com\n+License: ISC\n+\nIcon: src/qt/res/icons/clock_.png, src/qt/res/icons/tx_.png,\nsrc/qt/res/src/*.svg\nDesigner: Wladimir van der Laan",
    "body": "xxx@TOWERLIN:~/workspace/bitcoin$ git bisect good\nBisecting: 0 revisions left to test after this (roughly 0 steps)\n[7993454a927f3c4cf5ac935c613afeeb68f35f0a] Document strlcpy.h in assets-attribution.txt since it isn't MIT-licensed\n\nxxx@TOWERLIN:~/workspace/bitcoin$ git show\ncommit 7993454a927f3c4cf5ac935c613afeeb68f35f0a\nAuthor: Luke Dashjr <luke-jr+git@utopios.org>\nDate:   Thu Apr 5 18:58:20 2012 -0400\n\n```\nDocument strlcpy.h in assets-attribution.txt since it isn't MIT-licensed\n```\n\ndiff --git a/doc/assets-attribution.txt b/doc/assets-attribution.txt\nindex 8d23f7e..ffaec44 100644\n--- a/doc/assets-attribution.txt\n+++ b/doc/assets-attribution.txt\n@@ -1,3 +1,7 @@\n+Code: src/strlcpy.h\n+Author: Todd C. Miller Todd.Miller@courtesan.com\n+License: ISC\n+\n Icon: src/qt/res/icons/clock_.png, src/qt/res/icons/tx_.png,\n       src/qt/res/src/*.svg\n Designer: Wladimir van der Laan\n",
    "reactions": {
      "url": "https://api.github.com/repos/bitcoin/bitcoin/issues/comments/4989245/reactions",
      "total_count": 0,
      "+1": 0,
      "-1": 0,
      "laugh": 0,
      "hooray": 0,
      "confused": 0,
      "heart": 0,
      "rocket": 0,
      "eyes": 0
    },
    "performed_via_github_app": null
  },
  {
    "url": "https://api.github.com/repos/bitcoin/bitcoin/issues/comments/4989335",
    "html_url": "https://github.com/bitcoin/bitcoin/issues/1048#issuecomment-4989335",
    "issue_url": "https://api.github.com/repos/bitcoin/bitcoin/issues/1048",
    "id": 4989335,
    "node_id": "MDEyOklzc3VlQ29tbWVudDQ5ODkzMzU=",
    "user": {
      "login": "luke-jr",
      "id": 1095675,
      "node_id": "MDQ6VXNlcjEwOTU2NzU=",
      "avatar_url": "https://avatars.githubusercontent.com/u/1095675?v=4",
      "gravatar_id": "",
      "url": "https://api.github.com/users/luke-jr",
      "html_url": "https://github.com/luke-jr",
      "followers_url": "https://api.github.com/users/luke-jr/followers",
      "following_url": "https://api.github.com/users/luke-jr/following{/other_user}",
      "gists_url": "https://api.github.com/users/luke-jr/gists{/gist_id}",
      "starred_url": "https://api.github.com/users/luke-jr/starred{/owner}{/repo}",
      "subscriptions_url": "https://api.github.com/users/luke-jr/subscriptions",
      "organizations_url": "https://api.github.com/users/luke-jr/orgs",
      "repos_url": "https://api.github.com/users/luke-jr/repos",
      "events_url": "https://api.github.com/users/luke-jr/events{/privacy}",
      "received_events_url": "https://api.github.com/users/luke-jr/received_events",
      "type": "User",
      "site_admin": false
    },
    "created_at": "2012-04-06T01:39:51Z",
    "updated_at": "2012-04-06T01:39:51Z",
    "author_association": "MEMBER",
    "body_html": "<p dir=\"auto\">Not possible, I don't think that was even committed when you reported the bug :p</p>\n<p dir=\"auto\">Maybe try again, more carefully...</p>",
    "body_text": "Not possible, I don't think that was even committed when you reported the bug :p\nMaybe try again, more carefully...",
    "body": "Not possible, I don't think that was even committed when you reported the bug :p\n\nMaybe try again, more carefully...\n",
    "reactions": {
      "url": "https://api.github.com/repos/bitcoin/bitcoin/issues/comments/4989335/reactions",
      "total_count": 0,
      "+1": 0,
      "-1": 0,
      "laugh": 0,
      "hooray": 0,
      "confused": 0,
      "heart": 0,
      "rocket": 0,
      "eyes": 0
    },
    "performed_via_github_app": null
  },
  {
    "url": "https://api.github.com/repos/bitcoin/bitcoin/issues/comments/4989499",
    "html_url": "https://github.com/bitcoin/bitcoin/issues/1048#issuecomment-4989499",
    "issue_url": "https://api.github.com/repos/bitcoin/bitcoin/issues/1048",
    "id": 4989499,
    "node_id": "MDEyOklzc3VlQ29tbWVudDQ5ODk0OTk=",
    "user": {
      "login": "drak01",
      "id": 1617090,
      "node_id": "MDQ6VXNlcjE2MTcwOTA=",
      "avatar_url": "https://avatars.githubusercontent.com/u/1617090?v=4",
      "gravatar_id": "",
      "url": "https://api.github.com/users/drak01",
      "html_url": "https://github.com/drak01",
      "followers_url": "https://api.github.com/users/drak01/followers",
      "following_url": "https://api.github.com/users/drak01/following{/other_user}",
      "gists_url": "https://api.github.com/users/drak01/gists{/gist_id}",
      "starred_url": "https://api.github.com/users/drak01/starred{/owner}{/repo}",
      "subscriptions_url": "https://api.github.com/users/drak01/subscriptions",
      "organizations_url": "https://api.github.com/users/drak01/orgs",
      "repos_url": "https://api.github.com/users/drak01/repos",
      "events_url": "https://api.github.com/users/drak01/events{/privacy}",
      "received_events_url": "https://api.github.com/users/drak01/received_events",
      "type": "User",
      "site_admin": false
    },
    "created_at": "2012-04-06T02:00:43Z",
    "updated_at": "2012-04-06T02:00:43Z",
    "author_association": "NONE",
    "body_html": "<p dir=\"auto\">Strange.  I git reset --hard master to try the master again, but no more error.  It loads up fine.</p>",
    "body_text": "Strange.  I git reset --hard master to try the master again, but no more error.  It loads up fine.",
    "body": "Strange.  I git reset --hard master to try the master again, but no more error.  It loads up fine.\n",
    "reactions": {
      "url": "https://api.github.com/repos/bitcoin/bitcoin/issues/comments/4989499/reactions",
      "total_count": 0,
      "+1": 0,
      "-1": 0,
      "laugh": 0,
      "hooray": 0,
      "confused": 0,
      "heart": 0,
      "rocket": 0,
      "eyes": 0
    },
    "performed_via_github_app": null
  },
  {
    "url": "https://api.github.com/repos/bitcoin/bitcoin/issues/comments/4989566",
    "html_url": "https://github.com/bitcoin/bitcoin/issues/1048#issuecomment-4989566",
    "issue_url": "https://api.github.com/repos/bitcoin/bitcoin/issues/1048",
    "id": 4989566,
    "node_id": "MDEyOklzc3VlQ29tbWVudDQ5ODk1NjY=",
    "user": {
      "login": "drak01",
      "id": 1617090,
      "node_id": "MDQ6VXNlcjE2MTcwOTA=",
      "avatar_url": "https://avatars.githubusercontent.com/u/1617090?v=4",
      "gravatar_id": "",
      "url": "https://api.github.com/users/drak01",
      "html_url": "https://github.com/drak01",
      "followers_url": "https://api.github.com/users/drak01/followers",
      "following_url": "https://api.github.com/users/drak01/following{/other_user}",
      "gists_url": "https://api.github.com/users/drak01/gists{/gist_id}",
      "starred_url": "https://api.github.com/users/drak01/starred{/owner}{/repo}",
      "subscriptions_url": "https://api.github.com/users/drak01/subscriptions",
      "organizations_url": "https://api.github.com/users/drak01/orgs",
      "repos_url": "https://api.github.com/users/drak01/repos",
      "events_url": "https://api.github.com/users/drak01/events{/privacy}",
      "received_events_url": "https://api.github.com/users/drak01/received_events",
      "type": "User",
      "site_admin": false
    },
    "created_at": "2012-04-06T02:10:23Z",
    "updated_at": "2012-04-06T02:10:23Z",
    "author_association": "NONE",
    "body_html": "<p dir=\"auto\">I just tried git reset --hard v0.6.0 .  Still no more error.  Somehow it resolved itself ..</p>",
    "body_text": "I just tried git reset --hard v0.6.0 .  Still no more error.  Somehow it resolved itself ..",
    "body": "I just tried git reset --hard v0.6.0 .  Still no more error.  Somehow it resolved itself ..\n",
    "reactions": {
      "url": "https://api.github.com/repos/bitcoin/bitcoin/issues/comments/4989566/reactions",
      "total_count": 0,
      "+1": 0,
      "-1": 0,
      "laugh": 0,
      "hooray": 0,
      "confused": 0,
      "heart": 0,
      "rocket": 0,
      "eyes": 0
    },
    "performed_via_github_app": null
  }
]
