{
  "url": "https://api.github.com/repos/bitcoin/bitcoin/issues/27028",
  "repository_url": "https://api.github.com/repos/bitcoin/bitcoin",
  "labels_url": "https://api.github.com/repos/bitcoin/bitcoin/issues/27028/labels{/name}",
  "comments_url": "https://api.github.com/repos/bitcoin/bitcoin/issues/27028/comments",
  "events_url": "https://api.github.com/repos/bitcoin/bitcoin/issues/27028/events",
  "html_url": "https://github.com/bitcoin/bitcoin/pull/27028",
  "id": 1568351482,
  "node_id": "PR_kwDOABII585JIDPb",
  "number": 27028,
  "title": "ci: Cache more stuff in the ci images: msan, iwyu, pip, sdks",
  "user": {
    "login": "maflcko",
    "id": 6399679,
    "node_id": "MDQ6VXNlcjYzOTk2Nzk=",
    "avatar_url": "https://avatars.githubusercontent.com/u/6399679?v=4",
    "gravatar_id": "",
    "url": "https://api.github.com/users/maflcko",
    "html_url": "https://github.com/maflcko",
    "followers_url": "https://api.github.com/users/maflcko/followers",
    "following_url": "https://api.github.com/users/maflcko/following{/other_user}",
    "gists_url": "https://api.github.com/users/maflcko/gists{/gist_id}",
    "starred_url": "https://api.github.com/users/maflcko/starred{/owner}{/repo}",
    "subscriptions_url": "https://api.github.com/users/maflcko/subscriptions",
    "organizations_url": "https://api.github.com/users/maflcko/orgs",
    "repos_url": "https://api.github.com/users/maflcko/repos",
    "events_url": "https://api.github.com/users/maflcko/events{/privacy}",
    "received_events_url": "https://api.github.com/users/maflcko/received_events",
    "type": "User",
    "site_admin": false
  },
  "labels": [
    {
      "id": 62963516,
      "node_id": "MDU6TGFiZWw2Mjk2MzUxNg==",
      "url": "https://api.github.com/repos/bitcoin/bitcoin/labels/Tests",
      "name": "Tests",
      "color": "d4c5f9",
      "default": false,
      "description": null
    }
  ],
  "state": "closed",
  "locked": true,
  "assignee": null,
  "assignees": [

  ],
  "milestone": null,
  "comments": 7,
  "created_at": "2023-02-02T16:21:53Z",
  "updated_at": "2024-03-23T12:39:49Z",
  "closed_at": "2023-03-24T12:19:29Z",
  "author_association": "MEMBER",
  "active_lock_reason": null,
  "draft": false,
  "pull_request": {
    "url": "https://api.github.com/repos/bitcoin/bitcoin/pulls/27028",
    "html_url": "https://github.com/bitcoin/bitcoin/pull/27028",
    "diff_url": "https://github.com/bitcoin/bitcoin/pull/27028.diff",
    "patch_url": "https://github.com/bitcoin/bitcoin/pull/27028.patch",
    "merged_at": "2023-03-24T12:19:29Z"
  },
  "body_html": "<p dir=\"auto\">Now that <code class=\"notranslate\">apt</code> packages are cached in the ci images, it makes sense to think about caching all other packages as well.</p>",
  "body_text": "Now that apt packages are cached in the ci images, it makes sense to think about caching all other packages as well.",
  "body": "Now that `apt` packages are cached in the ci images, it makes sense to think about caching all other packages as well.",
  "closed_by": {
    "login": "fanquake",
    "id": 863730,
    "node_id": "MDQ6VXNlcjg2MzczMA==",
    "avatar_url": "https://avatars.githubusercontent.com/u/863730?v=4",
    "gravatar_id": "",
    "url": "https://api.github.com/users/fanquake",
    "html_url": "https://github.com/fanquake",
    "followers_url": "https://api.github.com/users/fanquake/followers",
    "following_url": "https://api.github.com/users/fanquake/following{/other_user}",
    "gists_url": "https://api.github.com/users/fanquake/gists{/gist_id}",
    "starred_url": "https://api.github.com/users/fanquake/starred{/owner}{/repo}",
    "subscriptions_url": "https://api.github.com/users/fanquake/subscriptions",
    "organizations_url": "https://api.github.com/users/fanquake/orgs",
    "repos_url": "https://api.github.com/users/fanquake/repos",
    "events_url": "https://api.github.com/users/fanquake/events{/privacy}",
    "received_events_url": "https://api.github.com/users/fanquake/received_events",
    "type": "User",
    "site_admin": false
  },
  "reactions": {
    "url": "https://api.github.com/repos/bitcoin/bitcoin/issues/27028/reactions",
    "total_count": 0,
    "+1": 0,
    "-1": 0,
    "laugh": 0,
    "hooray": 0,
    "confused": 0,
    "heart": 0,
    "rocket": 0,
    "eyes": 0
  },
  "timeline_url": "https://api.github.com/repos/bitcoin/bitcoin/issues/27028/timeline",
  "performed_via_github_app": null,
  "state_reason": null
}
