[
  {
    "url": "https://api.github.com/repos/bitcoin/bitcoin/issues/comments/885482414",
    "html_url": "https://github.com/bitcoin/bitcoin/issues/22537#issuecomment-885482414",
    "issue_url": "https://api.github.com/repos/bitcoin/bitcoin/issues/22537",
    "id": 885482414,
    "node_id": "IC_kwDOABII5840x2Ou",
    "user": {
      "login": "maflcko",
      "id": 6399679,
      "node_id": "MDQ6VXNlcjYzOTk2Nzk=",
      "avatar_url": "https://avatars.githubusercontent.com/u/6399679?v=4",
      "gravatar_id": "",
      "url": "https://api.github.com/users/maflcko",
      "html_url": "https://github.com/maflcko",
      "followers_url": "https://api.github.com/users/maflcko/followers",
      "following_url": "https://api.github.com/users/maflcko/following{/other_user}",
      "gists_url": "https://api.github.com/users/maflcko/gists{/gist_id}",
      "starred_url": "https://api.github.com/users/maflcko/starred{/owner}{/repo}",
      "subscriptions_url": "https://api.github.com/users/maflcko/subscriptions",
      "organizations_url": "https://api.github.com/users/maflcko/orgs",
      "repos_url": "https://api.github.com/users/maflcko/repos",
      "events_url": "https://api.github.com/users/maflcko/events{/privacy}",
      "received_events_url": "https://api.github.com/users/maflcko/received_events",
      "type": "User",
      "site_admin": false
    },
    "created_at": "2021-07-23T08:25:07Z",
    "updated_at": "2021-07-23T13:49:45Z",
    "author_association": "MEMBER",
    "body_html": "<p dir=\"auto\">Workarounds I can see:</p>\n<ul dir=\"auto\">\n<li>Disable the integer sanitizer with a suppression</li>\n<li>Backport <a class=\"issue-link js-issue-link\" data-error-text=\"Failed to load title\" data-id=\"919817465\" data-permission-text=\"Title is private\" data-url=\"https://github.com/bitcoin/bitcoin/issues/22232\" data-hovercard-type=\"pull_request\" data-hovercard-url=\"/bitcoin/bitcoin/pull/22232/hovercard\" href=\"https://github.com/bitcoin/bitcoin/pull/22232\">#22232</a></li>\n<li>Comment out the failing line in the test</li>\n<li>Ignore the failure</li>\n<li>Something else?</li>\n</ul>",
    "body_text": "Workarounds I can see:\n\nDisable the integer sanitizer with a suppression\nBackport #22232\nComment out the failing line in the test\nIgnore the failure\nSomething else?",
    "body": "Workarounds I can see:\r\n\r\n* Disable the integer sanitizer with a suppression\r\n* Backport #22232 \r\n* Comment out the failing line in the test\r\n* Ignore the failure\r\n* Something else?",
    "reactions": {
      "url": "https://api.github.com/repos/bitcoin/bitcoin/issues/comments/885482414/reactions",
      "total_count": 1,
      "+1": 1,
      "-1": 0,
      "laugh": 0,
      "hooray": 0,
      "confused": 0,
      "heart": 0,
      "rocket": 0,
      "eyes": 0
    },
    "performed_via_github_app": null
  },
  {
    "url": "https://api.github.com/repos/bitcoin/bitcoin/issues/comments/888787479",
    "html_url": "https://github.com/bitcoin/bitcoin/issues/22537#issuecomment-888787479",
    "issue_url": "https://api.github.com/repos/bitcoin/bitcoin/issues/22537",
    "id": 888787479,
    "node_id": "IC_kwDOABII5840-dIX",
    "user": {
      "login": "fanquake",
      "id": 863730,
      "node_id": "MDQ6VXNlcjg2MzczMA==",
      "avatar_url": "https://avatars.githubusercontent.com/u/863730?v=4",
      "gravatar_id": "",
      "url": "https://api.github.com/users/fanquake",
      "html_url": "https://github.com/fanquake",
      "followers_url": "https://api.github.com/users/fanquake/followers",
      "following_url": "https://api.github.com/users/fanquake/following{/other_user}",
      "gists_url": "https://api.github.com/users/fanquake/gists{/gist_id}",
      "starred_url": "https://api.github.com/users/fanquake/starred{/owner}{/repo}",
      "subscriptions_url": "https://api.github.com/users/fanquake/subscriptions",
      "organizations_url": "https://api.github.com/users/fanquake/orgs",
      "repos_url": "https://api.github.com/users/fanquake/repos",
      "events_url": "https://api.github.com/users/fanquake/events{/privacy}",
      "received_events_url": "https://api.github.com/users/fanquake/received_events",
      "type": "User",
      "site_admin": false
    },
    "created_at": "2021-07-29T04:15:57Z",
    "updated_at": "2021-07-29T04:15:57Z",
    "author_association": "MEMBER",
    "body_html": "<p dir=\"auto\">I can't imagine we are going to backport <a class=\"issue-link js-issue-link\" data-error-text=\"Failed to load title\" data-id=\"919817465\" data-permission-text=\"Title is private\" data-url=\"https://github.com/bitcoin/bitcoin/issues/22232\" data-hovercard-type=\"pull_request\" data-hovercard-url=\"/bitcoin/bitcoin/pull/22232/hovercard\" href=\"https://github.com/bitcoin/bitcoin/pull/22232\">#22232</a>. I'm slightly leaning towards commenting out the failing test, with explanation . If by ignore you literally mean just ignore the CI failures, I don't think that's an option.</p>",
    "body_text": "I can't imagine we are going to backport #22232. I'm slightly leaning towards commenting out the failing test, with explanation . If by ignore you literally mean just ignore the CI failures, I don't think that's an option.",
    "body": "I can't imagine we are going to backport #22232. I'm slightly leaning towards commenting out the failing test, with explanation . If by ignore you literally mean just ignore the CI failures, I don't think that's an option.",
    "reactions": {
      "url": "https://api.github.com/repos/bitcoin/bitcoin/issues/comments/888787479/reactions",
      "total_count": 1,
      "+1": 1,
      "-1": 0,
      "laugh": 0,
      "hooray": 0,
      "confused": 0,
      "heart": 0,
      "rocket": 0,
      "eyes": 0
    },
    "performed_via_github_app": null
  },
  {
    "url": "https://api.github.com/repos/bitcoin/bitcoin/issues/comments/894635443",
    "html_url": "https://github.com/bitcoin/bitcoin/issues/22537#issuecomment-894635443",
    "issue_url": "https://api.github.com/repos/bitcoin/bitcoin/issues/22537",
    "id": 894635443,
    "node_id": "IC_kwDOABII5841Uw2z",
    "user": {
      "login": "hebasto",
      "id": 32963518,
      "node_id": "MDQ6VXNlcjMyOTYzNTE4",
      "avatar_url": "https://avatars.githubusercontent.com/u/32963518?v=4",
      "gravatar_id": "",
      "url": "https://api.github.com/users/hebasto",
      "html_url": "https://github.com/hebasto",
      "followers_url": "https://api.github.com/users/hebasto/followers",
      "following_url": "https://api.github.com/users/hebasto/following{/other_user}",
      "gists_url": "https://api.github.com/users/hebasto/gists{/gist_id}",
      "starred_url": "https://api.github.com/users/hebasto/starred{/owner}{/repo}",
      "subscriptions_url": "https://api.github.com/users/hebasto/subscriptions",
      "organizations_url": "https://api.github.com/users/hebasto/orgs",
      "repos_url": "https://api.github.com/users/hebasto/repos",
      "events_url": "https://api.github.com/users/hebasto/events{/privacy}",
      "received_events_url": "https://api.github.com/users/hebasto/received_events",
      "type": "User",
      "site_admin": false
    },
    "created_at": "2021-08-07T10:18:47Z",
    "updated_at": "2021-08-07T10:27:20Z",
    "author_association": "MEMBER",
    "body_html": "<blockquote>\n<p dir=\"auto\">Workarounds I can see:<br>\n...</p>\n<ul dir=\"auto\">\n<li>Backport <a href=\"https://github.com/bitcoin/bitcoin/pull/22232\" data-hovercard-type=\"pull_request\" data-hovercard-url=\"/bitcoin/bitcoin/pull/22232/hovercard\">refactor: Pass interpreter flags as uint32_t instead of signed int  #22232</a></li>\n</ul>\n</blockquote>\n<p dir=\"auto\"><del>See <a class=\"issue-link js-issue-link\" data-error-text=\"Failed to load title\" data-id=\"961508657\" data-permission-text=\"Title is private\" data-url=\"https://github.com/bitcoin/bitcoin/issues/22629\" data-hovercard-type=\"pull_request\" data-hovercard-url=\"/bitcoin/bitcoin/pull/22629/hovercard?comment_id=894635234&amp;comment_type=issue_comment\" href=\"https://github.com/bitcoin/bitcoin/pull/22629#issuecomment-894635234\">#22629 (comment)</a>.</del></p>\n<p dir=\"auto\">UPDATE: <a class=\"issue-link js-issue-link\" data-error-text=\"Failed to load title\" data-id=\"961508657\" data-permission-text=\"Title is private\" data-url=\"https://github.com/bitcoin/bitcoin/issues/22629\" data-hovercard-type=\"pull_request\" data-hovercard-url=\"/bitcoin/bitcoin/pull/22629/hovercard?comment_id=894636178&amp;comment_type=issue_comment\" href=\"https://github.com/bitcoin/bitcoin/pull/22629#issuecomment-894636178\">#22629 (comment)</a></p>",
    "body_text": "Workarounds I can see:\n...\n\nBackport refactor: Pass interpreter flags as uint32_t instead of signed int  #22232\n\n\nSee #22629 (comment).\nUPDATE: #22629 (comment)",
    "body": "> Workarounds I can see:\r\n> ...\r\n>  - Backport [refactor: Pass interpreter flags as uint32_t instead of signed int  #22232](https://github.com/bitcoin/bitcoin/pull/22232)\r\n\r\n~See https://github.com/bitcoin/bitcoin/pull/22629#issuecomment-894635234.~\r\n\r\nUPDATE: https://github.com/bitcoin/bitcoin/pull/22629#issuecomment-894636178",
    "reactions": {
      "url": "https://api.github.com/repos/bitcoin/bitcoin/issues/comments/894635443/reactions",
      "total_count": 0,
      "+1": 0,
      "-1": 0,
      "laugh": 0,
      "hooray": 0,
      "confused": 0,
      "heart": 0,
      "rocket": 0,
      "eyes": 0
    },
    "performed_via_github_app": null
  },
  {
    "url": "https://api.github.com/repos/bitcoin/bitcoin/issues/comments/1012289960",
    "html_url": "https://github.com/bitcoin/bitcoin/issues/22537#issuecomment-1012289960",
    "issue_url": "https://api.github.com/repos/bitcoin/bitcoin/issues/22537",
    "id": 1012289960,
    "node_id": "IC_kwDOABII5848VlGo",
    "user": {
      "login": "maflcko",
      "id": 6399679,
      "node_id": "MDQ6VXNlcjYzOTk2Nzk=",
      "avatar_url": "https://avatars.githubusercontent.com/u/6399679?v=4",
      "gravatar_id": "",
      "url": "https://api.github.com/users/maflcko",
      "html_url": "https://github.com/maflcko",
      "followers_url": "https://api.github.com/users/maflcko/followers",
      "following_url": "https://api.github.com/users/maflcko/following{/other_user}",
      "gists_url": "https://api.github.com/users/maflcko/gists{/gist_id}",
      "starred_url": "https://api.github.com/users/maflcko/starred{/owner}{/repo}",
      "subscriptions_url": "https://api.github.com/users/maflcko/subscriptions",
      "organizations_url": "https://api.github.com/users/maflcko/orgs",
      "repos_url": "https://api.github.com/users/maflcko/repos",
      "events_url": "https://api.github.com/users/maflcko/events{/privacy}",
      "received_events_url": "https://api.github.com/users/maflcko/received_events",
      "type": "User",
      "site_admin": false
    },
    "created_at": "2022-01-13T16:18:07Z",
    "updated_at": "2022-01-13T16:18:07Z",
    "author_association": "MEMBER",
    "body_html": "<p dir=\"auto\">Is this still an issue?</p>",
    "body_text": "Is this still an issue?",
    "body": "Is this still an issue?",
    "reactions": {
      "url": "https://api.github.com/repos/bitcoin/bitcoin/issues/comments/1012289960/reactions",
      "total_count": 0,
      "+1": 0,
      "-1": 0,
      "laugh": 0,
      "hooray": 0,
      "confused": 0,
      "heart": 0,
      "rocket": 0,
      "eyes": 0
    },
    "performed_via_github_app": null
  },
  {
    "url": "https://api.github.com/repos/bitcoin/bitcoin/issues/comments/1100619810",
    "html_url": "https://github.com/bitcoin/bitcoin/issues/22537#issuecomment-1100619810",
    "issue_url": "https://api.github.com/repos/bitcoin/bitcoin/issues/22537",
    "id": 1100619810,
    "node_id": "IC_kwDOABII585BmiAi",
    "user": {
      "login": "maflcko",
      "id": 6399679,
      "node_id": "MDQ6VXNlcjYzOTk2Nzk=",
      "avatar_url": "https://avatars.githubusercontent.com/u/6399679?v=4",
      "gravatar_id": "",
      "url": "https://api.github.com/users/maflcko",
      "html_url": "https://github.com/maflcko",
      "followers_url": "https://api.github.com/users/maflcko/followers",
      "following_url": "https://api.github.com/users/maflcko/following{/other_user}",
      "gists_url": "https://api.github.com/users/maflcko/gists{/gist_id}",
      "starred_url": "https://api.github.com/users/maflcko/starred{/owner}{/repo}",
      "subscriptions_url": "https://api.github.com/users/maflcko/subscriptions",
      "organizations_url": "https://api.github.com/users/maflcko/orgs",
      "repos_url": "https://api.github.com/users/maflcko/repos",
      "events_url": "https://api.github.com/users/maflcko/events{/privacy}",
      "received_events_url": "https://api.github.com/users/maflcko/received_events",
      "type": "User",
      "site_admin": false
    },
    "created_at": "2022-04-16T09:30:28Z",
    "updated_at": "2022-04-16T09:30:28Z",
    "author_association": "MEMBER",
    "body_html": "<p dir=\"auto\">Not sure what the status of 22.x is at this point? Given that <a class=\"issue-link js-issue-link\" data-error-text=\"Failed to load title\" data-id=\"961508657\" data-permission-text=\"Title is private\" data-url=\"https://github.com/bitcoin/bitcoin/issues/22629\" data-hovercard-type=\"pull_request\" data-hovercard-url=\"/bitcoin/bitcoin/pull/22629/hovercard?comment_id=894636178&amp;comment_type=issue_comment\" href=\"https://github.com/bitcoin/bitcoin/pull/22629#issuecomment-894636178\">#22629 (comment)</a> has been NACKed, the options are (1) suppression, (2) removing the line in the test, or (3) ignore. See <a class=\"issue-link js-issue-link\" data-error-text=\"Failed to load title\" data-id=\"951356390\" data-permission-text=\"Title is private\" data-url=\"https://github.com/bitcoin/bitcoin/issues/22537\" data-hovercard-type=\"issue\" data-hovercard-url=\"/bitcoin/bitcoin/issues/22537/hovercard?comment_id=885482414&amp;comment_type=issue_comment\" href=\"https://github.com/bitcoin/bitcoin/issues/22537#issuecomment-885482414\">#22537 (comment)</a></p>",
    "body_text": "Not sure what the status of 22.x is at this point? Given that #22629 (comment) has been NACKed, the options are (1) suppression, (2) removing the line in the test, or (3) ignore. See #22537 (comment)",
    "body": "Not sure what the status of 22.x is at this point? Given that https://github.com/bitcoin/bitcoin/pull/22629#issuecomment-894636178 has been NACKed, the options are (1) suppression, (2) removing the line in the test, or (3) ignore. See https://github.com/bitcoin/bitcoin/issues/22537#issuecomment-885482414",
    "reactions": {
      "url": "https://api.github.com/repos/bitcoin/bitcoin/issues/comments/1100619810/reactions",
      "total_count": 0,
      "+1": 0,
      "-1": 0,
      "laugh": 0,
      "hooray": 0,
      "confused": 0,
      "heart": 0,
      "rocket": 0,
      "eyes": 0
    },
    "performed_via_github_app": null
  },
  {
    "url": "https://api.github.com/repos/bitcoin/bitcoin/issues/comments/1210759347",
    "html_url": "https://github.com/bitcoin/bitcoin/issues/22537#issuecomment-1210759347",
    "issue_url": "https://api.github.com/repos/bitcoin/bitcoin/issues/22537",
    "id": 1210759347,
    "node_id": "IC_kwDOABII585IKriz",
    "user": {
      "login": "maflcko",
      "id": 6399679,
      "node_id": "MDQ6VXNlcjYzOTk2Nzk=",
      "avatar_url": "https://avatars.githubusercontent.com/u/6399679?v=4",
      "gravatar_id": "",
      "url": "https://api.github.com/users/maflcko",
      "html_url": "https://github.com/maflcko",
      "followers_url": "https://api.github.com/users/maflcko/followers",
      "following_url": "https://api.github.com/users/maflcko/following{/other_user}",
      "gists_url": "https://api.github.com/users/maflcko/gists{/gist_id}",
      "starred_url": "https://api.github.com/users/maflcko/starred{/owner}{/repo}",
      "subscriptions_url": "https://api.github.com/users/maflcko/subscriptions",
      "organizations_url": "https://api.github.com/users/maflcko/orgs",
      "repos_url": "https://api.github.com/users/maflcko/repos",
      "events_url": "https://api.github.com/users/maflcko/events{/privacy}",
      "received_events_url": "https://api.github.com/users/maflcko/received_events",
      "type": "User",
      "site_admin": false
    },
    "created_at": "2022-08-10T14:30:29Z",
    "updated_at": "2022-08-10T14:30:29Z",
    "author_association": "MEMBER",
    "body_html": "<p dir=\"auto\">The feature request didn't seem to attract much attention in the past. Also, the issue seems not important enough right now to keep it sitting around idle in the list of open issues.</p>\n<p dir=\"auto\">Closing due to lack of interest. Pull requests with improvements are always welcome.</p>\n<p dir=\"auto\">See also <a class=\"commit-link\" data-hovercard-type=\"commit\" data-hovercard-url=\"https://github.com/bitcoin/bitcoin/commit/e9d30fbb3a90dfafebdb026a53b4f632614d660e/hovercard\" href=\"https://github.com/bitcoin/bitcoin/commit/e9d30fbb3a90dfafebdb026a53b4f632614d660e\"><tt>e9d30fb</tt></a></p>",
    "body_text": "The feature request didn't seem to attract much attention in the past. Also, the issue seems not important enough right now to keep it sitting around idle in the list of open issues.\nClosing due to lack of interest. Pull requests with improvements are always welcome.\nSee also e9d30fb",
    "body": "The feature request didn't seem to attract much attention in the past. Also, the issue seems not important enough right now to keep it sitting around idle in the list of open issues.\r\n\r\nClosing due to lack of interest. Pull requests with improvements are always welcome.\r\n\r\nSee also https://github.com/bitcoin/bitcoin/commit/e9d30fbb3a90dfafebdb026a53b4f632614d660e",
    "reactions": {
      "url": "https://api.github.com/repos/bitcoin/bitcoin/issues/comments/1210759347/reactions",
      "total_count": 0,
      "+1": 0,
      "-1": 0,
      "laugh": 0,
      "hooray": 0,
      "confused": 0,
      "heart": 0,
      "rocket": 0,
      "eyes": 0
    },
    "performed_via_github_app": null
  }
]
