[
  {
    "url": "https://api.github.com/repos/bitcoin/bitcoin/issues/comments/525948006",
    "html_url": "https://github.com/bitcoin/bitcoin/pull/16743#issuecomment-525948006",
    "issue_url": "https://api.github.com/repos/bitcoin/bitcoin/issues/16743",
    "id": 525948006,
    "node_id": "MDEyOklzc3VlQ29tbWVudDUyNTk0ODAwNg==",
    "user": {
      "login": "DrahtBot",
      "id": 39886733,
      "node_id": "MDQ6VXNlcjM5ODg2NzMz",
      "avatar_url": "https://avatars.githubusercontent.com/u/39886733?v=4",
      "gravatar_id": "",
      "url": "https://api.github.com/users/DrahtBot",
      "html_url": "https://github.com/DrahtBot",
      "followers_url": "https://api.github.com/users/DrahtBot/followers",
      "following_url": "https://api.github.com/users/DrahtBot/following{/other_user}",
      "gists_url": "https://api.github.com/users/DrahtBot/gists{/gist_id}",
      "starred_url": "https://api.github.com/users/DrahtBot/starred{/owner}{/repo}",
      "subscriptions_url": "https://api.github.com/users/DrahtBot/subscriptions",
      "organizations_url": "https://api.github.com/users/DrahtBot/orgs",
      "repos_url": "https://api.github.com/users/DrahtBot/repos",
      "events_url": "https://api.github.com/users/DrahtBot/events{/privacy}",
      "received_events_url": "https://api.github.com/users/DrahtBot/received_events",
      "type": "User",
      "site_admin": false
    },
    "created_at": "2019-08-28T22:34:27Z",
    "updated_at": "2019-09-17T15:40:23Z",
    "author_association": "CONTRIBUTOR",
    "body_html": "\n<p dir=\"auto\">The following sections might be updated with supplementary metadata relevant to reviewers and maintainers.</p>\n\n<h3 dir=\"auto\">Conflicts</h3>\n<p dir=\"auto\">Reviewers, this pull request conflicts with the following ones:</p>\n<ul dir=\"auto\">\n<li><a href=\"https://drahtbot.github.io/bitcoin_core_issue_redirect/r/16224.html\" rel=\"nofollow\">#16224</a> (gui: Bilingual GUI error messages by hebasto)</li>\n</ul>\n<p dir=\"auto\">If you consider this pull request important, please also help to review the conflicting pull requests. Ideally, start with the one that should be merged first.</p>",
    "body_text": "The following sections might be updated with supplementary metadata relevant to reviewers and maintainers.\n\nConflicts\nReviewers, this pull request conflicts with the following ones:\n\n#16224 (gui: Bilingual GUI error messages by hebasto)\n\nIf you consider this pull request important, please also help to review the conflicting pull requests. Ideally, start with the one that should be merged first.",
    "body": "<!--e57a25ab6845829454e8d69fc972939a-->\n\nThe following sections might be updated with supplementary metadata relevant to reviewers and maintainers.\n\n<!--174a7506f384e20aa4161008e828411d-->\n### Conflicts\nReviewers, this pull request conflicts with the following ones:\n\n* [#16224](https://drahtbot.github.io/bitcoin_core_issue_redirect/r/16224.html) (gui: Bilingual GUI error messages by hebasto)\n\nIf you consider this pull request important, please also help to review the conflicting pull requests. Ideally, start with the one that should be merged first.",
    "reactions": {
      "url": "https://api.github.com/repos/bitcoin/bitcoin/issues/comments/525948006/reactions",
      "total_count": 0,
      "+1": 0,
      "-1": 0,
      "laugh": 0,
      "hooray": 0,
      "confused": 0,
      "heart": 0,
      "rocket": 0,
      "eyes": 0
    },
    "performed_via_github_app": null
  },
  {
    "url": "https://api.github.com/repos/bitcoin/bitcoin/issues/comments/529629164",
    "html_url": "https://github.com/bitcoin/bitcoin/pull/16743#issuecomment-529629164",
    "issue_url": "https://api.github.com/repos/bitcoin/bitcoin/issues/16743",
    "id": 529629164,
    "node_id": "MDEyOklzc3VlQ29tbWVudDUyOTYyOTE2NA==",
    "user": {
      "login": "jamesob",
      "id": 73197,
      "node_id": "MDQ6VXNlcjczMTk3",
      "avatar_url": "https://avatars.githubusercontent.com/u/73197?v=4",
      "gravatar_id": "",
      "url": "https://api.github.com/users/jamesob",
      "html_url": "https://github.com/jamesob",
      "followers_url": "https://api.github.com/users/jamesob/followers",
      "following_url": "https://api.github.com/users/jamesob/following{/other_user}",
      "gists_url": "https://api.github.com/users/jamesob/gists{/gist_id}",
      "starred_url": "https://api.github.com/users/jamesob/starred{/owner}{/repo}",
      "subscriptions_url": "https://api.github.com/users/jamesob/subscriptions",
      "organizations_url": "https://api.github.com/users/jamesob/orgs",
      "repos_url": "https://api.github.com/users/jamesob/repos",
      "events_url": "https://api.github.com/users/jamesob/events{/privacy}",
      "received_events_url": "https://api.github.com/users/jamesob/received_events",
      "type": "User",
      "site_admin": false
    },
    "created_at": "2019-09-09T19:26:20Z",
    "updated_at": "2019-09-09T19:26:20Z",
    "author_association": "MEMBER",
    "body_html": "<p dir=\"auto\">Thanks for the reviews so far. Have addressed feedback from <a class=\"user-mention notranslate\" data-hovercard-type=\"user\" data-hovercard-url=\"/users/ryanofsky/hovercard\" data-octo-click=\"hovercard-link-click\" data-octo-dimensions=\"link_type:self\" href=\"https://github.com/ryanofsky\">@ryanofsky</a>, <a class=\"user-mention notranslate\" data-hovercard-type=\"user\" data-hovercard-url=\"/users/promag/hovercard\" data-octo-click=\"hovercard-link-click\" data-octo-dimensions=\"link_type:self\" href=\"https://github.com/promag\">@promag</a>.</p>",
    "body_text": "Thanks for the reviews so far. Have addressed feedback from @ryanofsky, @promag.",
    "body": "Thanks for the reviews so far. Have addressed feedback from @ryanofsky, @promag. ",
    "reactions": {
      "url": "https://api.github.com/repos/bitcoin/bitcoin/issues/comments/529629164/reactions",
      "total_count": 0,
      "+1": 0,
      "-1": 0,
      "laugh": 0,
      "hooray": 0,
      "confused": 0,
      "heart": 0,
      "rocket": 0,
      "eyes": 0
    },
    "performed_via_github_app": null
  },
  {
    "url": "https://api.github.com/repos/bitcoin/bitcoin/issues/comments/531796537",
    "html_url": "https://github.com/bitcoin/bitcoin/pull/16743#issuecomment-531796537",
    "issue_url": "https://api.github.com/repos/bitcoin/bitcoin/issues/16743",
    "id": 531796537,
    "node_id": "MDEyOklzc3VlQ29tbWVudDUzMTc5NjUzNw==",
    "user": {
      "login": "Sjors",
      "id": 10217,
      "node_id": "MDQ6VXNlcjEwMjE3",
      "avatar_url": "https://avatars.githubusercontent.com/u/10217?v=4",
      "gravatar_id": "",
      "url": "https://api.github.com/users/Sjors",
      "html_url": "https://github.com/Sjors",
      "followers_url": "https://api.github.com/users/Sjors/followers",
      "following_url": "https://api.github.com/users/Sjors/following{/other_user}",
      "gists_url": "https://api.github.com/users/Sjors/gists{/gist_id}",
      "starred_url": "https://api.github.com/users/Sjors/starred{/owner}{/repo}",
      "subscriptions_url": "https://api.github.com/users/Sjors/subscriptions",
      "organizations_url": "https://api.github.com/users/Sjors/orgs",
      "repos_url": "https://api.github.com/users/Sjors/repos",
      "events_url": "https://api.github.com/users/Sjors/events{/privacy}",
      "received_events_url": "https://api.github.com/users/Sjors/received_events",
      "type": "User",
      "site_admin": false
    },
    "created_at": "2019-09-16T14:14:38Z",
    "updated_at": "2019-09-16T14:14:38Z",
    "author_association": "MEMBER",
    "body_html": "<p dir=\"auto\">Code review ACK d5ec57c, modulo (documentation) rebase.</p>",
    "body_text": "Code review ACK d5ec57c, modulo (documentation) rebase.",
    "body": "Code review ACK d5ec57c, modulo (documentation) rebase.",
    "reactions": {
      "url": "https://api.github.com/repos/bitcoin/bitcoin/issues/comments/531796537/reactions",
      "total_count": 0,
      "+1": 0,
      "-1": 0,
      "laugh": 0,
      "hooray": 0,
      "confused": 0,
      "heart": 0,
      "rocket": 0,
      "eyes": 0
    },
    "performed_via_github_app": null
  },
  {
    "url": "https://api.github.com/repos/bitcoin/bitcoin/issues/comments/533164426",
    "html_url": "https://github.com/bitcoin/bitcoin/pull/16743#issuecomment-533164426",
    "issue_url": "https://api.github.com/repos/bitcoin/bitcoin/issues/16743",
    "id": 533164426,
    "node_id": "MDEyOklzc3VlQ29tbWVudDUzMzE2NDQyNg==",
    "user": {
      "login": "maflcko",
      "id": 6399679,
      "node_id": "MDQ6VXNlcjYzOTk2Nzk=",
      "avatar_url": "https://avatars.githubusercontent.com/u/6399679?v=4",
      "gravatar_id": "",
      "url": "https://api.github.com/users/maflcko",
      "html_url": "https://github.com/maflcko",
      "followers_url": "https://api.github.com/users/maflcko/followers",
      "following_url": "https://api.github.com/users/maflcko/following{/other_user}",
      "gists_url": "https://api.github.com/users/maflcko/gists{/gist_id}",
      "starred_url": "https://api.github.com/users/maflcko/starred{/owner}{/repo}",
      "subscriptions_url": "https://api.github.com/users/maflcko/subscriptions",
      "organizations_url": "https://api.github.com/users/maflcko/orgs",
      "repos_url": "https://api.github.com/users/maflcko/repos",
      "events_url": "https://api.github.com/users/maflcko/events{/privacy}",
      "received_events_url": "https://api.github.com/users/maflcko/received_events",
      "type": "User",
      "site_admin": false
    },
    "created_at": "2019-09-19T14:44:41Z",
    "updated_at": "2019-09-19T14:44:41Z",
    "author_association": "MEMBER",
    "body_html": "<p dir=\"auto\">ACK <a class=\"commit-link\" data-hovercard-type=\"commit\" data-hovercard-url=\"https://github.com/bitcoin/bitcoin/commit/3cf36736e540cf06250701f0934a7946836d000d/hovercard\" href=\"https://github.com/bitcoin/bitcoin/commit/3cf36736e540cf06250701f0934a7946836d000d\"><tt>3cf3673</tt></a></p>\n<details><summary>Show signature and timestamp</summary>\n<p dir=\"auto\">Signature:</p>\n<div class=\"snippet-clipboard-content notranslate position-relative overflow-auto\" data-snippet-clipboard-copy-content=\"-----BEGIN PGP SIGNED MESSAGE-----\nHash: SHA512\n\nACK 3cf36736e540cf06250701f0934a7946836d000d\n-----BEGIN PGP SIGNATURE-----\n\niQGzBAEBCgAdFiEE+rVPoUahrI9sLGYTzit1aX5ppUgFAlwqrYAACgkQzit1aX5p\npUgWggwAk5LJRQCCsph2Kzd8DOd0PsGc1rbpdt/XaoH4u+PbxXElKrFQMTKN86iD\ndGeChxEFLVb6k/p9VXBm7ZL6fAw6WpINbJV4yMys7ZakJ9w3taZiH96SkKp5wPm4\n83oH9jtSgIM3TV+0Y6mSDtBsEpHZz0RT+MjLdUTaUq/1Lh1ZESsokYX61rX9guth\nl6ca5P7KVlb4iOrQSeEnUHXwkmOUQKFWORra1ZDkwgBxCv8PjNXnYUF7d8WIJzIl\nsdDtEaJsONcdHbguz8Jh11U/hdzqV07v/scJYIFxCoTx7poAIiUvLG4tX0MM8yZW\na8qYnmY1Jbq+XKRc6+T9tDL6LLXDwQiW0Y2fG2Oz2y2eVccp+16HG5CmDCTIpw/H\nPOD9NkR/YIxSA6eWzP2ee1hKJJu63Bae7HCWE57jCLaC0Hla3FHYrdTbpIo70yIZ\nrHigWoZCLVmgmCRomB9IMbDpsROvG/MXH0b/0hgeRVWIuCj1tRBSetYCm1RiQGCL\nDTb1hvTS\n=7wt1\n-----END PGP SIGNATURE-----\"><pre class=\"notranslate\"><code class=\"notranslate\">-----BEGIN PGP SIGNED MESSAGE-----\nHash: SHA512\n\nACK 3cf36736e540cf06250701f0934a7946836d000d\n-----BEGIN PGP SIGNATURE-----\n\niQGzBAEBCgAdFiEE+rVPoUahrI9sLGYTzit1aX5ppUgFAlwqrYAACgkQzit1aX5p\npUgWggwAk5LJRQCCsph2Kzd8DOd0PsGc1rbpdt/XaoH4u+PbxXElKrFQMTKN86iD\ndGeChxEFLVb6k/p9VXBm7ZL6fAw6WpINbJV4yMys7ZakJ9w3taZiH96SkKp5wPm4\n83oH9jtSgIM3TV+0Y6mSDtBsEpHZz0RT+MjLdUTaUq/1Lh1ZESsokYX61rX9guth\nl6ca5P7KVlb4iOrQSeEnUHXwkmOUQKFWORra1ZDkwgBxCv8PjNXnYUF7d8WIJzIl\nsdDtEaJsONcdHbguz8Jh11U/hdzqV07v/scJYIFxCoTx7poAIiUvLG4tX0MM8yZW\na8qYnmY1Jbq+XKRc6+T9tDL6LLXDwQiW0Y2fG2Oz2y2eVccp+16HG5CmDCTIpw/H\nPOD9NkR/YIxSA6eWzP2ee1hKJJu63Bae7HCWE57jCLaC0Hla3FHYrdTbpIo70yIZ\nrHigWoZCLVmgmCRomB9IMbDpsROvG/MXH0b/0hgeRVWIuCj1tRBSetYCm1RiQGCL\nDTb1hvTS\n=7wt1\n-----END PGP SIGNATURE-----\n</code></pre></div>\n<p dir=\"auto\"><a href=\"https://opentimestamps.org/info/?004f70656e54696d657374616d7073000050726f6f6600bf89e2e884e892940108e56693f3040a22575c73812bb2cbe85f4068287b758fc92f82ffa57153a7f872f010ff4a972e767b63e5cdab67be69da13eb08fff010a30b810e851afbbe48ab746c2b7bccae08f1045d83944af0082a6384590cd0d3e60083dfe30d2ef90c8e2c2b68747470733a2f2f626f622e6274632e63616c656e6461722e6f70656e74696d657374616d70732e6f7267fff010d26d0467eda2f74b567a119072a0a9d508f1045d83944af008a93b591078ae07c50083dfe30d2ef90c8e232268747470733a2f2f6274632e63616c656e6461722e636174616c6c6178792e636f6dfff010d4494856b7c4bcc5d54f03a6b5dd335008f1045d83944bf008314930c8ea73763e0083dfe30d2ef90c8e2e2d68747470733a2f2f616c6963652e6274632e63616c656e6461722e6f70656e74696d657374616d70732e6f7267f010f14bc738c8c630d5b41054de68d604f308f1045d83944bf00879c5e132e6d55c5e0083dfe30d2ef90c8e292868747470733a2f2f66696e6e65792e63616c656e6461722e657465726e69747977616c6c2e636f6d\" rel=\"nofollow\">Timestamp of file with hash <code class=\"notranslate\">e56693f3040a22575c73812bb2cbe85f4068287b758fc92f82ffa57153a7f872  -</code></a></p>\n</details>",
    "body_text": "ACK 3cf3673\nShow signature and timestamp\nSignature:\n-----BEGIN PGP SIGNED MESSAGE-----\nHash: SHA512\n\nACK 3cf36736e540cf06250701f0934a7946836d000d\n-----BEGIN PGP SIGNATURE-----\n\niQGzBAEBCgAdFiEE+rVPoUahrI9sLGYTzit1aX5ppUgFAlwqrYAACgkQzit1aX5p\npUgWggwAk5LJRQCCsph2Kzd8DOd0PsGc1rbpdt/XaoH4u+PbxXElKrFQMTKN86iD\ndGeChxEFLVb6k/p9VXBm7ZL6fAw6WpINbJV4yMys7ZakJ9w3taZiH96SkKp5wPm4\n83oH9jtSgIM3TV+0Y6mSDtBsEpHZz0RT+MjLdUTaUq/1Lh1ZESsokYX61rX9guth\nl6ca5P7KVlb4iOrQSeEnUHXwkmOUQKFWORra1ZDkwgBxCv8PjNXnYUF7d8WIJzIl\nsdDtEaJsONcdHbguz8Jh11U/hdzqV07v/scJYIFxCoTx7poAIiUvLG4tX0MM8yZW\na8qYnmY1Jbq+XKRc6+T9tDL6LLXDwQiW0Y2fG2Oz2y2eVccp+16HG5CmDCTIpw/H\nPOD9NkR/YIxSA6eWzP2ee1hKJJu63Bae7HCWE57jCLaC0Hla3FHYrdTbpIo70yIZ\nrHigWoZCLVmgmCRomB9IMbDpsROvG/MXH0b/0hgeRVWIuCj1tRBSetYCm1RiQGCL\nDTb1hvTS\n=7wt1\n-----END PGP SIGNATURE-----\n\nTimestamp of file with hash e56693f3040a22575c73812bb2cbe85f4068287b758fc92f82ffa57153a7f872  -",
    "body": "ACK 3cf36736e540cf06250701f0934a7946836d000d\r\n\r\n<details><summary>Show signature and timestamp</summary>\r\n\r\nSignature:\r\n\r\n```\r\n-----BEGIN PGP SIGNED MESSAGE-----\r\nHash: SHA512\r\n\r\nACK 3cf36736e540cf06250701f0934a7946836d000d\r\n-----BEGIN PGP SIGNATURE-----\r\n\r\niQGzBAEBCgAdFiEE+rVPoUahrI9sLGYTzit1aX5ppUgFAlwqrYAACgkQzit1aX5p\r\npUgWggwAk5LJRQCCsph2Kzd8DOd0PsGc1rbpdt/XaoH4u+PbxXElKrFQMTKN86iD\r\ndGeChxEFLVb6k/p9VXBm7ZL6fAw6WpINbJV4yMys7ZakJ9w3taZiH96SkKp5wPm4\r\n83oH9jtSgIM3TV+0Y6mSDtBsEpHZz0RT+MjLdUTaUq/1Lh1ZESsokYX61rX9guth\r\nl6ca5P7KVlb4iOrQSeEnUHXwkmOUQKFWORra1ZDkwgBxCv8PjNXnYUF7d8WIJzIl\r\nsdDtEaJsONcdHbguz8Jh11U/hdzqV07v/scJYIFxCoTx7poAIiUvLG4tX0MM8yZW\r\na8qYnmY1Jbq+XKRc6+T9tDL6LLXDwQiW0Y2fG2Oz2y2eVccp+16HG5CmDCTIpw/H\r\nPOD9NkR/YIxSA6eWzP2ee1hKJJu63Bae7HCWE57jCLaC0Hla3FHYrdTbpIo70yIZ\r\nrHigWoZCLVmgmCRomB9IMbDpsROvG/MXH0b/0hgeRVWIuCj1tRBSetYCm1RiQGCL\r\nDTb1hvTS\r\n=7wt1\r\n-----END PGP SIGNATURE-----\r\n```\r\n\r\n[Timestamp of file with hash `e56693f3040a22575c73812bb2cbe85f4068287b758fc92f82ffa57153a7f872  -`](https://opentimestamps.org/info/?004f70656e54696d657374616d7073000050726f6f6600bf89e2e884e892940108e56693f3040a22575c73812bb2cbe85f4068287b758fc92f82ffa57153a7f872f010ff4a972e767b63e5cdab67be69da13eb08fff010a30b810e851afbbe48ab746c2b7bccae08f1045d83944af0082a6384590cd0d3e60083dfe30d2ef90c8e2c2b68747470733a2f2f626f622e6274632e63616c656e6461722e6f70656e74696d657374616d70732e6f7267fff010d26d0467eda2f74b567a119072a0a9d508f1045d83944af008a93b591078ae07c50083dfe30d2ef90c8e232268747470733a2f2f6274632e63616c656e6461722e636174616c6c6178792e636f6dfff010d4494856b7c4bcc5d54f03a6b5dd335008f1045d83944bf008314930c8ea73763e0083dfe30d2ef90c8e2e2d68747470733a2f2f616c6963652e6274632e63616c656e6461722e6f70656e74696d657374616d70732e6f7267f010f14bc738c8c630d5b41054de68d604f308f1045d83944bf00879c5e132e6d55c5e0083dfe30d2ef90c8e292868747470733a2f2f66696e6e65792e63616c656e6461722e657465726e69747977616c6c2e636f6d)\r\n\r\n</details>\r\n\r\n",
    "reactions": {
      "url": "https://api.github.com/repos/bitcoin/bitcoin/issues/comments/533164426/reactions",
      "total_count": 0,
      "+1": 0,
      "-1": 0,
      "laugh": 0,
      "hooray": 0,
      "confused": 0,
      "heart": 0,
      "rocket": 0,
      "eyes": 0
    },
    "performed_via_github_app": null
  }
]
