{
  "url": "https://api.github.com/repos/bitcoin/bitcoin/issues/15441",
  "repository_url": "https://api.github.com/repos/bitcoin/bitcoin",
  "labels_url": "https://api.github.com/repos/bitcoin/bitcoin/issues/15441/labels{/name}",
  "comments_url": "https://api.github.com/repos/bitcoin/bitcoin/issues/15441/comments",
  "events_url": "https://api.github.com/repos/bitcoin/bitcoin/issues/15441/events",
  "html_url": "https://github.com/bitcoin/bitcoin/pull/15441",
  "id": 411922945,
  "node_id": "MDExOlB1bGxSZXF1ZXN0MjU0MjUyMDgx",
  "number": 15441,
  "title": "[doc] build: warn against spaces in working directory",
  "user": {
    "login": "Sjors",
    "id": 10217,
    "node_id": "MDQ6VXNlcjEwMjE3",
    "avatar_url": "https://avatars.githubusercontent.com/u/10217?v=4",
    "gravatar_id": "",
    "url": "https://api.github.com/users/Sjors",
    "html_url": "https://github.com/Sjors",
    "followers_url": "https://api.github.com/users/Sjors/followers",
    "following_url": "https://api.github.com/users/Sjors/following{/other_user}",
    "gists_url": "https://api.github.com/users/Sjors/gists{/gist_id}",
    "starred_url": "https://api.github.com/users/Sjors/starred{/owner}{/repo}",
    "subscriptions_url": "https://api.github.com/users/Sjors/subscriptions",
    "organizations_url": "https://api.github.com/users/Sjors/orgs",
    "repos_url": "https://api.github.com/users/Sjors/repos",
    "events_url": "https://api.github.com/users/Sjors/events{/privacy}",
    "received_events_url": "https://api.github.com/users/Sjors/received_events",
    "type": "User",
    "site_admin": false
  },
  "labels": [
    {
      "id": 148216,
      "node_id": "MDU6TGFiZWwxNDgyMTY=",
      "url": "https://api.github.com/repos/bitcoin/bitcoin/labels/Docs",
      "name": "Docs",
      "color": "02d7e1",
      "default": false,
      "description": null
    }
  ],
  "state": "closed",
  "locked": true,
  "assignee": null,
  "assignees": [

  ],
  "milestone": null,
  "comments": 12,
  "created_at": "2019-02-19T13:27:19Z",
  "updated_at": "2022-02-15T10:29:49Z",
  "closed_at": "2020-04-23T17:03:31Z",
  "author_association": "MEMBER",
  "active_lock_reason": "resolved",
  "draft": false,
  "pull_request": {
    "url": "https://api.github.com/repos/bitcoin/bitcoin/pulls/15441",
    "html_url": "https://github.com/bitcoin/bitcoin/pull/15441",
    "diff_url": "https://github.com/bitcoin/bitcoin/pull/15441.diff",
    "patch_url": "https://github.com/bitcoin/bitcoin/pull/15441.patch",
    "merged_at": null
  },
  "body_html": "<p dir=\"auto\"><span class=\"issue-keyword tooltipped tooltipped-se\" aria-label=\"This pull request closes issue #12528.\">Fixes</span> <a class=\"issue-link js-issue-link\" data-error-text=\"Failed to load title\" data-id=\"299945665\" data-permission-text=\"Title is private\" data-url=\"https://github.com/bitcoin/bitcoin/issues/12528\" data-hovercard-type=\"issue\" data-hovercard-url=\"/bitcoin/bitcoin/issues/12528/hovercard\" href=\"https://github.com/bitcoin/bitcoin/issues/12528\">#12528</a> and <span class=\"issue-keyword tooltipped tooltipped-se\" aria-label=\"This pull request closes issue #12529.\">fixes</span> <a class=\"issue-link js-issue-link\" data-error-text=\"Failed to load title\" data-id=\"299953695\" data-permission-text=\"Title is private\" data-url=\"https://github.com/bitcoin/bitcoin/issues/12529\" data-hovercard-type=\"issue\" data-hovercard-url=\"/bitcoin/bitcoin/issues/12529/hovercard\" href=\"https://github.com/bitcoin/bitcoin/issues/12529\">#12529</a>.</p>",
  "body_text": "Fixes #12528 and fixes #12529.",
  "body": "Fixes #12528 and fixes #12529.",
  "closed_by": {
    "login": "Sjors",
    "id": 10217,
    "node_id": "MDQ6VXNlcjEwMjE3",
    "avatar_url": "https://avatars.githubusercontent.com/u/10217?v=4",
    "gravatar_id": "",
    "url": "https://api.github.com/users/Sjors",
    "html_url": "https://github.com/Sjors",
    "followers_url": "https://api.github.com/users/Sjors/followers",
    "following_url": "https://api.github.com/users/Sjors/following{/other_user}",
    "gists_url": "https://api.github.com/users/Sjors/gists{/gist_id}",
    "starred_url": "https://api.github.com/users/Sjors/starred{/owner}{/repo}",
    "subscriptions_url": "https://api.github.com/users/Sjors/subscriptions",
    "organizations_url": "https://api.github.com/users/Sjors/orgs",
    "repos_url": "https://api.github.com/users/Sjors/repos",
    "events_url": "https://api.github.com/users/Sjors/events{/privacy}",
    "received_events_url": "https://api.github.com/users/Sjors/received_events",
    "type": "User",
    "site_admin": false
  },
  "reactions": {
    "url": "https://api.github.com/repos/bitcoin/bitcoin/issues/15441/reactions",
    "total_count": 0,
    "+1": 0,
    "-1": 0,
    "laugh": 0,
    "hooray": 0,
    "confused": 0,
    "heart": 0,
    "rocket": 0,
    "eyes": 0
  },
  "timeline_url": "https://api.github.com/repos/bitcoin/bitcoin/issues/15441/timeline",
  "performed_via_github_app": null,
  "state_reason": null
}
