{
  "url": "https://api.github.com/repos/bitcoin/bitcoin/issues/17076",
  "repository_url": "https://api.github.com/repos/bitcoin/bitcoin",
  "labels_url": "https://api.github.com/repos/bitcoin/bitcoin/issues/17076/labels{/name}",
  "comments_url": "https://api.github.com/repos/bitcoin/bitcoin/issues/17076/comments",
  "events_url": "https://api.github.com/repos/bitcoin/bitcoin/issues/17076/events",
  "html_url": "https://github.com/bitcoin/bitcoin/pull/17076",
  "id": 504044696,
  "node_id": "MDExOlB1bGxSZXF1ZXN0MzI1NzcyMjkx",
  "number": 17076,
  "title": "tests: Add fuzzing harness for CheckTransaction(...), IsStandardTx(...) and other CTransaction related functions",
  "user": {
    "login": "practicalswift",
    "id": 7826565,
    "node_id": "MDQ6VXNlcjc4MjY1NjU=",
    "avatar_url": "https://avatars.githubusercontent.com/u/7826565?v=4",
    "gravatar_id": "",
    "url": "https://api.github.com/users/practicalswift",
    "html_url": "https://github.com/practicalswift",
    "followers_url": "https://api.github.com/users/practicalswift/followers",
    "following_url": "https://api.github.com/users/practicalswift/following{/other_user}",
    "gists_url": "https://api.github.com/users/practicalswift/gists{/gist_id}",
    "starred_url": "https://api.github.com/users/practicalswift/starred{/owner}{/repo}",
    "subscriptions_url": "https://api.github.com/users/practicalswift/subscriptions",
    "organizations_url": "https://api.github.com/users/practicalswift/orgs",
    "repos_url": "https://api.github.com/users/practicalswift/repos",
    "events_url": "https://api.github.com/users/practicalswift/events{/privacy}",
    "received_events_url": "https://api.github.com/users/practicalswift/received_events",
    "type": "User",
    "site_admin": false
  },
  "labels": [
    {
      "id": 62963516,
      "node_id": "MDU6TGFiZWw2Mjk2MzUxNg==",
      "url": "https://api.github.com/repos/bitcoin/bitcoin/labels/Tests",
      "name": "Tests",
      "color": "d4c5f9",
      "default": false,
      "description": null
    }
  ],
  "state": "closed",
  "locked": true,
  "assignee": null,
  "assignees": [

  ],
  "milestone": null,
  "comments": 2,
  "created_at": "2019-10-08T13:28:54Z",
  "updated_at": "2022-08-18T18:30:12Z",
  "closed_at": "2019-10-10T13:20:23Z",
  "author_association": "CONTRIBUTOR",
  "active_lock_reason": "resolved",
  "draft": false,
  "pull_request": {
    "url": "https://api.github.com/repos/bitcoin/bitcoin/pulls/17076",
    "html_url": "https://github.com/bitcoin/bitcoin/pull/17076",
    "diff_url": "https://github.com/bitcoin/bitcoin/pull/17076.diff",
    "patch_url": "https://github.com/bitcoin/bitcoin/pull/17076.patch",
    "merged_at": "2019-10-10T13:20:22Z"
  },
  "body_html": "<p dir=\"auto\">Add fuzzing harness for <code class=\"notranslate\">CheckTransaction(...)</code>, <code class=\"notranslate\">IsStandardTx(...)</code> and other <code class=\"notranslate\">CTransaction</code> related functions.</p>\n<p dir=\"auto\"><strong>Testing this PR</strong></p>\n<p dir=\"auto\">Run:</p>\n<div class=\"snippet-clipboard-content notranslate position-relative overflow-auto\" data-snippet-clipboard-copy-content=\"$ CC=clang CXX=clang++ ./configure --enable-fuzz --with-sanitizers=address,fuzzer,undefined\n$ make\n$ src/test/fuzz/transaction\n…\n# And to to quickly verify that the relevant code regions are triggered, that the\n# fuzzing throughput seems reasonable, etc.\n$ contrib/devtools/test_fuzzing_harnesses.sh '^transaction$'\"><pre class=\"notranslate\"><code class=\"notranslate\">$ CC=clang CXX=clang++ ./configure --enable-fuzz --with-sanitizers=address,fuzzer,undefined\n$ make\n$ src/test/fuzz/transaction\n…\n# And to to quickly verify that the relevant code regions are triggered, that the\n# fuzzing throughput seems reasonable, etc.\n$ contrib/devtools/test_fuzzing_harnesses.sh '^transaction$'\n</code></pre></div>\n<p dir=\"auto\"><code class=\"notranslate\">test_fuzzing_harnesses.sh</code> can be found in PR <a class=\"issue-link js-issue-link\" data-error-text=\"Failed to load title\" data-id=\"500440931\" data-permission-text=\"Title is private\" data-url=\"https://github.com/bitcoin/bitcoin/issues/17000\" data-hovercard-type=\"pull_request\" data-hovercard-url=\"/bitcoin/bitcoin/pull/17000/hovercard\" href=\"https://github.com/bitcoin/bitcoin/pull/17000\">#17000</a>.</p>",
  "body_text": "Add fuzzing harness for CheckTransaction(...), IsStandardTx(...) and other CTransaction related functions.\nTesting this PR\nRun:\n$ CC=clang CXX=clang++ ./configure --enable-fuzz --with-sanitizers=address,fuzzer,undefined\n$ make\n$ src/test/fuzz/transaction\n…\n# And to to quickly verify that the relevant code regions are triggered, that the\n# fuzzing throughput seems reasonable, etc.\n$ contrib/devtools/test_fuzzing_harnesses.sh '^transaction$'\n\ntest_fuzzing_harnesses.sh can be found in PR #17000.",
  "body": "Add fuzzing harness for `CheckTransaction(...)`, `IsStandardTx(...)` and other `CTransaction` related functions.\r\n\r\n**Testing this PR**\r\n\r\nRun:\r\n\r\n```\r\n$ CC=clang CXX=clang++ ./configure --enable-fuzz --with-sanitizers=address,fuzzer,undefined\r\n$ make\r\n$ src/test/fuzz/transaction\r\n…\r\n# And to to quickly verify that the relevant code regions are triggered, that the\r\n# fuzzing throughput seems reasonable, etc.\r\n$ contrib/devtools/test_fuzzing_harnesses.sh '^transaction$'\r\n```\r\n\r\n`test_fuzzing_harnesses.sh` can be found in PR #17000.",
  "closed_by": {
    "login": "maflcko",
    "id": 6399679,
    "node_id": "MDQ6VXNlcjYzOTk2Nzk=",
    "avatar_url": "https://avatars.githubusercontent.com/u/6399679?v=4",
    "gravatar_id": "",
    "url": "https://api.github.com/users/maflcko",
    "html_url": "https://github.com/maflcko",
    "followers_url": "https://api.github.com/users/maflcko/followers",
    "following_url": "https://api.github.com/users/maflcko/following{/other_user}",
    "gists_url": "https://api.github.com/users/maflcko/gists{/gist_id}",
    "starred_url": "https://api.github.com/users/maflcko/starred{/owner}{/repo}",
    "subscriptions_url": "https://api.github.com/users/maflcko/subscriptions",
    "organizations_url": "https://api.github.com/users/maflcko/orgs",
    "repos_url": "https://api.github.com/users/maflcko/repos",
    "events_url": "https://api.github.com/users/maflcko/events{/privacy}",
    "received_events_url": "https://api.github.com/users/maflcko/received_events",
    "type": "User",
    "site_admin": false
  },
  "reactions": {
    "url": "https://api.github.com/repos/bitcoin/bitcoin/issues/17076/reactions",
    "total_count": 0,
    "+1": 0,
    "-1": 0,
    "laugh": 0,
    "hooray": 0,
    "confused": 0,
    "heart": 0,
    "rocket": 0,
    "eyes": 0
  },
  "timeline_url": "https://api.github.com/repos/bitcoin/bitcoin/issues/17076/timeline",
  "performed_via_github_app": null,
  "state_reason": null
}
