{
  "url": "https://api.github.com/repos/bitcoin/bitcoin/issues/8262",
  "repository_url": "https://api.github.com/repos/bitcoin/bitcoin",
  "labels_url": "https://api.github.com/repos/bitcoin/bitcoin/issues/8262/labels{/name}",
  "comments_url": "https://api.github.com/repos/bitcoin/bitcoin/issues/8262/comments",
  "events_url": "https://api.github.com/repos/bitcoin/bitcoin/issues/8262/events",
  "html_url": "https://github.com/bitcoin/bitcoin/pull/8262",
  "id": 162275758,
  "node_id": "MDExOlB1bGxSZXF1ZXN0NzUyMDIxMTY=",
  "number": 8262,
  "title": "Forgetaddress 0.12",
  "user": {
    "login": "btccode",
    "id": 20139079,
    "node_id": "MDQ6VXNlcjIwMTM5MDc5",
    "avatar_url": "https://avatars.githubusercontent.com/u/20139079?v=4",
    "gravatar_id": "",
    "url": "https://api.github.com/users/btccode",
    "html_url": "https://github.com/btccode",
    "followers_url": "https://api.github.com/users/btccode/followers",
    "following_url": "https://api.github.com/users/btccode/following{/other_user}",
    "gists_url": "https://api.github.com/users/btccode/gists{/gist_id}",
    "starred_url": "https://api.github.com/users/btccode/starred{/owner}{/repo}",
    "subscriptions_url": "https://api.github.com/users/btccode/subscriptions",
    "organizations_url": "https://api.github.com/users/btccode/orgs",
    "repos_url": "https://api.github.com/users/btccode/repos",
    "events_url": "https://api.github.com/users/btccode/events{/privacy}",
    "received_events_url": "https://api.github.com/users/btccode/received_events",
    "type": "User",
    "site_admin": false
  },
  "labels": [

  ],
  "state": "closed",
  "locked": true,
  "assignee": null,
  "assignees": [

  ],
  "milestone": null,
  "comments": 0,
  "created_at": "2016-06-25T10:52:47Z",
  "updated_at": "2021-09-08T11:02:30Z",
  "closed_at": "2016-06-25T10:53:39Z",
  "author_association": "NONE",
  "active_lock_reason": "resolved",
  "draft": false,
  "pull_request": {
    "url": "https://api.github.com/repos/bitcoin/bitcoin/pulls/8262",
    "html_url": "https://github.com/bitcoin/bitcoin/pull/8262",
    "diff_url": "https://github.com/bitcoin/bitcoin/pull/8262.diff",
    "patch_url": "https://github.com/bitcoin/bitcoin/pull/8262.patch",
    "merged_at": null
  },
  "body_html": "",
  "body_text": "",
  "body": "",
  "closed_by": {
    "login": "btccode",
    "id": 20139079,
    "node_id": "MDQ6VXNlcjIwMTM5MDc5",
    "avatar_url": "https://avatars.githubusercontent.com/u/20139079?v=4",
    "gravatar_id": "",
    "url": "https://api.github.com/users/btccode",
    "html_url": "https://github.com/btccode",
    "followers_url": "https://api.github.com/users/btccode/followers",
    "following_url": "https://api.github.com/users/btccode/following{/other_user}",
    "gists_url": "https://api.github.com/users/btccode/gists{/gist_id}",
    "starred_url": "https://api.github.com/users/btccode/starred{/owner}{/repo}",
    "subscriptions_url": "https://api.github.com/users/btccode/subscriptions",
    "organizations_url": "https://api.github.com/users/btccode/orgs",
    "repos_url": "https://api.github.com/users/btccode/repos",
    "events_url": "https://api.github.com/users/btccode/events{/privacy}",
    "received_events_url": "https://api.github.com/users/btccode/received_events",
    "type": "User",
    "site_admin": false
  },
  "reactions": {
    "url": "https://api.github.com/repos/bitcoin/bitcoin/issues/8262/reactions",
    "total_count": 0,
    "+1": 0,
    "-1": 0,
    "laugh": 0,
    "hooray": 0,
    "confused": 0,
    "heart": 0,
    "rocket": 0,
    "eyes": 0
  },
  "timeline_url": "https://api.github.com/repos/bitcoin/bitcoin/issues/8262/timeline",
  "performed_via_github_app": null,
  "state_reason": null
}
