{
  "url": "https://api.github.com/repos/bitcoin/bitcoin/issues/17664",
  "repository_url": "https://api.github.com/repos/bitcoin/bitcoin",
  "labels_url": "https://api.github.com/repos/bitcoin/bitcoin/issues/17664/labels{/name}",
  "comments_url": "https://api.github.com/repos/bitcoin/bitcoin/issues/17664/comments",
  "events_url": "https://api.github.com/repos/bitcoin/bitcoin/issues/17664/events",
  "html_url": "https://github.com/bitcoin/bitcoin/issues/17664",
  "id": 532353742,
  "node_id": "MDU6SXNzdWU1MzIzNTM3NDI=",
  "number": 17664,
  "title": "OSX Mojave (10.14.6) build fails compiling univalue",
  "user": {
    "login": "gr33k",
    "id": 5171932,
    "node_id": "MDQ6VXNlcjUxNzE5MzI=",
    "avatar_url": "https://avatars.githubusercontent.com/u/5171932?v=4",
    "gravatar_id": "",
    "url": "https://api.github.com/users/gr33k",
    "html_url": "https://github.com/gr33k",
    "followers_url": "https://api.github.com/users/gr33k/followers",
    "following_url": "https://api.github.com/users/gr33k/following{/other_user}",
    "gists_url": "https://api.github.com/users/gr33k/gists{/gist_id}",
    "starred_url": "https://api.github.com/users/gr33k/starred{/owner}{/repo}",
    "subscriptions_url": "https://api.github.com/users/gr33k/subscriptions",
    "organizations_url": "https://api.github.com/users/gr33k/orgs",
    "repos_url": "https://api.github.com/users/gr33k/repos",
    "events_url": "https://api.github.com/users/gr33k/events{/privacy}",
    "received_events_url": "https://api.github.com/users/gr33k/received_events",
    "type": "User",
    "site_admin": false
  },
  "labels": [
    {
      "id": 234879,
      "node_id": "MDU6TGFiZWwyMzQ4Nzk=",
      "url": "https://api.github.com/repos/bitcoin/bitcoin/labels/macOS",
      "name": "macOS",
      "color": "660000",
      "default": false,
      "description": ""
    },
    {
      "id": 159815356,
      "node_id": "MDU6TGFiZWwxNTk4MTUzNTY=",
      "url": "https://api.github.com/repos/bitcoin/bitcoin/labels/Upstream",
      "name": "Upstream",
      "color": "bfd4f2",
      "default": false,
      "description": null
    },
    {
      "id": 477890092,
      "node_id": "MDU6TGFiZWw0Nzc4OTAwOTI=",
      "url": "https://api.github.com/repos/bitcoin/bitcoin/labels/Questions%20and%20Help",
      "name": "Questions and Help",
      "color": "006688",
      "default": false,
      "description": null
    }
  ],
  "state": "closed",
  "locked": true,
  "assignee": null,
  "assignees": [

  ],
  "milestone": null,
  "comments": 3,
  "created_at": "2019-12-04T00:12:56Z",
  "updated_at": "2019-12-05T14:00:50Z",
  "closed_at": "2019-12-04T03:32:14Z",
  "author_association": "NONE",
  "active_lock_reason": null,
  "body_html": "<p dir=\"auto\">Git pull origin - go in to ./src/univalue</p>\n<p dir=\"auto\">./autogen.sh<br>\n./configure<br>\nmake</p>\n<p dir=\"auto\">make clean and two different coins attempted with same results.<br>\nOSX 10.14.6 (Mojave)</p>\n<p dir=\"auto\">Please advise if this is incompatibility or if I'm missing something :)</p>\n<p dir=\"auto\">gcc -v<br>\nConfigured with: --prefix=/Applications/Xcode.app/Contents/Developer/usr --with-gxx-include-dir=/Library/Developer/CommandLineTools/SDKs/MacOSX.sdk/usr/include/c++/4.2.1<br>\nApple clang version 11.0.0 (clang-1100.0.33.12)<br>\nTarget: x86_64-apple-darwin18.7.0<br>\nThread model: posix<br>\nInstalledDir: /Applications/Xcode.app/Contents/Developer/Toolchains/XcodeDefault.xctoolchain/usr/bin</p>\n<p dir=\"auto\">Full output:<br>\n./autogen.sh<br>\nglibtoolize: putting auxiliary files in AC_CONFIG_AUX_DIR, 'build-aux'.<br>\nglibtoolize: copying file 'build-aux/ltmain.sh'<br>\nglibtoolize: putting macros in AC_CONFIG_MACRO_DIRS, 'build-aux/m4'.<br>\nglibtoolize: copying file 'build-aux/m4/libtool.m4'<br>\nglibtoolize: copying file 'build-aux/m4/ltoptions.m4'<br>\nglibtoolize: copying file 'build-aux/m4/ltsugar.m4'<br>\nglibtoolize: copying file 'build-aux/m4/ltversion.m4'<br>\nglibtoolize: copying file 'build-aux/m4/lt~obsolete.m4'</p>\n<p dir=\"auto\">./configure<br>\nconfigure.ac:45: installing 'build-aux/compile'<br>\nconfigure.ac:45: installing 'build-aux/config.guess'<br>\nconfigure.ac:45: installing 'build-aux/config.sub'<br>\nconfigure.ac:28: installing 'build-aux/install-sh'<br>\nconfigure.ac:28: installing 'build-aux/missing'<br>\nMakefile.am: installing 'build-aux/depcomp'<br>\nparallel-tests: installing 'build-aux/test-driver'<br>\nmachecking whether make supports nested variables... yes<br>\nchecking for a BSD-compatible install... /usr/bin/install -c<br>\nchecking whether build environment is sane... yes<br>\nkchecking for a thread-safe mkdir -p... build-aux/install-sh -c -d<br>\nchecking for gawk... no<br>\nchecking for mawk... no<br>\nchecking for nawk... no<br>\nchecking for awk... awk<br>\nchecking whether make sets $(MAKE)... yes<br>\nechecking build system type...<br>\nx86_64-apple-darwin18.7.0<br>\nchecking host system type... x86_64-apple-darwin18.7.0<br>\nchecking how to print strings... printf<br>\nchecking whether make supports the include directive... yes (GNU style)<br>\nchecking for gcc... gcc<br>\nchecking whether the C compiler works... yes<br>\nchecking for C compiler default output file name... a.out<br>\nchecking for suffix of executables...<br>\nchecking whether we are cross compiling... no<br>\nchecking for suffix of object files... o<br>\nchecking whether we are using the GNU C compiler... yes<br>\nchecking whether gcc accepts -g... yes<br>\nchecking for gcc option to accept ISO C89... none needed<br>\nchecking whether gcc understands -c and -o together... yes<br>\nchecking dependency style of gcc... gcc3<br>\nchecking for a sed that does not truncate output... /usr/bin/sed<br>\nchecking for grep that handles long lines and -e... /usr/bin/grep<br>\nchecking for egrep... /usr/bin/grep -E<br>\nchecking for fgrep... /usr/bin/grep -F<br>\nchecking for ld used by gcc... /Applications/Xcode.app/Contents/Developer/Toolchains/XcodeDefault.xctoolchain/usr/bin/ld<br>\nchecking if the linker (/Applications/Xcode.app/Contents/Developer/Toolchains/XcodeDefault.xctoolchain/usr/bin/ld) is GNU ld... no<br>\nchecking for BSD- or MS-compatible name lister (nm)... /usr/local/bin/nm -B<br>\nchecking the name lister (/usr/local/bin/nm -B) interface... BSD nm<br>\nchecking whether ln -s works... yes<br>\nchecking the maximum length of command line arguments... 196608<br>\nchecking how to convert x86_64-apple-darwin18.7.0 file names to x86_64-apple-darwin18.7.0 format... func_convert_file_noop<br>\nchecking how to convert x86_64-apple-darwin18.7.0 file names to toolchain format... func_convert_file_noop<br>\nchecking for /Applications/Xcode.app/Contents/Developer/Toolchains/XcodeDefault.xctoolchain/usr/bin/ld option to reload object files... -r<br>\nchecking for objdump... objdump<br>\nchecking how to recognize dependent libraries... pass_all<br>\nchecking for dlltool... dlltool<br>\nchecking how to associate runtime and link libraries... printf %s\\n<br>\nchecking for ar... ar<br>\nchecking for archiver <a class=\"user-mention notranslate\" data-hovercard-type=\"organization\" data-hovercard-url=\"/orgs/file/hovercard\" data-octo-click=\"hovercard-link-click\" data-octo-dimensions=\"link_type:self\" href=\"https://github.com/file\">@file</a> support... @<br>\nchecking for strip... strip<br>\nchecking for ranlib... ranlib<br>\nchecking command to parse /usr/local/bin/nm -B output from gcc object... ok<br>\nchecking for sysroot... no<br>\nchecking for a working dd... /bin/dd<br>\nchecking how to truncate binary pipes... /bin/dd bs=4096 count=1<br>\nchecking for mt... no<br>\nchecking if : is a manifest tool... no<br>\nchecking for dsymutil... dsymutil<br>\nchecking for nmedit... nmedit<br>\nchecking for lipo... lipo<br>\nchecking for otool... otool<br>\nchecking for otool64... no<br>\nchecking for -single_module linker flag... yes<br>\nchecking for -exported_symbols_list linker flag... yes<br>\nchecking for -force_load linker flag... no<br>\nchecking how to run the C preprocessor... gcc -E<br>\nchecking for ANSI C header files... yes<br>\nchecking for sys/types.h... yes<br>\nchecking for sys/stat.h... yes<br>\nchecking for stdlib.h... yes<br>\nchecking for string.h... yes<br>\nchecking for memory.h... yes<br>\nchecking for strings.h... yes<br>\nchecking for inttypes.h... yes<br>\nchecking for stdint.h... yes<br>\nchecking for unistd.h... yes<br>\nchecking for dlfcn.h... yes<br>\nchecking for objdir... .libs<br>\nchecking if gcc supports -fno-rtti -fno-exceptions... yes<br>\nchecking for gcc option to produce PIC... -fno-common -DPIC<br>\nchecking if gcc PIC flag -fno-common -DPIC works... yes<br>\nchecking if gcc static flag -static works... no<br>\nchecking if gcc supports -c -o file.o... yes<br>\nchecking if gcc supports -c -o file.o... (cached) yes<br>\nchecking whether the gcc linker (/Applications/Xcode.app/Contents/Developer/Toolchains/XcodeDefault.xctoolchain/usr/bin/ld) supports shared libraries... yes<br>\nchecking dynamic linker characteristics... darwin18.7.0 dyld<br>\nchecking how to hardcode library paths into programs... immediate<br>\nchecking whether stripping libraries is possible... yes<br>\nchecking if libtool supports shared libraries... yes<br>\nchecking whether to build shared libraries... yes<br>\nchecking whether to build static libraries... yes<br>\nchecking for g++... g++<br>\nchecking whether we are using the GNU C++ compiler... yes<br>\nchecking whether g++ accepts -g... yes<br>\nchecking dependency style of g++... gcc3<br>\nchecking how to run the C++ preprocessor... g++ -E<br>\nchecking for ld used by g++... /Applications/Xcode.app/Contents/Developer/Toolchains/XcodeDefault.xctoolchain/usr/bin/ld<br>\nchecking if the linker (/Applications/Xcode.app/Contents/Developer/Toolchains/XcodeDefault.xctoolchain/usr/bin/ld) is GNU ld... no<br>\nchecking whether the g++ linker (/Applications/Xcode.app/Contents/Developer/Toolchains/XcodeDefault.xctoolchain/usr/bin/ld) supports shared libraries... yes<br>\nchecking for g++ option to produce PIC... -fno-common -DPIC<br>\nchecking if g++ PIC flag -fno-common -DPIC works... yes<br>\nchecking if g++ static flag -static works... no<br>\nchecking if g++ supports -c -o file.o... yes<br>\nchecking if g++ supports -c -o file.o... (cached) yes<br>\nchecking whether the g++ linker (/Applications/Xcode.app/Contents/Developer/Toolchains/XcodeDefault.xctoolchain/usr/bin/ld) supports shared libraries... yes<br>\nchecking dynamic linker characteristics... darwin18.7.0 dyld<br>\nchecking how to hardcode library paths into programs... immediate<br>\nchecking that generated files are newer than configure... done<br>\nconfigure: creating ./config.status<br>\nconfig.status: creating Makefile<br>\nconfig.status: creating pc/libunivalue.pc<br>\nconfig.status: creating pc/libunivalue-uninstalled.pc<br>\nconfig.status: creating univalue-config.h<br>\nconfig.status: executing depfiles commands<br>\nconfig.status: executing libtool commands</p>\n<p dir=\"auto\">make<br>\n/Applications/Xcode.app/Contents/Developer/usr/bin/make  all-am<br>\nCXX      test/object-object.o<br>\nCXX      lib/libunivalue_la-univalue.lo<br>\nCXX      lib/libunivalue_la-univalue_get.lo<br>\nCXX      lib/libunivalue_la-univalue_read.lo<br>\nCXX      lib/libunivalue_la-univalue_write.lo<br>\nCXXLD    libunivalue.la<br>\nar: <code class=\"notranslate\">u' modifier ignored since </code>D' is the default (see `U')<br>\nCXXLD    test/object<br>\n<strong>ld: warning: ignoring file ./.libs/libunivalue.a, building for macOS-x86_64 but attempting to link with file built for unknown-unsupported file format ( 0x21 0x3C 0x61 0x72 0x63 0x68 0x3E 0x0A 0x2F 0x20 0x20 0x20 0x20 0x20 0x20 0x20 )<br>\nUndefined symbols for architecture x86_64:</strong><br>\n\"UniValue::push_backV(std::__1::vector&lt;UniValue, std::__1::allocator &gt; const&amp;)\", referenced from:<br>\nunivalue_array() in object-object.o<br>\n\"UniValue::read(char const*, unsigned long)\", referenced from:<br>\nunivalue_typecheck() in object-object.o<br>\nunivalue_readwrite() in object-object.o<br>\n\"UniValue::clear()\", referenced from:<br>\nunivalue_set() in object-object.o<br>\nunivalue_array() in object-object.o<br>\nunivalue_object() in object-object.o<br>\n\"UniValue::pushKV(std::__1::basic_string&lt;char, std::__1::char_traits, std::__1::allocator &gt; const&amp;, UniValue const&amp;)\", referenced from:<br>\nunivalue_object() in object-object.o<br>\nUniValue::pushKV(std::__1::basic_string&lt;char, std::__1::char_traits, std::__1::allocator &gt; const&amp;, char const*) in object-object.o<br>\n\"UniValue::setInt(long long)\", referenced from:<br>\nunivalue_set() in object-object.o<br>\nunivalue_object() in object-object.o<br>\nUniValue::UniValue(long long) in object-object.o<br>\nUniValue::UniValue(int) in object-object.o<br>\n\"UniValue::setInt(unsigned long long)\", referenced from:<br>\nunivalue_set() in object-object.o<br>\nUniValue::UniValue(unsigned long long) in object-object.o<br>\n\"UniValue::setStr(std::__1::basic_string&lt;char, std::__1::char_traits, std::__1::allocator &gt; const&amp;)\", referenced from:<br>\nunivalue_set() in object-object.o<br>\nunivalue_array() in object-object.o<br>\nUniValue::UniValue(std::__1::basic_string&lt;char, std::__1::char_traits, std::__1::allocator &gt; const&amp;) in object-object.o<br>\nUniValue::UniValue(char const*) in object-object.o<br>\n\"UniValue::pushKVs(UniValue const&amp;)\", referenced from:<br>\nunivalue_object() in object-object.o<br>\n\"UniValue::setBool(bool)\", referenced from:<br>\nunivalue_typecheck() in object-object.o<br>\nunivalue_set() in object-object.o<br>\nUniValue::UniValue(bool) in object-object.o<br>\n\"UniValue::setNull()\", referenced from:<br>\nunivalue_set() in object-object.o<br>\n\"UniValue::__pushKV(std::__1::basic_string&lt;char, std::__1::char_traits, std::__1::allocator &gt; const&amp;, UniValue const&amp;)\", referenced from:<br>\nunivalue_object() in object-object.o<br>\n\"UniValue::setArray()\", referenced from:<br>\nunivalue_set() in object-object.o<br>\n\"UniValue::setFloat(double)\", referenced from:<br>\nunivalue_set() in object-object.o<br>\nUniValue::UniValue(double) in object-object.o<br>\n\"UniValue::push_back(UniValue const&amp;)\", referenced from:<br>\nunivalue_array() in object-object.o<br>\nUniValue::push_back(char const*) in object-object.o<br>\n\"UniValue::setNumStr(std::__1::basic_string&lt;char, std::__1::char_traits, std::__1::allocator &gt; const&amp;)\", referenced from:<br>\nunivalue_constructor() in object-object.o<br>\nunivalue_typecheck() in object-object.o<br>\nunivalue_set() in object-object.o<br>\n\"UniValue::setObject()\", referenced from:<br>\nunivalue_set() in object-object.o<br>\nunivalue_object() in object-object.o<br>\n\"UniValue::checkObject(std::__1::map&lt;std::__1::basic_string&lt;char, std::__1::char_traits, std::__1::allocator &gt;, UniValue::VType, std::__1::less&lt;std::__1::basic_string&lt;char, std::__1::char_traits, std::__1::allocator &gt; &gt;, std::__1::allocator&lt;std::__1::pair&lt;std::__1::basic_string&lt;char, std::__1::char_traits, std::__1::allocator &gt; const, UniValue::VType&gt; &gt; &gt; const&amp;) const\", referenced from:<br>\nunivalue_object() in object-object.o<br>\n\"UniValue::write(unsigned int, unsigned int) const\", referenced from:<br>\nunivalue_readwrite() in object-object.o<br>\n\"UniValue::findKey(std::__1::basic_string&lt;char, std::__1::char_traits, std::__1::allocator &gt; const&amp;, unsigned long&amp;) const\", referenced from:<br>\nunivalue_object() in object-object.o<br>\n\"UniValue::getKeys() const\", referenced from:<br>\nunivalue_typecheck() in object-object.o<br>\n\"UniValue::get_int() const\", referenced from:<br>\nunivalue_typecheck() in object-object.o<br>\n\"UniValue::get_obj() const\", referenced from:<br>\nunivalue_typecheck() in object-object.o<br>\n\"UniValue::get_str() const\", referenced from:<br>\nunivalue_typecheck() in object-object.o<br>\n\"UniValue::get_bool() const\", referenced from:<br>\nunivalue_typecheck() in object-object.o<br>\n\"UniValue::get_real() const\", referenced from:<br>\nunivalue_typecheck() in object-object.o<br>\n\"UniValue::getObjMap(std::__1::map&lt;std::__1::basic_string&lt;char, std::__1::char_traits, std::__1::allocator &gt;, UniValue, std::__1::less&lt;std::__1::basic_string&lt;char, std::__1::char_traits, std::__1::allocator &gt; &gt;, std::__1::allocator&lt;std::__1::pair&lt;std::__1::basic_string&lt;char, std::__1::char_traits, std::__1::allocator &gt; const, UniValue&gt; &gt; &gt;&amp;) const\", referenced from:<br>\nunivalue_object() in object-object.o<br>\n\"UniValue::getValues() const\", referenced from:<br>\nunivalue_typecheck() in object-object.o<br>\n\"UniValue::get_array() const\", referenced from:<br>\nunivalue_typecheck() in object-object.o<br>\n\"UniValue::get_int64() const\", referenced from:<br>\nunivalue_typecheck() in object-object.o<br>\n\"UniValue::operator[](std::__1::basic_string&lt;char, std::__1::char_traits, std::__1::allocator &gt; const&amp;) const\", referenced from:<br>\nunivalue_object() in object-object.o<br>\nunivalue_readwrite() in object-object.o<br>\n\"UniValue::operator[](unsigned long) const\", referenced from:<br>\nunivalue_array() in object-object.o<br>\nunivalue_readwrite() in object-object.o<br>\nld: symbol(s) not found for architecture x86_64<br>\nclang: error: linker command failed with exit code 1 (use -v to see invocation)<br>\nmake[1]: *** [test/object] Error 1<br>\nmake: *** [all] Error 2</p>",
  "body_text": "Git pull origin - go in to ./src/univalue\n./autogen.sh\n./configure\nmake\nmake clean and two different coins attempted with same results.\nOSX 10.14.6 (Mojave)\nPlease advise if this is incompatibility or if I'm missing something :)\ngcc -v\nConfigured with: --prefix=/Applications/Xcode.app/Contents/Developer/usr --with-gxx-include-dir=/Library/Developer/CommandLineTools/SDKs/MacOSX.sdk/usr/include/c++/4.2.1\nApple clang version 11.0.0 (clang-1100.0.33.12)\nTarget: x86_64-apple-darwin18.7.0\nThread model: posix\nInstalledDir: /Applications/Xcode.app/Contents/Developer/Toolchains/XcodeDefault.xctoolchain/usr/bin\nFull output:\n./autogen.sh\nglibtoolize: putting auxiliary files in AC_CONFIG_AUX_DIR, 'build-aux'.\nglibtoolize: copying file 'build-aux/ltmain.sh'\nglibtoolize: putting macros in AC_CONFIG_MACRO_DIRS, 'build-aux/m4'.\nglibtoolize: copying file 'build-aux/m4/libtool.m4'\nglibtoolize: copying file 'build-aux/m4/ltoptions.m4'\nglibtoolize: copying file 'build-aux/m4/ltsugar.m4'\nglibtoolize: copying file 'build-aux/m4/ltversion.m4'\nglibtoolize: copying file 'build-aux/m4/lt~obsolete.m4'\n./configure\nconfigure.ac:45: installing 'build-aux/compile'\nconfigure.ac:45: installing 'build-aux/config.guess'\nconfigure.ac:45: installing 'build-aux/config.sub'\nconfigure.ac:28: installing 'build-aux/install-sh'\nconfigure.ac:28: installing 'build-aux/missing'\nMakefile.am: installing 'build-aux/depcomp'\nparallel-tests: installing 'build-aux/test-driver'\nmachecking whether make supports nested variables... yes\nchecking for a BSD-compatible install... /usr/bin/install -c\nchecking whether build environment is sane... yes\nkchecking for a thread-safe mkdir -p... build-aux/install-sh -c -d\nchecking for gawk... no\nchecking for mawk... no\nchecking for nawk... no\nchecking for awk... awk\nchecking whether make sets $(MAKE)... yes\nechecking build system type...\nx86_64-apple-darwin18.7.0\nchecking host system type... x86_64-apple-darwin18.7.0\nchecking how to print strings... printf\nchecking whether make supports the include directive... yes (GNU style)\nchecking for gcc... gcc\nchecking whether the C compiler works... yes\nchecking for C compiler default output file name... a.out\nchecking for suffix of executables...\nchecking whether we are cross compiling... no\nchecking for suffix of object files... o\nchecking whether we are using the GNU C compiler... yes\nchecking whether gcc accepts -g... yes\nchecking for gcc option to accept ISO C89... none needed\nchecking whether gcc understands -c and -o together... yes\nchecking dependency style of gcc... gcc3\nchecking for a sed that does not truncate output... /usr/bin/sed\nchecking for grep that handles long lines and -e... /usr/bin/grep\nchecking for egrep... /usr/bin/grep -E\nchecking for fgrep... /usr/bin/grep -F\nchecking for ld used by gcc... /Applications/Xcode.app/Contents/Developer/Toolchains/XcodeDefault.xctoolchain/usr/bin/ld\nchecking if the linker (/Applications/Xcode.app/Contents/Developer/Toolchains/XcodeDefault.xctoolchain/usr/bin/ld) is GNU ld... no\nchecking for BSD- or MS-compatible name lister (nm)... /usr/local/bin/nm -B\nchecking the name lister (/usr/local/bin/nm -B) interface... BSD nm\nchecking whether ln -s works... yes\nchecking the maximum length of command line arguments... 196608\nchecking how to convert x86_64-apple-darwin18.7.0 file names to x86_64-apple-darwin18.7.0 format... func_convert_file_noop\nchecking how to convert x86_64-apple-darwin18.7.0 file names to toolchain format... func_convert_file_noop\nchecking for /Applications/Xcode.app/Contents/Developer/Toolchains/XcodeDefault.xctoolchain/usr/bin/ld option to reload object files... -r\nchecking for objdump... objdump\nchecking how to recognize dependent libraries... pass_all\nchecking for dlltool... dlltool\nchecking how to associate runtime and link libraries... printf %s\\n\nchecking for ar... ar\nchecking for archiver @file support... @\nchecking for strip... strip\nchecking for ranlib... ranlib\nchecking command to parse /usr/local/bin/nm -B output from gcc object... ok\nchecking for sysroot... no\nchecking for a working dd... /bin/dd\nchecking how to truncate binary pipes... /bin/dd bs=4096 count=1\nchecking for mt... no\nchecking if : is a manifest tool... no\nchecking for dsymutil... dsymutil\nchecking for nmedit... nmedit\nchecking for lipo... lipo\nchecking for otool... otool\nchecking for otool64... no\nchecking for -single_module linker flag... yes\nchecking for -exported_symbols_list linker flag... yes\nchecking for -force_load linker flag... no\nchecking how to run the C preprocessor... gcc -E\nchecking for ANSI C header files... yes\nchecking for sys/types.h... yes\nchecking for sys/stat.h... yes\nchecking for stdlib.h... yes\nchecking for string.h... yes\nchecking for memory.h... yes\nchecking for strings.h... yes\nchecking for inttypes.h... yes\nchecking for stdint.h... yes\nchecking for unistd.h... yes\nchecking for dlfcn.h... yes\nchecking for objdir... .libs\nchecking if gcc supports -fno-rtti -fno-exceptions... yes\nchecking for gcc option to produce PIC... -fno-common -DPIC\nchecking if gcc PIC flag -fno-common -DPIC works... yes\nchecking if gcc static flag -static works... no\nchecking if gcc supports -c -o file.o... yes\nchecking if gcc supports -c -o file.o... (cached) yes\nchecking whether the gcc linker (/Applications/Xcode.app/Contents/Developer/Toolchains/XcodeDefault.xctoolchain/usr/bin/ld) supports shared libraries... yes\nchecking dynamic linker characteristics... darwin18.7.0 dyld\nchecking how to hardcode library paths into programs... immediate\nchecking whether stripping libraries is possible... yes\nchecking if libtool supports shared libraries... yes\nchecking whether to build shared libraries... yes\nchecking whether to build static libraries... yes\nchecking for g++... g++\nchecking whether we are using the GNU C++ compiler... yes\nchecking whether g++ accepts -g... yes\nchecking dependency style of g++... gcc3\nchecking how to run the C++ preprocessor... g++ -E\nchecking for ld used by g++... /Applications/Xcode.app/Contents/Developer/Toolchains/XcodeDefault.xctoolchain/usr/bin/ld\nchecking if the linker (/Applications/Xcode.app/Contents/Developer/Toolchains/XcodeDefault.xctoolchain/usr/bin/ld) is GNU ld... no\nchecking whether the g++ linker (/Applications/Xcode.app/Contents/Developer/Toolchains/XcodeDefault.xctoolchain/usr/bin/ld) supports shared libraries... yes\nchecking for g++ option to produce PIC... -fno-common -DPIC\nchecking if g++ PIC flag -fno-common -DPIC works... yes\nchecking if g++ static flag -static works... no\nchecking if g++ supports -c -o file.o... yes\nchecking if g++ supports -c -o file.o... (cached) yes\nchecking whether the g++ linker (/Applications/Xcode.app/Contents/Developer/Toolchains/XcodeDefault.xctoolchain/usr/bin/ld) supports shared libraries... yes\nchecking dynamic linker characteristics... darwin18.7.0 dyld\nchecking how to hardcode library paths into programs... immediate\nchecking that generated files are newer than configure... done\nconfigure: creating ./config.status\nconfig.status: creating Makefile\nconfig.status: creating pc/libunivalue.pc\nconfig.status: creating pc/libunivalue-uninstalled.pc\nconfig.status: creating univalue-config.h\nconfig.status: executing depfiles commands\nconfig.status: executing libtool commands\nmake\n/Applications/Xcode.app/Contents/Developer/usr/bin/make  all-am\nCXX      test/object-object.o\nCXX      lib/libunivalue_la-univalue.lo\nCXX      lib/libunivalue_la-univalue_get.lo\nCXX      lib/libunivalue_la-univalue_read.lo\nCXX      lib/libunivalue_la-univalue_write.lo\nCXXLD    libunivalue.la\nar: u' modifier ignored since D' is the default (see `U')\nCXXLD    test/object\nld: warning: ignoring file ./.libs/libunivalue.a, building for macOS-x86_64 but attempting to link with file built for unknown-unsupported file format ( 0x21 0x3C 0x61 0x72 0x63 0x68 0x3E 0x0A 0x2F 0x20 0x20 0x20 0x20 0x20 0x20 0x20 )\nUndefined symbols for architecture x86_64:\n\"UniValue::push_backV(std::__1::vector<UniValue, std::__1::allocator > const&)\", referenced from:\nunivalue_array() in object-object.o\n\"UniValue::read(char const*, unsigned long)\", referenced from:\nunivalue_typecheck() in object-object.o\nunivalue_readwrite() in object-object.o\n\"UniValue::clear()\", referenced from:\nunivalue_set() in object-object.o\nunivalue_array() in object-object.o\nunivalue_object() in object-object.o\n\"UniValue::pushKV(std::__1::basic_string<char, std::__1::char_traits, std::__1::allocator > const&, UniValue const&)\", referenced from:\nunivalue_object() in object-object.o\nUniValue::pushKV(std::__1::basic_string<char, std::__1::char_traits, std::__1::allocator > const&, char const*) in object-object.o\n\"UniValue::setInt(long long)\", referenced from:\nunivalue_set() in object-object.o\nunivalue_object() in object-object.o\nUniValue::UniValue(long long) in object-object.o\nUniValue::UniValue(int) in object-object.o\n\"UniValue::setInt(unsigned long long)\", referenced from:\nunivalue_set() in object-object.o\nUniValue::UniValue(unsigned long long) in object-object.o\n\"UniValue::setStr(std::__1::basic_string<char, std::__1::char_traits, std::__1::allocator > const&)\", referenced from:\nunivalue_set() in object-object.o\nunivalue_array() in object-object.o\nUniValue::UniValue(std::__1::basic_string<char, std::__1::char_traits, std::__1::allocator > const&) in object-object.o\nUniValue::UniValue(char const*) in object-object.o\n\"UniValue::pushKVs(UniValue const&)\", referenced from:\nunivalue_object() in object-object.o\n\"UniValue::setBool(bool)\", referenced from:\nunivalue_typecheck() in object-object.o\nunivalue_set() in object-object.o\nUniValue::UniValue(bool) in object-object.o\n\"UniValue::setNull()\", referenced from:\nunivalue_set() in object-object.o\n\"UniValue::__pushKV(std::__1::basic_string<char, std::__1::char_traits, std::__1::allocator > const&, UniValue const&)\", referenced from:\nunivalue_object() in object-object.o\n\"UniValue::setArray()\", referenced from:\nunivalue_set() in object-object.o\n\"UniValue::setFloat(double)\", referenced from:\nunivalue_set() in object-object.o\nUniValue::UniValue(double) in object-object.o\n\"UniValue::push_back(UniValue const&)\", referenced from:\nunivalue_array() in object-object.o\nUniValue::push_back(char const*) in object-object.o\n\"UniValue::setNumStr(std::__1::basic_string<char, std::__1::char_traits, std::__1::allocator > const&)\", referenced from:\nunivalue_constructor() in object-object.o\nunivalue_typecheck() in object-object.o\nunivalue_set() in object-object.o\n\"UniValue::setObject()\", referenced from:\nunivalue_set() in object-object.o\nunivalue_object() in object-object.o\n\"UniValue::checkObject(std::__1::map<std::__1::basic_string<char, std::__1::char_traits, std::__1::allocator >, UniValue::VType, std::__1::less<std::__1::basic_string<char, std::__1::char_traits, std::__1::allocator > >, std::__1::allocator<std::__1::pair<std::__1::basic_string<char, std::__1::char_traits, std::__1::allocator > const, UniValue::VType> > > const&) const\", referenced from:\nunivalue_object() in object-object.o\n\"UniValue::write(unsigned int, unsigned int) const\", referenced from:\nunivalue_readwrite() in object-object.o\n\"UniValue::findKey(std::__1::basic_string<char, std::__1::char_traits, std::__1::allocator > const&, unsigned long&) const\", referenced from:\nunivalue_object() in object-object.o\n\"UniValue::getKeys() const\", referenced from:\nunivalue_typecheck() in object-object.o\n\"UniValue::get_int() const\", referenced from:\nunivalue_typecheck() in object-object.o\n\"UniValue::get_obj() const\", referenced from:\nunivalue_typecheck() in object-object.o\n\"UniValue::get_str() const\", referenced from:\nunivalue_typecheck() in object-object.o\n\"UniValue::get_bool() const\", referenced from:\nunivalue_typecheck() in object-object.o\n\"UniValue::get_real() const\", referenced from:\nunivalue_typecheck() in object-object.o\n\"UniValue::getObjMap(std::__1::map<std::__1::basic_string<char, std::__1::char_traits, std::__1::allocator >, UniValue, std::__1::less<std::__1::basic_string<char, std::__1::char_traits, std::__1::allocator > >, std::__1::allocator<std::__1::pair<std::__1::basic_string<char, std::__1::char_traits, std::__1::allocator > const, UniValue> > >&) const\", referenced from:\nunivalue_object() in object-object.o\n\"UniValue::getValues() const\", referenced from:\nunivalue_typecheck() in object-object.o\n\"UniValue::get_array() const\", referenced from:\nunivalue_typecheck() in object-object.o\n\"UniValue::get_int64() const\", referenced from:\nunivalue_typecheck() in object-object.o\n\"UniValue::operator[](std::__1::basic_string<char, std::__1::char_traits, std::__1::allocator > const&) const\", referenced from:\nunivalue_object() in object-object.o\nunivalue_readwrite() in object-object.o\n\"UniValue::operator[](unsigned long) const\", referenced from:\nunivalue_array() in object-object.o\nunivalue_readwrite() in object-object.o\nld: symbol(s) not found for architecture x86_64\nclang: error: linker command failed with exit code 1 (use -v to see invocation)\nmake[1]: *** [test/object] Error 1\nmake: *** [all] Error 2",
  "body": "Git pull origin - go in to ./src/univalue\r\n\r\n./autogen.sh\r\n./configure\r\nmake\r\n\r\nmake clean and two different coins attempted with same results.\r\nOSX 10.14.6 (Mojave)\r\n\r\nPlease advise if this is incompatibility or if I'm missing something :)\r\n\r\ngcc -v\r\nConfigured with: --prefix=/Applications/Xcode.app/Contents/Developer/usr --with-gxx-include-dir=/Library/Developer/CommandLineTools/SDKs/MacOSX.sdk/usr/include/c++/4.2.1\r\nApple clang version 11.0.0 (clang-1100.0.33.12)\r\nTarget: x86_64-apple-darwin18.7.0\r\nThread model: posix\r\nInstalledDir: /Applications/Xcode.app/Contents/Developer/Toolchains/XcodeDefault.xctoolchain/usr/bin\r\n\r\nFull output:\r\n./autogen.sh\r\nglibtoolize: putting auxiliary files in AC_CONFIG_AUX_DIR, 'build-aux'.\r\nglibtoolize: copying file 'build-aux/ltmain.sh'\r\nglibtoolize: putting macros in AC_CONFIG_MACRO_DIRS, 'build-aux/m4'.\r\nglibtoolize: copying file 'build-aux/m4/libtool.m4'\r\nglibtoolize: copying file 'build-aux/m4/ltoptions.m4'\r\nglibtoolize: copying file 'build-aux/m4/ltsugar.m4'\r\nglibtoolize: copying file 'build-aux/m4/ltversion.m4'\r\nglibtoolize: copying file 'build-aux/m4/lt~obsolete.m4'\r\n\r\n./configure\r\nconfigure.ac:45: installing 'build-aux/compile'\r\nconfigure.ac:45: installing 'build-aux/config.guess'\r\nconfigure.ac:45: installing 'build-aux/config.sub'\r\nconfigure.ac:28: installing 'build-aux/install-sh'\r\nconfigure.ac:28: installing 'build-aux/missing'\r\nMakefile.am: installing 'build-aux/depcomp'\r\nparallel-tests: installing 'build-aux/test-driver'\r\nmachecking whether make supports nested variables... yes\r\nchecking for a BSD-compatible install... /usr/bin/install -c\r\nchecking whether build environment is sane... yes\r\nkchecking for a thread-safe mkdir -p... build-aux/install-sh -c -d\r\nchecking for gawk... no\r\nchecking for mawk... no\r\nchecking for nawk... no\r\nchecking for awk... awk\r\nchecking whether make sets $(MAKE)... yes\r\nechecking build system type...\r\nx86_64-apple-darwin18.7.0\r\nchecking host system type... x86_64-apple-darwin18.7.0\r\nchecking how to print strings... printf\r\nchecking whether make supports the include directive... yes (GNU style)\r\nchecking for gcc... gcc\r\nchecking whether the C compiler works... yes\r\nchecking for C compiler default output file name... a.out\r\nchecking for suffix of executables...\r\nchecking whether we are cross compiling... no\r\nchecking for suffix of object files... o\r\nchecking whether we are using the GNU C compiler... yes\r\nchecking whether gcc accepts -g... yes\r\nchecking for gcc option to accept ISO C89... none needed\r\nchecking whether gcc understands -c and -o together... yes\r\nchecking dependency style of gcc... gcc3\r\nchecking for a sed that does not truncate output... /usr/bin/sed\r\nchecking for grep that handles long lines and -e... /usr/bin/grep\r\nchecking for egrep... /usr/bin/grep -E\r\nchecking for fgrep... /usr/bin/grep -F\r\nchecking for ld used by gcc... /Applications/Xcode.app/Contents/Developer/Toolchains/XcodeDefault.xctoolchain/usr/bin/ld\r\nchecking if the linker (/Applications/Xcode.app/Contents/Developer/Toolchains/XcodeDefault.xctoolchain/usr/bin/ld) is GNU ld... no\r\nchecking for BSD- or MS-compatible name lister (nm)... /usr/local/bin/nm -B\r\nchecking the name lister (/usr/local/bin/nm -B) interface... BSD nm\r\nchecking whether ln -s works... yes\r\nchecking the maximum length of command line arguments... 196608\r\nchecking how to convert x86_64-apple-darwin18.7.0 file names to x86_64-apple-darwin18.7.0 format... func_convert_file_noop\r\nchecking how to convert x86_64-apple-darwin18.7.0 file names to toolchain format... func_convert_file_noop\r\nchecking for /Applications/Xcode.app/Contents/Developer/Toolchains/XcodeDefault.xctoolchain/usr/bin/ld option to reload object files... -r\r\nchecking for objdump... objdump\r\nchecking how to recognize dependent libraries... pass_all\r\nchecking for dlltool... dlltool\r\nchecking how to associate runtime and link libraries... printf %s\\n\r\nchecking for ar... ar\r\nchecking for archiver @FILE support... @\r\nchecking for strip... strip\r\nchecking for ranlib... ranlib\r\nchecking command to parse /usr/local/bin/nm -B output from gcc object... ok\r\nchecking for sysroot... no\r\nchecking for a working dd... /bin/dd\r\nchecking how to truncate binary pipes... /bin/dd bs=4096 count=1\r\nchecking for mt... no\r\nchecking if : is a manifest tool... no\r\nchecking for dsymutil... dsymutil\r\nchecking for nmedit... nmedit\r\nchecking for lipo... lipo\r\nchecking for otool... otool\r\nchecking for otool64... no\r\nchecking for -single_module linker flag... yes\r\nchecking for -exported_symbols_list linker flag... yes\r\nchecking for -force_load linker flag... no\r\nchecking how to run the C preprocessor... gcc -E\r\nchecking for ANSI C header files... yes\r\nchecking for sys/types.h... yes\r\nchecking for sys/stat.h... yes\r\nchecking for stdlib.h... yes\r\nchecking for string.h... yes\r\nchecking for memory.h... yes\r\nchecking for strings.h... yes\r\nchecking for inttypes.h... yes\r\nchecking for stdint.h... yes\r\nchecking for unistd.h... yes\r\nchecking for dlfcn.h... yes\r\nchecking for objdir... .libs\r\nchecking if gcc supports -fno-rtti -fno-exceptions... yes\r\nchecking for gcc option to produce PIC... -fno-common -DPIC\r\nchecking if gcc PIC flag -fno-common -DPIC works... yes\r\nchecking if gcc static flag -static works... no\r\nchecking if gcc supports -c -o file.o... yes\r\nchecking if gcc supports -c -o file.o... (cached) yes\r\nchecking whether the gcc linker (/Applications/Xcode.app/Contents/Developer/Toolchains/XcodeDefault.xctoolchain/usr/bin/ld) supports shared libraries... yes\r\nchecking dynamic linker characteristics... darwin18.7.0 dyld\r\nchecking how to hardcode library paths into programs... immediate\r\nchecking whether stripping libraries is possible... yes\r\nchecking if libtool supports shared libraries... yes\r\nchecking whether to build shared libraries... yes\r\nchecking whether to build static libraries... yes\r\nchecking for g++... g++\r\nchecking whether we are using the GNU C++ compiler... yes\r\nchecking whether g++ accepts -g... yes\r\nchecking dependency style of g++... gcc3\r\nchecking how to run the C++ preprocessor... g++ -E\r\nchecking for ld used by g++... /Applications/Xcode.app/Contents/Developer/Toolchains/XcodeDefault.xctoolchain/usr/bin/ld\r\nchecking if the linker (/Applications/Xcode.app/Contents/Developer/Toolchains/XcodeDefault.xctoolchain/usr/bin/ld) is GNU ld... no\r\nchecking whether the g++ linker (/Applications/Xcode.app/Contents/Developer/Toolchains/XcodeDefault.xctoolchain/usr/bin/ld) supports shared libraries... yes\r\nchecking for g++ option to produce PIC... -fno-common -DPIC\r\nchecking if g++ PIC flag -fno-common -DPIC works... yes\r\nchecking if g++ static flag -static works... no\r\nchecking if g++ supports -c -o file.o... yes\r\nchecking if g++ supports -c -o file.o... (cached) yes\r\nchecking whether the g++ linker (/Applications/Xcode.app/Contents/Developer/Toolchains/XcodeDefault.xctoolchain/usr/bin/ld) supports shared libraries... yes\r\nchecking dynamic linker characteristics... darwin18.7.0 dyld\r\nchecking how to hardcode library paths into programs... immediate\r\nchecking that generated files are newer than configure... done\r\nconfigure: creating ./config.status\r\nconfig.status: creating Makefile\r\nconfig.status: creating pc/libunivalue.pc\r\nconfig.status: creating pc/libunivalue-uninstalled.pc\r\nconfig.status: creating univalue-config.h\r\nconfig.status: executing depfiles commands\r\nconfig.status: executing libtool commands\r\n\r\nmake\r\n/Applications/Xcode.app/Contents/Developer/usr/bin/make  all-am\r\n  CXX      test/object-object.o\r\n  CXX      lib/libunivalue_la-univalue.lo\r\n  CXX      lib/libunivalue_la-univalue_get.lo\r\n  CXX      lib/libunivalue_la-univalue_read.lo\r\n  CXX      lib/libunivalue_la-univalue_write.lo\r\n  CXXLD    libunivalue.la\r\nar: `u' modifier ignored since `D' is the default (see `U')\r\n  CXXLD    test/object\r\n**ld: warning: ignoring file ./.libs/libunivalue.a, building for macOS-x86_64 but attempting to link with file built for unknown-unsupported file format ( 0x21 0x3C 0x61 0x72 0x63 0x68 0x3E 0x0A 0x2F 0x20 0x20 0x20 0x20 0x20 0x20 0x20 )\r\nUndefined symbols for architecture x86_64:**\r\n  \"UniValue::push_backV(std::__1::vector<UniValue, std::__1::allocator<UniValue> > const&)\", referenced from:\r\n      univalue_array() in object-object.o\r\n  \"UniValue::read(char const*, unsigned long)\", referenced from:\r\n      univalue_typecheck() in object-object.o\r\n      univalue_readwrite() in object-object.o\r\n  \"UniValue::clear()\", referenced from:\r\n      univalue_set() in object-object.o\r\n      univalue_array() in object-object.o\r\n      univalue_object() in object-object.o\r\n  \"UniValue::pushKV(std::__1::basic_string<char, std::__1::char_traits<char>, std::__1::allocator<char> > const&, UniValue const&)\", referenced from:\r\n      univalue_object() in object-object.o\r\n      UniValue::pushKV(std::__1::basic_string<char, std::__1::char_traits<char>, std::__1::allocator<char> > const&, char const*) in object-object.o\r\n  \"UniValue::setInt(long long)\", referenced from:\r\n      univalue_set() in object-object.o\r\n      univalue_object() in object-object.o\r\n      UniValue::UniValue(long long) in object-object.o\r\n      UniValue::UniValue(int) in object-object.o\r\n  \"UniValue::setInt(unsigned long long)\", referenced from:\r\n      univalue_set() in object-object.o\r\n      UniValue::UniValue(unsigned long long) in object-object.o\r\n  \"UniValue::setStr(std::__1::basic_string<char, std::__1::char_traits<char>, std::__1::allocator<char> > const&)\", referenced from:\r\n      univalue_set() in object-object.o\r\n      univalue_array() in object-object.o\r\n      UniValue::UniValue(std::__1::basic_string<char, std::__1::char_traits<char>, std::__1::allocator<char> > const&) in object-object.o\r\n      UniValue::UniValue(char const*) in object-object.o\r\n  \"UniValue::pushKVs(UniValue const&)\", referenced from:\r\n      univalue_object() in object-object.o\r\n  \"UniValue::setBool(bool)\", referenced from:\r\n      univalue_typecheck() in object-object.o\r\n      univalue_set() in object-object.o\r\n      UniValue::UniValue(bool) in object-object.o\r\n  \"UniValue::setNull()\", referenced from:\r\n      univalue_set() in object-object.o\r\n  \"UniValue::__pushKV(std::__1::basic_string<char, std::__1::char_traits<char>, std::__1::allocator<char> > const&, UniValue const&)\", referenced from:\r\n      univalue_object() in object-object.o\r\n  \"UniValue::setArray()\", referenced from:\r\n      univalue_set() in object-object.o\r\n  \"UniValue::setFloat(double)\", referenced from:\r\n      univalue_set() in object-object.o\r\n      UniValue::UniValue(double) in object-object.o\r\n  \"UniValue::push_back(UniValue const&)\", referenced from:\r\n      univalue_array() in object-object.o\r\n      UniValue::push_back(char const*) in object-object.o\r\n  \"UniValue::setNumStr(std::__1::basic_string<char, std::__1::char_traits<char>, std::__1::allocator<char> > const&)\", referenced from:\r\n      univalue_constructor() in object-object.o\r\n      univalue_typecheck() in object-object.o\r\n      univalue_set() in object-object.o\r\n  \"UniValue::setObject()\", referenced from:\r\n      univalue_set() in object-object.o\r\n      univalue_object() in object-object.o\r\n  \"UniValue::checkObject(std::__1::map<std::__1::basic_string<char, std::__1::char_traits<char>, std::__1::allocator<char> >, UniValue::VType, std::__1::less<std::__1::basic_string<char, std::__1::char_traits<char>, std::__1::allocator<char> > >, std::__1::allocator<std::__1::pair<std::__1::basic_string<char, std::__1::char_traits<char>, std::__1::allocator<char> > const, UniValue::VType> > > const&) const\", referenced from:\r\n      univalue_object() in object-object.o\r\n  \"UniValue::write(unsigned int, unsigned int) const\", referenced from:\r\n      univalue_readwrite() in object-object.o\r\n  \"UniValue::findKey(std::__1::basic_string<char, std::__1::char_traits<char>, std::__1::allocator<char> > const&, unsigned long&) const\", referenced from:\r\n      univalue_object() in object-object.o\r\n  \"UniValue::getKeys() const\", referenced from:\r\n      univalue_typecheck() in object-object.o\r\n  \"UniValue::get_int() const\", referenced from:\r\n      univalue_typecheck() in object-object.o\r\n  \"UniValue::get_obj() const\", referenced from:\r\n      univalue_typecheck() in object-object.o\r\n  \"UniValue::get_str() const\", referenced from:\r\n      univalue_typecheck() in object-object.o\r\n  \"UniValue::get_bool() const\", referenced from:\r\n      univalue_typecheck() in object-object.o\r\n  \"UniValue::get_real() const\", referenced from:\r\n      univalue_typecheck() in object-object.o\r\n  \"UniValue::getObjMap(std::__1::map<std::__1::basic_string<char, std::__1::char_traits<char>, std::__1::allocator<char> >, UniValue, std::__1::less<std::__1::basic_string<char, std::__1::char_traits<char>, std::__1::allocator<char> > >, std::__1::allocator<std::__1::pair<std::__1::basic_string<char, std::__1::char_traits<char>, std::__1::allocator<char> > const, UniValue> > >&) const\", referenced from:\r\n      univalue_object() in object-object.o\r\n  \"UniValue::getValues() const\", referenced from:\r\n      univalue_typecheck() in object-object.o\r\n  \"UniValue::get_array() const\", referenced from:\r\n      univalue_typecheck() in object-object.o\r\n  \"UniValue::get_int64() const\", referenced from:\r\n      univalue_typecheck() in object-object.o\r\n  \"UniValue::operator[](std::__1::basic_string<char, std::__1::char_traits<char>, std::__1::allocator<char> > const&) const\", referenced from:\r\n      univalue_object() in object-object.o\r\n      univalue_readwrite() in object-object.o\r\n  \"UniValue::operator[](unsigned long) const\", referenced from:\r\n      univalue_array() in object-object.o\r\n      univalue_readwrite() in object-object.o\r\nld: symbol(s) not found for architecture x86_64\r\nclang: error: linker command failed with exit code 1 (use -v to see invocation)\r\nmake[1]: *** [test/object] Error 1\r\nmake: *** [all] Error 2",
  "closed_by": {
    "login": "laanwj",
    "id": 126646,
    "node_id": "MDQ6VXNlcjEyNjY0Ng==",
    "avatar_url": "https://avatars.githubusercontent.com/u/126646?v=4",
    "gravatar_id": "",
    "url": "https://api.github.com/users/laanwj",
    "html_url": "https://github.com/laanwj",
    "followers_url": "https://api.github.com/users/laanwj/followers",
    "following_url": "https://api.github.com/users/laanwj/following{/other_user}",
    "gists_url": "https://api.github.com/users/laanwj/gists{/gist_id}",
    "starred_url": "https://api.github.com/users/laanwj/starred{/owner}{/repo}",
    "subscriptions_url": "https://api.github.com/users/laanwj/subscriptions",
    "organizations_url": "https://api.github.com/users/laanwj/orgs",
    "repos_url": "https://api.github.com/users/laanwj/repos",
    "events_url": "https://api.github.com/users/laanwj/events{/privacy}",
    "received_events_url": "https://api.github.com/users/laanwj/received_events",
    "type": "User",
    "site_admin": false
  },
  "reactions": {
    "url": "https://api.github.com/repos/bitcoin/bitcoin/issues/17664/reactions",
    "total_count": 0,
    "+1": 0,
    "-1": 0,
    "laugh": 0,
    "hooray": 0,
    "confused": 0,
    "heart": 0,
    "rocket": 0,
    "eyes": 0
  },
  "timeline_url": "https://api.github.com/repos/bitcoin/bitcoin/issues/17664/timeline",
  "performed_via_github_app": null,
  "state_reason": "completed"
}
