{
  "url": "https://api.github.com/repos/bitcoin/bitcoin/issues/4288",
  "repository_url": "https://api.github.com/repos/bitcoin/bitcoin",
  "labels_url": "https://api.github.com/repos/bitcoin/bitcoin/issues/4288/labels{/name}",
  "comments_url": "https://api.github.com/repos/bitcoin/bitcoin/issues/4288/comments",
  "events_url": "https://api.github.com/repos/bitcoin/bitcoin/issues/4288/events",
  "html_url": "https://github.com/bitcoin/bitcoin/pull/4288",
  "id": 34972894,
  "node_id": "MDExOlB1bGxSZXF1ZXN0MTY3MTcwOTg=",
  "number": 4288,
  "title": "Minor RPC cleanups",
  "user": {
    "login": "jgarzik",
    "id": 494411,
    "node_id": "MDQ6VXNlcjQ5NDQxMQ==",
    "avatar_url": "https://avatars.githubusercontent.com/u/494411?v=4",
    "gravatar_id": "",
    "url": "https://api.github.com/users/jgarzik",
    "html_url": "https://github.com/jgarzik",
    "followers_url": "https://api.github.com/users/jgarzik/followers",
    "following_url": "https://api.github.com/users/jgarzik/following{/other_user}",
    "gists_url": "https://api.github.com/users/jgarzik/gists{/gist_id}",
    "starred_url": "https://api.github.com/users/jgarzik/starred{/owner}{/repo}",
    "subscriptions_url": "https://api.github.com/users/jgarzik/subscriptions",
    "organizations_url": "https://api.github.com/users/jgarzik/orgs",
    "repos_url": "https://api.github.com/users/jgarzik/repos",
    "events_url": "https://api.github.com/users/jgarzik/events{/privacy}",
    "received_events_url": "https://api.github.com/users/jgarzik/received_events",
    "type": "User",
    "site_admin": false
  },
  "labels": [

  ],
  "state": "closed",
  "locked": true,
  "assignee": null,
  "assignees": [

  ],
  "milestone": null,
  "comments": 4,
  "created_at": "2014-06-04T15:59:07Z",
  "updated_at": "2021-09-08T10:38:36Z",
  "closed_at": "2014-06-27T08:03:28Z",
  "author_association": "CONTRIBUTOR",
  "active_lock_reason": "resolved",
  "draft": false,
  "pull_request": {
    "url": "https://api.github.com/repos/bitcoin/bitcoin/pulls/4288",
    "html_url": "https://github.com/bitcoin/bitcoin/pull/4288",
    "diff_url": "https://github.com/bitcoin/bitcoin/pull/4288.diff",
    "patch_url": "https://github.com/bitcoin/bitcoin/pull/4288.patch",
    "merged_at": "2014-06-27T08:03:28Z"
  },
  "body_html": "<p dir=\"auto\">Some code movement and minor improvements, to prepare for HTTP REST support (<a class=\"issue-link js-issue-link\" data-error-text=\"Failed to load title\" data-id=\"17066167\" data-permission-text=\"Title is private\" data-url=\"https://github.com/bitcoin/bitcoin/issues/2844\" data-hovercard-type=\"pull_request\" data-hovercard-url=\"/bitcoin/bitcoin/pull/2844/hovercard\" href=\"https://github.com/bitcoin/bitcoin/pull/2844\">#2844</a>).</p>\n<p dir=\"auto\">Even if HTTP REST is delayed or does not go in, these cleanups remain useful.</p>",
  "body_text": "Some code movement and minor improvements, to prepare for HTTP REST support (#2844).\nEven if HTTP REST is delayed or does not go in, these cleanups remain useful.",
  "body": "Some code movement and minor improvements, to prepare for HTTP REST support (#2844).\n\nEven if HTTP REST is delayed or does not go in, these cleanups remain useful.\n",
  "closed_by": {
    "login": "laanwj",
    "id": 126646,
    "node_id": "MDQ6VXNlcjEyNjY0Ng==",
    "avatar_url": "https://avatars.githubusercontent.com/u/126646?v=4",
    "gravatar_id": "",
    "url": "https://api.github.com/users/laanwj",
    "html_url": "https://github.com/laanwj",
    "followers_url": "https://api.github.com/users/laanwj/followers",
    "following_url": "https://api.github.com/users/laanwj/following{/other_user}",
    "gists_url": "https://api.github.com/users/laanwj/gists{/gist_id}",
    "starred_url": "https://api.github.com/users/laanwj/starred{/owner}{/repo}",
    "subscriptions_url": "https://api.github.com/users/laanwj/subscriptions",
    "organizations_url": "https://api.github.com/users/laanwj/orgs",
    "repos_url": "https://api.github.com/users/laanwj/repos",
    "events_url": "https://api.github.com/users/laanwj/events{/privacy}",
    "received_events_url": "https://api.github.com/users/laanwj/received_events",
    "type": "User",
    "site_admin": false
  },
  "reactions": {
    "url": "https://api.github.com/repos/bitcoin/bitcoin/issues/4288/reactions",
    "total_count": 0,
    "+1": 0,
    "-1": 0,
    "laugh": 0,
    "hooray": 0,
    "confused": 0,
    "heart": 0,
    "rocket": 0,
    "eyes": 0
  },
  "timeline_url": "https://api.github.com/repos/bitcoin/bitcoin/issues/4288/timeline",
  "performed_via_github_app": null,
  "state_reason": null
}
