[
  {
    "url": "https://api.github.com/repos/bitcoin/bitcoin/issues/comments/8145447",
    "html_url": "https://github.com/bitcoin/bitcoin/pull/1743#issuecomment-8145447",
    "issue_url": "https://api.github.com/repos/bitcoin/bitcoin/issues/1743",
    "id": 8145447,
    "node_id": "MDEyOklzc3VlQ29tbWVudDgxNDU0NDc=",
    "user": {
      "login": "sipa",
      "id": 548488,
      "node_id": "MDQ6VXNlcjU0ODQ4OA==",
      "avatar_url": "https://avatars.githubusercontent.com/u/548488?v=4",
      "gravatar_id": "",
      "url": "https://api.github.com/users/sipa",
      "html_url": "https://github.com/sipa",
      "followers_url": "https://api.github.com/users/sipa/followers",
      "following_url": "https://api.github.com/users/sipa/following{/other_user}",
      "gists_url": "https://api.github.com/users/sipa/gists{/gist_id}",
      "starred_url": "https://api.github.com/users/sipa/starred{/owner}{/repo}",
      "subscriptions_url": "https://api.github.com/users/sipa/subscriptions",
      "organizations_url": "https://api.github.com/users/sipa/orgs",
      "repos_url": "https://api.github.com/users/sipa/repos",
      "events_url": "https://api.github.com/users/sipa/events{/privacy}",
      "received_events_url": "https://api.github.com/users/sipa/received_events",
      "type": "User",
      "site_admin": false
    },
    "created_at": "2012-08-30T00:02:53Z",
    "updated_at": "2012-08-30T00:02:53Z",
    "author_association": "MEMBER",
    "body_html": "<p dir=\"auto\">ACK</p>",
    "body_text": "ACK",
    "body": "ACK\n",
    "reactions": {
      "url": "https://api.github.com/repos/bitcoin/bitcoin/issues/comments/8145447/reactions",
      "total_count": 0,
      "+1": 0,
      "-1": 0,
      "laugh": 0,
      "hooray": 0,
      "confused": 0,
      "heart": 0,
      "rocket": 0,
      "eyes": 0
    },
    "performed_via_github_app": null
  },
  {
    "url": "https://api.github.com/repos/bitcoin/bitcoin/issues/comments/8240139",
    "html_url": "https://github.com/bitcoin/bitcoin/pull/1743#issuecomment-8240139",
    "issue_url": "https://api.github.com/repos/bitcoin/bitcoin/issues/1743",
    "id": 8240139,
    "node_id": "MDEyOklzc3VlQ29tbWVudDgyNDAxMzk=",
    "user": {
      "login": "Diapolo",
      "id": 1419649,
      "node_id": "MDQ6VXNlcjE0MTk2NDk=",
      "avatar_url": "https://avatars.githubusercontent.com/u/1419649?v=4",
      "gravatar_id": "",
      "url": "https://api.github.com/users/Diapolo",
      "html_url": "https://github.com/Diapolo",
      "followers_url": "https://api.github.com/users/Diapolo/followers",
      "following_url": "https://api.github.com/users/Diapolo/following{/other_user}",
      "gists_url": "https://api.github.com/users/Diapolo/gists{/gist_id}",
      "starred_url": "https://api.github.com/users/Diapolo/starred{/owner}{/repo}",
      "subscriptions_url": "https://api.github.com/users/Diapolo/subscriptions",
      "organizations_url": "https://api.github.com/users/Diapolo/orgs",
      "repos_url": "https://api.github.com/users/Diapolo/repos",
      "events_url": "https://api.github.com/users/Diapolo/events{/privacy}",
      "received_events_url": "https://api.github.com/users/Diapolo/received_events",
      "type": "User",
      "site_admin": false
    },
    "created_at": "2012-09-03T14:41:29Z",
    "updated_at": "2012-09-03T14:41:29Z",
    "author_association": "NONE",
    "body_html": "<p dir=\"auto\">IMO such small fixes / patches, should get merged faster, even during RC-phase.</p>",
    "body_text": "IMO such small fixes / patches, should get merged faster, even during RC-phase.",
    "body": "IMO such small fixes / patches, should get merged faster, even during RC-phase.\n",
    "reactions": {
      "url": "https://api.github.com/repos/bitcoin/bitcoin/issues/comments/8240139/reactions",
      "total_count": 0,
      "+1": 0,
      "-1": 0,
      "laugh": 0,
      "hooray": 0,
      "confused": 0,
      "heart": 0,
      "rocket": 0,
      "eyes": 0
    },
    "performed_via_github_app": null
  }
]
