[
  {
    "url": "https://api.github.com/repos/bitcoin/bitcoin/issues/comments/325906731",
    "html_url": "https://github.com/bitcoin/bitcoin/pull/11196#issuecomment-325906731",
    "issue_url": "https://api.github.com/repos/bitcoin/bitcoin/issues/11196",
    "id": 325906731,
    "node_id": "MDEyOklzc3VlQ29tbWVudDMyNTkwNjczMQ==",
    "user": {
      "login": "maaku",
      "id": 69154,
      "node_id": "MDQ6VXNlcjY5MTU0",
      "avatar_url": "https://avatars.githubusercontent.com/u/69154?v=4",
      "gravatar_id": "",
      "url": "https://api.github.com/users/maaku",
      "html_url": "https://github.com/maaku",
      "followers_url": "https://api.github.com/users/maaku/followers",
      "following_url": "https://api.github.com/users/maaku/following{/other_user}",
      "gists_url": "https://api.github.com/users/maaku/gists{/gist_id}",
      "starred_url": "https://api.github.com/users/maaku/starred{/owner}{/repo}",
      "subscriptions_url": "https://api.github.com/users/maaku/subscriptions",
      "organizations_url": "https://api.github.com/users/maaku/orgs",
      "repos_url": "https://api.github.com/users/maaku/repos",
      "events_url": "https://api.github.com/users/maaku/events{/privacy}",
      "received_events_url": "https://api.github.com/users/maaku/received_events",
      "type": "User",
      "site_admin": false
    },
    "created_at": "2017-08-30T07:28:29Z",
    "updated_at": "2017-08-30T07:28:29Z",
    "author_association": "CONTRIBUTOR",
    "body_html": "<p dir=\"auto\">Nits addressed (don't push code late at night!)</p>",
    "body_text": "Nits addressed (don't push code late at night!)",
    "body": "Nits addressed (don't push code late at night!)",
    "reactions": {
      "url": "https://api.github.com/repos/bitcoin/bitcoin/issues/comments/325906731/reactions",
      "total_count": 0,
      "+1": 0,
      "-1": 0,
      "laugh": 0,
      "hooray": 0,
      "confused": 0,
      "heart": 0,
      "rocket": 0,
      "eyes": 0
    },
    "performed_via_github_app": null
  },
  {
    "url": "https://api.github.com/repos/bitcoin/bitcoin/issues/comments/325918807",
    "html_url": "https://github.com/bitcoin/bitcoin/pull/11196#issuecomment-325918807",
    "issue_url": "https://api.github.com/repos/bitcoin/bitcoin/issues/11196",
    "id": 325918807,
    "node_id": "MDEyOklzc3VlQ29tbWVudDMyNTkxODgwNw==",
    "user": {
      "login": "practicalswift",
      "id": 7826565,
      "node_id": "MDQ6VXNlcjc4MjY1NjU=",
      "avatar_url": "https://avatars.githubusercontent.com/u/7826565?v=4",
      "gravatar_id": "",
      "url": "https://api.github.com/users/practicalswift",
      "html_url": "https://github.com/practicalswift",
      "followers_url": "https://api.github.com/users/practicalswift/followers",
      "following_url": "https://api.github.com/users/practicalswift/following{/other_user}",
      "gists_url": "https://api.github.com/users/practicalswift/gists{/gist_id}",
      "starred_url": "https://api.github.com/users/practicalswift/starred{/owner}{/repo}",
      "subscriptions_url": "https://api.github.com/users/practicalswift/subscriptions",
      "organizations_url": "https://api.github.com/users/practicalswift/orgs",
      "repos_url": "https://api.github.com/users/practicalswift/repos",
      "events_url": "https://api.github.com/users/practicalswift/events{/privacy}",
      "received_events_url": "https://api.github.com/users/practicalswift/received_events",
      "type": "User",
      "site_admin": false
    },
    "created_at": "2017-08-30T08:20:34Z",
    "updated_at": "2017-08-30T08:20:34Z",
    "author_association": "CONTRIBUTOR",
    "body_html": "<p dir=\"auto\">Concept ACK!</p>\n<p dir=\"auto\">Too bad there is no bulletproof way to detect <code class=\"notranslate\">memset_s(…)</code> :-(</p>",
    "body_text": "Concept ACK!\nToo bad there is no bulletproof way to detect memset_s(…) :-(",
    "body": "Concept ACK!\r\n\r\nToo bad there is no bulletproof way to detect `memset_s(…)` :-(",
    "reactions": {
      "url": "https://api.github.com/repos/bitcoin/bitcoin/issues/comments/325918807/reactions",
      "total_count": 0,
      "+1": 0,
      "-1": 0,
      "laugh": 0,
      "hooray": 0,
      "confused": 0,
      "heart": 0,
      "rocket": 0,
      "eyes": 0
    },
    "performed_via_github_app": null
  },
  {
    "url": "https://api.github.com/repos/bitcoin/bitcoin/issues/comments/325921631",
    "html_url": "https://github.com/bitcoin/bitcoin/pull/11196#issuecomment-325921631",
    "issue_url": "https://api.github.com/repos/bitcoin/bitcoin/issues/11196",
    "id": 325921631,
    "node_id": "MDEyOklzc3VlQ29tbWVudDMyNTkyMTYzMQ==",
    "user": {
      "login": "kallewoof",
      "id": 250224,
      "node_id": "MDQ6VXNlcjI1MDIyNA==",
      "avatar_url": "https://avatars.githubusercontent.com/u/250224?v=4",
      "gravatar_id": "",
      "url": "https://api.github.com/users/kallewoof",
      "html_url": "https://github.com/kallewoof",
      "followers_url": "https://api.github.com/users/kallewoof/followers",
      "following_url": "https://api.github.com/users/kallewoof/following{/other_user}",
      "gists_url": "https://api.github.com/users/kallewoof/gists{/gist_id}",
      "starred_url": "https://api.github.com/users/kallewoof/starred{/owner}{/repo}",
      "subscriptions_url": "https://api.github.com/users/kallewoof/subscriptions",
      "organizations_url": "https://api.github.com/users/kallewoof/orgs",
      "repos_url": "https://api.github.com/users/kallewoof/repos",
      "events_url": "https://api.github.com/users/kallewoof/events{/privacy}",
      "received_events_url": "https://api.github.com/users/kallewoof/received_events",
      "type": "User",
      "site_admin": false
    },
    "created_at": "2017-08-30T08:31:59Z",
    "updated_at": "2017-08-30T08:31:59Z",
    "author_association": "MEMBER",
    "body_html": "<p dir=\"auto\">utACK 9c4f8b5188a53f39c0849f860c8227fbb5a77bc6</p>",
    "body_text": "utACK 9c4f8b5188a53f39c0849f860c8227fbb5a77bc6",
    "body": "utACK 9c4f8b5188a53f39c0849f860c8227fbb5a77bc6",
    "reactions": {
      "url": "https://api.github.com/repos/bitcoin/bitcoin/issues/comments/325921631/reactions",
      "total_count": 0,
      "+1": 0,
      "-1": 0,
      "laugh": 0,
      "hooray": 0,
      "confused": 0,
      "heart": 0,
      "rocket": 0,
      "eyes": 0
    },
    "performed_via_github_app": null
  },
  {
    "url": "https://api.github.com/repos/bitcoin/bitcoin/issues/comments/326042739",
    "html_url": "https://github.com/bitcoin/bitcoin/pull/11196#issuecomment-326042739",
    "issue_url": "https://api.github.com/repos/bitcoin/bitcoin/issues/11196",
    "id": 326042739,
    "node_id": "MDEyOklzc3VlQ29tbWVudDMyNjA0MjczOQ==",
    "user": {
      "login": "Leviathn",
      "id": 14876936,
      "node_id": "MDQ6VXNlcjE0ODc2OTM2",
      "avatar_url": "https://avatars.githubusercontent.com/u/14876936?v=4",
      "gravatar_id": "",
      "url": "https://api.github.com/users/Leviathn",
      "html_url": "https://github.com/Leviathn",
      "followers_url": "https://api.github.com/users/Leviathn/followers",
      "following_url": "https://api.github.com/users/Leviathn/following{/other_user}",
      "gists_url": "https://api.github.com/users/Leviathn/gists{/gist_id}",
      "starred_url": "https://api.github.com/users/Leviathn/starred{/owner}{/repo}",
      "subscriptions_url": "https://api.github.com/users/Leviathn/subscriptions",
      "organizations_url": "https://api.github.com/users/Leviathn/orgs",
      "repos_url": "https://api.github.com/users/Leviathn/repos",
      "events_url": "https://api.github.com/users/Leviathn/events{/privacy}",
      "received_events_url": "https://api.github.com/users/Leviathn/received_events",
      "type": "User",
      "site_admin": false
    },
    "created_at": "2017-08-30T16:18:23Z",
    "updated_at": "2017-08-30T16:18:23Z",
    "author_association": "NONE",
    "body_html": "<p dir=\"auto\">Concept ACK - minimizing OpenSSL exposure is good.</p>\n<p dir=\"auto\">ISC seems less strict than even MIT, appears compatible.</p>",
    "body_text": "Concept ACK - minimizing OpenSSL exposure is good.\nISC seems less strict than even MIT, appears compatible.",
    "body": "Concept ACK - minimizing OpenSSL exposure is good. \r\n\r\nISC seems less strict than even MIT, appears compatible. ",
    "reactions": {
      "url": "https://api.github.com/repos/bitcoin/bitcoin/issues/comments/326042739/reactions",
      "total_count": 0,
      "+1": 0,
      "-1": 0,
      "laugh": 0,
      "hooray": 0,
      "confused": 0,
      "heart": 0,
      "rocket": 0,
      "eyes": 0
    },
    "performed_via_github_app": null
  },
  {
    "url": "https://api.github.com/repos/bitcoin/bitcoin/issues/comments/326395368",
    "html_url": "https://github.com/bitcoin/bitcoin/pull/11196#issuecomment-326395368",
    "issue_url": "https://api.github.com/repos/bitcoin/bitcoin/issues/11196",
    "id": 326395368,
    "node_id": "MDEyOklzc3VlQ29tbWVudDMyNjM5NTM2OA==",
    "user": {
      "login": "jtimon",
      "id": 1008458,
      "node_id": "MDQ6VXNlcjEwMDg0NTg=",
      "avatar_url": "https://avatars.githubusercontent.com/u/1008458?v=4",
      "gravatar_id": "",
      "url": "https://api.github.com/users/jtimon",
      "html_url": "https://github.com/jtimon",
      "followers_url": "https://api.github.com/users/jtimon/followers",
      "following_url": "https://api.github.com/users/jtimon/following{/other_user}",
      "gists_url": "https://api.github.com/users/jtimon/gists{/gist_id}",
      "starred_url": "https://api.github.com/users/jtimon/starred{/owner}{/repo}",
      "subscriptions_url": "https://api.github.com/users/jtimon/subscriptions",
      "organizations_url": "https://api.github.com/users/jtimon/orgs",
      "repos_url": "https://api.github.com/users/jtimon/repos",
      "events_url": "https://api.github.com/users/jtimon/events{/privacy}",
      "received_events_url": "https://api.github.com/users/jtimon/received_events",
      "type": "User",
      "site_admin": false
    },
    "created_at": "2017-08-31T19:20:07Z",
    "updated_at": "2017-08-31T19:20:07Z",
    "author_association": "CONTRIBUTOR",
    "body_html": "<p dir=\"auto\">Concept ACK</p>",
    "body_text": "Concept ACK",
    "body": "Concept ACK",
    "reactions": {
      "url": "https://api.github.com/repos/bitcoin/bitcoin/issues/comments/326395368/reactions",
      "total_count": 0,
      "+1": 0,
      "-1": 0,
      "laugh": 0,
      "hooray": 0,
      "confused": 0,
      "heart": 0,
      "rocket": 0,
      "eyes": 0
    },
    "performed_via_github_app": null
  },
  {
    "url": "https://api.github.com/repos/bitcoin/bitcoin/issues/comments/326408371",
    "html_url": "https://github.com/bitcoin/bitcoin/pull/11196#issuecomment-326408371",
    "issue_url": "https://api.github.com/repos/bitcoin/bitcoin/issues/11196",
    "id": 326408371,
    "node_id": "MDEyOklzc3VlQ29tbWVudDMyNjQwODM3MQ==",
    "user": {
      "login": "theuni",
      "id": 417043,
      "node_id": "MDQ6VXNlcjQxNzA0Mw==",
      "avatar_url": "https://avatars.githubusercontent.com/u/417043?v=4",
      "gravatar_id": "",
      "url": "https://api.github.com/users/theuni",
      "html_url": "https://github.com/theuni",
      "followers_url": "https://api.github.com/users/theuni/followers",
      "following_url": "https://api.github.com/users/theuni/following{/other_user}",
      "gists_url": "https://api.github.com/users/theuni/gists{/gist_id}",
      "starred_url": "https://api.github.com/users/theuni/starred{/owner}{/repo}",
      "subscriptions_url": "https://api.github.com/users/theuni/subscriptions",
      "organizations_url": "https://api.github.com/users/theuni/orgs",
      "repos_url": "https://api.github.com/users/theuni/repos",
      "events_url": "https://api.github.com/users/theuni/events{/privacy}",
      "received_events_url": "https://api.github.com/users/theuni/received_events",
      "type": "User",
      "site_admin": false
    },
    "created_at": "2017-08-31T20:15:25Z",
    "updated_at": "2017-08-31T20:15:25Z",
    "author_association": "MEMBER",
    "body_html": "<p dir=\"auto\">concept ACK. and utACK 9c4f8b5188a53f39c0849f860c8227fbb5a77bc6. It'll be great to be rid of the openssl dependency at such a low level.</p>\n<p dir=\"auto\">The logic seems sane. It'd be nice if we could add a test, but I suppose we can't test reliably without affecting the outcome.</p>",
    "body_text": "concept ACK. and utACK 9c4f8b5188a53f39c0849f860c8227fbb5a77bc6. It'll be great to be rid of the openssl dependency at such a low level.\nThe logic seems sane. It'd be nice if we could add a test, but I suppose we can't test reliably without affecting the outcome.",
    "body": "concept ACK. and utACK 9c4f8b5188a53f39c0849f860c8227fbb5a77bc6. It'll be great to be rid of the openssl dependency at such a low level.\r\n\r\nThe logic seems sane. It'd be nice if we could add a test, but I suppose we can't test reliably without affecting the outcome.",
    "reactions": {
      "url": "https://api.github.com/repos/bitcoin/bitcoin/issues/comments/326408371/reactions",
      "total_count": 0,
      "+1": 0,
      "-1": 0,
      "laugh": 0,
      "hooray": 0,
      "confused": 0,
      "heart": 0,
      "rocket": 0,
      "eyes": 0
    },
    "performed_via_github_app": null
  },
  {
    "url": "https://api.github.com/repos/bitcoin/bitcoin/issues/comments/326619166",
    "html_url": "https://github.com/bitcoin/bitcoin/pull/11196#issuecomment-326619166",
    "issue_url": "https://api.github.com/repos/bitcoin/bitcoin/issues/11196",
    "id": 326619166,
    "node_id": "MDEyOklzc3VlQ29tbWVudDMyNjYxOTE2Ng==",
    "user": {
      "login": "gmaxwell",
      "id": 858454,
      "node_id": "MDQ6VXNlcjg1ODQ1NA==",
      "avatar_url": "https://avatars.githubusercontent.com/u/858454?v=4",
      "gravatar_id": "",
      "url": "https://api.github.com/users/gmaxwell",
      "html_url": "https://github.com/gmaxwell",
      "followers_url": "https://api.github.com/users/gmaxwell/followers",
      "following_url": "https://api.github.com/users/gmaxwell/following{/other_user}",
      "gists_url": "https://api.github.com/users/gmaxwell/gists{/gist_id}",
      "starred_url": "https://api.github.com/users/gmaxwell/starred{/owner}{/repo}",
      "subscriptions_url": "https://api.github.com/users/gmaxwell/subscriptions",
      "organizations_url": "https://api.github.com/users/gmaxwell/orgs",
      "repos_url": "https://api.github.com/users/gmaxwell/repos",
      "events_url": "https://api.github.com/users/gmaxwell/events{/privacy}",
      "received_events_url": "https://api.github.com/users/gmaxwell/received_events",
      "type": "User",
      "site_admin": false
    },
    "created_at": "2017-09-01T16:02:45Z",
    "updated_at": "2017-09-01T16:02:45Z",
    "author_association": "CONTRIBUTOR",
    "body_html": "<p dir=\"auto\"><a class=\"user-mention notranslate\" data-hovercard-type=\"user\" data-hovercard-url=\"/users/cfields/hovercard\" data-octo-click=\"hovercard-link-click\" data-octo-dimensions=\"link_type:self\" href=\"https://github.com/cfields\">@cfields</a> you can review the ASM at least.</p>",
    "body_text": "@cfields you can review the ASM at least.",
    "body": "@cfields you can review the ASM at least.",
    "reactions": {
      "url": "https://api.github.com/repos/bitcoin/bitcoin/issues/comments/326619166/reactions",
      "total_count": 0,
      "+1": 0,
      "-1": 0,
      "laugh": 0,
      "hooray": 0,
      "confused": 0,
      "heart": 0,
      "rocket": 0,
      "eyes": 0
    },
    "performed_via_github_app": null
  },
  {
    "url": "https://api.github.com/repos/bitcoin/bitcoin/issues/comments/326818451",
    "html_url": "https://github.com/bitcoin/bitcoin/pull/11196#issuecomment-326818451",
    "issue_url": "https://api.github.com/repos/bitcoin/bitcoin/issues/11196",
    "id": 326818451,
    "node_id": "MDEyOklzc3VlQ29tbWVudDMyNjgxODQ1MQ==",
    "user": {
      "login": "jonasschnelli",
      "id": 178464,
      "node_id": "MDQ6VXNlcjE3ODQ2NA==",
      "avatar_url": "https://avatars.githubusercontent.com/u/178464?v=4",
      "gravatar_id": "",
      "url": "https://api.github.com/users/jonasschnelli",
      "html_url": "https://github.com/jonasschnelli",
      "followers_url": "https://api.github.com/users/jonasschnelli/followers",
      "following_url": "https://api.github.com/users/jonasschnelli/following{/other_user}",
      "gists_url": "https://api.github.com/users/jonasschnelli/gists{/gist_id}",
      "starred_url": "https://api.github.com/users/jonasschnelli/starred{/owner}{/repo}",
      "subscriptions_url": "https://api.github.com/users/jonasschnelli/subscriptions",
      "organizations_url": "https://api.github.com/users/jonasschnelli/orgs",
      "repos_url": "https://api.github.com/users/jonasschnelli/repos",
      "events_url": "https://api.github.com/users/jonasschnelli/events{/privacy}",
      "received_events_url": "https://api.github.com/users/jonasschnelli/received_events",
      "type": "User",
      "site_admin": false
    },
    "created_at": "2017-09-03T17:22:46Z",
    "updated_at": "2017-09-03T17:22:46Z",
    "author_association": "CONTRIBUTOR",
    "body_html": "<p dir=\"auto\">utACK 9c4f8b5188a53f39c0849f860c8227fbb5a77bc6</p>",
    "body_text": "utACK 9c4f8b5188a53f39c0849f860c8227fbb5a77bc6",
    "body": "utACK 9c4f8b5188a53f39c0849f860c8227fbb5a77bc6",
    "reactions": {
      "url": "https://api.github.com/repos/bitcoin/bitcoin/issues/comments/326818451/reactions",
      "total_count": 0,
      "+1": 0,
      "-1": 0,
      "laugh": 0,
      "hooray": 0,
      "confused": 0,
      "heart": 0,
      "rocket": 0,
      "eyes": 0
    },
    "performed_via_github_app": null
  },
  {
    "url": "https://api.github.com/repos/bitcoin/bitcoin/issues/comments/327314321",
    "html_url": "https://github.com/bitcoin/bitcoin/pull/11196#issuecomment-327314321",
    "issue_url": "https://api.github.com/repos/bitcoin/bitcoin/issues/11196",
    "id": 327314321,
    "node_id": "MDEyOklzc3VlQ29tbWVudDMyNzMxNDMyMQ==",
    "user": {
      "login": "laanwj",
      "id": 126646,
      "node_id": "MDQ6VXNlcjEyNjY0Ng==",
      "avatar_url": "https://avatars.githubusercontent.com/u/126646?v=4",
      "gravatar_id": "",
      "url": "https://api.github.com/users/laanwj",
      "html_url": "https://github.com/laanwj",
      "followers_url": "https://api.github.com/users/laanwj/followers",
      "following_url": "https://api.github.com/users/laanwj/following{/other_user}",
      "gists_url": "https://api.github.com/users/laanwj/gists{/gist_id}",
      "starred_url": "https://api.github.com/users/laanwj/starred{/owner}{/repo}",
      "subscriptions_url": "https://api.github.com/users/laanwj/subscriptions",
      "organizations_url": "https://api.github.com/users/laanwj/orgs",
      "repos_url": "https://api.github.com/users/laanwj/repos",
      "events_url": "https://api.github.com/users/laanwj/events{/privacy}",
      "received_events_url": "https://api.github.com/users/laanwj/received_events",
      "type": "User",
      "site_admin": false
    },
    "created_at": "2017-09-05T21:52:41Z",
    "updated_at": "2017-09-05T21:52:41Z",
    "author_association": "MEMBER",
    "body_html": "<p dir=\"auto\">Concept ACK, though I don't understand why this works (certainly in the MSCV case), I would prefer a more explanatory comment.</p>",
    "body_text": "Concept ACK, though I don't understand why this works (certainly in the MSCV case), I would prefer a more explanatory comment.",
    "body": "Concept ACK, though I don't understand why this works (certainly in the MSCV case), I would prefer a more explanatory comment.",
    "reactions": {
      "url": "https://api.github.com/repos/bitcoin/bitcoin/issues/comments/327314321/reactions",
      "total_count": 1,
      "+1": 1,
      "-1": 0,
      "laugh": 0,
      "hooray": 0,
      "confused": 0,
      "heart": 0,
      "rocket": 0,
      "eyes": 0
    },
    "performed_via_github_app": null
  },
  {
    "url": "https://api.github.com/repos/bitcoin/bitcoin/issues/comments/327457235",
    "html_url": "https://github.com/bitcoin/bitcoin/pull/11196#issuecomment-327457235",
    "issue_url": "https://api.github.com/repos/bitcoin/bitcoin/issues/11196",
    "id": 327457235,
    "node_id": "MDEyOklzc3VlQ29tbWVudDMyNzQ1NzIzNQ==",
    "user": {
      "login": "practicalswift",
      "id": 7826565,
      "node_id": "MDQ6VXNlcjc4MjY1NjU=",
      "avatar_url": "https://avatars.githubusercontent.com/u/7826565?v=4",
      "gravatar_id": "",
      "url": "https://api.github.com/users/practicalswift",
      "html_url": "https://github.com/practicalswift",
      "followers_url": "https://api.github.com/users/practicalswift/followers",
      "following_url": "https://api.github.com/users/practicalswift/following{/other_user}",
      "gists_url": "https://api.github.com/users/practicalswift/gists{/gist_id}",
      "starred_url": "https://api.github.com/users/practicalswift/starred{/owner}{/repo}",
      "subscriptions_url": "https://api.github.com/users/practicalswift/subscriptions",
      "organizations_url": "https://api.github.com/users/practicalswift/orgs",
      "repos_url": "https://api.github.com/users/practicalswift/repos",
      "events_url": "https://api.github.com/users/practicalswift/events{/privacy}",
      "received_events_url": "https://api.github.com/users/practicalswift/received_events",
      "type": "User",
      "site_admin": false
    },
    "created_at": "2017-09-06T11:39:47Z",
    "updated_at": "2017-09-06T20:53:31Z",
    "author_association": "CONTRIBUTOR",
    "body_html": "<p dir=\"auto\">Since we - in contrast to BoringSSL - have the luxury of always compiling with assertions enabled, what about also adding an assertion <code class=\"notranslate\">assert(len == 0 || static_cast&lt;uint8_t*&gt;(ptr)[0] == 0);</code> as a postcondition? Better safe than sorry :-)</p>",
    "body_text": "Since we - in contrast to BoringSSL - have the luxury of always compiling with assertions enabled, what about also adding an assertion assert(len == 0 || static_cast<uint8_t*>(ptr)[0] == 0); as a postcondition? Better safe than sorry :-)",
    "body": "Since we - in contrast to BoringSSL - have the luxury of always compiling with assertions enabled, what about also adding an assertion `assert(len == 0 || static_cast<uint8_t*>(ptr)[0] == 0);` as a postcondition? Better safe than sorry :-)",
    "reactions": {
      "url": "https://api.github.com/repos/bitcoin/bitcoin/issues/comments/327457235/reactions",
      "total_count": 0,
      "+1": 0,
      "-1": 0,
      "laugh": 0,
      "hooray": 0,
      "confused": 0,
      "heart": 0,
      "rocket": 0,
      "eyes": 0
    },
    "performed_via_github_app": null
  },
  {
    "url": "https://api.github.com/repos/bitcoin/bitcoin/issues/comments/327491753",
    "html_url": "https://github.com/bitcoin/bitcoin/pull/11196#issuecomment-327491753",
    "issue_url": "https://api.github.com/repos/bitcoin/bitcoin/issues/11196",
    "id": 327491753,
    "node_id": "MDEyOklzc3VlQ29tbWVudDMyNzQ5MTc1Mw==",
    "user": {
      "login": "kallewoof",
      "id": 250224,
      "node_id": "MDQ6VXNlcjI1MDIyNA==",
      "avatar_url": "https://avatars.githubusercontent.com/u/250224?v=4",
      "gravatar_id": "",
      "url": "https://api.github.com/users/kallewoof",
      "html_url": "https://github.com/kallewoof",
      "followers_url": "https://api.github.com/users/kallewoof/followers",
      "following_url": "https://api.github.com/users/kallewoof/following{/other_user}",
      "gists_url": "https://api.github.com/users/kallewoof/gists{/gist_id}",
      "starred_url": "https://api.github.com/users/kallewoof/starred{/owner}{/repo}",
      "subscriptions_url": "https://api.github.com/users/kallewoof/subscriptions",
      "organizations_url": "https://api.github.com/users/kallewoof/orgs",
      "repos_url": "https://api.github.com/users/kallewoof/repos",
      "events_url": "https://api.github.com/users/kallewoof/events{/privacy}",
      "received_events_url": "https://api.github.com/users/kallewoof/received_events",
      "type": "User",
      "site_admin": false
    },
    "created_at": "2017-09-06T13:58:33Z",
    "updated_at": "2017-09-07T01:23:02Z",
    "author_association": "MEMBER",
    "body_html": "<p dir=\"auto\"><a class=\"user-mention notranslate\" data-hovercard-type=\"user\" data-hovercard-url=\"/users/practicalswift/hovercard\" data-octo-click=\"hovercard-link-click\" data-octo-dimensions=\"link_type:self\" href=\"https://github.com/practicalswift\">@practicalswift</a>: I think that affects the resulting code. It basically skips cleans for untouched memory. By touching memory it will forego that optimization.</p>",
    "body_text": "@practicalswift: I think that affects the resulting code. It basically skips cleans for untouched memory. By touching memory it will forego that optimization.",
    "body": "@practicalswift: I think that affects the resulting code. It basically skips cleans for untouched memory. By touching memory it will forego that optimization. ",
    "reactions": {
      "url": "https://api.github.com/repos/bitcoin/bitcoin/issues/comments/327491753/reactions",
      "total_count": 0,
      "+1": 0,
      "-1": 0,
      "laugh": 0,
      "hooray": 0,
      "confused": 0,
      "heart": 0,
      "rocket": 0,
      "eyes": 0
    },
    "performed_via_github_app": null
  },
  {
    "url": "https://api.github.com/repos/bitcoin/bitcoin/issues/comments/327920324",
    "html_url": "https://github.com/bitcoin/bitcoin/pull/11196#issuecomment-327920324",
    "issue_url": "https://api.github.com/repos/bitcoin/bitcoin/issues/11196",
    "id": 327920324,
    "node_id": "MDEyOklzc3VlQ29tbWVudDMyNzkyMDMyNA==",
    "user": {
      "login": "TheBlueMatt",
      "id": 649246,
      "node_id": "MDQ6VXNlcjY0OTI0Ng==",
      "avatar_url": "https://avatars.githubusercontent.com/u/649246?v=4",
      "gravatar_id": "",
      "url": "https://api.github.com/users/TheBlueMatt",
      "html_url": "https://github.com/TheBlueMatt",
      "followers_url": "https://api.github.com/users/TheBlueMatt/followers",
      "following_url": "https://api.github.com/users/TheBlueMatt/following{/other_user}",
      "gists_url": "https://api.github.com/users/TheBlueMatt/gists{/gist_id}",
      "starred_url": "https://api.github.com/users/TheBlueMatt/starred{/owner}{/repo}",
      "subscriptions_url": "https://api.github.com/users/TheBlueMatt/subscriptions",
      "organizations_url": "https://api.github.com/users/TheBlueMatt/orgs",
      "repos_url": "https://api.github.com/users/TheBlueMatt/repos",
      "events_url": "https://api.github.com/users/TheBlueMatt/events{/privacy}",
      "received_events_url": "https://api.github.com/users/TheBlueMatt/received_events",
      "type": "User",
      "site_admin": false
    },
    "created_at": "2017-09-07T20:35:29Z",
    "updated_at": "2017-09-07T20:35:29Z",
    "author_association": "CONTRIBUTOR",
    "body_html": "<p dir=\"auto\">In the original boringssl review at <a href=\"https://boringssl-review.googlesource.com/c/boringssl/+/1339\" rel=\"nofollow\">https://boringssl-review.googlesource.com/c/boringssl/+/1339</a> it was noted that on WIndows its likely better to just use SecureZeroMemory...maybe do that in place of the string __asm for MSVC?</p>",
    "body_text": "In the original boringssl review at https://boringssl-review.googlesource.com/c/boringssl/+/1339 it was noted that on WIndows its likely better to just use SecureZeroMemory...maybe do that in place of the string __asm for MSVC?",
    "body": "In the original boringssl review at https://boringssl-review.googlesource.com/c/boringssl/+/1339 it was noted that on WIndows its likely better to just use SecureZeroMemory...maybe do that in place of the string __asm for MSVC?",
    "reactions": {
      "url": "https://api.github.com/repos/bitcoin/bitcoin/issues/comments/327920324/reactions",
      "total_count": 0,
      "+1": 0,
      "-1": 0,
      "laugh": 0,
      "hooray": 0,
      "confused": 0,
      "heart": 0,
      "rocket": 0,
      "eyes": 0
    },
    "performed_via_github_app": null
  },
  {
    "url": "https://api.github.com/repos/bitcoin/bitcoin/issues/comments/327922421",
    "html_url": "https://github.com/bitcoin/bitcoin/pull/11196#issuecomment-327922421",
    "issue_url": "https://api.github.com/repos/bitcoin/bitcoin/issues/11196",
    "id": 327922421,
    "node_id": "MDEyOklzc3VlQ29tbWVudDMyNzkyMjQyMQ==",
    "user": {
      "login": "laanwj",
      "id": 126646,
      "node_id": "MDQ6VXNlcjEyNjY0Ng==",
      "avatar_url": "https://avatars.githubusercontent.com/u/126646?v=4",
      "gravatar_id": "",
      "url": "https://api.github.com/users/laanwj",
      "html_url": "https://github.com/laanwj",
      "followers_url": "https://api.github.com/users/laanwj/followers",
      "following_url": "https://api.github.com/users/laanwj/following{/other_user}",
      "gists_url": "https://api.github.com/users/laanwj/gists{/gist_id}",
      "starred_url": "https://api.github.com/users/laanwj/starred{/owner}{/repo}",
      "subscriptions_url": "https://api.github.com/users/laanwj/subscriptions",
      "organizations_url": "https://api.github.com/users/laanwj/orgs",
      "repos_url": "https://api.github.com/users/laanwj/repos",
      "events_url": "https://api.github.com/users/laanwj/events{/privacy}",
      "received_events_url": "https://api.github.com/users/laanwj/received_events",
      "type": "User",
      "site_admin": false
    },
    "created_at": "2017-09-07T20:44:21Z",
    "updated_at": "2017-09-07T20:44:21Z",
    "author_association": "MEMBER",
    "body_html": "<p dir=\"auto\">I vaguely remember there was something wrong/insecure about SecureZeroMemory but I can't remember what and a quick search doesn't turn up anything. I think it was something with being a Win32 API function (syscall) so it makes it easier for malware to hook the function and scoop up all the sensitive data. Anyhow, I don't know if it matters.</p>",
    "body_text": "I vaguely remember there was something wrong/insecure about SecureZeroMemory but I can't remember what and a quick search doesn't turn up anything. I think it was something with being a Win32 API function (syscall) so it makes it easier for malware to hook the function and scoop up all the sensitive data. Anyhow, I don't know if it matters.",
    "body": "I vaguely remember there was something wrong/insecure about SecureZeroMemory but I can't remember what and a quick search doesn't turn up anything. I think it was something with being a Win32 API function (syscall) so it makes it easier for malware to hook the function and scoop up all the sensitive data. Anyhow, I don't know if it matters.",
    "reactions": {
      "url": "https://api.github.com/repos/bitcoin/bitcoin/issues/comments/327922421/reactions",
      "total_count": 0,
      "+1": 0,
      "-1": 0,
      "laugh": 0,
      "hooray": 0,
      "confused": 0,
      "heart": 0,
      "rocket": 0,
      "eyes": 0
    },
    "performed_via_github_app": null
  },
  {
    "url": "https://api.github.com/repos/bitcoin/bitcoin/issues/comments/329925949",
    "html_url": "https://github.com/bitcoin/bitcoin/pull/11196#issuecomment-329925949",
    "issue_url": "https://api.github.com/repos/bitcoin/bitcoin/issues/11196",
    "id": 329925949,
    "node_id": "MDEyOklzc3VlQ29tbWVudDMyOTkyNTk0OQ==",
    "user": {
      "login": "maaku",
      "id": 69154,
      "node_id": "MDQ6VXNlcjY5MTU0",
      "avatar_url": "https://avatars.githubusercontent.com/u/69154?v=4",
      "gravatar_id": "",
      "url": "https://api.github.com/users/maaku",
      "html_url": "https://github.com/maaku",
      "followers_url": "https://api.github.com/users/maaku/followers",
      "following_url": "https://api.github.com/users/maaku/following{/other_user}",
      "gists_url": "https://api.github.com/users/maaku/gists{/gist_id}",
      "starred_url": "https://api.github.com/users/maaku/starred{/owner}{/repo}",
      "subscriptions_url": "https://api.github.com/users/maaku/subscriptions",
      "organizations_url": "https://api.github.com/users/maaku/orgs",
      "repos_url": "https://api.github.com/users/maaku/repos",
      "events_url": "https://api.github.com/users/maaku/events{/privacy}",
      "received_events_url": "https://api.github.com/users/maaku/received_events",
      "type": "User",
      "site_admin": false
    },
    "created_at": "2017-09-15T23:27:21Z",
    "updated_at": "2017-09-15T23:27:21Z",
    "author_association": "CONTRIBUTOR",
    "body_html": "<p dir=\"auto\">Should I switch to SecureZeroMemory on windows? I don't know enough about windows to evaluate that risk. Or is this ready to merge as-is?</p>",
    "body_text": "Should I switch to SecureZeroMemory on windows? I don't know enough about windows to evaluate that risk. Or is this ready to merge as-is?",
    "body": "Should I switch to SecureZeroMemory on windows? I don't know enough about windows to evaluate that risk. Or is this ready to merge as-is?",
    "reactions": {
      "url": "https://api.github.com/repos/bitcoin/bitcoin/issues/comments/329925949/reactions",
      "total_count": 0,
      "+1": 0,
      "-1": 0,
      "laugh": 0,
      "hooray": 0,
      "confused": 0,
      "heart": 0,
      "rocket": 0,
      "eyes": 0
    },
    "performed_via_github_app": null
  },
  {
    "url": "https://api.github.com/repos/bitcoin/bitcoin/issues/comments/329926841",
    "html_url": "https://github.com/bitcoin/bitcoin/pull/11196#issuecomment-329926841",
    "issue_url": "https://api.github.com/repos/bitcoin/bitcoin/issues/11196",
    "id": 329926841,
    "node_id": "MDEyOklzc3VlQ29tbWVudDMyOTkyNjg0MQ==",
    "user": {
      "login": "sipa",
      "id": 548488,
      "node_id": "MDQ6VXNlcjU0ODQ4OA==",
      "avatar_url": "https://avatars.githubusercontent.com/u/548488?v=4",
      "gravatar_id": "",
      "url": "https://api.github.com/users/sipa",
      "html_url": "https://github.com/sipa",
      "followers_url": "https://api.github.com/users/sipa/followers",
      "following_url": "https://api.github.com/users/sipa/following{/other_user}",
      "gists_url": "https://api.github.com/users/sipa/gists{/gist_id}",
      "starred_url": "https://api.github.com/users/sipa/starred{/owner}{/repo}",
      "subscriptions_url": "https://api.github.com/users/sipa/subscriptions",
      "organizations_url": "https://api.github.com/users/sipa/orgs",
      "repos_url": "https://api.github.com/users/sipa/repos",
      "events_url": "https://api.github.com/users/sipa/events{/privacy}",
      "received_events_url": "https://api.github.com/users/sipa/received_events",
      "type": "User",
      "site_admin": false
    },
    "created_at": "2017-09-15T23:35:21Z",
    "updated_at": "2017-09-15T23:41:41Z",
    "author_association": "MEMBER",
    "body_html": "<p dir=\"auto\">I think this is fine as-is.</p>\n<p dir=\"auto\">utACK <a class=\"commit-link\" data-hovercard-type=\"commit\" data-hovercard-url=\"https://github.com/bitcoin/bitcoin/commit/1444c2e7d0a243690b960c1fefe5f36bf5ca7e54/hovercard\" href=\"https://github.com/bitcoin/bitcoin/commit/1444c2e7d0a243690b960c1fefe5f36bf5ca7e54\"><tt>1444c2e</tt></a></p>",
    "body_text": "I think this is fine as-is.\nutACK 1444c2e",
    "body": "I think this is fine as-is.\r\n\r\nutACK 1444c2e7d0a243690b960c1fefe5f36bf5ca7e54",
    "reactions": {
      "url": "https://api.github.com/repos/bitcoin/bitcoin/issues/comments/329926841/reactions",
      "total_count": 0,
      "+1": 0,
      "-1": 0,
      "laugh": 0,
      "hooray": 0,
      "confused": 0,
      "heart": 0,
      "rocket": 0,
      "eyes": 0
    },
    "performed_via_github_app": null
  },
  {
    "url": "https://api.github.com/repos/bitcoin/bitcoin/issues/comments/329946649",
    "html_url": "https://github.com/bitcoin/bitcoin/pull/11196#issuecomment-329946649",
    "issue_url": "https://api.github.com/repos/bitcoin/bitcoin/issues/11196",
    "id": 329946649,
    "node_id": "MDEyOklzc3VlQ29tbWVudDMyOTk0NjY0OQ==",
    "user": {
      "login": "laanwj",
      "id": 126646,
      "node_id": "MDQ6VXNlcjEyNjY0Ng==",
      "avatar_url": "https://avatars.githubusercontent.com/u/126646?v=4",
      "gravatar_id": "",
      "url": "https://api.github.com/users/laanwj",
      "html_url": "https://github.com/laanwj",
      "followers_url": "https://api.github.com/users/laanwj/followers",
      "following_url": "https://api.github.com/users/laanwj/following{/other_user}",
      "gists_url": "https://api.github.com/users/laanwj/gists{/gist_id}",
      "starred_url": "https://api.github.com/users/laanwj/starred{/owner}{/repo}",
      "subscriptions_url": "https://api.github.com/users/laanwj/subscriptions",
      "organizations_url": "https://api.github.com/users/laanwj/orgs",
      "repos_url": "https://api.github.com/users/laanwj/repos",
      "events_url": "https://api.github.com/users/laanwj/events{/privacy}",
      "received_events_url": "https://api.github.com/users/laanwj/received_events",
      "type": "User",
      "site_admin": false
    },
    "created_at": "2017-09-16T05:16:11Z",
    "updated_at": "2017-09-16T05:37:02Z",
    "author_association": "MEMBER",
    "body_html": "<blockquote>\n<p dir=\"auto\">Should I switch to SecureZeroMemory on windows?</p>\n</blockquote>\n<p dir=\"auto\">I also think it's fine as it is. Note that <a class=\"user-mention notranslate\" data-hovercard-type=\"user\" data-hovercard-url=\"/users/TheBlueMatt/hovercard\" data-octo-click=\"hovercard-link-click\" data-octo-dimensions=\"link_type:self\" href=\"https://github.com/TheBlueMatt\">@TheBlueMatt</a> doesn't say to use that call generally on Windows, but specifically on MSVC. Someone that maintains MSVC support should do the evaluation of the subtleties for what function/method to use there. Just using BoringSSL's code is \"best effort\" to support it as anything.<br>\nutACK <a class=\"commit-link\" data-hovercard-type=\"commit\" data-hovercard-url=\"https://github.com/bitcoin/bitcoin/commit/1444c2e7d0a243690b960c1fefe5f36bf5ca7e54/hovercard\" href=\"https://github.com/bitcoin/bitcoin/commit/1444c2e7d0a243690b960c1fefe5f36bf5ca7e54\"><tt>1444c2e</tt></a></p>\n<p dir=\"auto\">(also, if they make another decision re: MSVC we can always take it over)</p>",
    "body_text": "Should I switch to SecureZeroMemory on windows?\n\nI also think it's fine as it is. Note that @TheBlueMatt doesn't say to use that call generally on Windows, but specifically on MSVC. Someone that maintains MSVC support should do the evaluation of the subtleties for what function/method to use there. Just using BoringSSL's code is \"best effort\" to support it as anything.\nutACK 1444c2e\n(also, if they make another decision re: MSVC we can always take it over)",
    "body": "> Should I switch to SecureZeroMemory on windows? \r\n\r\nI also think it's fine as it is. Note that @TheBlueMatt doesn't say to use that call generally on Windows, but specifically on MSVC. Someone that maintains MSVC support should do the evaluation of the subtleties for what function/method to use there. Just using BoringSSL's code is \"best effort\" to support it as anything.\r\nutACK https://github.com/bitcoin/bitcoin/pull/11196/commits/1444c2e7d0a243690b960c1fefe5f36bf5ca7e54\r\n\r\n(also, if they make another decision re: MSVC we can always take it over)",
    "reactions": {
      "url": "https://api.github.com/repos/bitcoin/bitcoin/issues/comments/329946649/reactions",
      "total_count": 0,
      "+1": 0,
      "-1": 0,
      "laugh": 0,
      "hooray": 0,
      "confused": 0,
      "heart": 0,
      "rocket": 0,
      "eyes": 0
    },
    "performed_via_github_app": null
  }
]
