{
  "url": "https://api.github.com/repos/bitcoin/bitcoin/issues/12212",
  "repository_url": "https://api.github.com/repos/bitcoin/bitcoin",
  "labels_url": "https://api.github.com/repos/bitcoin/bitcoin/issues/12212/labels{/name}",
  "comments_url": "https://api.github.com/repos/bitcoin/bitcoin/issues/12212/comments",
  "events_url": "https://api.github.com/repos/bitcoin/bitcoin/issues/12212/events",
  "html_url": "https://github.com/bitcoin/bitcoin/pull/12212",
  "id": 289439321,
  "node_id": "MDExOlB1bGxSZXF1ZXN0MTYzNTcxNzcw",
  "number": 12212,
  "title": "Trivial: Fix spelling in zapwallettxes test description",
  "user": {
    "login": "bitspill",
    "id": 6021929,
    "node_id": "MDQ6VXNlcjYwMjE5Mjk=",
    "avatar_url": "https://avatars.githubusercontent.com/u/6021929?v=4",
    "gravatar_id": "",
    "url": "https://api.github.com/users/bitspill",
    "html_url": "https://github.com/bitspill",
    "followers_url": "https://api.github.com/users/bitspill/followers",
    "following_url": "https://api.github.com/users/bitspill/following{/other_user}",
    "gists_url": "https://api.github.com/users/bitspill/gists{/gist_id}",
    "starred_url": "https://api.github.com/users/bitspill/starred{/owner}{/repo}",
    "subscriptions_url": "https://api.github.com/users/bitspill/subscriptions",
    "organizations_url": "https://api.github.com/users/bitspill/orgs",
    "repos_url": "https://api.github.com/users/bitspill/repos",
    "events_url": "https://api.github.com/users/bitspill/events{/privacy}",
    "received_events_url": "https://api.github.com/users/bitspill/received_events",
    "type": "User",
    "site_admin": false
  },
  "labels": [
    {
      "id": 62963516,
      "node_id": "MDU6TGFiZWw2Mjk2MzUxNg==",
      "url": "https://api.github.com/repos/bitcoin/bitcoin/labels/Tests",
      "name": "Tests",
      "color": "d4c5f9",
      "default": false,
      "description": null
    }
  ],
  "state": "closed",
  "locked": true,
  "assignee": null,
  "assignees": [

  ],
  "milestone": null,
  "comments": 4,
  "created_at": "2018-01-17T22:38:15Z",
  "updated_at": "2021-09-08T11:46:21Z",
  "closed_at": "2018-01-18T20:46:58Z",
  "author_association": "CONTRIBUTOR",
  "active_lock_reason": "resolved",
  "draft": false,
  "pull_request": {
    "url": "https://api.github.com/repos/bitcoin/bitcoin/pulls/12212",
    "html_url": "https://github.com/bitcoin/bitcoin/pull/12212",
    "diff_url": "https://github.com/bitcoin/bitcoin/pull/12212.diff",
    "patch_url": "https://github.com/bitcoin/bitcoin/pull/12212.patch",
    "merged_at": "2018-01-18T20:46:58Z"
  },
  "body_html": "",
  "body_text": "",
  "body": "",
  "closed_by": {
    "login": "maflcko",
    "id": 6399679,
    "node_id": "MDQ6VXNlcjYzOTk2Nzk=",
    "avatar_url": "https://avatars.githubusercontent.com/u/6399679?v=4",
    "gravatar_id": "",
    "url": "https://api.github.com/users/maflcko",
    "html_url": "https://github.com/maflcko",
    "followers_url": "https://api.github.com/users/maflcko/followers",
    "following_url": "https://api.github.com/users/maflcko/following{/other_user}",
    "gists_url": "https://api.github.com/users/maflcko/gists{/gist_id}",
    "starred_url": "https://api.github.com/users/maflcko/starred{/owner}{/repo}",
    "subscriptions_url": "https://api.github.com/users/maflcko/subscriptions",
    "organizations_url": "https://api.github.com/users/maflcko/orgs",
    "repos_url": "https://api.github.com/users/maflcko/repos",
    "events_url": "https://api.github.com/users/maflcko/events{/privacy}",
    "received_events_url": "https://api.github.com/users/maflcko/received_events",
    "type": "User",
    "site_admin": false
  },
  "reactions": {
    "url": "https://api.github.com/repos/bitcoin/bitcoin/issues/12212/reactions",
    "total_count": 1,
    "+1": 1,
    "-1": 0,
    "laugh": 0,
    "hooray": 0,
    "confused": 0,
    "heart": 0,
    "rocket": 0,
    "eyes": 0
  },
  "timeline_url": "https://api.github.com/repos/bitcoin/bitcoin/issues/12212/timeline",
  "performed_via_github_app": null,
  "state_reason": null
}
