{
  "url": "https://api.github.com/repos/bitcoin/bitcoin/issues/16661",
  "repository_url": "https://api.github.com/repos/bitcoin/bitcoin",
  "labels_url": "https://api.github.com/repos/bitcoin/bitcoin/issues/16661/labels{/name}",
  "comments_url": "https://api.github.com/repos/bitcoin/bitcoin/issues/16661/comments",
  "events_url": "https://api.github.com/repos/bitcoin/bitcoin/issues/16661/events",
  "html_url": "https://github.com/bitcoin/bitcoin/pull/16661",
  "id": 482533189,
  "node_id": "MDExOlB1bGxSZXF1ZXN0MzA4Nzg3MDEw",
  "number": 16661,
  "title": "wallet: Fix segfault in CreateWalletFromFile, Pass error to rpc caller",
  "user": {
    "login": "maflcko",
    "id": 6399679,
    "node_id": "MDQ6VXNlcjYzOTk2Nzk=",
    "avatar_url": "https://avatars.githubusercontent.com/u/6399679?v=4",
    "gravatar_id": "",
    "url": "https://api.github.com/users/maflcko",
    "html_url": "https://github.com/maflcko",
    "followers_url": "https://api.github.com/users/maflcko/followers",
    "following_url": "https://api.github.com/users/maflcko/following{/other_user}",
    "gists_url": "https://api.github.com/users/maflcko/gists{/gist_id}",
    "starred_url": "https://api.github.com/users/maflcko/starred{/owner}{/repo}",
    "subscriptions_url": "https://api.github.com/users/maflcko/subscriptions",
    "organizations_url": "https://api.github.com/users/maflcko/orgs",
    "repos_url": "https://api.github.com/users/maflcko/repos",
    "events_url": "https://api.github.com/users/maflcko/events{/privacy}",
    "received_events_url": "https://api.github.com/users/maflcko/received_events",
    "type": "User",
    "site_admin": false
  },
  "labels": [
    {
      "id": 149424,
      "node_id": "MDU6TGFiZWwxNDk0MjQ=",
      "url": "https://api.github.com/repos/bitcoin/bitcoin/labels/Wallet",
      "name": "Wallet",
      "color": "08a781",
      "default": false,
      "description": null
    }
  ],
  "state": "closed",
  "locked": true,
  "assignee": null,
  "assignees": [

  ],
  "milestone": {
    "url": "https://api.github.com/repos/bitcoin/bitcoin/milestones/37",
    "html_url": "https://github.com/bitcoin/bitcoin/milestone/37",
    "labels_url": "https://api.github.com/repos/bitcoin/bitcoin/milestones/37/labels",
    "id": 3391434,
    "node_id": "MDk6TWlsZXN0b25lMzM5MTQzNA==",
    "number": 37,
    "title": "0.19.0",
    "description": "",
    "creator": {
      "login": "maflcko",
      "id": 6399679,
      "node_id": "MDQ6VXNlcjYzOTk2Nzk=",
      "avatar_url": "https://avatars.githubusercontent.com/u/6399679?v=4",
      "gravatar_id": "",
      "url": "https://api.github.com/users/maflcko",
      "html_url": "https://github.com/maflcko",
      "followers_url": "https://api.github.com/users/maflcko/followers",
      "following_url": "https://api.github.com/users/maflcko/following{/other_user}",
      "gists_url": "https://api.github.com/users/maflcko/gists{/gist_id}",
      "starred_url": "https://api.github.com/users/maflcko/starred{/owner}{/repo}",
      "subscriptions_url": "https://api.github.com/users/maflcko/subscriptions",
      "organizations_url": "https://api.github.com/users/maflcko/orgs",
      "repos_url": "https://api.github.com/users/maflcko/repos",
      "events_url": "https://api.github.com/users/maflcko/events{/privacy}",
      "received_events_url": "https://api.github.com/users/maflcko/received_events",
      "type": "User",
      "site_admin": false
    },
    "open_issues": 0,
    "closed_issues": 155,
    "state": "closed",
    "created_at": "2018-05-31T19:40:07Z",
    "updated_at": "2020-04-24T16:46:17Z",
    "due_on": null,
    "closed_at": "2019-11-10T11:39:07Z"
  },
  "comments": 7,
  "created_at": "2019-08-19T21:18:28Z",
  "updated_at": "2021-12-16T14:53:41Z",
  "closed_at": "2019-09-03T18:40:46Z",
  "author_association": "MEMBER",
  "active_lock_reason": "resolved",
  "draft": false,
  "pull_request": {
    "url": "https://api.github.com/repos/bitcoin/bitcoin/pulls/16661",
    "html_url": "https://github.com/bitcoin/bitcoin/pull/16661",
    "diff_url": "https://github.com/bitcoin/bitcoin/pull/16661.diff",
    "patch_url": "https://github.com/bitcoin/bitcoin/pull/16661.patch",
    "merged_at": null
  },
  "body_html": "<p dir=\"auto\"><code class=\"notranslate\">CreateWalletFromFile</code> has a bunch of issues:</p>\n<ul dir=\"auto\">\n<li><code class=\"notranslate\">walletFile</code> refers to freed memory and will thus corrupt the debug.log and/or crash the node if read</li>\n<li><code class=\"notranslate\">WalletParameterInteraction</code> was moved to <code class=\"notranslate\">CreateWalletFromFile</code> and <code class=\"notranslate\">WalletInit::ParameterInteraction</code> without updating the documentation</li>\n<li><code class=\"notranslate\">loadwallet</code> and <code class=\"notranslate\">createwallet</code> will not pass up errors from <code class=\"notranslate\">CreateWalletFromFile</code> to the RPC caller</li>\n</ul>\n<p dir=\"auto\">Fix each of those issues in a separate commit.</p>",
  "body_text": "CreateWalletFromFile has a bunch of issues:\n\nwalletFile refers to freed memory and will thus corrupt the debug.log and/or crash the node if read\nWalletParameterInteraction was moved to CreateWalletFromFile and WalletInit::ParameterInteraction without updating the documentation\nloadwallet and createwallet will not pass up errors from CreateWalletFromFile to the RPC caller\n\nFix each of those issues in a separate commit.",
  "body": "`CreateWalletFromFile` has a bunch of issues:\r\n\r\n* `walletFile` refers to freed memory and will thus corrupt the debug.log and/or crash the node if read\r\n* `WalletParameterInteraction` was moved to `CreateWalletFromFile` and `WalletInit::ParameterInteraction` without updating the documentation\r\n* `loadwallet` and `createwallet` will not pass up errors from `CreateWalletFromFile` to the RPC caller\r\n\r\nFix each of those issues in a separate commit.",
  "closed_by": {
    "login": "maflcko",
    "id": 6399679,
    "node_id": "MDQ6VXNlcjYzOTk2Nzk=",
    "avatar_url": "https://avatars.githubusercontent.com/u/6399679?v=4",
    "gravatar_id": "",
    "url": "https://api.github.com/users/maflcko",
    "html_url": "https://github.com/maflcko",
    "followers_url": "https://api.github.com/users/maflcko/followers",
    "following_url": "https://api.github.com/users/maflcko/following{/other_user}",
    "gists_url": "https://api.github.com/users/maflcko/gists{/gist_id}",
    "starred_url": "https://api.github.com/users/maflcko/starred{/owner}{/repo}",
    "subscriptions_url": "https://api.github.com/users/maflcko/subscriptions",
    "organizations_url": "https://api.github.com/users/maflcko/orgs",
    "repos_url": "https://api.github.com/users/maflcko/repos",
    "events_url": "https://api.github.com/users/maflcko/events{/privacy}",
    "received_events_url": "https://api.github.com/users/maflcko/received_events",
    "type": "User",
    "site_admin": false
  },
  "reactions": {
    "url": "https://api.github.com/repos/bitcoin/bitcoin/issues/16661/reactions",
    "total_count": 0,
    "+1": 0,
    "-1": 0,
    "laugh": 0,
    "hooray": 0,
    "confused": 0,
    "heart": 0,
    "rocket": 0,
    "eyes": 0
  },
  "timeline_url": "https://api.github.com/repos/bitcoin/bitcoin/issues/16661/timeline",
  "performed_via_github_app": null,
  "state_reason": null
}
