{
  "url": "https://api.github.com/repos/bitcoin/bitcoin/issues/1171",
  "repository_url": "https://api.github.com/repos/bitcoin/bitcoin",
  "labels_url": "https://api.github.com/repos/bitcoin/bitcoin/issues/1171/labels{/name}",
  "comments_url": "https://api.github.com/repos/bitcoin/bitcoin/issues/1171/comments",
  "events_url": "https://api.github.com/repos/bitcoin/bitcoin/issues/1171/events",
  "html_url": "https://github.com/bitcoin/bitcoin/pull/1171",
  "id": 4360475,
  "node_id": "MDExOlB1bGxSZXF1ZXN0MTI2MTg3Mw==",
  "number": 1171,
  "title": "fix 2 compiler warnings",
  "user": {
    "login": "Diapolo",
    "id": 1419649,
    "node_id": "MDQ6VXNlcjE0MTk2NDk=",
    "avatar_url": "https://avatars.githubusercontent.com/u/1419649?v=4",
    "gravatar_id": "",
    "url": "https://api.github.com/users/Diapolo",
    "html_url": "https://github.com/Diapolo",
    "followers_url": "https://api.github.com/users/Diapolo/followers",
    "following_url": "https://api.github.com/users/Diapolo/following{/other_user}",
    "gists_url": "https://api.github.com/users/Diapolo/gists{/gist_id}",
    "starred_url": "https://api.github.com/users/Diapolo/starred{/owner}{/repo}",
    "subscriptions_url": "https://api.github.com/users/Diapolo/subscriptions",
    "organizations_url": "https://api.github.com/users/Diapolo/orgs",
    "repos_url": "https://api.github.com/users/Diapolo/repos",
    "events_url": "https://api.github.com/users/Diapolo/events{/privacy}",
    "received_events_url": "https://api.github.com/users/Diapolo/received_events",
    "type": "User",
    "site_admin": false
  },
  "labels": [

  ],
  "state": "closed",
  "locked": true,
  "assignee": null,
  "assignees": [

  ],
  "milestone": null,
  "comments": 5,
  "created_at": "2012-04-30T23:55:01Z",
  "updated_at": "2021-09-08T10:09:48Z",
  "closed_at": "2012-05-01T22:02:41Z",
  "author_association": "NONE",
  "active_lock_reason": "resolved",
  "draft": false,
  "pull_request": {
    "url": "https://api.github.com/repos/bitcoin/bitcoin/pulls/1171",
    "html_url": "https://github.com/bitcoin/bitcoin/pull/1171",
    "diff_url": "https://github.com/bitcoin/bitcoin/pull/1171.diff",
    "patch_url": "https://github.com/bitcoin/bitcoin/pull/1171.patch",
    "merged_at": "2012-05-01T22:02:41Z"
  },
  "body_html": "",
  "body_text": "",
  "body": "",
  "closed_by": {
    "login": "jgarzik",
    "id": 494411,
    "node_id": "MDQ6VXNlcjQ5NDQxMQ==",
    "avatar_url": "https://avatars.githubusercontent.com/u/494411?v=4",
    "gravatar_id": "",
    "url": "https://api.github.com/users/jgarzik",
    "html_url": "https://github.com/jgarzik",
    "followers_url": "https://api.github.com/users/jgarzik/followers",
    "following_url": "https://api.github.com/users/jgarzik/following{/other_user}",
    "gists_url": "https://api.github.com/users/jgarzik/gists{/gist_id}",
    "starred_url": "https://api.github.com/users/jgarzik/starred{/owner}{/repo}",
    "subscriptions_url": "https://api.github.com/users/jgarzik/subscriptions",
    "organizations_url": "https://api.github.com/users/jgarzik/orgs",
    "repos_url": "https://api.github.com/users/jgarzik/repos",
    "events_url": "https://api.github.com/users/jgarzik/events{/privacy}",
    "received_events_url": "https://api.github.com/users/jgarzik/received_events",
    "type": "User",
    "site_admin": false
  },
  "reactions": {
    "url": "https://api.github.com/repos/bitcoin/bitcoin/issues/1171/reactions",
    "total_count": 0,
    "+1": 0,
    "-1": 0,
    "laugh": 0,
    "hooray": 0,
    "confused": 0,
    "heart": 0,
    "rocket": 0,
    "eyes": 0
  },
  "timeline_url": "https://api.github.com/repos/bitcoin/bitcoin/issues/1171/timeline",
  "performed_via_github_app": null,
  "state_reason": null
}
