[
  {
    "url": "https://api.github.com/repos/bitcoin/bitcoin/issues/comments/2123820011",
    "html_url": "https://github.com/bitcoin/bitcoin/pull/30149#issuecomment-2123820011",
    "issue_url": "https://api.github.com/repos/bitcoin/bitcoin/issues/30149",
    "id": 2123820011,
    "node_id": "IC_kwDOABII585-luvr",
    "user": {
      "login": "DrahtBot",
      "id": 39886733,
      "node_id": "MDQ6VXNlcjM5ODg2NzMz",
      "avatar_url": "https://avatars.githubusercontent.com/u/39886733?v=4",
      "gravatar_id": "",
      "url": "https://api.github.com/users/DrahtBot",
      "html_url": "https://github.com/DrahtBot",
      "followers_url": "https://api.github.com/users/DrahtBot/followers",
      "following_url": "https://api.github.com/users/DrahtBot/following{/other_user}",
      "gists_url": "https://api.github.com/users/DrahtBot/gists{/gist_id}",
      "starred_url": "https://api.github.com/users/DrahtBot/starred{/owner}{/repo}",
      "subscriptions_url": "https://api.github.com/users/DrahtBot/subscriptions",
      "organizations_url": "https://api.github.com/users/DrahtBot/orgs",
      "repos_url": "https://api.github.com/users/DrahtBot/repos",
      "events_url": "https://api.github.com/users/DrahtBot/events{/privacy}",
      "received_events_url": "https://api.github.com/users/DrahtBot/received_events",
      "type": "User",
      "site_admin": false
    },
    "created_at": "2024-05-22T03:56:42Z",
    "updated_at": "2024-05-23T10:36:39Z",
    "author_association": "CONTRIBUTOR",
    "body_html": "\n<p dir=\"auto\">The following sections might be updated with supplementary metadata relevant to reviewers and maintainers.</p>\n\n<h3 dir=\"auto\">Code Coverage</h3>\n<p dir=\"auto\">For detailed information about the code coverage, see the <a href=\"https://corecheck.dev/bitcoin/bitcoin/pulls/30149\" rel=\"nofollow\">test coverage report</a>.</p>\n\n<h3 dir=\"auto\">Reviews</h3>\n<p dir=\"auto\">See <a href=\"https://github.com/bitcoin/bitcoin/blob/master/CONTRIBUTING.md#code-review\">the guideline</a> for information on the review process.</p>\n<table role=\"table\">\n<thead>\n<tr>\n<th>Type</th>\n<th>Reviewers</th>\n</tr>\n</thead>\n<tbody>\n<tr>\n<td>ACK</td>\n<td><a href=\"https://github.com/bitcoin/bitcoin/pull/30149#pullrequestreview-2073430081\" data-hovercard-type=\"pull_request\" data-hovercard-url=\"/bitcoin/bitcoin/pull/30149/hovercard\">fanquake</a>, <a href=\"https://github.com/bitcoin/bitcoin/pull/30149#pullrequestreview-2073561075\" data-hovercard-type=\"pull_request\" data-hovercard-url=\"/bitcoin/bitcoin/pull/30149/hovercard\">glozow</a></td>\n</tr>\n</tbody>\n</table>\n<p dir=\"auto\">If your review is incorrectly listed, please react with 👎 to this comment and the bot will ignore it on the next update.</p>",
    "body_text": "The following sections might be updated with supplementary metadata relevant to reviewers and maintainers.\n\nCode Coverage\nFor detailed information about the code coverage, see the test coverage report.\n\nReviews\nSee the guideline for information on the review process.\n\n\n\nType\nReviewers\n\n\n\n\nACK\nfanquake, glozow\n\n\n\nIf your review is incorrectly listed, please react with 👎 to this comment and the bot will ignore it on the next update.",
    "body": "<!--e57a25ab6845829454e8d69fc972939a-->\n\nThe following sections might be updated with supplementary metadata relevant to reviewers and maintainers.\n\n<!--006a51241073e994b41acfe9ec718e94-->\n### Code Coverage\nFor detailed information about the code coverage, see the [test coverage report](https://corecheck.dev/bitcoin/bitcoin/pulls/30149).\n<!--021abf342d371248e50ceaed478a90ca-->\n### Reviews\nSee [the guideline](https://github.com/bitcoin/bitcoin/blob/master/CONTRIBUTING.md#code-review) for information on the review process.\n| Type | Reviewers |\n| ---- | --------- |\n| ACK | [fanquake](https://github.com/bitcoin/bitcoin/pull/30149#pullrequestreview-2073430081), [glozow](https://github.com/bitcoin/bitcoin/pull/30149#pullrequestreview-2073561075) |\n\nIf your review is incorrectly listed, please react with 👎 to this comment and the bot will ignore it on the next update.\n",
    "reactions": {
      "url": "https://api.github.com/repos/bitcoin/bitcoin/issues/comments/2123820011/reactions",
      "total_count": 0,
      "+1": 0,
      "-1": 0,
      "laugh": 0,
      "hooray": 0,
      "confused": 0,
      "heart": 0,
      "rocket": 0,
      "eyes": 0
    },
    "performed_via_github_app": null
  },
  {
    "url": "https://api.github.com/repos/bitcoin/bitcoin/issues/comments/2124680462",
    "html_url": "https://github.com/bitcoin/bitcoin/pull/30149#issuecomment-2124680462",
    "issue_url": "https://api.github.com/repos/bitcoin/bitcoin/issues/30149",
    "id": 2124680462,
    "node_id": "IC_kwDOABII585-pA0O",
    "user": {
      "login": "fanquake",
      "id": 863730,
      "node_id": "MDQ6VXNlcjg2MzczMA==",
      "avatar_url": "https://avatars.githubusercontent.com/u/863730?v=4",
      "gravatar_id": "",
      "url": "https://api.github.com/users/fanquake",
      "html_url": "https://github.com/fanquake",
      "followers_url": "https://api.github.com/users/fanquake/followers",
      "following_url": "https://api.github.com/users/fanquake/following{/other_user}",
      "gists_url": "https://api.github.com/users/fanquake/gists{/gist_id}",
      "starred_url": "https://api.github.com/users/fanquake/starred{/owner}{/repo}",
      "subscriptions_url": "https://api.github.com/users/fanquake/subscriptions",
      "organizations_url": "https://api.github.com/users/fanquake/orgs",
      "repos_url": "https://api.github.com/users/fanquake/repos",
      "events_url": "https://api.github.com/users/fanquake/events{/privacy}",
      "received_events_url": "https://api.github.com/users/fanquake/received_events",
      "type": "User",
      "site_admin": false
    },
    "created_at": "2024-05-22T12:33:11Z",
    "updated_at": "2024-05-22T12:33:11Z",
    "author_association": "MEMBER",
    "body_html": "<p dir=\"auto\">Diff of our cert:</p>\n<div class=\"highlight highlight-source-diff notranslate position-relative overflow-auto\" dir=\"auto\" data-snippet-clipboard-copy-content=\"--- a/a.txt\n+++ b/a.txt\n@@ -2,12 +2,12 @@ Certificate:\n     Data:\n         Version: 3 (0x2)\n         Serial Number:\n-            0a:65:6f:75:06:a5:ef:65:36:43:16:d4:4d:3d:d2:45\n+            07:34:78:e8:9d:b2:ab:78:3e:f8:d6:d0:4b:f0:41:54\n         Signature Algorithm: sha256WithRSAEncryption\n         Issuer: C=US, O=DigiCert, Inc., CN=DigiCert Trusted G4 Code Signing RSA4096 SHA384 2021 CA1\n         Validity\n-            Not Before: May 24 00:00:00 2022 GMT\n-            Not After : May 29 23:59:59 2024 GMT\n+            Not Before: May 22 00:00:00 2024 GMT\n+            Not After : May 31 23:59:59 2027 GMT\n         Subject: C=US, ST=Delaware, L=Lewes, O=Bitcoin Core Code Signing LLC, CN=Bitcoin Core Code Signing LLC\n         Subject Public Key Info:\n             Public Key Algorithm: rsaEncryption\n@@ -54,6 +54,9 @@ Certificate:\n                 68:37:E0:EB:B6:3B:F8:5F:11:86:FB:FE:61:7B:08:88:65:F4:4E:42\n             X509v3 Subject Key Identifier: \n                 BC:2A:54:E7:C3:C8:BA:87:EF:D2:41:C9:DD:3C:B4:60:32:84:CB:77\n+            X509v3 Certificate Policies: \n+                Policy: 2.23.140.1.4.1\n+                  CPS: http://www.digicert.com/CPS\n             X509v3 Key Usage: critical\n                 Digital Signature\n             X509v3 Extended Key Usage: \n@@ -63,12 +66,9 @@ Certificate:\n                   URI:http://crl3.digicert.com/DigiCertTrustedG4CodeSigningRSA4096SHA3842021CA1.crl\n                 Full Name:\n                   URI:http://crl4.digicert.com/DigiCertTrustedG4CodeSigningRSA4096SHA3842021CA1.crl\n-            X509v3 Certificate Policies: \n-                Policy: 2.23.140.1.4.1\n-                  CPS: http://www.digicert.com/CPS\n             Authority Information Access: \n                 OCSP - URI:http://ocsp.digicert.com\n                 CA Issuers - URI:http://cacerts.digicert.com/DigiCertTrustedG4CodeSigningRSA4096SHA3842021CA1.crt\n-            X509v3 Basic Constraints: critical\n+            X509v3 Basic Constraints: \n                 CA:FALSE\n     Signature Algorithm: sha256WithRSAEncryption\"><pre class=\"notranslate\"><span class=\"pl-md\">--- a/a.txt</span>\n<span class=\"pl-mi1\">+++ b/a.txt</span>\n<span class=\"pl-mdr\">@@ -2,12 +2,12 @@</span> Certificate:\n     Data:\n         Version: 3 (0x2)\n         Serial Number:\n<span class=\"pl-md\"><span class=\"pl-md\">-</span>            0a:65:6f:75:06:a5:ef:65:36:43:16:d4:4d:3d:d2:45</span>\n<span class=\"pl-mi1\"><span class=\"pl-mi1\">+</span>            07:34:78:e8:9d:b2:ab:78:3e:f8:d6:d0:4b:f0:41:54</span>\n         Signature Algorithm: sha256WithRSAEncryption\n         Issuer: C=US, O=DigiCert, Inc., CN=DigiCert Trusted G4 Code Signing RSA4096 SHA384 2021 CA1\n         Validity\n<span class=\"pl-md\"><span class=\"pl-md\">-</span>            Not Before: May 24 00:00:00 2022 GMT</span>\n<span class=\"pl-md\"><span class=\"pl-md\">-</span>            Not After : May 29 23:59:59 2024 GMT</span>\n<span class=\"pl-mi1\"><span class=\"pl-mi1\">+</span>            Not Before: May 22 00:00:00 2024 GMT</span>\n<span class=\"pl-mi1\"><span class=\"pl-mi1\">+</span>            Not After : May 31 23:59:59 2027 GMT</span>\n         Subject: C=US, ST=Delaware, L=Lewes, O=Bitcoin Core Code Signing LLC, CN=Bitcoin Core Code Signing LLC\n         Subject Public Key Info:\n             Public Key Algorithm: rsaEncryption\n<span class=\"pl-mdr\">@@ -54,6 +54,9 @@</span> Certificate:\n                 68:37:E0:EB:B6:3B:F8:5F:11:86:FB:FE:61:7B:08:88:65:F4:4E:42\n             X509v3 Subject Key Identifier: \n                 BC:2A:54:E7:C3:C8:BA:87:EF:D2:41:C9:DD:3C:B4:60:32:84:CB:77\n<span class=\"pl-mi1\"><span class=\"pl-mi1\">+</span>            X509v3 Certificate Policies: </span>\n<span class=\"pl-mi1\"><span class=\"pl-mi1\">+</span>                Policy: 2.23.140.1.4.1</span>\n<span class=\"pl-mi1\"><span class=\"pl-mi1\">+</span>                  CPS: http://www.digicert.com/CPS</span>\n             X509v3 Key Usage: critical\n                 Digital Signature\n             X509v3 Extended Key Usage: \n<span class=\"pl-mdr\">@@ -63,12 +66,9 @@</span> Certificate:\n                   URI:http://crl3.digicert.com/DigiCertTrustedG4CodeSigningRSA4096SHA3842021CA1.crl\n                 Full Name:\n                   URI:http://crl4.digicert.com/DigiCertTrustedG4CodeSigningRSA4096SHA3842021CA1.crl\n<span class=\"pl-md\"><span class=\"pl-md\">-</span>            X509v3 Certificate Policies: </span>\n<span class=\"pl-md\"><span class=\"pl-md\">-</span>                Policy: 2.23.140.1.4.1</span>\n<span class=\"pl-md\"><span class=\"pl-md\">-</span>                  CPS: http://www.digicert.com/CPS</span>\n             Authority Information Access: \n                 OCSP - URI:http://ocsp.digicert.com\n                 CA Issuers - URI:http://cacerts.digicert.com/DigiCertTrustedG4CodeSigningRSA4096SHA3842021CA1.crt\n<span class=\"pl-md\"><span class=\"pl-md\">-</span>            X509v3 Basic Constraints: critical</span>\n<span class=\"pl-mi1\"><span class=\"pl-mi1\">+</span>            X509v3 Basic Constraints: </span>\n                 CA:FALSE\n     Signature Algorithm: sha256WithRSAEncryption</pre></div>",
    "body_text": "Diff of our cert:\n--- a/a.txt\n+++ b/a.txt\n@@ -2,12 +2,12 @@ Certificate:\n     Data:\n         Version: 3 (0x2)\n         Serial Number:\n-            0a:65:6f:75:06:a5:ef:65:36:43:16:d4:4d:3d:d2:45\n+            07:34:78:e8:9d:b2:ab:78:3e:f8:d6:d0:4b:f0:41:54\n         Signature Algorithm: sha256WithRSAEncryption\n         Issuer: C=US, O=DigiCert, Inc., CN=DigiCert Trusted G4 Code Signing RSA4096 SHA384 2021 CA1\n         Validity\n-            Not Before: May 24 00:00:00 2022 GMT\n-            Not After : May 29 23:59:59 2024 GMT\n+            Not Before: May 22 00:00:00 2024 GMT\n+            Not After : May 31 23:59:59 2027 GMT\n         Subject: C=US, ST=Delaware, L=Lewes, O=Bitcoin Core Code Signing LLC, CN=Bitcoin Core Code Signing LLC\n         Subject Public Key Info:\n             Public Key Algorithm: rsaEncryption\n@@ -54,6 +54,9 @@ Certificate:\n                 68:37:E0:EB:B6:3B:F8:5F:11:86:FB:FE:61:7B:08:88:65:F4:4E:42\n             X509v3 Subject Key Identifier: \n                 BC:2A:54:E7:C3:C8:BA:87:EF:D2:41:C9:DD:3C:B4:60:32:84:CB:77\n+            X509v3 Certificate Policies: \n+                Policy: 2.23.140.1.4.1\n+                  CPS: http://www.digicert.com/CPS\n             X509v3 Key Usage: critical\n                 Digital Signature\n             X509v3 Extended Key Usage: \n@@ -63,12 +66,9 @@ Certificate:\n                   URI:http://crl3.digicert.com/DigiCertTrustedG4CodeSigningRSA4096SHA3842021CA1.crl\n                 Full Name:\n                   URI:http://crl4.digicert.com/DigiCertTrustedG4CodeSigningRSA4096SHA3842021CA1.crl\n-            X509v3 Certificate Policies: \n-                Policy: 2.23.140.1.4.1\n-                  CPS: http://www.digicert.com/CPS\n             Authority Information Access: \n                 OCSP - URI:http://ocsp.digicert.com\n                 CA Issuers - URI:http://cacerts.digicert.com/DigiCertTrustedG4CodeSigningRSA4096SHA3842021CA1.crt\n-            X509v3 Basic Constraints: critical\n+            X509v3 Basic Constraints: \n                 CA:FALSE\n     Signature Algorithm: sha256WithRSAEncryption",
    "body": "Diff of our cert:\r\n```diff\r\n--- a/a.txt\r\n+++ b/a.txt\r\n@@ -2,12 +2,12 @@ Certificate:\r\n     Data:\r\n         Version: 3 (0x2)\r\n         Serial Number:\r\n-            0a:65:6f:75:06:a5:ef:65:36:43:16:d4:4d:3d:d2:45\r\n+            07:34:78:e8:9d:b2:ab:78:3e:f8:d6:d0:4b:f0:41:54\r\n         Signature Algorithm: sha256WithRSAEncryption\r\n         Issuer: C=US, O=DigiCert, Inc., CN=DigiCert Trusted G4 Code Signing RSA4096 SHA384 2021 CA1\r\n         Validity\r\n-            Not Before: May 24 00:00:00 2022 GMT\r\n-            Not After : May 29 23:59:59 2024 GMT\r\n+            Not Before: May 22 00:00:00 2024 GMT\r\n+            Not After : May 31 23:59:59 2027 GMT\r\n         Subject: C=US, ST=Delaware, L=Lewes, O=Bitcoin Core Code Signing LLC, CN=Bitcoin Core Code Signing LLC\r\n         Subject Public Key Info:\r\n             Public Key Algorithm: rsaEncryption\r\n@@ -54,6 +54,9 @@ Certificate:\r\n                 68:37:E0:EB:B6:3B:F8:5F:11:86:FB:FE:61:7B:08:88:65:F4:4E:42\r\n             X509v3 Subject Key Identifier: \r\n                 BC:2A:54:E7:C3:C8:BA:87:EF:D2:41:C9:DD:3C:B4:60:32:84:CB:77\r\n+            X509v3 Certificate Policies: \r\n+                Policy: 2.23.140.1.4.1\r\n+                  CPS: http://www.digicert.com/CPS\r\n             X509v3 Key Usage: critical\r\n                 Digital Signature\r\n             X509v3 Extended Key Usage: \r\n@@ -63,12 +66,9 @@ Certificate:\r\n                   URI:http://crl3.digicert.com/DigiCertTrustedG4CodeSigningRSA4096SHA3842021CA1.crl\r\n                 Full Name:\r\n                   URI:http://crl4.digicert.com/DigiCertTrustedG4CodeSigningRSA4096SHA3842021CA1.crl\r\n-            X509v3 Certificate Policies: \r\n-                Policy: 2.23.140.1.4.1\r\n-                  CPS: http://www.digicert.com/CPS\r\n             Authority Information Access: \r\n                 OCSP - URI:http://ocsp.digicert.com\r\n                 CA Issuers - URI:http://cacerts.digicert.com/DigiCertTrustedG4CodeSigningRSA4096SHA3842021CA1.crt\r\n-            X509v3 Basic Constraints: critical\r\n+            X509v3 Basic Constraints: \r\n                 CA:FALSE\r\n     Signature Algorithm: sha256WithRSAEncryption\r\n```",
    "reactions": {
      "url": "https://api.github.com/repos/bitcoin/bitcoin/issues/comments/2124680462/reactions",
      "total_count": 0,
      "+1": 0,
      "-1": 0,
      "laugh": 0,
      "hooray": 0,
      "confused": 0,
      "heart": 0,
      "rocket": 0,
      "eyes": 0
    },
    "performed_via_github_app": null
  },
  {
    "url": "https://api.github.com/repos/bitcoin/bitcoin/issues/comments/2126990044",
    "html_url": "https://github.com/bitcoin/bitcoin/pull/30149#issuecomment-2126990044",
    "issue_url": "https://api.github.com/repos/bitcoin/bitcoin/issues/30149",
    "id": 2126990044,
    "node_id": "IC_kwDOABII585-x0rc",
    "user": {
      "login": "fanquake",
      "id": 863730,
      "node_id": "MDQ6VXNlcjg2MzczMA==",
      "avatar_url": "https://avatars.githubusercontent.com/u/863730?v=4",
      "gravatar_id": "",
      "url": "https://api.github.com/users/fanquake",
      "html_url": "https://github.com/fanquake",
      "followers_url": "https://api.github.com/users/fanquake/followers",
      "following_url": "https://api.github.com/users/fanquake/following{/other_user}",
      "gists_url": "https://api.github.com/users/fanquake/gists{/gist_id}",
      "starred_url": "https://api.github.com/users/fanquake/starred{/owner}{/repo}",
      "subscriptions_url": "https://api.github.com/users/fanquake/subscriptions",
      "organizations_url": "https://api.github.com/users/fanquake/orgs",
      "repos_url": "https://api.github.com/users/fanquake/repos",
      "events_url": "https://api.github.com/users/fanquake/events{/privacy}",
      "received_events_url": "https://api.github.com/users/fanquake/received_events",
      "type": "User",
      "site_admin": false
    },
    "created_at": "2024-05-23T12:30:40Z",
    "updated_at": "2024-05-23T12:30:40Z",
    "author_association": "MEMBER",
    "body_html": "<p dir=\"auto\">Backported to 27.x in <a class=\"issue-link js-issue-link\" data-error-text=\"Failed to load title\" data-id=\"2291780971\" data-permission-text=\"Title is private\" data-url=\"https://github.com/bitcoin/bitcoin/issues/30092\" data-hovercard-type=\"pull_request\" data-hovercard-url=\"/bitcoin/bitcoin/pull/30092/hovercard\" href=\"https://github.com/bitcoin/bitcoin/pull/30092\">#30092</a>.</p>",
    "body_text": "Backported to 27.x in #30092.",
    "body": "Backported to 27.x in #30092.",
    "reactions": {
      "url": "https://api.github.com/repos/bitcoin/bitcoin/issues/comments/2126990044/reactions",
      "total_count": 0,
      "+1": 0,
      "-1": 0,
      "laugh": 0,
      "hooray": 0,
      "confused": 0,
      "heart": 0,
      "rocket": 0,
      "eyes": 0
    },
    "performed_via_github_app": null
  },
  {
    "url": "https://api.github.com/repos/bitcoin/bitcoin/issues/comments/2127243747",
    "html_url": "https://github.com/bitcoin/bitcoin/pull/30149#issuecomment-2127243747",
    "issue_url": "https://api.github.com/repos/bitcoin/bitcoin/issues/30149",
    "id": 2127243747,
    "node_id": "IC_kwDOABII585-yynj",
    "user": {
      "login": "glozow",
      "id": 25183001,
      "node_id": "MDQ6VXNlcjI1MTgzMDAx",
      "avatar_url": "https://avatars.githubusercontent.com/u/25183001?v=4",
      "gravatar_id": "",
      "url": "https://api.github.com/users/glozow",
      "html_url": "https://github.com/glozow",
      "followers_url": "https://api.github.com/users/glozow/followers",
      "following_url": "https://api.github.com/users/glozow/following{/other_user}",
      "gists_url": "https://api.github.com/users/glozow/gists{/gist_id}",
      "starred_url": "https://api.github.com/users/glozow/starred{/owner}{/repo}",
      "subscriptions_url": "https://api.github.com/users/glozow/subscriptions",
      "organizations_url": "https://api.github.com/users/glozow/orgs",
      "repos_url": "https://api.github.com/users/glozow/repos",
      "events_url": "https://api.github.com/users/glozow/events{/privacy}",
      "received_events_url": "https://api.github.com/users/glozow/received_events",
      "type": "User",
      "site_admin": false
    },
    "created_at": "2024-05-23T14:17:57Z",
    "updated_at": "2024-05-23T14:17:57Z",
    "author_association": "MEMBER",
    "body_html": "<p dir=\"auto\">Backport for 26.x in <a class=\"issue-link js-issue-link\" data-error-text=\"Failed to load title\" data-id=\"2248182147\" data-permission-text=\"Title is private\" data-url=\"https://github.com/bitcoin/bitcoin/issues/29899\" data-hovercard-type=\"pull_request\" data-hovercard-url=\"/bitcoin/bitcoin/pull/29899/hovercard\" href=\"https://github.com/bitcoin/bitcoin/pull/29899\">#29899</a></p>",
    "body_text": "Backport for 26.x in #29899",
    "body": "Backport for 26.x in #29899",
    "reactions": {
      "url": "https://api.github.com/repos/bitcoin/bitcoin/issues/comments/2127243747/reactions",
      "total_count": 0,
      "+1": 0,
      "-1": 0,
      "laugh": 0,
      "hooray": 0,
      "confused": 0,
      "heart": 0,
      "rocket": 0,
      "eyes": 0
    },
    "performed_via_github_app": null
  },
  {
    "url": "https://api.github.com/repos/bitcoin/bitcoin/issues/comments/2135505873",
    "html_url": "https://github.com/bitcoin/bitcoin/pull/30149#issuecomment-2135505873",
    "issue_url": "https://api.github.com/repos/bitcoin/bitcoin/issues/30149",
    "id": 2135505873,
    "node_id": "IC_kwDOABII585_STvR",
    "user": {
      "login": "fanquake",
      "id": 863730,
      "node_id": "MDQ6VXNlcjg2MzczMA==",
      "avatar_url": "https://avatars.githubusercontent.com/u/863730?v=4",
      "gravatar_id": "",
      "url": "https://api.github.com/users/fanquake",
      "html_url": "https://github.com/fanquake",
      "followers_url": "https://api.github.com/users/fanquake/followers",
      "following_url": "https://api.github.com/users/fanquake/following{/other_user}",
      "gists_url": "https://api.github.com/users/fanquake/gists{/gist_id}",
      "starred_url": "https://api.github.com/users/fanquake/starred{/owner}{/repo}",
      "subscriptions_url": "https://api.github.com/users/fanquake/subscriptions",
      "organizations_url": "https://api.github.com/users/fanquake/orgs",
      "repos_url": "https://api.github.com/users/fanquake/repos",
      "events_url": "https://api.github.com/users/fanquake/events{/privacy}",
      "received_events_url": "https://api.github.com/users/fanquake/received_events",
      "type": "User",
      "site_admin": false
    },
    "created_at": "2024-05-28T15:22:06Z",
    "updated_at": "2024-05-28T15:22:06Z",
    "author_association": "MEMBER",
    "body_html": "<p dir=\"auto\">Backported to 25.x in <a class=\"issue-link js-issue-link\" data-error-text=\"Failed to load title\" data-id=\"2321357699\" data-permission-text=\"Title is private\" data-url=\"https://github.com/bitcoin/bitcoin/issues/30184\" data-hovercard-type=\"pull_request\" data-hovercard-url=\"/bitcoin/bitcoin/pull/30184/hovercard\" href=\"https://github.com/bitcoin/bitcoin/pull/30184\">#30184</a>.</p>",
    "body_text": "Backported to 25.x in #30184.",
    "body": "Backported to 25.x in #30184.",
    "reactions": {
      "url": "https://api.github.com/repos/bitcoin/bitcoin/issues/comments/2135505873/reactions",
      "total_count": 0,
      "+1": 0,
      "-1": 0,
      "laugh": 0,
      "hooray": 0,
      "confused": 0,
      "heart": 0,
      "rocket": 0,
      "eyes": 0
    },
    "performed_via_github_app": null
  },
  {
    "url": "https://api.github.com/repos/bitcoin/bitcoin/issues/comments/2141814209",
    "html_url": "https://github.com/bitcoin/bitcoin/pull/30149#issuecomment-2141814209",
    "issue_url": "https://api.github.com/repos/bitcoin/bitcoin/issues/30149",
    "id": 2141814209,
    "node_id": "IC_kwDOABII585_qX3B",
    "user": {
      "login": "hebasto",
      "id": 32963518,
      "node_id": "MDQ6VXNlcjMyOTYzNTE4",
      "avatar_url": "https://avatars.githubusercontent.com/u/32963518?v=4",
      "gravatar_id": "",
      "url": "https://api.github.com/users/hebasto",
      "html_url": "https://github.com/hebasto",
      "followers_url": "https://api.github.com/users/hebasto/followers",
      "following_url": "https://api.github.com/users/hebasto/following{/other_user}",
      "gists_url": "https://api.github.com/users/hebasto/gists{/gist_id}",
      "starred_url": "https://api.github.com/users/hebasto/starred{/owner}{/repo}",
      "subscriptions_url": "https://api.github.com/users/hebasto/subscriptions",
      "organizations_url": "https://api.github.com/users/hebasto/orgs",
      "repos_url": "https://api.github.com/users/hebasto/repos",
      "events_url": "https://api.github.com/users/hebasto/events{/privacy}",
      "received_events_url": "https://api.github.com/users/hebasto/received_events",
      "type": "User",
      "site_admin": false
    },
    "created_at": "2024-05-31T11:20:43Z",
    "updated_at": "2024-05-31T11:20:43Z",
    "author_association": "MEMBER",
    "body_html": "<blockquote>\n<p dir=\"auto\">Backported to 27.x in <a class=\"issue-link js-issue-link\" data-error-text=\"Failed to load title\" data-id=\"2291780971\" data-permission-text=\"Title is private\" data-url=\"https://github.com/bitcoin/bitcoin/issues/30092\" data-hovercard-type=\"pull_request\" data-hovercard-url=\"/bitcoin/bitcoin/pull/30092/hovercard\" href=\"https://github.com/bitcoin/bitcoin/pull/30092\">#30092</a>.</p>\n</blockquote>\n<p dir=\"auto\">Windows 11 shows the correct data in the \"Digital Signatures Details\" for the <a href=\"https://bitcoincore.org/bin/bitcoin-core-27.1/test.rc1/bitcoin-27.1rc1-win64-setup.exe\" rel=\"nofollow\"><code class=\"notranslate\">bitcoin-27.1rc1-win64-setup.exe</code></a>:</p>\n<p dir=\"auto\"><a target=\"_blank\" rel=\"noopener noreferrer\" href=\"https://private-user-images.githubusercontent.com/32963518/335557457-1b1f0025-b7e0-406f-aeeb-8cdfc0dfe93a.png?jwt=eyJhbGciOiJIUzI1NiIsInR5cCI6IkpXVCJ9.eyJpc3MiOiJnaXRodWIuY29tIiwiYXVkIjoicmF3LmdpdGh1YnVzZXJjb250ZW50LmNvbSIsImtleSI6ImtleTUiLCJleHAiOjE3MTcxNjM0NzAsIm5iZiI6MTcxNzE2MzE3MCwicGF0aCI6Ii8zMjk2MzUxOC8zMzU1NTc0NTctMWIxZjAwMjUtYjdlMC00MDZmLWFlZWItOGNkZmMwZGZlOTNhLnBuZz9YLUFtei1BbGdvcml0aG09QVdTNC1ITUFDLVNIQTI1NiZYLUFtei1DcmVkZW50aWFsPUFLSUFWQ09EWUxTQTUzUFFLNFpBJTJGMjAyNDA1MzElMkZ1cy1lYXN0LTElMkZzMyUyRmF3czRfcmVxdWVzdCZYLUFtei1EYXRlPTIwMjQwNTMxVDEzNDYxMFomWC1BbXotRXhwaXJlcz0zMDAmWC1BbXotU2lnbmF0dXJlPTZkNzMwYmI0MDAxNGQ4Y2U1OGZmMWRlODZhNjkzMzQ4ZGNmYjY3ZWU1NmIzYzE3NWU5YTI1OThkZGI3YWQxNjMmWC1BbXotU2lnbmVkSGVhZGVycz1ob3N0JmFjdG9yX2lkPTAma2V5X2lkPTAmcmVwb19pZD0wIn0.Ofh8T4BKEWPVz-HGTo2rlHIcWHDWuthnzvn1lT4Zn2A\"><img src=\"https://private-user-images.githubusercontent.com/32963518/335557457-1b1f0025-b7e0-406f-aeeb-8cdfc0dfe93a.png?jwt=eyJhbGciOiJIUzI1NiIsInR5cCI6IkpXVCJ9.eyJpc3MiOiJnaXRodWIuY29tIiwiYXVkIjoicmF3LmdpdGh1YnVzZXJjb250ZW50LmNvbSIsImtleSI6ImtleTUiLCJleHAiOjE3MTcxNjM0NzAsIm5iZiI6MTcxNzE2MzE3MCwicGF0aCI6Ii8zMjk2MzUxOC8zMzU1NTc0NTctMWIxZjAwMjUtYjdlMC00MDZmLWFlZWItOGNkZmMwZGZlOTNhLnBuZz9YLUFtei1BbGdvcml0aG09QVdTNC1ITUFDLVNIQTI1NiZYLUFtei1DcmVkZW50aWFsPUFLSUFWQ09EWUxTQTUzUFFLNFpBJTJGMjAyNDA1MzElMkZ1cy1lYXN0LTElMkZzMyUyRmF3czRfcmVxdWVzdCZYLUFtei1EYXRlPTIwMjQwNTMxVDEzNDYxMFomWC1BbXotRXhwaXJlcz0zMDAmWC1BbXotU2lnbmF0dXJlPTZkNzMwYmI0MDAxNGQ4Y2U1OGZmMWRlODZhNjkzMzQ4ZGNmYjY3ZWU1NmIzYzE3NWU5YTI1OThkZGI3YWQxNjMmWC1BbXotU2lnbmVkSGVhZGVycz1ob3N0JmFjdG9yX2lkPTAma2V5X2lkPTAmcmVwb19pZD0wIn0.Ofh8T4BKEWPVz-HGTo2rlHIcWHDWuthnzvn1lT4Zn2A\" alt=\"image_2024-05-31_12-18-32\" style=\"max-width: 100%;\"></a></p>",
    "body_text": "Backported to 27.x in #30092.\n\nWindows 11 shows the correct data in the \"Digital Signatures Details\" for the bitcoin-27.1rc1-win64-setup.exe:",
    "body": "> Backported to 27.x in #30092.\r\n\r\nWindows 11 shows the correct data in the \"Digital Signatures Details\" for the [`bitcoin-27.1rc1-win64-setup.exe`](https://bitcoincore.org/bin/bitcoin-core-27.1/test.rc1/bitcoin-27.1rc1-win64-setup.exe):\r\n\r\n![image_2024-05-31_12-18-32](https://github.com/bitcoin/bitcoin/assets/32963518/1b1f0025-b7e0-406f-aeeb-8cdfc0dfe93a)\r\n",
    "reactions": {
      "url": "https://api.github.com/repos/bitcoin/bitcoin/issues/comments/2141814209/reactions",
      "total_count": 0,
      "+1": 0,
      "-1": 0,
      "laugh": 0,
      "hooray": 0,
      "confused": 0,
      "heart": 0,
      "rocket": 0,
      "eyes": 0
    },
    "performed_via_github_app": null
  }
]
