{
  "url": "https://api.github.com/repos/bitcoin/bitcoin/issues/1952",
  "repository_url": "https://api.github.com/repos/bitcoin/bitcoin",
  "labels_url": "https://api.github.com/repos/bitcoin/bitcoin/issues/1952/labels{/name}",
  "comments_url": "https://api.github.com/repos/bitcoin/bitcoin/issues/1952/comments",
  "events_url": "https://api.github.com/repos/bitcoin/bitcoin/issues/1952/events",
  "html_url": "https://github.com/bitcoin/bitcoin/pull/1952",
  "id": 7810188,
  "node_id": "MDExOlB1bGxSZXF1ZXN0Mjc0ODMzMw==",
  "number": 1952,
  "title": "Check for null pointers in Shutdown (issue #1950)",
  "user": {
    "login": "tucenaber",
    "id": 853786,
    "node_id": "MDQ6VXNlcjg1Mzc4Ng==",
    "avatar_url": "https://avatars.githubusercontent.com/u/853786?v=4",
    "gravatar_id": "",
    "url": "https://api.github.com/users/tucenaber",
    "html_url": "https://github.com/tucenaber",
    "followers_url": "https://api.github.com/users/tucenaber/followers",
    "following_url": "https://api.github.com/users/tucenaber/following{/other_user}",
    "gists_url": "https://api.github.com/users/tucenaber/gists{/gist_id}",
    "starred_url": "https://api.github.com/users/tucenaber/starred{/owner}{/repo}",
    "subscriptions_url": "https://api.github.com/users/tucenaber/subscriptions",
    "organizations_url": "https://api.github.com/users/tucenaber/orgs",
    "repos_url": "https://api.github.com/users/tucenaber/repos",
    "events_url": "https://api.github.com/users/tucenaber/events{/privacy}",
    "received_events_url": "https://api.github.com/users/tucenaber/received_events",
    "type": "User",
    "site_admin": false
  },
  "labels": [

  ],
  "state": "closed",
  "locked": true,
  "assignee": null,
  "assignees": [

  ],
  "milestone": null,
  "comments": 7,
  "created_at": "2012-10-23T20:56:15Z",
  "updated_at": "2021-09-08T10:16:52Z",
  "closed_at": "2012-10-25T18:50:05Z",
  "author_association": "CONTRIBUTOR",
  "active_lock_reason": "resolved",
  "draft": false,
  "pull_request": {
    "url": "https://api.github.com/repos/bitcoin/bitcoin/pulls/1952",
    "html_url": "https://github.com/bitcoin/bitcoin/pull/1952",
    "diff_url": "https://github.com/bitcoin/bitcoin/pull/1952.diff",
    "patch_url": "https://github.com/bitcoin/bitcoin/pull/1952.patch",
    "merged_at": null
  },
  "body_html": "<p dir=\"auto\">Both <code class=\"notranslate\">pcointTip</code> and <code class=\"notranslate\">pblocktree</code> can be null, but since <code class=\"notranslate\">CBlockTree::Flush</code> is empty the call is optimized away and so the second check is not strictly necessary...</p>",
  "body_text": "Both pcointTip and pblocktree can be null, but since CBlockTree::Flush is empty the call is optimized away and so the second check is not strictly necessary...",
  "body": "Both `pcointTip` and `pblocktree` can be null, but since `CBlockTree::Flush` is empty the call is optimized away and so the second check is not strictly necessary...\n",
  "closed_by": {
    "login": "sipa",
    "id": 548488,
    "node_id": "MDQ6VXNlcjU0ODQ4OA==",
    "avatar_url": "https://avatars.githubusercontent.com/u/548488?v=4",
    "gravatar_id": "",
    "url": "https://api.github.com/users/sipa",
    "html_url": "https://github.com/sipa",
    "followers_url": "https://api.github.com/users/sipa/followers",
    "following_url": "https://api.github.com/users/sipa/following{/other_user}",
    "gists_url": "https://api.github.com/users/sipa/gists{/gist_id}",
    "starred_url": "https://api.github.com/users/sipa/starred{/owner}{/repo}",
    "subscriptions_url": "https://api.github.com/users/sipa/subscriptions",
    "organizations_url": "https://api.github.com/users/sipa/orgs",
    "repos_url": "https://api.github.com/users/sipa/repos",
    "events_url": "https://api.github.com/users/sipa/events{/privacy}",
    "received_events_url": "https://api.github.com/users/sipa/received_events",
    "type": "User",
    "site_admin": false
  },
  "reactions": {
    "url": "https://api.github.com/repos/bitcoin/bitcoin/issues/1952/reactions",
    "total_count": 0,
    "+1": 0,
    "-1": 0,
    "laugh": 0,
    "hooray": 0,
    "confused": 0,
    "heart": 0,
    "rocket": 0,
    "eyes": 0
  },
  "timeline_url": "https://api.github.com/repos/bitcoin/bitcoin/issues/1952/timeline",
  "performed_via_github_app": null,
  "state_reason": null
}
