{
  "url": "https://api.github.com/repos/bitcoin/bitcoin/issues/4808",
  "repository_url": "https://api.github.com/repos/bitcoin/bitcoin",
  "labels_url": "https://api.github.com/repos/bitcoin/bitcoin/issues/4808/labels{/name}",
  "comments_url": "https://api.github.com/repos/bitcoin/bitcoin/issues/4808/comments",
  "events_url": "https://api.github.com/repos/bitcoin/bitcoin/issues/4808/events",
  "html_url": "https://github.com/bitcoin/bitcoin/pull/4808",
  "id": 41658498,
  "node_id": "MDExOlB1bGxSZXF1ZXN0MjA1ODM1MzI=",
  "number": 4808,
  "title": "Serializer simplifications after #4737",
  "user": {
    "login": "sipa",
    "id": 548488,
    "node_id": "MDQ6VXNlcjU0ODQ4OA==",
    "avatar_url": "https://avatars.githubusercontent.com/u/548488?v=4",
    "gravatar_id": "",
    "url": "https://api.github.com/users/sipa",
    "html_url": "https://github.com/sipa",
    "followers_url": "https://api.github.com/users/sipa/followers",
    "following_url": "https://api.github.com/users/sipa/following{/other_user}",
    "gists_url": "https://api.github.com/users/sipa/gists{/gist_id}",
    "starred_url": "https://api.github.com/users/sipa/starred{/owner}{/repo}",
    "subscriptions_url": "https://api.github.com/users/sipa/subscriptions",
    "organizations_url": "https://api.github.com/users/sipa/orgs",
    "repos_url": "https://api.github.com/users/sipa/repos",
    "events_url": "https://api.github.com/users/sipa/events{/privacy}",
    "received_events_url": "https://api.github.com/users/sipa/received_events",
    "type": "User",
    "site_admin": false
  },
  "labels": [

  ],
  "state": "closed",
  "locked": true,
  "assignee": null,
  "assignees": [

  ],
  "milestone": null,
  "comments": 6,
  "created_at": "2014-09-01T19:37:43Z",
  "updated_at": "2021-09-08T10:40:15Z",
  "closed_at": "2014-09-03T19:02:00Z",
  "author_association": "MEMBER",
  "active_lock_reason": "resolved",
  "draft": false,
  "pull_request": {
    "url": "https://api.github.com/repos/bitcoin/bitcoin/pulls/4808",
    "html_url": "https://github.com/bitcoin/bitcoin/pull/4808",
    "diff_url": "https://github.com/bitcoin/bitcoin/pull/4808.diff",
    "patch_url": "https://github.com/bitcoin/bitcoin/pull/4808.patch",
    "merged_at": "2014-09-03T19:02:00Z"
  },
  "body_html": "<p dir=\"auto\">Some simplifications (unnecessary fRead, pthis and me variables) after <a class=\"issue-link js-issue-link\" data-error-text=\"Failed to load title\" data-id=\"40718133\" data-permission-text=\"Title is private\" data-url=\"https://github.com/bitcoin/bitcoin/issues/4737\" data-hovercard-type=\"pull_request\" data-hovercard-url=\"/bitcoin/bitcoin/pull/4737/hovercard\" href=\"https://github.com/bitcoin/bitcoin/pull/4737\">#4737</a>.</p>",
  "body_text": "Some simplifications (unnecessary fRead, pthis and me variables) after #4737.",
  "body": "Some simplifications (unnecessary fRead, pthis and me variables) after #4737.\n",
  "closed_by": {
    "login": "sipa",
    "id": 548488,
    "node_id": "MDQ6VXNlcjU0ODQ4OA==",
    "avatar_url": "https://avatars.githubusercontent.com/u/548488?v=4",
    "gravatar_id": "",
    "url": "https://api.github.com/users/sipa",
    "html_url": "https://github.com/sipa",
    "followers_url": "https://api.github.com/users/sipa/followers",
    "following_url": "https://api.github.com/users/sipa/following{/other_user}",
    "gists_url": "https://api.github.com/users/sipa/gists{/gist_id}",
    "starred_url": "https://api.github.com/users/sipa/starred{/owner}{/repo}",
    "subscriptions_url": "https://api.github.com/users/sipa/subscriptions",
    "organizations_url": "https://api.github.com/users/sipa/orgs",
    "repos_url": "https://api.github.com/users/sipa/repos",
    "events_url": "https://api.github.com/users/sipa/events{/privacy}",
    "received_events_url": "https://api.github.com/users/sipa/received_events",
    "type": "User",
    "site_admin": false
  },
  "reactions": {
    "url": "https://api.github.com/repos/bitcoin/bitcoin/issues/4808/reactions",
    "total_count": 0,
    "+1": 0,
    "-1": 0,
    "laugh": 0,
    "hooray": 0,
    "confused": 0,
    "heart": 0,
    "rocket": 0,
    "eyes": 0
  },
  "timeline_url": "https://api.github.com/repos/bitcoin/bitcoin/issues/4808/timeline",
  "performed_via_github_app": null,
  "state_reason": null
}
