[
  {
    "url": "https://api.github.com/repos/bitcoin/bitcoin/issues/comments/1213232947",
    "html_url": "https://github.com/bitcoin/bitcoin/pull/25829#issuecomment-1213232947",
    "issue_url": "https://api.github.com/repos/bitcoin/bitcoin/issues/25829",
    "id": 1213232947,
    "node_id": "IC_kwDOABII585IUHcz",
    "user": {
      "login": "jarolrod",
      "id": 23396902,
      "node_id": "MDQ6VXNlcjIzMzk2OTAy",
      "avatar_url": "https://avatars.githubusercontent.com/u/23396902?v=4",
      "gravatar_id": "",
      "url": "https://api.github.com/users/jarolrod",
      "html_url": "https://github.com/jarolrod",
      "followers_url": "https://api.github.com/users/jarolrod/followers",
      "following_url": "https://api.github.com/users/jarolrod/following{/other_user}",
      "gists_url": "https://api.github.com/users/jarolrod/gists{/gist_id}",
      "starred_url": "https://api.github.com/users/jarolrod/starred{/owner}{/repo}",
      "subscriptions_url": "https://api.github.com/users/jarolrod/subscriptions",
      "organizations_url": "https://api.github.com/users/jarolrod/orgs",
      "repos_url": "https://api.github.com/users/jarolrod/repos",
      "events_url": "https://api.github.com/users/jarolrod/events{/privacy}",
      "received_events_url": "https://api.github.com/users/jarolrod/received_events",
      "type": "User",
      "site_admin": false
    },
    "created_at": "2022-08-12T15:26:42Z",
    "updated_at": "2022-08-14T23:32:59Z",
    "author_association": "MEMBER",
    "body_html": "<p dir=\"auto\">GUIX hashes</p>\n<p dir=\"auto\">x86:</p>\n<div class=\"snippet-clipboard-content notranslate position-relative overflow-auto\" data-snippet-clipboard-copy-content=\"$ find guix-build-$(git rev-parse --short=12 HEAD)/output/ -type f -print0 | env LC_ALL=C sort -z | xargs -r0 sha256sum\n\n60480ca370d3b321590b13544ee866c91ee8acda9ec0b770c32ad4a7b481808b  guix-build-71d6765405af/output/aarch64-linux-gnu/SHA256SUMS.part\nc1d7ba6cb3e8969c8159c2db2d5153b35719d574818c272c8ff439ab87641eb1  guix-build-71d6765405af/output/aarch64-linux-gnu/bitcoin-71d6765405af-aarch64-linux-gnu-debug.tar.gz\n4182c14d8a928ee04dbe4a943b5cf796fbe5833efdf3726207871d7ade299b79  guix-build-71d6765405af/output/aarch64-linux-gnu/bitcoin-71d6765405af-aarch64-linux-gnu.tar.gz\n96e74f1a8139d82efb5e534640159b9e24c84caee244a53d17c647e796f3cb03  guix-build-71d6765405af/output/arm-linux-gnueabihf/SHA256SUMS.part\n65a1c84ec9ffbbf4cb19c0c5f458d3569fb0264066e40457eab5927817f9cb5d  guix-build-71d6765405af/output/arm-linux-gnueabihf/bitcoin-71d6765405af-arm-linux-gnueabihf-debug.tar.gz\n8c5cf767e64c5484ab84cf93953f13b5c57a1fe85b8177eb4b146d90be1cdfc3  guix-build-71d6765405af/output/arm-linux-gnueabihf/bitcoin-71d6765405af-arm-linux-gnueabihf.tar.gz\n9db3fbd50bf7e051fb3aaab3e8b91b3c079d7305d3c6c5080fd8621418728e18  guix-build-71d6765405af/output/arm64-apple-darwin/SHA256SUMS.part\n217102a2e72fed73f56892af7dfbe4517c5c361b2ea50e66bbf9f0a4510042e2  guix-build-71d6765405af/output/arm64-apple-darwin/bitcoin-71d6765405af-arm64-apple-darwin-unsigned.dmg\n9ff47044d3780d0d18961024073df40b725e64ace69200bbfcaff9eee5c0fdb7  guix-build-71d6765405af/output/arm64-apple-darwin/bitcoin-71d6765405af-arm64-apple-darwin-unsigned.tar.gz\na17526b26d523c4a2866f11457c088f09ab2948ad61873efabb123c8724b5688  guix-build-71d6765405af/output/arm64-apple-darwin/bitcoin-71d6765405af-arm64-apple-darwin.tar.gz\nad388467efddf908800c7ffa3ab583ebc75fcd59b50e35a15620b60caf5bc60c  guix-build-71d6765405af/output/dist-archive/bitcoin-71d6765405af.tar.gz\n14be9157621435d48103ea73f1df8e2b9cda1a3925eeab748edb607897a6a1db  guix-build-71d6765405af/output/powerpc64-linux-gnu/SHA256SUMS.part\ndedf03b456e5daaa1658b6f28f600612b82c6d63651e5db8d75901afa23218de  guix-build-71d6765405af/output/powerpc64-linux-gnu/bitcoin-71d6765405af-powerpc64-linux-gnu-debug.tar.gz\nc51997a0a1fef6c6a2523dff8eb2ce99e2ebf96de47b02b4ac9dceef905acb90  guix-build-71d6765405af/output/powerpc64-linux-gnu/bitcoin-71d6765405af-powerpc64-linux-gnu.tar.gz\n9789b464c7791009fe911437bfeea37ab845982bfa7e0f881322e0135bb8900e  guix-build-71d6765405af/output/powerpc64le-linux-gnu/SHA256SUMS.part\nc2039c2ea6cda15e681abfba23a111cba313f7254f776588f8aa5ceef611f379  guix-build-71d6765405af/output/powerpc64le-linux-gnu/bitcoin-71d6765405af-powerpc64le-linux-gnu-debug.tar.gz\n8efb09da2d72f4305620f98729fa1bc940ae9ec848d54d55ec856658544683b4  guix-build-71d6765405af/output/powerpc64le-linux-gnu/bitcoin-71d6765405af-powerpc64le-linux-gnu.tar.gz\n07a964418dcf79c39e8c71abddcfa27488ee4fbda6900185fda7b4b2977ff58e  guix-build-71d6765405af/output/riscv64-linux-gnu/SHA256SUMS.part\n290f7a321d1a1475462f89b506969f153c39f11af128f4369fb15157f59fb951  guix-build-71d6765405af/output/riscv64-linux-gnu/bitcoin-71d6765405af-riscv64-linux-gnu-debug.tar.gz\nac67bbe08e76a7704341c0cc7a030792f4fd4bf1773b396b7ebeb5d1a34bf87e  guix-build-71d6765405af/output/riscv64-linux-gnu/bitcoin-71d6765405af-riscv64-linux-gnu.tar.gz\n469ccc48acf56bb9fac9d0a3d8f949e88126dc48d4a88d2066fa5282d253bc6f  guix-build-71d6765405af/output/x86_64-apple-darwin/SHA256SUMS.part\n5e587a77e44c4c86f6f2066581f6f757fa56289888b88c414ae148ec67b42e41  guix-build-71d6765405af/output/x86_64-apple-darwin/bitcoin-71d6765405af-x86_64-apple-darwin-unsigned.dmg\ne61bc7e26e500496333cd3b3a42712a7fd72a590e5fe1d49787cfdb255231131  guix-build-71d6765405af/output/x86_64-apple-darwin/bitcoin-71d6765405af-x86_64-apple-darwin-unsigned.tar.gz\n8ccb31d80f0c2ad91241a89ebb2c62cc4881cfa944b882782aaaadc8bac3385b  guix-build-71d6765405af/output/x86_64-apple-darwin/bitcoin-71d6765405af-x86_64-apple-darwin.tar.gz\n03eceb245cfdd28da6986b098e3fa545d35852713f7605035ccb3052f28d4a7e  guix-build-71d6765405af/output/x86_64-linux-gnu/SHA256SUMS.part\ne2d9e64656d5fe4c5aeb7bd458a5913b1a76f6453f7acf101be0a6331fd90482  guix-build-71d6765405af/output/x86_64-linux-gnu/bitcoin-71d6765405af-x86_64-linux-gnu-debug.tar.gz\nded765b3854611b91d66eaa84b235ff2f83669bae3b02897a8f2749c2d7ae761  guix-build-71d6765405af/output/x86_64-linux-gnu/bitcoin-71d6765405af-x86_64-linux-gnu.tar.gz\n8d5ef626affbc1f275a21323f24fb3b7ee480e7dacef8695fe45687027dbfadf  guix-build-71d6765405af/output/x86_64-w64-mingw32/SHA256SUMS.part\n5739340074c2906c06193445a1d1058a8dadd80a245dfa54f7286346944a7a06  guix-build-71d6765405af/output/x86_64-w64-mingw32/bitcoin-71d6765405af-win64-debug.zip\n5dcb6ad8adb573c74455bb6ee6572a11e11858bc93ab259c1e08e048c7093076  guix-build-71d6765405af/output/x86_64-w64-mingw32/bitcoin-71d6765405af-win64-setup-unsigned.exe\nea368b8af5e0b034f91582971fa92823ee498a99c48bb74a3e2ca99478bb4ec2  guix-build-71d6765405af/output/x86_64-w64-mingw32/bitcoin-71d6765405af-win64-unsigned.tar.gz\nfbb8990baf2f1bd0c79e4534263527d58d2f3879d68f8bd47718a44d0fb76e9e  guix-build-71d6765405af/output/x86_64-w64-mingw32/bitcoin-71d6765405af-win64.zip\n\"><pre class=\"notranslate\"><code class=\"notranslate\">$ find guix-build-$(git rev-parse --short=12 HEAD)/output/ -type f -print0 | env LC_ALL=C sort -z | xargs -r0 sha256sum\n\n60480ca370d3b321590b13544ee866c91ee8acda9ec0b770c32ad4a7b481808b  guix-build-71d6765405af/output/aarch64-linux-gnu/SHA256SUMS.part\nc1d7ba6cb3e8969c8159c2db2d5153b35719d574818c272c8ff439ab87641eb1  guix-build-71d6765405af/output/aarch64-linux-gnu/bitcoin-71d6765405af-aarch64-linux-gnu-debug.tar.gz\n4182c14d8a928ee04dbe4a943b5cf796fbe5833efdf3726207871d7ade299b79  guix-build-71d6765405af/output/aarch64-linux-gnu/bitcoin-71d6765405af-aarch64-linux-gnu.tar.gz\n96e74f1a8139d82efb5e534640159b9e24c84caee244a53d17c647e796f3cb03  guix-build-71d6765405af/output/arm-linux-gnueabihf/SHA256SUMS.part\n65a1c84ec9ffbbf4cb19c0c5f458d3569fb0264066e40457eab5927817f9cb5d  guix-build-71d6765405af/output/arm-linux-gnueabihf/bitcoin-71d6765405af-arm-linux-gnueabihf-debug.tar.gz\n8c5cf767e64c5484ab84cf93953f13b5c57a1fe85b8177eb4b146d90be1cdfc3  guix-build-71d6765405af/output/arm-linux-gnueabihf/bitcoin-71d6765405af-arm-linux-gnueabihf.tar.gz\n9db3fbd50bf7e051fb3aaab3e8b91b3c079d7305d3c6c5080fd8621418728e18  guix-build-71d6765405af/output/arm64-apple-darwin/SHA256SUMS.part\n217102a2e72fed73f56892af7dfbe4517c5c361b2ea50e66bbf9f0a4510042e2  guix-build-71d6765405af/output/arm64-apple-darwin/bitcoin-71d6765405af-arm64-apple-darwin-unsigned.dmg\n9ff47044d3780d0d18961024073df40b725e64ace69200bbfcaff9eee5c0fdb7  guix-build-71d6765405af/output/arm64-apple-darwin/bitcoin-71d6765405af-arm64-apple-darwin-unsigned.tar.gz\na17526b26d523c4a2866f11457c088f09ab2948ad61873efabb123c8724b5688  guix-build-71d6765405af/output/arm64-apple-darwin/bitcoin-71d6765405af-arm64-apple-darwin.tar.gz\nad388467efddf908800c7ffa3ab583ebc75fcd59b50e35a15620b60caf5bc60c  guix-build-71d6765405af/output/dist-archive/bitcoin-71d6765405af.tar.gz\n14be9157621435d48103ea73f1df8e2b9cda1a3925eeab748edb607897a6a1db  guix-build-71d6765405af/output/powerpc64-linux-gnu/SHA256SUMS.part\ndedf03b456e5daaa1658b6f28f600612b82c6d63651e5db8d75901afa23218de  guix-build-71d6765405af/output/powerpc64-linux-gnu/bitcoin-71d6765405af-powerpc64-linux-gnu-debug.tar.gz\nc51997a0a1fef6c6a2523dff8eb2ce99e2ebf96de47b02b4ac9dceef905acb90  guix-build-71d6765405af/output/powerpc64-linux-gnu/bitcoin-71d6765405af-powerpc64-linux-gnu.tar.gz\n9789b464c7791009fe911437bfeea37ab845982bfa7e0f881322e0135bb8900e  guix-build-71d6765405af/output/powerpc64le-linux-gnu/SHA256SUMS.part\nc2039c2ea6cda15e681abfba23a111cba313f7254f776588f8aa5ceef611f379  guix-build-71d6765405af/output/powerpc64le-linux-gnu/bitcoin-71d6765405af-powerpc64le-linux-gnu-debug.tar.gz\n8efb09da2d72f4305620f98729fa1bc940ae9ec848d54d55ec856658544683b4  guix-build-71d6765405af/output/powerpc64le-linux-gnu/bitcoin-71d6765405af-powerpc64le-linux-gnu.tar.gz\n07a964418dcf79c39e8c71abddcfa27488ee4fbda6900185fda7b4b2977ff58e  guix-build-71d6765405af/output/riscv64-linux-gnu/SHA256SUMS.part\n290f7a321d1a1475462f89b506969f153c39f11af128f4369fb15157f59fb951  guix-build-71d6765405af/output/riscv64-linux-gnu/bitcoin-71d6765405af-riscv64-linux-gnu-debug.tar.gz\nac67bbe08e76a7704341c0cc7a030792f4fd4bf1773b396b7ebeb5d1a34bf87e  guix-build-71d6765405af/output/riscv64-linux-gnu/bitcoin-71d6765405af-riscv64-linux-gnu.tar.gz\n469ccc48acf56bb9fac9d0a3d8f949e88126dc48d4a88d2066fa5282d253bc6f  guix-build-71d6765405af/output/x86_64-apple-darwin/SHA256SUMS.part\n5e587a77e44c4c86f6f2066581f6f757fa56289888b88c414ae148ec67b42e41  guix-build-71d6765405af/output/x86_64-apple-darwin/bitcoin-71d6765405af-x86_64-apple-darwin-unsigned.dmg\ne61bc7e26e500496333cd3b3a42712a7fd72a590e5fe1d49787cfdb255231131  guix-build-71d6765405af/output/x86_64-apple-darwin/bitcoin-71d6765405af-x86_64-apple-darwin-unsigned.tar.gz\n8ccb31d80f0c2ad91241a89ebb2c62cc4881cfa944b882782aaaadc8bac3385b  guix-build-71d6765405af/output/x86_64-apple-darwin/bitcoin-71d6765405af-x86_64-apple-darwin.tar.gz\n03eceb245cfdd28da6986b098e3fa545d35852713f7605035ccb3052f28d4a7e  guix-build-71d6765405af/output/x86_64-linux-gnu/SHA256SUMS.part\ne2d9e64656d5fe4c5aeb7bd458a5913b1a76f6453f7acf101be0a6331fd90482  guix-build-71d6765405af/output/x86_64-linux-gnu/bitcoin-71d6765405af-x86_64-linux-gnu-debug.tar.gz\nded765b3854611b91d66eaa84b235ff2f83669bae3b02897a8f2749c2d7ae761  guix-build-71d6765405af/output/x86_64-linux-gnu/bitcoin-71d6765405af-x86_64-linux-gnu.tar.gz\n8d5ef626affbc1f275a21323f24fb3b7ee480e7dacef8695fe45687027dbfadf  guix-build-71d6765405af/output/x86_64-w64-mingw32/SHA256SUMS.part\n5739340074c2906c06193445a1d1058a8dadd80a245dfa54f7286346944a7a06  guix-build-71d6765405af/output/x86_64-w64-mingw32/bitcoin-71d6765405af-win64-debug.zip\n5dcb6ad8adb573c74455bb6ee6572a11e11858bc93ab259c1e08e048c7093076  guix-build-71d6765405af/output/x86_64-w64-mingw32/bitcoin-71d6765405af-win64-setup-unsigned.exe\nea368b8af5e0b034f91582971fa92823ee498a99c48bb74a3e2ca99478bb4ec2  guix-build-71d6765405af/output/x86_64-w64-mingw32/bitcoin-71d6765405af-win64-unsigned.tar.gz\nfbb8990baf2f1bd0c79e4534263527d58d2f3879d68f8bd47718a44d0fb76e9e  guix-build-71d6765405af/output/x86_64-w64-mingw32/bitcoin-71d6765405af-win64.zip\n\n</code></pre></div>\n<p dir=\"auto\">arm64:</p>\n<div class=\"snippet-clipboard-content notranslate position-relative overflow-auto\" data-snippet-clipboard-copy-content=\"$ env HOSTS='arm-linux-gnueabihf arm64-apple-darwin powerpc64-linux-gnu powerpc64le-linux-gnu riscv64-linux-gnu x86_64-apple-darwin x86_64-linux-gnu x86_64-w64-mingw32' ./contrib/guix/guix-build\n$ find guix-build-$(git rev-parse --short=12 HEAD)/output/ -type f -print0 | env LC_ALL=C sort -z | xargs -r0 sha256sum\n\n96e74f1a8139d82efb5e534640159b9e24c84caee244a53d17c647e796f3cb03  guix-build-71d6765405af/output/arm-linux-gnueabihf/SHA256SUMS.part\n65a1c84ec9ffbbf4cb19c0c5f458d3569fb0264066e40457eab5927817f9cb5d  guix-build-71d6765405af/output/arm-linux-gnueabihf/bitcoin-71d6765405af-arm-linux-gnueabihf-debug.tar.gz\n8c5cf767e64c5484ab84cf93953f13b5c57a1fe85b8177eb4b146d90be1cdfc3  guix-build-71d6765405af/output/arm-linux-gnueabihf/bitcoin-71d6765405af-arm-linux-gnueabihf.tar.gz\n3fb27a95e98ae63cd04eff2622baadb15680a83cbbe4aa53b0b7e25c2980fb07  guix-build-71d6765405af/output/arm64-apple-darwin/SHA256SUMS.part\n13958d0829d6fd91e38fdba5c410f485a60f94cf8797711a92b4015601ca79aa  guix-build-71d6765405af/output/arm64-apple-darwin/bitcoin-71d6765405af-arm64-apple-darwin-unsigned.dmg\ncdb8b8c3a21cc208ef20f7f65a64eb2c391bef6ff08aeffdbfef453c36dab9bc  guix-build-71d6765405af/output/arm64-apple-darwin/bitcoin-71d6765405af-arm64-apple-darwin-unsigned.tar.gz\n94b47f81ff93b571a36506403b08df395f6d34527cd795029be4addc492c4e85  guix-build-71d6765405af/output/arm64-apple-darwin/bitcoin-71d6765405af-arm64-apple-darwin.tar.gz\nad388467efddf908800c7ffa3ab583ebc75fcd59b50e35a15620b60caf5bc60c  guix-build-71d6765405af/output/dist-archive/bitcoin-71d6765405af.tar.gz\n14be9157621435d48103ea73f1df8e2b9cda1a3925eeab748edb607897a6a1db  guix-build-71d6765405af/output/powerpc64-linux-gnu/SHA256SUMS.part\ndedf03b456e5daaa1658b6f28f600612b82c6d63651e5db8d75901afa23218de  guix-build-71d6765405af/output/powerpc64-linux-gnu/bitcoin-71d6765405af-powerpc64-linux-gnu-debug.tar.gz\nc51997a0a1fef6c6a2523dff8eb2ce99e2ebf96de47b02b4ac9dceef905acb90  guix-build-71d6765405af/output/powerpc64-linux-gnu/bitcoin-71d6765405af-powerpc64-linux-gnu.tar.gz\n9789b464c7791009fe911437bfeea37ab845982bfa7e0f881322e0135bb8900e  guix-build-71d6765405af/output/powerpc64le-linux-gnu/SHA256SUMS.part\nc2039c2ea6cda15e681abfba23a111cba313f7254f776588f8aa5ceef611f379  guix-build-71d6765405af/output/powerpc64le-linux-gnu/bitcoin-71d6765405af-powerpc64le-linux-gnu-debug.tar.gz\n8efb09da2d72f4305620f98729fa1bc940ae9ec848d54d55ec856658544683b4  guix-build-71d6765405af/output/powerpc64le-linux-gnu/bitcoin-71d6765405af-powerpc64le-linux-gnu.tar.gz\n07a964418dcf79c39e8c71abddcfa27488ee4fbda6900185fda7b4b2977ff58e  guix-build-71d6765405af/output/riscv64-linux-gnu/SHA256SUMS.part\n290f7a321d1a1475462f89b506969f153c39f11af128f4369fb15157f59fb951  guix-build-71d6765405af/output/riscv64-linux-gnu/bitcoin-71d6765405af-riscv64-linux-gnu-debug.tar.gz\nac67bbe08e76a7704341c0cc7a030792f4fd4bf1773b396b7ebeb5d1a34bf87e  guix-build-71d6765405af/output/riscv64-linux-gnu/bitcoin-71d6765405af-riscv64-linux-gnu.tar.gz\n469ccc48acf56bb9fac9d0a3d8f949e88126dc48d4a88d2066fa5282d253bc6f  guix-build-71d6765405af/output/x86_64-apple-darwin/SHA256SUMS.part\n5e587a77e44c4c86f6f2066581f6f757fa56289888b88c414ae148ec67b42e41  guix-build-71d6765405af/output/x86_64-apple-darwin/bitcoin-71d6765405af-x86_64-apple-darwin-unsigned.dmg\ne61bc7e26e500496333cd3b3a42712a7fd72a590e5fe1d49787cfdb255231131  guix-build-71d6765405af/output/x86_64-apple-darwin/bitcoin-71d6765405af-x86_64-apple-darwin-unsigned.tar.gz\n8ccb31d80f0c2ad91241a89ebb2c62cc4881cfa944b882782aaaadc8bac3385b  guix-build-71d6765405af/output/x86_64-apple-darwin/bitcoin-71d6765405af-x86_64-apple-darwin.tar.gz\n03eceb245cfdd28da6986b098e3fa545d35852713f7605035ccb3052f28d4a7e  guix-build-71d6765405af/output/x86_64-linux-gnu/SHA256SUMS.part\ne2d9e64656d5fe4c5aeb7bd458a5913b1a76f6453f7acf101be0a6331fd90482  guix-build-71d6765405af/output/x86_64-linux-gnu/bitcoin-71d6765405af-x86_64-linux-gnu-debug.tar.gz\nded765b3854611b91d66eaa84b235ff2f83669bae3b02897a8f2749c2d7ae761  guix-build-71d6765405af/output/x86_64-linux-gnu/bitcoin-71d6765405af-x86_64-linux-gnu.tar.gz\n8d5ef626affbc1f275a21323f24fb3b7ee480e7dacef8695fe45687027dbfadf  guix-build-71d6765405af/output/x86_64-w64-mingw32/SHA256SUMS.part\n5739340074c2906c06193445a1d1058a8dadd80a245dfa54f7286346944a7a06  guix-build-71d6765405af/output/x86_64-w64-mingw32/bitcoin-71d6765405af-win64-debug.zip\n5dcb6ad8adb573c74455bb6ee6572a11e11858bc93ab259c1e08e048c7093076  guix-build-71d6765405af/output/x86_64-w64-mingw32/bitcoin-71d6765405af-win64-setup-unsigned.exe\nea368b8af5e0b034f91582971fa92823ee498a99c48bb74a3e2ca99478bb4ec2  guix-build-71d6765405af/output/x86_64-w64-mingw32/bitcoin-71d6765405af-win64-unsigned.tar.gz\nfbb8990baf2f1bd0c79e4534263527d58d2f3879d68f8bd47718a44d0fb76e9e  guix-build-71d6765405af/output/x86_64-w64-mingw32/bitcoin-71d6765405af-win64.zip\"><pre class=\"notranslate\"><code class=\"notranslate\">$ env HOSTS='arm-linux-gnueabihf arm64-apple-darwin powerpc64-linux-gnu powerpc64le-linux-gnu riscv64-linux-gnu x86_64-apple-darwin x86_64-linux-gnu x86_64-w64-mingw32' ./contrib/guix/guix-build\n$ find guix-build-$(git rev-parse --short=12 HEAD)/output/ -type f -print0 | env LC_ALL=C sort -z | xargs -r0 sha256sum\n\n96e74f1a8139d82efb5e534640159b9e24c84caee244a53d17c647e796f3cb03  guix-build-71d6765405af/output/arm-linux-gnueabihf/SHA256SUMS.part\n65a1c84ec9ffbbf4cb19c0c5f458d3569fb0264066e40457eab5927817f9cb5d  guix-build-71d6765405af/output/arm-linux-gnueabihf/bitcoin-71d6765405af-arm-linux-gnueabihf-debug.tar.gz\n8c5cf767e64c5484ab84cf93953f13b5c57a1fe85b8177eb4b146d90be1cdfc3  guix-build-71d6765405af/output/arm-linux-gnueabihf/bitcoin-71d6765405af-arm-linux-gnueabihf.tar.gz\n3fb27a95e98ae63cd04eff2622baadb15680a83cbbe4aa53b0b7e25c2980fb07  guix-build-71d6765405af/output/arm64-apple-darwin/SHA256SUMS.part\n13958d0829d6fd91e38fdba5c410f485a60f94cf8797711a92b4015601ca79aa  guix-build-71d6765405af/output/arm64-apple-darwin/bitcoin-71d6765405af-arm64-apple-darwin-unsigned.dmg\ncdb8b8c3a21cc208ef20f7f65a64eb2c391bef6ff08aeffdbfef453c36dab9bc  guix-build-71d6765405af/output/arm64-apple-darwin/bitcoin-71d6765405af-arm64-apple-darwin-unsigned.tar.gz\n94b47f81ff93b571a36506403b08df395f6d34527cd795029be4addc492c4e85  guix-build-71d6765405af/output/arm64-apple-darwin/bitcoin-71d6765405af-arm64-apple-darwin.tar.gz\nad388467efddf908800c7ffa3ab583ebc75fcd59b50e35a15620b60caf5bc60c  guix-build-71d6765405af/output/dist-archive/bitcoin-71d6765405af.tar.gz\n14be9157621435d48103ea73f1df8e2b9cda1a3925eeab748edb607897a6a1db  guix-build-71d6765405af/output/powerpc64-linux-gnu/SHA256SUMS.part\ndedf03b456e5daaa1658b6f28f600612b82c6d63651e5db8d75901afa23218de  guix-build-71d6765405af/output/powerpc64-linux-gnu/bitcoin-71d6765405af-powerpc64-linux-gnu-debug.tar.gz\nc51997a0a1fef6c6a2523dff8eb2ce99e2ebf96de47b02b4ac9dceef905acb90  guix-build-71d6765405af/output/powerpc64-linux-gnu/bitcoin-71d6765405af-powerpc64-linux-gnu.tar.gz\n9789b464c7791009fe911437bfeea37ab845982bfa7e0f881322e0135bb8900e  guix-build-71d6765405af/output/powerpc64le-linux-gnu/SHA256SUMS.part\nc2039c2ea6cda15e681abfba23a111cba313f7254f776588f8aa5ceef611f379  guix-build-71d6765405af/output/powerpc64le-linux-gnu/bitcoin-71d6765405af-powerpc64le-linux-gnu-debug.tar.gz\n8efb09da2d72f4305620f98729fa1bc940ae9ec848d54d55ec856658544683b4  guix-build-71d6765405af/output/powerpc64le-linux-gnu/bitcoin-71d6765405af-powerpc64le-linux-gnu.tar.gz\n07a964418dcf79c39e8c71abddcfa27488ee4fbda6900185fda7b4b2977ff58e  guix-build-71d6765405af/output/riscv64-linux-gnu/SHA256SUMS.part\n290f7a321d1a1475462f89b506969f153c39f11af128f4369fb15157f59fb951  guix-build-71d6765405af/output/riscv64-linux-gnu/bitcoin-71d6765405af-riscv64-linux-gnu-debug.tar.gz\nac67bbe08e76a7704341c0cc7a030792f4fd4bf1773b396b7ebeb5d1a34bf87e  guix-build-71d6765405af/output/riscv64-linux-gnu/bitcoin-71d6765405af-riscv64-linux-gnu.tar.gz\n469ccc48acf56bb9fac9d0a3d8f949e88126dc48d4a88d2066fa5282d253bc6f  guix-build-71d6765405af/output/x86_64-apple-darwin/SHA256SUMS.part\n5e587a77e44c4c86f6f2066581f6f757fa56289888b88c414ae148ec67b42e41  guix-build-71d6765405af/output/x86_64-apple-darwin/bitcoin-71d6765405af-x86_64-apple-darwin-unsigned.dmg\ne61bc7e26e500496333cd3b3a42712a7fd72a590e5fe1d49787cfdb255231131  guix-build-71d6765405af/output/x86_64-apple-darwin/bitcoin-71d6765405af-x86_64-apple-darwin-unsigned.tar.gz\n8ccb31d80f0c2ad91241a89ebb2c62cc4881cfa944b882782aaaadc8bac3385b  guix-build-71d6765405af/output/x86_64-apple-darwin/bitcoin-71d6765405af-x86_64-apple-darwin.tar.gz\n03eceb245cfdd28da6986b098e3fa545d35852713f7605035ccb3052f28d4a7e  guix-build-71d6765405af/output/x86_64-linux-gnu/SHA256SUMS.part\ne2d9e64656d5fe4c5aeb7bd458a5913b1a76f6453f7acf101be0a6331fd90482  guix-build-71d6765405af/output/x86_64-linux-gnu/bitcoin-71d6765405af-x86_64-linux-gnu-debug.tar.gz\nded765b3854611b91d66eaa84b235ff2f83669bae3b02897a8f2749c2d7ae761  guix-build-71d6765405af/output/x86_64-linux-gnu/bitcoin-71d6765405af-x86_64-linux-gnu.tar.gz\n8d5ef626affbc1f275a21323f24fb3b7ee480e7dacef8695fe45687027dbfadf  guix-build-71d6765405af/output/x86_64-w64-mingw32/SHA256SUMS.part\n5739340074c2906c06193445a1d1058a8dadd80a245dfa54f7286346944a7a06  guix-build-71d6765405af/output/x86_64-w64-mingw32/bitcoin-71d6765405af-win64-debug.zip\n5dcb6ad8adb573c74455bb6ee6572a11e11858bc93ab259c1e08e048c7093076  guix-build-71d6765405af/output/x86_64-w64-mingw32/bitcoin-71d6765405af-win64-setup-unsigned.exe\nea368b8af5e0b034f91582971fa92823ee498a99c48bb74a3e2ca99478bb4ec2  guix-build-71d6765405af/output/x86_64-w64-mingw32/bitcoin-71d6765405af-win64-unsigned.tar.gz\nfbb8990baf2f1bd0c79e4534263527d58d2f3879d68f8bd47718a44d0fb76e9e  guix-build-71d6765405af/output/x86_64-w64-mingw32/bitcoin-71d6765405af-win64.zip\n</code></pre></div>",
    "body_text": "GUIX hashes\nx86:\n$ find guix-build-$(git rev-parse --short=12 HEAD)/output/ -type f -print0 | env LC_ALL=C sort -z | xargs -r0 sha256sum\n\n60480ca370d3b321590b13544ee866c91ee8acda9ec0b770c32ad4a7b481808b  guix-build-71d6765405af/output/aarch64-linux-gnu/SHA256SUMS.part\nc1d7ba6cb3e8969c8159c2db2d5153b35719d574818c272c8ff439ab87641eb1  guix-build-71d6765405af/output/aarch64-linux-gnu/bitcoin-71d6765405af-aarch64-linux-gnu-debug.tar.gz\n4182c14d8a928ee04dbe4a943b5cf796fbe5833efdf3726207871d7ade299b79  guix-build-71d6765405af/output/aarch64-linux-gnu/bitcoin-71d6765405af-aarch64-linux-gnu.tar.gz\n96e74f1a8139d82efb5e534640159b9e24c84caee244a53d17c647e796f3cb03  guix-build-71d6765405af/output/arm-linux-gnueabihf/SHA256SUMS.part\n65a1c84ec9ffbbf4cb19c0c5f458d3569fb0264066e40457eab5927817f9cb5d  guix-build-71d6765405af/output/arm-linux-gnueabihf/bitcoin-71d6765405af-arm-linux-gnueabihf-debug.tar.gz\n8c5cf767e64c5484ab84cf93953f13b5c57a1fe85b8177eb4b146d90be1cdfc3  guix-build-71d6765405af/output/arm-linux-gnueabihf/bitcoin-71d6765405af-arm-linux-gnueabihf.tar.gz\n9db3fbd50bf7e051fb3aaab3e8b91b3c079d7305d3c6c5080fd8621418728e18  guix-build-71d6765405af/output/arm64-apple-darwin/SHA256SUMS.part\n217102a2e72fed73f56892af7dfbe4517c5c361b2ea50e66bbf9f0a4510042e2  guix-build-71d6765405af/output/arm64-apple-darwin/bitcoin-71d6765405af-arm64-apple-darwin-unsigned.dmg\n9ff47044d3780d0d18961024073df40b725e64ace69200bbfcaff9eee5c0fdb7  guix-build-71d6765405af/output/arm64-apple-darwin/bitcoin-71d6765405af-arm64-apple-darwin-unsigned.tar.gz\na17526b26d523c4a2866f11457c088f09ab2948ad61873efabb123c8724b5688  guix-build-71d6765405af/output/arm64-apple-darwin/bitcoin-71d6765405af-arm64-apple-darwin.tar.gz\nad388467efddf908800c7ffa3ab583ebc75fcd59b50e35a15620b60caf5bc60c  guix-build-71d6765405af/output/dist-archive/bitcoin-71d6765405af.tar.gz\n14be9157621435d48103ea73f1df8e2b9cda1a3925eeab748edb607897a6a1db  guix-build-71d6765405af/output/powerpc64-linux-gnu/SHA256SUMS.part\ndedf03b456e5daaa1658b6f28f600612b82c6d63651e5db8d75901afa23218de  guix-build-71d6765405af/output/powerpc64-linux-gnu/bitcoin-71d6765405af-powerpc64-linux-gnu-debug.tar.gz\nc51997a0a1fef6c6a2523dff8eb2ce99e2ebf96de47b02b4ac9dceef905acb90  guix-build-71d6765405af/output/powerpc64-linux-gnu/bitcoin-71d6765405af-powerpc64-linux-gnu.tar.gz\n9789b464c7791009fe911437bfeea37ab845982bfa7e0f881322e0135bb8900e  guix-build-71d6765405af/output/powerpc64le-linux-gnu/SHA256SUMS.part\nc2039c2ea6cda15e681abfba23a111cba313f7254f776588f8aa5ceef611f379  guix-build-71d6765405af/output/powerpc64le-linux-gnu/bitcoin-71d6765405af-powerpc64le-linux-gnu-debug.tar.gz\n8efb09da2d72f4305620f98729fa1bc940ae9ec848d54d55ec856658544683b4  guix-build-71d6765405af/output/powerpc64le-linux-gnu/bitcoin-71d6765405af-powerpc64le-linux-gnu.tar.gz\n07a964418dcf79c39e8c71abddcfa27488ee4fbda6900185fda7b4b2977ff58e  guix-build-71d6765405af/output/riscv64-linux-gnu/SHA256SUMS.part\n290f7a321d1a1475462f89b506969f153c39f11af128f4369fb15157f59fb951  guix-build-71d6765405af/output/riscv64-linux-gnu/bitcoin-71d6765405af-riscv64-linux-gnu-debug.tar.gz\nac67bbe08e76a7704341c0cc7a030792f4fd4bf1773b396b7ebeb5d1a34bf87e  guix-build-71d6765405af/output/riscv64-linux-gnu/bitcoin-71d6765405af-riscv64-linux-gnu.tar.gz\n469ccc48acf56bb9fac9d0a3d8f949e88126dc48d4a88d2066fa5282d253bc6f  guix-build-71d6765405af/output/x86_64-apple-darwin/SHA256SUMS.part\n5e587a77e44c4c86f6f2066581f6f757fa56289888b88c414ae148ec67b42e41  guix-build-71d6765405af/output/x86_64-apple-darwin/bitcoin-71d6765405af-x86_64-apple-darwin-unsigned.dmg\ne61bc7e26e500496333cd3b3a42712a7fd72a590e5fe1d49787cfdb255231131  guix-build-71d6765405af/output/x86_64-apple-darwin/bitcoin-71d6765405af-x86_64-apple-darwin-unsigned.tar.gz\n8ccb31d80f0c2ad91241a89ebb2c62cc4881cfa944b882782aaaadc8bac3385b  guix-build-71d6765405af/output/x86_64-apple-darwin/bitcoin-71d6765405af-x86_64-apple-darwin.tar.gz\n03eceb245cfdd28da6986b098e3fa545d35852713f7605035ccb3052f28d4a7e  guix-build-71d6765405af/output/x86_64-linux-gnu/SHA256SUMS.part\ne2d9e64656d5fe4c5aeb7bd458a5913b1a76f6453f7acf101be0a6331fd90482  guix-build-71d6765405af/output/x86_64-linux-gnu/bitcoin-71d6765405af-x86_64-linux-gnu-debug.tar.gz\nded765b3854611b91d66eaa84b235ff2f83669bae3b02897a8f2749c2d7ae761  guix-build-71d6765405af/output/x86_64-linux-gnu/bitcoin-71d6765405af-x86_64-linux-gnu.tar.gz\n8d5ef626affbc1f275a21323f24fb3b7ee480e7dacef8695fe45687027dbfadf  guix-build-71d6765405af/output/x86_64-w64-mingw32/SHA256SUMS.part\n5739340074c2906c06193445a1d1058a8dadd80a245dfa54f7286346944a7a06  guix-build-71d6765405af/output/x86_64-w64-mingw32/bitcoin-71d6765405af-win64-debug.zip\n5dcb6ad8adb573c74455bb6ee6572a11e11858bc93ab259c1e08e048c7093076  guix-build-71d6765405af/output/x86_64-w64-mingw32/bitcoin-71d6765405af-win64-setup-unsigned.exe\nea368b8af5e0b034f91582971fa92823ee498a99c48bb74a3e2ca99478bb4ec2  guix-build-71d6765405af/output/x86_64-w64-mingw32/bitcoin-71d6765405af-win64-unsigned.tar.gz\nfbb8990baf2f1bd0c79e4534263527d58d2f3879d68f8bd47718a44d0fb76e9e  guix-build-71d6765405af/output/x86_64-w64-mingw32/bitcoin-71d6765405af-win64.zip\n\n\narm64:\n$ env HOSTS='arm-linux-gnueabihf arm64-apple-darwin powerpc64-linux-gnu powerpc64le-linux-gnu riscv64-linux-gnu x86_64-apple-darwin x86_64-linux-gnu x86_64-w64-mingw32' ./contrib/guix/guix-build\n$ find guix-build-$(git rev-parse --short=12 HEAD)/output/ -type f -print0 | env LC_ALL=C sort -z | xargs -r0 sha256sum\n\n96e74f1a8139d82efb5e534640159b9e24c84caee244a53d17c647e796f3cb03  guix-build-71d6765405af/output/arm-linux-gnueabihf/SHA256SUMS.part\n65a1c84ec9ffbbf4cb19c0c5f458d3569fb0264066e40457eab5927817f9cb5d  guix-build-71d6765405af/output/arm-linux-gnueabihf/bitcoin-71d6765405af-arm-linux-gnueabihf-debug.tar.gz\n8c5cf767e64c5484ab84cf93953f13b5c57a1fe85b8177eb4b146d90be1cdfc3  guix-build-71d6765405af/output/arm-linux-gnueabihf/bitcoin-71d6765405af-arm-linux-gnueabihf.tar.gz\n3fb27a95e98ae63cd04eff2622baadb15680a83cbbe4aa53b0b7e25c2980fb07  guix-build-71d6765405af/output/arm64-apple-darwin/SHA256SUMS.part\n13958d0829d6fd91e38fdba5c410f485a60f94cf8797711a92b4015601ca79aa  guix-build-71d6765405af/output/arm64-apple-darwin/bitcoin-71d6765405af-arm64-apple-darwin-unsigned.dmg\ncdb8b8c3a21cc208ef20f7f65a64eb2c391bef6ff08aeffdbfef453c36dab9bc  guix-build-71d6765405af/output/arm64-apple-darwin/bitcoin-71d6765405af-arm64-apple-darwin-unsigned.tar.gz\n94b47f81ff93b571a36506403b08df395f6d34527cd795029be4addc492c4e85  guix-build-71d6765405af/output/arm64-apple-darwin/bitcoin-71d6765405af-arm64-apple-darwin.tar.gz\nad388467efddf908800c7ffa3ab583ebc75fcd59b50e35a15620b60caf5bc60c  guix-build-71d6765405af/output/dist-archive/bitcoin-71d6765405af.tar.gz\n14be9157621435d48103ea73f1df8e2b9cda1a3925eeab748edb607897a6a1db  guix-build-71d6765405af/output/powerpc64-linux-gnu/SHA256SUMS.part\ndedf03b456e5daaa1658b6f28f600612b82c6d63651e5db8d75901afa23218de  guix-build-71d6765405af/output/powerpc64-linux-gnu/bitcoin-71d6765405af-powerpc64-linux-gnu-debug.tar.gz\nc51997a0a1fef6c6a2523dff8eb2ce99e2ebf96de47b02b4ac9dceef905acb90  guix-build-71d6765405af/output/powerpc64-linux-gnu/bitcoin-71d6765405af-powerpc64-linux-gnu.tar.gz\n9789b464c7791009fe911437bfeea37ab845982bfa7e0f881322e0135bb8900e  guix-build-71d6765405af/output/powerpc64le-linux-gnu/SHA256SUMS.part\nc2039c2ea6cda15e681abfba23a111cba313f7254f776588f8aa5ceef611f379  guix-build-71d6765405af/output/powerpc64le-linux-gnu/bitcoin-71d6765405af-powerpc64le-linux-gnu-debug.tar.gz\n8efb09da2d72f4305620f98729fa1bc940ae9ec848d54d55ec856658544683b4  guix-build-71d6765405af/output/powerpc64le-linux-gnu/bitcoin-71d6765405af-powerpc64le-linux-gnu.tar.gz\n07a964418dcf79c39e8c71abddcfa27488ee4fbda6900185fda7b4b2977ff58e  guix-build-71d6765405af/output/riscv64-linux-gnu/SHA256SUMS.part\n290f7a321d1a1475462f89b506969f153c39f11af128f4369fb15157f59fb951  guix-build-71d6765405af/output/riscv64-linux-gnu/bitcoin-71d6765405af-riscv64-linux-gnu-debug.tar.gz\nac67bbe08e76a7704341c0cc7a030792f4fd4bf1773b396b7ebeb5d1a34bf87e  guix-build-71d6765405af/output/riscv64-linux-gnu/bitcoin-71d6765405af-riscv64-linux-gnu.tar.gz\n469ccc48acf56bb9fac9d0a3d8f949e88126dc48d4a88d2066fa5282d253bc6f  guix-build-71d6765405af/output/x86_64-apple-darwin/SHA256SUMS.part\n5e587a77e44c4c86f6f2066581f6f757fa56289888b88c414ae148ec67b42e41  guix-build-71d6765405af/output/x86_64-apple-darwin/bitcoin-71d6765405af-x86_64-apple-darwin-unsigned.dmg\ne61bc7e26e500496333cd3b3a42712a7fd72a590e5fe1d49787cfdb255231131  guix-build-71d6765405af/output/x86_64-apple-darwin/bitcoin-71d6765405af-x86_64-apple-darwin-unsigned.tar.gz\n8ccb31d80f0c2ad91241a89ebb2c62cc4881cfa944b882782aaaadc8bac3385b  guix-build-71d6765405af/output/x86_64-apple-darwin/bitcoin-71d6765405af-x86_64-apple-darwin.tar.gz\n03eceb245cfdd28da6986b098e3fa545d35852713f7605035ccb3052f28d4a7e  guix-build-71d6765405af/output/x86_64-linux-gnu/SHA256SUMS.part\ne2d9e64656d5fe4c5aeb7bd458a5913b1a76f6453f7acf101be0a6331fd90482  guix-build-71d6765405af/output/x86_64-linux-gnu/bitcoin-71d6765405af-x86_64-linux-gnu-debug.tar.gz\nded765b3854611b91d66eaa84b235ff2f83669bae3b02897a8f2749c2d7ae761  guix-build-71d6765405af/output/x86_64-linux-gnu/bitcoin-71d6765405af-x86_64-linux-gnu.tar.gz\n8d5ef626affbc1f275a21323f24fb3b7ee480e7dacef8695fe45687027dbfadf  guix-build-71d6765405af/output/x86_64-w64-mingw32/SHA256SUMS.part\n5739340074c2906c06193445a1d1058a8dadd80a245dfa54f7286346944a7a06  guix-build-71d6765405af/output/x86_64-w64-mingw32/bitcoin-71d6765405af-win64-debug.zip\n5dcb6ad8adb573c74455bb6ee6572a11e11858bc93ab259c1e08e048c7093076  guix-build-71d6765405af/output/x86_64-w64-mingw32/bitcoin-71d6765405af-win64-setup-unsigned.exe\nea368b8af5e0b034f91582971fa92823ee498a99c48bb74a3e2ca99478bb4ec2  guix-build-71d6765405af/output/x86_64-w64-mingw32/bitcoin-71d6765405af-win64-unsigned.tar.gz\nfbb8990baf2f1bd0c79e4534263527d58d2f3879d68f8bd47718a44d0fb76e9e  guix-build-71d6765405af/output/x86_64-w64-mingw32/bitcoin-71d6765405af-win64.zip",
    "body": "GUIX hashes\r\n\r\nx86:\r\n```\r\n$ find guix-build-$(git rev-parse --short=12 HEAD)/output/ -type f -print0 | env LC_ALL=C sort -z | xargs -r0 sha256sum\r\n\r\n60480ca370d3b321590b13544ee866c91ee8acda9ec0b770c32ad4a7b481808b  guix-build-71d6765405af/output/aarch64-linux-gnu/SHA256SUMS.part\r\nc1d7ba6cb3e8969c8159c2db2d5153b35719d574818c272c8ff439ab87641eb1  guix-build-71d6765405af/output/aarch64-linux-gnu/bitcoin-71d6765405af-aarch64-linux-gnu-debug.tar.gz\r\n4182c14d8a928ee04dbe4a943b5cf796fbe5833efdf3726207871d7ade299b79  guix-build-71d6765405af/output/aarch64-linux-gnu/bitcoin-71d6765405af-aarch64-linux-gnu.tar.gz\r\n96e74f1a8139d82efb5e534640159b9e24c84caee244a53d17c647e796f3cb03  guix-build-71d6765405af/output/arm-linux-gnueabihf/SHA256SUMS.part\r\n65a1c84ec9ffbbf4cb19c0c5f458d3569fb0264066e40457eab5927817f9cb5d  guix-build-71d6765405af/output/arm-linux-gnueabihf/bitcoin-71d6765405af-arm-linux-gnueabihf-debug.tar.gz\r\n8c5cf767e64c5484ab84cf93953f13b5c57a1fe85b8177eb4b146d90be1cdfc3  guix-build-71d6765405af/output/arm-linux-gnueabihf/bitcoin-71d6765405af-arm-linux-gnueabihf.tar.gz\r\n9db3fbd50bf7e051fb3aaab3e8b91b3c079d7305d3c6c5080fd8621418728e18  guix-build-71d6765405af/output/arm64-apple-darwin/SHA256SUMS.part\r\n217102a2e72fed73f56892af7dfbe4517c5c361b2ea50e66bbf9f0a4510042e2  guix-build-71d6765405af/output/arm64-apple-darwin/bitcoin-71d6765405af-arm64-apple-darwin-unsigned.dmg\r\n9ff47044d3780d0d18961024073df40b725e64ace69200bbfcaff9eee5c0fdb7  guix-build-71d6765405af/output/arm64-apple-darwin/bitcoin-71d6765405af-arm64-apple-darwin-unsigned.tar.gz\r\na17526b26d523c4a2866f11457c088f09ab2948ad61873efabb123c8724b5688  guix-build-71d6765405af/output/arm64-apple-darwin/bitcoin-71d6765405af-arm64-apple-darwin.tar.gz\r\nad388467efddf908800c7ffa3ab583ebc75fcd59b50e35a15620b60caf5bc60c  guix-build-71d6765405af/output/dist-archive/bitcoin-71d6765405af.tar.gz\r\n14be9157621435d48103ea73f1df8e2b9cda1a3925eeab748edb607897a6a1db  guix-build-71d6765405af/output/powerpc64-linux-gnu/SHA256SUMS.part\r\ndedf03b456e5daaa1658b6f28f600612b82c6d63651e5db8d75901afa23218de  guix-build-71d6765405af/output/powerpc64-linux-gnu/bitcoin-71d6765405af-powerpc64-linux-gnu-debug.tar.gz\r\nc51997a0a1fef6c6a2523dff8eb2ce99e2ebf96de47b02b4ac9dceef905acb90  guix-build-71d6765405af/output/powerpc64-linux-gnu/bitcoin-71d6765405af-powerpc64-linux-gnu.tar.gz\r\n9789b464c7791009fe911437bfeea37ab845982bfa7e0f881322e0135bb8900e  guix-build-71d6765405af/output/powerpc64le-linux-gnu/SHA256SUMS.part\r\nc2039c2ea6cda15e681abfba23a111cba313f7254f776588f8aa5ceef611f379  guix-build-71d6765405af/output/powerpc64le-linux-gnu/bitcoin-71d6765405af-powerpc64le-linux-gnu-debug.tar.gz\r\n8efb09da2d72f4305620f98729fa1bc940ae9ec848d54d55ec856658544683b4  guix-build-71d6765405af/output/powerpc64le-linux-gnu/bitcoin-71d6765405af-powerpc64le-linux-gnu.tar.gz\r\n07a964418dcf79c39e8c71abddcfa27488ee4fbda6900185fda7b4b2977ff58e  guix-build-71d6765405af/output/riscv64-linux-gnu/SHA256SUMS.part\r\n290f7a321d1a1475462f89b506969f153c39f11af128f4369fb15157f59fb951  guix-build-71d6765405af/output/riscv64-linux-gnu/bitcoin-71d6765405af-riscv64-linux-gnu-debug.tar.gz\r\nac67bbe08e76a7704341c0cc7a030792f4fd4bf1773b396b7ebeb5d1a34bf87e  guix-build-71d6765405af/output/riscv64-linux-gnu/bitcoin-71d6765405af-riscv64-linux-gnu.tar.gz\r\n469ccc48acf56bb9fac9d0a3d8f949e88126dc48d4a88d2066fa5282d253bc6f  guix-build-71d6765405af/output/x86_64-apple-darwin/SHA256SUMS.part\r\n5e587a77e44c4c86f6f2066581f6f757fa56289888b88c414ae148ec67b42e41  guix-build-71d6765405af/output/x86_64-apple-darwin/bitcoin-71d6765405af-x86_64-apple-darwin-unsigned.dmg\r\ne61bc7e26e500496333cd3b3a42712a7fd72a590e5fe1d49787cfdb255231131  guix-build-71d6765405af/output/x86_64-apple-darwin/bitcoin-71d6765405af-x86_64-apple-darwin-unsigned.tar.gz\r\n8ccb31d80f0c2ad91241a89ebb2c62cc4881cfa944b882782aaaadc8bac3385b  guix-build-71d6765405af/output/x86_64-apple-darwin/bitcoin-71d6765405af-x86_64-apple-darwin.tar.gz\r\n03eceb245cfdd28da6986b098e3fa545d35852713f7605035ccb3052f28d4a7e  guix-build-71d6765405af/output/x86_64-linux-gnu/SHA256SUMS.part\r\ne2d9e64656d5fe4c5aeb7bd458a5913b1a76f6453f7acf101be0a6331fd90482  guix-build-71d6765405af/output/x86_64-linux-gnu/bitcoin-71d6765405af-x86_64-linux-gnu-debug.tar.gz\r\nded765b3854611b91d66eaa84b235ff2f83669bae3b02897a8f2749c2d7ae761  guix-build-71d6765405af/output/x86_64-linux-gnu/bitcoin-71d6765405af-x86_64-linux-gnu.tar.gz\r\n8d5ef626affbc1f275a21323f24fb3b7ee480e7dacef8695fe45687027dbfadf  guix-build-71d6765405af/output/x86_64-w64-mingw32/SHA256SUMS.part\r\n5739340074c2906c06193445a1d1058a8dadd80a245dfa54f7286346944a7a06  guix-build-71d6765405af/output/x86_64-w64-mingw32/bitcoin-71d6765405af-win64-debug.zip\r\n5dcb6ad8adb573c74455bb6ee6572a11e11858bc93ab259c1e08e048c7093076  guix-build-71d6765405af/output/x86_64-w64-mingw32/bitcoin-71d6765405af-win64-setup-unsigned.exe\r\nea368b8af5e0b034f91582971fa92823ee498a99c48bb74a3e2ca99478bb4ec2  guix-build-71d6765405af/output/x86_64-w64-mingw32/bitcoin-71d6765405af-win64-unsigned.tar.gz\r\nfbb8990baf2f1bd0c79e4534263527d58d2f3879d68f8bd47718a44d0fb76e9e  guix-build-71d6765405af/output/x86_64-w64-mingw32/bitcoin-71d6765405af-win64.zip\r\n\r\n```\r\n\r\narm64:\r\n```\r\n$ env HOSTS='arm-linux-gnueabihf arm64-apple-darwin powerpc64-linux-gnu powerpc64le-linux-gnu riscv64-linux-gnu x86_64-apple-darwin x86_64-linux-gnu x86_64-w64-mingw32' ./contrib/guix/guix-build\r\n$ find guix-build-$(git rev-parse --short=12 HEAD)/output/ -type f -print0 | env LC_ALL=C sort -z | xargs -r0 sha256sum\r\n\r\n96e74f1a8139d82efb5e534640159b9e24c84caee244a53d17c647e796f3cb03  guix-build-71d6765405af/output/arm-linux-gnueabihf/SHA256SUMS.part\r\n65a1c84ec9ffbbf4cb19c0c5f458d3569fb0264066e40457eab5927817f9cb5d  guix-build-71d6765405af/output/arm-linux-gnueabihf/bitcoin-71d6765405af-arm-linux-gnueabihf-debug.tar.gz\r\n8c5cf767e64c5484ab84cf93953f13b5c57a1fe85b8177eb4b146d90be1cdfc3  guix-build-71d6765405af/output/arm-linux-gnueabihf/bitcoin-71d6765405af-arm-linux-gnueabihf.tar.gz\r\n3fb27a95e98ae63cd04eff2622baadb15680a83cbbe4aa53b0b7e25c2980fb07  guix-build-71d6765405af/output/arm64-apple-darwin/SHA256SUMS.part\r\n13958d0829d6fd91e38fdba5c410f485a60f94cf8797711a92b4015601ca79aa  guix-build-71d6765405af/output/arm64-apple-darwin/bitcoin-71d6765405af-arm64-apple-darwin-unsigned.dmg\r\ncdb8b8c3a21cc208ef20f7f65a64eb2c391bef6ff08aeffdbfef453c36dab9bc  guix-build-71d6765405af/output/arm64-apple-darwin/bitcoin-71d6765405af-arm64-apple-darwin-unsigned.tar.gz\r\n94b47f81ff93b571a36506403b08df395f6d34527cd795029be4addc492c4e85  guix-build-71d6765405af/output/arm64-apple-darwin/bitcoin-71d6765405af-arm64-apple-darwin.tar.gz\r\nad388467efddf908800c7ffa3ab583ebc75fcd59b50e35a15620b60caf5bc60c  guix-build-71d6765405af/output/dist-archive/bitcoin-71d6765405af.tar.gz\r\n14be9157621435d48103ea73f1df8e2b9cda1a3925eeab748edb607897a6a1db  guix-build-71d6765405af/output/powerpc64-linux-gnu/SHA256SUMS.part\r\ndedf03b456e5daaa1658b6f28f600612b82c6d63651e5db8d75901afa23218de  guix-build-71d6765405af/output/powerpc64-linux-gnu/bitcoin-71d6765405af-powerpc64-linux-gnu-debug.tar.gz\r\nc51997a0a1fef6c6a2523dff8eb2ce99e2ebf96de47b02b4ac9dceef905acb90  guix-build-71d6765405af/output/powerpc64-linux-gnu/bitcoin-71d6765405af-powerpc64-linux-gnu.tar.gz\r\n9789b464c7791009fe911437bfeea37ab845982bfa7e0f881322e0135bb8900e  guix-build-71d6765405af/output/powerpc64le-linux-gnu/SHA256SUMS.part\r\nc2039c2ea6cda15e681abfba23a111cba313f7254f776588f8aa5ceef611f379  guix-build-71d6765405af/output/powerpc64le-linux-gnu/bitcoin-71d6765405af-powerpc64le-linux-gnu-debug.tar.gz\r\n8efb09da2d72f4305620f98729fa1bc940ae9ec848d54d55ec856658544683b4  guix-build-71d6765405af/output/powerpc64le-linux-gnu/bitcoin-71d6765405af-powerpc64le-linux-gnu.tar.gz\r\n07a964418dcf79c39e8c71abddcfa27488ee4fbda6900185fda7b4b2977ff58e  guix-build-71d6765405af/output/riscv64-linux-gnu/SHA256SUMS.part\r\n290f7a321d1a1475462f89b506969f153c39f11af128f4369fb15157f59fb951  guix-build-71d6765405af/output/riscv64-linux-gnu/bitcoin-71d6765405af-riscv64-linux-gnu-debug.tar.gz\r\nac67bbe08e76a7704341c0cc7a030792f4fd4bf1773b396b7ebeb5d1a34bf87e  guix-build-71d6765405af/output/riscv64-linux-gnu/bitcoin-71d6765405af-riscv64-linux-gnu.tar.gz\r\n469ccc48acf56bb9fac9d0a3d8f949e88126dc48d4a88d2066fa5282d253bc6f  guix-build-71d6765405af/output/x86_64-apple-darwin/SHA256SUMS.part\r\n5e587a77e44c4c86f6f2066581f6f757fa56289888b88c414ae148ec67b42e41  guix-build-71d6765405af/output/x86_64-apple-darwin/bitcoin-71d6765405af-x86_64-apple-darwin-unsigned.dmg\r\ne61bc7e26e500496333cd3b3a42712a7fd72a590e5fe1d49787cfdb255231131  guix-build-71d6765405af/output/x86_64-apple-darwin/bitcoin-71d6765405af-x86_64-apple-darwin-unsigned.tar.gz\r\n8ccb31d80f0c2ad91241a89ebb2c62cc4881cfa944b882782aaaadc8bac3385b  guix-build-71d6765405af/output/x86_64-apple-darwin/bitcoin-71d6765405af-x86_64-apple-darwin.tar.gz\r\n03eceb245cfdd28da6986b098e3fa545d35852713f7605035ccb3052f28d4a7e  guix-build-71d6765405af/output/x86_64-linux-gnu/SHA256SUMS.part\r\ne2d9e64656d5fe4c5aeb7bd458a5913b1a76f6453f7acf101be0a6331fd90482  guix-build-71d6765405af/output/x86_64-linux-gnu/bitcoin-71d6765405af-x86_64-linux-gnu-debug.tar.gz\r\nded765b3854611b91d66eaa84b235ff2f83669bae3b02897a8f2749c2d7ae761  guix-build-71d6765405af/output/x86_64-linux-gnu/bitcoin-71d6765405af-x86_64-linux-gnu.tar.gz\r\n8d5ef626affbc1f275a21323f24fb3b7ee480e7dacef8695fe45687027dbfadf  guix-build-71d6765405af/output/x86_64-w64-mingw32/SHA256SUMS.part\r\n5739340074c2906c06193445a1d1058a8dadd80a245dfa54f7286346944a7a06  guix-build-71d6765405af/output/x86_64-w64-mingw32/bitcoin-71d6765405af-win64-debug.zip\r\n5dcb6ad8adb573c74455bb6ee6572a11e11858bc93ab259c1e08e048c7093076  guix-build-71d6765405af/output/x86_64-w64-mingw32/bitcoin-71d6765405af-win64-setup-unsigned.exe\r\nea368b8af5e0b034f91582971fa92823ee498a99c48bb74a3e2ca99478bb4ec2  guix-build-71d6765405af/output/x86_64-w64-mingw32/bitcoin-71d6765405af-win64-unsigned.tar.gz\r\nfbb8990baf2f1bd0c79e4534263527d58d2f3879d68f8bd47718a44d0fb76e9e  guix-build-71d6765405af/output/x86_64-w64-mingw32/bitcoin-71d6765405af-win64.zip\r\n```",
    "reactions": {
      "url": "https://api.github.com/repos/bitcoin/bitcoin/issues/comments/1213232947/reactions",
      "total_count": 0,
      "+1": 0,
      "-1": 0,
      "laugh": 0,
      "hooray": 0,
      "confused": 0,
      "heart": 0,
      "rocket": 0,
      "eyes": 0
    },
    "performed_via_github_app": null
  },
  {
    "url": "https://api.github.com/repos/bitcoin/bitcoin/issues/comments/1216332888",
    "html_url": "https://github.com/bitcoin/bitcoin/pull/25829#issuecomment-1216332888",
    "issue_url": "https://api.github.com/repos/bitcoin/bitcoin/issues/25829",
    "id": 1216332888,
    "node_id": "IC_kwDOABII585If8RY",
    "user": {
      "login": "josibake",
      "id": 7444140,
      "node_id": "MDQ6VXNlcjc0NDQxNDA=",
      "avatar_url": "https://avatars.githubusercontent.com/u/7444140?v=4",
      "gravatar_id": "",
      "url": "https://api.github.com/users/josibake",
      "html_url": "https://github.com/josibake",
      "followers_url": "https://api.github.com/users/josibake/followers",
      "following_url": "https://api.github.com/users/josibake/following{/other_user}",
      "gists_url": "https://api.github.com/users/josibake/gists{/gist_id}",
      "starred_url": "https://api.github.com/users/josibake/starred{/owner}{/repo}",
      "subscriptions_url": "https://api.github.com/users/josibake/subscriptions",
      "organizations_url": "https://api.github.com/users/josibake/orgs",
      "repos_url": "https://api.github.com/users/josibake/repos",
      "events_url": "https://api.github.com/users/josibake/events{/privacy}",
      "received_events_url": "https://api.github.com/users/josibake/received_events",
      "type": "User",
      "site_admin": false
    },
    "created_at": "2022-08-16T08:48:44Z",
    "updated_at": "2022-08-16T08:48:44Z",
    "author_association": "MEMBER",
    "body_html": "<p dir=\"auto\">Concept ACK</p>",
    "body_text": "Concept ACK",
    "body": "Concept ACK",
    "reactions": {
      "url": "https://api.github.com/repos/bitcoin/bitcoin/issues/comments/1216332888/reactions",
      "total_count": 0,
      "+1": 0,
      "-1": 0,
      "laugh": 0,
      "hooray": 0,
      "confused": 0,
      "heart": 0,
      "rocket": 0,
      "eyes": 0
    },
    "performed_via_github_app": null
  },
  {
    "url": "https://api.github.com/repos/bitcoin/bitcoin/issues/comments/1216393834",
    "html_url": "https://github.com/bitcoin/bitcoin/pull/25829#issuecomment-1216393834",
    "issue_url": "https://api.github.com/repos/bitcoin/bitcoin/issues/25829",
    "id": 1216393834,
    "node_id": "IC_kwDOABII585IgLJq",
    "user": {
      "login": "hebasto",
      "id": 32963518,
      "node_id": "MDQ6VXNlcjMyOTYzNTE4",
      "avatar_url": "https://avatars.githubusercontent.com/u/32963518?v=4",
      "gravatar_id": "",
      "url": "https://api.github.com/users/hebasto",
      "html_url": "https://github.com/hebasto",
      "followers_url": "https://api.github.com/users/hebasto/followers",
      "following_url": "https://api.github.com/users/hebasto/following{/other_user}",
      "gists_url": "https://api.github.com/users/hebasto/gists{/gist_id}",
      "starred_url": "https://api.github.com/users/hebasto/starred{/owner}{/repo}",
      "subscriptions_url": "https://api.github.com/users/hebasto/subscriptions",
      "organizations_url": "https://api.github.com/users/hebasto/orgs",
      "repos_url": "https://api.github.com/users/hebasto/repos",
      "events_url": "https://api.github.com/users/hebasto/events{/privacy}",
      "received_events_url": "https://api.github.com/users/hebasto/received_events",
      "type": "User",
      "site_admin": false
    },
    "created_at": "2022-08-16T09:31:25Z",
    "updated_at": "2022-08-16T09:31:25Z",
    "author_association": "MEMBER",
    "body_html": "<p dir=\"auto\">This diff seem required:</p>\n<div class=\"highlight highlight-source-diff notranslate position-relative overflow-auto\" dir=\"auto\" data-snippet-clipboard-copy-content=\"--- a/share/setup.nsi.in\n+++ b/share/setup.nsi.in\n@@ -76,9 +76,10 @@ Section -Main SEC0000\n     File /oname=COPYING.txt @abs_top_srcdir@/COPYING\n     File /oname=readme.txt @abs_top_srcdir@/doc/README_windows.txt\n     SetOutPath $INSTDIR\\share\\rpcauth\n-    File /r /x @abs_top_srcdir@/share\\rpcauth\\*.*\n+    File @abs_top_srcdir@/share/rpcauth/rpcauth.py\n+    File @abs_top_srcdir@/share/rpcauth/README.md\n     SetOutPath $INSTDIR\\share\\examples\n-    File @abs_top_srcdir@/share\\examples\\bitcoin.conf\n+    File @abs_top_srcdir@/share/examples/bitcoin.conf\n     SetOutPath $INSTDIR\\daemon\n     File @abs_top_builddir@/release/@BITCOIN_DAEMON_NAME@@EXEEXT@\n     File @abs_top_builddir@/release/@BITCOIN_CLI_NAME@@EXEEXT@\"><pre class=\"notranslate\"><span class=\"pl-md\">--- a/share/setup.nsi.in</span>\n<span class=\"pl-mi1\">+++ b/share/setup.nsi.in</span>\n<span class=\"pl-mdr\">@@ -76,9 +76,10 @@</span> Section -Main SEC0000\n     File /oname=COPYING.txt @abs_top_srcdir@/COPYING\n     File /oname=readme.txt @abs_top_srcdir@/doc/README_windows.txt\n     SetOutPath $INSTDIR\\share\\rpcauth\n<span class=\"pl-md\"><span class=\"pl-md\">-</span>    File /r /x @abs_top_srcdir@/share\\rpcauth\\*.*</span>\n<span class=\"pl-mi1\"><span class=\"pl-mi1\">+</span>    File @abs_top_srcdir@/share/rpcauth/rpcauth.py</span>\n<span class=\"pl-mi1\"><span class=\"pl-mi1\">+</span>    File @abs_top_srcdir@/share/rpcauth/README.md</span>\n     SetOutPath $INSTDIR\\share\\examples\n<span class=\"pl-md\"><span class=\"pl-md\">-</span>    File @abs_top_srcdir@/share\\examples\\bitcoin.conf</span>\n<span class=\"pl-mi1\"><span class=\"pl-mi1\">+</span>    File @abs_top_srcdir@/share/examples/bitcoin.conf</span>\n     SetOutPath $INSTDIR\\daemon\n     File @abs_top_builddir@/release/@BITCOIN_DAEMON_NAME@@EXEEXT@\n     File @abs_top_builddir@/release/@BITCOIN_CLI_NAME@@EXEEXT@</pre></div>",
    "body_text": "This diff seem required:\n--- a/share/setup.nsi.in\n+++ b/share/setup.nsi.in\n@@ -76,9 +76,10 @@ Section -Main SEC0000\n     File /oname=COPYING.txt @abs_top_srcdir@/COPYING\n     File /oname=readme.txt @abs_top_srcdir@/doc/README_windows.txt\n     SetOutPath $INSTDIR\\share\\rpcauth\n-    File /r /x @abs_top_srcdir@/share\\rpcauth\\*.*\n+    File @abs_top_srcdir@/share/rpcauth/rpcauth.py\n+    File @abs_top_srcdir@/share/rpcauth/README.md\n     SetOutPath $INSTDIR\\share\\examples\n-    File @abs_top_srcdir@/share\\examples\\bitcoin.conf\n+    File @abs_top_srcdir@/share/examples/bitcoin.conf\n     SetOutPath $INSTDIR\\daemon\n     File @abs_top_builddir@/release/@BITCOIN_DAEMON_NAME@@EXEEXT@\n     File @abs_top_builddir@/release/@BITCOIN_CLI_NAME@@EXEEXT@",
    "body": "This diff seem required:\r\n```diff\r\n--- a/share/setup.nsi.in\r\n+++ b/share/setup.nsi.in\r\n@@ -76,9 +76,10 @@ Section -Main SEC0000\r\n     File /oname=COPYING.txt @abs_top_srcdir@/COPYING\r\n     File /oname=readme.txt @abs_top_srcdir@/doc/README_windows.txt\r\n     SetOutPath $INSTDIR\\share\\rpcauth\r\n-    File /r /x @abs_top_srcdir@/share\\rpcauth\\*.*\r\n+    File @abs_top_srcdir@/share/rpcauth/rpcauth.py\r\n+    File @abs_top_srcdir@/share/rpcauth/README.md\r\n     SetOutPath $INSTDIR\\share\\examples\r\n-    File @abs_top_srcdir@/share\\examples\\bitcoin.conf\r\n+    File @abs_top_srcdir@/share/examples/bitcoin.conf\r\n     SetOutPath $INSTDIR\\daemon\r\n     File @abs_top_builddir@/release/@BITCOIN_DAEMON_NAME@@EXEEXT@\r\n     File @abs_top_builddir@/release/@BITCOIN_CLI_NAME@@EXEEXT@\r\n```",
    "reactions": {
      "url": "https://api.github.com/repos/bitcoin/bitcoin/issues/comments/1216393834/reactions",
      "total_count": 0,
      "+1": 0,
      "-1": 0,
      "laugh": 0,
      "hooray": 0,
      "confused": 0,
      "heart": 0,
      "rocket": 0,
      "eyes": 0
    },
    "performed_via_github_app": null
  },
  {
    "url": "https://api.github.com/repos/bitcoin/bitcoin/issues/comments/1216410580",
    "html_url": "https://github.com/bitcoin/bitcoin/pull/25829#issuecomment-1216410580",
    "issue_url": "https://api.github.com/repos/bitcoin/bitcoin/issues/25829",
    "id": 1216410580,
    "node_id": "IC_kwDOABII585IgPPU",
    "user": {
      "login": "fanquake",
      "id": 863730,
      "node_id": "MDQ6VXNlcjg2MzczMA==",
      "avatar_url": "https://avatars.githubusercontent.com/u/863730?v=4",
      "gravatar_id": "",
      "url": "https://api.github.com/users/fanquake",
      "html_url": "https://github.com/fanquake",
      "followers_url": "https://api.github.com/users/fanquake/followers",
      "following_url": "https://api.github.com/users/fanquake/following{/other_user}",
      "gists_url": "https://api.github.com/users/fanquake/gists{/gist_id}",
      "starred_url": "https://api.github.com/users/fanquake/starred{/owner}{/repo}",
      "subscriptions_url": "https://api.github.com/users/fanquake/subscriptions",
      "organizations_url": "https://api.github.com/users/fanquake/orgs",
      "repos_url": "https://api.github.com/users/fanquake/repos",
      "events_url": "https://api.github.com/users/fanquake/events{/privacy}",
      "received_events_url": "https://api.github.com/users/fanquake/received_events",
      "type": "User",
      "site_admin": false
    },
    "created_at": "2022-08-16T09:47:39Z",
    "updated_at": "2022-08-16T09:47:39Z",
    "author_association": "MEMBER",
    "body_html": "<blockquote>\n<p dir=\"auto\">This diff seem required:</p>\n</blockquote>\n<p dir=\"auto\">Incorporated this, and moved bitcoin.conf to the root of the install directory.</p>",
    "body_text": "This diff seem required:\n\nIncorporated this, and moved bitcoin.conf to the root of the install directory.",
    "body": "> This diff seem required:\r\n\r\nIncorporated this, and moved bitcoin.conf to the root of the install directory.",
    "reactions": {
      "url": "https://api.github.com/repos/bitcoin/bitcoin/issues/comments/1216410580/reactions",
      "total_count": 0,
      "+1": 0,
      "-1": 0,
      "laugh": 0,
      "hooray": 0,
      "confused": 0,
      "heart": 0,
      "rocket": 0,
      "eyes": 0
    },
    "performed_via_github_app": null
  },
  {
    "url": "https://api.github.com/repos/bitcoin/bitcoin/issues/comments/1216415212",
    "html_url": "https://github.com/bitcoin/bitcoin/pull/25829#issuecomment-1216415212",
    "issue_url": "https://api.github.com/repos/bitcoin/bitcoin/issues/25829",
    "id": 1216415212,
    "node_id": "IC_kwDOABII585IgQXs",
    "user": {
      "login": "hebasto",
      "id": 32963518,
      "node_id": "MDQ6VXNlcjMyOTYzNTE4",
      "avatar_url": "https://avatars.githubusercontent.com/u/32963518?v=4",
      "gravatar_id": "",
      "url": "https://api.github.com/users/hebasto",
      "html_url": "https://github.com/hebasto",
      "followers_url": "https://api.github.com/users/hebasto/followers",
      "following_url": "https://api.github.com/users/hebasto/following{/other_user}",
      "gists_url": "https://api.github.com/users/hebasto/gists{/gist_id}",
      "starred_url": "https://api.github.com/users/hebasto/starred{/owner}{/repo}",
      "subscriptions_url": "https://api.github.com/users/hebasto/subscriptions",
      "organizations_url": "https://api.github.com/users/hebasto/orgs",
      "repos_url": "https://api.github.com/users/hebasto/repos",
      "events_url": "https://api.github.com/users/hebasto/events{/privacy}",
      "received_events_url": "https://api.github.com/users/hebasto/received_events",
      "type": "User",
      "site_admin": false
    },
    "created_at": "2022-08-16T09:52:02Z",
    "updated_at": "2022-08-16T09:52:02Z",
    "author_association": "MEMBER",
    "body_html": "<p dir=\"auto\">I've re-read <a href=\"https://nsis.sourceforge.io/Docs/Chapter4.html#file\" rel=\"nofollow\">docs</a>, only <code class=\"notranslate\">/x</code> was wrong:</p>\n<div class=\"highlight highlight-source-diff notranslate position-relative overflow-auto\" dir=\"auto\" data-snippet-clipboard-copy-content=\"--- a/share/setup.nsi.in\n+++ b/share/setup.nsi.in\n@@ -76,7 +76,7 @@ Section -Main SEC0000\n     File /oname=COPYING.txt @abs_top_srcdir@/COPYING\n     File /oname=readme.txt @abs_top_srcdir@/doc/README_windows.txt\n     SetOutPath $INSTDIR\\share\\rpcauth\n-    File /r /x @abs_top_srcdir@/share\\rpcauth\\*.*\n+    File /r @abs_top_srcdir@/share\\rpcauth\n     SetOutPath $INSTDIR\\share\\examples\n     File @abs_top_srcdir@/share\\examples\\bitcoin.conf\n     SetOutPath $INSTDIR\\daemon\"><pre class=\"notranslate\"><span class=\"pl-md\">--- a/share/setup.nsi.in</span>\n<span class=\"pl-mi1\">+++ b/share/setup.nsi.in</span>\n<span class=\"pl-mdr\">@@ -76,7 +76,7 @@</span> Section -Main SEC0000\n     File /oname=COPYING.txt @abs_top_srcdir@/COPYING\n     File /oname=readme.txt @abs_top_srcdir@/doc/README_windows.txt\n     SetOutPath $INSTDIR\\share\\rpcauth\n<span class=\"pl-md\"><span class=\"pl-md\">-</span>    File /r /x @abs_top_srcdir@/share\\rpcauth\\*.*</span>\n<span class=\"pl-mi1\"><span class=\"pl-mi1\">+</span>    File /r @abs_top_srcdir@/share\\rpcauth</span>\n     SetOutPath $INSTDIR\\share\\examples\n     File @abs_top_srcdir@/share\\examples\\bitcoin.conf\n     SetOutPath $INSTDIR\\daemon</pre></div>",
    "body_text": "I've re-read docs, only /x was wrong:\n--- a/share/setup.nsi.in\n+++ b/share/setup.nsi.in\n@@ -76,7 +76,7 @@ Section -Main SEC0000\n     File /oname=COPYING.txt @abs_top_srcdir@/COPYING\n     File /oname=readme.txt @abs_top_srcdir@/doc/README_windows.txt\n     SetOutPath $INSTDIR\\share\\rpcauth\n-    File /r /x @abs_top_srcdir@/share\\rpcauth\\*.*\n+    File /r @abs_top_srcdir@/share\\rpcauth\n     SetOutPath $INSTDIR\\share\\examples\n     File @abs_top_srcdir@/share\\examples\\bitcoin.conf\n     SetOutPath $INSTDIR\\daemon",
    "body": "I've re-read [docs](https://nsis.sourceforge.io/Docs/Chapter4.html#file), only `/x` was wrong:\r\n```diff\r\n--- a/share/setup.nsi.in\r\n+++ b/share/setup.nsi.in\r\n@@ -76,7 +76,7 @@ Section -Main SEC0000\r\n     File /oname=COPYING.txt @abs_top_srcdir@/COPYING\r\n     File /oname=readme.txt @abs_top_srcdir@/doc/README_windows.txt\r\n     SetOutPath $INSTDIR\\share\\rpcauth\r\n-    File /r /x @abs_top_srcdir@/share\\rpcauth\\*.*\r\n+    File /r @abs_top_srcdir@/share\\rpcauth\r\n     SetOutPath $INSTDIR\\share\\examples\r\n     File @abs_top_srcdir@/share\\examples\\bitcoin.conf\r\n     SetOutPath $INSTDIR\\daemon\r\n```",
    "reactions": {
      "url": "https://api.github.com/repos/bitcoin/bitcoin/issues/comments/1216415212/reactions",
      "total_count": 0,
      "+1": 0,
      "-1": 0,
      "laugh": 0,
      "hooray": 0,
      "confused": 0,
      "heart": 0,
      "rocket": 0,
      "eyes": 0
    },
    "performed_via_github_app": null
  },
  {
    "url": "https://api.github.com/repos/bitcoin/bitcoin/issues/comments/1216433887",
    "html_url": "https://github.com/bitcoin/bitcoin/pull/25829#issuecomment-1216433887",
    "issue_url": "https://api.github.com/repos/bitcoin/bitcoin/issues/25829",
    "id": 1216433887,
    "node_id": "IC_kwDOABII585IgU7f",
    "user": {
      "login": "hebasto",
      "id": 32963518,
      "node_id": "MDQ6VXNlcjMyOTYzNTE4",
      "avatar_url": "https://avatars.githubusercontent.com/u/32963518?v=4",
      "gravatar_id": "",
      "url": "https://api.github.com/users/hebasto",
      "html_url": "https://github.com/hebasto",
      "followers_url": "https://api.github.com/users/hebasto/followers",
      "following_url": "https://api.github.com/users/hebasto/following{/other_user}",
      "gists_url": "https://api.github.com/users/hebasto/gists{/gist_id}",
      "starred_url": "https://api.github.com/users/hebasto/starred{/owner}{/repo}",
      "subscriptions_url": "https://api.github.com/users/hebasto/subscriptions",
      "organizations_url": "https://api.github.com/users/hebasto/orgs",
      "repos_url": "https://api.github.com/users/hebasto/repos",
      "events_url": "https://api.github.com/users/hebasto/events{/privacy}",
      "received_events_url": "https://api.github.com/users/hebasto/received_events",
      "type": "User",
      "site_admin": false
    },
    "created_at": "2022-08-16T10:09:07Z",
    "updated_at": "2022-08-16T10:09:07Z",
    "author_association": "MEMBER",
    "body_html": "<p dir=\"auto\">Guix build on <code class=\"notranslate\">x86_64</code>:</p>\n<div class=\"snippet-clipboard-content notranslate position-relative overflow-auto\" data-snippet-clipboard-copy-content=\"b5b4b56ec4dca620c099846e583cfb5c5c6421e17009bddc49edb678136e92eb  guix-build-3741c1c7fb5f/output/dist-archive/bitcoin-3741c1c7fb5f.tar.gz\n565dba01ac1426acd7b20d9937c4ced1c3181de530e96a398afd624dc199a6f0  guix-build-3741c1c7fb5f/output/x86_64-w64-mingw32/SHA256SUMS.part\n28fd51e1a39af3260e39e984e0f02e27f772db28e728df4a8cc20d9f74cd90d4  guix-build-3741c1c7fb5f/output/x86_64-w64-mingw32/bitcoin-3741c1c7fb5f-win64-debug.zip\n55d7799584daf317011f3b8bfd0ec11769f75d0caa4b7736fe59be25b6b7861e  guix-build-3741c1c7fb5f/output/x86_64-w64-mingw32/bitcoin-3741c1c7fb5f-win64-setup-unsigned.exe\n88186964d0d71d53e3d5b22f4d1ecfc54fc992aae46b6484d156071a6960afe4  guix-build-3741c1c7fb5f/output/x86_64-w64-mingw32/bitcoin-3741c1c7fb5f-win64-unsigned.tar.gz\nc668b5b8a0439a6b5c81c0ac994c3fc8424d5e74ac152fe78c372793ea6d30e4  guix-build-3741c1c7fb5f/output/x86_64-w64-mingw32/bitcoin-3741c1c7fb5f-win64.zip\"><pre class=\"notranslate\"><code class=\"notranslate\">b5b4b56ec4dca620c099846e583cfb5c5c6421e17009bddc49edb678136e92eb  guix-build-3741c1c7fb5f/output/dist-archive/bitcoin-3741c1c7fb5f.tar.gz\n565dba01ac1426acd7b20d9937c4ced1c3181de530e96a398afd624dc199a6f0  guix-build-3741c1c7fb5f/output/x86_64-w64-mingw32/SHA256SUMS.part\n28fd51e1a39af3260e39e984e0f02e27f772db28e728df4a8cc20d9f74cd90d4  guix-build-3741c1c7fb5f/output/x86_64-w64-mingw32/bitcoin-3741c1c7fb5f-win64-debug.zip\n55d7799584daf317011f3b8bfd0ec11769f75d0caa4b7736fe59be25b6b7861e  guix-build-3741c1c7fb5f/output/x86_64-w64-mingw32/bitcoin-3741c1c7fb5f-win64-setup-unsigned.exe\n88186964d0d71d53e3d5b22f4d1ecfc54fc992aae46b6484d156071a6960afe4  guix-build-3741c1c7fb5f/output/x86_64-w64-mingw32/bitcoin-3741c1c7fb5f-win64-unsigned.tar.gz\nc668b5b8a0439a6b5c81c0ac994c3fc8424d5e74ac152fe78c372793ea6d30e4  guix-build-3741c1c7fb5f/output/x86_64-w64-mingw32/bitcoin-3741c1c7fb5f-win64.zip\n</code></pre></div>",
    "body_text": "Guix build on x86_64:\nb5b4b56ec4dca620c099846e583cfb5c5c6421e17009bddc49edb678136e92eb  guix-build-3741c1c7fb5f/output/dist-archive/bitcoin-3741c1c7fb5f.tar.gz\n565dba01ac1426acd7b20d9937c4ced1c3181de530e96a398afd624dc199a6f0  guix-build-3741c1c7fb5f/output/x86_64-w64-mingw32/SHA256SUMS.part\n28fd51e1a39af3260e39e984e0f02e27f772db28e728df4a8cc20d9f74cd90d4  guix-build-3741c1c7fb5f/output/x86_64-w64-mingw32/bitcoin-3741c1c7fb5f-win64-debug.zip\n55d7799584daf317011f3b8bfd0ec11769f75d0caa4b7736fe59be25b6b7861e  guix-build-3741c1c7fb5f/output/x86_64-w64-mingw32/bitcoin-3741c1c7fb5f-win64-setup-unsigned.exe\n88186964d0d71d53e3d5b22f4d1ecfc54fc992aae46b6484d156071a6960afe4  guix-build-3741c1c7fb5f/output/x86_64-w64-mingw32/bitcoin-3741c1c7fb5f-win64-unsigned.tar.gz\nc668b5b8a0439a6b5c81c0ac994c3fc8424d5e74ac152fe78c372793ea6d30e4  guix-build-3741c1c7fb5f/output/x86_64-w64-mingw32/bitcoin-3741c1c7fb5f-win64.zip",
    "body": "Guix build on `x86_64`:\r\n```\r\nb5b4b56ec4dca620c099846e583cfb5c5c6421e17009bddc49edb678136e92eb  guix-build-3741c1c7fb5f/output/dist-archive/bitcoin-3741c1c7fb5f.tar.gz\r\n565dba01ac1426acd7b20d9937c4ced1c3181de530e96a398afd624dc199a6f0  guix-build-3741c1c7fb5f/output/x86_64-w64-mingw32/SHA256SUMS.part\r\n28fd51e1a39af3260e39e984e0f02e27f772db28e728df4a8cc20d9f74cd90d4  guix-build-3741c1c7fb5f/output/x86_64-w64-mingw32/bitcoin-3741c1c7fb5f-win64-debug.zip\r\n55d7799584daf317011f3b8bfd0ec11769f75d0caa4b7736fe59be25b6b7861e  guix-build-3741c1c7fb5f/output/x86_64-w64-mingw32/bitcoin-3741c1c7fb5f-win64-setup-unsigned.exe\r\n88186964d0d71d53e3d5b22f4d1ecfc54fc992aae46b6484d156071a6960afe4  guix-build-3741c1c7fb5f/output/x86_64-w64-mingw32/bitcoin-3741c1c7fb5f-win64-unsigned.tar.gz\r\nc668b5b8a0439a6b5c81c0ac994c3fc8424d5e74ac152fe78c372793ea6d30e4  guix-build-3741c1c7fb5f/output/x86_64-w64-mingw32/bitcoin-3741c1c7fb5f-win64.zip\r\n```",
    "reactions": {
      "url": "https://api.github.com/repos/bitcoin/bitcoin/issues/comments/1216433887/reactions",
      "total_count": 0,
      "+1": 0,
      "-1": 0,
      "laugh": 0,
      "hooray": 0,
      "confused": 0,
      "heart": 0,
      "rocket": 0,
      "eyes": 0
    },
    "performed_via_github_app": null
  },
  {
    "url": "https://api.github.com/repos/bitcoin/bitcoin/issues/comments/1216457227",
    "html_url": "https://github.com/bitcoin/bitcoin/pull/25829#issuecomment-1216457227",
    "issue_url": "https://api.github.com/repos/bitcoin/bitcoin/issues/25829",
    "id": 1216457227,
    "node_id": "IC_kwDOABII585IgaoL",
    "user": {
      "login": "hebasto",
      "id": 32963518,
      "node_id": "MDQ6VXNlcjMyOTYzNTE4",
      "avatar_url": "https://avatars.githubusercontent.com/u/32963518?v=4",
      "gravatar_id": "",
      "url": "https://api.github.com/users/hebasto",
      "html_url": "https://github.com/hebasto",
      "followers_url": "https://api.github.com/users/hebasto/followers",
      "following_url": "https://api.github.com/users/hebasto/following{/other_user}",
      "gists_url": "https://api.github.com/users/hebasto/gists{/gist_id}",
      "starred_url": "https://api.github.com/users/hebasto/starred{/owner}{/repo}",
      "subscriptions_url": "https://api.github.com/users/hebasto/subscriptions",
      "organizations_url": "https://api.github.com/users/hebasto/orgs",
      "repos_url": "https://api.github.com/users/hebasto/repos",
      "events_url": "https://api.github.com/users/hebasto/events{/privacy}",
      "received_events_url": "https://api.github.com/users/hebasto/received_events",
      "type": "User",
      "site_admin": false
    },
    "created_at": "2022-08-16T10:31:23Z",
    "updated_at": "2022-08-16T10:31:23Z",
    "author_association": "MEMBER",
    "body_html": "<p dir=\"auto\">The following patch fixes <code class=\"notranslate\">share\\rpcauth\\rpcauth</code> path:</p>\n<div class=\"highlight highlight-source-diff notranslate position-relative overflow-auto\" dir=\"auto\" data-snippet-clipboard-copy-content=\"--- a/share/setup.nsi.in\n+++ b/share/setup.nsi.in\n@@ -77,7 +77,7 @@ Section -Main SEC0000\n     File /oname=readme.txt @abs_top_srcdir@/doc/README_windows.txt\n     File @abs_top_srcdir@/share/examples/bitcoin.conf\n     SetOutPath $INSTDIR\\share\\rpcauth\n-    File /r @abs_top_srcdir@/share\\rpcauth\n+    File @abs_top_srcdir@/share/rpcauth/*.*\n     SetOutPath $INSTDIR\\daemon\n     File @abs_top_builddir@/release/@BITCOIN_DAEMON_NAME@@EXEEXT@\n     File @abs_top_builddir@/release/@BITCOIN_CLI_NAME@@EXEEXT@\"><pre class=\"notranslate\"><span class=\"pl-md\">--- a/share/setup.nsi.in</span>\n<span class=\"pl-mi1\">+++ b/share/setup.nsi.in</span>\n<span class=\"pl-mdr\">@@ -77,7 +77,7 @@</span> Section -Main SEC0000\n     File /oname=readme.txt @abs_top_srcdir@/doc/README_windows.txt\n     File @abs_top_srcdir@/share/examples/bitcoin.conf\n     SetOutPath $INSTDIR\\share\\rpcauth\n<span class=\"pl-md\"><span class=\"pl-md\">-</span>    File /r @abs_top_srcdir@/share\\rpcauth</span>\n<span class=\"pl-mi1\"><span class=\"pl-mi1\">+</span>    File @abs_top_srcdir@/share/rpcauth/*.*</span>\n     SetOutPath $INSTDIR\\daemon\n     File @abs_top_builddir@/release/@BITCOIN_DAEMON_NAME@@EXEEXT@\n     File @abs_top_builddir@/release/@BITCOIN_CLI_NAME@@EXEEXT@</pre></div>\n<p dir=\"auto\">I'm really sorry about the mess I created in this PR.</p>",
    "body_text": "The following patch fixes share\\rpcauth\\rpcauth path:\n--- a/share/setup.nsi.in\n+++ b/share/setup.nsi.in\n@@ -77,7 +77,7 @@ Section -Main SEC0000\n     File /oname=readme.txt @abs_top_srcdir@/doc/README_windows.txt\n     File @abs_top_srcdir@/share/examples/bitcoin.conf\n     SetOutPath $INSTDIR\\share\\rpcauth\n-    File /r @abs_top_srcdir@/share\\rpcauth\n+    File @abs_top_srcdir@/share/rpcauth/*.*\n     SetOutPath $INSTDIR\\daemon\n     File @abs_top_builddir@/release/@BITCOIN_DAEMON_NAME@@EXEEXT@\n     File @abs_top_builddir@/release/@BITCOIN_CLI_NAME@@EXEEXT@\nI'm really sorry about the mess I created in this PR.",
    "body": "The following patch fixes `share\\rpcauth\\rpcauth` path:\r\n```diff\r\n--- a/share/setup.nsi.in\r\n+++ b/share/setup.nsi.in\r\n@@ -77,7 +77,7 @@ Section -Main SEC0000\r\n     File /oname=readme.txt @abs_top_srcdir@/doc/README_windows.txt\r\n     File @abs_top_srcdir@/share/examples/bitcoin.conf\r\n     SetOutPath $INSTDIR\\share\\rpcauth\r\n-    File /r @abs_top_srcdir@/share\\rpcauth\r\n+    File @abs_top_srcdir@/share/rpcauth/*.*\r\n     SetOutPath $INSTDIR\\daemon\r\n     File @abs_top_builddir@/release/@BITCOIN_DAEMON_NAME@@EXEEXT@\r\n     File @abs_top_builddir@/release/@BITCOIN_CLI_NAME@@EXEEXT@\r\n```\r\n\r\nI'm really sorry about the mess I created in this PR.",
    "reactions": {
      "url": "https://api.github.com/repos/bitcoin/bitcoin/issues/comments/1216457227/reactions",
      "total_count": 0,
      "+1": 0,
      "-1": 0,
      "laugh": 0,
      "hooray": 0,
      "confused": 0,
      "heart": 0,
      "rocket": 0,
      "eyes": 0
    },
    "performed_via_github_app": null
  },
  {
    "url": "https://api.github.com/repos/bitcoin/bitcoin/issues/comments/1219715697",
    "html_url": "https://github.com/bitcoin/bitcoin/pull/25829#issuecomment-1219715697",
    "issue_url": "https://api.github.com/repos/bitcoin/bitcoin/issues/25829",
    "id": 1219715697,
    "node_id": "IC_kwDOABII585Is2Jx",
    "user": {
      "login": "jarolrod",
      "id": 23396902,
      "node_id": "MDQ6VXNlcjIzMzk2OTAy",
      "avatar_url": "https://avatars.githubusercontent.com/u/23396902?v=4",
      "gravatar_id": "",
      "url": "https://api.github.com/users/jarolrod",
      "html_url": "https://github.com/jarolrod",
      "followers_url": "https://api.github.com/users/jarolrod/followers",
      "following_url": "https://api.github.com/users/jarolrod/following{/other_user}",
      "gists_url": "https://api.github.com/users/jarolrod/gists{/gist_id}",
      "starred_url": "https://api.github.com/users/jarolrod/starred{/owner}{/repo}",
      "subscriptions_url": "https://api.github.com/users/jarolrod/subscriptions",
      "organizations_url": "https://api.github.com/users/jarolrod/orgs",
      "repos_url": "https://api.github.com/users/jarolrod/repos",
      "events_url": "https://api.github.com/users/jarolrod/events{/privacy}",
      "received_events_url": "https://api.github.com/users/jarolrod/received_events",
      "type": "User",
      "site_admin": false
    },
    "created_at": "2022-08-18T16:50:35Z",
    "updated_at": "2022-08-18T16:50:35Z",
    "author_association": "MEMBER",
    "body_html": "<p dir=\"auto\">Post merge tACK</p>\n<p dir=\"auto\">guix hashes:</p>\n<div class=\"snippet-clipboard-content notranslate position-relative overflow-auto\" data-snippet-clipboard-copy-content=\"$ find guix-build-$(git rev-parse --short=12 HEAD)/output/ -type f -print0 | env LC_ALL=C sort -z | xargs -r0 sha256sum\n\n01cc3a078a952ed9bbff38e79bad4885a5f8502906498f7b909cb2cc798ada64  guix-build-495caa9a0149/output/dist-archive/bitcoin-495caa9a0149.tar.gz\nbbd6490489ddfde06b6cde602d317d84c09495de3cf033016ea0ba5e60770fdb  guix-build-495caa9a0149/output/x86_64-w64-mingw32/SHA256SUMS.part\nf48f6efcf5822517a697d990eddbc03011b08c5e4be4886e25ab65c8a0951aaa  guix-build-495caa9a0149/output/x86_64-w64-mingw32/bitcoin-495caa9a0149-win64-debug.zip\nb1a83e58d7b316c4743ae16d552f615aa710a4985ded5834d1de6fe6437ca3b2  guix-build-495caa9a0149/output/x86_64-w64-mingw32/bitcoin-495caa9a0149-win64-setup-unsigned.exe\n0196abf8cb27f3cb03b4688a85a97c26975db4938f7a2dc0a09f11847f6530bb  guix-build-495caa9a0149/output/x86_64-w64-mingw32/bitcoin-495caa9a0149-win64-unsigned.tar.gz\n426994640e85f82b3d3bee25f07930f952edf4a60ecd7ba41f83c82cbbcc63d1  guix-build-495caa9a0149/output/x86_64-w64-mingw32/bitcoin-495caa9a0149-win64.zip\"><pre class=\"notranslate\"><code class=\"notranslate\">$ find guix-build-$(git rev-parse --short=12 HEAD)/output/ -type f -print0 | env LC_ALL=C sort -z | xargs -r0 sha256sum\n\n01cc3a078a952ed9bbff38e79bad4885a5f8502906498f7b909cb2cc798ada64  guix-build-495caa9a0149/output/dist-archive/bitcoin-495caa9a0149.tar.gz\nbbd6490489ddfde06b6cde602d317d84c09495de3cf033016ea0ba5e60770fdb  guix-build-495caa9a0149/output/x86_64-w64-mingw32/SHA256SUMS.part\nf48f6efcf5822517a697d990eddbc03011b08c5e4be4886e25ab65c8a0951aaa  guix-build-495caa9a0149/output/x86_64-w64-mingw32/bitcoin-495caa9a0149-win64-debug.zip\nb1a83e58d7b316c4743ae16d552f615aa710a4985ded5834d1de6fe6437ca3b2  guix-build-495caa9a0149/output/x86_64-w64-mingw32/bitcoin-495caa9a0149-win64-setup-unsigned.exe\n0196abf8cb27f3cb03b4688a85a97c26975db4938f7a2dc0a09f11847f6530bb  guix-build-495caa9a0149/output/x86_64-w64-mingw32/bitcoin-495caa9a0149-win64-unsigned.tar.gz\n426994640e85f82b3d3bee25f07930f952edf4a60ecd7ba41f83c82cbbcc63d1  guix-build-495caa9a0149/output/x86_64-w64-mingw32/bitcoin-495caa9a0149-win64.zip\n</code></pre></div>",
    "body_text": "Post merge tACK\nguix hashes:\n$ find guix-build-$(git rev-parse --short=12 HEAD)/output/ -type f -print0 | env LC_ALL=C sort -z | xargs -r0 sha256sum\n\n01cc3a078a952ed9bbff38e79bad4885a5f8502906498f7b909cb2cc798ada64  guix-build-495caa9a0149/output/dist-archive/bitcoin-495caa9a0149.tar.gz\nbbd6490489ddfde06b6cde602d317d84c09495de3cf033016ea0ba5e60770fdb  guix-build-495caa9a0149/output/x86_64-w64-mingw32/SHA256SUMS.part\nf48f6efcf5822517a697d990eddbc03011b08c5e4be4886e25ab65c8a0951aaa  guix-build-495caa9a0149/output/x86_64-w64-mingw32/bitcoin-495caa9a0149-win64-debug.zip\nb1a83e58d7b316c4743ae16d552f615aa710a4985ded5834d1de6fe6437ca3b2  guix-build-495caa9a0149/output/x86_64-w64-mingw32/bitcoin-495caa9a0149-win64-setup-unsigned.exe\n0196abf8cb27f3cb03b4688a85a97c26975db4938f7a2dc0a09f11847f6530bb  guix-build-495caa9a0149/output/x86_64-w64-mingw32/bitcoin-495caa9a0149-win64-unsigned.tar.gz\n426994640e85f82b3d3bee25f07930f952edf4a60ecd7ba41f83c82cbbcc63d1  guix-build-495caa9a0149/output/x86_64-w64-mingw32/bitcoin-495caa9a0149-win64.zip",
    "body": "Post merge tACK\r\n\r\nguix hashes: \r\n```\r\n$ find guix-build-$(git rev-parse --short=12 HEAD)/output/ -type f -print0 | env LC_ALL=C sort -z | xargs -r0 sha256sum\r\n\r\n01cc3a078a952ed9bbff38e79bad4885a5f8502906498f7b909cb2cc798ada64  guix-build-495caa9a0149/output/dist-archive/bitcoin-495caa9a0149.tar.gz\r\nbbd6490489ddfde06b6cde602d317d84c09495de3cf033016ea0ba5e60770fdb  guix-build-495caa9a0149/output/x86_64-w64-mingw32/SHA256SUMS.part\r\nf48f6efcf5822517a697d990eddbc03011b08c5e4be4886e25ab65c8a0951aaa  guix-build-495caa9a0149/output/x86_64-w64-mingw32/bitcoin-495caa9a0149-win64-debug.zip\r\nb1a83e58d7b316c4743ae16d552f615aa710a4985ded5834d1de6fe6437ca3b2  guix-build-495caa9a0149/output/x86_64-w64-mingw32/bitcoin-495caa9a0149-win64-setup-unsigned.exe\r\n0196abf8cb27f3cb03b4688a85a97c26975db4938f7a2dc0a09f11847f6530bb  guix-build-495caa9a0149/output/x86_64-w64-mingw32/bitcoin-495caa9a0149-win64-unsigned.tar.gz\r\n426994640e85f82b3d3bee25f07930f952edf4a60ecd7ba41f83c82cbbcc63d1  guix-build-495caa9a0149/output/x86_64-w64-mingw32/bitcoin-495caa9a0149-win64.zip\r\n```",
    "reactions": {
      "url": "https://api.github.com/repos/bitcoin/bitcoin/issues/comments/1219715697/reactions",
      "total_count": 0,
      "+1": 0,
      "-1": 0,
      "laugh": 0,
      "hooray": 0,
      "confused": 0,
      "heart": 0,
      "rocket": 0,
      "eyes": 0
    },
    "performed_via_github_app": null
  }
]
