[
  {
    "url": "https://api.github.com/repos/bitcoin/bitcoin/issues/comments/662481541",
    "html_url": "https://github.com/bitcoin/bitcoin/pull/19567#issuecomment-662481541",
    "issue_url": "https://api.github.com/repos/bitcoin/bitcoin/issues/19567",
    "id": 662481541,
    "node_id": "MDEyOklzc3VlQ29tbWVudDY2MjQ4MTU0MQ==",
    "user": {
      "login": "DrahtBot",
      "id": 39886733,
      "node_id": "MDQ6VXNlcjM5ODg2NzMz",
      "avatar_url": "https://avatars.githubusercontent.com/u/39886733?v=4",
      "gravatar_id": "",
      "url": "https://api.github.com/users/DrahtBot",
      "html_url": "https://github.com/DrahtBot",
      "followers_url": "https://api.github.com/users/DrahtBot/followers",
      "following_url": "https://api.github.com/users/DrahtBot/following{/other_user}",
      "gists_url": "https://api.github.com/users/DrahtBot/gists{/gist_id}",
      "starred_url": "https://api.github.com/users/DrahtBot/starred{/owner}{/repo}",
      "subscriptions_url": "https://api.github.com/users/DrahtBot/subscriptions",
      "organizations_url": "https://api.github.com/users/DrahtBot/orgs",
      "repos_url": "https://api.github.com/users/DrahtBot/repos",
      "events_url": "https://api.github.com/users/DrahtBot/events{/privacy}",
      "received_events_url": "https://api.github.com/users/DrahtBot/received_events",
      "type": "User",
      "site_admin": false
    },
    "created_at": "2020-07-22T14:20:04Z",
    "updated_at": "2020-07-22T23:00:41Z",
    "author_association": "CONTRIBUTOR",
    "body_html": "\n<p dir=\"auto\">The following sections might be updated with supplementary metadata relevant to reviewers and maintainers.</p>\n\n<h3 dir=\"auto\">Conflicts</h3>\n<p dir=\"auto\">Reviewers, this pull request conflicts with the following ones:</p>\n<ul dir=\"auto\">\n<li><a class=\"issue-link js-issue-link\" data-error-text=\"Failed to load title\" data-id=\"655575257\" data-permission-text=\"Title is private\" data-url=\"https://github.com/bitcoin/bitcoin/issues/19503\" data-hovercard-type=\"pull_request\" data-hovercard-url=\"/bitcoin/bitcoin/pull/19503/hovercard\" href=\"https://github.com/bitcoin/bitcoin/pull/19503\">#19503</a> (Add parameter feature to serialization and use it for CAddress by sipa)</li>\n<li><a class=\"issue-link js-issue-link\" data-error-text=\"Failed to load title\" data-id=\"619587978\" data-permission-text=\"Title is private\" data-url=\"https://github.com/bitcoin/bitcoin/issues/18991\" data-hovercard-type=\"pull_request\" data-hovercard-url=\"/bitcoin/bitcoin/pull/18991/hovercard\" href=\"https://github.com/bitcoin/bitcoin/pull/18991\">#18991</a> (Cache responses to GETADDR to prevent topology leaks by naumenkogs)</li>\n</ul>\n<p dir=\"auto\">If you consider this pull request important, please also help to review the conflicting pull requests. Ideally, start with the one that should be merged first.</p>",
    "body_text": "The following sections might be updated with supplementary metadata relevant to reviewers and maintainers.\n\nConflicts\nReviewers, this pull request conflicts with the following ones:\n\n#19503 (Add parameter feature to serialization and use it for CAddress by sipa)\n#18991 (Cache responses to GETADDR to prevent topology leaks by naumenkogs)\n\nIf you consider this pull request important, please also help to review the conflicting pull requests. Ideally, start with the one that should be merged first.",
    "body": "<!--e57a25ab6845829454e8d69fc972939a-->\n\nThe following sections might be updated with supplementary metadata relevant to reviewers and maintainers.\n\n<!--174a7506f384e20aa4161008e828411d-->\n### Conflicts\nReviewers, this pull request conflicts with the following ones:\n\n* #19503 (Add parameter feature to serialization and use it for CAddress by sipa)\n* #18991 (Cache responses to GETADDR to prevent topology leaks by naumenkogs)\n\nIf you consider this pull request important, please also help to review the conflicting pull requests. Ideally, start with the one that should be merged first.",
    "reactions": {
      "url": "https://api.github.com/repos/bitcoin/bitcoin/issues/comments/662481541/reactions",
      "total_count": 0,
      "+1": 0,
      "-1": 0,
      "laugh": 0,
      "hooray": 0,
      "confused": 0,
      "heart": 0,
      "rocket": 0,
      "eyes": 0
    },
    "performed_via_github_app": null
  },
  {
    "url": "https://api.github.com/repos/bitcoin/bitcoin/issues/comments/662519787",
    "html_url": "https://github.com/bitcoin/bitcoin/pull/19567#issuecomment-662519787",
    "issue_url": "https://api.github.com/repos/bitcoin/bitcoin/issues/19567",
    "id": 662519787,
    "node_id": "MDEyOklzc3VlQ29tbWVudDY2MjUxOTc4Nw==",
    "user": {
      "login": "laanwj",
      "id": 126646,
      "node_id": "MDQ6VXNlcjEyNjY0Ng==",
      "avatar_url": "https://avatars.githubusercontent.com/u/126646?v=4",
      "gravatar_id": "",
      "url": "https://api.github.com/users/laanwj",
      "html_url": "https://github.com/laanwj",
      "followers_url": "https://api.github.com/users/laanwj/followers",
      "following_url": "https://api.github.com/users/laanwj/following{/other_user}",
      "gists_url": "https://api.github.com/users/laanwj/gists{/gist_id}",
      "starred_url": "https://api.github.com/users/laanwj/starred{/owner}{/repo}",
      "subscriptions_url": "https://api.github.com/users/laanwj/subscriptions",
      "organizations_url": "https://api.github.com/users/laanwj/orgs",
      "repos_url": "https://api.github.com/users/laanwj/repos",
      "events_url": "https://api.github.com/users/laanwj/events{/privacy}",
      "received_events_url": "https://api.github.com/users/laanwj/received_events",
      "type": "User",
      "site_admin": false
    },
    "created_at": "2020-07-22T15:27:00Z",
    "updated_at": "2020-07-22T15:27:00Z",
    "author_association": "MEMBER",
    "body_html": "<p dir=\"auto\">Code review ACK <a class=\"commit-link\" data-hovercard-type=\"commit\" data-hovercard-url=\"https://github.com/bitcoin/bitcoin/commit/7aad9b2f02d0c62c05134e24b7274c27bb0a4624/hovercard\" href=\"https://github.com/bitcoin/bitcoin/commit/7aad9b2f02d0c62c05134e24b7274c27bb0a4624\"><tt>7aad9b2</tt></a></p>",
    "body_text": "Code review ACK 7aad9b2",
    "body": "Code review ACK 7aad9b2f02d0c62c05134e24b7274c27bb0a4624",
    "reactions": {
      "url": "https://api.github.com/repos/bitcoin/bitcoin/issues/comments/662519787/reactions",
      "total_count": 0,
      "+1": 0,
      "-1": 0,
      "laugh": 0,
      "hooray": 0,
      "confused": 0,
      "heart": 0,
      "rocket": 0,
      "eyes": 0
    },
    "performed_via_github_app": null
  },
  {
    "url": "https://api.github.com/repos/bitcoin/bitcoin/issues/comments/662855486",
    "html_url": "https://github.com/bitcoin/bitcoin/pull/19567#issuecomment-662855486",
    "issue_url": "https://api.github.com/repos/bitcoin/bitcoin/issues/19567",
    "id": 662855486,
    "node_id": "MDEyOklzc3VlQ29tbWVudDY2Mjg1NTQ4Ng==",
    "user": {
      "login": "vasild",
      "id": 266751,
      "node_id": "MDQ6VXNlcjI2Njc1MQ==",
      "avatar_url": "https://avatars.githubusercontent.com/u/266751?v=4",
      "gravatar_id": "",
      "url": "https://api.github.com/users/vasild",
      "html_url": "https://github.com/vasild",
      "followers_url": "https://api.github.com/users/vasild/followers",
      "following_url": "https://api.github.com/users/vasild/following{/other_user}",
      "gists_url": "https://api.github.com/users/vasild/gists{/gist_id}",
      "starred_url": "https://api.github.com/users/vasild/starred{/owner}{/repo}",
      "subscriptions_url": "https://api.github.com/users/vasild/subscriptions",
      "organizations_url": "https://api.github.com/users/vasild/orgs",
      "repos_url": "https://api.github.com/users/vasild/repos",
      "events_url": "https://api.github.com/users/vasild/events{/privacy}",
      "received_events_url": "https://api.github.com/users/vasild/received_events",
      "type": "User",
      "site_admin": false
    },
    "created_at": "2020-07-23T07:17:46Z",
    "updated_at": "2020-07-23T07:17:46Z",
    "author_association": "CONTRIBUTOR",
    "body_html": "<p dir=\"auto\">Amazingly I have the following, almost identical, patch lurking locally! Notice that in this case there are two other magic numbers <code class=\"notranslate\">1000</code> in the code which are not <code class=\"notranslate\">MAX_ADDR_TO_SEND</code>.</p>\n<details>\n<summary>diff</summary>\n<div class=\"highlight highlight-source-diff notranslate position-relative overflow-auto\" dir=\"auto\" data-snippet-clipboard-copy-content=\"diff --git a/src/net.h b/src/net.h\nindex a72af83ee..b059c28f8 100644\n--- a/src/net.h\n+++ b/src/net.h\n@@ -53,13 +53,13 @@ static const int TIMEOUT_INTERVAL = 20 * 60;\n static const int FEELER_INTERVAL = 120;\n /** The maximum number of entries in an 'inv' protocol message */\n static const unsigned int MAX_INV_SZ = 50000;\n /** The maximum number of entries in a locator */\n static const unsigned int MAX_LOCATOR_SZ = 101;\n /** The maximum number of new addresses to accumulate before announcing. */\n-static const unsigned int MAX_ADDR_TO_SEND = 1000;\n+static constexpr size_t MAX_ADDR_TO_SEND = 1000;\n /** Maximum length of incoming protocol messages (no message over 4 MB is currently acceptable). */\n static const unsigned int MAX_PROTOCOL_MESSAGE_LENGTH = 4 * 1000 * 1000;\n /** Maximum length of the user agent string in `version` message */\n static const unsigned int MAX_SUBVERSION_LENGTH = 256;\n /** Maximum number of automatic outgoing nodes over which we'll relay everything (blocks, tx, addrs, etc) */\n static const int MAX_OUTBOUND_FULL_RELAY_CONNECTIONS = 8;\ndiff --git a/src/net_processing.cpp b/src/net_processing.cpp\nindex f63d048aa..5627910ea 100644\n--- a/src/net_processing.cpp\n+++ b/src/net_processing.cpp\n@@ -2059,13 +2059,13 @@ bool ProcessMessage(CNode* pfrom, const std::string&amp; msg_type, CDataStream&amp; vRec\n                     LogPrint(BCLog::NET, &quot;ProcessMessages: advertising address %s\\n&quot;, addr.ToString());\n                     pfrom-&gt;PushAddress(addr, insecure_rand);\n                 }\n             }\n \n             // Get recent addresses\n-            if (pfrom-&gt;fOneShot || pfrom-&gt;nVersion &gt;= CADDR_TIME_VERSION || connman-&gt;GetAddressCount() &lt; 1000)\n+            if (pfrom-&gt;fOneShot || pfrom-&gt;nVersion &gt;= CADDR_TIME_VERSION || connman-&gt;GetAddressCount() &lt; 1000 /* is not MAX_ADDR_TO_SEND */)\n             {\n                 connman-&gt;PushMessage(pfrom, CNetMsgMaker(nSendVersion).Make(NetMsgType::GETADDR));\n                 pfrom-&gt;fGetAddr = true;\n             }\n             connman-&gt;MarkAddressGood(pfrom-&gt;addr);\n         }\n@@ -2154,19 +2154,18 @@ bool ProcessMessage(CNode* pfrom, const std::string&amp; msg_type, CDataStream&amp; vRec\n \n     if (msg_type == NetMsgType::ADDR) {\n         std::vector&lt;CAddress&gt; vAddr;\n         vRecv &gt;&gt; vAddr;\n \n         // Don't want addr from older versions unless seeding\n-        if (pfrom-&gt;nVersion &lt; CADDR_TIME_VERSION &amp;&amp; connman-&gt;GetAddressCount() &gt; 1000)\n+        if (pfrom-&gt;nVersion &lt; CADDR_TIME_VERSION &amp;&amp; connman-&gt;GetAddressCount() &gt; 1000 /* is not MAX_ADDR_TO_SEND */)\n             return true;\n         if (!pfrom-&gt;IsAddrRelayPeer()) {\n             return true;\n         }\n-        if (vAddr.size() &gt; 1000)\n-        {\n+        if (vAddr.size() &gt; MAX_ADDR_TO_SEND) {\n             LOCK(cs_main);\n             Misbehaving(pfrom-&gt;GetId(), 20, strprintf(&quot;message addr size() = %u&quot;, vAddr.size()));\n             return false;\n         }\n \n         // Store the new addresses\n@@ -2196,13 +2195,13 @@ bool ProcessMessage(CNode* pfrom, const std::string&amp; msg_type, CDataStream&amp; vRec\n             }\n             // Do not store addresses outside our network\n             if (fReachable)\n                 vAddrOk.push_back(addr);\n         }\n         connman-&gt;AddNewAddresses(vAddrOk, pfrom-&gt;addr, 2 * 60 * 60);\n-        if (vAddr.size() &lt; 1000)\n+        if (vAddr.size() &lt; MAX_ADDR_TO_SEND)\n             pfrom-&gt;fGetAddr = false;\n         if (pfrom-&gt;fOneShot)\n             pfrom-&gt;fDisconnect = true;\n         return true;\n     }\n \n@@ -3591,22 +3590,22 @@ bool PeerLogicValidation::SendMessages(CNode* pto)\n         //\n         // Message: addr\n         //\n         if (pto-&gt;IsAddrRelayPeer() &amp;&amp; pto-&gt;nNextAddrSend &lt; nNow) {\n             pto-&gt;nNextAddrSend = PoissonNextSend(nNow, AVG_ADDRESS_BROADCAST_INTERVAL);\n             std::vector&lt;CAddress&gt; vAddr;\n-            vAddr.reserve(pto-&gt;vAddrToSend.size());\n+            vAddr.reserve(std::min(pto-&gt;vAddrToSend.size(), MAX_ADDR_TO_SEND));\n             assert(pto-&gt;m_addr_known);\n             for (const CAddress&amp; addr : pto-&gt;vAddrToSend)\n             {\n                 if (!pto-&gt;m_addr_known-&gt;contains(addr.GetKey()))\n                 {\n                     pto-&gt;m_addr_known-&gt;insert(addr.GetKey());\n                     vAddr.push_back(addr);\n-                    // receiver rejects addr messages larger than 1000\n-                    if (vAddr.size() &gt;= 1000)\n+                    // Receiver would reject addr messages with too many addresses in them.\n+                    if (vAddr.size() &gt;= MAX_ADDR_TO_SEND)\n                     {\n                         connman-&gt;PushMessage(pto, msgMaker.Make(NetMsgType::ADDR, vAddr));\n                         vAddr.clear();\n                     }\n                 }\n             }\"><pre class=\"notranslate\"><span class=\"pl-c1\">diff --git a/src/net.h b/src/net.h</span>\nindex a72af83ee..b059c28f8 100644\n<span class=\"pl-md\">--- a/src/net.h</span>\n<span class=\"pl-mi1\">+++ b/src/net.h</span>\n<span class=\"pl-mdr\">@@ -53,13 +53,13 @@</span> static const int TIMEOUT_INTERVAL = 20 * 60;\n static const int FEELER_INTERVAL = 120;\n /** The maximum number of entries in an 'inv' protocol message */\n static const unsigned int MAX_INV_SZ = 50000;\n /** The maximum number of entries in a locator */\n static const unsigned int MAX_LOCATOR_SZ = 101;\n /** The maximum number of new addresses to accumulate before announcing. */\n<span class=\"pl-md\"><span class=\"pl-md\">-</span>static const unsigned int MAX_ADDR_TO_SEND = 1000;</span>\n<span class=\"pl-mi1\"><span class=\"pl-mi1\">+</span>static constexpr size_t MAX_ADDR_TO_SEND = 1000;</span>\n /** Maximum length of incoming protocol messages (no message over 4 MB is currently acceptable). */\n static const unsigned int MAX_PROTOCOL_MESSAGE_LENGTH = 4 * 1000 * 1000;\n /** Maximum length of the user agent string in `version` message */\n static const unsigned int MAX_SUBVERSION_LENGTH = 256;\n /** Maximum number of automatic outgoing nodes over which we'll relay everything (blocks, tx, addrs, etc) */\n static const int MAX_OUTBOUND_FULL_RELAY_CONNECTIONS = 8;\n<span class=\"pl-c1\">diff --git a/src/net_processing.cpp b/src/net_processing.cpp</span>\nindex f63d048aa..5627910ea 100644\n<span class=\"pl-md\">--- a/src/net_processing.cpp</span>\n<span class=\"pl-mi1\">+++ b/src/net_processing.cpp</span>\n<span class=\"pl-mdr\">@@ -2059,13 +2059,13 @@</span> bool ProcessMessage(CNode* pfrom, const std::string&amp; msg_type, CDataStream&amp; vRec\n                     LogPrint(BCLog::NET, \"ProcessMessages: advertising address %s\\n\", addr.ToString());\n                     pfrom-&gt;PushAddress(addr, insecure_rand);\n                 }\n             }\n \n             // Get recent addresses\n<span class=\"pl-md\"><span class=\"pl-md\">-</span>            if (pfrom-&gt;fOneShot || pfrom-&gt;nVersion &gt;= CADDR_TIME_VERSION || connman-&gt;GetAddressCount() &lt; 1000)</span>\n<span class=\"pl-mi1\"><span class=\"pl-mi1\">+</span>            if (pfrom-&gt;fOneShot || pfrom-&gt;nVersion &gt;= CADDR_TIME_VERSION || connman-&gt;GetAddressCount() &lt; 1000 /* is not MAX_ADDR_TO_SEND */)</span>\n             {\n                 connman-&gt;PushMessage(pfrom, CNetMsgMaker(nSendVersion).Make(NetMsgType::GETADDR));\n                 pfrom-&gt;fGetAddr = true;\n             }\n             connman-&gt;MarkAddressGood(pfrom-&gt;addr);\n         }\n<span class=\"pl-mdr\">@@ -2154,19 +2154,18 @@</span> bool ProcessMessage(CNode* pfrom, const std::string&amp; msg_type, CDataStream&amp; vRec\n \n     if (msg_type == NetMsgType::ADDR) {\n         std::vector&lt;CAddress&gt; vAddr;\n         vRecv &gt;&gt; vAddr;\n \n         // Don't want addr from older versions unless seeding\n<span class=\"pl-md\"><span class=\"pl-md\">-</span>        if (pfrom-&gt;nVersion &lt; CADDR_TIME_VERSION &amp;&amp; connman-&gt;GetAddressCount() &gt; 1000)</span>\n<span class=\"pl-mi1\"><span class=\"pl-mi1\">+</span>        if (pfrom-&gt;nVersion &lt; CADDR_TIME_VERSION &amp;&amp; connman-&gt;GetAddressCount() &gt; 1000 /* is not MAX_ADDR_TO_SEND */)</span>\n             return true;\n         if (!pfrom-&gt;IsAddrRelayPeer()) {\n             return true;\n         }\n<span class=\"pl-md\"><span class=\"pl-md\">-</span>        if (vAddr.size() &gt; 1000)</span>\n<span class=\"pl-md\"><span class=\"pl-md\">-</span>        {</span>\n<span class=\"pl-mi1\"><span class=\"pl-mi1\">+</span>        if (vAddr.size() &gt; MAX_ADDR_TO_SEND) {</span>\n             LOCK(cs_main);\n             Misbehaving(pfrom-&gt;GetId(), 20, strprintf(\"message addr size() = %u\", vAddr.size()));\n             return false;\n         }\n \n         // Store the new addresses\n<span class=\"pl-mdr\">@@ -2196,13 +2195,13 @@</span> bool ProcessMessage(CNode* pfrom, const std::string&amp; msg_type, CDataStream&amp; vRec\n             }\n             // Do not store addresses outside our network\n             if (fReachable)\n                 vAddrOk.push_back(addr);\n         }\n         connman-&gt;AddNewAddresses(vAddrOk, pfrom-&gt;addr, 2 * 60 * 60);\n<span class=\"pl-md\"><span class=\"pl-md\">-</span>        if (vAddr.size() &lt; 1000)</span>\n<span class=\"pl-mi1\"><span class=\"pl-mi1\">+</span>        if (vAddr.size() &lt; MAX_ADDR_TO_SEND)</span>\n             pfrom-&gt;fGetAddr = false;\n         if (pfrom-&gt;fOneShot)\n             pfrom-&gt;fDisconnect = true;\n         return true;\n     }\n \n<span class=\"pl-mdr\">@@ -3591,22 +3590,22 @@</span> bool PeerLogicValidation::SendMessages(CNode* pto)\n         //\n         // Message: addr\n         //\n         if (pto-&gt;IsAddrRelayPeer() &amp;&amp; pto-&gt;nNextAddrSend &lt; nNow) {\n             pto-&gt;nNextAddrSend = PoissonNextSend(nNow, AVG_ADDRESS_BROADCAST_INTERVAL);\n             std::vector&lt;CAddress&gt; vAddr;\n<span class=\"pl-md\"><span class=\"pl-md\">-</span>            vAddr.reserve(pto-&gt;vAddrToSend.size());</span>\n<span class=\"pl-mi1\"><span class=\"pl-mi1\">+</span>            vAddr.reserve(std::min(pto-&gt;vAddrToSend.size(), MAX_ADDR_TO_SEND));</span>\n             assert(pto-&gt;m_addr_known);\n             for (const CAddress&amp; addr : pto-&gt;vAddrToSend)\n             {\n                 if (!pto-&gt;m_addr_known-&gt;contains(addr.GetKey()))\n                 {\n                     pto-&gt;m_addr_known-&gt;insert(addr.GetKey());\n                     vAddr.push_back(addr);\n<span class=\"pl-md\"><span class=\"pl-md\">-</span>                    // receiver rejects addr messages larger than 1000</span>\n<span class=\"pl-md\"><span class=\"pl-md\">-</span>                    if (vAddr.size() &gt;= 1000)</span>\n<span class=\"pl-mi1\"><span class=\"pl-mi1\">+</span>                    // Receiver would reject addr messages with too many addresses in them.</span>\n<span class=\"pl-mi1\"><span class=\"pl-mi1\">+</span>                    if (vAddr.size() &gt;= MAX_ADDR_TO_SEND)</span>\n                     {\n                         connman-&gt;PushMessage(pto, msgMaker.Make(NetMsgType::ADDR, vAddr));\n                         vAddr.clear();\n                     }\n                 }\n             }</pre></div>\n</details>",
    "body_text": "Amazingly I have the following, almost identical, patch lurking locally! Notice that in this case there are two other magic numbers 1000 in the code which are not MAX_ADDR_TO_SEND.\n\ndiff\ndiff --git a/src/net.h b/src/net.h\nindex a72af83ee..b059c28f8 100644\n--- a/src/net.h\n+++ b/src/net.h\n@@ -53,13 +53,13 @@ static const int TIMEOUT_INTERVAL = 20 * 60;\n static const int FEELER_INTERVAL = 120;\n /** The maximum number of entries in an 'inv' protocol message */\n static const unsigned int MAX_INV_SZ = 50000;\n /** The maximum number of entries in a locator */\n static const unsigned int MAX_LOCATOR_SZ = 101;\n /** The maximum number of new addresses to accumulate before announcing. */\n-static const unsigned int MAX_ADDR_TO_SEND = 1000;\n+static constexpr size_t MAX_ADDR_TO_SEND = 1000;\n /** Maximum length of incoming protocol messages (no message over 4 MB is currently acceptable). */\n static const unsigned int MAX_PROTOCOL_MESSAGE_LENGTH = 4 * 1000 * 1000;\n /** Maximum length of the user agent string in `version` message */\n static const unsigned int MAX_SUBVERSION_LENGTH = 256;\n /** Maximum number of automatic outgoing nodes over which we'll relay everything (blocks, tx, addrs, etc) */\n static const int MAX_OUTBOUND_FULL_RELAY_CONNECTIONS = 8;\ndiff --git a/src/net_processing.cpp b/src/net_processing.cpp\nindex f63d048aa..5627910ea 100644\n--- a/src/net_processing.cpp\n+++ b/src/net_processing.cpp\n@@ -2059,13 +2059,13 @@ bool ProcessMessage(CNode* pfrom, const std::string& msg_type, CDataStream& vRec\n                     LogPrint(BCLog::NET, \"ProcessMessages: advertising address %s\\n\", addr.ToString());\n                     pfrom->PushAddress(addr, insecure_rand);\n                 }\n             }\n \n             // Get recent addresses\n-            if (pfrom->fOneShot || pfrom->nVersion >= CADDR_TIME_VERSION || connman->GetAddressCount() < 1000)\n+            if (pfrom->fOneShot || pfrom->nVersion >= CADDR_TIME_VERSION || connman->GetAddressCount() < 1000 /* is not MAX_ADDR_TO_SEND */)\n             {\n                 connman->PushMessage(pfrom, CNetMsgMaker(nSendVersion).Make(NetMsgType::GETADDR));\n                 pfrom->fGetAddr = true;\n             }\n             connman->MarkAddressGood(pfrom->addr);\n         }\n@@ -2154,19 +2154,18 @@ bool ProcessMessage(CNode* pfrom, const std::string& msg_type, CDataStream& vRec\n \n     if (msg_type == NetMsgType::ADDR) {\n         std::vector<CAddress> vAddr;\n         vRecv >> vAddr;\n \n         // Don't want addr from older versions unless seeding\n-        if (pfrom->nVersion < CADDR_TIME_VERSION && connman->GetAddressCount() > 1000)\n+        if (pfrom->nVersion < CADDR_TIME_VERSION && connman->GetAddressCount() > 1000 /* is not MAX_ADDR_TO_SEND */)\n             return true;\n         if (!pfrom->IsAddrRelayPeer()) {\n             return true;\n         }\n-        if (vAddr.size() > 1000)\n-        {\n+        if (vAddr.size() > MAX_ADDR_TO_SEND) {\n             LOCK(cs_main);\n             Misbehaving(pfrom->GetId(), 20, strprintf(\"message addr size() = %u\", vAddr.size()));\n             return false;\n         }\n \n         // Store the new addresses\n@@ -2196,13 +2195,13 @@ bool ProcessMessage(CNode* pfrom, const std::string& msg_type, CDataStream& vRec\n             }\n             // Do not store addresses outside our network\n             if (fReachable)\n                 vAddrOk.push_back(addr);\n         }\n         connman->AddNewAddresses(vAddrOk, pfrom->addr, 2 * 60 * 60);\n-        if (vAddr.size() < 1000)\n+        if (vAddr.size() < MAX_ADDR_TO_SEND)\n             pfrom->fGetAddr = false;\n         if (pfrom->fOneShot)\n             pfrom->fDisconnect = true;\n         return true;\n     }\n \n@@ -3591,22 +3590,22 @@ bool PeerLogicValidation::SendMessages(CNode* pto)\n         //\n         // Message: addr\n         //\n         if (pto->IsAddrRelayPeer() && pto->nNextAddrSend < nNow) {\n             pto->nNextAddrSend = PoissonNextSend(nNow, AVG_ADDRESS_BROADCAST_INTERVAL);\n             std::vector<CAddress> vAddr;\n-            vAddr.reserve(pto->vAddrToSend.size());\n+            vAddr.reserve(std::min(pto->vAddrToSend.size(), MAX_ADDR_TO_SEND));\n             assert(pto->m_addr_known);\n             for (const CAddress& addr : pto->vAddrToSend)\n             {\n                 if (!pto->m_addr_known->contains(addr.GetKey()))\n                 {\n                     pto->m_addr_known->insert(addr.GetKey());\n                     vAddr.push_back(addr);\n-                    // receiver rejects addr messages larger than 1000\n-                    if (vAddr.size() >= 1000)\n+                    // Receiver would reject addr messages with too many addresses in them.\n+                    if (vAddr.size() >= MAX_ADDR_TO_SEND)\n                     {\n                         connman->PushMessage(pto, msgMaker.Make(NetMsgType::ADDR, vAddr));\n                         vAddr.clear();\n                     }\n                 }\n             }",
    "body": "Amazingly I have the following, almost identical, patch lurking locally! Notice that in this case there are two other magic numbers `1000` in the code which are not `MAX_ADDR_TO_SEND`.\r\n\r\n<details>\r\n<summary>diff</summary>\r\n\r\n```diff\r\ndiff --git a/src/net.h b/src/net.h\r\nindex a72af83ee..b059c28f8 100644\r\n--- a/src/net.h\r\n+++ b/src/net.h\r\n@@ -53,13 +53,13 @@ static const int TIMEOUT_INTERVAL = 20 * 60;\r\n static const int FEELER_INTERVAL = 120;\r\n /** The maximum number of entries in an 'inv' protocol message */\r\n static const unsigned int MAX_INV_SZ = 50000;\r\n /** The maximum number of entries in a locator */\r\n static const unsigned int MAX_LOCATOR_SZ = 101;\r\n /** The maximum number of new addresses to accumulate before announcing. */\r\n-static const unsigned int MAX_ADDR_TO_SEND = 1000;\r\n+static constexpr size_t MAX_ADDR_TO_SEND = 1000;\r\n /** Maximum length of incoming protocol messages (no message over 4 MB is currently acceptable). */\r\n static const unsigned int MAX_PROTOCOL_MESSAGE_LENGTH = 4 * 1000 * 1000;\r\n /** Maximum length of the user agent string in `version` message */\r\n static const unsigned int MAX_SUBVERSION_LENGTH = 256;\r\n /** Maximum number of automatic outgoing nodes over which we'll relay everything (blocks, tx, addrs, etc) */\r\n static const int MAX_OUTBOUND_FULL_RELAY_CONNECTIONS = 8;\r\ndiff --git a/src/net_processing.cpp b/src/net_processing.cpp\r\nindex f63d048aa..5627910ea 100644\r\n--- a/src/net_processing.cpp\r\n+++ b/src/net_processing.cpp\r\n@@ -2059,13 +2059,13 @@ bool ProcessMessage(CNode* pfrom, const std::string& msg_type, CDataStream& vRec\r\n                     LogPrint(BCLog::NET, \"ProcessMessages: advertising address %s\\n\", addr.ToString());\r\n                     pfrom->PushAddress(addr, insecure_rand);\r\n                 }\r\n             }\r\n \r\n             // Get recent addresses\r\n-            if (pfrom->fOneShot || pfrom->nVersion >= CADDR_TIME_VERSION || connman->GetAddressCount() < 1000)\r\n+            if (pfrom->fOneShot || pfrom->nVersion >= CADDR_TIME_VERSION || connman->GetAddressCount() < 1000 /* is not MAX_ADDR_TO_SEND */)\r\n             {\r\n                 connman->PushMessage(pfrom, CNetMsgMaker(nSendVersion).Make(NetMsgType::GETADDR));\r\n                 pfrom->fGetAddr = true;\r\n             }\r\n             connman->MarkAddressGood(pfrom->addr);\r\n         }\r\n@@ -2154,19 +2154,18 @@ bool ProcessMessage(CNode* pfrom, const std::string& msg_type, CDataStream& vRec\r\n \r\n     if (msg_type == NetMsgType::ADDR) {\r\n         std::vector<CAddress> vAddr;\r\n         vRecv >> vAddr;\r\n \r\n         // Don't want addr from older versions unless seeding\r\n-        if (pfrom->nVersion < CADDR_TIME_VERSION && connman->GetAddressCount() > 1000)\r\n+        if (pfrom->nVersion < CADDR_TIME_VERSION && connman->GetAddressCount() > 1000 /* is not MAX_ADDR_TO_SEND */)\r\n             return true;\r\n         if (!pfrom->IsAddrRelayPeer()) {\r\n             return true;\r\n         }\r\n-        if (vAddr.size() > 1000)\r\n-        {\r\n+        if (vAddr.size() > MAX_ADDR_TO_SEND) {\r\n             LOCK(cs_main);\r\n             Misbehaving(pfrom->GetId(), 20, strprintf(\"message addr size() = %u\", vAddr.size()));\r\n             return false;\r\n         }\r\n \r\n         // Store the new addresses\r\n@@ -2196,13 +2195,13 @@ bool ProcessMessage(CNode* pfrom, const std::string& msg_type, CDataStream& vRec\r\n             }\r\n             // Do not store addresses outside our network\r\n             if (fReachable)\r\n                 vAddrOk.push_back(addr);\r\n         }\r\n         connman->AddNewAddresses(vAddrOk, pfrom->addr, 2 * 60 * 60);\r\n-        if (vAddr.size() < 1000)\r\n+        if (vAddr.size() < MAX_ADDR_TO_SEND)\r\n             pfrom->fGetAddr = false;\r\n         if (pfrom->fOneShot)\r\n             pfrom->fDisconnect = true;\r\n         return true;\r\n     }\r\n \r\n@@ -3591,22 +3590,22 @@ bool PeerLogicValidation::SendMessages(CNode* pto)\r\n         //\r\n         // Message: addr\r\n         //\r\n         if (pto->IsAddrRelayPeer() && pto->nNextAddrSend < nNow) {\r\n             pto->nNextAddrSend = PoissonNextSend(nNow, AVG_ADDRESS_BROADCAST_INTERVAL);\r\n             std::vector<CAddress> vAddr;\r\n-            vAddr.reserve(pto->vAddrToSend.size());\r\n+            vAddr.reserve(std::min(pto->vAddrToSend.size(), MAX_ADDR_TO_SEND));\r\n             assert(pto->m_addr_known);\r\n             for (const CAddress& addr : pto->vAddrToSend)\r\n             {\r\n                 if (!pto->m_addr_known->contains(addr.GetKey()))\r\n                 {\r\n                     pto->m_addr_known->insert(addr.GetKey());\r\n                     vAddr.push_back(addr);\r\n-                    // receiver rejects addr messages larger than 1000\r\n-                    if (vAddr.size() >= 1000)\r\n+                    // Receiver would reject addr messages with too many addresses in them.\r\n+                    if (vAddr.size() >= MAX_ADDR_TO_SEND)\r\n                     {\r\n                         connman->PushMessage(pto, msgMaker.Make(NetMsgType::ADDR, vAddr));\r\n                         vAddr.clear();\r\n                     }\r\n                 }\r\n             }\r\n```\r\n</details>",
    "reactions": {
      "url": "https://api.github.com/repos/bitcoin/bitcoin/issues/comments/662855486/reactions",
      "total_count": 1,
      "+1": 1,
      "-1": 0,
      "laugh": 0,
      "hooray": 0,
      "confused": 0,
      "heart": 0,
      "rocket": 0,
      "eyes": 0
    },
    "performed_via_github_app": null
  },
  {
    "url": "https://api.github.com/repos/bitcoin/bitcoin/issues/comments/662902150",
    "html_url": "https://github.com/bitcoin/bitcoin/pull/19567#issuecomment-662902150",
    "issue_url": "https://api.github.com/repos/bitcoin/bitcoin/issues/19567",
    "id": 662902150,
    "node_id": "MDEyOklzc3VlQ29tbWVudDY2MjkwMjE1MA==",
    "user": {
      "login": "jonatack",
      "id": 2415484,
      "node_id": "MDQ6VXNlcjI0MTU0ODQ=",
      "avatar_url": "https://avatars.githubusercontent.com/u/2415484?v=4",
      "gravatar_id": "",
      "url": "https://api.github.com/users/jonatack",
      "html_url": "https://github.com/jonatack",
      "followers_url": "https://api.github.com/users/jonatack/followers",
      "following_url": "https://api.github.com/users/jonatack/following{/other_user}",
      "gists_url": "https://api.github.com/users/jonatack/gists{/gist_id}",
      "starred_url": "https://api.github.com/users/jonatack/starred{/owner}{/repo}",
      "subscriptions_url": "https://api.github.com/users/jonatack/subscriptions",
      "organizations_url": "https://api.github.com/users/jonatack/orgs",
      "repos_url": "https://api.github.com/users/jonatack/repos",
      "events_url": "https://api.github.com/users/jonatack/events{/privacy}",
      "received_events_url": "https://api.github.com/users/jonatack/received_events",
      "type": "User",
      "site_admin": false
    },
    "created_at": "2020-07-23T09:13:27Z",
    "updated_at": "2020-07-23T09:13:27Z",
    "author_association": "CONTRIBUTOR",
    "body_html": "<blockquote>\n<p dir=\"auto\">Amazingly I have the following, almost identical, patch lurking locally! Notice that in this case there are two other magic numbers <code class=\"notranslate\">1000</code> in the code which are not <code class=\"notranslate\">MAX_ADDR_TO_SEND</code>.</p>\n</blockquote>\n<p dir=\"auto\">Same! 😄 Therefore, concept ACK modulo <a class=\"user-mention notranslate\" data-hovercard-type=\"user\" data-hovercard-url=\"/users/MarcoFalke/hovercard\" data-octo-click=\"hovercard-link-click\" data-octo-dimensions=\"link_type:self\" href=\"https://github.com/MarcoFalke\">@MarcoFalke</a>'s suggestion and <a class=\"user-mention notranslate\" data-hovercard-type=\"user\" data-hovercard-url=\"/users/vasild/hovercard\" data-octo-click=\"hovercard-link-click\" data-octo-dimensions=\"link_type:self\" href=\"https://github.com/vasild\">@vasild</a>'s added comments.</p>",
    "body_text": "Amazingly I have the following, almost identical, patch lurking locally! Notice that in this case there are two other magic numbers 1000 in the code which are not MAX_ADDR_TO_SEND.\n\nSame! 😄 Therefore, concept ACK modulo @MarcoFalke's suggestion and @vasild's added comments.",
    "body": "> Amazingly I have the following, almost identical, patch lurking locally! Notice that in this case there are two other magic numbers `1000` in the code which are not `MAX_ADDR_TO_SEND`.\r\n\r\nSame! :smile: Therefore, concept ACK modulo @MarcoFalke's suggestion and @vasild's added comments.\r\n",
    "reactions": {
      "url": "https://api.github.com/repos/bitcoin/bitcoin/issues/comments/662902150/reactions",
      "total_count": 0,
      "+1": 0,
      "-1": 0,
      "laugh": 0,
      "hooray": 0,
      "confused": 0,
      "heart": 0,
      "rocket": 0,
      "eyes": 0
    },
    "performed_via_github_app": null
  },
  {
    "url": "https://api.github.com/repos/bitcoin/bitcoin/issues/comments/663394451",
    "html_url": "https://github.com/bitcoin/bitcoin/pull/19567#issuecomment-663394451",
    "issue_url": "https://api.github.com/repos/bitcoin/bitcoin/issues/19567",
    "id": 663394451,
    "node_id": "MDEyOklzc3VlQ29tbWVudDY2MzM5NDQ1MQ==",
    "user": {
      "login": "hebasto",
      "id": 32963518,
      "node_id": "MDQ6VXNlcjMyOTYzNTE4",
      "avatar_url": "https://avatars.githubusercontent.com/u/32963518?v=4",
      "gravatar_id": "",
      "url": "https://api.github.com/users/hebasto",
      "html_url": "https://github.com/hebasto",
      "followers_url": "https://api.github.com/users/hebasto/followers",
      "following_url": "https://api.github.com/users/hebasto/following{/other_user}",
      "gists_url": "https://api.github.com/users/hebasto/gists{/gist_id}",
      "starred_url": "https://api.github.com/users/hebasto/starred{/owner}{/repo}",
      "subscriptions_url": "https://api.github.com/users/hebasto/subscriptions",
      "organizations_url": "https://api.github.com/users/hebasto/orgs",
      "repos_url": "https://api.github.com/users/hebasto/repos",
      "events_url": "https://api.github.com/users/hebasto/events{/privacy}",
      "received_events_url": "https://api.github.com/users/hebasto/received_events",
      "type": "User",
      "site_admin": false
    },
    "created_at": "2020-07-24T07:51:38Z",
    "updated_at": "2020-07-24T07:52:01Z",
    "author_association": "MEMBER",
    "body_html": "<p dir=\"auto\"><a class=\"user-mention notranslate\" data-hovercard-type=\"user\" data-hovercard-url=\"/users/jnewbery/hovercard\" data-octo-click=\"hovercard-link-click\" data-octo-dimensions=\"link_type:self\" href=\"https://github.com/jnewbery\">@jnewbery</a></p>\n<blockquote>\n<p dir=\"auto\">This issue is fixed by <a class=\"issue-link js-issue-link\" data-error-text=\"Failed to load title\" data-id=\"619587978\" data-permission-text=\"Title is private\" data-url=\"https://github.com/bitcoin/bitcoin/issues/18991\" data-hovercard-type=\"pull_request\" data-hovercard-url=\"/bitcoin/bitcoin/pull/18991/hovercard\" href=\"https://github.com/bitcoin/bitcoin/pull/18991\">#18991</a>...</p>\n</blockquote>\n<p dir=\"auto\">Actually, the <a class=\"commit-link\" data-hovercard-type=\"commit\" data-hovercard-url=\"https://github.com/bitcoin/bitcoin/commit/7aad9b2f02d0c62c05134e24b7274c27bb0a4624/hovercard\" href=\"https://github.com/bitcoin/bitcoin/commit/7aad9b2f02d0c62c05134e24b7274c27bb0a4624\"><tt>7aad9b2</tt></a> \"p2p, refactor: Do not over-reserve vAddr capacity\" commit is a fix in this PR, and this line is not touched in <a class=\"issue-link js-issue-link\" data-error-text=\"Failed to load title\" data-id=\"619587978\" data-permission-text=\"Title is private\" data-url=\"https://github.com/bitcoin/bitcoin/issues/18991\" data-hovercard-type=\"pull_request\" data-hovercard-url=\"/bitcoin/bitcoin/pull/18991/hovercard\" href=\"https://github.com/bitcoin/bitcoin/pull/18991\">#18991</a>.</p>\n<p dir=\"auto\">To avoid <a class=\"issue-link js-issue-link\" data-error-text=\"Failed to load title\" data-id=\"619587978\" data-permission-text=\"Title is private\" data-url=\"https://github.com/bitcoin/bitcoin/issues/18991\" data-hovercard-type=\"pull_request\" data-hovercard-url=\"/bitcoin/bitcoin/pull/18991/hovercard\" href=\"https://github.com/bitcoin/bitcoin/pull/18991\">#18991</a> rebasing I can see two possibilities:</p>\n<ul dir=\"auto\">\n<li>drop the first commit in this PR, or</li>\n<li>cherry-pick the second commit into <a class=\"issue-link js-issue-link\" data-error-text=\"Failed to load title\" data-id=\"619587978\" data-permission-text=\"Title is private\" data-url=\"https://github.com/bitcoin/bitcoin/issues/18991\" data-hovercard-type=\"pull_request\" data-hovercard-url=\"/bitcoin/bitcoin/pull/18991/hovercard\" href=\"https://github.com/bitcoin/bitcoin/pull/18991\">#18991</a></li>\n</ul>\n<p dir=\"auto\">Which variant is preferable?</p>",
    "body_text": "@jnewbery\n\nThis issue is fixed by #18991...\n\nActually, the 7aad9b2 \"p2p, refactor: Do not over-reserve vAddr capacity\" commit is a fix in this PR, and this line is not touched in #18991.\nTo avoid #18991 rebasing I can see two possibilities:\n\ndrop the first commit in this PR, or\ncherry-pick the second commit into #18991\n\nWhich variant is preferable?",
    "body": "@jnewbery \r\n> This issue is fixed by #18991...\r\n\r\nActually, the 7aad9b2f02d0c62c05134e24b7274c27bb0a4624 \"p2p, refactor: Do not over-reserve vAddr capacity\" commit is a fix in this PR, and this line is not touched in #18991.\r\n\r\nTo avoid #18991 rebasing I can see two possibilities:\r\n- drop the first commit in this PR, or\r\n- cherry-pick the second commit into #18991\r\n\r\nWhich variant is preferable?",
    "reactions": {
      "url": "https://api.github.com/repos/bitcoin/bitcoin/issues/comments/663394451/reactions",
      "total_count": 0,
      "+1": 0,
      "-1": 0,
      "laugh": 0,
      "hooray": 0,
      "confused": 0,
      "heart": 0,
      "rocket": 0,
      "eyes": 0
    },
    "performed_via_github_app": null
  },
  {
    "url": "https://api.github.com/repos/bitcoin/bitcoin/issues/comments/663401778",
    "html_url": "https://github.com/bitcoin/bitcoin/pull/19567#issuecomment-663401778",
    "issue_url": "https://api.github.com/repos/bitcoin/bitcoin/issues/19567",
    "id": 663401778,
    "node_id": "MDEyOklzc3VlQ29tbWVudDY2MzQwMTc3OA==",
    "user": {
      "login": "jnewbery",
      "id": 1063656,
      "node_id": "MDQ6VXNlcjEwNjM2NTY=",
      "avatar_url": "https://avatars.githubusercontent.com/u/1063656?v=4",
      "gravatar_id": "",
      "url": "https://api.github.com/users/jnewbery",
      "html_url": "https://github.com/jnewbery",
      "followers_url": "https://api.github.com/users/jnewbery/followers",
      "following_url": "https://api.github.com/users/jnewbery/following{/other_user}",
      "gists_url": "https://api.github.com/users/jnewbery/gists{/gist_id}",
      "starred_url": "https://api.github.com/users/jnewbery/starred{/owner}{/repo}",
      "subscriptions_url": "https://api.github.com/users/jnewbery/subscriptions",
      "organizations_url": "https://api.github.com/users/jnewbery/orgs",
      "repos_url": "https://api.github.com/users/jnewbery/repos",
      "events_url": "https://api.github.com/users/jnewbery/events{/privacy}",
      "received_events_url": "https://api.github.com/users/jnewbery/received_events",
      "type": "User",
      "site_admin": false
    },
    "created_at": "2020-07-24T08:11:14Z",
    "updated_at": "2020-07-24T08:11:33Z",
    "author_association": "CONTRIBUTOR",
    "body_html": "<p dir=\"auto\">I've looked a bit more closely at this PR, and I don't understand what it achieves. The supposed functional change is:</p>\n<div class=\"highlight highlight-source-diff notranslate position-relative overflow-auto\" dir=\"auto\" data-snippet-clipboard-copy-content=\"-            vAddr.reserve(pto-&gt;vAddrToSend.size());\n+            vAddr.reserve(std::min(pto-&gt;vAddrToSend.size(), (size_t)MAX_ADDR_TO_SEND));\"><pre class=\"notranslate\"><span class=\"pl-md\"><span class=\"pl-md\">-</span>            vAddr.reserve(pto-&gt;vAddrToSend.size());</span>\n<span class=\"pl-mi1\"><span class=\"pl-mi1\">+</span>            vAddr.reserve(std::min(pto-&gt;vAddrToSend.size(), (size_t)MAX_ADDR_TO_SEND));</span></pre></div>\n<p dir=\"auto\">but <code class=\"notranslate\">vAddrToSend</code> can never grow larger than <code class=\"notranslate\">MAX_ADDR_TO_SEND</code> (see <code class=\"notranslate\">PushAddress()</code> which is the only place that elements are added to <code class=\"notranslate\">vAddrToSend</code>), so this doesn't seem to change anything.</p>",
    "body_text": "I've looked a bit more closely at this PR, and I don't understand what it achieves. The supposed functional change is:\n-            vAddr.reserve(pto->vAddrToSend.size());\n+            vAddr.reserve(std::min(pto->vAddrToSend.size(), (size_t)MAX_ADDR_TO_SEND));\nbut vAddrToSend can never grow larger than MAX_ADDR_TO_SEND (see PushAddress() which is the only place that elements are added to vAddrToSend), so this doesn't seem to change anything.",
    "body": "I've looked a bit more closely at this PR, and I don't understand what it achieves. The supposed functional change is:\r\n\r\n```diff\r\n-            vAddr.reserve(pto->vAddrToSend.size());\r\n+            vAddr.reserve(std::min(pto->vAddrToSend.size(), (size_t)MAX_ADDR_TO_SEND));\r\n```\r\n\r\nbut `vAddrToSend` can never grow larger than `MAX_ADDR_TO_SEND` (see `PushAddress()` which is the only place that elements are added to `vAddrToSend`), so this doesn't seem to change anything.",
    "reactions": {
      "url": "https://api.github.com/repos/bitcoin/bitcoin/issues/comments/663401778/reactions",
      "total_count": 0,
      "+1": 0,
      "-1": 0,
      "laugh": 0,
      "hooray": 0,
      "confused": 0,
      "heart": 0,
      "rocket": 0,
      "eyes": 0
    },
    "performed_via_github_app": null
  },
  {
    "url": "https://api.github.com/repos/bitcoin/bitcoin/issues/comments/663405332",
    "html_url": "https://github.com/bitcoin/bitcoin/pull/19567#issuecomment-663405332",
    "issue_url": "https://api.github.com/repos/bitcoin/bitcoin/issues/19567",
    "id": 663405332,
    "node_id": "MDEyOklzc3VlQ29tbWVudDY2MzQwNTMzMg==",
    "user": {
      "login": "hebasto",
      "id": 32963518,
      "node_id": "MDQ6VXNlcjMyOTYzNTE4",
      "avatar_url": "https://avatars.githubusercontent.com/u/32963518?v=4",
      "gravatar_id": "",
      "url": "https://api.github.com/users/hebasto",
      "html_url": "https://github.com/hebasto",
      "followers_url": "https://api.github.com/users/hebasto/followers",
      "following_url": "https://api.github.com/users/hebasto/following{/other_user}",
      "gists_url": "https://api.github.com/users/hebasto/gists{/gist_id}",
      "starred_url": "https://api.github.com/users/hebasto/starred{/owner}{/repo}",
      "subscriptions_url": "https://api.github.com/users/hebasto/subscriptions",
      "organizations_url": "https://api.github.com/users/hebasto/orgs",
      "repos_url": "https://api.github.com/users/hebasto/repos",
      "events_url": "https://api.github.com/users/hebasto/events{/privacy}",
      "received_events_url": "https://api.github.com/users/hebasto/received_events",
      "type": "User",
      "site_admin": false
    },
    "created_at": "2020-07-24T08:21:05Z",
    "updated_at": "2020-07-24T08:21:05Z",
    "author_association": "MEMBER",
    "body_html": "<p dir=\"auto\"><a class=\"user-mention notranslate\" data-hovercard-type=\"user\" data-hovercard-url=\"/users/jnewbery/hovercard\" data-octo-click=\"hovercard-link-click\" data-octo-dimensions=\"link_type:self\" href=\"https://github.com/jnewbery\">@jnewbery</a><br>\nCorrect. Closing.</p>",
    "body_text": "@jnewbery\nCorrect. Closing.",
    "body": "@jnewbery \r\nCorrect. Closing.",
    "reactions": {
      "url": "https://api.github.com/repos/bitcoin/bitcoin/issues/comments/663405332/reactions",
      "total_count": 0,
      "+1": 0,
      "-1": 0,
      "laugh": 0,
      "hooray": 0,
      "confused": 0,
      "heart": 0,
      "rocket": 0,
      "eyes": 0
    },
    "performed_via_github_app": null
  },
  {
    "url": "https://api.github.com/repos/bitcoin/bitcoin/issues/comments/663411637",
    "html_url": "https://github.com/bitcoin/bitcoin/pull/19567#issuecomment-663411637",
    "issue_url": "https://api.github.com/repos/bitcoin/bitcoin/issues/19567",
    "id": 663411637,
    "node_id": "MDEyOklzc3VlQ29tbWVudDY2MzQxMTYzNw==",
    "user": {
      "login": "jnewbery",
      "id": 1063656,
      "node_id": "MDQ6VXNlcjEwNjM2NTY=",
      "avatar_url": "https://avatars.githubusercontent.com/u/1063656?v=4",
      "gravatar_id": "",
      "url": "https://api.github.com/users/jnewbery",
      "html_url": "https://github.com/jnewbery",
      "followers_url": "https://api.github.com/users/jnewbery/followers",
      "following_url": "https://api.github.com/users/jnewbery/following{/other_user}",
      "gists_url": "https://api.github.com/users/jnewbery/gists{/gist_id}",
      "starred_url": "https://api.github.com/users/jnewbery/starred{/owner}{/repo}",
      "subscriptions_url": "https://api.github.com/users/jnewbery/subscriptions",
      "organizations_url": "https://api.github.com/users/jnewbery/orgs",
      "repos_url": "https://api.github.com/users/jnewbery/repos",
      "events_url": "https://api.github.com/users/jnewbery/events{/privacy}",
      "received_events_url": "https://api.github.com/users/jnewbery/received_events",
      "type": "User",
      "site_admin": false
    },
    "created_at": "2020-07-24T08:36:44Z",
    "updated_at": "2020-07-24T08:37:00Z",
    "author_association": "CONTRIBUTOR",
    "body_html": "<p dir=\"auto\">Thanks <a class=\"user-mention notranslate\" data-hovercard-type=\"user\" data-hovercard-url=\"/users/hebasto/hovercard\" data-octo-click=\"hovercard-link-click\" data-octo-dimensions=\"link_type:self\" href=\"https://github.com/hebasto\">@hebasto</a> . The code here is confusing, mostly due to the fact that AddrMan and net_processing are both setting their own limits on the size of of getaddr responses (<code class=\"notranslate\">ADDRMAN_GETADDR_MAX</code> and <code class=\"notranslate\">MAX_ADDR_TO_SEND</code> respectively). The size check inside the for loop is also unnecessary and confusing since <code class=\"notranslate\">vAddr</code> never grows larger than 1000:</p>\n<div class=\"snippet-clipboard-content notranslate position-relative overflow-auto\" data-snippet-clipboard-copy-content=\"                    // receiver rejects addr messages larger than 1000\n                    if (vAddr.size() &gt;= 1000)\n                    {\n                        connman-&gt;PushMessage(pto, msgMaker.Make(NetMsgType::ADDR, vAddr));\n                        vAddr.clear();\n                    }\"><pre class=\"notranslate\"><code class=\"notranslate\">                    // receiver rejects addr messages larger than 1000\n                    if (vAddr.size() &gt;= 1000)\n                    {\n                        connman-&gt;PushMessage(pto, msgMaker.Make(NetMsgType::ADDR, vAddr));\n                        vAddr.clear();\n                    }\n</code></pre></div>\n<p dir=\"auto\">I have a branch which makes this a bit clearer here: <a href=\"https://github.com/jnewbery/bitcoin/tree/2020-07-addrman-get\">https://github.com/jnewbery/bitcoin/tree/2020-07-addrman-get</a> which could be PR'ed after <a class=\"issue-link js-issue-link\" data-error-text=\"Failed to load title\" data-id=\"619587978\" data-permission-text=\"Title is private\" data-url=\"https://github.com/bitcoin/bitcoin/issues/18991\" data-hovercard-type=\"pull_request\" data-hovercard-url=\"/bitcoin/bitcoin/pull/18991/hovercard\" href=\"https://github.com/bitcoin/bitcoin/pull/18991\">#18991</a> is in.</p>",
    "body_text": "Thanks @hebasto . The code here is confusing, mostly due to the fact that AddrMan and net_processing are both setting their own limits on the size of of getaddr responses (ADDRMAN_GETADDR_MAX and MAX_ADDR_TO_SEND respectively). The size check inside the for loop is also unnecessary and confusing since vAddr never grows larger than 1000:\n                    // receiver rejects addr messages larger than 1000\n                    if (vAddr.size() >= 1000)\n                    {\n                        connman->PushMessage(pto, msgMaker.Make(NetMsgType::ADDR, vAddr));\n                        vAddr.clear();\n                    }\n\nI have a branch which makes this a bit clearer here: https://github.com/jnewbery/bitcoin/tree/2020-07-addrman-get which could be PR'ed after #18991 is in.",
    "body": "Thanks @hebasto . The code here is confusing, mostly due to the fact that AddrMan and net_processing are both setting their own limits on the size of of getaddr responses (`ADDRMAN_GETADDR_MAX` and `MAX_ADDR_TO_SEND` respectively). The size check inside the for loop is also unnecessary and confusing since `vAddr` never grows larger than 1000:\r\n\r\n```\r\n                    // receiver rejects addr messages larger than 1000\r\n                    if (vAddr.size() >= 1000)\r\n                    {\r\n                        connman->PushMessage(pto, msgMaker.Make(NetMsgType::ADDR, vAddr));\r\n                        vAddr.clear();\r\n                    }\r\n```\r\n\r\nI have a branch which makes this a bit clearer here: https://github.com/jnewbery/bitcoin/tree/2020-07-addrman-get which could be PR'ed after #18991 is in.",
    "reactions": {
      "url": "https://api.github.com/repos/bitcoin/bitcoin/issues/comments/663411637/reactions",
      "total_count": 2,
      "+1": 2,
      "-1": 0,
      "laugh": 0,
      "hooray": 0,
      "confused": 0,
      "heart": 0,
      "rocket": 0,
      "eyes": 0
    },
    "performed_via_github_app": null
  },
  {
    "url": "https://api.github.com/repos/bitcoin/bitcoin/issues/comments/663413494",
    "html_url": "https://github.com/bitcoin/bitcoin/pull/19567#issuecomment-663413494",
    "issue_url": "https://api.github.com/repos/bitcoin/bitcoin/issues/19567",
    "id": 663413494,
    "node_id": "MDEyOklzc3VlQ29tbWVudDY2MzQxMzQ5NA==",
    "user": {
      "login": "vasild",
      "id": 266751,
      "node_id": "MDQ6VXNlcjI2Njc1MQ==",
      "avatar_url": "https://avatars.githubusercontent.com/u/266751?v=4",
      "gravatar_id": "",
      "url": "https://api.github.com/users/vasild",
      "html_url": "https://github.com/vasild",
      "followers_url": "https://api.github.com/users/vasild/followers",
      "following_url": "https://api.github.com/users/vasild/following{/other_user}",
      "gists_url": "https://api.github.com/users/vasild/gists{/gist_id}",
      "starred_url": "https://api.github.com/users/vasild/starred{/owner}{/repo}",
      "subscriptions_url": "https://api.github.com/users/vasild/subscriptions",
      "organizations_url": "https://api.github.com/users/vasild/orgs",
      "repos_url": "https://api.github.com/users/vasild/repos",
      "events_url": "https://api.github.com/users/vasild/events{/privacy}",
      "received_events_url": "https://api.github.com/users/vasild/received_events",
      "type": "User",
      "site_admin": false
    },
    "created_at": "2020-07-24T08:39:47Z",
    "updated_at": "2020-07-24T08:39:47Z",
    "author_association": "CONTRIBUTOR",
    "body_html": "<p dir=\"auto\">I guess the reason for the confusion is this code:</p>\n<div class=\"highlight highlight-source-c++ notranslate position-relative overflow-auto\" dir=\"auto\" data-snippet-clipboard-copy-content=\"            for (const CAddress&amp; addr : pto-&gt;vAddrToSend)\n            { \n...\n                    vAddr.push_back(addr);\n                    // receiver rejects addr messages larger than 1000\n                    if (vAddr.size() &gt;= 1000)\"><pre class=\"notranslate\">            <span class=\"pl-k\">for</span> (<span class=\"pl-k\">const</span> CAddress&amp; addr : pto-&gt;vAddrToSend)\n            { \n...\n                    vAddr.<span class=\"pl-c1\">push_back</span>(addr);\n                    <span class=\"pl-c\"><span class=\"pl-c\">//</span> receiver rejects addr messages larger than 1000</span>\n                    <span class=\"pl-k\">if</span> (vAddr.<span class=\"pl-c1\">size</span>() &gt;= <span class=\"pl-c1\">1000</span>)</pre></div>\n<p dir=\"auto\">which would be better if something like:</p>\n<details>\n<summary>diff</summary>\n<div class=\"highlight highlight-source-diff notranslate position-relative overflow-auto\" dir=\"auto\" data-snippet-clipboard-copy-content=\"diff --git i/src/net_processing.cpp w/src/net_processing.cpp\nindex 7a58de35d..aa8f1be0e 100644\n--- i/src/net_processing.cpp\n+++ w/src/net_processing.cpp\n@@ -3924,31 +3924,30 @@ bool PeerLogicValidation::SendMessages(CNode* pto)\n         //\n         // Message: addr\n         //\n         if (pto-&gt;IsAddrRelayPeer() &amp;&amp; pto-&gt;m_next_addr_send &lt; current_time) {\n             pto-&gt;m_next_addr_send = PoissonNextSend(current_time, AVG_ADDRESS_BROADCAST_INTERVAL);\n             std::vector&lt;CAddress&gt; vAddr;\n-            vAddr.reserve(pto-&gt;vAddrToSend.size());\n+            // Do not reserve vAddr as that is unproven micro optimization and\n+            // we could also end up over-reserving because not all addresses\n+            // from vAddrToSend are added to vAddr\n+            //vAddr.reserve(pto-&gt;vAddrToSend.size());\n             assert(pto-&gt;m_addr_known);\n             for (const CAddress&amp; addr : pto-&gt;vAddrToSend)\n             {\n                 if (!pto-&gt;m_addr_known-&gt;contains(addr.GetKey()))\n                 {\n                     pto-&gt;m_addr_known-&gt;insert(addr.GetKey());\n                     vAddr.push_back(addr);\n-                    // receiver rejects addr messages larger than 1000\n-                    if (vAddr.size() &gt;= 1000)\n-                    {\n-                        connman-&gt;PushMessage(pto, msgMaker.Make(NetMsgType::ADDR, vAddr));\n-                        vAddr.clear();\n-                    }\n                 }\n             }\n             pto-&gt;vAddrToSend.clear();\n-            if (!vAddr.empty())\n+            if (!vAddr.empty()) {\n+                assert(vAddr.size() &lt;= MAX_ADDR_TO_SEND);\n                 connman-&gt;PushMessage(pto, msgMaker.Make(NetMsgType::ADDR, vAddr));\n+            }\n             // we only send the big addr message once\n             if (pto-&gt;vAddrToSend.capacity() &gt; 40)\n                 pto-&gt;vAddrToSend.shrink_to_fit();\n         }\n \n         // Start block sync\"><pre class=\"notranslate\"><span class=\"pl-c1\">diff --git i/src/net_processing.cpp w/src/net_processing.cpp</span>\nindex 7a58de35d..aa8f1be0e 100644\n<span class=\"pl-md\">--- i/src/net_processing.cpp</span>\n<span class=\"pl-mi1\">+++ w/src/net_processing.cpp</span>\n<span class=\"pl-mdr\">@@ -3924,31 +3924,30 @@</span> bool PeerLogicValidation::SendMessages(CNode* pto)\n         //\n         // Message: addr\n         //\n         if (pto-&gt;IsAddrRelayPeer() &amp;&amp; pto-&gt;m_next_addr_send &lt; current_time) {\n             pto-&gt;m_next_addr_send = PoissonNextSend(current_time, AVG_ADDRESS_BROADCAST_INTERVAL);\n             std::vector&lt;CAddress&gt; vAddr;\n<span class=\"pl-md\"><span class=\"pl-md\">-</span>            vAddr.reserve(pto-&gt;vAddrToSend.size());</span>\n<span class=\"pl-mi1\"><span class=\"pl-mi1\">+</span>            // Do not reserve vAddr as that is unproven micro optimization and</span>\n<span class=\"pl-mi1\"><span class=\"pl-mi1\">+</span>            // we could also end up over-reserving because not all addresses</span>\n<span class=\"pl-mi1\"><span class=\"pl-mi1\">+</span>            // from vAddrToSend are added to vAddr</span>\n<span class=\"pl-mi1\"><span class=\"pl-mi1\">+</span>            //vAddr.reserve(pto-&gt;vAddrToSend.size());</span>\n             assert(pto-&gt;m_addr_known);\n             for (const CAddress&amp; addr : pto-&gt;vAddrToSend)\n             {\n                 if (!pto-&gt;m_addr_known-&gt;contains(addr.GetKey()))\n                 {\n                     pto-&gt;m_addr_known-&gt;insert(addr.GetKey());\n                     vAddr.push_back(addr);\n<span class=\"pl-md\"><span class=\"pl-md\">-</span>                    // receiver rejects addr messages larger than 1000</span>\n<span class=\"pl-md\"><span class=\"pl-md\">-</span>                    if (vAddr.size() &gt;= 1000)</span>\n<span class=\"pl-md\"><span class=\"pl-md\">-</span>                    {</span>\n<span class=\"pl-md\"><span class=\"pl-md\">-</span>                        connman-&gt;PushMessage(pto, msgMaker.Make(NetMsgType::ADDR, vAddr));</span>\n<span class=\"pl-md\"><span class=\"pl-md\">-</span>                        vAddr.clear();</span>\n<span class=\"pl-md\"><span class=\"pl-md\">-</span>                    }</span>\n                 }\n             }\n             pto-&gt;vAddrToSend.clear();\n<span class=\"pl-md\"><span class=\"pl-md\">-</span>            if (!vAddr.empty())</span>\n<span class=\"pl-mi1\"><span class=\"pl-mi1\">+</span>            if (!vAddr.empty()) {</span>\n<span class=\"pl-mi1\"><span class=\"pl-mi1\">+</span>                assert(vAddr.size() &lt;= MAX_ADDR_TO_SEND);</span>\n                 connman-&gt;PushMessage(pto, msgMaker.Make(NetMsgType::ADDR, vAddr));\n<span class=\"pl-mi1\"><span class=\"pl-mi1\">+</span>            }</span>\n             // we only send the big addr message once\n             if (pto-&gt;vAddrToSend.capacity() &gt; 40)\n                 pto-&gt;vAddrToSend.shrink_to_fit();\n         }\n \n         // Start block sync</pre></div>\n</details>",
    "body_text": "I guess the reason for the confusion is this code:\n            for (const CAddress& addr : pto->vAddrToSend)\n            { \n...\n                    vAddr.push_back(addr);\n                    // receiver rejects addr messages larger than 1000\n                    if (vAddr.size() >= 1000)\nwhich would be better if something like:\n\ndiff\ndiff --git i/src/net_processing.cpp w/src/net_processing.cpp\nindex 7a58de35d..aa8f1be0e 100644\n--- i/src/net_processing.cpp\n+++ w/src/net_processing.cpp\n@@ -3924,31 +3924,30 @@ bool PeerLogicValidation::SendMessages(CNode* pto)\n         //\n         // Message: addr\n         //\n         if (pto->IsAddrRelayPeer() && pto->m_next_addr_send < current_time) {\n             pto->m_next_addr_send = PoissonNextSend(current_time, AVG_ADDRESS_BROADCAST_INTERVAL);\n             std::vector<CAddress> vAddr;\n-            vAddr.reserve(pto->vAddrToSend.size());\n+            // Do not reserve vAddr as that is unproven micro optimization and\n+            // we could also end up over-reserving because not all addresses\n+            // from vAddrToSend are added to vAddr\n+            //vAddr.reserve(pto->vAddrToSend.size());\n             assert(pto->m_addr_known);\n             for (const CAddress& addr : pto->vAddrToSend)\n             {\n                 if (!pto->m_addr_known->contains(addr.GetKey()))\n                 {\n                     pto->m_addr_known->insert(addr.GetKey());\n                     vAddr.push_back(addr);\n-                    // receiver rejects addr messages larger than 1000\n-                    if (vAddr.size() >= 1000)\n-                    {\n-                        connman->PushMessage(pto, msgMaker.Make(NetMsgType::ADDR, vAddr));\n-                        vAddr.clear();\n-                    }\n                 }\n             }\n             pto->vAddrToSend.clear();\n-            if (!vAddr.empty())\n+            if (!vAddr.empty()) {\n+                assert(vAddr.size() <= MAX_ADDR_TO_SEND);\n                 connman->PushMessage(pto, msgMaker.Make(NetMsgType::ADDR, vAddr));\n+            }\n             // we only send the big addr message once\n             if (pto->vAddrToSend.capacity() > 40)\n                 pto->vAddrToSend.shrink_to_fit();\n         }\n \n         // Start block sync",
    "body": "I guess the reason for the confusion is this code:\r\n\r\n```cpp\r\n            for (const CAddress& addr : pto->vAddrToSend)\r\n            { \r\n...\r\n                    vAddr.push_back(addr);\r\n                    // receiver rejects addr messages larger than 1000\r\n                    if (vAddr.size() >= 1000)\r\n```\r\n\r\nwhich would be better if something like:\r\n\r\n<details>\r\n<summary>diff</summary>\r\n\r\n```diff\r\ndiff --git i/src/net_processing.cpp w/src/net_processing.cpp\r\nindex 7a58de35d..aa8f1be0e 100644\r\n--- i/src/net_processing.cpp\r\n+++ w/src/net_processing.cpp\r\n@@ -3924,31 +3924,30 @@ bool PeerLogicValidation::SendMessages(CNode* pto)\r\n         //\r\n         // Message: addr\r\n         //\r\n         if (pto->IsAddrRelayPeer() && pto->m_next_addr_send < current_time) {\r\n             pto->m_next_addr_send = PoissonNextSend(current_time, AVG_ADDRESS_BROADCAST_INTERVAL);\r\n             std::vector<CAddress> vAddr;\r\n-            vAddr.reserve(pto->vAddrToSend.size());\r\n+            // Do not reserve vAddr as that is unproven micro optimization and\r\n+            // we could also end up over-reserving because not all addresses\r\n+            // from vAddrToSend are added to vAddr\r\n+            //vAddr.reserve(pto->vAddrToSend.size());\r\n             assert(pto->m_addr_known);\r\n             for (const CAddress& addr : pto->vAddrToSend)\r\n             {\r\n                 if (!pto->m_addr_known->contains(addr.GetKey()))\r\n                 {\r\n                     pto->m_addr_known->insert(addr.GetKey());\r\n                     vAddr.push_back(addr);\r\n-                    // receiver rejects addr messages larger than 1000\r\n-                    if (vAddr.size() >= 1000)\r\n-                    {\r\n-                        connman->PushMessage(pto, msgMaker.Make(NetMsgType::ADDR, vAddr));\r\n-                        vAddr.clear();\r\n-                    }\r\n                 }\r\n             }\r\n             pto->vAddrToSend.clear();\r\n-            if (!vAddr.empty())\r\n+            if (!vAddr.empty()) {\r\n+                assert(vAddr.size() <= MAX_ADDR_TO_SEND);\r\n                 connman->PushMessage(pto, msgMaker.Make(NetMsgType::ADDR, vAddr));\r\n+            }\r\n             // we only send the big addr message once\r\n             if (pto->vAddrToSend.capacity() > 40)\r\n                 pto->vAddrToSend.shrink_to_fit();\r\n         }\r\n \r\n         // Start block sync\r\n```\r\n</details>",
    "reactions": {
      "url": "https://api.github.com/repos/bitcoin/bitcoin/issues/comments/663413494/reactions",
      "total_count": 1,
      "+1": 1,
      "-1": 0,
      "laugh": 0,
      "hooray": 0,
      "confused": 0,
      "heart": 0,
      "rocket": 0,
      "eyes": 0
    },
    "performed_via_github_app": null
  },
  {
    "url": "https://api.github.com/repos/bitcoin/bitcoin/issues/comments/663442229",
    "html_url": "https://github.com/bitcoin/bitcoin/pull/19567#issuecomment-663442229",
    "issue_url": "https://api.github.com/repos/bitcoin/bitcoin/issues/19567",
    "id": 663442229,
    "node_id": "MDEyOklzc3VlQ29tbWVudDY2MzQ0MjIyOQ==",
    "user": {
      "login": "jnewbery",
      "id": 1063656,
      "node_id": "MDQ6VXNlcjEwNjM2NTY=",
      "avatar_url": "https://avatars.githubusercontent.com/u/1063656?v=4",
      "gravatar_id": "",
      "url": "https://api.github.com/users/jnewbery",
      "html_url": "https://github.com/jnewbery",
      "followers_url": "https://api.github.com/users/jnewbery/followers",
      "following_url": "https://api.github.com/users/jnewbery/following{/other_user}",
      "gists_url": "https://api.github.com/users/jnewbery/gists{/gist_id}",
      "starred_url": "https://api.github.com/users/jnewbery/starred{/owner}{/repo}",
      "subscriptions_url": "https://api.github.com/users/jnewbery/subscriptions",
      "organizations_url": "https://api.github.com/users/jnewbery/orgs",
      "repos_url": "https://api.github.com/users/jnewbery/repos",
      "events_url": "https://api.github.com/users/jnewbery/events{/privacy}",
      "received_events_url": "https://api.github.com/users/jnewbery/received_events",
      "type": "User",
      "site_admin": false
    },
    "created_at": "2020-07-24T09:22:18Z",
    "updated_at": "2020-07-24T09:22:18Z",
    "author_association": "CONTRIBUTOR",
    "body_html": "<p dir=\"auto\"><a class=\"user-mention notranslate\" data-hovercard-type=\"user\" data-hovercard-url=\"/users/vasild/hovercard\" data-octo-click=\"hovercard-link-click\" data-octo-dimensions=\"link_type:self\" href=\"https://github.com/vasild\">@vasild</a> I agree with removing the if block from within the loop, and adding the assert. However, I think the reserve is still useful. It ensures that we only ever have to do one allocation.</p>\n<p dir=\"auto\">Even better would be to move the vector out of <code class=\"notranslate\">vAddrToSend</code> (since it gets cleared afterwards anyway) and use remove-erase to filter out the unwanted addresses.</p>",
    "body_text": "@vasild I agree with removing the if block from within the loop, and adding the assert. However, I think the reserve is still useful. It ensures that we only ever have to do one allocation.\nEven better would be to move the vector out of vAddrToSend (since it gets cleared afterwards anyway) and use remove-erase to filter out the unwanted addresses.",
    "body": "@vasild I agree with removing the if block from within the loop, and adding the assert. However, I think the reserve is still useful. It ensures that we only ever have to do one allocation.\r\n\r\nEven better would be to move the vector out of `vAddrToSend` (since it gets cleared afterwards anyway) and use remove-erase to filter out the unwanted addresses.",
    "reactions": {
      "url": "https://api.github.com/repos/bitcoin/bitcoin/issues/comments/663442229/reactions",
      "total_count": 0,
      "+1": 0,
      "-1": 0,
      "laugh": 0,
      "hooray": 0,
      "confused": 0,
      "heart": 0,
      "rocket": 0,
      "eyes": 0
    },
    "performed_via_github_app": null
  },
  {
    "url": "https://api.github.com/repos/bitcoin/bitcoin/issues/comments/663863621",
    "html_url": "https://github.com/bitcoin/bitcoin/pull/19567#issuecomment-663863621",
    "issue_url": "https://api.github.com/repos/bitcoin/bitcoin/issues/19567",
    "id": 663863621,
    "node_id": "MDEyOklzc3VlQ29tbWVudDY2Mzg2MzYyMQ==",
    "user": {
      "login": "jnewbery",
      "id": 1063656,
      "node_id": "MDQ6VXNlcjEwNjM2NTY=",
      "avatar_url": "https://avatars.githubusercontent.com/u/1063656?v=4",
      "gravatar_id": "",
      "url": "https://api.github.com/users/jnewbery",
      "html_url": "https://github.com/jnewbery",
      "followers_url": "https://api.github.com/users/jnewbery/followers",
      "following_url": "https://api.github.com/users/jnewbery/following{/other_user}",
      "gists_url": "https://api.github.com/users/jnewbery/gists{/gist_id}",
      "starred_url": "https://api.github.com/users/jnewbery/starred{/owner}{/repo}",
      "subscriptions_url": "https://api.github.com/users/jnewbery/subscriptions",
      "organizations_url": "https://api.github.com/users/jnewbery/orgs",
      "repos_url": "https://api.github.com/users/jnewbery/repos",
      "events_url": "https://api.github.com/users/jnewbery/events{/privacy}",
      "received_events_url": "https://api.github.com/users/jnewbery/received_events",
      "type": "User",
      "site_admin": false
    },
    "created_at": "2020-07-25T14:47:35Z",
    "updated_at": "2020-07-25T14:47:35Z",
    "author_association": "CONTRIBUTOR",
    "body_html": "<blockquote>\n<p dir=\"auto\">Even better would be to move the vector out of vAddrToSend (since it gets cleared afterwards anyway) and use remove-erase to filter out the unwanted addresses.</p>\n</blockquote>\n<p dir=\"auto\">I've implemented this in the <em>Refactor MaybeSendAddr()</em> commit of <a href=\"https://github.com/jnewbery/bitcoin/tree/2020-06-cs-main-split\">https://github.com/jnewbery/bitcoin/tree/2020-06-cs-main-split</a>. <a class=\"user-mention notranslate\" data-hovercard-type=\"user\" data-hovercard-url=\"/users/hebasto/hovercard\" data-octo-click=\"hovercard-link-click\" data-octo-dimensions=\"link_type:self\" href=\"https://github.com/hebasto\">@hebasto</a> - if you agree that's the right change, feel free to either take that commit (everything between <em>[net] Remove unnecessary cs_sendProcessing lock annotation</em> and <em>[net processing] Refactor MaybeSendAddr()</em> can be taken independently from the rest of that branch) or help by reviewing <a class=\"issue-link js-issue-link\" data-error-text=\"Failed to load title\" data-id=\"665255837\" data-permission-text=\"Title is private\" data-url=\"https://github.com/bitcoin/bitcoin/issues/19583\" data-hovercard-type=\"pull_request\" data-hovercard-url=\"/bitcoin/bitcoin/pull/19583/hovercard\" href=\"https://github.com/bitcoin/bitcoin/pull/19583\">#19583</a> :)</p>",
    "body_text": "Even better would be to move the vector out of vAddrToSend (since it gets cleared afterwards anyway) and use remove-erase to filter out the unwanted addresses.\n\nI've implemented this in the Refactor MaybeSendAddr() commit of https://github.com/jnewbery/bitcoin/tree/2020-06-cs-main-split. @hebasto - if you agree that's the right change, feel free to either take that commit (everything between [net] Remove unnecessary cs_sendProcessing lock annotation and [net processing] Refactor MaybeSendAddr() can be taken independently from the rest of that branch) or help by reviewing #19583 :)",
    "body": "> Even better would be to move the vector out of vAddrToSend (since it gets cleared afterwards anyway) and use remove-erase to filter out the unwanted addresses.\r\n\r\nI've implemented this in the _Refactor MaybeSendAddr()_ commit of https://github.com/jnewbery/bitcoin/tree/2020-06-cs-main-split. @hebasto - if you agree that's the right change, feel free to either take that commit (everything between _[net] Remove unnecessary cs_sendProcessing lock annotation_ and _[net processing] Refactor MaybeSendAddr()_ can be taken independently from the rest of that branch) or help by reviewing #19583 :)",
    "reactions": {
      "url": "https://api.github.com/repos/bitcoin/bitcoin/issues/comments/663863621/reactions",
      "total_count": 0,
      "+1": 0,
      "-1": 0,
      "laugh": 0,
      "hooray": 0,
      "confused": 0,
      "heart": 0,
      "rocket": 0,
      "eyes": 0
    },
    "performed_via_github_app": null
  }
]
