{
  "url": "https://api.github.com/repos/bitcoin/bitcoin/issues/1640",
  "repository_url": "https://api.github.com/repos/bitcoin/bitcoin",
  "labels_url": "https://api.github.com/repos/bitcoin/bitcoin/issues/1640/labels{/name}",
  "comments_url": "https://api.github.com/repos/bitcoin/bitcoin/issues/1640/comments",
  "events_url": "https://api.github.com/repos/bitcoin/bitcoin/issues/1640/events",
  "html_url": "https://github.com/bitcoin/bitcoin/issues/1640",
  "id": 5918631,
  "node_id": "MDU6SXNzdWU1OTE4NjMx",
  "number": 1640,
  "title": "Bitcoin-qt stalls on \"Loading block index\" after upgrade to OSX Mountain Lion.",
  "user": {
    "login": "MatthewLM",
    "id": 1679965,
    "node_id": "MDQ6VXNlcjE2Nzk5NjU=",
    "avatar_url": "https://avatars.githubusercontent.com/u/1679965?v=4",
    "gravatar_id": "",
    "url": "https://api.github.com/users/MatthewLM",
    "html_url": "https://github.com/MatthewLM",
    "followers_url": "https://api.github.com/users/MatthewLM/followers",
    "following_url": "https://api.github.com/users/MatthewLM/following{/other_user}",
    "gists_url": "https://api.github.com/users/MatthewLM/gists{/gist_id}",
    "starred_url": "https://api.github.com/users/MatthewLM/starred{/owner}{/repo}",
    "subscriptions_url": "https://api.github.com/users/MatthewLM/subscriptions",
    "organizations_url": "https://api.github.com/users/MatthewLM/orgs",
    "repos_url": "https://api.github.com/users/MatthewLM/repos",
    "events_url": "https://api.github.com/users/MatthewLM/events{/privacy}",
    "received_events_url": "https://api.github.com/users/MatthewLM/received_events",
    "type": "User",
    "site_admin": false
  },
  "labels": [

  ],
  "state": "closed",
  "locked": true,
  "assignee": null,
  "assignees": [

  ],
  "milestone": null,
  "comments": 1,
  "created_at": "2012-07-30T14:18:08Z",
  "updated_at": "2021-09-08T12:17:37Z",
  "closed_at": "2012-08-08T20:01:34Z",
  "author_association": "NONE",
  "active_lock_reason": "resolved",
  "body_html": "<p dir=\"auto\">After upgrading from OSX Snow Leopard to OSX Mountain Lion bitcoin-qt stalls on startup:</p>\n<p dir=\"auto\">Bitcoin version v0.6.3-beta (2012-06-19 16:44:55 -0400)<br>\nDefault data directory /Users/matt/Library/Application Support/Bitcoin<br>\nLoading addresses...<br>\ndbenv.open LogDir=/Users/matt/Library/Application Support/Bitcoin/database ErrorFile=/Users/matt/Library/Application Support/Bitcoin/db.log<br>\nLoaded 13666 addresses<br>\naddresses              3087ms<br>\nLoading block index...</p>",
  "body_text": "After upgrading from OSX Snow Leopard to OSX Mountain Lion bitcoin-qt stalls on startup:\nBitcoin version v0.6.3-beta (2012-06-19 16:44:55 -0400)\nDefault data directory /Users/matt/Library/Application Support/Bitcoin\nLoading addresses...\ndbenv.open LogDir=/Users/matt/Library/Application Support/Bitcoin/database ErrorFile=/Users/matt/Library/Application Support/Bitcoin/db.log\nLoaded 13666 addresses\naddresses              3087ms\nLoading block index...",
  "body": "After upgrading from OSX Snow Leopard to OSX Mountain Lion bitcoin-qt stalls on startup:\n\nBitcoin version v0.6.3-beta (2012-06-19 16:44:55 -0400)\nDefault data directory /Users/matt/Library/Application Support/Bitcoin\nLoading addresses...\ndbenv.open LogDir=/Users/matt/Library/Application Support/Bitcoin/database ErrorFile=/Users/matt/Library/Application Support/Bitcoin/db.log\nLoaded 13666 addresses\n addresses              3087ms\nLoading block index...\n",
  "closed_by": {
    "login": "MatthewLM",
    "id": 1679965,
    "node_id": "MDQ6VXNlcjE2Nzk5NjU=",
    "avatar_url": "https://avatars.githubusercontent.com/u/1679965?v=4",
    "gravatar_id": "",
    "url": "https://api.github.com/users/MatthewLM",
    "html_url": "https://github.com/MatthewLM",
    "followers_url": "https://api.github.com/users/MatthewLM/followers",
    "following_url": "https://api.github.com/users/MatthewLM/following{/other_user}",
    "gists_url": "https://api.github.com/users/MatthewLM/gists{/gist_id}",
    "starred_url": "https://api.github.com/users/MatthewLM/starred{/owner}{/repo}",
    "subscriptions_url": "https://api.github.com/users/MatthewLM/subscriptions",
    "organizations_url": "https://api.github.com/users/MatthewLM/orgs",
    "repos_url": "https://api.github.com/users/MatthewLM/repos",
    "events_url": "https://api.github.com/users/MatthewLM/events{/privacy}",
    "received_events_url": "https://api.github.com/users/MatthewLM/received_events",
    "type": "User",
    "site_admin": false
  },
  "reactions": {
    "url": "https://api.github.com/repos/bitcoin/bitcoin/issues/1640/reactions",
    "total_count": 0,
    "+1": 0,
    "-1": 0,
    "laugh": 0,
    "hooray": 0,
    "confused": 0,
    "heart": 0,
    "rocket": 0,
    "eyes": 0
  },
  "timeline_url": "https://api.github.com/repos/bitcoin/bitcoin/issues/1640/timeline",
  "performed_via_github_app": null,
  "state_reason": "completed"
}
