{
  "url": "https://api.github.com/repos/bitcoin/bitcoin/issues/19104",
  "repository_url": "https://api.github.com/repos/bitcoin/bitcoin",
  "labels_url": "https://api.github.com/repos/bitcoin/bitcoin/issues/19104/labels{/name}",
  "comments_url": "https://api.github.com/repos/bitcoin/bitcoin/issues/19104/comments",
  "events_url": "https://api.github.com/repos/bitcoin/bitcoin/issues/19104/events",
  "html_url": "https://github.com/bitcoin/bitcoin/pull/19104",
  "id": 627119883,
  "node_id": "MDExOlB1bGxSZXF1ZXN0NDI0OTgyODEz",
  "number": 19104,
  "title": "gui, refactor: Register Qt meta types in application constructor",
  "user": {
    "login": "promag",
    "id": 3534524,
    "node_id": "MDQ6VXNlcjM1MzQ1MjQ=",
    "avatar_url": "https://avatars.githubusercontent.com/u/3534524?v=4",
    "gravatar_id": "",
    "url": "https://api.github.com/users/promag",
    "html_url": "https://github.com/promag",
    "followers_url": "https://api.github.com/users/promag/followers",
    "following_url": "https://api.github.com/users/promag/following{/other_user}",
    "gists_url": "https://api.github.com/users/promag/gists{/gist_id}",
    "starred_url": "https://api.github.com/users/promag/starred{/owner}{/repo}",
    "subscriptions_url": "https://api.github.com/users/promag/subscriptions",
    "organizations_url": "https://api.github.com/users/promag/orgs",
    "repos_url": "https://api.github.com/users/promag/repos",
    "events_url": "https://api.github.com/users/promag/events{/privacy}",
    "received_events_url": "https://api.github.com/users/promag/received_events",
    "type": "User",
    "site_admin": false
  },
  "labels": [
    {
      "id": 135946,
      "node_id": "MDU6TGFiZWwxMzU5NDY=",
      "url": "https://api.github.com/repos/bitcoin/bitcoin/labels/GUI",
      "name": "GUI",
      "color": "02d7e1",
      "default": false,
      "description": null
    }
  ],
  "state": "closed",
  "locked": true,
  "assignee": null,
  "assignees": [

  ],
  "milestone": null,
  "comments": 12,
  "created_at": "2020-05-29T09:08:44Z",
  "updated_at": "2022-02-15T10:31:53Z",
  "closed_at": "2020-06-02T06:48:35Z",
  "author_association": "MEMBER",
  "active_lock_reason": "resolved",
  "draft": false,
  "pull_request": {
    "url": "https://api.github.com/repos/bitcoin/bitcoin/pulls/19104",
    "html_url": "https://github.com/bitcoin/bitcoin/pull/19104",
    "diff_url": "https://github.com/bitcoin/bitcoin/pull/19104.diff",
    "patch_url": "https://github.com/bitcoin/bitcoin/pull/19104.patch",
    "merged_at": "2020-06-02T06:48:35Z"
  },
  "body_html": "<p dir=\"auto\">Removes a warning when running <code class=\"notranslate\">QT_QPA_PLATFORM=cocoa src/qt/test/test_bitcoin-qt</code>.</p>",
  "body_text": "Removes a warning when running QT_QPA_PLATFORM=cocoa src/qt/test/test_bitcoin-qt.",
  "body": "Removes a warning when running `QT_QPA_PLATFORM=cocoa src/qt/test/test_bitcoin-qt`.",
  "closed_by": {
    "login": "jonasschnelli",
    "id": 178464,
    "node_id": "MDQ6VXNlcjE3ODQ2NA==",
    "avatar_url": "https://avatars.githubusercontent.com/u/178464?v=4",
    "gravatar_id": "",
    "url": "https://api.github.com/users/jonasschnelli",
    "html_url": "https://github.com/jonasschnelli",
    "followers_url": "https://api.github.com/users/jonasschnelli/followers",
    "following_url": "https://api.github.com/users/jonasschnelli/following{/other_user}",
    "gists_url": "https://api.github.com/users/jonasschnelli/gists{/gist_id}",
    "starred_url": "https://api.github.com/users/jonasschnelli/starred{/owner}{/repo}",
    "subscriptions_url": "https://api.github.com/users/jonasschnelli/subscriptions",
    "organizations_url": "https://api.github.com/users/jonasschnelli/orgs",
    "repos_url": "https://api.github.com/users/jonasschnelli/repos",
    "events_url": "https://api.github.com/users/jonasschnelli/events{/privacy}",
    "received_events_url": "https://api.github.com/users/jonasschnelli/received_events",
    "type": "User",
    "site_admin": false
  },
  "reactions": {
    "url": "https://api.github.com/repos/bitcoin/bitcoin/issues/19104/reactions",
    "total_count": 1,
    "+1": 1,
    "-1": 0,
    "laugh": 0,
    "hooray": 0,
    "confused": 0,
    "heart": 0,
    "rocket": 0,
    "eyes": 0
  },
  "timeline_url": "https://api.github.com/repos/bitcoin/bitcoin/issues/19104/timeline",
  "performed_via_github_app": null,
  "state_reason": null
}
