{
  "url": "https://api.github.com/repos/bitcoin/bitcoin/issues/511",
  "repository_url": "https://api.github.com/repos/bitcoin/bitcoin",
  "labels_url": "https://api.github.com/repos/bitcoin/bitcoin/issues/511/labels{/name}",
  "comments_url": "https://api.github.com/repos/bitcoin/bitcoin/issues/511/comments",
  "events_url": "https://api.github.com/repos/bitcoin/bitcoin/issues/511/events",
  "html_url": "https://github.com/bitcoin/bitcoin/pull/511",
  "id": 1616355,
  "node_id": "MDExOlB1bGxSZXF1ZXN0MzIxOTkz",
  "number": 511,
  "title": "Updated German translation",
  "user": {
    "login": "mibe",
    "id": 573529,
    "node_id": "MDQ6VXNlcjU3MzUyOQ==",
    "avatar_url": "https://avatars.githubusercontent.com/u/573529?v=4",
    "gravatar_id": "",
    "url": "https://api.github.com/users/mibe",
    "html_url": "https://github.com/mibe",
    "followers_url": "https://api.github.com/users/mibe/followers",
    "following_url": "https://api.github.com/users/mibe/following{/other_user}",
    "gists_url": "https://api.github.com/users/mibe/gists{/gist_id}",
    "starred_url": "https://api.github.com/users/mibe/starred{/owner}{/repo}",
    "subscriptions_url": "https://api.github.com/users/mibe/subscriptions",
    "organizations_url": "https://api.github.com/users/mibe/orgs",
    "repos_url": "https://api.github.com/users/mibe/repos",
    "events_url": "https://api.github.com/users/mibe/events{/privacy}",
    "received_events_url": "https://api.github.com/users/mibe/received_events",
    "type": "User",
    "site_admin": false
  },
  "labels": [

  ],
  "state": "closed",
  "locked": true,
  "assignee": null,
  "assignees": [

  ],
  "milestone": null,
  "comments": 5,
  "created_at": "2011-09-11T01:07:07Z",
  "updated_at": "2021-09-08T10:03:14Z",
  "closed_at": "2011-09-12T01:45:01Z",
  "author_association": "CONTRIBUTOR",
  "active_lock_reason": "resolved",
  "draft": false,
  "pull_request": {
    "url": "https://api.github.com/repos/bitcoin/bitcoin/pulls/511",
    "html_url": "https://github.com/bitcoin/bitcoin/pull/511",
    "diff_url": "https://github.com/bitcoin/bitcoin/pull/511.diff",
    "patch_url": "https://github.com/bitcoin/bitcoin/pull/511.patch",
    "merged_at": "2011-09-12T01:45:01Z"
  },
  "body_html": "<p dir=\"auto\">This time with the binary .mo file removed.</p>",
  "body_text": "This time with the binary .mo file removed.",
  "body": "This time with the binary .mo file removed.\n",
  "closed_by": {
    "login": "jgarzik",
    "id": 494411,
    "node_id": "MDQ6VXNlcjQ5NDQxMQ==",
    "avatar_url": "https://avatars.githubusercontent.com/u/494411?v=4",
    "gravatar_id": "",
    "url": "https://api.github.com/users/jgarzik",
    "html_url": "https://github.com/jgarzik",
    "followers_url": "https://api.github.com/users/jgarzik/followers",
    "following_url": "https://api.github.com/users/jgarzik/following{/other_user}",
    "gists_url": "https://api.github.com/users/jgarzik/gists{/gist_id}",
    "starred_url": "https://api.github.com/users/jgarzik/starred{/owner}{/repo}",
    "subscriptions_url": "https://api.github.com/users/jgarzik/subscriptions",
    "organizations_url": "https://api.github.com/users/jgarzik/orgs",
    "repos_url": "https://api.github.com/users/jgarzik/repos",
    "events_url": "https://api.github.com/users/jgarzik/events{/privacy}",
    "received_events_url": "https://api.github.com/users/jgarzik/received_events",
    "type": "User",
    "site_admin": false
  },
  "reactions": {
    "url": "https://api.github.com/repos/bitcoin/bitcoin/issues/511/reactions",
    "total_count": 0,
    "+1": 0,
    "-1": 0,
    "laugh": 0,
    "hooray": 0,
    "confused": 0,
    "heart": 0,
    "rocket": 0,
    "eyes": 0
  },
  "timeline_url": "https://api.github.com/repos/bitcoin/bitcoin/issues/511/timeline",
  "performed_via_github_app": null,
  "state_reason": null
}
