[
  {
    "url": "https://api.github.com/repos/bitcoin/bitcoin/issues/comments/846344191",
    "html_url": "https://github.com/bitcoin/bitcoin/pull/22019#issuecomment-846344191",
    "issue_url": "https://api.github.com/repos/bitcoin/bitcoin/issues/22019",
    "id": 846344191,
    "node_id": "MDEyOklzc3VlQ29tbWVudDg0NjM0NDE5MQ==",
    "user": {
      "login": "DrahtBot",
      "id": 39886733,
      "node_id": "MDQ6VXNlcjM5ODg2NzMz",
      "avatar_url": "https://avatars.githubusercontent.com/u/39886733?v=4",
      "gravatar_id": "",
      "url": "https://api.github.com/users/DrahtBot",
      "html_url": "https://github.com/DrahtBot",
      "followers_url": "https://api.github.com/users/DrahtBot/followers",
      "following_url": "https://api.github.com/users/DrahtBot/following{/other_user}",
      "gists_url": "https://api.github.com/users/DrahtBot/gists{/gist_id}",
      "starred_url": "https://api.github.com/users/DrahtBot/starred{/owner}{/repo}",
      "subscriptions_url": "https://api.github.com/users/DrahtBot/subscriptions",
      "organizations_url": "https://api.github.com/users/DrahtBot/orgs",
      "repos_url": "https://api.github.com/users/DrahtBot/repos",
      "events_url": "https://api.github.com/users/DrahtBot/events{/privacy}",
      "received_events_url": "https://api.github.com/users/DrahtBot/received_events",
      "type": "User",
      "site_admin": false
    },
    "created_at": "2021-05-22T03:49:39Z",
    "updated_at": "2021-12-09T14:37:37Z",
    "author_association": "CONTRIBUTOR",
    "body_html": "\n<p dir=\"auto\">The following sections might be updated with supplementary metadata relevant to reviewers and maintainers.</p>\n\n<h3 dir=\"auto\">Conflicts</h3>\n<p dir=\"auto\">Reviewers, this pull request conflicts with the following ones:</p>\n<ul dir=\"auto\">\n<li><a href=\"https://github.com/bitcoin/bitcoin/pull/23534\" data-hovercard-type=\"pull_request\" data-hovercard-url=\"/bitcoin/bitcoin/pull/23534/hovercard\">#23534</a> (wallet: Allow negtive effective value inputs when subtracting fee from outputs by achow101)</li>\n<li><a href=\"https://github.com/bitcoin/bitcoin/pull/23497\" data-hovercard-type=\"pull_request\" data-hovercard-url=\"/bitcoin/bitcoin/pull/23497/hovercard\">#23497</a> (Add <code class=\"notranslate\">src/node/</code> and <code class=\"notranslate\">src/wallet/</code> code to <code class=\"notranslate\">node::</code> and <code class=\"notranslate\">wallet::</code> namespaces by ryanofsky)</li>\n<li><a href=\"https://github.com/bitcoin/bitcoin/pull/23475\" data-hovercard-type=\"pull_request\" data-hovercard-url=\"/bitcoin/bitcoin/pull/23475/hovercard\">#23475</a> (wallet: add config to prioritize a solution that doesn't create change in coin selection by brunoerg)</li>\n<li><a href=\"https://github.com/bitcoin/bitcoin/pull/23367\" data-hovercard-type=\"pull_request\" data-hovercard-url=\"/bitcoin/bitcoin/pull/23367/hovercard\">#23367</a> (Optimize coin selection by dropping BnB upper limit by S3RK)</li>\n<li><a href=\"https://github.com/bitcoin/bitcoin/pull/23202\" data-hovercard-type=\"pull_request\" data-hovercard-url=\"/bitcoin/bitcoin/pull/23202/hovercard\">#23202</a> (wallet: allow psbtbumpfee to work with txs with external inputs by achow101)</li>\n<li><a href=\"https://github.com/bitcoin/bitcoin/pull/23201\" data-hovercard-type=\"pull_request\" data-hovercard-url=\"/bitcoin/bitcoin/pull/23201/hovercard\">#23201</a> (wallet: Allow users to specify input weights when funding a transaction by achow101)</li>\n<li><a href=\"https://github.com/bitcoin/bitcoin/pull/13226\" data-hovercard-type=\"pull_request\" data-hovercard-url=\"/bitcoin/bitcoin/pull/13226/hovercard\">#13226</a> (Optimize SelectCoinsBnB by tracking the selection by index rather than by position by Empact)</li>\n</ul>\n<p dir=\"auto\">If you consider this pull request important, please also help to review the conflicting pull requests. Ideally, start with the one that should be merged first.</p>",
    "body_text": "The following sections might be updated with supplementary metadata relevant to reviewers and maintainers.\n\nConflicts\nReviewers, this pull request conflicts with the following ones:\n\n#23534 (wallet: Allow negtive effective value inputs when subtracting fee from outputs by achow101)\n#23497 (Add src/node/ and src/wallet/ code to node:: and wallet:: namespaces by ryanofsky)\n#23475 (wallet: add config to prioritize a solution that doesn't create change in coin selection by brunoerg)\n#23367 (Optimize coin selection by dropping BnB upper limit by S3RK)\n#23202 (wallet: allow psbtbumpfee to work with txs with external inputs by achow101)\n#23201 (wallet: Allow users to specify input weights when funding a transaction by achow101)\n#13226 (Optimize SelectCoinsBnB by tracking the selection by index rather than by position by Empact)\n\nIf you consider this pull request important, please also help to review the conflicting pull requests. Ideally, start with the one that should be merged first.",
    "body": "<!--e57a25ab6845829454e8d69fc972939a-->\n\nThe following sections might be updated with supplementary metadata relevant to reviewers and maintainers.\n\n<!--174a7506f384e20aa4161008e828411d-->\n### Conflicts\nReviewers, this pull request conflicts with the following ones:\n\n* [#23534](https://github.com/bitcoin/bitcoin/pull/23534) (wallet: Allow negtive effective value inputs when subtracting fee from outputs by achow101)\n* [#23497](https://github.com/bitcoin/bitcoin/pull/23497) (Add `src/node/` and `src/wallet/` code to `node::` and `wallet::` namespaces by ryanofsky)\n* [#23475](https://github.com/bitcoin/bitcoin/pull/23475) (wallet: add config to prioritize a solution that doesn't create change in coin selection by brunoerg)\n* [#23367](https://github.com/bitcoin/bitcoin/pull/23367) (Optimize coin selection by dropping BnB upper limit by S3RK)\n* [#23202](https://github.com/bitcoin/bitcoin/pull/23202) (wallet: allow psbtbumpfee to work with txs with external inputs by achow101)\n* [#23201](https://github.com/bitcoin/bitcoin/pull/23201) (wallet: Allow users to specify input weights when funding a transaction by achow101)\n* [#13226](https://github.com/bitcoin/bitcoin/pull/13226) (Optimize SelectCoinsBnB by tracking the selection by index rather than by position by Empact)\n\nIf you consider this pull request important, please also help to review the conflicting pull requests. Ideally, start with the one that should be merged first.",
    "reactions": {
      "url": "https://api.github.com/repos/bitcoin/bitcoin/issues/comments/846344191/reactions",
      "total_count": 0,
      "+1": 0,
      "-1": 0,
      "laugh": 0,
      "hooray": 0,
      "confused": 0,
      "heart": 0,
      "rocket": 0,
      "eyes": 0
    },
    "performed_via_github_app": null
  },
  {
    "url": "https://api.github.com/repos/bitcoin/bitcoin/issues/comments/915297129",
    "html_url": "https://github.com/bitcoin/bitcoin/pull/22019#issuecomment-915297129",
    "issue_url": "https://api.github.com/repos/bitcoin/bitcoin/issues/22019",
    "id": 915297129,
    "node_id": "IC_kwDOABII5842jlNp",
    "user": {
      "login": "theStack",
      "id": 91535,
      "node_id": "MDQ6VXNlcjkxNTM1",
      "avatar_url": "https://avatars.githubusercontent.com/u/91535?v=4",
      "gravatar_id": "",
      "url": "https://api.github.com/users/theStack",
      "html_url": "https://github.com/theStack",
      "followers_url": "https://api.github.com/users/theStack/followers",
      "following_url": "https://api.github.com/users/theStack/following{/other_user}",
      "gists_url": "https://api.github.com/users/theStack/gists{/gist_id}",
      "starred_url": "https://api.github.com/users/theStack/starred{/owner}{/repo}",
      "subscriptions_url": "https://api.github.com/users/theStack/subscriptions",
      "organizations_url": "https://api.github.com/users/theStack/orgs",
      "repos_url": "https://api.github.com/users/theStack/repos",
      "events_url": "https://api.github.com/users/theStack/events{/privacy}",
      "received_events_url": "https://api.github.com/users/theStack/received_events",
      "type": "User",
      "site_admin": false
    },
    "created_at": "2021-09-08T14:38:13Z",
    "updated_at": "2021-09-08T14:38:13Z",
    "author_association": "CONTRIBUTOR",
    "body_html": "<p dir=\"auto\">Concept ACK</p>",
    "body_text": "Concept ACK",
    "body": "Concept ACK",
    "reactions": {
      "url": "https://api.github.com/repos/bitcoin/bitcoin/issues/comments/915297129/reactions",
      "total_count": 0,
      "+1": 0,
      "-1": 0,
      "laugh": 0,
      "hooray": 0,
      "confused": 0,
      "heart": 0,
      "rocket": 0,
      "eyes": 0
    },
    "performed_via_github_app": null
  },
  {
    "url": "https://api.github.com/repos/bitcoin/bitcoin/issues/comments/929692924",
    "html_url": "https://github.com/bitcoin/bitcoin/pull/22019#issuecomment-929692924",
    "issue_url": "https://api.github.com/repos/bitcoin/bitcoin/issues/22019",
    "id": 929692924,
    "node_id": "IC_kwDOABII5843afz8",
    "user": {
      "login": "achow101",
      "id": 3782274,
      "node_id": "MDQ6VXNlcjM3ODIyNzQ=",
      "avatar_url": "https://avatars.githubusercontent.com/u/3782274?v=4",
      "gravatar_id": "",
      "url": "https://api.github.com/users/achow101",
      "html_url": "https://github.com/achow101",
      "followers_url": "https://api.github.com/users/achow101/followers",
      "following_url": "https://api.github.com/users/achow101/following{/other_user}",
      "gists_url": "https://api.github.com/users/achow101/gists{/gist_id}",
      "starred_url": "https://api.github.com/users/achow101/starred{/owner}{/repo}",
      "subscriptions_url": "https://api.github.com/users/achow101/subscriptions",
      "organizations_url": "https://api.github.com/users/achow101/orgs",
      "repos_url": "https://api.github.com/users/achow101/repos",
      "events_url": "https://api.github.com/users/achow101/events{/privacy}",
      "received_events_url": "https://api.github.com/users/achow101/received_events",
      "type": "User",
      "site_admin": false
    },
    "created_at": "2021-09-28T23:18:56Z",
    "updated_at": "2021-09-28T23:18:56Z",
    "author_association": "MEMBER",
    "body_html": "<p dir=\"auto\">Rebased. I've also made some additional changes. Notably, instead of using <code class=\"notranslate\">SelectionResult</code> as an out parameter, all of the coin selection functions will return an <code class=\"notranslate\">std::optional&lt;SelectionResult&gt;</code> instead.</p>",
    "body_text": "Rebased. I've also made some additional changes. Notably, instead of using SelectionResult as an out parameter, all of the coin selection functions will return an std::optional<SelectionResult> instead.",
    "body": "Rebased. I've also made some additional changes. Notably, instead of using `SelectionResult` as an out parameter, all of the coin selection functions will return an `std::optional<SelectionResult>` instead.",
    "reactions": {
      "url": "https://api.github.com/repos/bitcoin/bitcoin/issues/comments/929692924/reactions",
      "total_count": 0,
      "+1": 0,
      "-1": 0,
      "laugh": 0,
      "hooray": 0,
      "confused": 0,
      "heart": 0,
      "rocket": 0,
      "eyes": 0
    },
    "performed_via_github_app": null
  },
  {
    "url": "https://api.github.com/repos/bitcoin/bitcoin/issues/comments/937544686",
    "html_url": "https://github.com/bitcoin/bitcoin/pull/22019#issuecomment-937544686",
    "issue_url": "https://api.github.com/repos/bitcoin/bitcoin/issues/22019",
    "id": 937544686,
    "node_id": "IC_kwDOABII58434cvu",
    "user": {
      "login": "S3RK",
      "id": 1466284,
      "node_id": "MDQ6VXNlcjE0NjYyODQ=",
      "avatar_url": "https://avatars.githubusercontent.com/u/1466284?v=4",
      "gravatar_id": "",
      "url": "https://api.github.com/users/S3RK",
      "html_url": "https://github.com/S3RK",
      "followers_url": "https://api.github.com/users/S3RK/followers",
      "following_url": "https://api.github.com/users/S3RK/following{/other_user}",
      "gists_url": "https://api.github.com/users/S3RK/gists{/gist_id}",
      "starred_url": "https://api.github.com/users/S3RK/starred{/owner}{/repo}",
      "subscriptions_url": "https://api.github.com/users/S3RK/subscriptions",
      "organizations_url": "https://api.github.com/users/S3RK/orgs",
      "repos_url": "https://api.github.com/users/S3RK/repos",
      "events_url": "https://api.github.com/users/S3RK/events{/privacy}",
      "received_events_url": "https://api.github.com/users/S3RK/received_events",
      "type": "User",
      "site_admin": false
    },
    "created_at": "2021-10-07T07:53:58Z",
    "updated_at": "2021-10-07T07:53:58Z",
    "author_association": "CONTRIBUTOR",
    "body_html": "<p dir=\"auto\">Concept ACK, going to review the code</p>",
    "body_text": "Concept ACK, going to review the code",
    "body": "Concept ACK, going to review the code",
    "reactions": {
      "url": "https://api.github.com/repos/bitcoin/bitcoin/issues/comments/937544686/reactions",
      "total_count": 0,
      "+1": 0,
      "-1": 0,
      "laugh": 0,
      "hooray": 0,
      "confused": 0,
      "heart": 0,
      "rocket": 0,
      "eyes": 0
    },
    "performed_via_github_app": null
  },
  {
    "url": "https://api.github.com/repos/bitcoin/bitcoin/issues/comments/942238913",
    "html_url": "https://github.com/bitcoin/bitcoin/pull/22019#issuecomment-942238913",
    "issue_url": "https://api.github.com/repos/bitcoin/bitcoin/issues/22019",
    "id": 942238913,
    "node_id": "IC_kwDOABII5844KWzB",
    "user": {
      "login": "Empact",
      "id": 5470,
      "node_id": "MDQ6VXNlcjU0NzA=",
      "avatar_url": "https://avatars.githubusercontent.com/u/5470?v=4",
      "gravatar_id": "",
      "url": "https://api.github.com/users/Empact",
      "html_url": "https://github.com/Empact",
      "followers_url": "https://api.github.com/users/Empact/followers",
      "following_url": "https://api.github.com/users/Empact/following{/other_user}",
      "gists_url": "https://api.github.com/users/Empact/gists{/gist_id}",
      "starred_url": "https://api.github.com/users/Empact/starred{/owner}{/repo}",
      "subscriptions_url": "https://api.github.com/users/Empact/subscriptions",
      "organizations_url": "https://api.github.com/users/Empact/orgs",
      "repos_url": "https://api.github.com/users/Empact/repos",
      "events_url": "https://api.github.com/users/Empact/events{/privacy}",
      "received_events_url": "https://api.github.com/users/Empact/received_events",
      "type": "User",
      "site_admin": false
    },
    "created_at": "2021-10-13T12:12:22Z",
    "updated_at": "2021-10-13T12:36:02Z",
    "author_association": "MEMBER",
    "body_html": "<p dir=\"auto\">Concept ACK.</p>\n<p dir=\"auto\">Was troubled by the largely unused <code class=\"notranslate\">cost_of_change</code> attr, and looked to narrow its scope. I think I've come up with some useful additions here: <a class=\"commit-link\" href=\"https://github.com/achow101/bitcoin/compare/selectionresult...Empact:selectionresult\">achow101/bitcoin@<tt>selectionresult...Empact:selectionresult</tt></a></p>\n<ul dir=\"auto\">\n<li>test: Drop unused knapsack_result var</li>\n<li>refactor: Move cost_of_change param from SelectionResult to #GetWaste</li>\n<li>refactor: Calculate waste once for each result, rather than once for comparison</li>\n<li>refactor: Move SelectionResult#Equivalent/EqualResult to test</li>\n</ul>",
    "body_text": "Concept ACK.\nWas troubled by the largely unused cost_of_change attr, and looked to narrow its scope. I think I've come up with some useful additions here: achow101/bitcoin@selectionresult...Empact:selectionresult\n\ntest: Drop unused knapsack_result var\nrefactor: Move cost_of_change param from SelectionResult to #GetWaste\nrefactor: Calculate waste once for each result, rather than once for comparison\nrefactor: Move SelectionResult#Equivalent/EqualResult to test",
    "body": "Concept ACK.\r\n\r\nWas troubled by the largely unused `cost_of_change` attr, and looked to narrow its scope. I think I've come up with some useful additions here: https://github.com/achow101/bitcoin/compare/selectionresult...Empact:selectionresult\r\n\r\n* test: Drop unused knapsack_result var\r\n* refactor: Move cost_of_change param from SelectionResult to #GetWaste\r\n* refactor: Calculate waste once for each result, rather than once for comparison\r\n* refactor: Move SelectionResult#Equivalent/EqualResult to test",
    "reactions": {
      "url": "https://api.github.com/repos/bitcoin/bitcoin/issues/comments/942238913/reactions",
      "total_count": 0,
      "+1": 0,
      "-1": 0,
      "laugh": 0,
      "hooray": 0,
      "confused": 0,
      "heart": 0,
      "rocket": 0,
      "eyes": 0
    },
    "performed_via_github_app": null
  },
  {
    "url": "https://api.github.com/repos/bitcoin/bitcoin/issues/comments/942552328",
    "html_url": "https://github.com/bitcoin/bitcoin/pull/22019#issuecomment-942552328",
    "issue_url": "https://api.github.com/repos/bitcoin/bitcoin/issues/22019",
    "id": 942552328,
    "node_id": "IC_kwDOABII5844LjUI",
    "user": {
      "login": "achow101",
      "id": 3782274,
      "node_id": "MDQ6VXNlcjM3ODIyNzQ=",
      "avatar_url": "https://avatars.githubusercontent.com/u/3782274?v=4",
      "gravatar_id": "",
      "url": "https://api.github.com/users/achow101",
      "html_url": "https://github.com/achow101",
      "followers_url": "https://api.github.com/users/achow101/followers",
      "following_url": "https://api.github.com/users/achow101/following{/other_user}",
      "gists_url": "https://api.github.com/users/achow101/gists{/gist_id}",
      "starred_url": "https://api.github.com/users/achow101/starred{/owner}{/repo}",
      "subscriptions_url": "https://api.github.com/users/achow101/subscriptions",
      "organizations_url": "https://api.github.com/users/achow101/orgs",
      "repos_url": "https://api.github.com/users/achow101/repos",
      "events_url": "https://api.github.com/users/achow101/events{/privacy}",
      "received_events_url": "https://api.github.com/users/achow101/received_events",
      "type": "User",
      "site_admin": false
    },
    "created_at": "2021-10-13T17:29:52Z",
    "updated_at": "2021-10-13T17:29:52Z",
    "author_association": "MEMBER",
    "body_html": "<p dir=\"auto\">I've pulled in all of the suggested changes.</p>",
    "body_text": "I've pulled in all of the suggested changes.",
    "body": "I've pulled in all of the suggested changes.",
    "reactions": {
      "url": "https://api.github.com/repos/bitcoin/bitcoin/issues/comments/942552328/reactions",
      "total_count": 0,
      "+1": 0,
      "-1": 0,
      "laugh": 0,
      "hooray": 0,
      "confused": 0,
      "heart": 0,
      "rocket": 0,
      "eyes": 0
    },
    "performed_via_github_app": null
  },
  {
    "url": "https://api.github.com/repos/bitcoin/bitcoin/issues/comments/984722508",
    "html_url": "https://github.com/bitcoin/bitcoin/pull/22019#issuecomment-984722508",
    "issue_url": "https://api.github.com/repos/bitcoin/bitcoin/issues/22019",
    "id": 984722508,
    "node_id": "IC_kwDOABII5846saxM",
    "user": {
      "login": "laanwj",
      "id": 126646,
      "node_id": "MDQ6VXNlcjEyNjY0Ng==",
      "avatar_url": "https://avatars.githubusercontent.com/u/126646?v=4",
      "gravatar_id": "",
      "url": "https://api.github.com/users/laanwj",
      "html_url": "https://github.com/laanwj",
      "followers_url": "https://api.github.com/users/laanwj/followers",
      "following_url": "https://api.github.com/users/laanwj/following{/other_user}",
      "gists_url": "https://api.github.com/users/laanwj/gists{/gist_id}",
      "starred_url": "https://api.github.com/users/laanwj/starred{/owner}{/repo}",
      "subscriptions_url": "https://api.github.com/users/laanwj/subscriptions",
      "organizations_url": "https://api.github.com/users/laanwj/orgs",
      "repos_url": "https://api.github.com/users/laanwj/repos",
      "events_url": "https://api.github.com/users/laanwj/events{/privacy}",
      "received_events_url": "https://api.github.com/users/laanwj/received_events",
      "type": "User",
      "site_admin": false
    },
    "created_at": "2021-12-02T15:16:15Z",
    "updated_at": "2021-12-02T15:16:26Z",
    "author_association": "MEMBER",
    "body_html": "<p dir=\"auto\">Code review ACK <a class=\"commit-link\" data-hovercard-type=\"commit\" data-hovercard-url=\"https://github.com/bitcoin/bitcoin/commit/e142d9af81c502a4694565ee6eef7b87ca1c0387/hovercard\" href=\"https://github.com/bitcoin/bitcoin/commit/e142d9af81c502a4694565ee6eef7b87ca1c0387\"><tt>e142d9a</tt></a><br>\nSeems pretty close to merge, found some last minute nits (sorry).</p>",
    "body_text": "Code review ACK e142d9a\nSeems pretty close to merge, found some last minute nits (sorry).",
    "body": "Code review ACK e142d9af81c502a4694565ee6eef7b87ca1c0387 \r\nSeems pretty close to merge, found some last minute nits (sorry).",
    "reactions": {
      "url": "https://api.github.com/repos/bitcoin/bitcoin/issues/comments/984722508/reactions",
      "total_count": 0,
      "+1": 0,
      "-1": 0,
      "laugh": 0,
      "hooray": 0,
      "confused": 0,
      "heart": 0,
      "rocket": 0,
      "eyes": 0
    },
    "performed_via_github_app": null
  },
  {
    "url": "https://api.github.com/repos/bitcoin/bitcoin/issues/comments/990005305",
    "html_url": "https://github.com/bitcoin/bitcoin/pull/22019#issuecomment-990005305",
    "issue_url": "https://api.github.com/repos/bitcoin/bitcoin/issues/22019",
    "id": 990005305,
    "node_id": "IC_kwDOABII5847Akg5",
    "user": {
      "login": "laanwj",
      "id": 126646,
      "node_id": "MDQ6VXNlcjEyNjY0Ng==",
      "avatar_url": "https://avatars.githubusercontent.com/u/126646?v=4",
      "gravatar_id": "",
      "url": "https://api.github.com/users/laanwj",
      "html_url": "https://github.com/laanwj",
      "followers_url": "https://api.github.com/users/laanwj/followers",
      "following_url": "https://api.github.com/users/laanwj/following{/other_user}",
      "gists_url": "https://api.github.com/users/laanwj/gists{/gist_id}",
      "starred_url": "https://api.github.com/users/laanwj/starred{/owner}{/repo}",
      "subscriptions_url": "https://api.github.com/users/laanwj/subscriptions",
      "organizations_url": "https://api.github.com/users/laanwj/orgs",
      "repos_url": "https://api.github.com/users/laanwj/repos",
      "events_url": "https://api.github.com/users/laanwj/events{/privacy}",
      "received_events_url": "https://api.github.com/users/laanwj/received_events",
      "type": "User",
      "site_admin": false
    },
    "created_at": "2021-12-09T16:20:34Z",
    "updated_at": "2021-12-09T16:20:34Z",
    "author_association": "MEMBER",
    "body_html": "<p dir=\"auto\">Code review ACK <a class=\"commit-link\" data-hovercard-type=\"commit\" data-hovercard-url=\"https://github.com/bitcoin/bitcoin/commit/05300c14392facf38330eb4fcd8e695a838b76f3/hovercard\" href=\"https://github.com/bitcoin/bitcoin/commit/05300c14392facf38330eb4fcd8e695a838b76f3\"><tt>05300c1</tt></a></p>",
    "body_text": "Code review ACK 05300c1",
    "body": "Code review ACK 05300c14392facf38330eb4fcd8e695a838b76f3",
    "reactions": {
      "url": "https://api.github.com/repos/bitcoin/bitcoin/issues/comments/990005305/reactions",
      "total_count": 0,
      "+1": 0,
      "-1": 0,
      "laugh": 0,
      "hooray": 0,
      "confused": 0,
      "heart": 0,
      "rocket": 0,
      "eyes": 0
    },
    "performed_via_github_app": null
  }
]
