{
  "url": "https://api.github.com/repos/bitcoin/bitcoin/issues/11342",
  "repository_url": "https://api.github.com/repos/bitcoin/bitcoin",
  "labels_url": "https://api.github.com/repos/bitcoin/bitcoin/issues/11342/labels{/name}",
  "comments_url": "https://api.github.com/repos/bitcoin/bitcoin/issues/11342/comments",
  "events_url": "https://api.github.com/repos/bitcoin/bitcoin/issues/11342/events",
  "html_url": "https://github.com/bitcoin/bitcoin/pull/11342",
  "id": 258076998,
  "node_id": "MDExOlB1bGxSZXF1ZXN0MTQxMzM3MzU1",
  "number": 11342,
  "title": "Sanity assert GetAncestor() != nullptr where appropriate",
  "user": {
    "login": "danra",
    "id": 84245,
    "node_id": "MDQ6VXNlcjg0MjQ1",
    "avatar_url": "https://avatars.githubusercontent.com/u/84245?v=4",
    "gravatar_id": "",
    "url": "https://api.github.com/users/danra",
    "html_url": "https://github.com/danra",
    "followers_url": "https://api.github.com/users/danra/followers",
    "following_url": "https://api.github.com/users/danra/following{/other_user}",
    "gists_url": "https://api.github.com/users/danra/gists{/gist_id}",
    "starred_url": "https://api.github.com/users/danra/starred{/owner}{/repo}",
    "subscriptions_url": "https://api.github.com/users/danra/subscriptions",
    "organizations_url": "https://api.github.com/users/danra/orgs",
    "repos_url": "https://api.github.com/users/danra/repos",
    "events_url": "https://api.github.com/users/danra/events{/privacy}",
    "received_events_url": "https://api.github.com/users/danra/received_events",
    "type": "User",
    "site_admin": false
  },
  "labels": [
    {
      "id": 118379652,
      "node_id": "MDU6TGFiZWwxMTgzNzk2NTI=",
      "url": "https://api.github.com/repos/bitcoin/bitcoin/labels/Validation",
      "name": "Validation",
      "color": "6060aa",
      "default": false,
      "description": null
    }
  ],
  "state": "closed",
  "locked": true,
  "assignee": null,
  "assignees": [

  ],
  "milestone": null,
  "comments": 7,
  "created_at": "2017-09-15T15:21:47Z",
  "updated_at": "2021-12-16T14:11:42Z",
  "closed_at": "2018-08-31T12:29:29Z",
  "author_association": "CONTRIBUTOR",
  "active_lock_reason": "resolved",
  "draft": false,
  "pull_request": {
    "url": "https://api.github.com/repos/bitcoin/bitcoin/pulls/11342",
    "html_url": "https://github.com/bitcoin/bitcoin/pull/11342",
    "diff_url": "https://github.com/bitcoin/bitcoin/pull/11342.diff",
    "patch_url": "https://github.com/bitcoin/bitcoin/pull/11342.patch",
    "merged_at": null
  },
  "body_html": "<p dir=\"auto\">Add sanity asserts for return value of <code class=\"notranslate\">CBlockIndex::GetAncestor()</code> where appropriate.</p>\n<p dir=\"auto\">In validation.cpp <code class=\"notranslate\">CheckSequenceLocks</code>, check the return value of <code class=\"notranslate\">tip-&gt;GetAncestor(maxInputHeight)</code> stored into <code class=\"notranslate\">lp-&gt;maxInputBlock</code>. If it ever returns <code class=\"notranslate\">nullptr</code> because the ancestor isn't found, it's going to be a bad bug to keep going, since a <code class=\"notranslate\">LockPoints</code> object with the <code class=\"notranslate\">maxInputBlock</code> member set to <code class=\"notranslate\">nullptr</code> signifies no relative lock time.</p>\n<p dir=\"auto\">In the other places, the added asserts would prevent accidental dereferencing of a null pointer which is UB.</p>",
  "body_text": "Add sanity asserts for return value of CBlockIndex::GetAncestor() where appropriate.\nIn validation.cpp CheckSequenceLocks, check the return value of tip->GetAncestor(maxInputHeight) stored into lp->maxInputBlock. If it ever returns nullptr because the ancestor isn't found, it's going to be a bad bug to keep going, since a LockPoints object with the maxInputBlock member set to nullptr signifies no relative lock time.\nIn the other places, the added asserts would prevent accidental dereferencing of a null pointer which is UB.",
  "body": "Add sanity asserts for return value of `CBlockIndex::GetAncestor()` where appropriate.\r\n\r\nIn validation.cpp `CheckSequenceLocks`, check the return value of `tip->GetAncestor(maxInputHeight)` stored into `lp->maxInputBlock`. If it ever returns `nullptr` because the ancestor isn't found, it's going to be a bad bug to keep going, since a `LockPoints` object with the `maxInputBlock` member set to `nullptr` signifies no relative lock time.\r\n\r\nIn the other places, the added asserts would prevent accidental dereferencing of a null pointer which is UB.",
  "closed_by": {
    "login": "laanwj",
    "id": 126646,
    "node_id": "MDQ6VXNlcjEyNjY0Ng==",
    "avatar_url": "https://avatars.githubusercontent.com/u/126646?v=4",
    "gravatar_id": "",
    "url": "https://api.github.com/users/laanwj",
    "html_url": "https://github.com/laanwj",
    "followers_url": "https://api.github.com/users/laanwj/followers",
    "following_url": "https://api.github.com/users/laanwj/following{/other_user}",
    "gists_url": "https://api.github.com/users/laanwj/gists{/gist_id}",
    "starred_url": "https://api.github.com/users/laanwj/starred{/owner}{/repo}",
    "subscriptions_url": "https://api.github.com/users/laanwj/subscriptions",
    "organizations_url": "https://api.github.com/users/laanwj/orgs",
    "repos_url": "https://api.github.com/users/laanwj/repos",
    "events_url": "https://api.github.com/users/laanwj/events{/privacy}",
    "received_events_url": "https://api.github.com/users/laanwj/received_events",
    "type": "User",
    "site_admin": false
  },
  "reactions": {
    "url": "https://api.github.com/repos/bitcoin/bitcoin/issues/11342/reactions",
    "total_count": 0,
    "+1": 0,
    "-1": 0,
    "laugh": 0,
    "hooray": 0,
    "confused": 0,
    "heart": 0,
    "rocket": 0,
    "eyes": 0
  },
  "timeline_url": "https://api.github.com/repos/bitcoin/bitcoin/issues/11342/timeline",
  "performed_via_github_app": null,
  "state_reason": null
}
