{
  "url": "https://api.github.com/repos/bitcoin/bitcoin/issues/10650",
  "repository_url": "https://api.github.com/repos/bitcoin/bitcoin",
  "labels_url": "https://api.github.com/repos/bitcoin/bitcoin/issues/10650/labels{/name}",
  "comments_url": "https://api.github.com/repos/bitcoin/bitcoin/issues/10650/comments",
  "events_url": "https://api.github.com/repos/bitcoin/bitcoin/issues/10650/events",
  "html_url": "https://github.com/bitcoin/bitcoin/pull/10650",
  "id": 237756918,
  "node_id": "MDExOlB1bGxSZXF1ZXN0MTI2OTI3MDk5",
  "number": 10650,
  "title": "Multiwallet: add RPC endpoint support",
  "user": {
    "login": "jonasschnelli",
    "id": 178464,
    "node_id": "MDQ6VXNlcjE3ODQ2NA==",
    "avatar_url": "https://avatars.githubusercontent.com/u/178464?v=4",
    "gravatar_id": "",
    "url": "https://api.github.com/users/jonasschnelli",
    "html_url": "https://github.com/jonasschnelli",
    "followers_url": "https://api.github.com/users/jonasschnelli/followers",
    "following_url": "https://api.github.com/users/jonasschnelli/following{/other_user}",
    "gists_url": "https://api.github.com/users/jonasschnelli/gists{/gist_id}",
    "starred_url": "https://api.github.com/users/jonasschnelli/starred{/owner}{/repo}",
    "subscriptions_url": "https://api.github.com/users/jonasschnelli/subscriptions",
    "organizations_url": "https://api.github.com/users/jonasschnelli/orgs",
    "repos_url": "https://api.github.com/users/jonasschnelli/repos",
    "events_url": "https://api.github.com/users/jonasschnelli/events{/privacy}",
    "received_events_url": "https://api.github.com/users/jonasschnelli/received_events",
    "type": "User",
    "site_admin": false
  },
  "labels": [
    {
      "id": 149424,
      "node_id": "MDU6TGFiZWwxNDk0MjQ=",
      "url": "https://api.github.com/repos/bitcoin/bitcoin/labels/Wallet",
      "name": "Wallet",
      "color": "08a781",
      "default": false,
      "description": null
    }
  ],
  "state": "closed",
  "locked": true,
  "assignee": null,
  "assignees": [

  ],
  "milestone": {
    "url": "https://api.github.com/repos/bitcoin/bitcoin/milestones/30",
    "html_url": "https://github.com/bitcoin/bitcoin/milestone/30",
    "labels_url": "https://api.github.com/repos/bitcoin/bitcoin/milestones/30/labels",
    "id": 2626187,
    "node_id": "MDk6TWlsZXN0b25lMjYyNjE4Nw==",
    "number": 30,
    "title": "0.16.0",
    "description": "This will be the release of segwit wallet. 🎉 ",
    "creator": {
      "login": "laanwj",
      "id": 126646,
      "node_id": "MDQ6VXNlcjEyNjY0Ng==",
      "avatar_url": "https://avatars.githubusercontent.com/u/126646?v=4",
      "gravatar_id": "",
      "url": "https://api.github.com/users/laanwj",
      "html_url": "https://github.com/laanwj",
      "followers_url": "https://api.github.com/users/laanwj/followers",
      "following_url": "https://api.github.com/users/laanwj/following{/other_user}",
      "gists_url": "https://api.github.com/users/laanwj/gists{/gist_id}",
      "starred_url": "https://api.github.com/users/laanwj/starred{/owner}{/repo}",
      "subscriptions_url": "https://api.github.com/users/laanwj/subscriptions",
      "organizations_url": "https://api.github.com/users/laanwj/orgs",
      "repos_url": "https://api.github.com/users/laanwj/repos",
      "events_url": "https://api.github.com/users/laanwj/events{/privacy}",
      "received_events_url": "https://api.github.com/users/laanwj/received_events",
      "type": "User",
      "site_admin": false
    },
    "open_issues": 0,
    "closed_issues": 70,
    "state": "closed",
    "created_at": "2017-07-06T19:58:41Z",
    "updated_at": "2018-03-07T16:28:13Z",
    "due_on": null,
    "closed_at": "2018-03-07T16:28:13Z"
  },
  "comments": 44,
  "created_at": "2017-06-22T07:37:49Z",
  "updated_at": "2021-09-08T11:28:49Z",
  "closed_at": "2017-09-05T22:50:57Z",
  "author_association": "CONTRIBUTOR",
  "active_lock_reason": "resolved",
  "draft": false,
  "pull_request": {
    "url": "https://api.github.com/repos/bitcoin/bitcoin/pulls/10650",
    "html_url": "https://github.com/bitcoin/bitcoin/pull/10650",
    "diff_url": "https://github.com/bitcoin/bitcoin/pull/10650.diff",
    "patch_url": "https://github.com/bitcoin/bitcoin/pull/10650.patch",
    "merged_at": null
  },
  "body_html": "<p dir=\"auto\">This adds a <code class=\"notranslate\">/wallet/*</code> endpoint to the RPC server (optional).</p>\n<p dir=\"auto\">The wallet RPC functions will try to find the selected wallet by comparing the given endpoint with all available wallets/<code class=\"notranslate\">walletID</code>s.</p>\n<p dir=\"auto\">The <code class=\"notranslate\">walletID</code> is currently defined by the filename (<code class=\"notranslate\">-wallet=&lt;filename&gt;</code>), ideally, we later add a wallet RPC call to set the walletID (should be written to the wallet database).</p>\n<p dir=\"auto\">This also includes endpoint support for <code class=\"notranslate\">bitcoin-cli</code>.<br>\nThere is a new argument <code class=\"notranslate\">-wallet=&lt;walletID&gt;</code>. If set, the given walletID will be used to call the endpoint with a scheme of <code class=\"notranslate\">/wallet/&lt; walletID &gt;</code>.</p>\n<p dir=\"auto\">QA's <code class=\"notranslate\">authproxy</code> is also extended to allow calls like <code class=\"notranslate\">self.nodes[0].&lt;walletID&gt;.&lt;method&gt;</code>.</p>\n<p dir=\"auto\">There is finally also a basic multiwallet RPC test.</p>\n<p dir=\"auto\">Contains <a class=\"issue-link js-issue-link\" data-error-text=\"Failed to load title\" data-id=\"237749322\" data-permission-text=\"Title is private\" data-url=\"https://github.com/bitcoin/bitcoin/issues/10649\" data-hovercard-type=\"pull_request\" data-hovercard-url=\"/bitcoin/bitcoin/pull/10649/hovercard\" href=\"https://github.com/bitcoin/bitcoin/pull/10649\">#10649</a>.</p>",
  "body_text": "This adds a /wallet/* endpoint to the RPC server (optional).\nThe wallet RPC functions will try to find the selected wallet by comparing the given endpoint with all available wallets/walletIDs.\nThe walletID is currently defined by the filename (-wallet=<filename>), ideally, we later add a wallet RPC call to set the walletID (should be written to the wallet database).\nThis also includes endpoint support for bitcoin-cli.\nThere is a new argument -wallet=<walletID>. If set, the given walletID will be used to call the endpoint with a scheme of /wallet/< walletID >.\nQA's authproxy is also extended to allow calls like self.nodes[0].<walletID>.<method>.\nThere is finally also a basic multiwallet RPC test.\nContains #10649.",
  "body": "This adds a `/wallet/*` endpoint to the RPC server (optional).\r\n\r\nThe wallet RPC functions will try to find the selected wallet by comparing the given endpoint with all available wallets/`walletID`s.\r\n\r\nThe `walletID` is currently defined by the filename (`-wallet=<filename>`), ideally, we later add a wallet RPC call to set the walletID (should be written to the wallet database).\r\n\r\nThis also includes endpoint support for `bitcoin-cli`.\r\nThere is a new argument `-wallet=<walletID>`. If set, the given walletID will be used to call the endpoint with a scheme of `/wallet/< walletID >`.\r\n\r\nQA's `authproxy` is also extended to allow calls like `self.nodes[0].<walletID>.<method>`.\r\n\r\nThere is finally also a basic multiwallet RPC test.\r\n\r\nContains #10649.",
  "closed_by": {
    "login": "jonasschnelli",
    "id": 178464,
    "node_id": "MDQ6VXNlcjE3ODQ2NA==",
    "avatar_url": "https://avatars.githubusercontent.com/u/178464?v=4",
    "gravatar_id": "",
    "url": "https://api.github.com/users/jonasschnelli",
    "html_url": "https://github.com/jonasschnelli",
    "followers_url": "https://api.github.com/users/jonasschnelli/followers",
    "following_url": "https://api.github.com/users/jonasschnelli/following{/other_user}",
    "gists_url": "https://api.github.com/users/jonasschnelli/gists{/gist_id}",
    "starred_url": "https://api.github.com/users/jonasschnelli/starred{/owner}{/repo}",
    "subscriptions_url": "https://api.github.com/users/jonasschnelli/subscriptions",
    "organizations_url": "https://api.github.com/users/jonasschnelli/orgs",
    "repos_url": "https://api.github.com/users/jonasschnelli/repos",
    "events_url": "https://api.github.com/users/jonasschnelli/events{/privacy}",
    "received_events_url": "https://api.github.com/users/jonasschnelli/received_events",
    "type": "User",
    "site_admin": false
  },
  "reactions": {
    "url": "https://api.github.com/repos/bitcoin/bitcoin/issues/10650/reactions",
    "total_count": 0,
    "+1": 0,
    "-1": 0,
    "laugh": 0,
    "hooray": 0,
    "confused": 0,
    "heart": 0,
    "rocket": 0,
    "eyes": 0
  },
  "timeline_url": "https://api.github.com/repos/bitcoin/bitcoin/issues/10650/timeline",
  "performed_via_github_app": null,
  "state_reason": null
}
