{
  "url": "https://api.github.com/repos/bitcoin/bitcoin/issues/28673",
  "repository_url": "https://api.github.com/repos/bitcoin/bitcoin",
  "labels_url": "https://api.github.com/repos/bitcoin/bitcoin/issues/28673/labels{/name}",
  "comments_url": "https://api.github.com/repos/bitcoin/bitcoin/issues/28673/comments",
  "events_url": "https://api.github.com/repos/bitcoin/bitcoin/issues/28673/events",
  "html_url": "https://github.com/bitcoin/bitcoin/pull/28673",
  "id": 1949762150,
  "node_id": "PR_kwDOABII585dJHR5",
  "number": 28673,
  "title": "docs: Add reference to total.coverage report",
  "user": {
    "login": "instagibbs",
    "id": 5767891,
    "node_id": "MDQ6VXNlcjU3Njc4OTE=",
    "avatar_url": "https://avatars.githubusercontent.com/u/5767891?v=4",
    "gravatar_id": "",
    "url": "https://api.github.com/users/instagibbs",
    "html_url": "https://github.com/instagibbs",
    "followers_url": "https://api.github.com/users/instagibbs/followers",
    "following_url": "https://api.github.com/users/instagibbs/following{/other_user}",
    "gists_url": "https://api.github.com/users/instagibbs/gists{/gist_id}",
    "starred_url": "https://api.github.com/users/instagibbs/starred{/owner}{/repo}",
    "subscriptions_url": "https://api.github.com/users/instagibbs/subscriptions",
    "organizations_url": "https://api.github.com/users/instagibbs/orgs",
    "repos_url": "https://api.github.com/users/instagibbs/repos",
    "events_url": "https://api.github.com/users/instagibbs/events{/privacy}",
    "received_events_url": "https://api.github.com/users/instagibbs/received_events",
    "type": "User",
    "site_admin": false
  },
  "labels": [
    {
      "id": 148216,
      "node_id": "MDU6TGFiZWwxNDgyMTY=",
      "url": "https://api.github.com/repos/bitcoin/bitcoin/labels/Docs",
      "name": "Docs",
      "color": "02d7e1",
      "default": false,
      "description": null
    }
  ],
  "state": "closed",
  "locked": false,
  "assignee": null,
  "assignees": [

  ],
  "milestone": null,
  "comments": 4,
  "created_at": "2023-10-18T13:28:51Z",
  "updated_at": "2023-10-19T09:32:13Z",
  "closed_at": "2023-10-19T09:32:12Z",
  "author_association": "MEMBER",
  "active_lock_reason": null,
  "draft": false,
  "pull_request": {
    "url": "https://api.github.com/repos/bitcoin/bitcoin/pulls/28673",
    "html_url": "https://github.com/bitcoin/bitcoin/pull/28673",
    "diff_url": "https://github.com/bitcoin/bitcoin/pull/28673.diff",
    "patch_url": "https://github.com/bitcoin/bitcoin/pull/28673.patch",
    "merged_at": "2023-10-19T09:32:12Z"
  },
  "body_html": "<p dir=\"auto\">I couldn't get fuzz coverage to work, so couldn't verify what it would look like if made.</p>",
  "body_text": "I couldn't get fuzz coverage to work, so couldn't verify what it would look like if made.",
  "body": "I couldn't get fuzz coverage to work, so couldn't verify what it would look like if made.",
  "closed_by": {
    "login": "fanquake",
    "id": 863730,
    "node_id": "MDQ6VXNlcjg2MzczMA==",
    "avatar_url": "https://avatars.githubusercontent.com/u/863730?v=4",
    "gravatar_id": "",
    "url": "https://api.github.com/users/fanquake",
    "html_url": "https://github.com/fanquake",
    "followers_url": "https://api.github.com/users/fanquake/followers",
    "following_url": "https://api.github.com/users/fanquake/following{/other_user}",
    "gists_url": "https://api.github.com/users/fanquake/gists{/gist_id}",
    "starred_url": "https://api.github.com/users/fanquake/starred{/owner}{/repo}",
    "subscriptions_url": "https://api.github.com/users/fanquake/subscriptions",
    "organizations_url": "https://api.github.com/users/fanquake/orgs",
    "repos_url": "https://api.github.com/users/fanquake/repos",
    "events_url": "https://api.github.com/users/fanquake/events{/privacy}",
    "received_events_url": "https://api.github.com/users/fanquake/received_events",
    "type": "User",
    "site_admin": false
  },
  "reactions": {
    "url": "https://api.github.com/repos/bitcoin/bitcoin/issues/28673/reactions",
    "total_count": 0,
    "+1": 0,
    "-1": 0,
    "laugh": 0,
    "hooray": 0,
    "confused": 0,
    "heart": 0,
    "rocket": 0,
    "eyes": 0
  },
  "timeline_url": "https://api.github.com/repos/bitcoin/bitcoin/issues/28673/timeline",
  "performed_via_github_app": null,
  "state_reason": null
}
