[
  {
    "url": "https://api.github.com/repos/bitcoin/bitcoin/issues/comments/5776458",
    "html_url": "https://github.com/bitcoin/bitcoin/pull/1326#issuecomment-5776458",
    "issue_url": "https://api.github.com/repos/bitcoin/bitcoin/issues/1326",
    "id": 5776458,
    "node_id": "MDEyOklzc3VlQ29tbWVudDU3NzY0NTg=",
    "user": {
      "login": "gmaxwell",
      "id": 858454,
      "node_id": "MDQ6VXNlcjg1ODQ1NA==",
      "avatar_url": "https://avatars.githubusercontent.com/u/858454?v=4",
      "gravatar_id": "",
      "url": "https://api.github.com/users/gmaxwell",
      "html_url": "https://github.com/gmaxwell",
      "followers_url": "https://api.github.com/users/gmaxwell/followers",
      "following_url": "https://api.github.com/users/gmaxwell/following{/other_user}",
      "gists_url": "https://api.github.com/users/gmaxwell/gists{/gist_id}",
      "starred_url": "https://api.github.com/users/gmaxwell/starred{/owner}{/repo}",
      "subscriptions_url": "https://api.github.com/users/gmaxwell/subscriptions",
      "organizations_url": "https://api.github.com/users/gmaxwell/orgs",
      "repos_url": "https://api.github.com/users/gmaxwell/repos",
      "events_url": "https://api.github.com/users/gmaxwell/events{/privacy}",
      "received_events_url": "https://api.github.com/users/gmaxwell/received_events",
      "type": "User",
      "site_admin": false
    },
    "created_at": "2012-05-17T23:10:08Z",
    "updated_at": "2012-05-17T23:10:08Z",
    "author_association": "CONTRIBUTOR",
    "body_html": "<p dir=\"auto\">I haven't had a chance to review this yet—  though I see you are using GetNumBlocksOfPeers()...</p>\n<p dir=\"auto\">It's perfectly possible for nodes to send insane values for the heights and some have done so. It should be treated as untrustworthy.  This function is currently only used in the GUI... and I think it should probably stay there.  At the very least every caller needs to give consideration to the possibility that a majority of your peers may be malicious and may give values chosen to make your day maximally bad.</p>",
    "body_text": "I haven't had a chance to review this yet—  though I see you are using GetNumBlocksOfPeers()...\nIt's perfectly possible for nodes to send insane values for the heights and some have done so. It should be treated as untrustworthy.  This function is currently only used in the GUI... and I think it should probably stay there.  At the very least every caller needs to give consideration to the possibility that a majority of your peers may be malicious and may give values chosen to make your day maximally bad.",
    "body": "I haven't had a chance to review this yet—  though I see you are using GetNumBlocksOfPeers()...\n\nIt's perfectly possible for nodes to send insane values for the heights and some have done so. It should be treated as untrustworthy.  This function is currently only used in the GUI... and I think it should probably stay there.  At the very least every caller needs to give consideration to the possibility that a majority of your peers may be malicious and may give values chosen to make your day maximally bad.\n",
    "reactions": {
      "url": "https://api.github.com/repos/bitcoin/bitcoin/issues/comments/5776458/reactions",
      "total_count": 0,
      "+1": 0,
      "-1": 0,
      "laugh": 0,
      "hooray": 0,
      "confused": 0,
      "heart": 0,
      "rocket": 0,
      "eyes": 0
    },
    "performed_via_github_app": null
  },
  {
    "url": "https://api.github.com/repos/bitcoin/bitcoin/issues/comments/5781630",
    "html_url": "https://github.com/bitcoin/bitcoin/pull/1326#issuecomment-5781630",
    "issue_url": "https://api.github.com/repos/bitcoin/bitcoin/issues/1326",
    "id": 5781630,
    "node_id": "MDEyOklzc3VlQ29tbWVudDU3ODE2MzA=",
    "user": {
      "login": "rebroad",
      "id": 1530283,
      "node_id": "MDQ6VXNlcjE1MzAyODM=",
      "avatar_url": "https://avatars.githubusercontent.com/u/1530283?v=4",
      "gravatar_id": "",
      "url": "https://api.github.com/users/rebroad",
      "html_url": "https://github.com/rebroad",
      "followers_url": "https://api.github.com/users/rebroad/followers",
      "following_url": "https://api.github.com/users/rebroad/following{/other_user}",
      "gists_url": "https://api.github.com/users/rebroad/gists{/gist_id}",
      "starred_url": "https://api.github.com/users/rebroad/starred{/owner}{/repo}",
      "subscriptions_url": "https://api.github.com/users/rebroad/subscriptions",
      "organizations_url": "https://api.github.com/users/rebroad/orgs",
      "repos_url": "https://api.github.com/users/rebroad/repos",
      "events_url": "https://api.github.com/users/rebroad/events{/privacy}",
      "received_events_url": "https://api.github.com/users/rebroad/received_events",
      "type": "User",
      "site_admin": false
    },
    "created_at": "2012-05-18T08:18:47Z",
    "updated_at": "2012-05-18T08:20:03Z",
    "author_association": "CONTRIBUTOR",
    "body_html": "<p dir=\"auto\">I've closed this pull for now, as it was opened for comments, but it's not ready to pull. It still needs: 1) stuck management, and 2a) either a separate AskFor function for txs and blocks, as as it's currently written, it'll getdata the same tx from many nodes at the same time, or 2b) the same treatment of txs, i.e. don't download the same tx from another peer.</p>\n<p dir=\"auto\">2b isn't so ideal as it will produce more getdatas as with the way it's written, it'll only have 1 inv per every getdata. This is ok for blocks (IMHO), but perhaps not so suitable for txs, so I'd be inclined to go with 2a rather than 2b.</p>\n<p dir=\"auto\">Feedback much appreciated.</p>\n<p dir=\"auto\"><a class=\"user-mention notranslate\" data-hovercard-type=\"user\" data-hovercard-url=\"/users/gmaxwell/hovercard\" data-octo-click=\"hovercard-link-click\" data-octo-dimensions=\"link_type:self\" href=\"https://github.com/gmaxwell\">@gmaxwell</a>, re your last comment, no worries, it's not finished anyway, so perhaps it's better to wait until I've completed bits 1 and 2a first - although your comments on whether 2a or 2b or 3c (something else) are suitable would be welcome.</p>\n<p dir=\"auto\">Re CaughtUp() not being reliable. Well, true, but if one is connected to misbehaving peers such as this, then one'd (!) probably not want to be downloading from them anyway. The reason I created CaughtUp() is so that it can be refined to be more reliable. It serves a different purpose to IsInitialDownload() from what I've been told by others that that function is for. I do think CaughtUp(), based on your comments above, does need refining given the risk you mention. Perhaps it can factor in the timestamp of the last block received also as a sanity check.</p>",
    "body_text": "I've closed this pull for now, as it was opened for comments, but it's not ready to pull. It still needs: 1) stuck management, and 2a) either a separate AskFor function for txs and blocks, as as it's currently written, it'll getdata the same tx from many nodes at the same time, or 2b) the same treatment of txs, i.e. don't download the same tx from another peer.\n2b isn't so ideal as it will produce more getdatas as with the way it's written, it'll only have 1 inv per every getdata. This is ok for blocks (IMHO), but perhaps not so suitable for txs, so I'd be inclined to go with 2a rather than 2b.\nFeedback much appreciated.\n@gmaxwell, re your last comment, no worries, it's not finished anyway, so perhaps it's better to wait until I've completed bits 1 and 2a first - although your comments on whether 2a or 2b or 3c (something else) are suitable would be welcome.\nRe CaughtUp() not being reliable. Well, true, but if one is connected to misbehaving peers such as this, then one'd (!) probably not want to be downloading from them anyway. The reason I created CaughtUp() is so that it can be refined to be more reliable. It serves a different purpose to IsInitialDownload() from what I've been told by others that that function is for. I do think CaughtUp(), based on your comments above, does need refining given the risk you mention. Perhaps it can factor in the timestamp of the last block received also as a sanity check.",
    "body": "I've closed this pull for now, as it was opened for comments, but it's not ready to pull. It still needs: 1) stuck management, and 2a) either a separate AskFor function for txs and blocks, as as it's currently written, it'll getdata the same tx from many nodes at the same time, or 2b) the same treatment of txs, i.e. don't download the same tx from another peer.\n\n2b isn't so ideal as it will produce more getdatas as with the way it's written, it'll only have 1 inv per every getdata. This is ok for blocks (IMHO), but perhaps not so suitable for txs, so I'd be inclined to go with 2a rather than 2b.\n\nFeedback much appreciated.\n\n@gmaxwell, re your last comment, no worries, it's not finished anyway, so perhaps it's better to wait until I've completed bits 1 and 2a first - although your comments on whether 2a or 2b or 3c (something else) are suitable would be welcome.\n\nRe CaughtUp() not being reliable. Well, true, but if one is connected to misbehaving peers such as this, then one'd (!) probably not want to be downloading from them anyway. The reason I created CaughtUp() is so that it can be refined to be more reliable. It serves a different purpose to IsInitialDownload() from what I've been told by others that that function is for. I do think CaughtUp(), based on your comments above, does need refining given the risk you mention. Perhaps it can factor in the timestamp of the last block received also as a sanity check.\n",
    "reactions": {
      "url": "https://api.github.com/repos/bitcoin/bitcoin/issues/comments/5781630/reactions",
      "total_count": 0,
      "+1": 0,
      "-1": 0,
      "laugh": 0,
      "hooray": 0,
      "confused": 0,
      "heart": 0,
      "rocket": 0,
      "eyes": 0
    },
    "performed_via_github_app": null
  },
  {
    "url": "https://api.github.com/repos/bitcoin/bitcoin/issues/comments/5983705",
    "html_url": "https://github.com/bitcoin/bitcoin/pull/1326#issuecomment-5983705",
    "issue_url": "https://api.github.com/repos/bitcoin/bitcoin/issues/1326",
    "id": 5983705,
    "node_id": "MDEyOklzc3VlQ29tbWVudDU5ODM3MDU=",
    "user": {
      "login": "rebroad",
      "id": 1530283,
      "node_id": "MDQ6VXNlcjE1MzAyODM=",
      "avatar_url": "https://avatars.githubusercontent.com/u/1530283?v=4",
      "gravatar_id": "",
      "url": "https://api.github.com/users/rebroad",
      "html_url": "https://github.com/rebroad",
      "followers_url": "https://api.github.com/users/rebroad/followers",
      "following_url": "https://api.github.com/users/rebroad/following{/other_user}",
      "gists_url": "https://api.github.com/users/rebroad/gists{/gist_id}",
      "starred_url": "https://api.github.com/users/rebroad/starred{/owner}{/repo}",
      "subscriptions_url": "https://api.github.com/users/rebroad/subscriptions",
      "organizations_url": "https://api.github.com/users/rebroad/orgs",
      "repos_url": "https://api.github.com/users/rebroad/repos",
      "events_url": "https://api.github.com/users/rebroad/events{/privacy}",
      "received_events_url": "https://api.github.com/users/rebroad/received_events",
      "type": "User",
      "site_admin": false
    },
    "created_at": "2012-05-29T13:41:20Z",
    "updated_at": "2012-05-29T13:41:20Z",
    "author_association": "CONTRIBUTOR",
    "body_html": "<p dir=\"auto\"><a class=\"commit-link\" data-hovercard-type=\"commit\" data-hovercard-url=\"https://github.com/rebroad/bitcoin/commit/f11b01d6c3f0c8eeeca06ba210af08a51887acbc/hovercard\" href=\"https://github.com/rebroad/bitcoin/commit/f11b01d6c3f0c8eeeca06ba210af08a51887acbc\">rebroad@<tt>f11b01d</tt></a> is an update of this pull request, and for some reason has \"detached\" from this pull request, so I'll have to raise another for this commit once I've done enough testing....</p>",
    "body_text": "rebroad@f11b01d is an update of this pull request, and for some reason has \"detached\" from this pull request, so I'll have to raise another for this commit once I've done enough testing....",
    "body": "https://github.com/rebroad/bitcoin/commit/f11b01d6c3f0c8eeeca06ba210af08a51887acbc is an update of this pull request, and for some reason has \"detached\" from this pull request, so I'll have to raise another for this commit once I've done enough testing....\n",
    "reactions": {
      "url": "https://api.github.com/repos/bitcoin/bitcoin/issues/comments/5983705/reactions",
      "total_count": 0,
      "+1": 0,
      "-1": 0,
      "laugh": 0,
      "hooray": 0,
      "confused": 0,
      "heart": 0,
      "rocket": 0,
      "eyes": 0
    },
    "performed_via_github_app": null
  }
]
