[
  {
    "url": "https://api.github.com/repos/bitcoin/bitcoin/issues/comments/399111773",
    "html_url": "https://github.com/bitcoin/bitcoin/issues/13516#issuecomment-399111773",
    "issue_url": "https://api.github.com/repos/bitcoin/bitcoin/issues/13516",
    "id": 399111773,
    "node_id": "MDEyOklzc3VlQ29tbWVudDM5OTExMTc3Mw==",
    "user": {
      "login": "maflcko",
      "id": 6399679,
      "node_id": "MDQ6VXNlcjYzOTk2Nzk=",
      "avatar_url": "https://avatars.githubusercontent.com/u/6399679?v=4",
      "gravatar_id": "",
      "url": "https://api.github.com/users/maflcko",
      "html_url": "https://github.com/maflcko",
      "followers_url": "https://api.github.com/users/maflcko/followers",
      "following_url": "https://api.github.com/users/maflcko/following{/other_user}",
      "gists_url": "https://api.github.com/users/maflcko/gists{/gist_id}",
      "starred_url": "https://api.github.com/users/maflcko/starred{/owner}{/repo}",
      "subscriptions_url": "https://api.github.com/users/maflcko/subscriptions",
      "organizations_url": "https://api.github.com/users/maflcko/orgs",
      "repos_url": "https://api.github.com/users/maflcko/repos",
      "events_url": "https://api.github.com/users/maflcko/events{/privacy}",
      "received_events_url": "https://api.github.com/users/maflcko/received_events",
      "type": "User",
      "site_admin": false
    },
    "created_at": "2018-06-21T13:54:35Z",
    "updated_at": "2018-06-21T13:54:35Z",
    "author_association": "MEMBER",
    "body_html": "<p dir=\"auto\">Potentially related: <a class=\"issue-link js-issue-link\" data-error-text=\"Failed to load title\" data-id=\"316208479\" data-permission-text=\"Title is private\" data-url=\"https://github.com/bitcoin/bitcoin/issues/13038\" data-hovercard-type=\"issue\" data-hovercard-url=\"/bitcoin/bitcoin/issues/13038/hovercard\" href=\"https://github.com/bitcoin/bitcoin/issues/13038\">#13038</a></p>",
    "body_text": "Potentially related: #13038",
    "body": "Potentially related: #13038",
    "reactions": {
      "url": "https://api.github.com/repos/bitcoin/bitcoin/issues/comments/399111773/reactions",
      "total_count": 0,
      "+1": 0,
      "-1": 0,
      "laugh": 0,
      "hooray": 0,
      "confused": 0,
      "heart": 0,
      "rocket": 0,
      "eyes": 0
    },
    "performed_via_github_app": null
  },
  {
    "url": "https://api.github.com/repos/bitcoin/bitcoin/issues/comments/399122961",
    "html_url": "https://github.com/bitcoin/bitcoin/issues/13516#issuecomment-399122961",
    "issue_url": "https://api.github.com/repos/bitcoin/bitcoin/issues/13516",
    "id": 399122961,
    "node_id": "MDEyOklzc3VlQ29tbWVudDM5OTEyMjk2MQ==",
    "user": {
      "login": "dooglus",
      "id": 573356,
      "node_id": "MDQ6VXNlcjU3MzM1Ng==",
      "avatar_url": "https://avatars.githubusercontent.com/u/573356?v=4",
      "gravatar_id": "",
      "url": "https://api.github.com/users/dooglus",
      "html_url": "https://github.com/dooglus",
      "followers_url": "https://api.github.com/users/dooglus/followers",
      "following_url": "https://api.github.com/users/dooglus/following{/other_user}",
      "gists_url": "https://api.github.com/users/dooglus/gists{/gist_id}",
      "starred_url": "https://api.github.com/users/dooglus/starred{/owner}{/repo}",
      "subscriptions_url": "https://api.github.com/users/dooglus/subscriptions",
      "organizations_url": "https://api.github.com/users/dooglus/orgs",
      "repos_url": "https://api.github.com/users/dooglus/repos",
      "events_url": "https://api.github.com/users/dooglus/events{/privacy}",
      "received_events_url": "https://api.github.com/users/dooglus/received_events",
      "type": "User",
      "site_admin": false
    },
    "created_at": "2018-06-21T14:27:32Z",
    "updated_at": "2018-06-21T14:27:32Z",
    "author_association": "CONTRIBUTOR",
    "body_html": "<p dir=\"auto\">Thanks <a class=\"user-mention notranslate\" data-hovercard-type=\"user\" data-hovercard-url=\"/users/MarcoFalke/hovercard\" data-octo-click=\"hovercard-link-click\" data-octo-dimensions=\"link_type:self\" href=\"https://github.com/MarcoFalke\">@MarcoFalke</a>. That's clearly the same issue.</p>",
    "body_text": "Thanks @MarcoFalke. That's clearly the same issue.",
    "body": "Thanks @MarcoFalke. That's clearly the same issue.",
    "reactions": {
      "url": "https://api.github.com/repos/bitcoin/bitcoin/issues/comments/399122961/reactions",
      "total_count": 0,
      "+1": 0,
      "-1": 0,
      "laugh": 0,
      "hooray": 0,
      "confused": 0,
      "heart": 0,
      "rocket": 0,
      "eyes": 0
    },
    "performed_via_github_app": null
  }
]
