{
  "url": "https://api.github.com/repos/bitcoin/bitcoin/issues/5769",
  "repository_url": "https://api.github.com/repos/bitcoin/bitcoin",
  "labels_url": "https://api.github.com/repos/bitcoin/bitcoin/issues/5769/labels{/name}",
  "comments_url": "https://api.github.com/repos/bitcoin/bitcoin/issues/5769/comments",
  "events_url": "https://api.github.com/repos/bitcoin/bitcoin/issues/5769/events",
  "html_url": "https://github.com/bitcoin/bitcoin/pull/5769",
  "id": 56938454,
  "node_id": "MDExOlB1bGxSZXF1ZXN0Mjg4NzUzMTY=",
  "number": 5769,
  "title": "TRIVIAL: Refactor: inline CTxIn::IsFinal() [ only used in main::IsFinalTx() ]",
  "user": {
    "login": "jtimon",
    "id": 1008458,
    "node_id": "MDQ6VXNlcjEwMDg0NTg=",
    "avatar_url": "https://avatars.githubusercontent.com/u/1008458?v=4",
    "gravatar_id": "",
    "url": "https://api.github.com/users/jtimon",
    "html_url": "https://github.com/jtimon",
    "followers_url": "https://api.github.com/users/jtimon/followers",
    "following_url": "https://api.github.com/users/jtimon/following{/other_user}",
    "gists_url": "https://api.github.com/users/jtimon/gists{/gist_id}",
    "starred_url": "https://api.github.com/users/jtimon/starred{/owner}{/repo}",
    "subscriptions_url": "https://api.github.com/users/jtimon/subscriptions",
    "organizations_url": "https://api.github.com/users/jtimon/orgs",
    "repos_url": "https://api.github.com/users/jtimon/repos",
    "events_url": "https://api.github.com/users/jtimon/events{/privacy}",
    "received_events_url": "https://api.github.com/users/jtimon/received_events",
    "type": "User",
    "site_admin": false
  },
  "labels": [

  ],
  "state": "closed",
  "locked": true,
  "assignee": null,
  "assignees": [

  ],
  "milestone": null,
  "comments": 4,
  "created_at": "2015-02-08T04:25:22Z",
  "updated_at": "2021-09-08T10:44:25Z",
  "closed_at": "2015-02-13T20:20:52Z",
  "author_association": "CONTRIBUTOR",
  "active_lock_reason": "resolved",
  "draft": false,
  "pull_request": {
    "url": "https://api.github.com/repos/bitcoin/bitcoin/pulls/5769",
    "html_url": "https://github.com/bitcoin/bitcoin/pull/5769",
    "diff_url": "https://github.com/bitcoin/bitcoin/pull/5769.diff",
    "patch_url": "https://github.com/bitcoin/bitcoin/pull/5769.patch",
    "merged_at": null
  },
  "body_html": "<p dir=\"auto\">Less lines.</p>",
  "body_text": "Less lines.",
  "body": "Less lines.\n",
  "closed_by": {
    "login": "jtimon",
    "id": 1008458,
    "node_id": "MDQ6VXNlcjEwMDg0NTg=",
    "avatar_url": "https://avatars.githubusercontent.com/u/1008458?v=4",
    "gravatar_id": "",
    "url": "https://api.github.com/users/jtimon",
    "html_url": "https://github.com/jtimon",
    "followers_url": "https://api.github.com/users/jtimon/followers",
    "following_url": "https://api.github.com/users/jtimon/following{/other_user}",
    "gists_url": "https://api.github.com/users/jtimon/gists{/gist_id}",
    "starred_url": "https://api.github.com/users/jtimon/starred{/owner}{/repo}",
    "subscriptions_url": "https://api.github.com/users/jtimon/subscriptions",
    "organizations_url": "https://api.github.com/users/jtimon/orgs",
    "repos_url": "https://api.github.com/users/jtimon/repos",
    "events_url": "https://api.github.com/users/jtimon/events{/privacy}",
    "received_events_url": "https://api.github.com/users/jtimon/received_events",
    "type": "User",
    "site_admin": false
  },
  "reactions": {
    "url": "https://api.github.com/repos/bitcoin/bitcoin/issues/5769/reactions",
    "total_count": 0,
    "+1": 0,
    "-1": 0,
    "laugh": 0,
    "hooray": 0,
    "confused": 0,
    "heart": 0,
    "rocket": 0,
    "eyes": 0
  },
  "timeline_url": "https://api.github.com/repos/bitcoin/bitcoin/issues/5769/timeline",
  "performed_via_github_app": null,
  "state_reason": null
}
