[
  {
    "url": "https://api.github.com/repos/bitcoin/bitcoin/issues/comments/961421085",
    "html_url": "https://github.com/bitcoin/bitcoin/pull/23436#issuecomment-961421085",
    "issue_url": "https://api.github.com/repos/bitcoin/bitcoin/issues/23436",
    "id": 961421085,
    "node_id": "IC_kwDOABII5845Th8d",
    "user": {
      "login": "ghost",
      "id": 10137,
      "node_id": "MDQ6VXNlcjEwMTM3",
      "avatar_url": "https://avatars.githubusercontent.com/u/10137?v=4",
      "gravatar_id": "",
      "url": "https://api.github.com/users/ghost",
      "html_url": "https://github.com/ghost",
      "followers_url": "https://api.github.com/users/ghost/followers",
      "following_url": "https://api.github.com/users/ghost/following{/other_user}",
      "gists_url": "https://api.github.com/users/ghost/gists{/gist_id}",
      "starred_url": "https://api.github.com/users/ghost/starred{/owner}{/repo}",
      "subscriptions_url": "https://api.github.com/users/ghost/subscriptions",
      "organizations_url": "https://api.github.com/users/ghost/orgs",
      "repos_url": "https://api.github.com/users/ghost/repos",
      "events_url": "https://api.github.com/users/ghost/events{/privacy}",
      "received_events_url": "https://api.github.com/users/ghost/received_events",
      "type": "User",
      "site_admin": false
    },
    "created_at": "2021-11-04T21:05:03Z",
    "updated_at": "2021-11-04T21:05:03Z",
    "author_association": "NONE",
    "body_html": "<p dir=\"auto\"><a class=\"user-mention notranslate\" data-hovercard-type=\"user\" data-hovercard-url=\"/users/jonatack/hovercard\" data-octo-click=\"hovercard-link-click\" data-octo-dimensions=\"link_type:self\" href=\"https://github.com/jonatack\">@jonatack</a> See also: <a href=\"https://bbs.archlinux.org/viewtopic.php?pid=1810123#p1810123\" rel=\"nofollow\">https://bbs.archlinux.org/viewtopic.php?pid=1810123#p1810123</a></p>",
    "body_text": "@jonatack See also: https://bbs.archlinux.org/viewtopic.php?pid=1810123#p1810123",
    "body": "@jonatack See also: https://bbs.archlinux.org/viewtopic.php?pid=1810123#p1810123",
    "reactions": {
      "url": "https://api.github.com/repos/bitcoin/bitcoin/issues/comments/961421085/reactions",
      "total_count": 0,
      "+1": 0,
      "-1": 0,
      "laugh": 0,
      "hooray": 0,
      "confused": 0,
      "heart": 0,
      "rocket": 0,
      "eyes": 0
    },
    "performed_via_github_app": null
  },
  {
    "url": "https://api.github.com/repos/bitcoin/bitcoin/issues/comments/963007454",
    "html_url": "https://github.com/bitcoin/bitcoin/pull/23436#issuecomment-963007454",
    "issue_url": "https://api.github.com/repos/bitcoin/bitcoin/issues/23436",
    "id": 963007454,
    "node_id": "IC_kwDOABII5845ZlPe",
    "user": {
      "login": "laanwj",
      "id": 126646,
      "node_id": "MDQ6VXNlcjEyNjY0Ng==",
      "avatar_url": "https://avatars.githubusercontent.com/u/126646?v=4",
      "gravatar_id": "",
      "url": "https://api.github.com/users/laanwj",
      "html_url": "https://github.com/laanwj",
      "followers_url": "https://api.github.com/users/laanwj/followers",
      "following_url": "https://api.github.com/users/laanwj/following{/other_user}",
      "gists_url": "https://api.github.com/users/laanwj/gists{/gist_id}",
      "starred_url": "https://api.github.com/users/laanwj/starred{/owner}{/repo}",
      "subscriptions_url": "https://api.github.com/users/laanwj/subscriptions",
      "organizations_url": "https://api.github.com/users/laanwj/orgs",
      "repos_url": "https://api.github.com/users/laanwj/repos",
      "events_url": "https://api.github.com/users/laanwj/events{/privacy}",
      "received_events_url": "https://api.github.com/users/laanwj/received_events",
      "type": "User",
      "site_admin": false
    },
    "created_at": "2021-11-08T10:21:16Z",
    "updated_at": "2021-11-08T10:21:16Z",
    "author_association": "MEMBER",
    "body_html": "<p dir=\"auto\">Thanks for your contribution. Please change the PR title and commit message to summarize your change, \"Update build-unix.md\" says nothing. Maybe \"doc: Fix Arch PKGBUILD link in build-unix.md\".</p>",
    "body_text": "Thanks for your contribution. Please change the PR title and commit message to summarize your change, \"Update build-unix.md\" says nothing. Maybe \"doc: Fix Arch PKGBUILD link in build-unix.md\".",
    "body": "Thanks for your contribution. Please change the PR title and commit message to summarize your change, \"Update build-unix.md\" says nothing. Maybe \"doc: Fix Arch PKGBUILD link in build-unix.md\".",
    "reactions": {
      "url": "https://api.github.com/repos/bitcoin/bitcoin/issues/comments/963007454/reactions",
      "total_count": 0,
      "+1": 0,
      "-1": 0,
      "laugh": 0,
      "hooray": 0,
      "confused": 0,
      "heart": 0,
      "rocket": 0,
      "eyes": 0
    },
    "performed_via_github_app": null
  },
  {
    "url": "https://api.github.com/repos/bitcoin/bitcoin/issues/comments/963839258",
    "html_url": "https://github.com/bitcoin/bitcoin/pull/23436#issuecomment-963839258",
    "issue_url": "https://api.github.com/repos/bitcoin/bitcoin/issues/23436",
    "id": 963839258,
    "node_id": "IC_kwDOABII5845cwUa",
    "user": {
      "login": "DrahtBot",
      "id": 39886733,
      "node_id": "MDQ6VXNlcjM5ODg2NzMz",
      "avatar_url": "https://avatars.githubusercontent.com/u/39886733?v=4",
      "gravatar_id": "",
      "url": "https://api.github.com/users/DrahtBot",
      "html_url": "https://github.com/DrahtBot",
      "followers_url": "https://api.github.com/users/DrahtBot/followers",
      "following_url": "https://api.github.com/users/DrahtBot/following{/other_user}",
      "gists_url": "https://api.github.com/users/DrahtBot/gists{/gist_id}",
      "starred_url": "https://api.github.com/users/DrahtBot/starred{/owner}{/repo}",
      "subscriptions_url": "https://api.github.com/users/DrahtBot/subscriptions",
      "organizations_url": "https://api.github.com/users/DrahtBot/orgs",
      "repos_url": "https://api.github.com/users/DrahtBot/repos",
      "events_url": "https://api.github.com/users/DrahtBot/events{/privacy}",
      "received_events_url": "https://api.github.com/users/DrahtBot/received_events",
      "type": "User",
      "site_admin": false
    },
    "created_at": "2021-11-09T05:52:43Z",
    "updated_at": "2021-11-09T05:52:43Z",
    "author_association": "CONTRIBUTOR",
    "body_html": "\n<p dir=\"auto\">The following sections might be updated with supplementary metadata relevant to reviewers and maintainers.</p>\n\n<h3 dir=\"auto\">Conflicts</h3>\n<p dir=\"auto\">Reviewers, this pull request conflicts with the following ones:</p>\n<ul dir=\"auto\">\n<li><a href=\"https://github.com/bitcoin/bitcoin/pull/23470\" data-hovercard-type=\"pull_request\" data-hovercard-url=\"/bitcoin/bitcoin/pull/23470/hovercard\">#23470</a> (doc: consolidate legacy wallet documentation by fanquake)</li>\n</ul>\n<p dir=\"auto\">If you consider this pull request important, please also help to review the conflicting pull requests. Ideally, start with the one that should be merged first.</p>",
    "body_text": "The following sections might be updated with supplementary metadata relevant to reviewers and maintainers.\n\nConflicts\nReviewers, this pull request conflicts with the following ones:\n\n#23470 (doc: consolidate legacy wallet documentation by fanquake)\n\nIf you consider this pull request important, please also help to review the conflicting pull requests. Ideally, start with the one that should be merged first.",
    "body": "<!--e57a25ab6845829454e8d69fc972939a-->\n\nThe following sections might be updated with supplementary metadata relevant to reviewers and maintainers.\n\n<!--174a7506f384e20aa4161008e828411d-->\n### Conflicts\nReviewers, this pull request conflicts with the following ones:\n\n* [#23470](https://github.com/bitcoin/bitcoin/pull/23470) (doc: consolidate legacy wallet documentation by fanquake)\n\nIf you consider this pull request important, please also help to review the conflicting pull requests. Ideally, start with the one that should be merged first.",
    "reactions": {
      "url": "https://api.github.com/repos/bitcoin/bitcoin/issues/comments/963839258/reactions",
      "total_count": 0,
      "+1": 0,
      "-1": 0,
      "laugh": 0,
      "hooray": 0,
      "confused": 0,
      "heart": 0,
      "rocket": 0,
      "eyes": 0
    },
    "performed_via_github_app": null
  },
  {
    "url": "https://api.github.com/repos/bitcoin/bitcoin/issues/comments/968238235",
    "html_url": "https://github.com/bitcoin/bitcoin/pull/23436#issuecomment-968238235",
    "issue_url": "https://api.github.com/repos/bitcoin/bitcoin/issues/23436",
    "id": 968238235,
    "node_id": "IC_kwDOABII5845tiSb",
    "user": {
      "login": "maflcko",
      "id": 6399679,
      "node_id": "MDQ6VXNlcjYzOTk2Nzk=",
      "avatar_url": "https://avatars.githubusercontent.com/u/6399679?v=4",
      "gravatar_id": "",
      "url": "https://api.github.com/users/maflcko",
      "html_url": "https://github.com/maflcko",
      "followers_url": "https://api.github.com/users/maflcko/followers",
      "following_url": "https://api.github.com/users/maflcko/following{/other_user}",
      "gists_url": "https://api.github.com/users/maflcko/gists{/gist_id}",
      "starred_url": "https://api.github.com/users/maflcko/starred{/owner}{/repo}",
      "subscriptions_url": "https://api.github.com/users/maflcko/subscriptions",
      "organizations_url": "https://api.github.com/users/maflcko/orgs",
      "repos_url": "https://api.github.com/users/maflcko/repos",
      "events_url": "https://api.github.com/users/maflcko/events{/privacy}",
      "received_events_url": "https://api.github.com/users/maflcko/received_events",
      "type": "User",
      "site_admin": false
    },
    "created_at": "2021-11-14T07:36:47Z",
    "updated_at": "2021-11-14T07:36:47Z",
    "author_association": "MEMBER",
    "body_html": "<p dir=\"auto\">Please squash your commits according to <a href=\"https://github.com/bitcoin/bitcoin/blob/master/CONTRIBUTING.md#squashing-commits\">https://github.com/bitcoin/bitcoin/blob/master/CONTRIBUTING.md#squashing-commits</a></p>",
    "body_text": "Please squash your commits according to https://github.com/bitcoin/bitcoin/blob/master/CONTRIBUTING.md#squashing-commits",
    "body": "Please squash your commits according to https://github.com/bitcoin/bitcoin/blob/master/CONTRIBUTING.md#squashing-commits",
    "reactions": {
      "url": "https://api.github.com/repos/bitcoin/bitcoin/issues/comments/968238235/reactions",
      "total_count": 0,
      "+1": 0,
      "-1": 0,
      "laugh": 0,
      "hooray": 0,
      "confused": 0,
      "heart": 0,
      "rocket": 0,
      "eyes": 0
    },
    "performed_via_github_app": null
  },
  {
    "url": "https://api.github.com/repos/bitcoin/bitcoin/issues/comments/968386967",
    "html_url": "https://github.com/bitcoin/bitcoin/pull/23436#issuecomment-968386967",
    "issue_url": "https://api.github.com/repos/bitcoin/bitcoin/issues/23436",
    "id": 968386967,
    "node_id": "IC_kwDOABII5845uGmX",
    "user": {
      "login": "ghost",
      "id": 10137,
      "node_id": "MDQ6VXNlcjEwMTM3",
      "avatar_url": "https://avatars.githubusercontent.com/u/10137?v=4",
      "gravatar_id": "",
      "url": "https://api.github.com/users/ghost",
      "html_url": "https://github.com/ghost",
      "followers_url": "https://api.github.com/users/ghost/followers",
      "following_url": "https://api.github.com/users/ghost/following{/other_user}",
      "gists_url": "https://api.github.com/users/ghost/gists{/gist_id}",
      "starred_url": "https://api.github.com/users/ghost/starred{/owner}{/repo}",
      "subscriptions_url": "https://api.github.com/users/ghost/subscriptions",
      "organizations_url": "https://api.github.com/users/ghost/orgs",
      "repos_url": "https://api.github.com/users/ghost/repos",
      "events_url": "https://api.github.com/users/ghost/events{/privacy}",
      "received_events_url": "https://api.github.com/users/ghost/received_events",
      "type": "User",
      "site_admin": false
    },
    "created_at": "2021-11-14T23:35:33Z",
    "updated_at": "2021-11-14T23:35:33Z",
    "author_association": "NONE",
    "body_html": "<blockquote>\n<p dir=\"auto\">Please squash your commits according to <a href=\"https://github.com/bitcoin/bitcoin/blob/master/CONTRIBUTING.md#squashing-commits\">https://github.com/bitcoin/bitcoin/blob/master/CONTRIBUTING.md#squashing-commits</a></p>\n</blockquote>\n<p dir=\"auto\">Thanks. should be better now.</p>",
    "body_text": "Please squash your commits according to https://github.com/bitcoin/bitcoin/blob/master/CONTRIBUTING.md#squashing-commits\n\nThanks. should be better now.",
    "body": "> Please squash your commits according to https://github.com/bitcoin/bitcoin/blob/master/CONTRIBUTING.md#squashing-commits\r\n\r\nThanks. should be better now.",
    "reactions": {
      "url": "https://api.github.com/repos/bitcoin/bitcoin/issues/comments/968386967/reactions",
      "total_count": 0,
      "+1": 0,
      "-1": 0,
      "laugh": 0,
      "hooray": 0,
      "confused": 0,
      "heart": 0,
      "rocket": 0,
      "eyes": 0
    },
    "performed_via_github_app": null
  }
]
