[
  {
    "url": "https://api.github.com/repos/bitcoin/bitcoin/issues/comments/909900289",
    "html_url": "https://github.com/bitcoin/bitcoin/pull/22851#issuecomment-909900289",
    "issue_url": "https://api.github.com/repos/bitcoin/bitcoin/issues/22851",
    "id": 909900289,
    "node_id": "IC_kwDOABII5842O_oB",
    "user": {
      "login": "siv2r",
      "id": 56887198,
      "node_id": "MDQ6VXNlcjU2ODg3MTk4",
      "avatar_url": "https://avatars.githubusercontent.com/u/56887198?v=4",
      "gravatar_id": "",
      "url": "https://api.github.com/users/siv2r",
      "html_url": "https://github.com/siv2r",
      "followers_url": "https://api.github.com/users/siv2r/followers",
      "following_url": "https://api.github.com/users/siv2r/following{/other_user}",
      "gists_url": "https://api.github.com/users/siv2r/gists{/gist_id}",
      "starred_url": "https://api.github.com/users/siv2r/starred{/owner}{/repo}",
      "subscriptions_url": "https://api.github.com/users/siv2r/subscriptions",
      "organizations_url": "https://api.github.com/users/siv2r/orgs",
      "repos_url": "https://api.github.com/users/siv2r/repos",
      "events_url": "https://api.github.com/users/siv2r/events{/privacy}",
      "received_events_url": "https://api.github.com/users/siv2r/received_events",
      "type": "User",
      "site_admin": false
    },
    "created_at": "2021-09-01T05:22:24Z",
    "updated_at": "2021-11-10T19:22:54Z",
    "author_association": "NONE",
    "body_html": "<p dir=\"auto\"><em><strong>To Do</strong></em></p>\n<ul class=\"contains-task-list\">\n<li class=\"task-list-item\"><input type=\"checkbox\" id=\"\" disabled=\"\" class=\"task-list-item-checkbox\"> Separate chacha20 tests (<em>needs pybind11 bindings to be enabled</em>) and chacha20 python implementation.</li>\n<li class=\"task-list-item\"><input type=\"checkbox\" id=\"\" disabled=\"\" class=\"task-list-item-checkbox\"> Integrate Makefile into the build process</li>\n<li class=\"task-list-item\"><input type=\"checkbox\" id=\"\" disabled=\"\" class=\"task-list-item-checkbox\"> Update necessary docs</li>\n</ul>",
    "body_text": "To Do\n\n Separate chacha20 tests (needs pybind11 bindings to be enabled) and chacha20 python implementation.\n Integrate Makefile into the build process\n Update necessary docs",
    "body": "_**To Do**_\r\n- [ ] Separate chacha20 tests (_needs pybind11 bindings to be enabled_) and chacha20 python implementation.\r\n- [ ] Integrate Makefile into the build process\r\n- [ ] Update necessary docs",
    "reactions": {
      "url": "https://api.github.com/repos/bitcoin/bitcoin/issues/comments/909900289/reactions",
      "total_count": 0,
      "+1": 0,
      "-1": 0,
      "laugh": 0,
      "hooray": 0,
      "confused": 0,
      "heart": 0,
      "rocket": 0,
      "eyes": 0
    },
    "performed_via_github_app": null
  },
  {
    "url": "https://api.github.com/repos/bitcoin/bitcoin/issues/comments/909987751",
    "html_url": "https://github.com/bitcoin/bitcoin/pull/22851#issuecomment-909987751",
    "issue_url": "https://api.github.com/repos/bitcoin/bitcoin/issues/22851",
    "id": 909987751,
    "node_id": "IC_kwDOABII5842PU-n",
    "user": {
      "login": "DrahtBot",
      "id": 39886733,
      "node_id": "MDQ6VXNlcjM5ODg2NzMz",
      "avatar_url": "https://avatars.githubusercontent.com/u/39886733?v=4",
      "gravatar_id": "",
      "url": "https://api.github.com/users/DrahtBot",
      "html_url": "https://github.com/DrahtBot",
      "followers_url": "https://api.github.com/users/DrahtBot/followers",
      "following_url": "https://api.github.com/users/DrahtBot/following{/other_user}",
      "gists_url": "https://api.github.com/users/DrahtBot/gists{/gist_id}",
      "starred_url": "https://api.github.com/users/DrahtBot/starred{/owner}{/repo}",
      "subscriptions_url": "https://api.github.com/users/DrahtBot/subscriptions",
      "organizations_url": "https://api.github.com/users/DrahtBot/orgs",
      "repos_url": "https://api.github.com/users/DrahtBot/repos",
      "events_url": "https://api.github.com/users/DrahtBot/events{/privacy}",
      "received_events_url": "https://api.github.com/users/DrahtBot/received_events",
      "type": "User",
      "site_admin": false
    },
    "created_at": "2021-09-01T07:07:18Z",
    "updated_at": "2022-04-10T16:18:45Z",
    "author_association": "CONTRIBUTOR",
    "body_html": "\n<p dir=\"auto\">The following sections might be updated with supplementary metadata relevant to reviewers and maintainers.</p>\n\n<h3 dir=\"auto\">Conflicts</h3>\n<p dir=\"auto\">Reviewers, this pull request conflicts with the following ones:</p>\n<ul dir=\"auto\">\n<li><a href=\"https://github.com/bitcoin/bitcoin/pull/24005\" data-hovercard-type=\"pull_request\" data-hovercard-url=\"/bitcoin/bitcoin/pull/24005/hovercard\">#24005</a> (test: add python implementation of Elligator squared by stratospher)</li>\n</ul>\n<p dir=\"auto\">If you consider this pull request important, please also help to review the conflicting pull requests. Ideally, start with the one that should be merged first.</p>",
    "body_text": "The following sections might be updated with supplementary metadata relevant to reviewers and maintainers.\n\nConflicts\nReviewers, this pull request conflicts with the following ones:\n\n#24005 (test: add python implementation of Elligator squared by stratospher)\n\nIf you consider this pull request important, please also help to review the conflicting pull requests. Ideally, start with the one that should be merged first.",
    "body": "<!--e57a25ab6845829454e8d69fc972939a-->\n\nThe following sections might be updated with supplementary metadata relevant to reviewers and maintainers.\n\n<!--174a7506f384e20aa4161008e828411d-->\n### Conflicts\nReviewers, this pull request conflicts with the following ones:\n\n* [#24005](https://github.com/bitcoin/bitcoin/pull/24005) (test: add python implementation of Elligator squared by stratospher)\n\nIf you consider this pull request important, please also help to review the conflicting pull requests. Ideally, start with the one that should be merged first.",
    "reactions": {
      "url": "https://api.github.com/repos/bitcoin/bitcoin/issues/comments/909987751/reactions",
      "total_count": 0,
      "+1": 0,
      "-1": 0,
      "laugh": 0,
      "hooray": 0,
      "confused": 0,
      "heart": 0,
      "rocket": 0,
      "eyes": 0
    },
    "performed_via_github_app": null
  },
  {
    "url": "https://api.github.com/repos/bitcoin/bitcoin/issues/comments/963238341",
    "html_url": "https://github.com/bitcoin/bitcoin/pull/22851#issuecomment-963238341",
    "issue_url": "https://api.github.com/repos/bitcoin/bitcoin/issues/22851",
    "id": 963238341,
    "node_id": "IC_kwDOABII5845adnF",
    "user": {
      "login": "laanwj",
      "id": 126646,
      "node_id": "MDQ6VXNlcjEyNjY0Ng==",
      "avatar_url": "https://avatars.githubusercontent.com/u/126646?v=4",
      "gravatar_id": "",
      "url": "https://api.github.com/users/laanwj",
      "html_url": "https://github.com/laanwj",
      "followers_url": "https://api.github.com/users/laanwj/followers",
      "following_url": "https://api.github.com/users/laanwj/following{/other_user}",
      "gists_url": "https://api.github.com/users/laanwj/gists{/gist_id}",
      "starred_url": "https://api.github.com/users/laanwj/starred{/owner}{/repo}",
      "subscriptions_url": "https://api.github.com/users/laanwj/subscriptions",
      "organizations_url": "https://api.github.com/users/laanwj/orgs",
      "repos_url": "https://api.github.com/users/laanwj/repos",
      "events_url": "https://api.github.com/users/laanwj/events{/privacy}",
      "received_events_url": "https://api.github.com/users/laanwj/received_events",
      "type": "User",
      "site_admin": false
    },
    "created_at": "2021-11-08T14:54:08Z",
    "updated_at": "2021-11-08T14:54:08Z",
    "author_association": "MEMBER",
    "body_html": "<p dir=\"auto\">I think it would make sense to split this into a pure-python part, and a part that requires C++ compilation/binding. The first part is more straightforward to review, the latter needs scrutiny from a build-system and cross-platform angle, complicating it.</p>",
    "body_text": "I think it would make sense to split this into a pure-python part, and a part that requires C++ compilation/binding. The first part is more straightforward to review, the latter needs scrutiny from a build-system and cross-platform angle, complicating it.",
    "body": "I think it would make sense to split this into a pure-python part, and a part that requires C++ compilation/binding. The first part is more straightforward to review, the latter needs scrutiny from a build-system and cross-platform angle, complicating it.",
    "reactions": {
      "url": "https://api.github.com/repos/bitcoin/bitcoin/issues/comments/963238341/reactions",
      "total_count": 1,
      "+1": 1,
      "-1": 0,
      "laugh": 0,
      "hooray": 0,
      "confused": 0,
      "heart": 0,
      "rocket": 0,
      "eyes": 0
    },
    "performed_via_github_app": null
  },
  {
    "url": "https://api.github.com/repos/bitcoin/bitcoin/issues/comments/1098821111",
    "html_url": "https://github.com/bitcoin/bitcoin/pull/22851#issuecomment-1098821111",
    "issue_url": "https://api.github.com/repos/bitcoin/bitcoin/issues/22851",
    "id": 1098821111,
    "node_id": "IC_kwDOABII585Bfq33",
    "user": {
      "login": "laanwj",
      "id": 126646,
      "node_id": "MDQ6VXNlcjEyNjY0Ng==",
      "avatar_url": "https://avatars.githubusercontent.com/u/126646?v=4",
      "gravatar_id": "",
      "url": "https://api.github.com/users/laanwj",
      "html_url": "https://github.com/laanwj",
      "followers_url": "https://api.github.com/users/laanwj/followers",
      "following_url": "https://api.github.com/users/laanwj/following{/other_user}",
      "gists_url": "https://api.github.com/users/laanwj/gists{/gist_id}",
      "starred_url": "https://api.github.com/users/laanwj/starred{/owner}{/repo}",
      "subscriptions_url": "https://api.github.com/users/laanwj/subscriptions",
      "organizations_url": "https://api.github.com/users/laanwj/orgs",
      "repos_url": "https://api.github.com/users/laanwj/repos",
      "events_url": "https://api.github.com/users/laanwj/events{/privacy}",
      "received_events_url": "https://api.github.com/users/laanwj/received_events",
      "type": "User",
      "site_admin": false
    },
    "created_at": "2022-04-14T08:01:27Z",
    "updated_at": "2022-04-14T08:01:27Z",
    "author_association": "MEMBER",
    "body_html": "<p dir=\"auto\">I'm closing this for now as it's been inactive for a long time. If you want to start work again, let me know and I'll reopen it.</p>",
    "body_text": "I'm closing this for now as it's been inactive for a long time. If you want to start work again, let me know and I'll reopen it.",
    "body": "I'm closing this for now as it's been inactive for a long time. If you want to start work again, let me know and I'll reopen it.",
    "reactions": {
      "url": "https://api.github.com/repos/bitcoin/bitcoin/issues/comments/1098821111/reactions",
      "total_count": 1,
      "+1": 1,
      "-1": 0,
      "laugh": 0,
      "hooray": 0,
      "confused": 0,
      "heart": 0,
      "rocket": 0,
      "eyes": 0
    },
    "performed_via_github_app": null
  }
]
